[
    {
        "col0": "S. Palmer",
        "col1": "Washington Redskins",
        "col2": "Fort Lauderdale, Florida",
        "col3": "101"
    },
    {
        "col0": "S. Gilmore",
        "col1": "Buffalo Bills",
        "col2": "Rock Hill, South Carolina",
        "col3": "10"
    },
    {
        "col0": "S. Nicholas",
        "col1": "Atlanta Falcons",
        "col2": "Jacksonville, Florida",
        "col3": "109"
    },
    {
        "col0": "S. McGee",
        "col1": "Dallas Cowboys",
        "col2": "Round Rock, Texas",
        "col3": "101"
    },
    {
        "col0": "S. Williams",
        "col1": "Dallas Cowboys",
        "col2": "Minden, Louisiana",
        "col3": "94"
    },
    {
        "col0": "S. Humphries",
        "col1": "Chicago Bears",
        "col2": "Fort Lauderdale, Florida",
        "col3": "71"
    },
    {
        "col0": "S. Havili",
        "col1": "Philadelphia Eagles",
        "col2": "Salt Lake City",
        "col3": "240"
    },
    {
        "col0": "S. Jennings",
        "col1": "Cincinnati Bengals",
        "col2": "Summerville, South Carolina",
        "col3": "65"
    },
    {
        "col0": "S. Walters",
        "col1": "Cincinnati Bengals",
        "col2": "Rutherford, New Jersey",
        "col3": "210"
    },
    {
        "col0": "S. Sczurek",
        "col1": "Cleveland Browns",
        "col2": "Cleveland, Ohio",
        "col3": "53"
    },
    {
        "col0": "S. Petry",
        "col1": "Kansas City Chiefs",
        "col2": "Alvin, Texas",
        "col3": "88"
    },
    {
        "col0": "S. Brock",
        "col1": "New Orleans Saints",
        "col2": "Portland, Oregon",
        "col3": "12"
    },
    {
        "col0": "S. McGee",
        "col1": "Oakland Raiders",
        "col2": "Muskogee, Oklahoma",
        "col3": "205"
    },
    {
        "col0": "S. Dillard",
        "col1": "New York Giants",
        "col2": "Clarksville, Texas",
        "col3": "153"
    },
    {
        "col0": "S. Drango",
        "col1": "Cleveland Browns",
        "col2": "Indianapolis, Indiana",
        "col3": "168"
    },
    {
        "col0": "S. Adkins",
        "col1": "Atlanta Falcons",
        "col2": "Naples, Florida",
        "col3": "176"
    },
    {
        "col0": "S. Gibbs",
        "col1": "Dallas Cowboys",
        "col2": "Graham, Texas",
        "col3": "18"
    },
    {
        "col0": "S. Collins",
        "col1": "Atlanta Falcons",
        "col2": "Madisonville, Kentucky",
        "col3": "36"
    },
    {
        "col0": "S. Minnis",
        "col1": "Kansas City Chiefs",
        "col2": "Miami, Florida",
        "col3": "77"
    },
    {
        "col0": "S. Thomas",
        "col1": "Oakland Raiders",
        "col2": "Higginsville, Missouri",
        "col3": "176"
    },
    {
        "col0": "S. Moss",
        "col1": "New York Giants",
        "col2": "Miami, Florida",
        "col3": "44"
    },
    {
        "col0": "S. Rice",
        "col1": "Minnesota Vikings",
        "col2": "Gaffney, South Carolina",
        "col3": "44"
    },
    {
        "col0": "S. Shabazz",
        "col1": "Oakland Raiders",
        "col2": "Frankfurt, Germany",
        "col3": "246"
    },
    {
        "col0": "S. Greene",
        "col1": "New York Jets",
        "col2": "Sicklerville, New Jersey",
        "col3": "65"
    },
    {
        "col0": "S. Smith",
        "col1": "Tampa Bay Buccaneers",
        "col2": "Miami, Florida",
        "col3": "184"
    },
    {
        "col0": "S. Martin",
        "col1": "Carolina Panthers",
        "col2": "Griffin, Georgia",
        "col3": "59"
    },
    {
        "col0": "S. Smith",
        "col1": "Houston Texans",
        "col2": "Phoenix, Arizona",
        "col3": "187"
    },
    {
        "col0": "S. Brown",
        "col1": "Philadelphia Eagles",
        "col2": "Lancaster, South Carolina",
        "col3": "59"
    },
    {
        "col0": "S. McClellin",
        "col1": "Chicago Bears",
        "col2": "Caldwell, Idaho",
        "col3": "19"
    },
    {
        "col0": "S. Spencer",
        "col1": "San Francisco 49ers",
        "col2": "Rankin, Pennsylvania",
        "col3": "58"
    },
    {
        "col0": "S. Merriman",
        "col1": "San Diego Chargers",
        "col2": "Washington, D.C.",
        "col3": "12"
    },
    {
        "col0": "S. Springs",
        "col1": "Seattle Seahawks",
        "col2": "Williamsburg, Virginia",
        "col3": "3"
    },
    {
        "col0": "S. Moore",
        "col1": "Denver Broncos",
        "col2": "Martinsville, Virginia",
        "col3": "284"
    },
    {
        "col0": "S. Lee",
        "col1": "Tampa Bay Buccaneers",
        "col2": "Brooklyn, New York",
        "col3": "163"
    },
    {
        "col0": "S. Knight",
        "col1": "New Orleans Saints",
        "col2": "Provo, Utah",
        "col3": "11"
    },
    {
        "col0": "S. King",
        "col1": "Carolina Panthers",
        "col2": "West Monroe, Louisiana",
        "col3": "36"
    },
    {
        "col0": "S. Collins",
        "col1": "Atlanta Falcons",
        "col2": "San Diego",
        "col3": "27"
    },
    {
        "col0": "S. Andrews",
        "col1": "Philadelphia Eagles",
        "col2": "Camden, Arkansas",
        "col3": "16"
    },
    {
        "col0": "S. Rogers",
        "col1": "Detroit Lions",
        "col2": "Houston",
        "col3": "61"
    },
    {
        "col0": "S. Phillips",
        "col1": "San Diego Chargers",
        "col2": "Philadelphia",
        "col3": "98"
    },
    {
        "col0": "S. Chapas",
        "col1": "Dallas Cowboys",
        "col2": "St. Augustine, Florida",
        "col3": "220"
    },
    {
        "col0": "S. Schillinger",
        "col1": "Atlanta Falcons",
        "col2": "Baker, Montana",
        "col3": "171"
    },
    {
        "col0": "S. Walton",
        "col1": "St. Louis Rams",
        "col2": "San Diego, California",
        "col3": "170"
    },
    {
        "col0": "S. Olivea",
        "col1": "San Diego Chargers",
        "col2": "Cedarhurst, New York",
        "col3": "209"
    },
    {
        "col0": "S. Conlan",
        "col1": "Buffalo Bills",
        "col2": "New York City",
        "col3": "8"
    },
    {
        "col0": "S. Thomas",
        "col1": "Pittsburgh Steelers",
        "col2": "Virginia Beach, Virginia",
        "col3": "111"
    },
    {
        "col0": "S. Meier",
        "col1": "Tennessee Titans",
        "col2": "St. Louis, Missouri",
        "col3": "28"
    },
    {
        "col0": "S. Wand",
        "col1": "Houston Texans",
        "col2": "Springfield, Missouri",
        "col3": "75"
    },
    {
        "col0": "S. McKinney",
        "col1": "Miami Dolphins",
        "col2": "Buffalo, Texas",
        "col3": "90"
    },
    {
        "col0": "S. Shaw",
        "col1": "New England Patriots",
        "col2": "Austin, Texas",
        "col3": "61"
    },
    {
        "col0": "S. Ellis",
        "col1": "New Orleans Saints",
        "col2": "Los Angeles, California",
        "col3": "7"
    },
    {
        "col0": "S. Clark",
        "col1": "Baltimore Ravens",
        "col2": "Missouri City, Texas",
        "col3": "220"
    },
    {
        "col0": "S. Weatherspoon",
        "col1": "Atlanta Falcons",
        "col2": "Greenville, South Carolina",
        "col3": "19"
    },
    {
        "col0": "S. Spence",
        "col1": "Pittsburgh Steelers",
        "col2": "Miami, Florida",
        "col3": "86"
    },
    {
        "col0": "S. Smith",
        "col1": "New England Patriots",
        "col2": "Cincinnati, Ohio",
        "col3": "280"
    }
]