[
    {
        "col0": "Zahrat Dubai",
        "col1": "Ahmed Bin Rashid Al Maktoum",
        "col2": "Star Appeal",
        "col3": "Unfuwain",
        "col4": "Northern Dancer",
        "col5": "1996-02-29"
    },
    {
        "col0": "Zagreb",
        "col1": "A. Paulson",
        "col2": "Wollow",
        "col3": "Theatrical",
        "col4": "Nureyev",
        "col5": "1993-05-14"
    },
    {
        "col0": "Zafonic",
        "col1": "J. Farms",
        "col2": "The Minstrel",
        "col3": "Gone West",
        "col4": "Mr. Prospector",
        "col5": "1990-04-01"
    },
    {
        "col0": "Zabeel",
        "col1": "C. Stud",
        "col2": "Nureyev",
        "col3": "Sir Tristram",
        "col4": "Sir Ivor",
        "col5": "1986-10-25"
    },
    {
        "col0": "Xaar",
        "col1": "J. Farms",
        "col2": "Sir Ivor",
        "col3": "Zafonic",
        "col4": "Gone West",
        "col5": "1995-03-14"
    },
    {
        "col0": "Winsili",
        "col1": "J. Farms",
        "col2": "Pivotal",
        "col3": "Dansili",
        "col4": "Danehill",
        "col5": "2010-02-01"
    },
    {
        "col0": "Wings of Desire",
        "col1": "A. Bamford",
        "col2": "In the Wings",
        "col3": "Pivotal",
        "col4": "Polar Falcon",
        "col5": "2013-02-20"
    },
    {
        "col0": "Wince",
        "col1": "J. Farms",
        "col2": "Lyphard",
        "col3": "Selkirk",
        "col4": "Sharpen Up",
        "col5": "1996-04-26"
    },
    {
        "col0": "White Moonstone",
        "col1": "S. Stable",
        "col2": "Seeking The Gold",
        "col3": "Dynaformer",
        "col4": "Roberto",
        "col5": "2008-02-25"
    },
    {
        "col0": "Weekend Surprise",
        "col1": "L. E. Farm",
        "col2": "Buckpasser",
        "col3": "Secretariat",
        "col4": "Bold Ruler",
        "col5": "1980-04-08"
    },
    {
        "col0": "Warning",
        "col1": "J. Farms",
        "col2": "Roberto",
        "col3": "Known Fact",
        "col4": "In Reality",
        "col5": "1985-04-13"
    },
    {
        "col0": "War Command",
        "col1": "H. J. Allen",
        "col2": "Red Ransom",
        "col3": "War Front",
        "col4": "Danzig",
        "col5": "2011-04-27"
    },
    {
        "col0": "Vintage Crop",
        "col1": "Bertram & Diana Firestone",
        "col2": "Bustino",
        "col3": "Rousillon",
        "col4": "Riverman",
        "col5": "1987-03-01"
    },
    {
        "col0": "Victoire Pisa",
        "col1": "S. Farm",
        "col2": "Machiavellian",
        "col3": "Neo Universe",
        "col4": "Sunday Silence",
        "col5": "2007-03-31"
    },
    {
        "col0": "Vayrann",
        "col1": "A. K. IV",
        "col2": "Val de Loir",
        "col3": "Brigadier Gerard",
        "col4": "Queen's Hussar",
        "col5": "1978-04-07"
    },
    {
        "col0": "Tulyar",
        "col1": "A. K. III",
        "col2": "Nearco",
        "col3": "Tehran",
        "col4": "Bois Roussel",
        "col5": "1949-05-14"
    },
    {
        "col0": "Try My Best",
        "col1": "E. P. Taylor",
        "col2": "Buckpasser",
        "col3": "Northern Dancer",
        "col4": "Nearctic",
        "col5": "1975-04-28"
    },
    {
        "col0": "Triptych",
        "col1": "N. B. Hunt",
        "col2": "Hail To Reason",
        "col3": "Riverman",
        "col4": "Never Bend",
        "col5": "1982-04-19"
    },
    {
        "col0": "Treve",
        "col1": "H. d. Quesnay",
        "col2": "Anabaa",
        "col3": "Motivator",
        "col4": "Montjeu",
        "col5": "2010-04-07"
    },
    {
        "col0": "Trading Leather",
        "col1": "J. Bolger",
        "col2": "Sinndar",
        "col3": "Teofilo",
        "col4": "Galileo",
        "col5": "2010-03-20"
    },
    {
        "col0": "Toulon",
        "col1": "J. Farms",
        "col2": "Mill Reef",
        "col3": "Top Ville",
        "col4": "High Top",
        "col5": "1988-04-15"
    },
    {
        "col0": "Top Ville",
        "col1": "A. K. IV",
        "col2": "Charlottesville",
        "col3": "High Top",
        "col4": "Derring-Do",
        "col5": "1976-04-05"
    },
    {
        "col0": "Tinners Way",
        "col1": "J. Farms",
        "col2": "The Minstrel",
        "col3": "Secretariat",
        "col4": "Bold Ruler",
        "col5": "1990-05-25"
    },
    {
        "col0": "Theatrical",
        "col1": "Bertram & Diana Firestone",
        "col2": "Sassafras",
        "col3": "Nureyev",
        "col4": "Northern Dancer",
        "col5": "1982-03-13"
    },
    {
        "col0": "The Minstrel",
        "col1": "W. Farm",
        "col2": "Victoria Park",
        "col3": "Northern Dancer",
        "col4": "Nearctic",
        "col5": "1974-03-11"
    },
    {
        "col0": "Take Your Place",
        "col1": "G. Farm",
        "col2": "Nasrullah",
        "col3": "Round Table",
        "col4": "Princequillo",
        "col5": "1973-02-04"
    },
    {
        "col0": "Taghrooda",
        "col1": "S. Stud",
        "col2": "Sadler's Wells",
        "col3": "Sea The Stars",
        "col4": "Cape Cross",
        "col5": "2011-01-27"
    },
    {
        "col0": "Sweet Catomine",
        "col1": "M. Wygod",
        "col2": "Kris S",
        "col3": "Storm Cat",
        "col4": "Storm Bird",
        "col5": "2002-02-14"
    },
    {
        "col0": "Swale",
        "col1": "C. Farm",
        "col2": "Forli",
        "col3": "Seattle Slew",
        "col4": "Bold Reasoning",
        "col5": "1981-04-21"
    },
    {
        "col0": "Surplice",
        "col1": "L. G. Bentinck",
        "col2": "Priam",
        "col3": "Touchstone",
        "col4": "Camel",
        "col5": "1845-01-21"
    },
    {
        "col0": "Surfside",
        "col1": "O. Farm",
        "col2": "Seeking The Gold",
        "col3": "Seattle Slew",
        "col4": "Bold Reasoning",
        "col5": "1997-01-21"
    },
    {
        "col0": "Sunshack",
        "col1": "J. Farms",
        "col2": "Roberto",
        "col3": "Rainbow Quest",
        "col4": "Blushing Groom",
        "col5": "1991-02-08"
    },
    {
        "col0": "Sun Princess",
        "col1": "B. Stud",
        "col2": "Val de Loir",
        "col3": "English Prince",
        "col4": "Petingo",
        "col5": "1980-05-18"
    },
    {
        "col0": "Summer Squall",
        "col1": "William Stamps Farish III",
        "col2": "Secretariat",
        "col3": "Storm Bird",
        "col4": "Northern Dancer",
        "col5": "1987-03-12"
    },
    {
        "col0": "Sultanina",
        "col1": "N. Stud",
        "col2": "Zafonic",
        "col3": "New Approach",
        "col4": "Galileo",
        "col5": "2010-03-11"
    },
    {
        "col0": "Storm Bird",
        "col1": "W. Farm",
        "col2": "New Providence",
        "col3": "Northern Dancer",
        "col4": "Nearctic",
        "col5": "1978-04-19"
    },
    {
        "col0": "Starborough",
        "col1": "S. Mohammed",
        "col2": "Desert Wine",
        "col3": "Soviet Star",
        "col4": "Nureyev",
        "col5": "1994-05-15"
    },
    {
        "col0": "Spinning Queen",
        "col1": "Richard A. N. Bonnycastle",
        "col2": "Arazi",
        "col3": "Spinning World",
        "col4": "Nureyev",
        "col5": "2003-03-27"
    },
    {
        "col0": "Spectrum",
        "col1": "B. Stud",
        "col2": "Irish River",
        "col3": "Rainbow Quest",
        "col4": "Blushing Groom",
        "col5": "1992-05-08"
    },
    {
        "col0": "Spearmint",
        "col1": "S. baronets",
        "col2": "Minting",
        "col3": "Carbine",
        "col4": "Musket",
        "col5": "1903-04-06"
    },
    {
        "col0": "Soviet Song",
        "col1": "E. R. Club",
        "col2": "Soviet Star",
        "col3": "Marju",
        "col4": "Last Tycoon",
        "col5": "2000-02-18"
    },
    {
        "col0": "Sophisticat",
        "col1": "Robert and Beverly Lewis",
        "col2": "Rahy",
        "col3": "Storm Cat",
        "col4": "Storm Bird",
        "col5": "1999-01-25"
    },
    {
        "col0": "So Factual",
        "col1": "J. Farms",
        "col2": "Roberto",
        "col3": "Known Fact",
        "col4": "In Reality",
        "col5": "1990-03-04"
    },
    {
        "col0": "Siyouma",
        "col1": "A. K. IV",
        "col2": "Danehill",
        "col3": "Medicean",
        "col4": "Machiavellian",
        "col5": "2008-04-03"
    },
    {
        "col0": "Singspiel",
        "col1": "Mohammed bin Rashid Al Maktoum",
        "col2": "Halo",
        "col3": "In the Wings",
        "col4": "Sadler's Wells",
        "col5": "1992-02-25"
    },
    {
        "col0": "Sheriff's Star",
        "col1": "Lavinia Fitzalan-Howard, Duchess of Norfolk",
        "col2": "Kalamoun",
        "col3": "Posse",
        "col4": "Forli",
        "col5": "1985-04-27"
    },
    {
        "col0": "Shavian",
        "col1": "John Scott-Ellis, 9th Baron Howard de Walden",
        "col2": "Nijinsky",
        "col3": "Kris",
        "col4": "Sharpen Up",
        "col5": "1987-03-31"
    },
    {
        "col0": "Shareta",
        "col1": "A. K. IV",
        "col2": "Barathea",
        "col3": "Sinndar",
        "col4": "Grand Lodge",
        "col5": "2008-05-08"
    },
    {
        "col0": "Shamshir",
        "col1": "L. Cumani",
        "col2": "Be My Guest",
        "col3": "Kris",
        "col4": "Sharpen Up",
        "col5": "1988-02-21"
    },
    {
        "col0": "Shaman Ghost",
        "col1": "A. Springs",
        "col2": "Gilded Time",
        "col3": "Ghostzapper",
        "col4": "Awesome Again",
        "col5": "2012-05-05"
    },
    {
        "col0": "Shahrastani",
        "col1": "A. K. IV",
        "col2": "Thatch",
        "col3": "Nijinsky II",
        "col4": "Northern Dancer",
        "col5": "1983-03-27"
    },
    {
        "col0": "Seeking The Gold",
        "col1": "O. Phipps",
        "col2": "Buckpasser",
        "col3": "Mr. Prospector",
        "col4": "Raise a Native",
        "col5": "1985-04-07"
    },
    {
        "col0": "Seek Again",
        "col1": "J. Farms",
        "col2": "Danehill",
        "col3": "Speightstown",
        "col4": "Gone West",
        "col5": "2010-04-13"
    },
    {
        "col0": "Secreto",
        "col1": "E. P. Taylor",
        "col2": "Secretariat",
        "col3": "Northern Dancer",
        "col4": "Nearctic",
        "col5": "1981-02-12"
    },
    {
        "col0": "Secretariat",
        "col1": "C. Chenery",
        "col2": "Princequillo",
        "col3": "Bold Ruler",
        "col4": "Nasrullah",
        "col5": "1970-03-30"
    },
    {
        "col0": "Sea Moon",
        "col1": "J. Farms",
        "col2": "Alleged",
        "col3": "Beat Hollow",
        "col4": "Sadler's Wells",
        "col5": "2008-03-06"
    },
    {
        "col0": "Sakhee",
        "col1": "Hamdan bin Rashid Al Maktoum",
        "col2": "Sadler's Wells",
        "col3": "Bahri",
        "col4": "Riverman",
        "col5": "1997-02-14"
    },
    {
        "col0": "Saddlers' Hall",
        "col1": "B. Stud",
        "col2": "Val de Loir",
        "col3": "Sadler's Wells",
        "col4": "Northern Dancer",
        "col5": "1988-05-26"
    },
    {
        "col0": "Ryafan",
        "col1": "J. Farms",
        "col2": "Northern Dancer",
        "col3": "Lear Fan",
        "col4": "Roberto",
        "col5": "1994-03-08"
    },
    {
        "col0": "Rumplestiltskin",
        "col1": "S. Niarchos",
        "col2": "Mr. Prospector",
        "col3": "Danehill",
        "col4": "Danzig",
        "col5": "2003-02-17"
    },
    {
        "col0": "Rule of Law",
        "col1": "R. Sangster",
        "col2": "Royal Academy",
        "col3": "Kingmambo",
        "col4": "Mr. Prospector",
        "col5": "2001-03-06"
    },
    {
        "col0": "Royal Orbit",
        "col1": "L. B. Mayer",
        "col2": "War Admiral",
        "col3": "Royal Charger",
        "col4": "Nearco",
        "col5": "1956-04-25"
    },
    {
        "col0": "Royal Anthem",
        "col1": "J. A. Franks",
        "col2": "Ack Ack",
        "col3": "Theatrical",
        "col4": "Nureyev",
        "col5": "1995-04-02"
    },
    {
        "col0": "Roseate Tern",
        "col1": "Henry Herbert, 7th Earl of Carnarvon",
        "col2": "High Top",
        "col3": "Blakeney",
        "col4": "Hethersett",
        "col5": "1986-03-12"
    },
    {
        "col0": "Rock Hard Ten",
        "col1": "M. A. Pickens",
        "col2": "Mr. Prospector",
        "col3": "Kris S.",
        "col4": "Roberto",
        "col5": "2001-04-05"
    },
    {
        "col0": "Rite of Passage",
        "col1": "N. Park",
        "col2": "Kris S",
        "col3": "Giant's Causeway",
        "col4": "Storm Cat",
        "col5": "2004-03-29"
    },
    {
        "col0": "Reine de Saba",
        "col1": "J. Wertheimer",
        "col2": "Sicambre",
        "col3": "Lyphard",
        "col4": "Northern Dancer",
        "col5": "1975-05-07"
    },
    {
        "col0": "Regal Rose",
        "col1": "C. P. Stud",
        "col2": "Conquistador Cielo",
        "col3": "Danehill",
        "col4": "Danzig",
        "col5": "1998-05-07"
    },
    {
        "col0": "Refuse To Bend",
        "col1": "W. Haefner",
        "col2": "Gulch",
        "col3": "Sadler's Wells",
        "col4": "Northern Dancer",
        "col5": "2000-03-17"
    },
    {
        "col0": "Reference Point",
        "col1": "L. Freedman",
        "col2": "Habitat",
        "col3": "Mill Reef",
        "col4": "Never Bend",
        "col5": "1984-02-26"
    },
    {
        "col0": "Red Bloom",
        "col1": "C. P. Stud",
        "col2": "Polar Falcon",
        "col3": "Selkirk",
        "col4": "Sharpen Up",
        "col5": "2001-03-11"
    },
    {
        "col0": "Reams of Verse",
        "col1": "J. Farms",
        "col2": "Roberto",
        "col3": "Nureyev",
        "col4": "Northern Dancer",
        "col5": "1994-04-23"
    },
    {
        "col0": "Rainbow View",
        "col1": "A. Stable",
        "col2": "Nureyev",
        "col3": "Dynaformer",
        "col4": "Roberto",
        "col5": "2006-05-21"
    },
    {
        "col0": "Quiff",
        "col1": "J. Farms",
        "col2": "Selkirk",
        "col3": "Sadler's Wells",
        "col4": "Northern Dancer",
        "col5": "2001-03-02"
    },
    {
        "col0": "Quick As Lightning",
        "col1": "O. M. Phipps",
        "col2": "Bold Ruler",
        "col3": "Buckpasser",
        "col4": "Tom Fool",
        "col5": "1977-03-17"
    }
]