[
    {
        "col0": "E. Shelton",
        "col1": "Carolina Panthers",
        "col2": "Lexington, Kentucky",
        "col3": "54"
    },
    {
        "col0": "E. Moulds",
        "col1": "Buffalo Bills",
        "col2": "Lucedale, Mississippi",
        "col3": "24"
    },
    {
        "col0": "E. Moore",
        "col1": "New York Giants",
        "col2": "Berkeley, California",
        "col3": "10"
    },
    {
        "col0": "E. Mahlum",
        "col1": "Indianapolis Colts",
        "col2": "San Diego, California",
        "col3": "32"
    },
    {
        "col0": "E. Kush",
        "col1": "Kansas City Chiefs",
        "col2": "Bridgeville, Pennsylvania",
        "col3": "170"
    },
    {
        "col0": "E. Kumerow",
        "col1": "Miami Dolphins",
        "col2": "Chicago",
        "col3": "16"
    },
    {
        "col0": "E. Kelly",
        "col1": "Minnesota Vikings",
        "col2": "Milwaukee, Wisconsin",
        "col3": "69"
    },
    {
        "col0": "E. Johnson",
        "col1": "San Francisco 49ers",
        "col2": "Needham, Massachusetts",
        "col3": "224"
    },
    {
        "col0": "E. Hipple",
        "col1": "Detroit Lions",
        "col2": "Lubbock, Texas",
        "col3": "85"
    },
    {
        "col0": "E. Green",
        "col1": "Arizona Cardinals",
        "col2": "Pahokee, Florida",
        "col3": "75"
    },
    {
        "col0": "E. Ghiaciuc",
        "col1": "Cincinnati Bengals",
        "col2": "Oxford, Michigan",
        "col3": "119"
    },
    {
        "col0": "E. Frampton",
        "col1": "Detroit Lions",
        "col2": "San Jose, California",
        "col3": "165"
    },
    {
        "col0": "E. Downing",
        "col1": "Kansas City Chiefs",
        "col2": "Ahoskie, North Carolina",
        "col3": "75"
    },
    {
        "col0": "E. Curry",
        "col1": "Tampa Bay Buccaneers",
        "col2": "Thomasville, Georgia",
        "col3": "6"
    },
    {
        "col0": "E. Brown",
        "col1": "Denver Broncos",
        "col2": "San Antonio, Texas",
        "col3": "61"
    },
    {
        "col0": "E. Bieniemy",
        "col1": "San Diego Chargers",
        "col2": "New Orleans, Louisiana",
        "col3": "39"
    },
    {
        "col0": "E. Ball",
        "col1": "Cincinnati Bengals",
        "col2": "Cleveland",
        "col3": "35"
    },
    {
        "col0": "E. Allen",
        "col1": "Philadelphia Eagles",
        "col2": "San Diego, California",
        "col3": "2"
    },
    {
        "col0": "E. James",
        "col1": "Minnesota Vikings",
        "col2": "Saint Kitts and Nevis",
        "col3": "18"
    },
    {
        "col0": "E. Salaam",
        "col1": "Atlanta Falcons",
        "col2": "Chicago",
        "col3": "199"
    },
    {
        "col0": "E. Ogbah",
        "col1": "Cleveland Browns",
        "col2": "Lagos",
        "col3": "32"
    },
    {
        "col0": "E. Moorehead",
        "col1": "New York Giants",
        "col2": "Evanston, Illinois",
        "col3": "153"
    },
    {
        "col0": "E. Cole",
        "col1": "Cleveland Browns",
        "col2": "Carrier Mills, Illinois",
        "col3": "156"
    },
    {
        "col0": "E. King",
        "col1": "Cincinnati Bengals",
        "col2": "Leroy, Alabama",
        "col3": "25"
    },
    {
        "col0": "E. Peacock",
        "col1": "Los Angeles Rams",
        "col2": "Miami, Florida",
        "col3": "20"
    },
    {
        "col0": "E. Patterson",
        "col1": "Cincinnati Bengals",
        "col2": "Tallahassee, Florida",
        "col3": "259"
    },
    {
        "col0": "E. Brown",
        "col1": "Arizona Cardinals",
        "col2": "Hampton, Virginia",
        "col3": "111"
    },
    {
        "col0": "E. Grooms",
        "col1": "New Orleans Saints",
        "col2": "Tompkinsville, Kentucky",
        "col3": "63"
    },
    {
        "col0": "E. Wyms",
        "col1": "Tampa Bay Buccaneers",
        "col2": "Indianola, Mississippi",
        "col3": "183"
    },
    {
        "col0": "E. Alexander",
        "col1": "Tampa Bay Buccaneers",
        "col2": "Fort Worth, Texas",
        "col3": "254"
    },
    {
        "col0": "E. Ferguson",
        "col1": "Chicago Bears",
        "col2": "Miami",
        "col3": "51"
    },
    {
        "col0": "E. Mulitalo",
        "col1": "Baltimore Ravens",
        "col2": "Daly City, California",
        "col3": "129"
    },
    {
        "col0": "E. Murray",
        "col1": "Detroit Lions",
        "col2": "Halifax, Nova Scotia",
        "col3": "166"
    },
    {
        "col0": "E. Miles",
        "col1": "Pittsburgh Steelers",
        "col2": "Florida",
        "col3": "266"
    },
    {
        "col0": "E. Mason",
        "col1": "New York Jets",
        "col2": "Siler City, North Carolina",
        "col3": "178"
    },
    {
        "col0": "E. Lewis",
        "col1": "San Francisco 49ers",
        "col2": "Mobile, Alabama",
        "col3": "57"
    },
    {
        "col0": "E. LeBaron",
        "col1": "Washington Redskins",
        "col2": "San Rafael, California",
        "col3": "123"
    },
    {
        "col0": "E. Kennison",
        "col1": "St. Louis Rams",
        "col2": "Lake Charles, Louisiana",
        "col3": "18"
    },
    {
        "col0": "E. Johnson",
        "col1": "Minnesota Vikings",
        "col2": "Newport Beach, California",
        "col3": "180"
    },
    {
        "col0": "E. Williams",
        "col1": "New England Patriots",
        "col2": "Odessa, Texas",
        "col3": "43"
    },
    {
        "col0": "E. Smith",
        "col1": "Green Bay Packers",
        "col2": "Fort Monroe",
        "col3": "19"
    },
    {
        "col0": "E. Smith",
        "col1": "Boston Redskins",
        "col2": "New York City",
        "col3": "20"
    }
]