[
    {
        "col0": "Zenyatta",
        "col1": "Kris S.",
        "col2": "Street Cry",
        "col3": "2004-04-01"
    },
    {
        "col0": "Zarkandar",
        "col1": "Kahyasi",
        "col2": "Azamour",
        "col3": "2007-04-20"
    },
    {
        "col0": "Zahrat Dubai",
        "col1": "Star Appeal",
        "col2": "Unfuwain",
        "col3": "1996-02-29"
    },
    {
        "col0": "Zagreb",
        "col1": "Wollow",
        "col2": "Theatrical",
        "col3": "1993-05-14"
    },
    {
        "col0": "Zafonic",
        "col1": "The Minstrel",
        "col2": "Gone West",
        "col3": "1990-04-01"
    },
    {
        "col0": "Zabeel",
        "col1": "Nureyev",
        "col2": "Sir Tristram",
        "col3": "1986-10-25"
    },
    {
        "col0": "Xtension",
        "col1": "Grand Lodge",
        "col2": "Xaar",
        "col3": "2007-02-02"
    },
    {
        "col0": "Xaar",
        "col1": "Sir Ivor",
        "col2": "Zafonic",
        "col3": "1995-03-14"
    },
    {
        "col0": "Woodstream",
        "col1": "Forli",
        "col2": "Northern Dancer",
        "col3": "1979-05-14"
    },
    {
        "col0": "Winsili",
        "col1": "Pivotal",
        "col2": "Dansili",
        "col3": "2010-02-01"
    },
    {
        "col0": "Wings of Desire",
        "col1": "In the Wings",
        "col2": "Pivotal",
        "col3": "2013-02-20"
    },
    {
        "col0": "Winged Love",
        "col1": "Top Ville",
        "col2": "In the Wings",
        "col3": "1992-04-15"
    },
    {
        "col0": "Wince",
        "col1": "Lyphard",
        "col2": "Selkirk",
        "col3": "1996-04-26"
    },
    {
        "col0": "Will Take Charge",
        "col1": "Dehere",
        "col2": "Unbridled's Song",
        "col3": "2010-04-13"
    },
    {
        "col0": "Wicked Strong",
        "col1": "Charismatic",
        "col2": "Hard Spun",
        "col3": "2011-04-28"
    },
    {
        "col0": "White Moonstone",
        "col1": "Seeking The Gold",
        "col2": "Dynaformer",
        "col3": "2008-02-25"
    },
    {
        "col0": "Weekend Surprise",
        "col1": "Buckpasser",
        "col2": "Secretariat",
        "col3": "1980-04-08"
    },
    {
        "col0": "Was",
        "col1": "Green Desert",
        "col2": "Galileo",
        "col3": "2009-05-11"
    },
    {
        "col0": "Warning",
        "col1": "Roberto",
        "col2": "Known Fact",
        "col3": "1985-04-13"
    },
    {
        "col0": "War Command",
        "col1": "Red Ransom",
        "col2": "War Front",
        "col3": "2011-04-27"
    },
    {
        "col0": "Wannabe Grand",
        "col1": "Shirley Heights",
        "col2": "Danehill",
        "col3": "1996-01-18"
    },
    {
        "col0": "Wait A While",
        "col1": "A P Indy",
        "col2": "Maria's Mon",
        "col3": "2003-03-04"
    },
    {
        "col0": "Wahid",
        "col1": "Rory's Jester",
        "col2": "Almutawakel",
        "col3": "2002-11-07"
    },
    {
        "col0": "Virginia Waters",
        "col1": "Sadler's Wells",
        "col2": "Kingmambo",
        "col3": "2002-02-15"
    },
    {
        "col0": "Vintage Crop",
        "col1": "Bustino",
        "col2": "Rousillon",
        "col3": "1987-03-01"
    },
    {
        "col0": "Victoire Pisa",
        "col1": "Machiavellian",
        "col2": "Neo Universe",
        "col3": "2007-03-31"
    },
    {
        "col0": "Vengeance of Rain",
        "col1": "Danehill",
        "col2": "Zabeel",
        "col3": "2000-09-21"
    },
    {
        "col0": "Vayrann",
        "col1": "Val de Loir",
        "col2": "Brigadier Gerard",
        "col3": "1978-04-07"
    },
    {
        "col0": "Vallee Enchantee",
        "col1": "Lear Fan",
        "col2": "Peintre Celebre",
        "col3": "2000-03-27"
    },
    {
        "col0": "Untapable",
        "col1": "Prized",
        "col2": "Tapit",
        "col3": "2011-02-13"
    },
    {
        "col0": "Unite",
        "col1": "Petingo",
        "col2": "Kris",
        "col3": "1984-04-03"
    },
    {
        "col0": "US Army Ranger",
        "col1": "Dalakhani",
        "col2": "Galileo",
        "col3": "2013-02-28"
    },
    {
        "col0": "Tyrnavos",
        "col1": "Derring-Do",
        "col2": "Blakeney",
        "col3": "1977-02-17"
    },
    {
        "col0": "Turtle Island",
        "col1": "High Top",
        "col2": "Fairy King",
        "col3": "1991-03-16"
    },
    {
        "col0": "Tulyar",
        "col1": "Nearco",
        "col2": "Tehran",
        "col3": "1949-05-14"
    },
    {
        "col0": "Try My Best",
        "col1": "Buckpasser",
        "col2": "Northern Dancer",
        "col3": "1975-04-28"
    },
    {
        "col0": "Tromos",
        "col1": "Derring-Do",
        "col2": "Busted",
        "col3": "1976-03-10"
    },
    {
        "col0": "Triptych",
        "col1": "Hail To Reason",
        "col2": "Riverman",
        "col3": "1982-04-19"
    },
    {
        "col0": "Trip To Paris",
        "col1": "Fantastic Light",
        "col2": "Champs Elysees",
        "col3": "2011-02-08"
    },
    {
        "col0": "Treve",
        "col1": "Anabaa",
        "col2": "Motivator",
        "col3": "2010-04-07"
    },
    {
        "col0": "Treasure Beach",
        "col1": "Mark of Esteem",
        "col2": "Galileo",
        "col3": "2008-03-25"
    },
    {
        "col0": "Trading Leather",
        "col1": "Sinndar",
        "col2": "Teofilo",
        "col3": "2010-03-20"
    },
    {
        "col0": "Tout Seul",
        "col1": "Green Dancer",
        "col2": "Ali-Royal",
        "col3": "2000-02-04"
    },
    {
        "col0": "Toulon",
        "col1": "Mill Reef",
        "col2": "Top Ville",
        "col3": "1988-04-15"
    },
    {
        "col0": "Touching Wood",
        "col1": "Vaguely Noble",
        "col2": "Roberto",
        "col3": "1979-05-11"
    },
    {
        "col0": "Top Ville",
        "col1": "Charlottesville",
        "col2": "High Top",
        "col3": "1976-04-05"
    },
    {
        "col0": "Tonalist",
        "col1": "Pleasant Colony",
        "col2": "Tapit",
        "col3": "2011-02-11"
    },
    {
        "col0": "Tom Fool",
        "col1": "Bull Dog",
        "col2": "Menow",
        "col3": "1949-03-31"
    },
    {
        "col0": "Tolmi",
        "col1": "Derring-Do",
        "col2": "Great Nephew",
        "col3": "1978-03-23"
    },
    {
        "col0": "Together Forever",
        "col1": "Theatrical",
        "col2": "Galileo",
        "col3": "2012-03-19"
    },
    {
        "col0": "Tirol",
        "col1": "Great Nephew",
        "col2": "Thatching",
        "col3": "1987-03-16"
    },
    {
        "col0": "Tinners Way",
        "col1": "The Minstrel",
        "col2": "Secretariat",
        "col3": "1990-05-25"
    },
    {
        "col0": "Thistlecrack",
        "col1": "Ardross",
        "col2": "Kayf Tara",
        "col3": "2008-03-29"
    },
    {
        "col0": "Theatrical",
        "col1": "Sassafras",
        "col2": "Nureyev",
        "col3": "1982-03-13"
    },
    {
        "col0": "The Pizza Man",
        "col1": "Lear Fan",
        "col2": "English Channel",
        "col3": "2009-03-25"
    },
    {
        "col0": "The New One",
        "col1": "Turgeon",
        "col2": "King's Theatre",
        "col3": "2008-02-23"
    },
    {
        "col0": "The Minstrel",
        "col1": "Victoria Park",
        "col2": "Northern Dancer",
        "col3": "1974-03-11"
    },
    {
        "col0": "The Gurkha",
        "col1": "Danehill Dancer",
        "col2": "Galileo",
        "col3": "2013-03-31"
    },
    {
        "col0": "The Grey Gatsby",
        "col1": "Entrepreneur",
        "col2": "Mastercraftsman",
        "col3": "2011-03-14"
    },
    {
        "col0": "The Fugue",
        "col1": "Sadler's Wells",
        "col2": "Dansili",
        "col3": "2009-03-16"
    },
    {
        "col0": "Thatching",
        "col1": "Abernant",
        "col2": "Thatch",
        "col3": "1975-05-31"
    },
    {
        "col0": "Ten Most Wanted",
        "col1": "Criminal Type",
        "col2": "Deputy Commander",
        "col3": "2000-02-24"
    },
    {
        "col0": "Telescope",
        "col1": "Darshaan",
        "col2": "Galileo",
        "col3": "2010-01-25"
    },
    {
        "col0": "Teenoso",
        "col1": "Ballymoss",
        "col2": "Youth",
        "col3": "1980-04-07"
    },
    {
        "col0": "Targowice",
        "col1": "Bold Ruler",
        "col2": "Round Table",
        "col3": "1970-04-10"
    },
    {
        "col0": "Tarascon",
        "col1": "Commanche Run",
        "col2": "Tirol",
        "col3": "1995-02-12"
    },
    {
        "col0": "Tap On Wood",
        "col1": "Ragusa",
        "col2": "Sallust",
        "col3": "1976-02-15"
    },
    {
        "col0": "Tap Dance City",
        "col1": "Northern Dancer",
        "col2": "Pleasant Tap",
        "col3": "1997-03-16"
    },
    {
        "col0": "Tante Rose",
        "col1": "Distant Relative",
        "col2": "Barathea",
        "col3": "2000-04-10"
    },
    {
        "col0": "Tamarisk",
        "col1": "Vaguely Noble",
        "col2": "Green Desert",
        "col3": "1995-05-19"
    },
    {
        "col0": "Talent",
        "col1": "Peintre Celebre",
        "col2": "New Approach",
        "col3": "2010-02-25"
    },
    {
        "col0": "Take Your Place",
        "col1": "Nasrullah",
        "col2": "Round Table",
        "col3": "1973-02-04"
    },
    {
        "col0": "Take Charge Indy",
        "col1": "Dehere",
        "col2": "A P Indy",
        "col3": "2009-03-27"
    },
    {
        "col0": "Take Charge Brandi",
        "col1": "Seeking The Gold",
        "col2": "Giant's Causeway",
        "col3": "2012-02-07"
    },
    {
        "col0": "Take A Reef",
        "col1": "Sicambre",
        "col2": "Right Tack",
        "col3": "1971-04-30"
    },
    {
        "col0": "Taghrooda",
        "col1": "Sadler's Wells",
        "col2": "Sea The Stars",
        "col3": "2011-01-27"
    },
    {
        "col0": "Synchronised",
        "col1": "Bob Back",
        "col2": "Sadler's Wells",
        "col3": "2003-03-07"
    },
    {
        "col0": "Sweet Catomine",
        "col1": "Kris S",
        "col2": "Storm Cat",
        "col3": "2002-02-14"
    },
    {
        "col0": "Swale",
        "col1": "Forli",
        "col2": "Seattle Slew",
        "col3": "1981-04-21"
    }
]