[
    {
        "col0": "Dream Dad",
        "col1": "J. Jeturian",
        "col2": "M. Magalona",
        "col3": "2015-04-17"
    },
    {
        "col0": "Dragon Zakura",
        "col1": "T. Komatsu",
        "col2": "H. Abe",
        "col3": "2005-09-16"
    },
    {
        "col0": "Dr. Terrible's House of Horrible",
        "col1": "M. Lipsey",
        "col2": "S. Coogan",
        "col3": "2001-12-17"
    },
    {
        "col0": "Downton Abbey",
        "col1": "B. Kelly",
        "col2": "K. Doyle",
        "col3": "2015-12-25"
    },
    {
        "col0": "Down the Shore",
        "col1": "R. Schiller",
        "col2": "P. Adlon",
        "col3": "1993-05-27"
    },
    {
        "col0": "Dow Hour of Great Mysteries",
        "col1": "G. Champion",
        "col2": "J. N. Welch",
        "col3": "1960-11-15"
    },
    {
        "col0": "Double Trouble",
        "col1": "E. Gittelsohn",
        "col2": "J. Sagal",
        "col3": "1985-03-30"
    },
    {
        "col0": "Dorothy",
        "col1": "J. Rich",
        "col2": "M. Greene",
        "col3": "1979-08-29"
    },
    {
        "col0": "Dormitoryo",
        "col1": "J. Lana",
        "col2": "L. Young",
        "col3": "2013-12-22"
    },
    {
        "col0": "Dorehami",
        "col1": "M. G. Khani",
        "col2": "S. Ansari",
        "col3": "2016-10-01"
    },
    {
        "col0": "Doraha",
        "col1": "M. Jabbar",
        "col2": "A. Siddiqui",
        "col3": "2009-01-23"
    },
    {
        "col0": "Dooley Gardens",
        "col1": "G. Walker",
        "col2": "M. Walsh",
        "col3": "1999-04-07"
    },
    {
        "col0": "Don't Call Me Charlie",
        "col1": "J. Depew",
        "col2": "A. Napier",
        "col3": "1963-01-25"
    },
    {
        "col0": "Dolphin Cove",
        "col1": "B. Henson",
        "col2": "N. Tate",
        "col3": "1989-03-11"
    },
    {
        "col0": "Doll & Em",
        "col1": "A. Jacobs",
        "col2": "E. Mortimer",
        "col3": "2015-07-08"
    },
    {
        "col0": "Doll's House",
        "col1": "A. Mimi",
        "col2": "F. R. Babu",
        "col3": "2009-05-23"
    },
    {
        "col0": "Dolce Amore",
        "col1": "C. Garcia-Molina",
        "col2": "E. Gil",
        "col3": "2016-08-26"
    },
    {
        "col0": "Dog with a Blog",
        "col1": "S. Jensen",
        "col2": "B. Littleford",
        "col3": "2015-09-25"
    },
    {
        "col0": "Doctor in the House",
        "col1": "M. Murphy",
        "col2": "G. Layton",
        "col3": "1970-07-03"
    },
    {
        "col0": "Doctor Zhivago",
        "col1": "G. Campiotti",
        "col2": "H. Matheson",
        "col3": "2002-12-08"
    },
    {
        "col0": "Doctor Thorne",
        "col1": "N. MacCormick",
        "col2": "A. Brie",
        "col3": "2016-03-20"
    },
    {
        "col0": "Doctor Stranger",
        "col1": "J. Hyuk",
        "col2": "J. Se-yeon",
        "col3": "2014-07-08"
    },
    {
        "col0": "Doctor Doctor",
        "col1": "R. Dubin",
        "col2": "I. Swenson",
        "col3": "1991-04-06"
    },
    {
        "col0": "Doc",
        "col1": "J. Bleckner",
        "col2": "B. Hughes",
        "col3": "1976-10-30"
    },
    {
        "col0": "Do Over",
        "col1": "A. Liddi-Brown",
        "col2": "A. Goethals",
        "col3": "2002-12-05"
    },
    {
        "col0": "Diyar-e-Dil",
        "col1": "H. Hassan",
        "col2": "A. R. Khan",
        "col3": "2015-10-27"
    },
    {
        "col0": "Diva",
        "col1": "D. Zapata",
        "col2": "R. Velasquez",
        "col3": "2010-07-30"
    },
    {
        "col0": "Dirty Sally",
        "col1": "P. Leacock",
        "col2": "J. Nolan",
        "col3": "1974-04-05"
    },
    {
        "col0": "Dirk Gently",
        "col1": "T. Shankland",
        "col2": "S. Mangan",
        "col3": "2012-03-19"
    },
    {
        "col0": "Direct Line with Vladimir Putin",
        "col1": "D. Peskov",
        "col2": "V. Putin",
        "col3": "2016-04-14"
    },
    {
        "col0": "Dinnerladies",
        "col1": "G. Posner",
        "col2": "J. Walters",
        "col3": "2000-01-27"
    },
    {
        "col0": "Dil Lagi",
        "col1": "N. Beyg",
        "col2": "H. Saeed",
        "col3": "2016-09-10"
    },
    {
        "col0": "Dil Ka Kia Rung Karun",
        "col1": "S. Hassan",
        "col2": "S. Batool",
        "col3": "2015-07-10"
    },
    {
        "col0": "Diff'rent Strokes",
        "col1": "G. Keith",
        "col2": "M. J. Catlett",
        "col3": "1986-03-07"
    },
    {
        "col0": "Diana: Her True Story",
        "col1": "K. Connor",
        "col2": "D. Threlfall",
        "col3": "1993-04-05"
    },
    {
        "col0": "Diagnosis: Unknown",
        "col1": "F. Cook",
        "col2": "C. Morris",
        "col3": "1960-09-20"
    },
    {
        "col0": "Di Ba't Ikaw",
        "col1": "Maryo J. de los Reyes",
        "col2": "J. Yllana",
        "col3": "1999-10-29"
    },
    {
        "col0": "Dharkan",
        "col1": "F. Burney",
        "col2": "W. Abbas",
        "col3": "2016-10-21"
    },
    {
        "col0": "Devil's Playground",
        "col1": "R. Ward",
        "col2": "J. Thompson",
        "col3": "2014-10-08"
    },
    {
        "col0": "Devi",
        "col1": "A. Mahadevan",
        "col2": "Devi",
        "col3": "2004-12-17"
    },
    {
        "col0": "Deutschland 83",
        "col1": "E. Berger",
        "col2": "U. Noethen",
        "col3": "2015-08-05"
    },
    {
        "col0": "Detective School",
        "col1": "W. C. Miller",
        "col2": "L. Page",
        "col3": "1979-11-24"
    },
    {
        "col0": "Destiny Rose",
        "col1": "D. M. Perez",
        "col2": "K. Chan",
        "col3": "2016-03-11"
    },
    {
        "col0": "Destilando Amor",
        "col1": "M. Corcega",
        "col2": "A. Rivera",
        "col3": "2007-09-16"
    },
    {
        "col0": "Desperate Romantics",
        "col1": "D. Lawrence",
        "col2": "A. Turner",
        "col3": "2009-08-25"
    },
    {
        "col0": "Desire",
        "col1": "P. D. Ebersole",
        "col2": "M. Belegrin",
        "col3": "2006-12-05"
    },
    {
        "col0": "Desejo Proibido",
        "col1": "M. Paulo",
        "col2": "A. Borges",
        "col3": "2008-05-02"
    },
    {
        "col0": "Derek and Simon",
        "col1": "B. Odenkirk",
        "col2": "B. Odenkirk",
        "col3": "2007-08-08"
    },
    {
        "col0": "Derek",
        "col1": "R. Gervais",
        "col2": "R. Gervais",
        "col3": "2014-12-22"
    },
    {
        "col0": "Demob",
        "col1": "R. Knights",
        "col2": "A. Redman",
        "col3": "1993-11-19"
    },
    {
        "col0": "Delta House",
        "col1": "C. Gottlieb",
        "col2": "J. Widdoes",
        "col3": "1979-04-21"
    },
    {
        "col0": "Delta",
        "col1": "A. Cadiff",
        "col2": "G. Rice",
        "col3": "1993-08-25"
    },
    {
        "col0": "Dekha Ek Khwaab",
        "col1": "D. Thakur",
        "col2": "D. E. Khwaab",
        "col3": "2012-08-02"
    },
    {
        "col0": "Defenders of the Earth",
        "col1": "W. Meugniot",
        "col2": "L. Richards",
        "col3": "1987-05-01"
    },
    {
        "col0": "Decoy",
        "col1": "M. Gordon",
        "col2": "B. Garland",
        "col3": "1958-07-07"
    },
    {
        "col0": "December Bride",
        "col1": "J. Thorpe",
        "col2": "H. Morgan",
        "col3": "1959-05-07"
    },
    {
        "col0": "Death Comes to Pemberley",
        "col1": "D. Percival",
        "col2": "J. Coleman",
        "col3": "2013-12-28"
    },
    {
        "col0": "Dear Green Place",
        "col1": "P. Riley",
        "col2": "F. Kiernan",
        "col3": "2008-12-05"
    },
    {
        "col0": "Dear Friend: Kay Tagal Kitang Hinintay",
        "col1": "D. M. Perez",
        "col2": "S. Dizon",
        "col3": "2009-08-02"
    },
    {
        "col0": "Deadly Secret",
        "col1": "C. Siu-Keung",
        "col2": "R. Kwok",
        "col3": "1989-07-07"
    },
    {
        "col0": "Deadly Games",
        "col1": "L. Nimoy",
        "col2": "C. Gibb",
        "col3": "1997-07-17"
    },
    {
        "col0": "Dead Set",
        "col1": "Y. Demange",
        "col2": "K. McDermott",
        "col3": "2008-10-31"
    },
    {
        "col0": "De frente al sol",
        "col1": "M. Miguel",
        "col2": "A. Aragon",
        "col3": "1992-09-11"
    },
    {
        "col0": "De Ijazat Jo Tu",
        "col1": "F. Burney",
        "col2": "J. Sheikh",
        "col3": "2014-12-18"
    },
    {
        "col0": "Days of Hope",
        "col1": "K. Loach",
        "col2": "P. Copley",
        "col3": "1975-10-02"
    },
    {
        "col0": "Davy Crockett",
        "col1": "N. Foster",
        "col2": "F. Parker",
        "col3": "1955-12-14"
    },
    {
        "col0": "Davis Rules",
        "col1": "J. Widdoes",
        "col2": "J. Winters",
        "col3": "1992-05-13"
    },
    {
        "col0": "David Copperfield",
        "col1": "S. Curtis",
        "col2": "E. Fox",
        "col3": "1999-12-26"
    },
    {
        "col0": "David Cassidy: Man Undercover",
        "col1": "V. W. Vogel",
        "col2": "D. Cassidy",
        "col3": "1979-07-12"
    },
    {
        "col0": "Dates",
        "col1": "J. Maybury",
        "col2": "A. Scott",
        "col3": "2013-07-03"
    },
    {
        "col0": "Date with the Angels",
        "col1": "J. V. Kern",
        "col2": "B. White",
        "col3": "1958-01-29"
    },
    {
        "col0": "Dastardly and Muttley in Their Flying Machines",
        "col1": "W. Hanna",
        "col2": "P. Winchell",
        "col3": "1970-01-03"
    },
    {
        "col0": "Dastaan",
        "col1": "H. Hussain",
        "col2": "M. Raheel",
        "col3": "2010-12-04"
    },
    {
        "col0": "Darna",
        "col1": "D. M. Perez",
        "col2": "M. Rivera",
        "col3": "2010-02-19"
    },
    {
        "col0": "Dark Season",
        "col1": "C. Cant",
        "col2": "J. Pearce",
        "col3": "1991-12-19"
    },
    {
        "col0": "Dark Ages",
        "col1": "S. Bendelack",
        "col2": "P. McLynn",
        "col3": "1999-12-27"
    },
    {
        "col0": "Danny",
        "col1": "T. Busfield",
        "col2": "D. Stern",
        "col3": "2001-10-05"
    },
    {
        "col0": "Dangerous Mind",
        "col1": "Y. Chin-yen",
        "col2": "G. Yun",
        "col3": "2006-08-04"
    },
    {
        "col0": "Danger Island",
        "col1": "R. Donner",
        "col2": "F. Aletter",
        "col3": "1969-01-11"
    },
    {
        "col0": "Dangal",
        "col1": "M. Alejandre",
        "col2": "D. Trillo",
        "col3": "2006-11-24"
    },
    {
        "col0": "Dancing on the Edge",
        "col1": "S. Poliakoff",
        "col2": "J. Goodman",
        "col3": "2013-03-10"
    },
    {
        "col0": "Dancin' Days",
        "col1": "D. Filho",
        "col2": "S. Braga",
        "col3": "1979-01-26"
    },
    {
        "col0": "Damon and Debbie",
        "col1": "B. Carlton",
        "col2": "G. Kearney",
        "col3": "1987-11-18"
    },
    {
        "col0": "Damage Control",
        "col1": "S. Doggart",
        "col2": "S. Doggart",
        "col3": "2005-04-24"
    },
    {
        "col0": "Dallas",
        "col1": "C. o. Dallas",
        "col2": "B. B. Geddes",
        "col3": "1991-05-03"
    },
    {
        "col0": "Daldalita",
        "col1": "D. M. Perez",
        "col2": "O. Alcasid",
        "col3": "2012-02-03"
    },
    {
        "col0": "Daktari",
        "col1": "O. Lang",
        "col2": "M. Thompson",
        "col3": "1969-01-15"
    },
    {
        "col0": "Daimajin Kanon",
        "col1": "T. Miike",
        "col2": "N. Nagasawa",
        "col3": "2010-10-01"
    },
    {
        "col0": "Dae Jo Yeong",
        "col1": "Y. Sung-sik",
        "col2": "C. Soo-jong",
        "col3": "2007-12-23"
    },
    {
        "col0": "Dading",
        "col1": "R. Davao",
        "col2": "G. d. Castro",
        "col3": "2014-10-10"
    },
    {
        "col0": "Daddio",
        "col1": "S. Zuckerman",
        "col2": "A. Barone",
        "col3": "2000-10-23"
    },
    {
        "col0": "Dad",
        "col1": "N. Wood",
        "col2": "G. Cole",
        "col3": "1999-12-21"
    },
    {
        "col0": "Dad's Army",
        "col1": "H. Snoad",
        "col2": "B. Pertwee",
        "col3": "1977-11-13"
    },
    {
        "col0": "Daam",
        "col1": "M. Jabbar",
        "col2": "S. Saeed",
        "col3": "2010-10-15"
    },
    {
        "col0": "Daagh",
        "col1": "S. Khoosat",
        "col2": "Gul-e-Rana",
        "col3": "2013-03-29"
    },
    {
        "col0": "DEA",
        "col1": "C. Bucksey",
        "col2": "I. Coll",
        "col3": "1991-06-01"
    },
    {
        "col0": "DAG",
        "col1": "K. Bright",
        "col2": "D. A. Grier",
        "col3": "2001-05-29"
    },
    {
        "col0": "DAAS Kapital",
        "col1": "T. Robinson",
        "col2": "P. McDermott",
        "col3": "1992-06-01"
    },
    {
        "col0": "D.C.",
        "col1": "M. Fields",
        "col2": "J. Barrett",
        "col3": "2000-04-23"
    },
    {
        "col0": "Dias sin luna",
        "col1": "R. Banquells",
        "col2": "J. Russek",
        "col3": "1990-08-31"
    },
    {
        "col0": "Dejame vivir",
        "col1": "R. Banquells",
        "col2": "D. Romo",
        "col3": "1982-11-10"
    },
    {
        "col0": "Curious Buddies",
        "col1": "D. Rudman",
        "col2": "M. Schwabe",
        "col3": "2005-04-12"
    },
    {
        "col0": "Cuca Legal",
        "col1": "D. Filho",
        "col2": "J. d. Oliveira",
        "col3": "1975-06-13"
    },
    {
        "col0": "Crusader",
        "col1": "H. Daugherty",
        "col2": "B. Keith",
        "col3": "1956-12-28"
    },
    {
        "col0": "Crocodile Shoes",
        "col1": "M. Mowbray",
        "col2": "J. Nail",
        "col3": "1994-12-21"
    },
    {
        "col0": "Criss Angel Mindfreak",
        "col1": "C. Angel",
        "col2": "C. Angel",
        "col3": "2010-09-08"
    },
    {
        "col0": "Criss Angel BeLIEve",
        "col1": "C. Angel",
        "col2": "C. Angel",
        "col3": "2013-12-10"
    },
    {
        "col0": "Crimes of Passion",
        "col1": "B. Larsen",
        "col2": "L. Wahlgren",
        "col3": "2013-11-20"
    },
    {
        "col0": "Crime Story",
        "col1": "D. Soul",
        "col2": "D. Farina",
        "col3": "1988-05-10"
    },
    {
        "col0": "Crash Zone",
        "col1": "E. Storm",
        "col2": "C. Magrath",
        "col3": "2001-08-25"
    },
    {
        "col0": "Cracking Up",
        "col1": "L. L. Spiro",
        "col2": "C. McDonald",
        "col3": "2004-04-05"
    },
    {
        "col0": "Covington Cross",
        "col1": "W. Dear",
        "col2": "J. Firth",
        "col3": "1992-10-31"
    },
    {
        "col0": "Cover Up",
        "col1": "J. D. Hancock",
        "col2": "J. O'Neill",
        "col3": "1985-04-06"
    },
    {
        "col0": "Coupling",
        "col1": "A. D. Weyman",
        "col2": "R. Sofer",
        "col3": "2003-10-23"
    },
    {
        "col0": "Corrida do Ouro",
        "col1": "D. Filho",
        "col2": "A. Balabanian",
        "col3": "1975-01-24"
    },
    {
        "col0": "Cool Million",
        "col1": "G. Levitt",
        "col2": "B. Bouchet",
        "col3": "1972-12-20"
    }
]