[
    {
        "col0": "W. Ramsey",
        "col1": "1957-01-31",
        "col2": "1957-01-31",
        "col3": "16th overall"
    },
    {
        "col0": "W. Morrin",
        "col1": "1955-05-13",
        "col2": "1955-05-13",
        "col3": "168th overall"
    },
    {
        "col0": "W. Young",
        "col1": "1956-01-11",
        "col2": "1956-01-11",
        "col3": "74th overall"
    },
    {
        "col0": "W. Holmes",
        "col1": "1957-02-18",
        "col2": "1957-02-18",
        "col3": "72nd overall"
    },
    {
        "col0": "W. Kyle",
        "col1": "1956-06-11",
        "col2": "1956-06-11",
        "col3": "206th overall"
    },
    {
        "col0": "V. Mercredi",
        "col1": "1953-03-31",
        "col2": "1953-03-31",
        "col3": "35th overall"
    },
    {
        "col0": "T. Rowe",
        "col1": "1956-05-23",
        "col2": "1956-05-23",
        "col3": "20th overall"
    },
    {
        "col0": "T. Roulston",
        "col1": "1957-11-20",
        "col2": "1957-11-20",
        "col3": "29th overall"
    },
    {
        "col0": "T. Machowski",
        "col1": "1953-05-07",
        "col2": "1953-05-07",
        "col3": "104th overall"
    },
    {
        "col0": "T. Colley",
        "col1": "1953-08-21",
        "col2": "1953-08-21",
        "col3": "38th overall"
    },
    {
        "col0": "T. Young",
        "col1": "1955-02-22",
        "col2": "1955-02-22",
        "col3": "13th overall"
    },
    {
        "col0": "T. Harrer",
        "col1": "1957-05-10",
        "col2": "1957-05-10",
        "col3": "78th overall"
    },
    {
        "col0": "T. Burke",
        "col1": "1955-05-29",
        "col2": "1955-05-29",
        "col3": "25th overall"
    },
    {
        "col0": "T. Williams",
        "col1": "1954-02-03",
        "col2": "1954-02-03",
        "col3": "33rd overall"
    },
    {
        "col0": "T. Gradin",
        "col1": "1956-02-18",
        "col2": "1956-02-18",
        "col3": "9th overall"
    },
    {
        "col0": "T. McDonald",
        "col1": "1955-06-17",
        "col2": "1955-06-17",
        "col3": "13th overall"
    },
    {
        "col0": "T. Martin",
        "col1": "1955-10-25",
        "col2": "1955-10-25",
        "col3": "86th overall"
    },
    {
        "col0": "T. Long",
        "col1": "1955-01-26",
        "col2": "1955-01-26",
        "col3": "53rd overall"
    },
    {
        "col0": "T. Bulley",
        "col1": "1955-03-25",
        "col2": "1955-03-25",
        "col3": "59th overall"
    },
    {
        "col0": "S. Short",
        "col1": "1954-04-06",
        "col2": "1954-04-06",
        "col3": "105th overall"
    },
    {
        "col0": "S. Langdon",
        "col1": "1953-12-23",
        "col2": "1953-12-23",
        "col3": "46th overall"
    },
    {
        "col0": "S. Jensen",
        "col1": "1955-04-14",
        "col2": "1955-04-14",
        "col3": "64th overall"
    },
    {
        "col0": "S. Carlson",
        "col1": "1955-08-26",
        "col2": "1955-08-26",
        "col3": "73rd overall"
    },
    {
        "col0": "S. Baker",
        "col1": "1957-05-06",
        "col2": "1957-05-06",
        "col3": "40th overall"
    },
    {
        "col0": "S. Alley",
        "col1": "1953-12-29",
        "col2": "1953-12-29",
        "col3": "90th overall"
    },
    {
        "col0": "S. Jonathan",
        "col1": "1955-09-05",
        "col2": "1955-09-05",
        "col3": "103rd overall"
    },
    {
        "col0": "S. Veysey",
        "col1": "1955-07-30",
        "col2": "1955-07-30",
        "col3": "105th overall"
    },
    {
        "col0": "S. Shanahan",
        "col1": "1951-02-08",
        "col2": "1951-02-08",
        "col3": "110th overall"
    },
    {
        "col0": "S. Campbell",
        "col1": "1957-06-22",
        "col2": "1957-06-22",
        "col3": "1st overall"
    },
    {
        "col0": "R. Lemelin",
        "col1": "1954-11-19",
        "col2": "1954-11-19",
        "col3": "209th overall"
    },
    {
        "col0": "R. Cloutier",
        "col1": "1956-06-30",
        "col2": "1956-06-30",
        "col3": "9th overall"
    },
    {
        "col0": "R. Anderson",
        "col1": "1955-02-12",
        "col2": "1955-02-12",
        "col3": "22nd overall"
    },
    {
        "col0": "R. Smith",
        "col1": "1953-11-20",
        "col2": "1953-11-20",
        "col3": "Undrafted"
    },
    {
        "col0": "R. Wilson",
        "col1": "1955-05-28",
        "col2": "1955-05-28",
        "col3": "176th overall"
    },
    {
        "col0": "R. Serafini",
        "col1": "1953-10-31",
        "col2": "1953-10-31",
        "col3": "88th overall"
    },
    {
        "col0": "R. Duguay",
        "col1": "1957-07-06",
        "col2": "1957-07-06",
        "col3": "3rd overall"
    },
    {
        "col0": "R. Delorme",
        "col1": "1955-09-03",
        "col2": "1955-09-03",
        "col3": "34th overall"
    },
    {
        "col0": "R. Chipperfield",
        "col1": "1954-03-28",
        "col2": "1954-03-28",
        "col3": "20th overall"
    },
    {
        "col0": "R. Ashton",
        "col1": "1954-05-08",
        "col2": "1954-05-08",
        "col3": "27th overall"
    },
    {
        "col0": "R. Cloutier",
        "col1": "1957-10-06",
        "col2": "1957-10-06",
        "col3": "89th overall"
    },
    {
        "col0": "R. Lemelin",
        "col1": "1954-02-06",
        "col2": "1954-02-06",
        "col3": "27th overall"
    },
    {
        "col0": "R. Schutt",
        "col1": "1956-10-13",
        "col2": "1956-10-13",
        "col3": "14th overall"
    },
    {
        "col0": "R. Sadler",
        "col1": "1955-03-31",
        "col2": "1955-03-31",
        "col3": "18th overall"
    },
    {
        "col0": "R. Picard",
        "col1": "1957-05-25",
        "col2": "1957-05-25",
        "col3": "38th overall"
    },
    {
        "col0": "R. Neale",
        "col1": "1953-04-17",
        "col2": "1953-04-17",
        "col3": "36th overall"
    },
    {
        "col0": "R. Moore",
        "col1": "1954-05-03",
        "col2": "1954-05-03",
        "col3": "187th overall"
    },
    {
        "col0": "R. Laird",
        "col1": "1954-12-29",
        "col2": "1954-12-29",
        "col3": "29th overall"
    },
    {
        "col0": "R. Flockhart",
        "col1": "1956-02-06",
        "col2": "1956-02-06",
        "col3": "63rd overall"
    },
    {
        "col0": "R. S. Croix",
        "col1": "1955-01-03",
        "col2": "1955-01-03",
        "col3": "169th overall"
    },
    {
        "col0": "R. Middleton",
        "col1": "1953-12-04",
        "col2": "1953-12-04",
        "col3": "21st overall"
    },
    {
        "col0": "R. Lapointe",
        "col1": "1955-08-02",
        "col2": "1955-08-02",
        "col3": "11th overall"
    },
    {
        "col0": "R. Lalonde",
        "col1": "1955-02-19",
        "col2": "1955-02-19",
        "col3": "98th overall"
    },
    {
        "col0": "R. Hodgson",
        "col1": "1956-05-23",
        "col2": "1956-05-23",
        "col3": "65th overall"
    },
    {
        "col0": "R. Green",
        "col1": "1956-02-20",
        "col2": "1956-02-20",
        "col3": "10th overall"
    },
    {
        "col0": "R. Fraser",
        "col1": "1954-07-11",
        "col2": "1954-07-11",
        "col3": "231st overall"
    },
    {
        "col0": "R. Bowness",
        "col1": "1955-01-25",
        "col2": "1955-01-25",
        "col3": "62nd overall"
    },
    {
        "col0": "R. Blight",
        "col1": "1955-10-17",
        "col2": "1955-10-17",
        "col3": "19th overall"
    },
    {
        "col0": "R. Mulhern",
        "col1": "1955-03-01",
        "col2": "1955-03-01",
        "col3": "15th overall"
    },
    {
        "col0": "R. Kerr",
        "col1": "1957-10-16",
        "col2": "1957-10-16",
        "col3": "39th overall"
    },
    {
        "col0": "R. Larson",
        "col1": "1956-07-30",
        "col2": "1956-07-30",
        "col3": "220th overall"
    },
    {
        "col0": "R. Pierce",
        "col1": "1957-11-23",
        "col2": "1957-11-23",
        "col3": "19th overall"
    },
    {
        "col0": "R. Holt",
        "col1": "1953-01-15",
        "col2": "1953-01-15",
        "col3": "41st overall"
    },
    {
        "col0": "R. Carlyle",
        "col1": "1956-04-19",
        "col2": "1956-04-19",
        "col3": "69th overall"
    },
    {
        "col0": "R. Klassen",
        "col1": "1955-09-15",
        "col2": "1955-09-15",
        "col3": "5th overall"
    },
    {
        "col0": "R. Lemelin",
        "col1": "1954-11-19",
        "col2": "1954-11-19",
        "col3": "209th overall"
    },
    {
        "col0": "R. Cloutier",
        "col1": "1956-06-30",
        "col2": "1956-06-30",
        "col3": "9th overall"
    },
    {
        "col0": "P. Larouche",
        "col1": "1955-11-16",
        "col2": "1955-11-16",
        "col3": "30th overall"
    },
    {
        "col0": "P. Giroux",
        "col1": "1955-11-17",
        "col2": "1955-11-17",
        "col3": "44th overall"
    },
    {
        "col0": "P. Morris",
        "col1": "1955-06-29",
        "col2": "1955-06-29",
        "col3": "21st overall"
    },
    {
        "col0": "P. Lee",
        "col1": "1956-01-02",
        "col2": "1956-01-02",
        "col3": "21st overall"
    },
    {
        "col0": "P. Driscoll",
        "col1": "1954-10-27",
        "col2": "1954-10-27",
        "col3": "35th overall"
    },
    {
        "col0": "P. Brown",
        "col1": "1954-05-21",
        "col2": "1954-05-21",
        "col3": "43rd overall"
    },
    {
        "col0": "P. Woods",
        "col1": "1955-04-12",
        "col2": "1955-04-12",
        "col3": "84th overall"
    },
    {
        "col0": "P. O'Neil",
        "col1": "1953-08-24",
        "col2": "1953-08-24",
        "col3": "61st overall"
    },
    {
        "col0": "P. McIntosh",
        "col1": "1953-03-13",
        "col2": "1953-03-13",
        "col3": "8th overall 1974"
    },
    {
        "col0": "P. Holmgren",
        "col1": "1955-12-02",
        "col2": "1955-12-02",
        "col3": "67th overall"
    },
    {
        "col0": "P. Harrison",
        "col1": "1955-02-11",
        "col2": "1955-02-11",
        "col3": "61st overall"
    },
    {
        "col0": "P. Gardner",
        "col1": "1956-03-05",
        "col2": "1956-03-05",
        "col3": "24th overall"
    },
    {
        "col0": "P. Evans",
        "col1": "1955-02-24",
        "col2": "1955-02-24",
        "col3": "162nd overall"
    },
    {
        "col0": "P. Evans",
        "col1": "1954-05-02",
        "col2": "1954-05-02",
        "col3": "55th overall"
    },
    {
        "col0": "P. Crowley",
        "col1": "1955-12-26",
        "col2": "1955-12-26",
        "col3": "74th overall"
    },
    {
        "col0": "P. Baxter",
        "col1": "1955-10-28",
        "col2": "1955-10-28",
        "col3": "11th overall"
    },
    {
        "col0": "P. Price",
        "col1": "1955-03-24",
        "col2": "1955-03-24",
        "col3": "1st overall"
    },
    {
        "col0": "P. Hughes",
        "col1": "1955-03-25",
        "col2": "1955-03-25",
        "col3": "80th overall"
    },
    {
        "col0": "P. Hickey",
        "col1": "1953-05-15",
        "col2": "1953-05-15",
        "col3": "18th overall"
    },
    {
        "col0": "O. Lloyd",
        "col1": "1957-04-30",
        "col2": "1957-04-30",
        "col3": "85th overall"
    },
    {
        "col0": "N. LaPointe",
        "col1": "1955-08-13",
        "col2": "1955-08-13",
        "col3": "46th overall"
    },
    {
        "col0": "N. Dupont",
        "col1": "1957-02-05",
        "col2": "1957-02-05",
        "col3": "31st overall"
    },
    {
        "col0": "N. Barnes",
        "col1": "1953-08-24",
        "col2": "1953-08-24",
        "col3": "91st overall"
    },
    {
        "col0": "N. Pyatt",
        "col1": "1953-09-09",
        "col2": "1953-09-09",
        "col3": "59th overall"
    },
    {
        "col0": "M. Bannerman",
        "col1": "1957-04-27",
        "col2": "1957-04-27",
        "col3": "88th overall"
    },
    {
        "col0": "M. Titanic",
        "col1": "1953-01-07",
        "col2": "1953-01-07",
        "col3": "17th overall"
    },
    {
        "col0": "M. Lukowich",
        "col1": "1956-06-01",
        "col2": "1956-06-01",
        "col3": "22nd overall"
    },
    {
        "col0": "M. Robinson",
        "col1": "1957-05-29",
        "col2": "1957-05-29",
        "col3": "15th overall"
    },
    {
        "col0": "M. Babin",
        "col1": "1954-11-1",
        "col2": "1954-11-1",
        "col3": "218th overall"
    },
    {
        "col0": "M. Sleep",
        "col1": "1955-03-13",
        "col2": "1955-03-13",
        "col3": "68th overall"
    },
    {
        "col0": "M. Rogers",
        "col1": "1954-10-24",
        "col2": "1954-10-24",
        "col3": "48th overall"
    },
    {
        "col0": "M. O'Connell",
        "col1": "1955-11-25",
        "col2": "1955-11-25",
        "col3": "24th overall"
    },
    {
        "col0": "M. McEwen",
        "col1": "1956-08-10",
        "col2": "1956-08-10",
        "col3": "71st overall"
    },
    {
        "col0": "M. Korney",
        "col1": "1953-09-15",
        "col2": "1953-09-15",
        "col3": "83rd overall"
    },
    {
        "col0": "M. Kitchen",
        "col1": "1956-02-01",
        "col2": "1956-02-01",
        "col3": "83rd overall"
    },
    {
        "col0": "M. Kennedy",
        "col1": "1953-11-21",
        "col2": "1953-11-21",
        "col3": "121st overall"
    },
    {
        "col0": "M. Keating",
        "col1": "1957-01-21",
        "col2": "1957-01-21",
        "col3": "80th overall"
    },
    {
        "col0": "M. Dwyer",
        "col1": "1957-09-16",
        "col2": "1957-09-16",
        "col3": "82nd overall"
    },
    {
        "col0": "M. Crombeen",
        "col1": "1957-04-16",
        "col2": "1957-04-16",
        "col3": "4th overall"
    },
    {
        "col0": "M. Clarke",
        "col1": "1953-08-12",
        "col2": "1953-08-12",
        "col3": "26th overall"
    },
    {
        "col0": "M. Bossy",
        "col1": "1957-01-22",
        "col2": "1957-01-22",
        "col3": "44th overall"
    },
    {
        "col0": "M. Boland",
        "col1": "1954-10-29",
        "col2": "1954-10-29",
        "col3": "94th overall"
    },
    {
        "col0": "M. Backman",
        "col1": "1955-01-02",
        "col2": "1955-01-02",
        "col3": "100th overall"
    },
    {
        "col0": "M. Lachance",
        "col1": "1955-04-11",
        "col2": "1955-04-11",
        "col3": "92nd overall"
    },
    {
        "col0": "M. Dubois",
        "col1": "1954-11-07",
        "col2": "1954-11-07",
        "col3": "198th overall"
    },
    {
        "col0": "M. Dion",
        "col1": "1954-02-11",
        "col2": "1954-02-11",
        "col3": "121st overall"
    },
    {
        "col0": "M. Bergeron",
        "col1": "1954-11-11",
        "col2": "1954-11-11",
        "col3": "83rd overall"
    },
    {
        "col0": "M. Bridgman",
        "col1": "1955-04-28",
        "col2": "1955-04-28",
        "col3": "4th overall"
    },
    {
        "col0": "M. Hagman",
        "col1": "1955-09-21",
        "col2": "1955-09-21",
        "col3": "43rd overall"
    },
    {
        "col0": "M. Mattsson",
        "col1": "1957-07-30",
        "col2": "1957-07-30",
        "col3": "57th overall"
    },
    {
        "col0": "M. Johnson",
        "col1": "1957-09-22",
        "col2": "1957-09-22",
        "col3": "22nd overall"
    },
    {
        "col0": "M. Viens",
        "col1": "1955-08-07",
        "col2": "1955-08-07",
        "col3": "70th overall"
    },
    {
        "col0": "M. Lessard",
        "col1": "1954-06-25",
        "col2": "1954-06-25",
        "col3": "128th overall"
    },
    {
        "col0": "M. Faubert",
        "col1": "1954-12-02",
        "col2": "1954-12-02",
        "col3": "138th overall"
    },
    {
        "col0": "L. Gloeckner",
        "col1": "1956-01-25",
        "col2": "1956-01-25",
        "col3": "67th overall"
    },
    {
        "col0": "L. Goodenough",
        "col1": "1953-01-19",
        "col2": "1953-01-19",
        "col3": "15th overall"
    },
    {
        "col0": "L. McDonald",
        "col1": "1953-02-16",
        "col2": "1953-02-16",
        "col3": "10th overall"
    },
    {
        "col0": "K. MacDougall",
        "col1": "1954-08-29",
        "col2": "1954-08-29",
        "col3": "37th overall"
    }
]