[
    {
        "col0": "The Romantic Swordsman",
        "col1": "G. Long",
        "col2": "J. Koo",
        "col3": "2700"
    },
    {
        "col0": "The Roman Spring of Mrs. Stone",
        "col1": "T. Williams",
        "col2": "J. Altman",
        "col3": "6840"
    },
    {
        "col0": "The Richie Rich/Scooby-Doo Show",
        "col1": "M. Evanier",
        "col2": "H. Curtin",
        "col3": "3600"
    },
    {
        "col0": "The Revenge of Al Capone",
        "col1": "T. K. Wynn",
        "col2": "C. Safan",
        "col3": "5760"
    },
    {
        "col0": "The Return of the King",
        "col1": "R. Muller",
        "col2": "G. Yarbrough",
        "col3": "5880"
    },
    {
        "col0": "The Reporter",
        "col1": "J. Weidman",
        "col2": "K. Hopkins",
        "col3": "2700"
    },
    {
        "col0": "The Red-Light Sting",
        "col1": "R. Holcomb",
        "col2": "J. D. Pasquale",
        "col3": "6000"
    },
    {
        "col0": "The Rebels",
        "col1": "R. A. Cinader",
        "col2": "G. Fried",
        "col3": "14400"
    },
    {
        "col0": "The Range Rider",
        "col1": "E. Freiwald",
        "col2": "W. Greene",
        "col3": "1800"
    },
    {
        "col0": "The Raggy Dolls",
        "col1": "N. Innes",
        "col2": "N. Innes",
        "col3": "600"
    },
    {
        "col0": "The Raccoons on Ice",
        "col1": "J. L. Packer",
        "col2": "K. Gillis",
        "col3": "1440"
    },
    {
        "col0": "The Raccoons: Let's Dance!",
        "col1": "K. Gillis",
        "col2": "K. Gillis",
        "col3": "1500"
    },
    {
        "col0": "The Quick Draw McGraw Show",
        "col1": "J. Barbera",
        "col2": "H. Curtin",
        "col3": "420"
    },
    {
        "col0": "The Questor Tapes",
        "col1": "G. Roddenberry",
        "col2": "G. Melle",
        "col3": "5520"
    },
    {
        "col0": "The Quest",
        "col1": "S. J. Cannell",
        "col2": "M. Post",
        "col3": "2880"
    },
    {
        "col0": "The Proud Twins",
        "col1": "W. Jing",
        "col2": "N. Tse",
        "col3": "2700"
    },
    {
        "col0": "The Proud Family Movie",
        "col1": "S. White",
        "col2": "F. Fitzpatrick",
        "col3": "5460"
    },
    {
        "col0": "The Promise",
        "col1": "P. Kosminsky",
        "col2": "D. Wiseman",
        "col3": "6300"
    },
    {
        "col0": "The Preppie Murder",
        "col1": "J. Herzfeld",
        "col2": "C. Isaak",
        "col3": "6000"
    },
    {
        "col0": "The Politician's Husband",
        "col1": "P. Milne",
        "col2": "A. Johnston",
        "col3": "3420"
    },
    {
        "col0": "The Pirate",
        "col1": "J. J. Epstein",
        "col2": "B. Conti",
        "col3": "14400"
    },
    {
        "col0": "The Pied Piper of Hamelin",
        "col1": "R. Browning",
        "col2": "E. Grieg",
        "col3": "5340"
    },
    {
        "col0": "The Picture of Dorian Gray",
        "col1": "O. Wilde",
        "col2": "J. Horovitz",
        "col3": "6000"
    },
    {
        "col0": "The Phantom of the Opera",
        "col1": "G. Leroux",
        "col2": "J. Addison",
        "col3": "10080"
    },
    {
        "col0": "The Perils of Penelope Pitstop",
        "col1": "M. Maltese",
        "col2": "T. Nichols",
        "col3": "1260"
    },
    {
        "col0": "The People",
        "col1": "Z. Henderson",
        "col2": "C. Coppola",
        "col3": "4440"
    },
    {
        "col0": "The Patty Duke Show",
        "col1": "W. Asher",
        "col2": "S. Ramin",
        "col3": "1800"
    },
    {
        "col0": "The Patron Saint of Liars",
        "col1": "A. Patchett",
        "col2": "D. Licht",
        "col3": "6000"
    },
    {
        "col0": "The Passion",
        "col1": "F. Deasy",
        "col2": "D. Wiseman",
        "col3": "10320"
    },
    {
        "col0": "The Passing Bells",
        "col1": "T. Jordan",
        "col2": "J. Lunn",
        "col3": "1800"
    },
    {
        "col0": "The Partners",
        "col1": "L. Marks",
        "col2": "R. Hazard",
        "col3": "1560"
    },
    {
        "col0": "The Paradise Club",
        "col1": "M. Smith",
        "col2": "D. Lawson",
        "col3": "3000"
    },
    {
        "col0": "The Pacific",
        "col1": "G. Pelecanos",
        "col2": "H. Zimmer",
        "col3": "32406"
    },
    {
        "col0": "The Owl Service",
        "col1": "A. Garner",
        "col2": "T. music",
        "col3": "1500"
    },
    {
        "col0": "The Other Me",
        "col1": "J. A. Schechter",
        "col2": "M. Mothersbaugh",
        "col3": "5040"
    },
    {
        "col0": "The Old Man and the Sea",
        "col1": "R. O. Hirson",
        "col2": "B. Broughton",
        "col3": "5580"
    },
    {
        "col0": "The Old Curiosity Shop",
        "col1": "C. Dickens",
        "col2": "S. McKeon",
        "col3": "7200"
    },
    {
        "col0": "The Oaks Trilogy",
        "col1": "S. Greenhorn",
        "col2": "M. Price",
        "col3": "3600"
    },
    {
        "col0": "The O'Keefes",
        "col1": "K. Murphy",
        "col2": "J. Wolff",
        "col3": "1800"
    },
    {
        "col0": "The No. 1 Ladies' Detective Agency",
        "col1": "R. Curtis",
        "col2": "G. Yared",
        "col3": "3600"
    },
    {
        "col0": "The Night They Took Miss Beautiful",
        "col1": "G. Lefferts",
        "col2": "W. Murphy",
        "col3": "6000"
    },
    {
        "col0": "The Night They Saved Christmas",
        "col1": "D. N. Jr.",
        "col2": "C. Gross",
        "col3": "5640"
    },
    {
        "col0": "The Night Of",
        "col1": "R. Price",
        "col2": "J. Russo",
        "col3": "-5760"
    },
    {
        "col0": "The New Perry Mason",
        "col1": "E. S. Gardner",
        "col2": "E. Hagen",
        "col3": "3600"
    },
    {
        "col0": "The New Odd Couple",
        "col1": "L. Ganz",
        "col2": "N. Hefti",
        "col3": "1440"
    },
    {
        "col0": "The New Leave It to Beaver",
        "col1": "B. Levant",
        "col2": "W. Murphy",
        "col3": "1440"
    },
    {
        "col0": "The New Breed",
        "col1": "D. Brinkley",
        "col2": "D. Frontiere",
        "col3": "3600"
    },
    {
        "col0": "The New Bob Cummings Show",
        "col1": "S. Keller",
        "col2": "S. Wilson",
        "col3": "1440"
    },
    {
        "col0": "The New Andy Griffith Show",
        "col1": "A. Ruben",
        "col2": "E. Hagen",
        "col3": "1440"
    },
    {
        "col0": "The New Adventures of Pinocchio",
        "col1": "A. R. Jr.",
        "col2": "J. Bass",
        "col3": "252"
    },
    {
        "col0": "The Nativity",
        "col1": "T. Jordan",
        "col2": "J. Goldsmith",
        "col3": "1800"
    },
    {
        "col0": "The Music Scene",
        "col1": "D. Steinberg",
        "col2": "P. Williams",
        "col3": "2700"
    },
    {
        "col0": "The Music Man",
        "col1": "M. Willson",
        "col2": "M. Willson",
        "col3": "9000"
    },
    {
        "col0": "The Muppet Musicians of Bremen",
        "col1": "J. Juhl",
        "col2": "J. Juhl",
        "col3": "3000"
    },
    {
        "col0": "The Miracle of Kathy Miller",
        "col1": "M. Brez",
        "col2": "P. Williams",
        "col3": "5880"
    },
    {
        "col0": "The Miracle Continues",
        "col1": "J. P. Lash",
        "col2": "J. A. C. Redford",
        "col3": "6000"
    },
    {
        "col0": "The Mike O'Malley Show",
        "col1": "D. Gould",
        "col2": "B. Tom",
        "col3": "1800"
    },
    {
        "col0": "The Mermaid Chair",
        "col1": "S. M. Kidd",
        "col2": "R. Lovland",
        "col3": "5400"
    },
    {
        "col0": "The Mayfair Set",
        "col1": "A. Curtis",
        "col2": "J. Barry",
        "col3": "14400"
    },
    {
        "col0": "The Mary Tyler Moore Hour",
        "col1": "A. Kogen",
        "col2": "S. Curtis",
        "col3": "3600"
    },
    {
        "col0": "The Marty Feldman Comedy Machine",
        "col1": "B. Levinson",
        "col2": "J. Parnell",
        "col3": "1800"
    },
    {
        "col0": "The Martian Chronicles",
        "col1": "R. Matheson",
        "col2": "S. Myers",
        "col3": "5820"
    },
    {
        "col0": "The Mark of Zorro",
        "col1": "The Curse of Capistrano",
        "col2": "D. Frontiere",
        "col3": "4680"
    },
    {
        "col0": "The Marcus-Nelson Murders",
        "col1": "A. Mann",
        "col2": "B. Goldenberg",
        "col3": "7500"
    },
    {
        "col0": "The Man in the Iron Mask",
        "col1": "A. D. pere",
        "col2": "A. Ferguson",
        "col3": "6000"
    },
    {
        "col0": "The Man Who Broke Britain",
        "col1": "G. Range",
        "col2": "S. Sim",
        "col3": "5400"
    },
    {
        "col0": "The Mad, Mad, Mad Comedians",
        "col1": "R. Muller",
        "col2": "M. Laws",
        "col3": "1800"
    },
    {
        "col0": "The Lucy-Desi Comedy Hour",
        "col1": "B. C. Jr.",
        "col2": "W. Hatch",
        "col3": "3600"
    },
    {
        "col0": "The Lost Language of Cranes",
        "col1": "D. Leavitt",
        "col2": "J. Wastall",
        "col3": "5220"
    },
    {
        "col0": "The Lorax",
        "col1": "D. Seuss",
        "col2": "D. Elliott",
        "col3": "1440"
    },
    {
        "col0": "The Loop",
        "col1": "W. Gluck",
        "col2": "J. Kochalka",
        "col3": "1800"
    },
    {
        "col0": "The Long, Hot Summer",
        "col1": "D. Riesner",
        "col2": "A. North",
        "col3": "2700"
    },
    {
        "col0": "The Living Edens",
        "col1": "K. MacQuarrie",
        "col2": "L. Karpman",
        "col3": "3600"
    },
    {
        "col0": "The Little Vampire",
        "col1": "A. Sommer-Bodenburg",
        "col2": "J. Mills-Cockell",
        "col3": "1500"
    },
    {
        "col0": "The Little Drummer Boy",
        "col1": "R. Muller",
        "col2": "M. Laws",
        "col3": "1500"
    },
    {
        "col0": "The Lion in Winter",
        "col1": "J. Goldman",
        "col2": "R. Hartley",
        "col3": "10020"
    },
    {
        "col0": "The Line of Beauty",
        "col1": "A. Davies",
        "col2": "M. Phipps",
        "col3": "10800"
    },
    {
        "col0": "The Life of Verdi",
        "col1": "R. Castellani",
        "col2": "R. Vlad",
        "col3": "37800"
    },
    {
        "col0": "The Life of Muhammad",
        "col1": "Z. Sardar",
        "col2": "J. Spencer",
        "col3": "3600"
    },
    {
        "col0": "The Life of Leonardo da Vinci",
        "col1": "R. Castellani",
        "col2": "R. Vlad",
        "col3": "16200"
    },
    {
        "col0": "The Life and Times of Juniper Lee",
        "col1": "J. Winick",
        "col2": "S. Copeland",
        "col3": "1320"
    },
    {
        "col0": "The Life and Times of David Lloyd George",
        "col1": "E. Morgan",
        "col2": "E. Morricone",
        "col3": "3600"
    },
    {
        "col0": "The Life and Legend of Wyatt Earp",
        "col1": "F. McDonald",
        "col2": "K. Darby",
        "col3": "1800"
    },
    {
        "col0": "The Legend of the Lost Keys",
        "col1": "J. Eldridge",
        "col2": "D. Wiseman",
        "col3": "1200"
    },
    {
        "col0": "The Legend of the Golden Gun",
        "col1": "J. D. Parriott",
        "col2": "J. Immel",
        "col3": "6000"
    },
    {
        "col0": "The Legend of the Condor Heroes",
        "col1": "J. Yong",
        "col2": "J. Koo",
        "col3": "2700"
    },
    {
        "col0": "The Legend of the Condor Heroes",
        "col1": "L. Cha",
        "col2": "J. Koo",
        "col3": "2520"
    },
    {
        "col0": "The Legend of the Book and the Sword",
        "col1": "J. Yong",
        "col2": "J. Koo",
        "col3": "2700"
    },
    {
        "col0": "The Legend of the Book and the Sword",
        "col1": "J. Yong",
        "col2": "J. Koo",
        "col3": "2700"
    },
    {
        "col0": "The Legend of King Arthur",
        "col1": "A. Davies",
        "col2": "D. Simpson",
        "col3": "1800"
    },
    {
        "col0": "The Legend",
        "col1": "S. Ji-na",
        "col2": "J. Hisaishi",
        "col3": "3600"
    },
    {
        "col0": "The Lazarus Syndrome",
        "col1": "W. Blinn",
        "col2": "J. Rubinstein",
        "col3": "4380"
    },
    {
        "col0": "The Late Show",
        "col1": "M. Prescott",
        "col2": "M. Hudson",
        "col3": "-2880"
    },
    {
        "col0": "The Late Shift",
        "col1": "G. Armitage",
        "col2": "I. Newborn",
        "col3": "5700"
    },
    {
        "col0": "The Last Place on Earth",
        "col1": "T. Griffiths",
        "col2": "T. Jones",
        "col3": "3000"
    },
    {
        "col0": "The Last Panthers",
        "col1": "J. Thorne",
        "col2": "D. Bowie",
        "col3": "2880"
    },
    {
        "col0": "The Last Halloween",
        "col1": "S. S. Holland",
        "col2": "B. Broughton",
        "col3": "1500"
    },
    {
        "col0": "The Last Days of Patton",
        "col1": "W. Luce",
        "col2": "A. Ferguson",
        "col3": "8760"
    },
    {
        "col0": "The Lady in Question",
        "col1": "G. Wilder",
        "col2": "J. Morris",
        "col3": "6000"
    },
    {
        "col0": "The Knock",
        "col1": "I. K. Martin",
        "col2": "B. Bennett",
        "col3": "4500"
    },
    {
        "col0": "The Knick",
        "col1": "S. A. Katz",
        "col2": "C. Martinez",
        "col3": "-3420"
    },
    {
        "col0": "The Kingdom Chums: Little David's Adventure",
        "col1": "J. Betancourt",
        "col2": "J. Raposo",
        "col3": "3600"
    },
    {
        "col0": "The Kid with the Broken Halo",
        "col1": "G. Kirgo",
        "col2": "T. Vig",
        "col3": "6000"
    },
    {
        "col0": "The Kid with the 200 I.Q.",
        "col1": "P. Margo",
        "col2": "D. McCarthy",
        "col3": "5760"
    }
]