[
    {
        "col0": "O. Gonzalez",
        "col1": "0",
        "col2": "0",
        "col3": "0"
    },
    {
        "col0": "E. Comas",
        "col1": "0",
        "col2": "0",
        "col3": "0"
    },
    {
        "col0": "E. Bernard",
        "col1": "0",
        "col2": "1",
        "col3": "0"
    },
    {
        "col0": "E. Bayol",
        "col1": "0",
        "col2": "0",
        "col3": "0"
    },
    {
        "col0": "Z. Baumgartner",
        "col1": "0",
        "col2": "0",
        "col3": "0"
    },
    {
        "col0": "Y. Ide",
        "col1": "0",
        "col2": "0",
        "col3": "0"
    },
    {
        "col0": "Y. Dalmas",
        "col1": "0",
        "col2": "0",
        "col3": "0"
    },
    {
        "col0": "X. Perrot",
        "col1": "0",
        "col2": "0",
        "col3": "0"
    },
    {
        "col0": "W. Seidel",
        "col1": "0",
        "col2": "0",
        "col3": "0"
    },
    {
        "col0": "W. F. Junior",
        "col1": "0",
        "col2": "0",
        "col3": "0"
    },
    {
        "col0": "W. Mairesse",
        "col1": "0",
        "col2": "1",
        "col3": "0"
    },
    {
        "col0": "W. Ferguson",
        "col1": "0",
        "col2": "0",
        "col3": "0"
    },
    {
        "col0": "W. Cantrell",
        "col1": "0",
        "col2": "0",
        "col3": "0"
    },
    {
        "col0": "W. Krakau",
        "col1": "0",
        "col2": "0",
        "col3": "0"
    },
    {
        "col0": "W. Heeks",
        "col1": "0",
        "col2": "0",
        "col3": "0"
    },
    {
        "col0": "W. Cantrell",
        "col1": "0",
        "col2": "0",
        "col3": "0"
    },
    {
        "col0": "W. Weiler",
        "col1": "0",
        "col2": "0",
        "col3": "0"
    },
    {
        "col0": "W. Brown",
        "col1": "0",
        "col2": "0",
        "col3": "0"
    },
    {
        "col0": "W. Faulkner",
        "col1": "1",
        "col2": "0",
        "col3": "0"
    },
    {
        "col0": "W. Brown",
        "col1": "0",
        "col2": "0",
        "col3": "0"
    },
    {
        "col0": "W. Ader",
        "col1": "0",
        "col2": "0",
        "col3": "0"
    },
    {
        "col0": "V. Weidler",
        "col1": "0",
        "col2": "0",
        "col3": "0"
    },
    {
        "col0": "V. Brambilla",
        "col1": "1",
        "col2": "1",
        "col3": "1"
    },
    {
        "col0": "V. Liuzzi",
        "col1": "0",
        "col2": "0",
        "col3": "0"
    },
    {
        "col0": "V. Sospiri",
        "col1": "0",
        "col2": "0",
        "col3": "0"
    },
    {
        "col0": "V. Wilson",
        "col1": "0",
        "col2": "0",
        "col3": "0"
    },
    {
        "col0": "V. Elford",
        "col1": "0",
        "col2": "0",
        "col3": "0"
    },
    {
        "col0": "V. Schuppan",
        "col1": "0",
        "col2": "0",
        "col3": "0"
    },
    {
        "col0": "U. Katayama",
        "col1": "0",
        "col2": "0",
        "col3": "0"
    },
    {
        "col0": "T. Taylor",
        "col1": "0",
        "col2": "1",
        "col3": "0"
    },
    {
        "col0": "T. Webb",
        "col1": "0",
        "col2": "0",
        "col3": "0"
    },
    {
        "col0": "T. d. Graffenried",
        "col1": "0",
        "col2": "0",
        "col3": "0"
    },
    {
        "col0": "T. Suzuki",
        "col1": "0",
        "col2": "0",
        "col3": "0"
    },
    {
        "col0": "T. Palm",
        "col1": "0",
        "col2": "0",
        "col3": "0"
    },
    {
        "col0": "T. Takagi",
        "col1": "0",
        "col2": "0",
        "col3": "0"
    },
    {
        "col0": "T. Trimmer",
        "col1": "0",
        "col2": "0",
        "col3": "0"
    },
    {
        "col0": "T. Shelly",
        "col1": "0",
        "col2": "0",
        "col3": "0"
    },
    {
        "col0": "T. Marsh",
        "col1": "0",
        "col2": "0",
        "col3": "0"
    },
    {
        "col0": "T. Maggs",
        "col1": "0",
        "col2": "3",
        "col3": "0"
    },
    {
        "col0": "T. Lanfranchi",
        "col1": "0",
        "col2": "0",
        "col3": "0"
    },
    {
        "col0": "T. Crook",
        "col1": "0",
        "col2": "0",
        "col3": "0"
    },
    {
        "col0": "T. Brooks",
        "col1": "3",
        "col2": "10",
        "col3": "6"
    },
    {
        "col0": "T. Brise",
        "col1": "0",
        "col2": "0",
        "col3": "0"
    },
    {
        "col0": "T. Branca",
        "col1": "0",
        "col2": "0",
        "col3": "0"
    },
    {
        "col0": "T. Enge",
        "col1": "0",
        "col2": "0",
        "col3": "0"
    },
    {
        "col0": "T. Byrne",
        "col1": "0",
        "col2": "0",
        "col3": "0"
    },
    {
        "col0": "T. Pryce",
        "col1": "1",
        "col2": "2",
        "col3": "0"
    },
    {
        "col0": "T. Jones",
        "col1": "0",
        "col2": "0",
        "col3": "0"
    },
    {
        "col0": "T. Bridger",
        "col1": "0",
        "col2": "0",
        "col3": "0"
    },
    {
        "col0": "T. Enge",
        "col1": "0",
        "col2": "0",
        "col3": "0"
    },
    {
        "col0": "T. Mayer",
        "col1": "0",
        "col2": "0",
        "col3": "0"
    },
    {
        "col0": "T. Parnell",
        "col1": "0",
        "col2": "0",
        "col3": "0"
    },
    {
        "col0": "T. Helfrich",
        "col1": "0",
        "col2": "0",
        "col3": "0"
    },
    {
        "col0": "T. Pilette",
        "col1": "0",
        "col2": "0",
        "col3": "0"
    },
    {
        "col0": "T. Marques",
        "col1": "0",
        "col2": "0",
        "col3": "0"
    },
    {
        "col0": "T. Inoue",
        "col1": "0",
        "col2": "0",
        "col3": "0"
    },
    {
        "col0": "S. Lewis-Evans",
        "col1": "2",
        "col2": "2",
        "col3": "0"
    },
    {
        "col0": "S. Moss",
        "col1": "16",
        "col2": "24",
        "col3": "16"
    },
    {
        "col0": "S. South",
        "col1": "0",
        "col2": "0",
        "col3": "0"
    },
    {
        "col0": "S. Modena",
        "col1": "0",
        "col2": "2",
        "col3": "0"
    },
    {
        "col0": "S. Johansson",
        "col1": "0",
        "col2": "12",
        "col3": "0"
    },
    {
        "col0": "S. Barber",
        "col1": "0",
        "col2": "0",
        "col3": "0"
    },
    {
        "col0": "S. Moser",
        "col1": "0",
        "col2": "0",
        "col3": "0"
    },
    {
        "col0": "S. Stohr",
        "col1": "0",
        "col2": "0",
        "col3": "0"
    },
    {
        "col0": "S. Templeman",
        "col1": "0",
        "col2": "0",
        "col3": "0"
    },
    {
        "col0": "S. Nakano",
        "col1": "0",
        "col2": "0",
        "col3": "0"
    },
    {
        "col0": "S. Summers",
        "col1": "0",
        "col2": "0",
        "col3": "0"
    },
    {
        "col0": "S. Mantovani",
        "col1": "0",
        "col2": "0",
        "col3": "0"
    },
    {
        "col0": "S. Nakajima",
        "col1": "0",
        "col2": "0",
        "col3": "0"
    },
    {
        "col0": "S. Tingle",
        "col1": "0",
        "col2": "0",
        "col3": "0"
    },
    {
        "col0": "S. Hanks",
        "col1": "0",
        "col2": "4",
        "col3": "1"
    },
    {
        "col0": "S. Yamamoto",
        "col1": "0",
        "col2": "0",
        "col3": "0"
    },
    {
        "col0": "R. Keegan",
        "col1": "0",
        "col2": "0",
        "col3": "0"
    },
    {
        "col0": "R. Schoeller",
        "col1": "0",
        "col2": "0",
        "col3": "0"
    },
    {
        "col0": "R. Krause",
        "col1": "0",
        "col2": "0",
        "col3": "0"
    },
    {
        "col0": "R. Fischer",
        "col1": "0",
        "col2": "2",
        "col3": "0"
    },
    {
        "col0": "R. Salvadori",
        "col1": "0",
        "col2": "2",
        "col3": "0"
    },
    {
        "col0": "R. Peterson",
        "col1": "14",
        "col2": "26",
        "col3": "10"
    },
    {
        "col0": "R. Flockhart",
        "col1": "0",
        "col2": "1",
        "col3": "0"
    },
    {
        "col0": "R. Ratzenberger",
        "col1": "0",
        "col2": "0",
        "col3": "0"
    },
    {
        "col0": "R. Williamson",
        "col1": "0",
        "col2": "0",
        "col3": "0"
    },
    {
        "col0": "R. Loyer",
        "col1": "0",
        "col2": "0",
        "col3": "0"
    },
    {
        "col0": "R. Laurent",
        "col1": "0",
        "col2": "0",
        "col3": "0"
    },
    {
        "col0": "R. Ward",
        "col1": "0",
        "col2": "2",
        "col3": "1"
    },
    {
        "col0": "R. Widdows",
        "col1": "0",
        "col2": "0",
        "col3": "0"
    },
    {
        "col0": "R. Moreno",
        "col1": "0",
        "col2": "1",
        "col3": "0"
    },
    {
        "col0": "R. Mieres",
        "col1": "0",
        "col2": "0",
        "col3": "0"
    },
    {
        "col0": "R. Lippi",
        "col1": "0",
        "col2": "0",
        "col3": "0"
    },
    {
        "col0": "R. Bonomi",
        "col1": "0",
        "col2": "0",
        "col3": "0"
    },
    {
        "col0": "R. O'Brien",
        "col1": "0",
        "col2": "0",
        "col3": "0"
    },
    {
        "col0": "R. Manzon",
        "col1": "0",
        "col2": "2",
        "col3": "0"
    },
    {
        "col0": "R. Lamplough",
        "col1": "0",
        "col2": "0",
        "col3": "0"
    },
    {
        "col0": "R. L. Caze",
        "col1": "0",
        "col2": "0",
        "col3": "0"
    },
    {
        "col0": "R. Slotemaker",
        "col1": "0",
        "col2": "0",
        "col3": "0"
    },
    {
        "col0": "R. Schroeder",
        "col1": "0",
        "col2": "0",
        "col3": "0"
    },
    {
        "col0": "R. v. Opel",
        "col1": "0",
        "col2": "0",
        "col3": "0"
    },
    {
        "col0": "R. Ginther",
        "col1": "0",
        "col2": "14",
        "col3": "1"
    },
    {
        "col0": "R. Robarts",
        "col1": "0",
        "col2": "0",
        "col3": "0"
    },
    {
        "col0": "R. Attwood",
        "col1": "0",
        "col2": "1",
        "col3": "0"
    },
    {
        "col0": "R. Zunino",
        "col1": "0",
        "col2": "0",
        "col3": "0"
    },
    {
        "col0": "R. Zonta",
        "col1": "0",
        "col2": "0",
        "col3": "0"
    },
    {
        "col0": "R. Rosset",
        "col1": "0",
        "col2": "0",
        "col3": "0"
    },
    {
        "col0": "R. Rodriguez",
        "col1": "0",
        "col2": "0",
        "col3": "0"
    },
    {
        "col0": "R. Londono",
        "col1": "0",
        "col2": "0",
        "col3": "0"
    },
    {
        "col0": "R. Arnoux",
        "col1": "18",
        "col2": "22",
        "col3": "7"
    },
    {
        "col0": "R. Zorzi",
        "col1": "0",
        "col2": "0",
        "col3": "0"
    },
    {
        "col0": "R. Arnoux",
        "col1": "18",
        "col2": "22",
        "col3": "7"
    },
    {
        "col0": "R. Parnell",
        "col1": "0",
        "col2": "1",
        "col3": "0"
    },
    {
        "col0": "R. Amick",
        "col1": "0",
        "col2": "0",
        "col3": "0"
    },
    {
        "col0": "R. Sommer",
        "col1": "0",
        "col2": "0",
        "col3": "0"
    },
    {
        "col0": "R. Reed",
        "col1": "0",
        "col2": "0",
        "col3": "0"
    },
    {
        "col0": "R. Crawford",
        "col1": "0",
        "col2": "0",
        "col3": "0"
    },
    {
        "col0": "P. Courage",
        "col1": "0",
        "col2": "2",
        "col3": "0"
    },
    {
        "col0": "P. Taruffi",
        "col1": "0",
        "col2": "5",
        "col3": "1"
    },
    {
        "col0": "P. Scotti",
        "col1": "0",
        "col2": "0",
        "col3": "0"
    },
    {
        "col0": "P. Drogo",
        "col1": "0",
        "col2": "0",
        "col3": "0"
    },
    {
        "col0": "P. Carini",
        "col1": "0",
        "col2": "0",
        "col3": "0"
    },
    {
        "col0": "P. Martini",
        "col1": "0",
        "col2": "0",
        "col3": "0"
    },
    {
        "col0": "P. Streiff",
        "col1": "0",
        "col2": "1",
        "col3": "0"
    },
    {
        "col0": "P. Alliot",
        "col1": "0",
        "col2": "0",
        "col3": "0"
    },
    {
        "col0": "P. Adams",
        "col1": "0",
        "col2": "0",
        "col3": "0"
    },
    {
        "col0": "P. Hill",
        "col1": "6",
        "col2": "16",
        "col3": "3"
    },
    {
        "col0": "P. Cade",
        "col1": "0",
        "col2": "0",
        "col3": "0"
    },
    {
        "col0": "P. d. Klerk",
        "col1": "0",
        "col2": "0",
        "col3": "0"
    },
    {
        "col0": "P. Westbury",
        "col1": "0",
        "col2": "0",
        "col3": "0"
    },
    {
        "col0": "P. Ryan",
        "col1": "0",
        "col2": "0",
        "col3": "0"
    },
    {
        "col0": "P. Revson",
        "col1": "1",
        "col2": "8",
        "col3": "2"
    },
    {
        "col0": "P. Monteverdi",
        "col1": "0",
        "col2": "0",
        "col3": "0"
    },
    {
        "col0": "P. Hirt",
        "col1": "0",
        "col2": "0",
        "col3": "0"
    },
    {
        "col0": "P. Gethin",
        "col1": "0",
        "col2": "1",
        "col3": "1"
    },
    {
        "col0": "P. Collins",
        "col1": "0",
        "col2": "9",
        "col3": "3"
    },
    {
        "col0": "P. Broeker",
        "col1": "0",
        "col2": "0",
        "col3": "0"
    },
    {
        "col0": "P. Ashdown",
        "col1": "0",
        "col2": "0",
        "col3": "0"
    },
    {
        "col0": "P. Arundell",
        "col1": "0",
        "col2": "2",
        "col3": "0"
    },
    {
        "col0": "P. Lovely",
        "col1": "0",
        "col2": "0",
        "col3": "0"
    },
    {
        "col0": "P. McCarthy",
        "col1": "0",
        "col2": "0",
        "col3": "0"
    },
    {
        "col0": "P. Rodriguez",
        "col1": "0",
        "col2": "7",
        "col3": "2"
    },
    {
        "col0": "P. Lamy",
        "col1": "0",
        "col2": "0",
        "col3": "0"
    },
    {
        "col0": "P. Diniz",
        "col1": "0",
        "col2": "0",
        "col3": "0"
    },
    {
        "col0": "P. Chaves",
        "col1": "0",
        "col2": "0",
        "col3": "0"
    },
    {
        "col0": "P. Russo",
        "col1": "0",
        "col2": "1",
        "col3": "0"
    },
    {
        "col0": "P. Pietsch",
        "col1": "0",
        "col2": "0",
        "col3": "0"
    },
    {
        "col0": "P. Hawkins",
        "col1": "0",
        "col2": "0",
        "col3": "0"
    },
    {
        "col0": "P. Frere",
        "col1": "0",
        "col2": "1",
        "col3": "0"
    },
    {
        "col0": "P. England",
        "col1": "0",
        "col2": "0",
        "col3": "0"
    },
    {
        "col0": "P. Emery",
        "col1": "0",
        "col2": "0",
        "col3": "0"
    },
    {
        "col0": "P. Belmondo",
        "col1": "0",
        "col2": "0",
        "col3": "0"
    }
]