[
    {
        "col0": "W. Mann",
        "col1": "1878-7-28",
        "col2": "1878-7-28",
        "col3": "1938-2-24"
    },
    {
        "col0": "W. Malthouse",
        "col1": "1890-12-16",
        "col2": "1890-12-16",
        "col3": "1961-5-10"
    },
    {
        "col0": "W. Mackworth",
        "col1": "1825-3-3",
        "col2": "1825-3-3",
        "col3": "1855-12-4"
    },
    {
        "col0": "W. Macgregor",
        "col1": "1888-02-23",
        "col2": "1888-02-23",
        "col3": "1980-10-05"
    },
    {
        "col0": "W. Lowe",
        "col1": "1873-11-17",
        "col2": "1873-11-17",
        "col3": "1945-5-26"
    },
    {
        "col0": "W. Lockwood",
        "col1": "1868-06-26",
        "col2": "1868-06-26",
        "col3": "1953-08-29"
    },
    {
        "col0": "W. Lipscomb",
        "col1": "1846-11-20",
        "col2": "1846-11-20",
        "col3": "1918-04-09"
    },
    {
        "col0": "W. Ling",
        "col1": "1891-10-3",
        "col2": "1891-10-3",
        "col3": "1960-9-26"
    }
]