[
    {
        "col0": "Why Lady Why",
        "col1": "G. Morris",
        "col2": "Bob Montgomery",
        "col3": "170"
    },
    {
        "col0": "Why I Love You So Much",
        "col1": "D. Simmons",
        "col2": "Daryl Simmons",
        "col3": "270"
    },
    {
        "col0": "Why I Am",
        "col1": "L. Moore",
        "col2": "Rob Cavallo",
        "col3": "234"
    },
    {
        "col0": "Why Goodbye",
        "col1": "R. Leigh",
        "col2": "Tony Brown",
        "col3": "218"
    },
    {
        "col0": "Why Girls Love Sailors",
        "col1": "H. Roach",
        "col2": "Hal Roach",
        "col3": "1200"
    },
    {
        "col0": "Why Girls Leave Home",
        "col1": "W. Nigh",
        "col2": "Harry Rapf",
        "col3": "-4800"
    },
    {
        "col0": "Why Georgia",
        "col1": "J. Mayer",
        "col2": "John Alagia",
        "col3": "268"
    },
    {
        "col0": "Why Dontcha Call Me No More",
        "col1": "Yahzarah",
        "col2": "Nicolay",
        "col3": "255"
    },
    {
        "col0": "Why Don't You Try",
        "col1": "E. Hutchinson",
        "col2": "Steve Jordan",
        "col3": "287"
    },
    {
        "col0": "Why Don't You Love Me",
        "col1": "H. Williams",
        "col2": "Fred Rose",
        "col3": "143"
    },
    {
        "col0": "Why Don't You Get a Job?",
        "col1": "D. Holland",
        "col2": "Dave Jerden",
        "col3": "169"
    },
    {
        "col0": "Why Don't You & I",
        "col1": "C. Kroeger",
        "col2": "Lester Mendez",
        "col3": "232"
    },
    {
        "col0": "Why Don't We Just Dance",
        "col1": "D. Brown",
        "col2": "Frank Rogers",
        "col3": "194"
    },
    {
        "col0": "Why Don't We Get Drunk",
        "col1": "J. Buffett",
        "col2": "Don Gant",
        "col3": "163"
    },
    {
        "col0": "Why Don't We Fall in Love",
        "col1": "R. Harrison",
        "col2": "Rich Harrison",
        "col3": "159"
    },
    {
        "col0": "Why Don't We Do It in the Road?",
        "col1": "Lennon-McCartney",
        "col2": "George Martin",
        "col3": "102"
    },
    {
        "col0": "Why Does My Heart Feel So Bad?",
        "col1": "Moby",
        "col2": "Moby",
        "col3": "225"
    },
    {
        "col0": "Why Does It Hurt So Bad",
        "col1": "K. \". Edmonds",
        "col2": "Kenneth \"Babyface\" Edmonds",
        "col3": "277"
    },
    {
        "col0": "Why Does It Have to Be",
        "col1": "R. Sharp",
        "col2": "Restless Heart",
        "col3": "180"
    },
    {
        "col0": "Why Does It Always Rain on Me?",
        "col1": "F. Healy",
        "col2": "Nigel Godrich",
        "col3": "194"
    },
    {
        "col0": "Why Does Herr R. Run Amok?",
        "col1": "R. W. Fassbinder",
        "col2": "Michael Fengler",
        "col3": "5400"
    },
    {
        "col0": "Why Do You Love Me",
        "col1": "Garbage",
        "col2": "Garbage",
        "col3": "232"
    },
    {
        "col0": "Why Do You Let Me Stay Here?",
        "col1": "Z. Deschanel",
        "col2": "M. Ward",
        "col3": "150"
    },
    {
        "col0": "Why Do We Want",
        "col1": "D. King",
        "col2": "Jerry Kennedy",
        "col3": "159"
    },
    {
        "col0": "Why Do I Have to Choose",
        "col1": "W. Nelson",
        "col2": "Chips Moman",
        "col3": "192"
    },
    {
        "col0": "Why Do Fools Fall in Love",
        "col1": "F. Lymon",
        "col2": "Diana Ross",
        "col3": "127"
    },
    {
        "col0": "Why Didn't I Think of That",
        "col1": "B. McDill",
        "col2": "Doug Johnson",
        "col3": "191"
    },
    {
        "col0": "Why Did You Let My Kitten Die?",
        "col1": "H. Ross",
        "col2": "Angelica",
        "col3": "155"
    },
    {
        "col0": "Why Did I Get Married Too?",
        "col1": "T. Perry",
        "col2": "Tyler Perry",
        "col3": "7260"
    },
    {
        "col0": "Why Did I Get Married?",
        "col1": "T. Perry",
        "col2": "Tyler Perry",
        "col3": "6780"
    },
    {
        "col0": "Why Cry at Parting?",
        "col1": "A. Halm",
        "col2": "Richard Eichberg",
        "col3": "5280"
    },
    {
        "col0": "Why Change Your Wife?",
        "col1": "O. Printzlau",
        "col2": "Cecil B. DeMille",
        "col3": "5400"
    },
    {
        "col0": "Why Can't We Live Together",
        "col1": "T. Thomas",
        "col2": "Timmy Thomas",
        "col3": "210"
    },
    {
        "col0": "Why Can't We Be Friends?",
        "col1": "H. E. Scott",
        "col2": "Eric Valentine",
        "col3": "197"
    },
    {
        "col0": "Why Can't It Wait 'Til Morning",
        "col1": "P. Collins",
        "col2": "Phil Collins",
        "col3": "181"
    },
    {
        "col0": "Why Can't I Have You",
        "col1": "R. Ocasek",
        "col2": "The Cars",
        "col3": "227"
    },
    {
        "col0": "Why Can't I Be You?",
        "col1": "R. Smith",
        "col2": "David M. Allen",
        "col3": "194"
    },
    {
        "col0": "Why Can't I?",
        "col1": "L. Phair",
        "col2": "The Matrix",
        "col3": "208"
    },
    {
        "col0": "Why Can't He Be You",
        "col1": "H. Cochran",
        "col2": "Owen Bradley",
        "col3": "201"
    },
    {
        "col0": "Why Believe in You",
        "col1": "S. Spiteri",
        "col2": "Tim Palmer",
        "col3": "248"
    },
    {
        "col0": "Why Be Good?",
        "col1": "C. Wilson",
        "col2": "John McCormick",
        "col3": "5040"
    },
    {
        "col0": "Why Baby Why",
        "col1": "G. Jones",
        "col2": "Norro Wilson",
        "col3": "131"
    },
    {
        "col0": "Why Ain't I Running",
        "col1": "G. Brooks",
        "col2": "Allen Reynolds",
        "col3": "272"
    },
    {
        "col0": "Why",
        "col1": "T. Sheridan",
        "col2": "Bert Kaempfert",
        "col3": "175"
    },
    {
        "col0": "Why",
        "col1": "Sonique",
        "col2": "Tube & Berger",
        "col3": "195"
    },
    {
        "col0": "Why",
        "col1": "A. Shamblin",
        "col2": "Dann Huff",
        "col3": "293"
    },
    {
        "col0": "Why",
        "col1": "M. J. Blige",
        "col2": "Eric Hudson",
        "col3": "261"
    },
    {
        "col0": "Why",
        "col1": "J. Rich",
        "col2": "Michael Knox",
        "col3": "213"
    },
    {
        "col0": "Why",
        "col1": "B. Marcucci",
        "col2": "Mike Curb",
        "col3": "150"
    },
    {
        "col0": "Why",
        "col1": "B. Edwards",
        "col2": "Chic",
        "col3": "212"
    }
]