[
    {
        "col0": "Summit County Courthouse",
        "col1": "J. M. Dyer",
        "col2": "74001625",
        "col3": "8093"
    },
    {
        "col0": "Sullivan County Poor Home",
        "col1": "W. &. Mahurin",
        "col2": "207",
        "col3": "12140"
    },
    {
        "col0": "Sugar Hill, Manhattan",
        "col1": "C. P. H. Gilbert",
        "col2": "2000360",
        "col3": "303514"
    },
    {
        "col0": "Sudbrook Park",
        "col1": "F. L. Olmsted",
        "col2": "73000904",
        "col3": "809371"
    },
    {
        "col0": "Stutsman County Courthouse and Sheriff's Residence/Jail",
        "col1": "H. C. Koch",
        "col2": "76001356",
        "col3": "11331"
    },
    {
        "col0": "Students' Hall",
        "col1": "A. W. Brunner",
        "col2": "3001150",
        "col3": "4046"
    },
    {
        "col0": "Struthers Library Building",
        "col1": "W. Pennsylvania",
        "col2": "75001671",
        "col3": "4046"
    },
    {
        "col0": "Strathglass Building",
        "col1": "Stone, Carpenter & Willson",
        "col2": "80000244",
        "col3": "1214"
    },
    {
        "col0": "Storm King Highway",
        "col1": "Palisades Interstate Park Commission",
        "col2": "82001229",
        "col3": "72843"
    },
    {
        "col0": "Stockmore Ranger Station",
        "col1": "Architects of the U.S. Forest Service",
        "col2": "99001293",
        "col3": "4046"
    },
    {
        "col0": "Stirling",
        "col1": "Theophilus Parsons Chandler, Jr.",
        "col2": "80003427",
        "col3": "2023"
    },
    {
        "col0": "Stillwater Overlook",
        "col1": "A. R. Nichols",
        "col2": "7001318",
        "col3": "19424"
    },
    {
        "col0": "Stewart Hall",
        "col1": "Wilson Bros. & Co.",
        "col2": "80004034",
        "col3": "2023"
    },
    {
        "col0": "Stevens Memorial Hall",
        "col1": "G. G. Adams",
        "col2": "4000963",
        "col3": "4046"
    },
    {
        "col0": "Stevens Building",
        "col1": "W. &. Lewis",
        "col2": "98000213",
        "col3": "404"
    },
    {
        "col0": "Stetson Union Church",
        "col1": "B. S. Deane",
        "col2": "81000068",
        "col3": "1214"
    },
    {
        "col0": "Stephenson County Courthouse",
        "col1": "E. E. Myers",
        "col2": "74002284",
        "col3": "4046"
    },
    {
        "col0": "State Normal School at Valley City Historic District",
        "col1": "H. Brothers",
        "col2": "95000049",
        "col3": "42087"
    },
    {
        "col0": "Starke County Courthouse",
        "col1": "W. &. Mahurin",
        "col2": "86003170",
        "col3": "6474"
    },
    {
        "col0": "Stark County Courthouse",
        "col1": "W. F. Kurke",
        "col2": "85002991",
        "col3": "8498"
    },
    {
        "col0": "Stambaugh Church of Christ",
        "col1": "S. Kentucky",
        "col2": "88003182",
        "col3": "404"
    },
    {
        "col0": "St. Vincent de Paul Church",
        "col1": "D. &. Meier",
        "col2": "89000492",
        "col3": "8093"
    },
    {
        "col0": "St. Stephen's Methodist Church",
        "col1": "A. M. Welch",
        "col2": "12000008",
        "col3": "647"
    },
    {
        "col0": "St. Sebastian's Catholic Church",
        "col1": "DeCurtins",
        "col2": "79002830",
        "col3": "0"
    },
    {
        "col0": "St. Peter's Roman Catholic Church",
        "col1": "F. A. Ludewig",
        "col2": "79002927",
        "col3": "30351"
    },
    {
        "col0": "St. Peter's Episcopal Church Complex",
        "col1": "H. Dudley",
        "col2": "1001508",
        "col3": "7284"
    },
    {
        "col0": "St. Peter's Episcopal Church",
        "col1": "F. Wills",
        "col2": "79002644",
        "col3": "4046"
    },
    {
        "col0": "St. Paul's Episcopal Church",
        "col1": "J. Douglas",
        "col2": "79000087",
        "col3": "1214"
    },
    {
        "col0": "St. Paul's Episcopal Church",
        "col1": "G. W. Lloyd",
        "col2": "82003613",
        "col3": "6879"
    },
    {
        "col0": "St. Paul's Episcopal Church",
        "col1": "A. P. Edgerton",
        "col2": "76001414",
        "col3": "0"
    },
    {
        "col0": "St. Paul's Episcopal Church",
        "col1": "G. W. Lloyd",
        "col2": "80002979",
        "col3": "4046"
    },
    {
        "col0": "St. Paul's Episcopal Church",
        "col1": "W. H. Wood",
        "col2": "78002599",
        "col3": "6070"
    },
    {
        "col0": "St. Paul's Episcopal Church",
        "col1": "R. Upjohn",
        "col2": "78000177",
        "col3": "4046"
    },
    {
        "col0": "St. Nicholas of Tolentine Church",
        "col1": "E. F. Durang",
        "col2": "1000039",
        "col3": "4046"
    },
    {
        "col0": "St. Nicholas Historic District",
        "col1": "B. Price",
        "col2": "75001209",
        "col3": "40063"
    },
    {
        "col0": "St. Michael's Hospital and Nurses' Residence",
        "col1": "G. Hancock",
        "col2": "95000468",
        "col3": "13354"
    },
    {
        "col0": "St. Michael's Episcopal Church",
        "col1": "F. &. Evans",
        "col2": "82001531",
        "col3": "3237"
    },
    {
        "col0": "St. Michael's Church",
        "col1": "H. Bros.",
        "col2": "88000983",
        "col3": "4046"
    },
    {
        "col0": "St. Michael's Catholic Church Complex",
        "col1": "J. M. Nachtigal",
        "col2": "83003990",
        "col3": "40468"
    },
    {
        "col0": "St. Mary's Episcopal Church, Burlington, New Jersey",
        "col1": "R. Upjohn",
        "col2": "72000770",
        "col3": "25090"
    },
    {
        "col0": "St. Mary's Complex",
        "col1": "P. C. Keely",
        "col2": "84002211",
        "col3": "28327"
    },
    {
        "col0": "St. Mary's Church of the Immaculate Conception Complex",
        "col1": "J. Murphy",
        "col2": "83003856",
        "col3": "26304"
    },
    {
        "col0": "St. Mary's Church",
        "col1": "P. Keely",
        "col2": "8000153",
        "col3": "3237"
    },
    {
        "col0": "St. Mary's Church",
        "col1": "J. Molitor",
        "col2": "96000514",
        "col3": "60702"
    },
    {
        "col0": "St. Mary's Catholic Church",
        "col1": "W. Strickland",
        "col2": "70000609",
        "col3": "4046"
    },
    {
        "col0": "St. Mary's Catholic Church",
        "col1": "A. Druiding",
        "col2": "80002994",
        "col3": "4046"
    },
    {
        "col0": "St. Mary's Abbey Church",
        "col1": "H. Engelbert",
        "col2": "72000790",
        "col3": "4046"
    },
    {
        "col0": "St. Mark's Episcopal Church",
        "col1": "E. C. Jones",
        "col2": "78002530",
        "col3": "8093"
    },
    {
        "col0": "St. Mark's Episcopal Church",
        "col1": "B. Goodhue",
        "col2": "91001725",
        "col3": "10117"
    },
    {
        "col0": "St. Mark's Episcopal Church",
        "col1": "R. M. Upjohn",
        "col2": "84001379",
        "col3": "2023"
    },
    {
        "col0": "St. Luke's Methodist Church",
        "col1": "C. &. Ferguson",
        "col2": "1001461",
        "col3": "4046"
    },
    {
        "col0": "St. Luke's Hospital",
        "col1": "H. &. Benes",
        "col2": "5000579",
        "col3": "33184"
    },
    {
        "col0": "St. Luke's Episcopal Church",
        "col1": "S. Hannaford",
        "col2": "77001064",
        "col3": "4046"
    },
    {
        "col0": "St. Lucy's Church",
        "col1": "G. Raggi",
        "col2": "98001570",
        "col3": "2023"
    },
    {
        "col0": "St. Katherine's Historic District",
        "col1": "J. C. Cochrane",
        "col2": "84001551",
        "col3": "37919"
    },
    {
        "col0": "St. Joseph City Hall",
        "col1": "E. J. Eckel",
        "col2": "85003356",
        "col3": "4046"
    },
    {
        "col0": "St. Joseph's Polish Catholic Church",
        "col1": "George I. Lovatt, Sr.",
        "col2": "3001307",
        "col3": "4046"
    },
    {
        "col0": "St. Joseph's House for Homeless Industrious Boys",
        "col1": "Hoffman-Henon",
        "col2": "96001204",
        "col3": "5260"
    },
    {
        "col0": "St. Joseph's Church and Friary",
        "col1": "C. &. Richardson",
        "col2": "76001403",
        "col3": "4046"
    },
    {
        "col0": "St. Joseph's Catholic Church",
        "col1": "DeCurtins",
        "col2": "79003453",
        "col3": "7284"
    },
    {
        "col0": "St. John the Baptist Church",
        "col1": "E. Cormier",
        "col2": "83003855",
        "col3": "4856"
    },
    {
        "col0": "St. John the Baptist Catholic Church",
        "col1": "A. Druiding",
        "col2": "79002828",
        "col3": "4046"
    },
    {
        "col0": "St. John Chrysostom Church",
        "col1": "R. M. Upjohn",
        "col2": "72000069",
        "col3": "2023"
    },
    {
        "col0": "St. John's United Methodist Church",
        "col1": "F. G. Clausen",
        "col2": "83002509",
        "col3": "8093"
    },
    {
        "col0": "St. John's German Evangelical Lutheran Church",
        "col1": "J. P. Guth",
        "col2": "82003183",
        "col3": "161874"
    },
    {
        "col0": "St. John's Episcopal Church",
        "col1": "E. F. Lawrence",
        "col2": "90001510",
        "col3": "4046"
    },
    {
        "col0": "St. John's Episcopal Church",
        "col1": "H. C. Jr.",
        "col2": "70000871",
        "col3": "40063"
    },
    {
        "col0": "St. John's Church",
        "col1": "A. Parris",
        "col2": "78000417",
        "col3": "8093"
    },
    {
        "col0": "St. James Hotel",
        "col1": "H. Trumbauer",
        "col2": "76001671",
        "col3": "780"
    },
    {
        "col0": "St. James Episcopal Church",
        "col1": "H. Vaughan",
        "col2": "74000188",
        "col3": "2023"
    },
    {
        "col0": "St. James Episcopal Church",
        "col1": "G. W. Lloyd",
        "col2": "79000098",
        "col3": "3237"
    },
    {
        "col0": "St. James Episcopal Church",
        "col1": "R. M. Upjohn",
        "col2": "76002026",
        "col3": "4046"
    },
    {
        "col0": "St. James Episcopal Church",
        "col1": "G. W. Lloyd",
        "col2": "71000434",
        "col3": "4046"
    },
    {
        "col0": "St. James' Episcopal Church and Parish House",
        "col1": "H. F. Kilburn",
        "col2": "82003347",
        "col3": "4046"
    },
    {
        "col0": "St. Henry's Catholic Church",
        "col1": "DeCurtins",
        "col2": "79002829",
        "col3": "12140"
    },
    {
        "col0": "St. Henry's Catholic Church",
        "col1": "A. Druiding",
        "col2": "82001485",
        "col3": "4046"
    },
    {
        "col0": "St. Gertrude Roman Catholic Church",
        "col1": "J. T. Comes",
        "col2": "83002287",
        "col3": "1618"
    },
    {
        "col0": "St. George's Church",
        "col1": "F. Wills",
        "col2": "8000143",
        "col3": "6070"
    },
    {
        "col0": "St. George's-by-the-River Episcopal Church",
        "col1": "W. &. Gillette",
        "col2": "7000045",
        "col3": "5260"
    },
    {
        "col0": "St. Florian Church",
        "col1": "R. A. Cram",
        "col2": "84001865",
        "col3": "335889"
    },
    {
        "col0": "St. Elizabeths Hospital",
        "col1": "Shepley, Rutan and Coolidge",
        "col2": "79003101",
        "col3": "1400212"
    },
    {
        "col0": "St. David Catholic Church",
        "col1": "T. G. O'Connell",
        "col2": "73000101",
        "col3": "4046"
    },
    {
        "col0": "St. Charles Borromeo Church Complex",
        "col1": "P. Keely",
        "col2": "83000003",
        "col3": "5260"
    },
    {
        "col0": "St. Catherine's Church of Lomice, North Dakota",
        "col1": "J. B. DeRemer",
        "col2": "6000249",
        "col3": "20234"
    },
    {
        "col0": "St. Casimir's Roman Catholic Church",
        "col1": "J. A. Jackson",
        "col2": "97000773",
        "col3": "2023"
    },
    {
        "col0": "St. Boniface Catholic Church",
        "col1": "F. Heer",
        "col2": "91001449",
        "col3": "53013"
    },
    {
        "col0": "St. Bonaventure Church Complex",
        "col1": "J. M. Nachtigall",
        "col2": "82000598",
        "col3": "49371"
    },
    {
        "col0": "St. Bartholomew's Episcopal Church",
        "col1": "B. Goodhue",
        "col2": "80002719",
        "col3": "4046"
    },
    {
        "col0": "St. Augustine of Canterbury Anglican Church",
        "col1": "A. Benton",
        "col2": "82002171",
        "col3": "404"
    },
    {
        "col0": "St. Athanasius Episcopal Church and Parish House and the Church of the Holy Comforter",
        "col1": "H. Upjohn",
        "col2": "79001653",
        "col3": "12140"
    },
    {
        "col0": "St. Anthony of Padua Roman Catholic Church",
        "col1": "L. H. Giele",
        "col2": "4000225",
        "col3": "1214"
    },
    {
        "col0": "St. Anthony Hall House",
        "col1": "C. a. Stewardson",
        "col2": "5000064",
        "col3": "1214"
    },
    {
        "col0": "St. Anthony's Catholic Church",
        "col1": "J. D. Curtins",
        "col2": "79002821",
        "col3": "4046"
    },
    {
        "col0": "St. Anne Church",
        "col1": "A. I. Lawrence",
        "col2": "79000197",
        "col3": "4046"
    },
    {
        "col0": "St. Andrew's Episcopal Church",
        "col1": "R. A. Cram",
        "col2": "75000512",
        "col3": "2023"
    },
    {
        "col0": "St. Andrew's-by-the-Sea",
        "col1": "W. a. Wetherell",
        "col2": "1001352",
        "col3": "404"
    },
    {
        "col0": "St. Aloysius' Catholic Church",
        "col1": "DeCurtins",
        "col2": "79002824",
        "col3": "60702"
    },
    {
        "col0": "Squirrel Hollow Park",
        "col1": "I. S. College",
        "col2": "91001835",
        "col3": "242811"
    },
    {
        "col0": "Squantum Association",
        "col1": "M. &. Hall",
        "col2": "80000010",
        "col3": "11128"
    },
    {
        "col0": "Springwood Cemetery",
        "col1": "G. L. Norrman",
        "col2": "5001156",
        "col3": "121405"
    },
    {
        "col0": "Springville Carnegie Library",
        "col1": "W. &. Treganza",
        "col2": "91001821",
        "col3": "404"
    },
    {
        "col0": "Springside",
        "col1": "A. J. Downing",
        "col2": "69000141",
        "col3": "107241"
    },
    {
        "col0": "Springfield School, Richmond",
        "col1": "C. M. Robinson",
        "col2": "92001032",
        "col3": "4856"
    },
    {
        "col0": "Springdale Historic District",
        "col1": "D. J. A.",
        "col2": "1000926",
        "col3": "220958"
    },
    {
        "col0": "Springdale Cemetery",
        "col1": "L. architect",
        "col2": "4001303",
        "col3": "902448"
    },
    {
        "col0": "Spooner Hall",
        "col1": "H. V. Brunt",
        "col2": "74000832",
        "col3": "4046"
    },
    {
        "col0": "Spencer Town Center Historic District",
        "col1": "E. Boyden",
        "col2": "86001399",
        "col3": "1197869"
    },
    {
        "col0": "Spencer County Courthouse",
        "col1": "E. E. Dunlap",
        "col2": "99000304",
        "col3": "5665"
    },
    {
        "col0": "Southern Terminal, Knoxville, Tennessee",
        "col1": "F. P. Milburn",
        "col2": "85002909",
        "col3": "133546"
    },
    {
        "col0": "Southern District Police Station",
        "col1": "J. C. Gott",
        "col2": "1001373",
        "col3": "809"
    },
    {
        "col0": "Southern Belting Company Building",
        "col1": "Lockwood Greene & Co.",
        "col2": "88001174",
        "col3": "1368"
    },
    {
        "col0": "South Washington Street Parabolic Bridge",
        "col1": "Berlin Iron Bridge Co.",
        "col2": "78001842",
        "col3": "4046"
    },
    {
        "col0": "South Pointe Drive-Frenchman's Creek Bridge",
        "col1": "Wayne County Road Commission",
        "col2": "117",
        "col3": "3642"
    },
    {
        "col0": "South Park Calvary United Presbyterian Church",
        "col1": "J. Welch",
        "col2": "72000784",
        "col3": "4046"
    },
    {
        "col0": "South Orange Village Hall",
        "col1": "R. &. Wright",
        "col2": "76001152",
        "col3": "2023"
    },
    {
        "col0": "South Oakdale Historic District",
        "col1": "F. C. Clark",
        "col2": "79002072",
        "col3": "129499"
    },
    {
        "col0": "South Dakota State Capitol",
        "col1": "B. &. Detweiler",
        "col2": "76001737",
        "col3": "80937"
    },
    {
        "col0": "South Brook Farm",
        "col1": "R. B. Okie",
        "col2": "91001710",
        "col3": "8093"
    },
    {
        "col0": "South Bridgton Congregational Church",
        "col1": "F. H. Fassett",
        "col2": "87000947",
        "col3": "4046"
    },
    {
        "col0": "Sophie May House",
        "col1": "C. Sawtelle",
        "col2": "76000114",
        "col3": "4046"
    },
    {
        "col0": "Somerset County Courthouse",
        "col1": "J. C. Stevens",
        "col2": "84000332",
        "col3": "1214"
    },
    {
        "col0": "Solomon House",
        "col1": "F. &. Evans",
        "col2": "78002454",
        "col3": "404"
    },
    {
        "col0": "Soldiers' and Sailors' Monument",
        "col1": "B. Schmitz",
        "col2": "73000040",
        "col3": "4046"
    },
    {
        "col0": "Soldiers' Home Historic District",
        "col1": "C. S. Haire",
        "col2": "94000385",
        "col3": "594887"
    },
    {
        "col0": "Snow School",
        "col1": "Okla. State Dept. of Education",
        "col2": "88001420",
        "col3": "4046"
    },
    {
        "col0": "Smith Wildman and Jennie",
        "col1": "C. &. Clausen",
        "col2": "5000905",
        "col3": "11735"
    },
    {
        "col0": "Smallpox Hospital",
        "col1": "J. R. Jr.",
        "col2": "72000881",
        "col3": "3642"
    },
    {
        "col0": "Slabsides",
        "col1": "J. Burroughs",
        "col2": "68000034",
        "col3": "687965"
    },
    {
        "col0": "Skowhegan Free Public Library",
        "col1": "E. E. Lewis",
        "col2": "83000473",
        "col3": "2023"
    },
    {
        "col0": "Skowhegan Fire Station",
        "col1": "W. R. Miller",
        "col2": "83003679",
        "col3": "1214"
    },
    {
        "col0": "Sixth Church of Christ, Scientist",
        "col1": "E. Grey",
        "col2": "80000168",
        "col3": "1618"
    },
    {
        "col0": "Site of Old Croton Dam",
        "col1": "J. B. Jervis",
        "col2": "73001289",
        "col3": "445154"
    },
    {
        "col0": "Sir Alfred T. Goshorn House",
        "col1": "J. W. McLaughlin",
        "col2": "73001459",
        "col3": "4046"
    },
    {
        "col0": "Sinclair, Rooney & Co. Building",
        "col1": "E. &. Johnson",
        "col2": "15001025",
        "col3": "1092"
    },
    {
        "col0": "Simon Gratz High School",
        "col1": "I. T. Catharine",
        "col2": "88002276",
        "col3": "10521"
    },
    {
        "col0": "Silver Bow County Poor Farm Hospital",
        "col1": "C. S. Haire",
        "col2": "81000366",
        "col3": "2023"
    },
    {
        "col0": "Silliman Memorial Presbyterian Church",
        "col1": "A. W. Fuller",
        "col2": "79001565",
        "col3": "5665"
    },
    {
        "col0": "Sidney Yates Building",
        "col1": "J. G. Hill",
        "col2": "78003051",
        "col3": "8093"
    },
    {
        "col0": "Sidney D. Miller Middle School",
        "col1": "M. a. Higginbotham",
        "col2": "10000689",
        "col3": "10117"
    },
    {
        "col0": "Sibley-Elmdorf Historic District",
        "col1": "J. F. Warner",
        "col2": "15000557",
        "col3": "433580"
    },
    {
        "col0": "Shriners Hospital for Crippled Children",
        "col1": "S. &. Whitney",
        "col2": "89001869",
        "col3": "40063"
    },
    {
        "col0": "Shiloh Indian Mounds Site",
        "col1": "M. culture",
        "col2": "79000279",
        "col3": "327795"
    },
    {
        "col0": "Sherman County Courthouse",
        "col1": "C. Burggraf",
        "col2": "98001122",
        "col3": "5260"
    },
    {
        "col0": "Sherlock Building",
        "col1": "F. M. White",
        "col2": "77001111",
        "col3": "809"
    },
    {
        "col0": "Sheridan County Courthouse",
        "col1": "I. Rush",
        "col2": "85002990",
        "col3": "6474"
    },
    {
        "col0": "Sheppard and Enoch Pratt Hospital",
        "col1": "C. Vaux",
        "col2": "71000369",
        "col3": "84579"
    },
    {
        "col0": "Shelby Consolidated School",
        "col1": "J. L. Sr.",
        "col2": "13001139",
        "col3": "36421"
    },
    {
        "col0": "Shea Terrace Elementary School",
        "col1": "C. M. Robinson",
        "col2": "2001002",
        "col3": "7689"
    },
    {
        "col0": "Shadow Mountain Trail",
        "col1": "N. P. Service",
        "col2": "8000124",
        "col3": "32374"
    },
    {
        "col0": "Shade Swamp Shelter",
        "col1": "C. C. Corps",
        "col2": "86001746",
        "col3": "26304"
    }
]