[
    {
        "col0": "Deep artery of the thigh",
        "col1": "Femoral artery",
        "col2": "Profunda femoris vein",
        "col3": "Perforating arteries",
        "col4": "629"
    },
    {
        "col0": "Common palmar digital arteries",
        "col1": "Superficial palmar arch",
        "col2": "Palmar digital veins",
        "col3": "Proper palmar digital arteries",
        "col4": "598"
    },
    {
        "col0": "Common iliac artery",
        "col1": "Abdominal aorta",
        "col2": "Common iliac vein",
        "col3": "External iliac artery",
        "col4": "613"
    },
    {
        "col0": "Common carotid artery",
        "col1": "Brachiocephalic artery",
        "col2": "Internal jugular vein",
        "col3": "External carotid artery",
        "col4": "549"
    },
    {
        "col0": "Brachiocephalic artery",
        "col1": "Aorta",
        "col2": "Brachiocephalic vein",
        "col3": "Common carotid artery",
        "col4": "548"
    },
    {
        "col0": "Brachial artery",
        "col1": "Axillary artery",
        "col2": "Brachial vein",
        "col3": "Radial artery",
        "col4": "589"
    },
    {
        "col0": "Axillary artery",
        "col1": "Subclavian artery",
        "col2": "Axillary vein",
        "col3": "Brachial artery",
        "col4": "586"
    },
    {
        "col0": "Ascending aorta",
        "col1": "Left ventricle",
        "col2": "Coronary sinus",
        "col3": "Left coronary artery",
        "col4": "545"
    },
    {
        "col0": "Aortic bifurcation",
        "col1": "Abdominal aorta",
        "col2": "Inferior vena cava",
        "col3": "Common iliac arteries",
        "col4": "613"
    },
    {
        "col0": "Aortic arch",
        "col1": "Ascending aorta",
        "col2": "Inferior vena cava",
        "col3": "Brachiocephalic artery",
        "col4": "547"
    },
    {
        "col0": "Anterior tibial artery",
        "col1": "Popliteal artery",
        "col2": "Anterior tibial vein",
        "col3": "Dorsalis pedis artery",
        "col4": "634"
    },
    {
        "col0": "Anterior inferior cerebellar artery",
        "col1": "Basilar artery",
        "col2": "Inferior cerebellar veins",
        "col3": "Labyrinthine artery",
        "col4": "580"
    },
    {
        "col0": "Anterior ethmoidal artery",
        "col1": "Ophthalmic artery",
        "col2": "Ethmoidal veins",
        "col3": "Anterior meningeal artery",
        "col4": "570"
    },
    {
        "col0": "Abdominal aorta",
        "col1": "Thoracic aorta",
        "col2": "Inferior vena cava",
        "col3": "Inferior mesenteric artery",
        "col4": "602"
    }
]