[
    {
        "col0": "Waikiki Natatorium War Memorial",
        "col1": "L. P. Hobart",
        "col2": "80001283",
        "col3": "21448"
    },
    {
        "col0": "Wadesboro Downtown Historic District",
        "col1": "W. &. Stern",
        "col2": "99000425",
        "col3": "129499"
    },
    {
        "col0": "Wade Memorial Chapel",
        "col1": "H. &. Benes",
        "col2": "73001422",
        "col3": "1214"
    },
    {
        "col0": "Wabuska Railroad Station",
        "col1": "S. P. Co.",
        "col2": "84002070",
        "col3": "404"
    },
    {
        "col0": "W. B. Thompson Mansion",
        "col1": "C. &. Hastings",
        "col2": "82001277",
        "col3": "6070"
    },
    {
        "col0": "W.A. McNeill House",
        "col1": "H. &. Rawson",
        "col2": "99001267",
        "col3": "4046"
    },
    {
        "col0": "Virginia State Capitol",
        "col1": "T. Jefferson",
        "col2": "66000911",
        "col3": "57060"
    },
    {
        "col0": "Virginia School for the Deaf and the Blind",
        "col1": "Robert Cary Long, Jr.",
        "col2": "69000361",
        "col3": "404685"
    },
    {
        "col0": "Virginia Robinson Gardens",
        "col1": "N. Dryden",
        "col2": "78000679",
        "col3": "25090"
    },
    {
        "col0": "Virginia House",
        "col1": "C. Gillette",
        "col2": "89001933",
        "col3": "35612"
    },
    {
        "col0": "Virginia Bank and Trust Building",
        "col1": "W. &. Nolting",
        "col2": "84003553",
        "col3": "404"
    },
    {
        "col0": "Village Historic District",
        "col1": "Samuel Hannaford & Sons",
        "col2": "86001626",
        "col3": "7203404"
    },
    {
        "col0": "Villa Vizcaya",
        "col1": "F. B. Hoffman",
        "col2": "70000181",
        "col3": "174014"
    },
    {
        "col0": "Villa Verde",
        "col1": "Marston, Van Pelt & Maybury",
        "col2": "84000896",
        "col3": "7284"
    },
    {
        "col0": "Villa Louis",
        "col1": "E. T. Mix",
        "col2": "66000123",
        "col3": "68796"
    },
    {
        "col0": "Villa Anneslie",
        "col1": "J. R. Niernsee",
        "col2": "77000685",
        "col3": "3237"
    },
    {
        "col0": "Victory Theatre",
        "col1": "J. Pridmore",
        "col2": "82000124",
        "col3": "4046"
    },
    {
        "col0": "Victor Cullen School Power House",
        "col1": "W. &. Nolting",
        "col2": "87000045",
        "col3": "8093"
    },
    {
        "col0": "Veterans Memorial School",
        "col1": "R. Mills",
        "col2": "93000690",
        "col3": "8093"
    },
    {
        "col0": "Vesper Cliff",
        "col1": "A. J. Davis",
        "col2": "5000746",
        "col3": "117358"
    },
    {
        "col0": "Vermont Building",
        "col1": "E. B. Stratton",
        "col2": "84000421",
        "col3": "1214"
    },
    {
        "col0": "Verizon Building",
        "col1": "R. T. Walker",
        "col2": "9000257",
        "col3": "3642"
    },
    {
        "col0": "Venetian Pool",
        "col1": "P. Paist",
        "col2": "81000193",
        "col3": "16187"
    },
    {
        "col0": "Vancroft",
        "col1": "Longfellow, Alden & Harlow",
        "col2": "86002885",
        "col3": "238764"
    },
    {
        "col0": "Van Wert County Courthouse",
        "col1": "T. J. Tolan",
        "col2": "74001639",
        "col3": "4046"
    },
    {
        "col0": "Van Buren County Courthouse",
        "col1": "C. Allen",
        "col2": "79001169",
        "col3": "8093"
    },
    {
        "col0": "Valley School",
        "col1": "S. &. Welch",
        "col2": "85000807",
        "col3": "4046"
    },
    {
        "col0": "Upper Roxborough Historic District",
        "col1": "F. Furness",
        "col2": "01000463, 04001226 (Boundary Increase)",
        "col3": "2877314"
    },
    {
        "col0": "Untermyer Park",
        "col1": "W. W. Bosworth",
        "col2": "74002263",
        "col3": "64749"
    },
    {
        "col0": "University of North Dakota Historic District",
        "col1": "J. B. DeRemer",
        "col2": "8001233",
        "col3": "513950"
    },
    {
        "col0": "University of Nevada Reno Historic District",
        "col1": "S. White",
        "col2": "87000135",
        "col3": "161874"
    },
    {
        "col0": "University of Florida Campus Historic District",
        "col1": "R. Weaver",
        "col2": "89000322",
        "col3": "2630456"
    },
    {
        "col0": "University of Connecticut Historic District",
        "col1": "C. N. Lowrie",
        "col2": "88003202",
        "col3": "424919"
    },
    {
        "col0": "University Courts Historic District",
        "col1": "A. Grindle",
        "col2": "7001308",
        "col3": "81341"
    },
    {
        "col0": "University Apartments",
        "col1": "I. M. Pei",
        "col2": "4001301",
        "col3": "65559"
    },
    {
        "col0": "United Traction Company Building",
        "col1": "M. T. Reynolds",
        "col2": "76001205",
        "col3": "4451"
    },
    {
        "col0": "United States Post Office-New London Main",
        "col1": "P. &. Keefe",
        "col2": "86000124",
        "col3": "6070"
    },
    {
        "col0": "United States Post Office-Lancaster Main",
        "col1": "L. A. Simon",
        "col2": "86002245",
        "col3": "1618"
    },
    {
        "col0": "United States Post Office - Port Townsend Main",
        "col1": "M. Bell",
        "col2": "91000652",
        "col3": "4451"
    },
    {
        "col0": "United States Post Office and Customs House-Douglas Main",
        "col1": "J. A. Wetmore",
        "col2": "85003104",
        "col3": "2023"
    },
    {
        "col0": "United States Post Office and Customhouse",
        "col1": "J. K. Taylor",
        "col2": "84002209",
        "col3": "4046"
    },
    {
        "col0": "United States Post Office and Courthouse-Havre Main",
        "col1": "J. A. Wetmore",
        "col2": "86000682",
        "col3": "2428"
    },
    {
        "col0": "United States Post Office and Courthouse-Great Falls",
        "col1": "J. K. Taylor",
        "col2": "86000681",
        "col3": "7689"
    },
    {
        "col0": "United States Post Office and Courthouse",
        "col1": "J. K. Taylor",
        "col2": "80001258",
        "col3": "2023"
    },
    {
        "col0": "United States Post Office and Courthouse",
        "col1": "T. &. Livingston",
        "col2": "94001620",
        "col3": "9307"
    },
    {
        "col0": "United States Post Office and Courthouse",
        "col1": "J. K. Taylor",
        "col2": "74001128",
        "col3": "2023"
    },
    {
        "col0": "United States Post Office and Courthouse",
        "col1": "P. Krouse",
        "col2": "84002236",
        "col3": "5665"
    },
    {
        "col0": "United States Post Office and Courthouse",
        "col1": "B. family",
        "col2": "84003567",
        "col3": "7689"
    },
    {
        "col0": "United States Post Office and Courthouse",
        "col1": "M. E. Bell",
        "col2": "74000796",
        "col3": "2832"
    },
    {
        "col0": "United States Post Office and Courthouse",
        "col1": "J. K. Taylor",
        "col2": "83001181",
        "col3": "2023"
    },
    {
        "col0": "United States Post Office and Courthouse",
        "col1": "J. H. Devereux",
        "col2": "74001835",
        "col3": "5260"
    },
    {
        "col0": "United States Post Office and Courthouse",
        "col1": "J. A. Wetmore",
        "col2": "77001530",
        "col3": "5260"
    },
    {
        "col0": "United States Post Office and Courthouse",
        "col1": "O. Wenderoth",
        "col2": "99001648",
        "col3": "4046"
    },
    {
        "col0": "United States Post Office and Courthouse",
        "col1": "J. K. Taylor",
        "col2": "79003105",
        "col3": "4046"
    },
    {
        "col0": "United States Post Office and Courthouse-Havre Main",
        "col1": "J. A. Wetmore",
        "col2": "86000682",
        "col3": "2428"
    },
    {
        "col0": "United States Post Office and Courthouse-Great Falls",
        "col1": "J. K. Taylor",
        "col2": "86000681",
        "col3": "7689"
    },
    {
        "col0": "United States Post Office Garage",
        "col1": "G. S. Underwood",
        "col2": "86001378",
        "col3": "10117"
    },
    {
        "col0": "United States Post Office",
        "col1": "United States Department of the Treasury",
        "col2": "85000545",
        "col3": "1335"
    },
    {
        "col0": "United States Post Office",
        "col1": "L. a. Mahoney",
        "col2": "83002993",
        "col3": "7284"
    },
    {
        "col0": "United States Post Office",
        "col1": "J. K. Taylor",
        "col2": "77001197",
        "col3": "4046"
    },
    {
        "col0": "United States Post Office",
        "col1": "J. K. Taylor",
        "col2": "10000130",
        "col3": "4046"
    },
    {
        "col0": "United States Post Office",
        "col1": "A. &. Allison",
        "col2": "83001208",
        "col3": "2428"
    },
    {
        "col0": "United States Post Office",
        "col1": "J. K. Taylor",
        "col2": "79000818",
        "col3": "2023"
    },
    {
        "col0": "United States Post Office",
        "col1": "C. &. Cross",
        "col2": "88002335",
        "col3": "4856"
    },
    {
        "col0": "United States Post Office",
        "col1": "M. E. Bell",
        "col2": "80002377",
        "col3": "1618"
    },
    {
        "col0": "United States Post Office",
        "col1": "United States Department of the Treasury",
        "col2": "86000077>",
        "col3": "2023"
    },
    {
        "col0": "United States Post Office",
        "col1": "W. Williams",
        "col2": "88002358",
        "col3": "7689"
    },
    {
        "col0": "United States Post Office",
        "col1": "L. A. Simon",
        "col2": "88001594",
        "col3": "3237"
    },
    {
        "col0": "United States Post Office - Port Townsend Main",
        "col1": "M. Bell",
        "col2": "91000652",
        "col3": "4451"
    },
    {
        "col0": "United States Post Office-Springville Main",
        "col1": "L. A. Simon",
        "col2": "89002000",
        "col3": "1214"
    },
    {
        "col0": "United States Post Office-Price Main",
        "col1": "L. A. Simon",
        "col2": "89001998",
        "col3": "2023"
    },
    {
        "col0": "United States Post Office-Lovelock Main",
        "col1": "L. A. Simon",
        "col2": "90000134",
        "col3": "1618"
    },
    {
        "col0": "United States Post Office-Helper Main",
        "col1": "L. A. Simon",
        "col2": "89001995",
        "col3": "2428"
    },
    {
        "col0": "United States Post Office, Courthouse, and Custom House",
        "col1": "L. A. Simon",
        "col2": "83004269",
        "col3": "3237"
    },
    {
        "col0": "United States Post Office-New London Main",
        "col1": "P. &. Keefe",
        "col2": "86000124",
        "col3": "6070"
    },
    {
        "col0": "United States Post Office-Lancaster Main",
        "col1": "L. A. Simon",
        "col2": "86002245",
        "col3": "1618"
    },
    {
        "col0": "United States Customs House and Court House",
        "col1": "A. B. Young",
        "col2": "70000747",
        "col3": "1214"
    },
    {
        "col0": "United States Customhouse and Post Office",
        "col1": "A. B. Young",
        "col2": "70000064",
        "col3": "4046"
    },
    {
        "col0": "United States Custom House",
        "col1": "H. &. Marshall",
        "col2": "74002217",
        "col3": "4046"
    },
    {
        "col0": "United States Courthouse",
        "col1": "L. A. Simon",
        "col2": "1000432",
        "col3": "5665"
    },
    {
        "col0": "United States Bullion Depository",
        "col1": "L. A. Simon",
        "col2": "88000056",
        "col3": "169967"
    },
    {
        "col0": "United Lutheran Church",
        "col1": "J. B. DeRemer",
        "col2": "91001906",
        "col3": "4046"
    },
    {
        "col0": "United Congregational Church",
        "col1": "J. LaFarge",
        "col2": "71000027",
        "col3": "36421"
    },
    {
        "col0": "United Congregational Church",
        "col1": "A. &. Collens",
        "col2": "84000822",
        "col3": "8093"
    },
    {
        "col0": "United Baptist Church of Lakeport",
        "col1": "G. H. Guernsey",
        "col2": "85001198",
        "col3": "2023"
    },
    {
        "col0": "Unitarian Universalist Church of Buffalo",
        "col1": "E. A. Kent",
        "col2": "15000367",
        "col3": "2144"
    },
    {
        "col0": "Unitarian Church of the Messiah",
        "col1": "P. &. Stearns",
        "col2": "80004513",
        "col3": "2832"
    },
    {
        "col0": "Union Station",
        "col1": "A. T. Fellheimer",
        "col2": "98001547",
        "col3": "8093"
    },
    {
        "col0": "Union School",
        "col1": "L. W. Robinson",
        "col2": "87001899",
        "col3": "4046"
    },
    {
        "col0": "Union School",
        "col1": "G. M. Harding",
        "col2": "93000203",
        "col3": "4046"
    },
    {
        "col0": "Union Mill Complex",
        "col1": "R. Brezee",
        "col2": "82003404",
        "col3": "16187"
    },
    {
        "col0": "Union Church of Vinalhaven",
        "col1": "J. C. Stevens",
        "col2": "84001388",
        "col3": "1214"
    },
    {
        "col0": "Union Block",
        "col1": "W. C. Albrant",
        "col2": "85003353",
        "col3": "404"
    },
    {
        "col0": "US 2-Iron River Bridge",
        "col1": "Michigan State Highway Department",
        "col2": "99001518",
        "col3": "4046"
    },
    {
        "col0": "U.S. Customhouse and Post Office",
        "col1": "A. B. Young",
        "col2": "74000180",
        "col3": "4046"
    },
    {
        "col0": "Tyler City Hall",
        "col1": "T. Shirley Simons, Sr.",
        "col2": "7000129",
        "col3": "5260"
    }
]