[
    {
        "col0": "Marcell Ranger Station",
        "col1": "United States Forest Service",
        "col2": "94000473",
        "col3": "52609"
    },
    {
        "col0": "Mar-a-Lago",
        "col1": "J. Urban",
        "col2": "80000961",
        "col3": "10219"
    },
    {
        "col0": "Maplewood School",
        "col1": "L. &. Hurd",
        "col2": "90000153",
        "col3": "4856"
    },
    {
        "col0": "Maple Lawn",
        "col1": "F. C. Withers",
        "col2": "84002879",
        "col3": "4815"
    },
    {
        "col0": "Maple Grove",
        "col1": "William R. Walker & Son",
        "col2": "1000293",
        "col3": "89030"
    },
    {
        "col0": "Mansion Hill Historic District",
        "col1": "C. &. Starck",
        "col2": "97000552",
        "col3": "198295"
    },
    {
        "col0": "Mansfield Training School and Hospital",
        "col1": "Cudworth, Woodworth & Thompson",
        "col2": "87001513",
        "col3": "1416399"
    },
    {
        "col0": "Mansfield Road-Michigamme River Bridge",
        "col1": "Michigan State Highway Department",
        "col2": "99001519",
        "col3": "4046"
    },
    {
        "col0": "Manomet Mills",
        "col1": "C. R. Makepeace & Company",
        "col2": "12000304",
        "col3": "46134"
    },
    {
        "col0": "Manchester Main Post Office",
        "col1": "J. A. Wetmore",
        "col2": "86000127",
        "col3": "2023"
    },
    {
        "col0": "Malvern Hall",
        "col1": "T. B. Company",
        "col2": "83002273",
        "col3": "5260"
    },
    {
        "col0": "Makemie Memorial Presbyterian Church",
        "col1": "I. Pursell",
        "col2": "8001044",
        "col3": "4451"
    },
    {
        "col0": "Makawao Union Church",
        "col1": "C. W. Dickey",
        "col2": "85003227",
        "col3": "6879"
    },
    {
        "col0": "Major Reuben Colburn House",
        "col1": "R. Colburn",
        "col2": "4000741",
        "col3": "24281"
    },
    {
        "col0": "Maizefield",
        "col1": "A. J. Davis",
        "col2": "73001184",
        "col3": "20234"
    },
    {
        "col0": "Maitland Estate",
        "col1": "B. Hoyt",
        "col2": "98001130",
        "col3": "16996"
    },
    {
        "col0": "Maine Eye and Ear Infirmary",
        "col1": "J. C. Stevens",
        "col2": "86002469",
        "col3": "4046"
    },
    {
        "col0": "Mahonia Hall",
        "col1": "E. F. Lawrence",
        "col2": "90000684",
        "col3": "3277"
    },
    {
        "col0": "Magnolia Hotel",
        "col1": "Alfred Bossom, Baron Bossom",
        "col2": "78002915",
        "col3": "1618"
    },
    {
        "col0": "Magnolia Cemetery",
        "col1": "E. C. Jones",
        "col2": "78002502",
        "col3": "372310"
    },
    {
        "col0": "Maeser Elementary",
        "col1": "R. C. Watkins",
        "col2": "82004177",
        "col3": "16187"
    },
    {
        "col0": "Mackie Building",
        "col1": "E. T. Mix",
        "col2": "73000084",
        "col3": "2023"
    },
    {
        "col0": "Machias Post Office and Customhouse",
        "col1": "A. B. Mullett",
        "col2": "77000090",
        "col3": "2023"
    },
    {
        "col0": "M. Lloyd Frank Estate",
        "col1": "H. Brookman",
        "col2": "79002133",
        "col3": "34398"
    },
    {
        "col0": "Lyndhurst",
        "col1": "A. J. Davis",
        "col2": "66000582",
        "col3": "271139"
    },
    {
        "col0": "Lyman Viaduct",
        "col1": "New York, New Haven and Hartford Railroad",
        "col2": "86002729",
        "col3": "4046"
    },
    {
        "col0": "Lyman Estate",
        "col1": "S. McIntire",
        "col2": "70000737",
        "col3": "149733"
    },
    {
        "col0": "Lydia Plantation",
        "col1": "C. C. Wilson",
        "col2": "10000299",
        "col3": "65559"
    },
    {
        "col0": "Lyceum-The Circle Historic District",
        "col1": "W. Nichols",
        "col2": "8001092",
        "col3": "40468"
    },
    {
        "col0": "Lustron Houses of Jermain Street Historic District",
        "col1": "L. Corporation",
        "col2": "9000572",
        "col3": "2913"
    },
    {
        "col0": "Lulu McCormick Junior High School",
        "col1": "F. H. Porter",
        "col2": "5000699",
        "col3": "9712"
    },
    {
        "col0": "Lukens Main Office Building",
        "col1": "C. &. Stewardson",
        "col2": "76001624",
        "col3": "7284"
    },
    {
        "col0": "Luella Garvey House",
        "col1": "P. R. Williams",
        "col2": "3001510",
        "col3": "1618"
    },
    {
        "col0": "Lucas County Courthouse and Jail",
        "col1": "D. L. Stine",
        "col2": "73002295",
        "col3": "24281"
    },
    {
        "col0": "Lucas County Courthouse Square Historic District",
        "col1": "W. Foster",
        "col2": "14000324",
        "col3": "85793"
    },
    {
        "col0": "Lowell Ranger Station",
        "col1": "Architects of the United States Forest Service",
        "col2": "93000529",
        "col3": "8093"
    },
    {
        "col0": "Lovell House",
        "col1": "R. Neutra",
        "col2": "71000147",
        "col3": "10117"
    },
    {
        "col0": "Loudoun House",
        "col1": "A. J. Davis",
        "col2": "73000798",
        "col3": "12140"
    },
    {
        "col0": "Lost Lake Trail",
        "col1": "N. P. Service",
        "col2": "8000126",
        "col3": "44110"
    },
    {
        "col0": "Lost Lake Guard Station",
        "col1": "C. C. Corps",
        "col2": "86000814",
        "col3": "5260"
    },
    {
        "col0": "Loring House Apartments",
        "col1": "F. H. & E. F. Fassett",
        "col2": "85000612",
        "col3": "6070"
    },
    {
        "col0": "Lord Baltimore Hotel",
        "col1": "W. L. Stoddart",
        "col2": "82001587",
        "col3": "1618"
    },
    {
        "col0": "Loon Lake Mountain Fire Observation Station",
        "col1": "A. Corporation",
        "col2": "8001144",
        "col3": "4046"
    },
    {
        "col0": "Longue Vue House and Gardens",
        "col1": "E. B. Shipman",
        "col2": "91001419",
        "col3": "32374"
    },
    {
        "col0": "Lombardy Apartment Building",
        "col1": "S. Hannaford",
        "col2": "80003062",
        "col3": "0"
    },
    {
        "col0": "Logia Adelphia",
        "col1": "S. Honore",
        "col2": "86000323",
        "col3": "404"
    },
    {
        "col0": "Logan Tabernacle",
        "col1": "C. O. Card",
        "col2": "75001800",
        "col3": "32374"
    },
    {
        "col0": "Loewenstein and Sons Hardware Building",
        "col1": "Y. &. Packard",
        "col2": "85003475",
        "col3": "404"
    },
    {
        "col0": "Locust Grove",
        "col1": "A. J. Davis",
        "col2": "66000515",
        "col3": "728434"
    },
    {
        "col0": "Lockheed PV-2 Harpoon No. 37396",
        "col1": "L. Corporation",
        "col2": "9000234",
        "col3": "4046"
    },
    {
        "col0": "Littleton Town Building",
        "col1": "W. V. Howard",
        "col2": "73000164",
        "col3": "1214"
    },
    {
        "col0": "Little Estate",
        "col1": "G. Jamieson",
        "col2": "98000610",
        "col3": "10117"
    },
    {
        "col0": "Lisbon Falls High School",
        "col1": "W. R. Miller",
        "col2": "7001150",
        "col3": "5544"
    },
    {
        "col0": "Linton Commercial Historic District",
        "col1": "P. &. Miller",
        "col2": "7000214",
        "col3": "72843"
    },
    {
        "col0": "Lindquist Apartment House",
        "col1": "E. Feig",
        "col2": "93000022",
        "col3": "809"
    },
    {
        "col0": "Linden Park",
        "col1": "A. Wadsworth",
        "col2": "85003297",
        "col3": "1133"
    },
    {
        "col0": "Linden Hall at Saint James Park",
        "col1": "J. F. Kuntz",
        "col2": "89001787",
        "col3": "36421"
    },
    {
        "col0": "Lincoln School",
        "col1": "F. E. Wetherell",
        "col2": "91001766",
        "col3": "9712"
    },
    {
        "col0": "Lincoln Motor Company Plant",
        "col1": "G. Mason",
        "col2": "78001521",
        "col3": "250905"
    },
    {
        "col0": "Lincliff",
        "col1": "W. J. Dodd",
        "col2": "83002694",
        "col3": "119382"
    },
    {
        "col0": "Liljestrand House",
        "col1": "V. Ossipoff",
        "col2": "8000207",
        "col3": "4046"
    },
    {
        "col0": "Library Park Historic District",
        "col1": "D. Burnham",
        "col2": "88002657",
        "col3": "68796"
    },
    {
        "col0": "Library Park",
        "col1": "O. C. Simonds",
        "col2": "733",
        "col3": "22257"
    },
    {
        "col0": "Liberty Tower",
        "col1": "S. &. Williams",
        "col2": "82001480",
        "col3": "4046"
    },
    {
        "col0": "Liberty Colored High School",
        "col1": "W. P. Administration",
        "col2": "3000270",
        "col3": "5665"
    },
    {
        "col0": "Lewis and Clark County Hospital Historic District",
        "col1": "C. S. Haire",
        "col2": "2001101",
        "col3": "15378"
    },
    {
        "col0": "Lewis T. Gilliland House",
        "col1": "E. F. Lawrence",
        "col2": "89000063",
        "col3": "809"
    },
    {
        "col0": "Lewis F. Powell Jr. United States Courthouse",
        "col1": "A. B. Young",
        "col2": "69000359",
        "col3": "4046"
    },
    {
        "col0": "Lenoir High School",
        "col1": "B. &. Benton",
        "col2": "90001146",
        "col3": "26304"
    },
    {
        "col0": "Legionville",
        "col1": "Legion of the United States",
        "col2": "75001617",
        "col3": "80937"
    },
    {
        "col0": "Leesburg Historic District",
        "col1": "P. W. Administration",
        "col2": "93000465",
        "col3": "26304"
    },
    {
        "col0": "Lebanon Springs Union Free School",
        "col1": "A. W. Fuller",
        "col2": "91001727",
        "col3": "30756"
    },
    {
        "col0": "Leavenworth Ranger Station",
        "col1": "USDA Forest Svce. Architecture Group",
        "col2": "86000840",
        "col3": "40063"
    },
    {
        "col0": "Leach Public Library",
        "col1": "K. &. Kurke",
        "col2": "89002303",
        "col3": "4046"
    },
    {
        "col0": "LeVeque Tower",
        "col1": "C. H. Crane",
        "col2": "75001398",
        "col3": "2023"
    },
    {
        "col0": "Lawton Park and Pavilion",
        "col1": "W. P. Administration",
        "col2": "91000476",
        "col3": "14163"
    },
    {
        "col0": "Laurel School Historic District",
        "col1": "M. Fuller",
        "col2": "80000909",
        "col3": "878167"
    },
    {
        "col0": "Latrobe Armory",
        "col1": "J. F. Kuntz",
        "col2": "89002076",
        "col3": "809"
    },
    {
        "col0": "Latimer School",
        "col1": "F. C. Sauer",
        "col2": "86002676",
        "col3": "16187"
    },
    {
        "col0": "Larimore City Hall",
        "col1": "J. W. Ross",
        "col2": "90000600",
        "col3": "4046"
    },
    {
        "col0": "Langley Park",
        "col1": "George Oakley Totten, Jr.",
        "col2": "8000809",
        "col3": "2681"
    },
    {
        "col0": "Landward House",
        "col1": "L. a. Farley",
        "col2": "73000809",
        "col3": "3237"
    },
    {
        "col0": "Landsford Canal",
        "col1": "R. Mills",
        "col2": "69000163",
        "col3": "2670925"
    },
    {
        "col0": "Lander County High School",
        "col1": "George A. Ferris and Son",
        "col2": "821",
        "col3": "15782"
    },
    {
        "col0": "Land Title Building",
        "col1": "D. Burnham",
        "col2": "78002450",
        "col3": "809"
    },
    {
        "col0": "Land's End Plantation",
        "col1": "J. P. Almand",
        "col2": "99000044",
        "col3": "218530"
    },
    {
        "col0": "Lancaster Block",
        "col1": "J. C. Stevens",
        "col2": "82000745",
        "col3": "2023"
    },
    {
        "col0": "Lakewood Cemetery",
        "col1": "H. W. Jones",
        "col2": "83003657",
        "col3": "1011714"
    },
    {
        "col0": "Lake Zumbro Hydroelectric Generating Plant",
        "col1": "H. L. Cooper",
        "col2": "91000243",
        "col3": "8093"
    },
    {
        "col0": "Lake Wedington Historic District",
        "col1": "W. P. Administration",
        "col2": "94001612",
        "col3": "687965"
    },
    {
        "col0": "Lake View Cemetery",
        "col1": "A. D. Taylor",
        "col2": "96000137",
        "col3": "202342"
    },
    {
        "col0": "Lake McDonald Lodge Coffee Shop",
        "col1": "B. a. Lenon",
        "col2": "8001014",
        "col3": "6879"
    },
    {
        "col0": "Lake Haiyaha Trail",
        "col1": "N. P. Service",
        "col2": "8000125",
        "col3": "147305"
    },
    {
        "col0": "Laconia Passenger Station",
        "col1": "B. Gilbert",
        "col2": "82001667",
        "col3": "4451"
    },
    {
        "col0": "LaSalle City Building",
        "col1": "V. A. Matteson",
        "col2": "85001909",
        "col3": "2428"
    },
    {
        "col0": "Kykuit",
        "col1": "W. W. Bosworth",
        "col2": "76001290",
        "col3": "13759311"
    },
    {
        "col0": "Kora Temple",
        "col1": "G. M. Coombs",
        "col2": "75000088",
        "col3": "4046"
    },
    {
        "col0": "Kooser State Park",
        "col1": "C. C. Corps",
        "col2": "87000111",
        "col3": "37231"
    },
    {
        "col0": "Kokomo High School and Memorial Gymnasium",
        "col1": "E. Dunlap",
        "col2": "5000607",
        "col3": "32374"
    },
    {
        "col0": "Kokomo City Building",
        "col1": "W. &. Mahurin",
        "col2": "81000014",
        "col3": "1214"
    },
    {
        "col0": "Kohala Historical Sites State Monument",
        "col1": "Pa'ao",
        "col2": "66000284",
        "col3": "469435"
    },
    {
        "col0": "Knowlton Mansion",
        "col1": "F. Furness",
        "col2": "74001803",
        "col3": "52609"
    },
    {
        "col0": "Knights of Pythias Lodge",
        "col1": "N. R. Shambleau",
        "col2": "85001219",
        "col3": "4046"
    },
    {
        "col0": "Knight-Mangum House",
        "col1": "W. E. Ware",
        "col2": "82004176",
        "col3": "2509"
    },
    {
        "col0": "Knight-Allen House",
        "col1": "R. C. Watkins",
        "col2": "82004175",
        "col3": "1011"
    },
    {
        "col0": "Knerr Block, Floyd Block, McHench Building and Webster and Coe Building",
        "col1": "H. Brothers",
        "col2": "83001930",
        "col3": "4046"
    },
    {
        "col0": "Kissock Block Building",
        "col1": "M. Fuller",
        "col2": "85001061",
        "col3": "809"
    },
    {
        "col0": "Kirkland Lookout Ground House",
        "col1": "Architects of the U.S. Forest Service",
        "col2": "91000165",
        "col3": "2023"
    },
    {
        "col0": "Kingsbridge Armory",
        "col1": "L. Pilcher",
        "col2": "82001090",
        "col3": "20234"
    },
    {
        "col0": "Kingman Commercial Historic District",
        "col1": "R. W. Lescher",
        "col2": "86001153",
        "col3": "18210"
    },
    {
        "col0": "Kidd House",
        "col1": "L. R. Wilburn",
        "col2": "83000209",
        "col3": "16187"
    },
    {
        "col0": "Kibler High School",
        "col1": "E. B. Green",
        "col2": "98001612",
        "col3": "14163"
    },
    {
        "col0": "Ketchikan Ranger House",
        "col1": "Architects of the United States Forest Service",
        "col2": "87000645",
        "col3": "809"
    },
    {
        "col0": "Kenwood",
        "col1": "H. R. Warne",
        "col2": "7000784",
        "col3": "16592"
    },
    {
        "col0": "Kent County Courthouse",
        "col1": "William R. Walker & Son",
        "col2": "70000013",
        "col3": "4046"
    },
    {
        "col0": "Kennedy School",
        "col1": "F. Naramore",
        "col2": "88003472",
        "col3": "17077"
    },
    {
        "col0": "Kennebunk River Club",
        "col1": "F. W. Stickney",
        "col2": "75002169",
        "col3": "4046"
    },
    {
        "col0": "Kelsey Museum of Archaeology",
        "col1": "S. a. Rohns",
        "col2": "72000660",
        "col3": "4046"
    },
    {
        "col0": "Keeney House",
        "col1": "B. Fleming",
        "col2": "79001583",
        "col3": "3035"
    },
    {
        "col0": "Keeler Tavern",
        "col1": "C. Gilbert",
        "col2": "82004345",
        "col3": "8903"
    },
    {
        "col0": "Kankakee County Courthouse",
        "col1": "Z. T. Davis",
        "col2": "7000115",
        "col3": "11735"
    },
    {
        "col0": "Kaneohe Ranch Building",
        "col1": "A. E. Ives",
        "col2": "87001150",
        "col3": "4046"
    },
    {
        "col0": "Kanabec County Courthouse",
        "col1": "B. a. Jacobson",
        "col2": "77000748",
        "col3": "4046"
    },
    {
        "col0": "Kalaupapa Leprosy Settlement and National Historical Park",
        "col1": "Hawaii",
        "col2": "76002145",
        "col3": "43621065"
    },
    {
        "col0": "Kakaako Pumping Station",
        "col1": "O. G. Traphagen",
        "col2": "78001022",
        "col3": "4451"
    },
    {
        "col0": "Kahikolu Church",
        "col1": "J. D. Paris",
        "col2": "82000148",
        "col3": "10521"
    },
    {
        "col0": "Justin Smith Morrill Homestead",
        "col1": "J. S. Morrill",
        "col2": "66000795",
        "col3": "12140"
    },
    {
        "col0": "Juniper Hill Cemetery",
        "col1": "C. A. Hall",
        "col2": "98000632",
        "col3": "89030"
    },
    {
        "col0": "Julius W. Hegeler I House",
        "col1": "P. &. Pond",
        "col2": "9000028",
        "col3": "7284"
    },
    {
        "col0": "Julius Lansburgh Furniture Co., Inc.",
        "col1": "A. Cluss",
        "col2": "74002164",
        "col3": "809"
    },
    {
        "col0": "Journal Record Building",
        "col1": "L. &. Forsyth",
        "col2": "80003286",
        "col3": "4046"
    },
    {
        "col0": "Joseph and Lucy Foster Sexton House",
        "col1": "P. J. Barber",
        "col2": "91002033",
        "col3": "6070"
    },
    {
        "col0": "Joseph Holt Ingraham House",
        "col1": "A. Parris",
        "col2": "73000116",
        "col3": "4046"
    },
    {
        "col0": "Jose Castro House",
        "col1": "J. Castro",
        "col2": "70000141",
        "col3": "4046"
    },
    {
        "col0": "Jordanville Public Library",
        "col1": "T. &. Livingston",
        "col2": "84002397",
        "col3": "4046"
    },
    {
        "col0": "Jones Memorial Library",
        "col1": "F. &. Chesterman",
        "col2": "80004311",
        "col3": "7284"
    },
    {
        "col0": "Jonathan Sturges House",
        "col1": "J. C. Wells",
        "col2": "84000247",
        "col3": "5665"
    },
    {
        "col0": "John and Syd Dobkins House",
        "col1": "F. L. Wright",
        "col2": "8001298",
        "col3": "20234"
    },
    {
        "col0": "John Wesley Methodist Church",
        "col1": "J. W. Dunn",
        "col2": "74001997",
        "col3": "2023"
    },
    {
        "col0": "John W. Ferguson House",
        "col1": "W. L. Stoddart",
        "col2": "80002516",
        "col3": "4451"
    },
    {
        "col0": "John W. Cook Hall",
        "col1": "G. H. Miller",
        "col2": "86000268",
        "col3": "4046"
    },
    {
        "col0": "John S. Williams House and Farm",
        "col1": "P. &. Coffin",
        "col2": "96001424",
        "col3": "1023854"
    },
    {
        "col0": "John S. Baker House",
        "col1": "J. K. Wilson",
        "col2": "79001852",
        "col3": "7284"
    },
    {
        "col0": "John N. A. Griswold House",
        "col1": "R. M. Hunt",
        "col2": "71000023",
        "col3": "9752"
    },
    {
        "col0": "John Muir National Historic Site",
        "col1": "M. California",
        "col2": "66000083",
        "col3": "1396165"
    },
    {
        "col0": "John M. and Elizabeth Bates House No. 1",
        "col1": "W. H. Pipes",
        "col2": "90000846",
        "col3": "485"
    },
    {
        "col0": "John Janecek House",
        "col1": "H. Voss",
        "col2": "82003185",
        "col3": "428966"
    },
    {
        "col0": "John Hafen House",
        "col1": "A. O. Treganza",
        "col2": "82004182",
        "col3": "4451"
    },
    {
        "col0": "John Deere House and Shop",
        "col1": "J. Deere",
        "col2": "66000327",
        "col3": "16187"
    }
]