[
    {
        "col0": "French aircraft carrier Foch",
        "col1": "24200000000",
        "col2": "2000-11-15",
        "col3": "1960-07-23"
    },
    {
        "col0": "Danish ironclad Odin",
        "col1": "3170000000",
        "col2": "1912-06-12",
        "col3": "1872-12-12"
    },
    {
        "col0": "Danish ironclad Lindormen",
        "col1": "2048000000",
        "col2": "1907-06-29",
        "col3": "1868-08-08"
    },
    {
        "col0": "Danish ironclad Helgoland",
        "col1": "5480000000",
        "col2": "1907-06-29",
        "col3": "1878-05-09"
    },
    {
        "col0": "Danish ironclad Gorm",
        "col1": "2313000000",
        "col2": "1912-06-12",
        "col3": "1870-05-17"
    },
    {
        "col0": "Danish ironclad Danmark",
        "col1": "4770000000",
        "col2": "1900-11-22",
        "col3": "1864-02-23"
    },
    {
        "col0": "Chilean corvette Baquedano",
        "col1": "2500000000",
        "col2": "1959-12-15",
        "col3": "1898-07-05"
    },
    {
        "col0": "Brazilian ironclad Tamandare",
        "col1": "754000000",
        "col2": "1879-04-18",
        "col3": "1865-06-21"
    },
    {
        "col0": "Brazilian battleship Minas Geraes",
        "col1": "19281000000",
        "col2": "1952-05-16",
        "col3": "1908-09-10"
    }
]