[
    {
        "col0": "USS Montgomery",
        "col1": "2",
        "col2": "1917-10-02",
        "col3": "1918-09-30"
    },
    {
        "col0": "USS Monterey",
        "col1": "7",
        "col2": "1941-12-29",
        "col3": "1943-06-17"
    },
    {
        "col0": "USS Monterey",
        "col1": "4",
        "col2": "1889-12-20",
        "col3": "1893-02-13"
    },
    {
        "col0": "USS Montcalm",
        "col1": "4",
        "col2": "1919-06-16",
        "col3": "1921-01-19"
    },
    {
        "col0": "USS Montauk",
        "col1": "6",
        "col2": "1942-04-14",
        "col3": "1944-10-06"
    },
    {
        "col0": "USS Monssen",
        "col1": "3",
        "col2": "1943-06-01",
        "col3": "1944-02-14"
    },
    {
        "col0": "USS Monssen",
        "col1": "3",
        "col2": "1939-07-12",
        "col3": "1941-03-14"
    },
    {
        "col0": "USS Monsoon",
        "col1": "2",
        "col2": "1992-02-15",
        "col3": "1994-01-22"
    },
    {
        "col0": "USS Monongahela",
        "col1": "9",
        "col2": "1978-08-15",
        "col3": "1981-09-05"
    },
    {
        "col0": "USS Monocacy",
        "col1": "0",
        "col2": "1913-04-28",
        "col3": "1914-06-24"
    },
    {
        "col0": "USS Monmouth County",
        "col1": "0",
        "col2": "1944-06-09",
        "col3": "1944-08-01"
    },
    {
        "col0": "USS Monitor",
        "col1": "6",
        "col2": "1941-10-21",
        "col3": "1944-06-14"
    },
    {
        "col0": "USS Monaghan",
        "col1": "2",
        "col2": "1910-06-01",
        "col3": "1911-06-21"
    },
    {
        "col0": "USS Mona Island",
        "col1": "7",
        "col2": "1944-04-10",
        "col3": "1944-10-17"
    },
    {
        "col0": "USS Molala",
        "col1": "4",
        "col2": "1942-07-26",
        "col3": "1943-09-29"
    },
    {
        "col0": "USS Moinester",
        "col1": "7",
        "col2": "1972-08-25",
        "col3": "1974-11-02"
    },
    {
        "col0": "USS Mohican",
        "col1": "5",
        "col2": "1872-09-04",
        "col3": "1885-05-25"
    },
    {
        "col0": "USS Mockingbird",
        "col1": "2",
        "col2": "1943-09-17",
        "col3": "1944-11-18"
    },
    {
        "col0": "USS Moccasin",
        "col1": "3",
        "col2": "1900-11-08",
        "col3": "1903-01-17"
    },
    {
        "col0": "USS Mobjack",
        "col1": "3",
        "col2": "1942-02-25",
        "col3": "1943-10-17"
    },
    {
        "col0": "USS Mobile",
        "col1": "7",
        "col2": "1968-01-15",
        "col3": "1969-09-20"
    },
    {
        "col0": "USS Mobile",
        "col1": "7",
        "col2": "1941-04-14",
        "col3": "1943-03-24"
    },
    {
        "col0": "USS Moberly",
        "col1": "3",
        "col2": "1943-11-03",
        "col3": "1944-12-11"
    },
    {
        "col0": "USS Moale",
        "col1": "4",
        "col2": "1943-08-05",
        "col3": "1944-02-28"
    },
    {
        "col0": "USS Mitscher",
        "col1": "6",
        "col2": "1949-10-03",
        "col3": "1953-05-15"
    },
    {
        "col0": "USS Mitchell",
        "col1": "3",
        "col2": "1943-01-12",
        "col3": "1943-11-17"
    },
    {
        "col0": "USS Missouri",
        "col1": "7",
        "col2": "1900-02-07",
        "col3": "1903-12-01"
    },
    {
        "col0": "USS Missoula",
        "col1": "7",
        "col2": "1944-06-20",
        "col3": "1944-10-27"
    },
    {
        "col0": "USS Mississippi",
        "col1": "9",
        "col2": "1975-02-22",
        "col3": "1978-08-05"
    },
    {
        "col0": "USS Mississippi",
        "col1": "9",
        "col2": "1915-04-05",
        "col3": "1917-12-18"
    },
    {
        "col0": "USS Mississippi",
        "col1": "7",
        "col2": "1904-05-12",
        "col3": "1908-02-01"
    },
    {
        "col0": "USS Mississinewa",
        "col1": "10",
        "col2": "1953-05-04",
        "col3": "1955-01-18"
    },
    {
        "col0": "USS Mission Bay",
        "col1": "6",
        "col2": "1942-12-28",
        "col3": "1943-09-13"
    },
    {
        "col0": "USS Mispillion",
        "col1": "9",
        "col2": "1945-02-14",
        "col3": "1945-12-29"
    },
    {
        "col0": "USS Mirth",
        "col1": "2",
        "col2": "1943-07-31",
        "col3": "1944-08-12"
    },
    {
        "col0": "USS Minotaur",
        "col1": "3",
        "col2": "1944-06-20",
        "col3": "1944-09-30"
    },
    {
        "col0": "USS Minneapolis",
        "col1": "5",
        "col2": "1931-06-27",
        "col3": "1934-05-19"
    },
    {
        "col0": "USS Minneapolis",
        "col1": "6",
        "col2": "1891-12-16",
        "col3": "1894-12-13"
    },
    {
        "col0": "USS Minivet",
        "col1": "3",
        "col2": "1944-07-19",
        "col3": "1945-05-29"
    },
    {
        "col0": "USS Mineral County",
        "col1": "0",
        "col2": "1944-02-10",
        "col3": "1944-04-25"
    },
    {
        "col0": "USS Mindanao",
        "col1": "1",
        "col2": "1926-11-20",
        "col3": "1928-07-10"
    },
    {
        "col0": "USS Minah",
        "col1": "2",
        "col2": "1943-06-17",
        "col3": "1944-02-15"
    },
    {
        "col0": "USS Mimosa",
        "col1": "3",
        "col2": "1940-10-15",
        "col3": "1942-12-10"
    },
    {
        "col0": "USS Milwaukee",
        "col1": "3",
        "col2": "1918-12-13",
        "col3": "1923-06-20"
    },
    {
        "col0": "USS Milwaukee",
        "col1": "6",
        "col2": "1902-07-30",
        "col3": "1906-05-11"
    },
    {
        "col0": "USS Milwaukee",
        "col1": "11",
        "col2": "1966-11-29",
        "col3": "1969-11-01"
    },
    {
        "col0": "USS Millicoma",
        "col1": "9",
        "col2": "1942-08-04",
        "col3": "1943-03-05"
    },
    {
        "col0": "USS Miller",
        "col1": "5",
        "col2": "1942-08-18",
        "col3": "1943-08-31"
    },
    {
        "col0": "USS Milledgeville",
        "col1": "3",
        "col2": "1943-11-09",
        "col3": "1945-01-18"
    },
    {
        "col0": "USS Might",
        "col1": "4",
        "col2": "1941-11-02",
        "col3": "1942-07-15"
    },
    {
        "col0": "USS Mifflin",
        "col1": "7",
        "col2": "1944-05-15",
        "col3": "1944-10-11"
    },
    {
        "col0": "USS Middlesex County",
        "col1": "0",
        "col2": "1943-12-22",
        "col3": "1944-03-25"
    },
    {
        "col0": "USS Midas",
        "col1": "3",
        "col2": "1943-08-31",
        "col3": "1944-05-23"
    },
    {
        "col0": "USS Micka",
        "col1": "3",
        "col2": "1943-05-03",
        "col3": "1943-09-23"
    },
    {
        "col0": "USS Miami",
        "col1": "7",
        "col2": "1941-08-02",
        "col3": "1943-12-28"
    },
    {
        "col0": "USS Meyerkord",
        "col1": "7",
        "col2": "1966-09-01",
        "col3": "1969-11-28"
    },
    {
        "col0": "USS Mettawee",
        "col1": "5",
        "col2": "1942-08-13",
        "col3": "1943-08-26"
    },
    {
        "col0": "USS Metivier",
        "col1": "2",
        "col2": "1943-11-24",
        "col3": "1944-04-07"
    },
    {
        "col0": "USS Method",
        "col1": "2",
        "col2": "1943-06-07",
        "col3": "1944-07-10"
    },
    {
        "col0": "USS Metcalf",
        "col1": "5",
        "col2": "1943-08-10",
        "col3": "1944-11-18"
    },
    {
        "col0": "USS Mervine",
        "col1": "5",
        "col2": "1941-11-03",
        "col3": "1942-06-17"
    },
    {
        "col0": "USS Mertz",
        "col1": "5",
        "col2": "1943-05-10",
        "col3": "1943-11-19"
    },
    {
        "col0": "USS Merrimack",
        "col1": "9",
        "col2": "1979-07-16",
        "col3": "1981-11-14"
    },
    {
        "col0": "USS Mero",
        "col1": "4",
        "col2": "1944-07-22",
        "col3": "1945-08-17"
    },
    {
        "col0": "USS Meriwether",
        "col1": "8",
        "col2": "1942-02-18",
        "col3": "1944-11-07"
    },
    {
        "col0": "USS Merganser",
        "col1": "2",
        "col2": "1944-01-09",
        "col3": "1944-11-11"
    },
    {
        "col0": "USS Meredith",
        "col1": "4",
        "col2": "1943-07-26",
        "col3": "1944-03-14"
    },
    {
        "col0": "USS Meredith",
        "col1": "3",
        "col2": "1939-06-01",
        "col3": "1941-03-01"
    },
    {
        "col0": "USS Mercy",
        "col1": "7",
        "col2": "1943-02-04",
        "col3": "1944-08-07"
    },
    {
        "col0": "USS Mercer",
        "col1": "3",
        "col2": "1944-08-24",
        "col3": "1945-09-19"
    },
    {
        "col0": "USS Menominee",
        "col1": "4",
        "col2": "1941-09-27",
        "col3": "1942-09-25"
    },
    {
        "col0": "USS Menifee",
        "col1": "7",
        "col2": "1944-07-21",
        "col3": "1944-11-04"
    },
    {
        "col0": "USS Menhaden",
        "col1": "4",
        "col2": "1944-06-21",
        "col3": "1945-06-22"
    },
    {
        "col0": "USS Menelaus",
        "col1": "3",
        "col2": "1944-11-17",
        "col3": "1945-05-29"
    },
    {
        "col0": "USS Mendocino",
        "col1": "7",
        "col2": "1943-09-20",
        "col3": "1944-10-31"
    },
    {
        "col0": "USS Mender",
        "col1": "2",
        "col2": "1945-08-25",
        "col3": "1946-03-08"
    },
    {
        "col0": "USS Menard",
        "col1": "8",
        "col2": "1944-07-12",
        "col3": "1944-10-31"
    },
    {
        "col0": "USS Memphis",
        "col1": "4",
        "col2": "1920-10-14",
        "col3": "1924-02-04"
    },
    {
        "col0": "USS Melvin",
        "col1": "5",
        "col2": "1943-07-06",
        "col3": "1943-11-24"
    },
    {
        "col0": "USS Melville",
        "col1": "6",
        "col2": "1913-11-11",
        "col3": "1915-12-03"
    },
    {
        "col0": "USS Mellena",
        "col1": "4",
        "col2": "1944-09-25",
        "col3": "1945-01-20"
    },
    {
        "col0": "USS Meeker County",
        "col1": "0",
        "col2": "1943-12-22",
        "col3": "1944-03-19"
    },
    {
        "col0": "USS Medusa",
        "col1": "5",
        "col2": "1920-01-02",
        "col3": "1924-09-18"
    },
    {
        "col0": "USS Medea",
        "col1": "4",
        "col2": "1944-08-09",
        "col3": "1945-01-10"
    },
    {
        "col0": "USS Meade",
        "col1": "2",
        "col2": "1918-09-23",
        "col3": "1919-09-08"
    },
    {
        "col0": "USS McNulty",
        "col1": "2",
        "col2": "1943-11-17",
        "col3": "1944-03-31"
    },
    {
        "col0": "USS McNair",
        "col1": "5",
        "col2": "1943-06-30",
        "col3": "1943-12-30"
    },
    {
        "col0": "USS McMinnville",
        "col1": "3",
        "col2": "1944-03-03",
        "col3": "1945-02-21"
    },
    {
        "col0": "USS McLanahan",
        "col1": "5",
        "col2": "1941-05-29",
        "col3": "1942-12-19"
    },
    {
        "col0": "USS McLanahan",
        "col1": "2",
        "col2": "1918-04-20",
        "col3": "1919-04-05"
    },
    {
        "col0": "USS McKee",
        "col1": "1",
        "col2": "1897-09-11",
        "col3": "1898-05-16"
    },
    {
        "col0": "USS McKee",
        "col1": "5",
        "col2": "1942-03-02",
        "col3": "1943-03-31"
    },
    {
        "col0": "USS McKee",
        "col1": "7",
        "col2": "1978-01-14",
        "col3": "1981-08-15"
    },
    {
        "col0": "USS McKean",
        "col1": "2",
        "col2": "1918-02-12",
        "col3": "1919-02-25"
    },
    {
        "col0": "USS McGowan",
        "col1": "5",
        "col2": "1943-06-30",
        "col3": "1943-12-20"
    },
    {
        "col0": "USS McGinty",
        "col1": "2",
        "col2": "1944-05-03",
        "col3": "1944-09-25"
    },
    {
        "col0": "USS McFarland",
        "col1": "2",
        "col2": "1918-07-31",
        "col3": "1920-09-30"
    },
    {
        "col0": "USS McDougal",
        "col1": "2",
        "col2": "1913-07-29",
        "col3": "1914-06-16"
    },
    {
        "col0": "USS McDermut",
        "col1": "5",
        "col2": "1943-06-14",
        "col3": "1943-11-19"
    },
    {
        "col0": "USS McCormick",
        "col1": "2",
        "col2": "1919-08-11",
        "col3": "1920-08-30"
    },
    {
        "col0": "USS McCord",
        "col1": "5",
        "col2": "1942-03-17",
        "col3": "1943-08-19"
    },
    {
        "col0": "USS McCook",
        "col1": "3",
        "col2": "1941-05-01",
        "col3": "1943-03-15"
    },
    {
        "col0": "USS McCook",
        "col1": "2",
        "col2": "1918-09-10",
        "col3": "1919-04-30"
    },
    {
        "col0": "USS McConnell",
        "col1": "3",
        "col2": "1942-10-19",
        "col3": "1943-05-28"
    },
    {
        "col0": "USS McCloy",
        "col1": "7",
        "col2": "1961-09-15",
        "col3": "1963-10-21"
    },
    {
        "col0": "USS McClelland",
        "col1": "3",
        "col2": "1943-07-21",
        "col3": "1944-09-19"
    },
    {
        "col0": "USS McCandless",
        "col1": "7",
        "col2": "1970-06-04",
        "col3": "1972-03-18"
    },
    {
        "col0": "USS McCalla",
        "col1": "3",
        "col2": "1941-09-15",
        "col3": "1942-05-27"
    },
    {
        "col0": "USS McCalla",
        "col1": "2",
        "col2": "1918-09-25",
        "col3": "1919-05-19"
    },
    {
        "col0": "USS McCall",
        "col1": "4",
        "col2": "1936-03-17",
        "col3": "1938-06-22"
    },
    {
        "col0": "USS McAnn",
        "col1": "3",
        "col2": "1943-05-17",
        "col3": "1943-10-11"
    },
    {
        "col0": "USS Mayrant",
        "col1": "4",
        "col2": "1937-04-15",
        "col3": "1939-09-13"
    },
    {
        "col0": "USS Mayrant",
        "col1": "2",
        "col2": "1909-04-22",
        "col3": "1911-07-21"
    },
    {
        "col0": "USS Mayo",
        "col1": "3",
        "col2": "1938-05-16",
        "col3": "1940-09-18"
    },
    {
        "col0": "USS Maury",
        "col1": "4",
        "col2": "1936-03-24",
        "col3": "1938-08-05"
    },
    {
        "col0": "USS Maury",
        "col1": "2",
        "col2": "1918-05-04",
        "col3": "1918-09-23"
    },
    {
        "col0": "USS Maury",
        "col1": "4",
        "col2": "1944-11-21",
        "col3": "1945-02-28"
    },
    {
        "col0": "USS Maurice J. Manuel",
        "col1": "2",
        "col2": "1943-12-22",
        "col3": "1944-06-30"
    },
    {
        "col0": "USS Maumee",
        "col1": "7",
        "col2": "1914-07-23",
        "col3": "1916-10-20"
    },
    {
        "col0": "USS Mattabesset",
        "col1": "4",
        "col2": "1944-07-06",
        "col3": "1945-06-16"
    },
    {
        "col0": "USS Matanikau",
        "col1": "6",
        "col2": "1944-03-10",
        "col3": "1944-06-24"
    },
    {
        "col0": "USS Matagorda",
        "col1": "3",
        "col2": "1940-09-06",
        "col3": "1941-12-16"
    },
    {
        "col0": "USS Mataco",
        "col1": "4",
        "col2": "1942-06-27",
        "col3": "1943-05-29"
    },
    {
        "col0": "USS Mastic",
        "col1": "3",
        "col2": "1943-11-27",
        "col3": "1944-07-04"
    },
    {
        "col0": "USS Massey",
        "col1": "4",
        "col2": "1944-01-14",
        "col3": "1944-11-24"
    },
    {
        "col0": "USS Massachusetts",
        "col1": "8",
        "col2": "1939-07-20",
        "col3": "1942-05-12"
    },
    {
        "col0": "USS Mason",
        "col1": "9",
        "col2": "2000-01-19",
        "col3": "2003-04-12"
    },
    {
        "col0": "USS Mason",
        "col1": "2",
        "col2": "1918-07-10",
        "col3": "1920-02-28"
    },
    {
        "col0": "USS Mascoma",
        "col1": "9",
        "col2": "1943-01-31",
        "col3": "1944-02-03"
    },
    {
        "col0": "USS Maryland",
        "col1": "9",
        "col2": "1917-04-24",
        "col3": "1921-07-21"
    },
    {
        "col0": "USS Marvin Shields",
        "col1": "7",
        "col2": "1968-04-12",
        "col3": "1971-04-10"
    },
    {
        "col0": "USS Marvin H. McIntyre",
        "col1": "7",
        "col2": "1944-05-12",
        "col3": "1944-11-28"
    },
    {
        "col0": "USS Marts",
        "col1": "3",
        "col2": "1943-04-26",
        "col3": "1943-09-03"
    },
    {
        "col0": "USS Martin",
        "col1": "3",
        "col2": "1942-11-26",
        "col3": "1943-09-04"
    },
    {
        "col0": "USS Marshall",
        "col1": "5",
        "col2": "1943-04-29",
        "col3": "1943-10-16"
    },
    {
        "col0": "USS Marsh",
        "col1": "3",
        "col2": "1943-06-23",
        "col3": "1944-01-12"
    },
    {
        "col0": "USS Mars",
        "col1": "8",
        "col2": "1962-05-05",
        "col3": "1963-12-01"
    },
    {
        "col0": "USS Mars",
        "col1": "7",
        "col2": "1908-10-05",
        "col3": "1909-08-26"
    },
    {
        "col0": "USS Marocain",
        "col1": "2",
        "col2": "1943-09-07",
        "col3": "1944-02-29"
    },
    {
        "col0": "USS Marlin",
        "col1": "3",
        "col2": "1952-05-01",
        "col3": "1953-11-20"
    },
    {
        "col0": "USS Marlin",
        "col1": "3",
        "col2": "1940-05-23",
        "col3": "1941-08-01"
    }
]