[
    {
        "col0": "A. Dvorak",
        "col1": "Twenty16 presented by Sho-Air",
        "col2": "1980-10-09",
        "col3": "1980-10-09"
    },
    {
        "col0": "A. D. Col",
        "col1": "Southeast Pro Cycling",
        "col2": "1991-04-30",
        "col3": "1991-04-30"
    },
    {
        "col0": "A. Bajc",
        "col1": "Amplatz-BMC",
        "col2": "1988-11-14",
        "col3": "1988-11-14"
    },
    {
        "col0": "A. Flaksis",
        "col1": "Hincapie Sportswear Development Team",
        "col2": "1991-03-18",
        "col3": "1991-03-18"
    },
    {
        "col0": "A. Voynova",
        "col1": "RusVelo Women's Team",
        "col2": "1993-02-05",
        "col3": "1993-02-05"
    },
    {
        "col0": "A. Roberts",
        "col1": "Welsh Cycling",
        "col2": "1994-12-24",
        "col3": "1994-12-24"
    },
    {
        "col0": "A. G. Jansen",
        "col1": "Team Joker",
        "col2": "1994-02-11",
        "col3": "1994-02-11"
    },
    {
        "col0": "A. Zargari",
        "col1": "Pishgaman-Giant Team",
        "col2": "1980-07-31",
        "col3": "1980-07-31"
    },
    {
        "col0": "A. Kolahdozhagh",
        "col1": "Tabriz Petrochemical Team",
        "col2": "1993-01-07",
        "col3": "1993-01-07"
    },
    {
        "col0": "A. Saryana",
        "col1": "LeTua Cycling Team",
        "col2": "1977-06-13",
        "col3": "1977-06-13"
    },
    {
        "col0": "A. Pierce",
        "col1": "Pepper Palace p/b The Happy Tooth",
        "col2": "1981-03-25",
        "col3": "1981-03-25"
    },
    {
        "col0": "A. Gebrezgabihier",
        "col1": "Dimension Data for Qhubeka",
        "col2": "1994-08-17",
        "col3": "1994-08-17"
    },
    {
        "col0": "A. Spratt",
        "col1": "Orica-AIS",
        "col2": "1987-09-17",
        "col3": "1987-09-17"
    },
    {
        "col0": "A. Miller",
        "col1": "Visit Dallas DNA Pro Cycling",
        "col2": "1986-12-13",
        "col3": "1986-12-13"
    },
    {
        "col0": "A. Kankovsky",
        "col1": "Whirlpool-Author",
        "col2": "1983-07-09",
        "col3": "1983-07-09"
    },
    {
        "col0": "A. Ryan",
        "col1": "Canyon-SRAM",
        "col2": "1994-09-18",
        "col3": "1994-09-18"
    },
    {
        "col0": "A. Vermeulen",
        "col1": "Team LottoNL-Jumbo",
        "col2": "1994-12-16",
        "col3": "1994-12-16"
    },
    {
        "col0": "A. Pliuschin",
        "col1": "Synergy Baku Cycling Project",
        "col2": "1987-01-13",
        "col3": "1987-01-13"
    },
    {
        "col0": "A. Shushemoin",
        "col1": "Vino 4ever SKO",
        "col2": "1987-02-26",
        "col3": "1987-02-26"
    },
    {
        "col0": "A. Wetterhall",
        "col1": "Team Tre Berg-Bianchi",
        "col2": "1986-04-12",
        "col3": "1986-04-12"
    },
    {
        "col0": "A. Rybakov",
        "col1": "Team Katusha",
        "col2": "1988-05-17",
        "col3": "1988-05-17"
    },
    {
        "col0": "A. Khatuntsev",
        "col1": "RusVelo",
        "col2": "1985-02-11",
        "col3": "1985-02-11"
    },
    {
        "col0": "A. Kamp",
        "col1": "Cult Energy Pro Cycling",
        "col2": "1993-12-14",
        "col3": "1993-12-14"
    },
    {
        "col0": "A. Gingsjo",
        "col1": "Team Tre Berg-Bianchi",
        "col2": "1980-12-23",
        "col3": "1980-12-23"
    },
    {
        "col0": "A. Foliforov",
        "col1": "Gazprom-RusVelo",
        "col2": "1992-03-08",
        "col3": "1992-03-08"
    },
    {
        "col0": "A. Rhodes",
        "col1": "Orica-AIS",
        "col2": "1984-12-01",
        "col3": "1984-12-01"
    },
    {
        "col0": "A. Rasmussen",
        "col1": "Team ColoQuick",
        "col2": "1984-06-09",
        "col3": "1984-06-09"
    },
    {
        "col0": "A. Kirsch",
        "col1": "Cult Energy Pro Cycling",
        "col2": "1992-06-12",
        "col3": "1992-06-12"
    },
    {
        "col0": "A. Candelario",
        "col1": "Optum p/b Kelly Benefit Strategies",
        "col2": "1975-02-26",
        "col3": "1975-02-26"
    },
    {
        "col0": "A. Amialiusik",
        "col1": "Canyon-SRAM",
        "col2": "1989-06-02",
        "col3": "1989-06-02"
    },
    {
        "col0": "A. Kuschynski",
        "col1": "Minsk Cycling Club",
        "col2": "1979-10-27",
        "col3": "1979-10-27"
    },
    {
        "col0": "A. Komin",
        "col1": "RusVelo",
        "col2": "1995-04-12",
        "col3": "1995-04-12"
    },
    {
        "col0": "A. Marque",
        "col1": "LA Aluminios-Antarte",
        "col2": "1981-10-23",
        "col3": "1981-10-23"
    },
    {
        "col0": "A. Cecchin",
        "col1": "Roth-Skoda",
        "col2": "1989-08-08",
        "col3": "1989-08-08"
    },
    {
        "col0": "A. Banaszek",
        "col1": "CCC-Sprandi-Polkowice",
        "col2": "1997-10-30",
        "col3": "1997-10-30"
    },
    {
        "col0": "A. D. Gendt",
        "col1": "Topsport Vlaanderen-Baloise",
        "col2": "1994-06-17",
        "col3": "1994-06-17"
    },
    {
        "col0": "A. Kruopis",
        "col1": "Verandas Willems",
        "col2": "1986-10-26",
        "col3": "1986-10-26"
    },
    {
        "col0": "A. Akdilek",
        "col1": "List of UCI Professional Continental and Continental teams",
        "col2": "1988-03-09",
        "col3": "1988-03-09"
    },
    {
        "col0": "A. Kazemi",
        "col1": "Tabriz Petrochemical Team",
        "col2": "1975-05-21",
        "col3": "1975-05-21"
    },
    {
        "col0": "A. Hegyvary",
        "col1": "UnitedHealthcare",
        "col2": "1984-01-05",
        "col3": "1984-01-05"
    },
    {
        "col0": "A. Gjolberg",
        "col1": "Team FixIT.no",
        "col2": "1989-02-23",
        "col3": "1989-02-23"
    },
    {
        "col0": "A. Banaszek",
        "col1": "Verva ActiveJet",
        "col2": "1993-10-21",
        "col3": "1993-10-21"
    },
    {
        "col0": "A. A. Stien",
        "col1": "Team Joker",
        "col2": "1992-10-28",
        "col3": "1992-10-28"
    }
]