[
    {
        "col0": "L. Younce",
        "col1": "New York Giants",
        "col2": "2000-03-26",
        "col3": "1917-01-08"
    },
    {
        "col0": "L. Wharton",
        "col1": "New York Rangers",
        "col2": "2007-09-30",
        "col3": "1927-12-13"
    },
    {
        "col0": "L. Smith",
        "col1": "Hunslet F.C.",
        "col2": "2000-6-14",
        "col3": "1911-1-29"
    },
    {
        "col0": "L. Smith",
        "col1": "Racine Legion/Tornadoes",
        "col2": "1944-04-14",
        "col3": "1896-12-14"
    },
    {
        "col0": "L. Ronson",
        "col1": "New York Rangers",
        "col2": "2014-09-29",
        "col3": "1936-07-08"
    },
    {
        "col0": "L. McIntyre",
        "col1": "St Helens RLFC",
        "col2": "2012-1-25",
        "col3": "1933-0-0"
    },
    {
        "col0": "L. Mason",
        "col1": "Wigan Warriors",
        "col2": "1953-6-10",
        "col3": "1903-9-23"
    },
    {
        "col0": "L. Marson",
        "col1": "Wakefield Trinity Wildcats",
        "col2": "1994-12-0",
        "col3": "1918-1-1"
    },
    {
        "col0": "L. Lunde",
        "col1": "National Hockey League",
        "col2": "2010-11-22",
        "col3": "1936-11-13"
    },
    {
        "col0": "L. Killeen",
        "col1": "Penrith Panthers",
        "col2": "2011-10-31",
        "col3": "1938-11-19"
    },
    {
        "col0": "L. Kelly",
        "col1": "St George Dragons",
        "col2": "1981-0-0",
        "col3": "1913-0-0"
    },
    {
        "col0": "L. Jordan",
        "col1": "Ponsonby Ponies",
        "col2": "2014-11-6",
        "col3": "1920-1-24"
    },
    {
        "col0": "L. Garbett",
        "col1": "Castleford Tigers",
        "col2": "2009-1-1",
        "col3": "1919-1-1"
    },
    {
        "col0": "L. Eshmont",
        "col1": "New York Giants",
        "col2": "1957-5-12",
        "col3": "1917-8-26"
    },
    {
        "col0": "L. Dugan",
        "col1": "New York Giants",
        "col2": "1967-6-20",
        "col3": "1910-2-19"
    },
    {
        "col0": "L. Charpier",
        "col1": "Chicago Cardinals",
        "col2": "1947-10-3",
        "col3": "1897-2-17"
    },
    {
        "col0": "L. Calligaro",
        "col1": "New York Giants",
        "col2": "2011-06-15",
        "col3": "1921-06-24"
    },
    {
        "col0": "L. Brennan",
        "col1": "St George Dragons",
        "col2": "1943-0-0",
        "col3": "1911-0-0"
    },
    {
        "col0": "L. Bratley",
        "col1": "Wakefield Trinity Wildcats",
        "col2": "1974-7-1",
        "col3": "1914-9-24"
    },
    {
        "col0": "L. Aston",
        "col1": "St Helens RLFC",
        "col2": "1997-0-0",
        "col3": "1920-1-1"
    },
    {
        "col0": "L. Woodruff",
        "col1": "Philadelphia Eagles",
        "col2": "1947-2-22",
        "col3": "1909-4-14"
    },
    {
        "col0": "L. Mulleneaux",
        "col1": "Green Bay Packers",
        "col2": "1985-11-14",
        "col3": "1908-4-1"
    },
    {
        "col0": "L. F. Sr.",
        "col1": "Chicago Blackhawks",
        "col2": "2000-11-29",
        "col3": "1926-2-27"
    },
    {
        "col0": "L. Croft",
        "col1": "Racine Legion/Tornadoes",
        "col2": "1984-01-28",
        "col3": "1898-11-05"
    },
    {
        "col0": "L. Fiscus",
        "col1": "Allegheny Athletic Association",
        "col2": "1949-0-0",
        "col3": "1866-0-0"
    },
    {
        "col0": "L. Phillips",
        "col1": "Miami Dolphins",
        "col2": "2016-01-13",
        "col3": "1975-05-12"
    },
    {
        "col0": "L. Northcott",
        "col1": "Chicago Blackhawks",
        "col2": "1986-11-07",
        "col3": "1908-09-07"
    },
    {
        "col0": "L. McCormick",
        "col1": "Pittsburgh Yellow Jackets",
        "col2": "1961-12-30",
        "col3": "1890-7-12"
    },
    {
        "col0": "L. Thacker",
        "col1": "Hull F.C.",
        "col2": "1952-3-2",
        "col3": "1947-0-0"
    },
    {
        "col0": "L. Gant",
        "col1": "Wakefield Trinity Wildcats",
        "col2": "2004-10-19",
        "col3": "1922-7-21"
    },
    {
        "col0": "L. Sjoberg",
        "col1": "Frolunda HC",
        "col2": "1987-10-20",
        "col3": "1944-05-04"
    },
    {
        "col0": "L. Zeidel",
        "col1": "Chicago Blackhawks",
        "col2": "2014-06-17",
        "col3": "1928-06-01"
    },
    {
        "col0": "L. Wilson",
        "col1": "Chicago Blackhawks",
        "col2": "1979-08-16",
        "col3": "1930-10-23"
    },
    {
        "col0": "L. Weldon",
        "col1": "Washington Redskins",
        "col2": "1990-08-17",
        "col3": "1915-06-24"
    },
    {
        "col0": "L. Walbridge",
        "col1": "New York Giants",
        "col2": "1982-01-11",
        "col3": "1897-09-11"
    },
    {
        "col0": "L. Thibeault",
        "col1": "National Hockey League",
        "col2": "1977-04-02",
        "col3": "1915-10-02"
    },
    {
        "col0": "L. Steinbach",
        "col1": "Chicago Bears",
        "col2": "1967-6-27",
        "col3": "1900-12-23"
    },
    {
        "col0": "L. Regan",
        "col1": "Boston Bruins",
        "col2": "2009-03-09",
        "col3": "1930-08-09"
    },
    {
        "col0": "L. Peace",
        "col1": "Brooklyn Dodgers",
        "col2": "2009-01-12",
        "col3": "1917-02-13"
    },
    {
        "col0": "L. Morris",
        "col1": "Atlanta Falcons",
        "col2": "2012-12-19",
        "col3": "1933-12-10"
    },
    {
        "col0": "L. Molyneaux",
        "col1": "New York Rangers",
        "col2": "1966-05-24",
        "col3": "1912-07-08"
    },
    {
        "col0": "L. Mickey",
        "col1": "Buffalo Sabres",
        "col2": "1982-07-23",
        "col3": "1943-10-21"
    },
    {
        "col0": "L. McGrew",
        "col1": "New England Patriots",
        "col2": "2004-04-02",
        "col3": "1957-07-23"
    },
    {
        "col0": "L. McGinnis",
        "col1": "Milwaukee Badgers",
        "col2": "1948-03-21",
        "col3": "1899-07-16"
    },
    {
        "col0": "L. Hartshorn",
        "col1": "Chicago Cardinals",
        "col2": "2007-09-19",
        "col3": "1933-05-19"
    },
    {
        "col0": "L. Gilmour",
        "col1": "Montreal Wanderers",
        "col2": "1922-04-15",
        "col3": "1881-10-10"
    },
    {
        "col0": "L. Flaherty",
        "col1": "Blackrock GAA",
        "col2": "1979-1-1",
        "col3": "1882-5-1"
    },
    {
        "col0": "L. Ferguson",
        "col1": "Detroit Lions",
        "col2": "2015-05-31",
        "col3": "1940-03-19"
    },
    {
        "col0": "L. Fanning",
        "col1": "Mount Sion GAA",
        "col2": "2008-8-28",
        "col3": "1922-1-1"
    },
    {
        "col0": "L. Critchfield",
        "col1": "Pittsburgh Pirates",
        "col2": "1965-06-30",
        "col3": "1908-01-06"
    },
    {
        "col0": "L. Carwell",
        "col1": "New England Patriots",
        "col2": "1984-1-10",
        "col3": "1944-8-5"
    },
    {
        "col0": "L. Cahan",
        "col1": "National Hockey League",
        "col2": "1992-06-25",
        "col3": "1933-12-25"
    },
    {
        "col0": "L. Bettencourt",
        "col1": "Green Bay Packers",
        "col2": "1978-09-15",
        "col3": "1905-09-22"
    },
    {
        "col0": "L. Bethea",
        "col1": "Dallas Cowboys",
        "col2": "1987-04-23",
        "col3": "1956-07-21"
    },
    {
        "col0": "L. Beil",
        "col1": "New York Giants",
        "col2": "1986-10-25",
        "col3": "1923-10-25"
    },
    {
        "col0": "L. Baker",
        "col1": "New York Titans",
        "col2": "2000-12-23",
        "col3": "1937-3-9"
    },
    {
        "col0": "L. Archambeault",
        "col1": "Baltimore Orioles",
        "col2": "1981-05-06",
        "col3": "1919-02-22"
    },
    {
        "col0": "L. Foley",
        "col1": "St Vincents GAA",
        "col2": "2003-5-4",
        "col3": "1938-11-23"
    },
    {
        "col0": "L. Todd",
        "col1": "Wigan Warriors",
        "col2": "1942-12-7",
        "col3": "1874-9-20"
    },
    {
        "col0": "L. Neumaier",
        "col1": "Wiener EV",
        "col2": "1986-7-0",
        "col3": "1910-02-13"
    },
    {
        "col0": "L. Davis",
        "col1": "Philadelphia Eagles",
        "col2": "2014-02-23",
        "col3": "1921-06-15"
    },
    {
        "col0": "L. S. Dukowski",
        "col1": "Chicago Blackhawks",
        "col2": "1976-09-26",
        "col3": "1900-08-31"
    },
    {
        "col0": "L. G. Dupre",
        "col1": "Dallas Cowboys",
        "col2": "2001-08-09",
        "col3": "1932-09-10"
    },
    {
        "col0": "K. Rote",
        "col1": "New York Giants",
        "col2": "2002-8-15",
        "col3": "1927-10-27"
    },
    {
        "col0": "K. MacWherter",
        "col1": "Decatur Staleys",
        "col2": "1977-12-0",
        "col3": "1892-07-19"
    },
    {
        "col0": "K. Calloway",
        "col1": "Baltimore Ravens",
        "col2": "2016-07-02",
        "col3": "1987-06-21"
    },
    {
        "col0": "K. PelA!s",
        "col1": "Oklahoma City Barons",
        "col2": "2013-06-11",
        "col3": "1992-09-09"
    },
    {
        "col0": "K. Johnson",
        "col1": "Rice Owls football",
        "col2": "1996-09-03",
        "col3": "1932-0-0"
    },
    {
        "col0": "K. Johannesson",
        "col1": "Winnipeg Falcons",
        "col2": "1968-10-25",
        "col3": "1896-08-10"
    },
    {
        "col0": "K. Christensen",
        "col1": "Portsmouth Spartans",
        "col2": "1946-05-16",
        "col3": "1905-04-28"
    },
    {
        "col0": "K. Rockne",
        "col1": "Notre Dame Fighting Irish football",
        "col2": "1931-3-31",
        "col3": "1888-3-4"
    },
    {
        "col0": "K. Cauldwell",
        "col1": "Akron Pros",
        "col2": "1952-10-30",
        "col3": "1896-07-14"
    },
    {
        "col0": "K. Boyle",
        "col1": "New York Giants",
        "col2": "1943-01-26",
        "col3": "1909-08-17"
    },
    {
        "col0": "K. Ramsey",
        "col1": "Philadelphia Eagles",
        "col2": "2005-3-19",
        "col3": "1926-2-13"
    },
    {
        "col0": "K. Hershey",
        "col1": "Philadelphia Eagles",
        "col2": "1979-01-23",
        "col3": "1918-07-07"
    },
    {
        "col0": "K. Collins",
        "col1": "Los Angeles Rams",
        "col2": "1984-02-22",
        "col3": "1958-07-18"
    },
    {
        "col0": "K. Richards",
        "col1": "New York Giants",
        "col2": "1976-07-21",
        "col3": "1910-12-27"
    },
    {
        "col0": "K. Hill",
        "col1": "Minnesota Vikings",
        "col2": "2012-07-14",
        "col3": "1936-11-08"
    },
    {
        "col0": "K. Clancy",
        "col1": "Toronto Maple Leafs",
        "col2": "1986-11-10",
        "col3": "1903-02-25"
    },
    {
        "col0": "K. MacDonald",
        "col1": "New York Rangers",
        "col2": "1986-05-11",
        "col3": "1913-09-06"
    },
    {
        "col0": "K. Aldrich",
        "col1": "Washington Redskins",
        "col2": "1983-3-12",
        "col3": "1916-6-1"
    },
    {
        "col0": "K. Williams",
        "col1": "Denver Broncos",
        "col2": "2012-12-18",
        "col3": "1970-02-17"
    },
    {
        "col0": "K. Turner",
        "col1": "New England Patriots",
        "col2": "2016-03-24",
        "col3": "1969-06-12"
    },
    {
        "col0": "K. O'Shea",
        "col1": "Buffalo Sabres",
        "col2": "2010-01-18",
        "col3": "1947-05-28"
    },
    {
        "col0": "K. Mitchell",
        "col1": "New Orleans Saints",
        "col2": "2007-04-30",
        "col3": "1971-01-01"
    },
    {
        "col0": "K. Kemp",
        "col1": "Hartford Whalers",
        "col2": "1999-08-25",
        "col3": "1954-05-03"
    },
    {
        "col0": "K. Humphreys",
        "col1": "Balmain Tigers",
        "col2": "2010-4-29",
        "col3": "1930-4-14"
    },
    {
        "col0": "K. Brown",
        "col1": "St George Dragons",
        "col2": "2000-0-0",
        "col3": "1933-0-0"
    },
    {
        "col0": "K. Belcher",
        "col1": "Denver Broncos",
        "col2": "1997-04-12",
        "col3": "1961-11-09"
    },
    {
        "col0": "K. Belcher",
        "col1": "New York Giants",
        "col2": "2003-06-28",
        "col3": "1961-02-23"
    },
    {
        "col0": "K. Barry",
        "col1": "Bay Roskill Vikings",
        "col2": "2012-5-21",
        "col3": "1950-5-15"
    },
    {
        "col0": "K. Douglas",
        "col1": "Detroit Red Wings",
        "col2": "2009-04-12",
        "col3": "1936-02-06"
    },
    {
        "col0": "K. Washington",
        "col1": "Los Angeles Rams",
        "col2": "1971-06-24",
        "col3": "1918-08-31"
    },
    {
        "col0": "K. McKinley",
        "col1": "Denver Broncos",
        "col2": "2010-09-20",
        "col3": "1987-01-31"
    },
    {
        "col0": "K. Thompson",
        "col1": "Montreal Wanderers",
        "col2": "1933-11-25",
        "col3": "1881-05-29"
    },
    {
        "col0": "K. Hirst",
        "col1": "Wakefield Trinity Wildcats",
        "col2": "2008-12-20",
        "col3": "1940-6-4"
    },
    {
        "col0": "K. Bowman",
        "col1": "Huddersfield Giants",
        "col2": "2013-10-10",
        "col3": "1937-3-6"
    },
    {
        "col0": "K. Wendt",
        "col1": "Chicago Cardinals",
        "col2": "1982-1-19",
        "col3": "1910-1-29"
    },
    {
        "col0": "K. Traill",
        "col1": "Wakefield Trinity Wildcats",
        "col2": "2002-3-25",
        "col3": "1926-9-7"
    },
    {
        "col0": "K. Thornett",
        "col1": "Leeds Rhinos",
        "col2": "2016-8-16",
        "col3": "1937-11-27"
    },
    {
        "col0": "K. Stewart",
        "col1": "Chicago Blackhawks",
        "col2": "2002-04-04",
        "col3": "1912-03-29"
    },
    {
        "col0": "K. Snelling",
        "col1": "Green Bay Packers",
        "col2": "1994-09-17",
        "col3": "1918-12-11"
    },
    {
        "col0": "K. Simendinger",
        "col1": "Hartford Blues",
        "col2": "1972-05-26",
        "col3": "1899-10-23"
    },
    {
        "col0": "K. Schultz",
        "col1": "Cleveland Barons",
        "col2": "2003-12-01",
        "col3": "1925-06-21"
    },
    {
        "col0": "K. Richards",
        "col1": "Salford City Reds",
        "col2": "1972-1-8",
        "col3": "1934-1-29"
    },
    {
        "col0": "K. Reardon",
        "col1": "Montreal Canadiens",
        "col2": "2008-03-15",
        "col3": "1921-04-01"
    },
    {
        "col0": "K. Randall",
        "col1": "Montreal Wanderers",
        "col2": "1947-06-14",
        "col3": "1888-12-14"
    },
    {
        "col0": "K. Mosdell",
        "col1": "Chicago Black Hawks",
        "col2": "2006-01-05",
        "col3": "1922-07-13"
    },
    {
        "col0": "K. Mallen",
        "col1": "Quebec Bulldogs",
        "col2": "1930-04-23",
        "col3": "1884-10-04"
    },
    {
        "col0": "K. Lunday",
        "col1": "New York Giants",
        "col2": "2005-07-13",
        "col3": "1912-08-13"
    },
    {
        "col0": "K. Konz",
        "col1": "Cleveland Browns",
        "col2": "2008-2-5",
        "col3": "1928-9-25"
    },
    {
        "col0": "K. Kilrea",
        "col1": "Detroit Red Wings",
        "col2": "1990-01-14",
        "col3": "1919-01-16"
    },
    {
        "col0": "K. Kearney",
        "col1": "Leeds Rhinos",
        "col2": "2006-8-18",
        "col3": "1924-5-3"
    },
    {
        "col0": "K. Kavanaugh",
        "col1": "Chicago Bears",
        "col2": "2007-1-25",
        "col3": "1916-11-23"
    },
    {
        "col0": "K. Jubb",
        "col1": "Leeds Rhinos",
        "col2": "1993-1-1",
        "col3": "1912-1-1"
    },
    {
        "col0": "K. Irvine",
        "col1": "Manly-Warringah Sea Eagles",
        "col2": "1990-12-22",
        "col3": "1940-3-5"
    },
    {
        "col0": "K. Hutcherson",
        "col1": "Dallas Cowboys",
        "col2": "2013-12-18",
        "col3": "1952-07-14"
    },
    {
        "col0": "K. Gee",
        "col1": "Wigan Warriors",
        "col2": "1989-4-17",
        "col3": "1916-9-23"
    },
    {
        "col0": "K. English",
        "col1": "Wellington Rugby League",
        "col2": "2016-2-0",
        "col3": "1927-1-9"
    },
    {
        "col0": "K. Dyer",
        "col1": "Cincinnati Bengals",
        "col2": "2010-03-07",
        "col3": "1946-03-16"
    },
    {
        "col0": "K. Day",
        "col1": "Manly-Warringah Sea Eagles",
        "col2": "1998-10-29",
        "col3": "1936-5-16"
    },
    {
        "col0": "K. Davies",
        "col1": "Keighley Cougars",
        "col2": "1984-0-0",
        "col3": "1916-5-29"
    },
    {
        "col0": "K. Crawford",
        "col1": "Cincinnati Celts",
        "col2": "1957-03-09",
        "col3": "1898-09-07"
    },
    {
        "col0": "K. Cooper",
        "col1": "Baltimore Colts",
        "col2": "1997-11-02",
        "col3": "1923-02-26"
    },
    {
        "col0": "K. Charlton",
        "col1": "Canterbury Bulldogs",
        "col2": "2012-11-19",
        "col3": "1923-7-15"
    },
    {
        "col0": "K. Carpenter",
        "col1": "Cleveland Browns",
        "col2": "2011-01-28",
        "col3": "1926-02-26"
    },
    {
        "col0": "K. Brown",
        "col1": "Cleveland Browns",
        "col2": "2001-01-11",
        "col3": "1945-11-08"
    },
    {
        "col0": "K. Broderick",
        "col1": "Boston Bruins",
        "col2": "2016-03-13",
        "col3": "1942-02-16"
    },
    {
        "col0": "K. Mote",
        "col1": "Detroit Lions",
        "col2": "2015-10-21",
        "col3": "1923-04-27"
    },
    {
        "col0": "K. O'Shea",
        "col1": "Souths Logan Magpies",
        "col2": "2015-1-23",
        "col3": "1933-7-13"
    },
    {
        "col0": "K. Roberts",
        "col1": "Country Rugby League",
        "col2": "2015-3-11",
        "col3": "1932-0-0"
    },
    {
        "col0": "K. McCreary",
        "col1": "Atlanta Flames",
        "col2": "2003-12-09",
        "col3": "1940-06-19"
    },
    {
        "col0": "K. Magnuson",
        "col1": "Chicago Blackhawks",
        "col2": "2003-12-15",
        "col3": "1947-04-27"
    },
    {
        "col0": "K. Holman",
        "col1": "Western Suburbs Magpies",
        "col2": "2011-10-11",
        "col3": "1927-9-11"
    },
    {
        "col0": "K. Froome",
        "col1": "Newtown Jets",
        "col2": "1978-1-28",
        "col3": "1920-1-1"
    },
    {
        "col0": "K. Flowers",
        "col1": "Detroit Lions",
        "col2": "1993-11-12",
        "col3": "1930-04-24"
    },
    {
        "col0": "K. English",
        "col1": "Los Angeles Rams",
        "col2": "2010-12-02",
        "col3": "1966-03-10"
    },
    {
        "col0": "K. Ellis",
        "col1": "Newtown Jets",
        "col2": "1972-6-4",
        "col3": "1905-0-0"
    },
    {
        "col0": "K. Campbell",
        "col1": "Pittsburgh Yellow Jackets",
        "col2": "1981-07-25",
        "col3": "1909-09-21"
    }
]