[
    {
        "col0": "S. Kitson",
        "col1": "1958-09-27",
        "col2": "61",
        "col3": "1958-09-27"
    },
    {
        "col0": "S. Thompson",
        "col1": "1987-02-07",
        "col2": "225",
        "col3": "1987-02-07"
    },
    {
        "col0": "S. Cravens",
        "col1": "1995-7-7",
        "col2": "53",
        "col3": "1995-7-7"
    },
    {
        "col0": "S. G. White",
        "col1": "1979-07-25",
        "col2": "229",
        "col3": "1979-07-25"
    },
    {
        "col0": "S. Schweigert",
        "col1": "1981-06-21",
        "col2": "67",
        "col3": "1981-06-21"
    },
    {
        "col0": "S. Anderson",
        "col1": "1959-12-25",
        "col2": "104",
        "col3": "1959-12-25"
    },
    {
        "col0": "S. O'Dell",
        "col1": "1951-11-27",
        "col2": "332",
        "col3": "1951-11-27"
    },
    {
        "col0": "S. Clarkson",
        "col1": "1919-07-04",
        "col2": "200",
        "col3": "1919-07-04"
    },
    {
        "col0": "S. Sulak",
        "col1": "1986-06-17",
        "col2": "199",
        "col3": "1986-06-17"
    },
    {
        "col0": "S. Johnson",
        "col1": "1992-07-10",
        "col2": "222",
        "col3": "1992-07-10"
    },
    {
        "col0": "S. Woodson",
        "col1": "1985-10-11",
        "col2": "238",
        "col3": "1985-10-11"
    },
    {
        "col0": "S. Case",
        "col1": "1972-07-07",
        "col2": "80",
        "col3": "1972-07-07"
    },
    {
        "col0": "S. Bradley",
        "col1": "1983-11-02",
        "col2": "87",
        "col3": "1983-11-02"
    },
    {
        "col0": "S. Barber",
        "col1": "1939-06-14",
        "col2": "30",
        "col3": "1939-06-14"
    },
    {
        "col0": "S. Johnson",
        "col1": "1986-7-22",
        "col2": "224",
        "col3": "1986-7-22"
    },
    {
        "col0": "S. Brown",
        "col1": "1987-07-17",
        "col2": "251",
        "col3": "1987-07-17"
    },
    {
        "col0": "S. Sylvester",
        "col1": "1988-07-18",
        "col2": "166",
        "col3": "1988-07-18"
    },
    {
        "col0": "S. Nelson",
        "col1": "1993-01-22",
        "col2": "98",
        "col3": "1993-01-22"
    },
    {
        "col0": "S. Means",
        "col1": "1989-12-5",
        "col2": "147",
        "col3": "1989-12-5"
    },
    {
        "col0": "S. Jackson",
        "col1": "1983-7-22",
        "col2": "24",
        "col3": "1983-7-22"
    },
    {
        "col0": "S. Daniels",
        "col1": "1992-12-12",
        "col2": "232",
        "col3": "1992-12-12"
    },
    {
        "col0": "S. Zabel",
        "col1": "1948-03-20",
        "col2": "6",
        "col3": "1948-03-20"
    },
    {
        "col0": "S. Wright",
        "col1": "1942-7-17",
        "col2": "69",
        "col3": "1942-7-17"
    },
    {
        "col0": "S. Wisniewski",
        "col1": "1967-04-07",
        "col2": "29",
        "col3": "1967-04-07"
    },
    {
        "col0": "S. Williams",
        "col1": "1991-03-07",
        "col2": "145",
        "col3": "1991-03-07"
    },
    {
        "col0": "S. White",
        "col1": "1973-10-25",
        "col2": "(By thePhiladelphia Eagles)",
        "col3": "1973-10-25"
    },
    {
        "col0": "S. Warren",
        "col1": "1978-01-22",
        "col2": "74",
        "col3": "1978-01-22"
    },
    {
        "col0": "S. Wallace",
        "col1": "1964-12-27",
        "col2": "101",
        "col3": "1964-12-27"
    },
    {
        "col0": "S. Wagner",
        "col1": "1954-04-18",
        "col2": "(By theMinnesota Vikings)",
        "col3": "1954-04-18"
    },
    {
        "col0": "S. V. Buren",
        "col1": "1920-12-28",
        "col2": "5",
        "col3": "1920-12-28"
    },
    {
        "col0": "S. Towle",
        "col1": "1953-10-23",
        "col2": "143",
        "col3": "1953-10-23"
    },
    {
        "col0": "S. Tovar",
        "col1": "1970-04-25",
        "col2": "59",
        "col3": "1970-04-25"
    },
    {
        "col0": "S. Thompson",
        "col1": "1945-02-12",
        "col2": "44",
        "col3": "1945-02-12"
    },
    {
        "col0": "S. Taylor",
        "col1": "1967-01-07",
        "col2": "323 (Indianapolis Colts)",
        "col3": "1967-01-07"
    },
    {
        "col0": "S. Tasker",
        "col1": "1962-4-10",
        "col2": "226",
        "col3": "1962-4-10"
    },
    {
        "col0": "S. Tannen",
        "col1": "1948-07-23",
        "col2": "20",
        "col3": "1948-07-23"
    },
    {
        "col0": "S. Strachan",
        "col1": "1963-03-22",
        "col2": "303",
        "col3": "1963-03-22"
    },
    {
        "col0": "S. Stonebreaker",
        "col1": "1938-10-28",
        "col2": "155",
        "col3": "1938-10-28"
    },
    {
        "col0": "S. Stewart",
        "col1": "1956-05-01",
        "col2": "43",
        "col3": "1956-05-01"
    },
    {
        "col0": "S. S. Sr.",
        "col1": "1979-05-12",
        "col2": "74",
        "col3": "1979-05-12"
    },
    {
        "col0": "S. Smith",
        "col1": "1985-05-06",
        "col2": "51",
        "col3": "1985-05-06"
    },
    {
        "col0": "S. Smith",
        "col1": "1964-08-30",
        "col2": "81",
        "col3": "1964-08-30"
    },
    {
        "col0": "S. Smith",
        "col1": "1944-5-29",
        "col2": "(By theSan Francisco 49ers)",
        "col3": "1944-5-29"
    },
    {
        "col0": "S. Slivinski",
        "col1": "1917-08-23",
        "col2": "118",
        "col3": "1917-08-23"
    },
    {
        "col0": "S. Slaton",
        "col1": "1986-1-4",
        "col2": "89",
        "col3": "1986-1-4"
    },
    {
        "col0": "S. Shull",
        "col1": "1958-03-27",
        "col2": "-",
        "col3": "1958-03-27"
    },
    {
        "col0": "S. Sciullo",
        "col1": "1980-8-27",
        "col2": "122",
        "col3": "1980-8-27"
    },
    {
        "col0": "S. Scifres",
        "col1": "1972-01-22",
        "col2": "83",
        "col3": "1972-01-22"
    },
    {
        "col0": "S. Schindler",
        "col1": "1954-07-24",
        "col2": "18",
        "col3": "1954-07-24"
    },
    {
        "col0": "S. Russ",
        "col1": "1972-09-16",
        "col2": "218",
        "col3": "1972-09-16"
    },
    {
        "col0": "S. Rogers",
        "col1": "1953-8-26",
        "col2": "163",
        "col3": "1953-8-26"
    },
    {
        "col0": "S. Rivera",
        "col1": "1954-08-05",
        "col2": "8",
        "col3": "1954-08-05"
    },
    {
        "col0": "S. Petro",
        "col1": "1914-10-21",
        "col2": "72",
        "col3": "1914-10-21"
    },
    {
        "col0": "S. Owens",
        "col1": "1947-12-09",
        "col2": "19",
        "col3": "1947-12-09"
    },
    {
        "col0": "S. Niehaus",
        "col1": "1954-09-25",
        "col2": "2",
        "col3": "1954-09-25"
    },
    {
        "col0": "S. Nelson",
        "col1": "1951-04-26",
        "col2": "34",
        "col3": "1951-04-26"
    },
    {
        "col0": "S. Neils",
        "col1": "1951-05-02",
        "col2": "111",
        "col3": "1951-05-02"
    },
    {
        "col0": "S. Myer",
        "col1": "1954-07-17",
        "col2": "93",
        "col3": "1954-07-17"
    },
    {
        "col0": "S. Mott",
        "col1": "1961-03-24",
        "col2": "121",
        "col3": "1961-03-24"
    },
    {
        "col0": "S. Meilinger",
        "col1": "1930-12-12",
        "col2": "8",
        "col3": "1930-12-12"
    },
    {
        "col0": "S. McNair",
        "col1": "1973-2-14",
        "col2": "3",
        "col3": "1973-2-14"
    },
    {
        "col0": "S. McMichael",
        "col1": "1957-10-17",
        "col2": "73",
        "col3": "1957-10-17"
    },
    {
        "col0": "S. McLaughlin",
        "col1": "1971-10-02",
        "col2": "82",
        "col3": "1971-10-02"
    },
    {
        "col0": "S. McKinney",
        "col1": "1975-10-15",
        "col2": "93",
        "col3": "1975-10-15"
    },
    {
        "col0": "S. Maughan",
        "col1": "1954-1-1",
        "col2": "1991",
        "col3": "1954-1-1"
    },
    {
        "col0": "S. Matthews",
        "col1": "1970-10-13",
        "col2": "199",
        "col3": "1970-10-13"
    },
    {
        "col0": "S. Maronic",
        "col1": "1917-05-30",
        "col2": "37",
        "col3": "1917-05-30"
    },
    {
        "col0": "S. Luke",
        "col1": "1953-09-04",
        "col2": "88",
        "col3": "1953-09-04"
    },
    {
        "col0": "S. Little",
        "col1": "1956-2-19",
        "col2": "15",
        "col3": "1956-2-19"
    },
    {
        "col0": "S. Lawson",
        "col1": "1949-01-04",
        "col2": "41",
        "col3": "1949-01-04"
    },
    {
        "col0": "S. Korte",
        "col1": "1960-01-15",
        "col2": "38",
        "col3": "1960-01-15"
    },
    {
        "col0": "S. Kiner",
        "col1": "1947-06-12",
        "col2": "73",
        "col3": "1947-06-12"
    },
    {
        "col0": "S. Kaufusi",
        "col1": "1963-10-17",
        "col2": "319",
        "col3": "1963-10-17"
    },
    {
        "col0": "S. Justice",
        "col1": "1984-05-26",
        "col2": "201",
        "col3": "1984-05-26"
    },
    {
        "col0": "S. Josue",
        "col1": "1980-04-05",
        "col2": "257",
        "col3": "1980-04-05"
    },
    {
        "col0": "S. Jordan",
        "col1": "1961-1-10",
        "col2": "179",
        "col3": "1961-1-10"
    },
    {
        "col0": "S. Jones",
        "col1": "1951-3-6",
        "col2": "(By theLos Angeles Rams)",
        "col3": "1951-3-6"
    },
    {
        "col0": "S. Jackson",
        "col1": "1969-04-08",
        "col2": "71",
        "col3": "1969-04-08"
    },
    {
        "col0": "S. Israel",
        "col1": "1969-3-16",
        "col2": "30",
        "col3": "1969-3-16"
    },
    {
        "col0": "S. Hutchinson",
        "col1": "1977-11-01",
        "col2": "17",
        "col3": "1977-11-01"
    },
    {
        "col0": "S. Heiden",
        "col1": "1976-09-21",
        "col2": "69",
        "col3": "1976-09-21"
    },
    {
        "col0": "S. Harkey",
        "col1": "1949-08-03",
        "col2": "396",
        "col3": "1949-08-03"
    },
    {
        "col0": "S. Hamilton",
        "col1": "1961-09-28",
        "col2": "55",
        "col3": "1961-09-28"
    },
    {
        "col0": "S. Grogan",
        "col1": "1953-07-24",
        "col2": "116",
        "col3": "1953-07-24"
    },
    {
        "col0": "S. Griffin",
        "col1": "1964-12-24",
        "col2": "308",
        "col3": "1964-12-24"
    },
    {
        "col0": "S. Grant",
        "col1": "1969-12-23",
        "col2": "253",
        "col3": "1969-12-23"
    },
    {
        "col0": "S. George",
        "col1": "1951-4-11",
        "col2": "60",
        "col3": "1951-4-11"
    },
    {
        "col0": "S. Fuller",
        "col1": "1957-01-05",
        "col2": "23",
        "col3": "1957-01-05"
    },
    {
        "col0": "S. Folsom",
        "col1": "1958-03-21",
        "col2": "261",
        "col3": "1958-03-21"
    },
    {
        "col0": "S. Foley",
        "col1": "1975-09-11",
        "col2": "75",
        "col3": "1975-09-11"
    },
    {
        "col0": "S. Foley",
        "col1": "1953-11-11",
        "col2": "199",
        "col3": "1953-11-11"
    },
    {
        "col0": "S. Everitt",
        "col1": "1970-08-21",
        "col2": "14",
        "col3": "1970-08-21"
    },
    {
        "col0": "S. Enich",
        "col1": "1923-4-21",
        "col2": "30",
        "col3": "1923-4-21"
    },
    {
        "col0": "S. Dowden",
        "col1": "1929-02-14",
        "col2": "117",
        "col3": "1929-02-14"
    },
    {
        "col0": "S. Doig",
        "col1": "1960-03-28",
        "col2": "69",
        "col3": "1960-03-28"
    },
    {
        "col0": "S. DeOssie",
        "col1": "1962-11-22",
        "col2": "110",
        "col3": "1962-11-22"
    },
    {
        "col0": "S. DeLong",
        "col1": "1943-07-03",
        "col2": "(By theChicago Bears)",
        "col3": "1943-07-03"
    },
    {
        "col0": "S. Crosby",
        "col1": "1950-07-03",
        "col2": "419",
        "col3": "1950-07-03"
    },
    {
        "col0": "S. Craig",
        "col1": "1951-3-13",
        "col2": "64",
        "col3": "1951-3-13"
    },
    {
        "col0": "S. Cox",
        "col1": "1958-05-11",
        "col2": "134",
        "col3": "1958-05-11"
    },
    {
        "col0": "S. Courson",
        "col1": "1955-10-01",
        "col2": "125",
        "col3": "1955-10-01"
    },
    {
        "col0": "S. Conley",
        "col1": "1972-01-18",
        "col2": "72",
        "col3": "1972-01-18"
    },
    {
        "col0": "S. Clark",
        "col1": "1960-08-02",
        "col2": "239",
        "col3": "1960-08-02"
    },
    {
        "col0": "S. Busick",
        "col1": "1958-12-10",
        "col2": "181",
        "col3": "1958-12-10"
    }
]