[
    {
        "col0": "J. Seguin",
        "col1": "M. Dubreuil",
        "col2": "1996-11-7",
        "col3": "1996-11-7"
    },
    {
        "col0": "J. Cannarozzo",
        "col1": "M. Mitchell",
        "col2": "1989-8-27",
        "col3": "1989-8-27"
    },
    {
        "col0": "J. Gretarsdottir",
        "col1": "K. Garossino",
        "col2": "1995-7-8",
        "col3": "1995-7-8"
    },
    {
        "col0": "J. Farris",
        "col1": "J. Buttle",
        "col2": "1995-1-6",
        "col3": "1995-1-6"
    },
    {
        "col0": "J. Helgesson",
        "col1": "C. Lindgren",
        "col2": "1993-6-7",
        "col3": "1993-6-7"
    },
    {
        "col0": "J. Lynch",
        "col1": "J. Starbuck",
        "col2": "1985-3-29",
        "col3": "1985-3-29"
    },
    {
        "col0": "J. Jacobsen",
        "col1": "R. Rocca",
        "col2": "1987-2-9",
        "col3": "1987-2-9"
    },
    {
        "col0": "J. Buckland",
        "col1": "P. Askew",
        "col2": "1992-10-27",
        "col3": "1992-10-27"
    },
    {
        "col0": "J. Moeller",
        "col1": "R. Ward",
        "col2": "1995-4-24",
        "col3": "1995-4-24"
    },
    {
        "col0": "J. Ju",
        "col1": "T. Dickson",
        "col2": "1995-5-29",
        "col3": "1995-5-29"
    },
    {
        "col0": "J. Nuss",
        "col1": "D. Sappenfield",
        "col2": "1987-6-22",
        "col3": "1987-6-22"
    },
    {
        "col0": "J. Weir",
        "col1": "N. Morozov",
        "col2": "1984-7-2",
        "col3": "1984-7-2"
    },
    {
        "col0": "J. Coughlin",
        "col1": "C. Dean",
        "col2": "1985-12-1",
        "col3": "1985-12-1"
    },
    {
        "col0": "J. Corona",
        "col1": "N. Linichuk",
        "col2": "1988-11-25",
        "col3": "1988-11-25"
    },
    {
        "col0": "J. Allik",
        "col1": "J. Glebova",
        "col2": "1994-4-7",
        "col3": "1994-4-7"
    },
    {
        "col0": "J. Forte",
        "col1": "A. Zadorozhniuk",
        "col2": "1986-7-5",
        "col3": "1986-7-5"
    },
    {
        "col0": "J. Watson",
        "col1": "A. Kirsanov",
        "col2": "1986-3-5",
        "col3": "1986-3-5"
    },
    {
        "col0": "J. Rochette",
        "col1": "S. Bourne",
        "col2": "1986-1-13",
        "col3": "1986-1-13"
    },
    {
        "col0": "J. Lenko",
        "col1": "K. Johnson",
        "col2": "1992-4-24",
        "col3": "1992-4-24"
    },
    {
        "col0": "J. Yang",
        "col1": "D. Wilson",
        "col2": "1994-5-16",
        "col3": "1994-5-16"
    },
    {
        "col0": "J. R. Paetsch",
        "col1": "Z. Szwed",
        "col2": "1993-1-31",
        "col3": "1993-1-31"
    },
    {
        "col0": "J. Ten",
        "col1": "J. Buttle",
        "col2": "1989-2-21",
        "col3": "1989-2-21"
    },
    {
        "col0": "J. Abbott",
        "col1": "B. Schwimmer",
        "col2": "1985-6-5",
        "col3": "1985-6-5"
    },
    {
        "col0": "J. Don",
        "col1": "P. Wylie",
        "col2": "1984-10-6",
        "col3": "1984-10-6"
    },
    {
        "col0": "J. Buttle",
        "col1": "D. Wilson",
        "col2": "1982-9-1",
        "col3": "1982-9-1"
    },
    {
        "col0": "J. Baker",
        "col1": "A. Krylova",
        "col2": "1993-10-7",
        "col3": "1993-10-7"
    },
    {
        "col0": "J. Raya",
        "col1": "A. Najarro",
        "col2": "1991-4-20",
        "col3": "1991-4-20"
    },
    {
        "col0": "J. Fernandez",
        "col1": "K. Browning",
        "col2": "1991-4-15",
        "col3": "1991-4-15"
    },
    {
        "col0": "J. Brown",
        "col1": "R. Ward",
        "col2": "1994-12-15",
        "col3": "1994-12-15"
    },
    {
        "col0": "J. Summersett",
        "col1": "C. Dean",
        "col2": "1987-12-24",
        "col3": "1987-12-24"
    },
    {
        "col0": "J. Voll",
        "col1": "K. Engi",
        "col2": "1987-10-18",
        "col3": "1987-10-18"
    },
    {
        "col0": "J. Simon",
        "col1": "D. Sappenfield",
        "col2": "1997-3-13",
        "col3": "1997-3-13"
    },
    {
        "col0": "I. Toth",
        "col1": "J. Gor-Sebestyen",
        "col2": "1998-12-20",
        "col3": "1998-12-20"
    },
    {
        "col0": "I. Righini",
        "col1": "J. Buttle",
        "col2": "1991-4-16",
        "col3": "1991-4-16"
    },
    {
        "col0": "I. Bukin",
        "col1": "I. Zhuk",
        "col2": "1993-9-16",
        "col3": "1993-9-16"
    },
    {
        "col0": "I. Tobias",
        "col1": "I. Shpilband",
        "col2": "1991-8-23",
        "col3": "1991-8-23"
    },
    {
        "col0": "I. Cannuscio",
        "col1": "A. Kirsanov",
        "col2": "1990-12-29",
        "col3": "1990-12-29"
    },
    {
        "col0": "I. Drescher",
        "col1": "R. Lohse",
        "col2": "1994-3-9",
        "col3": "1994-3-9"
    },
    {
        "col0": "I. Skirda",
        "col1": "D. Gleikhengauz",
        "col2": "2002-9-21",
        "col3": "2002-9-21"
    },
    {
        "col0": "I. Lukanin",
        "col1": "N. Morozov",
        "col2": "1976-2-3",
        "col3": "1976-2-3"
    },
    {
        "col0": "I. Lorello",
        "col1": "A. Kirsanov",
        "col2": "1990-5-7",
        "col3": "1990-5-7"
    },
    {
        "col0": "H. Mkrtchyan",
        "col1": "N. Kanaeva",
        "col2": "1991-10-8",
        "col3": "1991-10-8"
    },
    {
        "col0": "H. Torii",
        "col1": "N. Shigematsu",
        "col2": "1988-1-30",
        "col3": "1988-1-30"
    },
    {
        "col0": "H. Lindholm",
        "col1": "M. Zueva",
        "col2": "1989-5-4",
        "col3": "1989-5-4"
    },
    {
        "col0": "H. Denney",
        "col1": "S. Fontana",
        "col2": "1995-10-28",
        "col3": "1995-10-28"
    },
    {
        "col0": "H. Suzuki",
        "col1": "A. Krylova",
        "col2": "1997-4-9",
        "col3": "1997-4-9"
    },
    {
        "col0": "H. Imai",
        "col1": "P. Camerlengo",
        "col2": "1993-8-31",
        "col3": "1993-8-31"
    },
    {
        "col0": "H. Miller",
        "col1": "T. Dickson",
        "col2": "1996-10-29",
        "col3": "1996-10-29"
    },
    {
        "col0": "H. Cong",
        "col1": "L. Nichol",
        "col2": "1992-8-6",
        "col3": "1992-8-6"
    },
    {
        "col0": "G. Yalu",
        "col1": "D. Chen",
        "col2": "1992-4-3",
        "col3": "1992-4-3"
    },
    {
        "col0": "G. Cizeron",
        "col1": "M. Dubreuil",
        "col2": "1994-11-12",
        "col3": "1994-11-12"
    },
    {
        "col0": "G. Jinlin",
        "col1": "H. Feng",
        "col2": "1989-4-25",
        "col3": "1989-4-25"
    },
    {
        "col0": "G. Donlan",
        "col1": "T. Belbin",
        "col2": "1993-11-18",
        "col3": "1993-11-18"
    },
    {
        "col0": "G. Hochstein",
        "col1": "K. Kwan",
        "col2": "1990-7-16",
        "col3": "1990-7-16"
    },
    {
        "col0": "G. Gold",
        "col1": "L. Nichol",
        "col2": "1995-8-17",
        "col3": "1995-8-17"
    },
    {
        "col0": "G. Butkute",
        "col1": "T. Druchinina",
        "col2": "1999-7-10",
        "col3": "1999-7-10"
    },
    {
        "col0": "G. Russo",
        "col1": "E. D. Bernardis",
        "col2": "1997-5-25",
        "col3": "1997-5-25"
    },
    {
        "col0": "G. Varner",
        "col1": "M. Zueva",
        "col2": "1987-3-2",
        "col3": "1987-3-2"
    },
    {
        "col0": "G. Bingwa",
        "col1": "D. Wilson",
        "col2": "1994-1-3",
        "col3": "1994-1-3"
    },
    {
        "col0": "G. MacKeen",
        "col1": "J. Razgulajevs",
        "col2": "1994-3-23",
        "col3": "1994-3-23"
    },
    {
        "col0": "G. Daleman",
        "col1": "L. Nichol",
        "col2": "1998-1-13",
        "col3": "1998-1-13"
    },
    {
        "col0": "G. Papadakis",
        "col1": "M. Dubreuil",
        "col2": "1995-5-10",
        "col3": "1995-5-10"
    },
    {
        "col0": "F. Ouellette",
        "col1": "M. Dubreuil",
        "col2": "1992-2-13",
        "col3": "1992-2-13"
    },
    {
        "col0": "F. Streubel",
        "col1": "P. Camerlengo",
        "col2": "1991-9-24",
        "col3": "1991-9-24"
    },
    {
        "col0": "F. Ouellette",
        "col1": "M. Dubreuil",
        "col2": "1992-2-13",
        "col3": "1992-2-13"
    },
    {
        "col0": "F. Maxwell",
        "col1": "I. Lukanin",
        "col2": "1988-8-5",
        "col3": "1988-8-5"
    },
    {
        "col0": "F. Sokolov",
        "col1": "G. Chait",
        "col2": "1984-12-14",
        "col3": "1984-12-14"
    },
    {
        "col0": "F. D. Esposti",
        "col1": "E. D. Bernardis",
        "col2": "1980-6-2",
        "col3": "1980-6-2"
    },
    {
        "col0": "E. Medvedeva",
        "col1": "A. Zhulin",
        "col2": "1999-11-19",
        "col3": "1999-11-19"
    },
    {
        "col0": "E. Krasnopolski",
        "col1": "G. Chait",
        "col2": "1988-10-4",
        "col3": "1988-10-4"
    },
    {
        "col0": "E. Lysacek",
        "col1": "L. Nichol",
        "col2": "1985-6-4",
        "col3": "1985-6-4"
    },
    {
        "col0": "E. Elizabeth",
        "col1": "O. Schoenfelder",
        "col2": "1996-6-29",
        "col3": "1996-6-29"
    },
    {
        "col0": "E. Harstad",
        "col1": "K. Hanevold",
        "col2": "1990-8-6",
        "col3": "1990-8-6"
    },
    {
        "col0": "E. Risseeuw",
        "col1": "K. Johnson",
        "col2": "1990-7-11",
        "col3": "1990-7-11"
    },
    {
        "col0": "E. Naphtal",
        "col1": "M. Zoueva",
        "col2": "1989-4-20",
        "col3": "1989-4-20"
    },
    {
        "col0": "E. Hughes",
        "col1": "D. Wilson",
        "col2": "1989-1-26",
        "col3": "1989-1-26"
    },
    {
        "col0": "E. D. Boutin",
        "col1": "J. Boyer",
        "col2": "1990-9-23",
        "col3": "1990-9-23"
    },
    {
        "col0": "E. Sandhu",
        "col1": "J. McLeod",
        "col2": "1980-11-18",
        "col3": "1980-11-18"
    },
    {
        "col0": "E. Balde",
        "col1": "P. Camerlengo",
        "col2": "1990-11-9",
        "col3": "1990-11-9"
    },
    {
        "col0": "E. Ukolova",
        "col1": "R. Sinicyn",
        "col2": "1998-3-12",
        "col3": "1998-3-12"
    },
    {
        "col0": "E. Nugumanova",
        "col1": "B. Richaud",
        "col2": "2002-8-25",
        "col3": "2002-8-25"
    },
    {
        "col0": "E. Makarova",
        "col1": "I. Lutai",
        "col2": "1994-6-17",
        "col3": "1994-6-17"
    },
    {
        "col0": "E. Tursynbayeva",
        "col1": "D. Wilson",
        "col2": "2000-2-14",
        "col3": "2000-2-14"
    },
    {
        "col0": "E. Halverson",
        "col1": "S. Kulikova",
        "col2": "1990-11-8",
        "col3": "1990-11-8"
    },
    {
        "col0": "E. Kettunen",
        "col1": "M. Uotila",
        "col2": "1981-4-10",
        "col3": "1981-4-10"
    },
    {
        "col0": "E. Radionova",
        "col1": "S. Bourne",
        "col2": "1999-1-6",
        "col3": "1999-1-6"
    },
    {
        "col0": "E. Muhhina",
        "col1": "N. Morozov",
        "col2": "1988-10-22",
        "col3": "1988-10-22"
    },
    {
        "col0": "E. Ilinykh",
        "col1": "A. Najarro",
        "col2": "1994-4-25",
        "col3": "1994-4-25"
    },
    {
        "col0": "E. Sokolova",
        "col1": "G. Chait",
        "col2": "1990-8-29",
        "col3": "1990-8-29"
    },
    {
        "col0": "E. Mitrofanova",
        "col1": "O. Markova",
        "col2": "2002-5-5",
        "col3": "2002-5-5"
    },
    {
        "col0": "E. Borisova",
        "col1": "O. Volozhinskaya",
        "col2": "1999-9-13",
        "col3": "1999-9-13"
    }
]