[
    {
        "col0": "F. Burt",
        "col1": "Francis Theodore Page Burt",
        "col2": "2004-09-08",
        "col3": "1940"
    },
    {
        "col0": "F. Haq",
        "col1": "Fazle Haq",
        "col2": "1991-10-03",
        "col3": "1951"
    },
    {
        "col0": "E. P. Cameron",
        "col1": "Ewen Paul Cameron",
        "col2": "1964-01-18",
        "col3": "1915"
    },
    {
        "col0": "E. C. 2nd",
        "col1": "Erastus Corning II",
        "col2": "1983-05-28",
        "col3": "1944"
    },
    {
        "col0": "E. Richardson",
        "col1": "Elliot Lee Richardson",
        "col2": "1999-12-31",
        "col3": "1942"
    },
    {
        "col0": "E. A. Burdick",
        "col1": "Edward Arthur Burdick",
        "col2": "2011-03-09",
        "col3": "1951"
    },
    {
        "col0": "E. Koch",
        "col1": "Edward Irving Koch",
        "col2": "2013-02-01",
        "col3": "1943"
    },
    {
        "col0": "D. M. DuBose",
        "col1": "Dudley McIver DuBose",
        "col2": "1883-03-02",
        "col3": "1861"
    },
    {
        "col0": "D. Runsheng",
        "col1": ")",
        "col2": "2015-10-09",
        "col3": "1936"
    },
    {
        "col0": "D. Kendrew",
        "col1": "Douglas Anthony Kendrew",
        "col2": "1989-02-28",
        "col3": "1930"
    },
    {
        "col0": "D. Dunstan",
        "col1": "Donald Beaumont Dunstan",
        "col2": "2011-10-15",
        "col3": "1940"
    },
    {
        "col0": "D. D. Khan",
        "col1": "Qaboolo or (Qabool Muhammad) Sayed",
        "col2": "1521-0-0",
        "col3": "1490"
    },
    {
        "col0": "D. James",
        "col1": "David Pelham James",
        "col2": "1986-12-15",
        "col3": "1939"
    },
    {
        "col0": "D. Cargo",
        "col1": "David Francis Cargo",
        "col2": "2013-07-05",
        "col3": "1953"
    },
    {
        "col0": "D. Brewster",
        "col1": "Daniel Baugh Brewster",
        "col2": "2007-08-19",
        "col3": "1942"
    },
    {
        "col0": "C. Rankin",
        "col1": "Colin Dunlop Wilson Rankin",
        "col2": "1940-11-02",
        "col3": "1886"
    }
]