[
    "13th_Lok_Sabha_2973_3",
    "14th_Lok_Sabha_994e_14",
    "7_Studios_5645_0",
    "Aeropuertos_y_Servicios_Auxiliares_a1ee_0",
    "Alphabetical_list_of_municipalities_and_communities_in_Greece_8069_5",
    "Atlanta_Hawks_3a1a_0",
    "Aviation_in_Singapore_b8f5_0",
    "Baltimore_Mariners_0006_0",
    "Belgian_Ebony_Shoe_b217_0",
    "Beresford_County_New_South_Wales_9641_0",
    "Best_of_Eurovision_be62_0",
    "Bishop_of_Tonbridge_e12a_0",
    "Boris_Shilkov_932d_0",
    "Brisbane_Broncos_2007_f85a_3",
    "CMX_discography_7efa_0",
    "Canadian_veteran_licence_plates_0",
    "Canton_of_Le_Catelet_05f6_0",
    "Canton_of_Marquion_e508_0",
    "Capital_and_Counties_b9a1_0",
    "Carrera_Panamericana_4c5a_0",
    "Central_Greece_9697_1",
    "Central_Highlands_Province_f6e0_0",
    "Chapters_of_Alpha_Kappa_Psi_74d7_1",
    "Chicago_Cubs_team_records_b45c_12",
    "Chief_Minister_of_the_Northern_Territory_be79_0",
    "Chinese_swords_0",
    "Chris_Alajajian_2b21_1",
    "Comarques_of_Catalonia_a70c_1",
    "Commedia_all_italiana_0",
    "Communes_of_the_Essonne_department_7d4a_1",
    "Communes_of_the_Var_department_e37f_1",
    "Comuni_of_the_Province_of_Naples_92ce_0",
    "County_of_Nares_Queensland_eccc_0",
    "County_statistics_of_the_United_States_66c4_4",
    "Danish_Superliga_1995-96_829e_1",
    "Danny_DeVito_filmography_9079_0",
    "Demographics_of_the_Swiss_Federal_Council_130f_6",
    "Diet_Pepsi_NFL_Rookie_of_the_Week_1657_1",
    "Division_I_94db_0",
    "ESPN_NFL_2K_966d_0",
    "Ed_Pimm_3df7_0",
    "Eddie_Robinson_Coach_of_the_Year_cc5c_0",
    "El_Paso_Texas_243a_3",
    "Electoral_district_of_Newland_39c6_0",
    "Estonia_2",
    "EuroBasket_2007_squads_8fed_13",
    "FIFA_100_44ce_7",
    "Fast_bowling_1",
    "Fifth_dynasty_of_Egypt_687d_0",
    "Final_24_0",
    "Fixed_dose_combination_antiretroviral_0",
    "Former_Southern_Conference_members_0958_0",
    "Former_municipalities_of_Norway_c4a3_8",
    "Generation_Adidas_28bc_4",
    "Gowen_County_New_South_Wales_ef76_0",
    "GraphiCon_ca64_0",
    "Highest-income_counties_in_the_United_States_631d_2",
    "Hladno_pivo_0",
    "House_TV_series_e301_0",
    "Houston_Texans_draft_history_2b62_6",
    "Independent_Wrestling_Federation_Russia_2ec2_0",
    "Iowa_4",
    "Italian_Canadians_93aa_0",
    "Jeff_Tweedy_ce20_1",
    "Juventus_F._statistics_and_records_26e0_0",
    "KVNE_da85_0",
    "Lee_County_Florida_fdc0_0",
    "List_of_African_countries_by_GDP_per_capita_b8bb_0",
    "List_of_Athabasca_University_people_bac1_0",
    "List_of_Australian_Prime_Ministers_by_time_in_office_1a2f_0",
    "List_of_Australian_game_shows_0fc4_1",
    "List_of_Avengers_members_8400_11",
    "List_of_Canadian_airports_by_location_indicator_CJ_27f2_0",
    "List_of_Canadian_airports_by_location_indicator_CV_5365_0",
    "List_of_Catalan_language_television_channels_169d_14",
    "List_of_Daytona_500_broadcasters_861d_1",
    "List_of_Disney_theatrical_animated_features_b17e_0",
    "List_of_Doctor_Who_serials_d22a_4",
    "List_of_Dutch_flags_5b3e_1",
    "List_of_Finnish_composers_0e0c_1",
    "List_of_Governors_of_Kansas_38ec_3",
    "List_of_Governors_of_Louisiana_70f6_7",
    "List_of_Indigenous_Australian_group_names_51f7_15",
    "List_of_Kappa_Alpha_Psi_brothers_18d0_10",
    "List_of_LGBT_characters_in_modern_written_fiction_84cf_9",
    "List_of_Lancashire_County_Cricket_Club_records_9066_5",
    "List_of_Members_of_the_European_Parliament_2004-2009_541b_13",
    "List_of_Nintendo_GameCube_games_37a3_11",
    "List_of_Philippine_provinces_by_population_9d11_0",
    "List_of_Presidents_of_the_French_Republic_0bfc_0",
    "List_of_Puerto_Rican_Academy_Award_winners_and_nominees_c63a_0",
    "List_of_Puisne_Justices_of_the_Supreme_Court_of_Canada_4ebb_0",
    "List_of_Seinfeld_minor_characters_0df6_5",
    "List_of_Shopping_Centres_in_Australia_by_size_c80f_0",
    "List_of_Star_Trek_characters_4bf8_1",
    "List_of_Star_Trek_characters_4bf8_6",
    "List_of_Strawberry_Shortcake_video_games_cf93_0",
    "List_of_Test_cricket_grounds_ad94_9",
    "List_of_The_Daily_Show_guests_1998_c8e2_0",
    "List_of_The_Daily_Show_guests_2006_270c_11",
    "List_of_airports_in_the_United_Kingdom_16d1_1",
    "List_of_birds_of_Thailand_4230_47",
    "List_of_cast_members_of_The_Simpsons_878d_2",
    "List_of_champagne_producers_0",
    "List_of_cities_in_Norway_c220_0",
    "List_of_expressways_and_highways_in_Malaysia_fd41_2",
    "List_of_foreign_ministers_in_1990_2",
    "List_of_game_show_hosts_4",
    "List_of_high_schools_in_Indiana_c5c1_3",
    "List_of_high_schools_in_Indiana_c5c1_31",
    "List_of_ice_hockey_teams_in_Quebec_09ec_10",
    "List_of_metropolitan_areas_in_Taiwan_f4ef_0",
    "List_of_minimum_wages_in_Canada_9ce7_0",
    "List_of_number-one_singles_in_Australia_during_the_1980s_cf98_8",
    "List_of_peaks_named_Bear_Mountain_0474_0",
    "List_of_people_from_Savannah_Georgia_da72_0",
    "List_of_people_with_epilepsy_11",
    "List_of_poliomyelitis_survivors_9",
    "List_of_rivers_of_the_United_Kingdom_1a51_0",
    "List_of_settlements_in_Hertfordshire_by_population_65f9_0",
    "List_of_space_exploration_milestones_1957-1969_2",
    "List_of_superlative_Academy_Award_winners_and_nominees_52c5_3",
    "List_of_trolleybus_systems_in_the_United_Kingdom_e871_8",
    "List_of_victims_of_Nazism_be15_5",
    "Longitude_prize_0",
    "Miami_Heat_all-time_roster_6676_1",
    "Michael_Tuck_Medal_ce06_0",
    "Ministry_for_the_Environment_New_Zealand_8425_0",
    "Minnesota_s_7th_congressional_district_0",
    "Moorish_Revival_2c45_0",
    "Municipality_numbers_of_Norway_c032_14",
    "N_Poland_5014_2",
    "Nashville_Tennessee_0fa5_2",
    "Norm_Smith_Medal_7f49_0",
    "North_Cascades_720f_1",
    "Northstate_Public_Radio_c974_0",
    "Orlando_Magic_all-time_roster_a0ec_2",
    "Padma_Bhushan_89ce_5",
    "Panasonic_Open_12e3_7",
    "PortalGovernment_of_India_Selected_lists_January_2007_ca64_0",
    "Praetorian_prefect_1",
    "Prime_Minister_of_Lithuania_77b7_0",
    "Prime_Minister_of_Serbia_and_Montenegro_49ee_0",
    "Progressive_Conservative_Party_of_Manitoba_fc22_0",
    "Providence_County_Rhode_Island_schools_9f43_1",
    "Raymond_Kurzweil_cb80_0",
    "Reel_Fishing_41d8_0",
    "Religious_rejection_of_politics_0",
    "Republican_Conference_Chairman_of_the_United_States_Senate_7b0c_0",
    "Rookie_Challenge_4618_0",
    "Rum_Patrol_00dd_0",
    "SK_Brann_2007_a99d_5",
    "San_Jose_California_e18c_1",
    "Saracens_F._e62c_1",
    "Saturn_Award_for_Best_Actress_on_Television_93d9_0",
    "Schmeisser_Award_5609_1",
    "Selwyn_County_New_South_Wales_a9b2_0",
    "Shooting_at_the_2006_Asian_Games_b90e_15",
    "Southern_Connecticut_Conference_7bce_1",
    "Southwest_Division_NBA_a04f_0",
    "Space_Shuttle_Atlantis_0a51_0",
    "Space_Shuttle_Columbia_ffaa_0",
    "Star_Screen_Award_for_Best_Supporting_Actress_4a19_0",
    "State_of_the_Union_film_2b85_0",
    "Sten_Stensen_2a1f_1",
    "Sydney_Airport_05b8_1",
    "Tennis_statistics_5",
    "Test_matches_1991-2000_6",
    "The_Bachelor_Officer_and_a_Gentleman_ae4b_0",
    "The_Get_Up_Kids_b93f_0",
    "Timber_Lake_4724_2",
    "Tri-state_area_2",
    "UEFA_Euro_1996_squads_be67_2",
    "UEFA_Euro_2004_squads_d586_7",
    "United_States_House_of_Representatives_elections_1904_5307_1",
    "United_States_House_of_Representatives_elections_1910_d7d7_1",
    "United_States_House_of_Representatives_elections_1956_d204_1",
    "United_States_House_of_Representatives_elections_1994_4425_30",
    "United_States_House_of_Representatives_elections_1994_4425_42",
    "United_States_House_of_Representatives_elections_2000_ddc3_2",
    "United_States_House_of_Representatives_elections_2002_02b9_4",
    "United_States_House_of_Representatives_elections_2006_-_complete_list_c80b_1",
    "United_States_House_of_Representatives_elections_2008_-_complete_list_f1be_44",
    "United_States_Senate_elections_2008_9587_1",
    "United_States_Senate_elections_2010_535c_0",
    "Vehicle_registration_plates_of_Macedonia_8570_1",
    "Vernon_County_New_South_Wales_dedd_0",
    "WNBA_Expansion_Draft_History_0a5f_4",
    "Wasseramt_0",
    "Wisconsin_Intercollegiate_Athletic_Conference_a2ff_0",
    "Wisden_100_0",
    "Wisden_100_3",
    "X_the_album_11",
    "X_the_album_2",
    "Zee_Cine_Award_for_Best_Actor_-_Male_2c86_0",
    "file398415_0_cols1_rows58",
    "file404761_0_cols1_rows11",
    "file405599_0_cols1_rows23",
    "file440470_0_cols1_rows26",
    "file526591_0_cols1_rows20"
]