[
    {
        "0": "Parameter",
        "1": "In/Out",
        "2": "Description"
    },
    {
        "0": "xctx",
        "1": "IN",
        "2": "XML context"
    },
    {
        "0": "elem",
        "1": "IN",
        "2": "element node"
    },
    {
        "0": "name",
        "1": "IN",
        "2": "tag name to match; data encoding; * for all"
    }
]