[
    {
        "0": "How To Destroy Angels lyrics",
        "1": "Time",
        "2": "Stars"
    },
    {
        "0": "* A Drowning Lyrics",
        "1": "",
        "2": "0"
    },
    {
        "0": "* And The Sky Began To Scream Lyrics",
        "1": "",
        "2": "0"
    },
    {
        "0": "* BBB Lyrics",
        "1": "",
        "2": "0"
    },
    {
        "0": "* Fur-Lined Lyrics",
        "1": "",
        "2": "0"
    },
    {
        "0": "* How Long? Lyrics",
        "1": "",
        "2": "0"
    },
    {
        "0": "* Ice Age Lyrics",
        "1": "",
        "2": "0"
    },
    {
        "0": "* Keep It Together Lyrics",
        "1": "",
        "2": "0"
    },
    {
        "0": "* On The Wing Lyrics",
        "1": "",
        "2": "0"
    },
    {
        "0": "* Parasite Lyrics",
        "1": "",
        "2": "0"
    },
    {
        "0": "* Strings And Attractors Lyrics",
        "1": "",
        "2": "0"
    },
    {
        "0": "* The Believers Lyrics",
        "1": "",
        "2": "0"
    },
    {
        "0": "* The Space In Between Lyrics",
        "1": "",
        "2": "0"
    },
    {
        "0": "* Too Late, All Gone Lyrics",
        "1": "",
        "2": "0"
    },
    {
        "0": "* We Fade Away Lyrics",
        "1": "",
        "2": "0"
    }
]