[
    {
        "0": "GON",
        "1": "MIN",
        "2": "FG",
        "3": "FT",
        "4": "REB",
        "5": "A",
        "6": "PTS"
    },
    {
        "0": "Greinacher",
        "1": "29",
        "2": "7-13",
        "3": "4-4",
        "4": "7-14",
        "5": "2",
        "6": "18"
    },
    {
        "0": "Palmer",
        "1": "36",
        "2": "6-17",
        "3": "0-0",
        "4": "2-7",
        "5": "2",
        "6": "13"
    },
    {
        "0": "Albanez",
        "1": "17",
        "2": "2-6",
        "3": "0-0",
        "4": "1-1",
        "5": "0",
        "6": "6"
    },
    {
        "0": "Sherbert",
        "1": "33",
        "2": "3-13",
        "3": "0-0",
        "4": "3-3",
        "5": "3",
        "6": "9"
    },
    {
        "0": "Redmon",
        "1": "37",
        "2": "1-7",
        "3": "0-0",
        "4": "4-6",
        "5": "5",
        "6": "3"
    },
    {
        "0": "Walter",
        "1": "9",
        "2": "1-2",
        "3": "0-2",
        "4": "1-1",
        "5": "1",
        "6": "2"
    },
    {
        "0": "Nilles",
        "1": "3",
        "2": "2-2",
        "3": "0-0",
        "4": "0-0",
        "5": "0",
        "6": "4"
    },
    {
        "0": "Kudron",
        "1": "5",
        "2": "0-1",
        "3": "0-0",
        "4": "0-0",
        "5": "0",
        "6": "0"
    },
    {
        "0": "Golden",
        "1": "13",
        "2": "2-6",
        "3": "0-0",
        "4": "0-1",
        "5": "0",
        "6": "4"
    },
    {
        "0": "Tinkle",
        "1": "4",
        "2": "0-0",
        "3": "0-0",
        "4": "0-2",
        "5": "0",
        "6": "0"
    },
    {
        "0": "Cheslek",
        "1": "14",
        "2": "0-1",
        "3": "0-0",
        "4": "1-5",
        "5": "0",
        "6": "0"
    },
    {
        "0": "Totals",
        "1": "200",
        "2": "24-68",
        "3": "4-6",
        "4": "21-43",
        "5": "13",
        "6": "59"
    },
    {
        "0": "",
        "1": "",
        "2": "",
        "3": "",
        "4": "",
        "5": "",
        "6": ""
    }
]