[
    {
        "0": "bio",
        "1": "website",
        "2": "alanchavis.com"
    },
    {
        "0": "",
        "1": "location",
        "2": "Eagle, CO"
    },
    {
        "0": "",
        "1": "age",
        "2": "48"
    },
    {
        "0": "visits",
        "1": "member for",
        "2": "4 years, 11 months"
    },
    {
        "0": "",
        "1": "seen",
        "2": "Aug 7 '12 at 17:06"
    },
    {
        "0": "stats",
        "1": "profile views",
        "2": "5"
    }
]