[
    {
        "0": "",
        "1": "",
        "2": ""
    },
    {
        "0": "MAXIMUM LAWN SIZE",
        "1": "600 m2",
        "2": ""
    },
    {
        "0": "MOWING WIDTH",
        "1": "28 cm",
        "2": ""
    },
    {
        "0": "MOWING HEIGHT",
        "1": "15-60 mm",
        "2": ""
    },
    {
        "0": "Mowing power",
        "1": "200W",
        "2": ""
    },
    {
        "0": "SLOPES",
        "1": "up to 36% (20deg) degrees",
        "2": ""
    },
    {
        "0": "SIZE",
        "1": "63 x 46 x 21 cm",
        "2": ""
    },
    {
        "0": "WEIGHT",
        "1": "11.4 Kg",
        "2": ""
    },
    {
        "0": "NUMBER OF ZONES",
        "1": "3",
        "2": ""
    },
    {
        "0": "CHARGING TIME",
        "1": "60-90 min",
        "2": ""
    },
    {
        "0": "AVARAGE WORK TIME",
        "1": "60-73 min",
        "2": ""
    },
    {
        "0": "COLOR",
        "1": "Green",
        "2": ""
    },
    {
        "0": "BLADES REPLACEMENT",
        "1": "No tools required",
        "2": ""
    },
    {
        "0": "BATTERY",
        "1": "26V Lithium (LiFePO4)",
        "2": ""
    },
    {
        "0": "NOISE LEVEL",
        "1": "ECO mode: 64 dB High Load: Measured - 67.9 dB Guaranteed - 69 dB",
        "2": ""
    },
    {
        "0": "EXTERNAL BASE SETUP",
        "1": "YES",
        "2": ""
    },
    {
        "0": "POWER CONSUMPTION",
        "1": "11 kWh/month",
        "2": ""
    },
    {
        "0": "RAIN SENSOR",
        "1": "YES",
        "2": ""
    },
    {
        "0": "MODULAR DESIGN",
        "1": "YES",
        "2": ""
    },
    {
        "0": "SNAP ON BLADES",
        "1": "YES",
        "2": ""
    },
    {
        "0": "UNIQUE EDGE MODE",
        "1": "YES",
        "2": ""
    },
    {
        "0": "FLOATING DECK",
        "1": "NO",
        "2": ""
    },
    {
        "0": "ROBOMOW APP",
        "1": "YES",
        "2": ""
    },
    {
        "0": "PREMIUM DRIVE WHEELS",
        "1": "YES",
        "2": ""
    },
    {
        "0": "SILVER PLATED PARTS",
        "1": "YES",
        "2": ""
    },
    {
        "0": "WARRANTY",
        "1": "3 YEAR",
        "2": ""
    }
]