[
    {
        "0": "CATEGORY",
        "1": "BRAND",
        "2": "DESCRIPTION",
        "3": "FORMAT",
        "4": "ITEM#"
    },
    {
        "0": "Fruit/Creme Filling",
        "1": "BakeMark",
        "2": "FILLING, APPLE DANISH",
        "3": "10.9 KG",
        "4": "20428"
    },
    {
        "0": "",
        "1": "BakeMark",
        "2": "FILLING, APPLE TURNOVER",
        "3": "11.3 KG",
        "4": "20431"
    },
    {
        "0": "",
        "1": "BakeMark",
        "2": "FILLING, APPLE TURNOVER",
        "3": "15 KG",
        "4": "20560"
    },
    {
        "0": "",
        "1": "BakeMark",
        "2": "FILLING, APPLE'N RASPBERRY",
        "3": "13.6 KG",
        "4": "20569"
    },
    {
        "0": "",
        "1": "BakeMark",
        "2": "FILLING, APRICOT DANISH",
        "3": "10.9 KG",
        "4": "20434"
    },
    {
        "0": "",
        "1": "BakeMark",
        "2": "FILLING, BANANA CREME NON-HYDRO",
        "3": "12 KG",
        "4": "21138"
    },
    {
        "0": "",
        "1": "BakeMark",
        "2": "FILLING, BAVARIAN CREME",
        "3": "15 KG",
        "4": "20449"
    },
    {
        "0": "",
        "1": "BakeMark",
        "2": "FILLING, BAVARIAN CREME",
        "3": "12 KG",
        "4": "20453"
    },
    {
        "0": "",
        "1": "BakeMark",
        "2": "FILLING, BAVARIAN CREME NH",
        "3": "15 KG",
        "4": "21147"
    },
    {
        "0": "",
        "1": "BakeMark",
        "2": "FILLING, BAVARIAN CREME NH",
        "3": "12 KG",
        "4": "21129"
    },
    {
        "0": "",
        "1": "BakeMark",
        "2": "FILLING, BAVARIAN CREME NH",
        "3": "10.88 KG",
        "4": "21141"
    },
    {
        "0": "",
        "1": "BakeMark",
        "2": "FILLING, BAVARIAN TRANS FAT FREE",
        "3": "10.88 KG",
        "4": "21125"
    },
    {
        "0": "",
        "1": "BakeMark",
        "2": "FILLING, BAVARIAN WHITE NON-HYDRO",
        "3": "10.88 KG",
        "4": "21140"
    },
    {
        "0": "",
        "1": "BakeMark",
        "2": "FILLING, BLACKBERRY TRES",
        "3": "8 KG",
        "4": "21144"
    },
    {
        "0": "",
        "1": "BakeMark",
        "2": "FILLING, BLUEBERRY",
        "3": "12 KG",
        "4": "20462"
    },
    {
        "0": "",
        "1": "BakeMark",
        "2": "FILLING, BLUEBERRY",
        "3": "15 KG",
        "4": "20578"
    },
    {
        "0": "",
        "1": "BakeMark",
        "2": "FILLING, BLUEBERRY CHEF",
        "3": "12 KG",
        "4": "21115"
    },
    {
        "0": "",
        "1": "BakeMark",
        "2": "FILLING, BLUEBERRY DANISH",
        "3": "10.9 KG",
        "4": "20464"
    },
    {
        "0": "",
        "1": "BakeMark",
        "2": "FILLING, BLUEBERRY DELUX",
        "3": "12 KG",
        "4": "20098"
    },
    {
        "0": "",
        "1": "BakeMark",
        "2": "FILLING, BLUEBERRY",
        "3": "12 KG",
        "4": "21136"
    },
    {
        "0": "",
        "1": "BakeMark",
        "2": "FILLING, BLUEBERRY",
        "3": "7 KG",
        "4": "21133"
    },
    {
        "0": "",
        "1": "Henry & Henry",
        "2": "FILLING, CAJETA CARAMEL",
        "3": "42 LB",
        "4": "33114"
    },
    {
        "0": "",
        "1": "Henry & Henry",
        "2": "FILLING, CAJETA CARAMEL",
        "3": "20 LB",
        "4": "86031"
    },
    {
        "0": "",
        "1": "BakeMark",
        "2": "FILLING, CHERRY",
        "3": "15 KG",
        "4": "20470"
    },
    {
        "0": "",
        "1": "BakeMark",
        "2": "FILLING, CHERRY",
        "3": "12 KG",
        "4": "20468"
    },
    {
        "0": "",
        "1": "BakeMark",
        "2": "FILLING, CHERRY",
        "3": "12 KG",
        "4": "21163"
    },
    {
        "0": "",
        "1": "Brill",
        "2": "FILLING, CHERRY",
        "3": "20 LB",
        "4": "89029"
    },
    {
        "0": "",
        "1": "BakeMark",
        "2": "FILLING, CHERRY BLK FOREST",
        "3": "1 KG",
        "4": "20459"
    },
    {
        "0": "",
        "1": "BakeMark",
        "2": "FILLING, CHERRY BLK FOREST",
        "3": "15 KG",
        "4": "20458"
    },
    {
        "0": "",
        "1": "BakeMark",
        "2": "FILLING, CHERRY CHEESECAKE",
        "3": "10.88 KG",
        "4": "27306"
    },
    {
        "0": "",
        "1": "BakeMark",
        "2": "FILLING, CHERRY CHEESECAKE",
        "3": "12 KG",
        "4": "21170"
    },
    {
        "0": "",
        "1": "BakeMark",
        "2": "FILLING, CHERRY DANISH",
        "3": "10.9 KG",
        "4": "20473"
    },
    {
        "0": "",
        "1": "BakeMark",
        "2": "FILLING, CHERRY DANISH CHEF",
        "3": "10.88 KG",
        "4": "31834"
    },
    {
        "0": "",
        "1": "BakeMark",
        "2": "FILLING, CHERRY PIE TASTEE",
        "3": "7 KG",
        "4": "21166"
    },
    {
        "0": "",
        "1": "BakeMark",
        "2": "FILLING, CHERRY BLACK FOREST",
        "3": "12 KG",
        "4": "21142"
    },
    {
        "0": "",
        "1": "BakeMark",
        "2": "FILLING, CHERRY BLACK FOREST (FR)",
        "3": "12 KG",
        "4": "21097"
    },
    {
        "0": "",
        "1": "BakeMark",
        "2": "FILLING, CHERRY CHEF",
        "3": "12 KG",
        "4": "21145"
    },
    {
        "0": "",
        "1": "BakeMark",
        "2": "FILLING, CHERRY DELUX",
        "3": "12 KG",
        "4": "21160"
    },
    {
        "0": "",
        "1": "Henry & Henry",
        "2": "FILLING, CHOC BAVARIAN",
        "3": "20 LB",
        "4": "60023"
    },
    {
        "0": "",
        "1": "Henry & Henry",
        "2": "FILLING, COCONUT CREME",
        "3": "18 LB",
        "4": "86030"
    },
    {
        "0": "",
        "1": "Henry & Henry",
        "2": "FILLING, CRANBERRY",
        "3": "20 LB",
        "4": "60382"
    },
    {
        "0": "",
        "1": "BakeMark",
        "2": "FILLING, CREAM CHEESE",
        "3": "15 KG",
        "4": "22804"
    },
    {
        "0": "",
        "1": "Henry & Henry",
        "2": "FILLING, CREAM CHEESE",
        "3": "40 LB",
        "4": "86013"
    },
    {
        "0": "",
        "1": "Henry & Henry",
        "2": "FILLING, CREAM CHEESE PASTRY",
        "3": "20 LB",
        "4": "86022"
    },
    {
        "0": "",
        "1": "Henry & Henry",
        "2": "FILLING, CROWN CHERRY",
        "3": "18 LB",
        "4": "1337"
    },
    {
        "0": "",
        "1": "Henry & Henry",
        "2": "FILLING, CROWN PEACH",
        "3": "20 LB",
        "4": "32570"
    },
    {
        "0": "",
        "1": "Henry & Henry",
        "2": "FILLING, CROWN PINEAPPLE",
        "3": "20 LB",
        "4": "60243"
    },
    {
        "0": "",
        "1": "Henry & Henry",
        "2": "FILLING, CROWN RED RASPBERRY",
        "3": "20 LB",
        "4": "23557"
    },
    {
        "0": "",
        "1": "Westco",
        "2": "FILLING, CUBE CUT APPLE",
        "3": "38 LB",
        "4": "60262"
    },
    {
        "0": "",
        "1": "BakeMark",
        "2": "FILLING, DATE PUREE",
        "3": "12 KG",
        "4": "21190"
    },
    {
        "0": "",
        "1": "BakeMark",
        "2": "FILLING, DATE PUREE",
        "3": "15 KG",
        "4": "21192"
    },
    {
        "0": "",
        "1": "Westco",
        "2": "FILLING, DULCE DE LECHE (BAKE STABLE)",
        "3": "38 LB",
        "4": "60281"
    },
    {
        "0": "",
        "1": "Westco",
        "2": "FILLING, DULCE DE LECHE (COLD APP)",
        "3": "20 LB",
        "4": "60278"
    },
    {
        "0": "",
        "1": "BakeMark",
        "2": "FILLING, EASY DATE",
        "3": "15 KG",
        "4": "20611"
    },
    {
        "0": "",
        "1": "BakeMark",
        "2": "FILLING, EASY DATE",
        "3": "12 KG",
        "4": "20486"
    },
    {
        "0": "",
        "1": "BakeMark",
        "2": "FILLING, FESTIVAL MINCE FILLING",
        "3": "12 KG",
        "4": "20513"
    },
    {
        "0": "",
        "1": "BakeMark",
        "2": "FILLING, FESTIVAL MINCE FILLING",
        "3": "15 KG",
        "4": "20662"
    },
    {
        "0": "",
        "1": "Westco",
        "2": "FILLING, FRESH CUBE CUT APPLE",
        "3": "38 LB",
        "4": "60241"
    },
    {
        "0": "",
        "1": "Henry & Henry",
        "2": "FILLING, FRUITFUL CRANBERRY",
        "3": "42 LB",
        "4": "86046"
    },
    {
        "0": "",
        "1": "BakeMark",
        "2": "FILLING, GOLDEN LEMON NON-HYDRO",
        "3": "12 KG",
        "4": "21134"
    },
    {
        "0": "",
        "1": "Westco",
        "2": "FILLING, GUAVA TRADITIONAL",
        "3": "38 LB",
        "4": "60283"
    },
    {
        "0": "",
        "1": "BakeMark",
        "2": "FILLING, KEY LIME",
        "3": "12 KG",
        "4": "20495"
    },
    {
        "0": "",
        "1": "Henry & Henry",
        "2": "FILLING, KEY LIME CREME",
        "3": "38 LB",
        "4": "23980"
    },
    {
        "0": "",
        "1": "BakeMark",
        "2": "FILLING, KEY LIME NON-HYDRO",
        "3": "12 KG",
        "4": "28436"
    },
    {
        "0": "",
        "1": "Henry & Henry",
        "2": "FILLING, LEMON CREAM",
        "3": "38 LB",
        "4": "16063"
    },
    {
        "0": "",
        "1": "BakeMark",
        "2": "FILLING, LEMON DANISH",
        "3": "10.9 KG",
        "4": "20497"
    },
    {
        "0": "",
        "1": "BakeMark",
        "2": "FILLING, LEMON GEL",
        "3": "15 KG",
        "4": "20656"
    },
    {
        "0": "",
        "1": "BakeMark",
        "2": "FILLING, LEMON GEL",
        "3": "12 KG",
        "4": "20501"
    },
    {
        "0": "",
        "1": "BakeMark",
        "2": "FILLING, LEMON PIE NON-HYDRO",
        "3": "15 KG",
        "4": "21137"
    },
    {
        "0": "",
        "1": "BakeMark",
        "2": "FILLING, LEMON PIE",
        "3": "15 KG",
        "4": "20503"
    },
    {
        "0": "",
        "1": "BakeMark",
        "2": "FILLING, LEMON SUPREME",
        "3": "12 KG",
        "4": "20507"
    },
    {
        "0": "",
        "1": "BakeMark",
        "2": "FILLING, LEMON SUPREME",
        "3": "15 KG",
        "4": "20659"
    },
    {
        "0": "",
        "1": "BakeMark",
        "2": "FILLING, LEMON TASTEE",
        "3": "12 KG",
        "4": "21214"
    },
    {
        "0": "",
        "1": "Westco",
        "2": "FILLING, MANGO FILLING",
        "3": "40 LB",
        "4": "60284"
    },
    {
        "0": "",
        "1": "BakeMark",
        "2": "FILLING, MAPLE",
        "3": "12 KG",
        "4": "34052"
    },
    {
        "0": "",
        "1": "Henry & Henry",
        "2": "FILLING, MAPLE PECAN FILLIN'BAKE",
        "3": "42 LB",
        "4": "86007"
    },
    {
        "0": "",
        "1": "Brill",
        "2": "FILLING, NANA CREME",
        "3": "20 LB",
        "4": "89058"
    },
    {
        "0": "",
        "1": "Westco",
        "2": "FILLING, NW MARION BLACKBERRY",
        "3": "38 LB",
        "4": "60240"
    },
    {
        "0": "",
        "1": "BakeMark",
        "2": "FILLING, PASTRY CREAM",
        "3": "12 KG",
        "4": "21226"
    },
    {
        "0": "",
        "1": "BakeMark",
        "2": "FILLING, PASTRY CREAM",
        "3": "7 KG",
        "4": "21223"
    },
    {
        "0": "",
        "1": "Westco",
        "2": "FILLING, PINA (PINEAPPLE)",
        "3": "38 LB",
        "4": "60280"
    },
    {
        "0": "",
        "1": "Henry & Henry",
        "2": "FILLING, POPPY BUTTER",
        "3": "22 LB",
        "4": "19132"
    },
    {
        "0": "",
        "1": "Caravan",
        "2": "POPPY BUTTER",
        "3": "50",
        "4": "88013"
    },
    {
        "0": "",
        "1": "Caravan",
        "2": "POPPY BUTTER",
        "3": "22",
        "4": "88014"
    },
    {
        "0": "",
        "1": "Henry & Henry",
        "2": "FILLING, PRUNE BUTTER",
        "3": "42 LB",
        "4": "18391"
    },
    {
        "0": "",
        "1": "Caravan",
        "2": "PRUNE LEKVAR",
        "3": "50",
        "4": "88011"
    },
    {
        "0": "",
        "1": "Caravan",
        "2": "PRUNE LEKVAR",
        "3": "20",
        "4": "88012"
    },
    {
        "0": "",
        "1": "BakeMark",
        "2": "FILLING, RAISIN",
        "3": "12 KG",
        "4": "20525"
    },
    {
        "0": "",
        "1": "BakeMark",
        "2": "FILLING, RAISIN PIE",
        "3": "12 KG",
        "4": "20674"
    },
    {
        "0": "",
        "1": "BakeMark",
        "2": "FILLING, RASPBERRY",
        "3": "7 KG",
        "4": "21265"
    },
    {
        "0": "",
        "1": "BakeMark",
        "2": "FILLING, RASPBERRY",
        "3": "12 KG",
        "4": "21271"
    },
    {
        "0": "",
        "1": "BakeMark",
        "2": "FILLING, RASPBERRY CHEF",
        "3": "12 KG",
        "4": "21250"
    },
    {
        "0": "",
        "1": "BakeMark",
        "2": "FILLING, RASPBERRY DANISH",
        "3": "10.9 KG",
        "4": "20527"
    },
    {
        "0": "",
        "1": "BakeMark",
        "2": "FILLING, RASPBERRY DELITE",
        "3": "15 KG",
        "4": "20680"
    },
    {
        "0": "",
        "1": "BakeMark",
        "2": "FILLING, RASPBERRY DELITE",
        "3": "12 KG",
        "4": "20684"
    },
    {
        "0": "",
        "1": "BakeMark",
        "2": "FILLING, RASPBERRY PASTRY",
        "3": "13.6 KG",
        "4": "20530"
    },
    {
        "0": "",
        "1": "BakeMark",
        "2": "FILLING, RASPBERRY TRES",
        "3": "8 KG",
        "4": "21119"
    },
    {
        "0": "",
        "1": "BakeMark",
        "2": "FILLING, RED RASP DONUT",
        "3": "12 KG",
        "4": "20350"
    },
    {
        "0": "",
        "1": "BakeMark",
        "2": "FILLING, RITZ MINCEMEAT",
        "3": "12 KG",
        "4": "20516"
    },
    {
        "0": "",
        "1": "BakeMark",
        "2": "FILLING, RITZ MINCEMEAT",
        "3": "15 KG",
        "4": "20665"
    },
    {
        "0": "",
        "1": "Henry & Henry",
        "2": "FILLING, SNOW PUFF (COCONUT)",
        "3": "40 LB",
        "4": "55017"
    },
    {
        "0": "",
        "1": "Henry & Henry",
        "2": "FILLING, SPUN GOLD LEMON",
        "3": "38 LB",
        "4": "16996"
    },
    {
        "0": "",
        "1": "BakeMark",
        "2": "FILLING, STRAWB/RHUBARB",
        "3": "12 KG",
        "4": "21109"
    },
    {
        "0": "",
        "1": "BakeMark",
        "2": "FILLING, STRAWBERRY",
        "3": "12 KG",
        "4": "21283"
    },
    {
        "0": "",
        "1": "BakeMark",
        "2": "FILLING, STRAWBERRY",
        "3": "7 KG",
        "4": "21292"
    },
    {
        "0": "",
        "1": "BakeMark",
        "2": "FILLING, STRAWBERRY CHEF",
        "3": "12 KG",
        "4": "21289"
    },
    {
        "0": "",
        "1": "BakeMark",
        "2": "FILLING, STRAWBERRY DONUT",
        "3": "12 KG",
        "4": "20690"
    },
    {
        "0": "",
        "1": "BakeMark",
        "2": "FILLING, STRAWBERRY PASTRY",
        "3": "15 KG",
        "4": "20692"
    },
    {
        "0": "",
        "1": "Henry & Henry",
        "2": "FILLING, STRAWBERY REDIPAK",
        "3": "12 / 2 LB",
        "4": "4152"
    },
    {
        "0": "",
        "1": "BakeMark",
        "2": "FILLING, STRAWBERRY TOPPER",
        "3": "12 KG",
        "4": "22808"
    },
    {
        "0": "",
        "1": "BakeMark",
        "2": "FILLING, STRAWBERRY/RHUBARB",
        "3": "12 KG",
        "4": "20540"
    },
    {
        "0": "",
        "1": "Henry & Henry",
        "2": "FILLING, TROPICAL LIME",
        "3": "20 LB",
        "4": "27566"
    },
    {
        "0": "",
        "1": "BakeMark",
        "2": "FILLING, TRIPLEBERRY TRES",
        "3": "12 KG",
        "4": "21113"
    },
    {
        "0": "",
        "1": "BakeMark",
        "2": "FILLING, VENETIAN CREME",
        "3": "12 KG",
        "4": "20695"
    },
    {
        "0": "",
        "1": "Westco",
        "2": "FILLING, WILD MAINE BLUEBERRY",
        "3": "38 KG",
        "4": "60242"
    },
    {
        "0": "",
        "1": "Caravan",
        "2": "POPPY BUTTER",
        "3": "50 LB",
        "4": "88013"
    },
    {
        "0": "",
        "1": "Caravan",
        "2": "POPPY BUTTER",
        "3": "22 LB",
        "4": "88014"
    },
    {
        "0": "",
        "1": "Caravan",
        "2": "PRUNE LEKVAR",
        "3": "50 LB",
        "4": "88011"
    },
    {
        "0": "",
        "1": "Caravan",
        "2": "PRUNE LEKVAR",
        "3": "20 LB",
        "4": "88012"
    },
    {
        "0": "",
        "1": "Caravan",
        "2": "PUF-N-PIE CREME FILLING",
        "3": "40 LB",
        "4": "88062"
    },
    {
        "0": "Jam",
        "1": "BakeMark",
        "2": "JAM, APPLE/RASPBERRY",
        "3": "14 KG",
        "4": "20947"
    },
    {
        "0": "",
        "1": "BakeMark",
        "2": "JAM, APPLE/STRAW OVEN",
        "3": "14 KG",
        "4": "20002"
    },
    {
        "0": "",
        "1": "Henry & Henry",
        "2": "JAM, RASPBERRY EUROPEAN",
        "3": "20 LB",
        "4": "60440"
    },
    {
        "0": "",
        "1": "BakeMark",
        "2": "JAM, RASPBERRY JAM WITH PECTIN",
        "3": "13.6 KG",
        "4": "21278"
    },
    {
        "0": "Spread",
        "1": "BakeMark",
        "2": "SPREAD, APPLE/STRAWBERRY",
        "3": "12 KG",
        "4": "20005"
    },
    {
        "0": "",
        "1": "BakeMark",
        "2": "SPREAD, APPLE/RASP",
        "3": "14 KG",
        "4": "19996"
    },
    {
        "0": "",
        "1": "BakeMark",
        "2": "SPREAD, RASP JELLY",
        "3": "15 KG",
        "4": "20677"
    }
]