[
    {
        "0": "Command Reference",
        "1": "Description"
    },
    {
        "0": "zlogin(1)",
        "1": "Log in to a non-global zone"
    },
    {
        "0": "zoneadm(1M)",
        "1": "Administers zones on a system"
    },
    {
        "0": "zonecfg(1M)",
        "1": "Used to set up a zone configuration"
    },
    {
        "0": "getzoneid(3C)",
        "1": "Used to map between zone ID and name"
    },
    {
        "0": "brands(5)",
        "1": "Provides description of branded zones facility"
    },
    {
        "0": "lx(5)",
        "1": "Provides description of Linux branded zones"
    },
    {
        "0": "zones(5)",
        "1": "Provides description of zones facility"
    },
    {
        "0": "lx_systrace(7D)",
        "1": "DTrace Linux system call tracing provider"
    },
    {
        "0": "zcons(7D)",
        "1": "Zone console device driver"
    }
]