[
    {
        "0": "#",
        "1": "Name",
        "2": "Age",
        "3": "Club",
        "4": "LMSC",
        "5": "Time"
    },
    {
        "0": "1",
        "1": "Keri L Hehn",
        "2": "31",
        "3": "SCAQ",
        "4": "Southern Pacific",
        "5": "1:09.49"
    },
    {
        "0": "2",
        "1": "Hannah Caldas",
        "2": "34",
        "3": "ARIZ",
        "4": "Arizona",
        "5": "1:16.35"
    },
    {
        "0": "3",
        "1": "Danielle R Chance",
        "2": "31",
        "3": "BLU",
        "4": "Florida",
        "5": "1:20.21"
    },
    {
        "0": "4",
        "1": "Jennifer M Carlson",
        "2": "33",
        "3": "RMST",
        "4": "Potomac Valley",
        "5": "1:21.58"
    },
    {
        "0": "5",
        "1": "Kendra E Wilson",
        "2": "31",
        "3": "SMS",
        "4": "Southern",
        "5": "1:22.30"
    },
    {
        "0": "6",
        "1": "Esther Martinez Borobio",
        "2": "30",
        "3": "NEM",
        "4": "New England",
        "5": "1:23.93"
    },
    {
        "0": "7",
        "1": "Jennifer M Faith",
        "2": "31",
        "3": "OREG",
        "4": "Oregon",
        "5": "1:24.42"
    },
    {
        "0": "8",
        "1": "Emily Finanger",
        "2": "33",
        "3": "SDSM",
        "4": "San Diego - Imperial",
        "5": "1:25.15"
    },
    {
        "0": "9",
        "1": "Laura L Lastfogel",
        "2": "30",
        "3": "SFTL",
        "4": "Florida Gold Coast",
        "5": "1:25.41"
    },
    {
        "0": "10",
        "1": "Molly E Connolly",
        "2": "30",
        "3": "NEBR",
        "4": "Nebraska",
        "5": "1:25.75"
    }
]