[
    {
        "0": "Effective edge (mm)",
        "1": "1055",
        "2": "1085",
        "3": "1115",
        "4": "1155"
    },
    {
        "0": "Contact lenght (mm)",
        "1": "950",
        "2": "975",
        "3": "1005",
        "4": "1025"
    },
    {
        "0": "Nose width (mm)",
        "1": "276",
        "2": "276",
        "3": "279",
        "4": "283"
    },
    {
        "0": "Waist width (mm)",
        "1": "236",
        "2": "236",
        "3": "239",
        "4": "241"
    },
    {
        "0": "Tail width (mm)",
        "1": "276",
        "2": "276",
        "3": "279",
        "4": "283"
    },
    {
        "0": "Rider weight (Kg)",
        "1": "35 - 55",
        "2": "40 - 60",
        "3": "45 - 65",
        "4": "50 - 70"
    },
    {
        "0": "Recom stance",
        "1": "505 (19.9)",
        "2": "520 (20.49)",
        "3": "530 (20.88)",
        "4": "540 (21.28)"
    },
    {
        "0": "Side cut radius (m)",
        "1": "7",
        "2": "7",
        "3": "7.4",
        "4": "7.6"
    },
    {
        "0": "Delta",
        "1": "105",
        "2": "110",
        "3": "110",
        "4": "130"
    },
    {
        "0": "Set back",
        "1": "10",
        "2": "10",
        "3": "10",
        "4": "10"
    },
    {
        "0": "Rider weight (lbs)",
        "1": "77. - 121.",
        "2": "88. - 132.",
        "3": "99. - 143.",
        "4": "110. - 154."
    },
    {
        "0": "Nose length (mm)",
        "1": "230",
        "2": "235",
        "3": "240",
        "4": "250"
    },
    {
        "0": "Tail length (mm)",
        "1": "220",
        "2": "225",
        "3": "230",
        "4": "240"
    },
    {
        "0": "Shape",
        "1": "140 / SL-BS-140A",
        "2": "144 / SL-BS-144E",
        "3": "148 / SL-BS-148D",
        "4": "152 / SL-BS-152F"
    },
    {
        "0": "Maxi stance",
        "1": "561 (22.1)",
        "2": "576 (22.7)",
        "3": "586 (23.1)",
        "4": "596 (23.5)"
    },
    {
        "0": "Recom Bind Size",
        "1": "S/M",
        "2": "S/M",
        "3": "S/M",
        "4": "S/M"
    },
    {
        "0": "Recom Boot Size",
        "1": "235 / 255",
        "2": "235 / 265",
        "3": "235 / 265",
        "4": "245 / 275"
    }
]