[
    {
        "0": "Package",
        "1": "Score",
        "2": "File",
        "3": "Translator",
        "4": "Team"
    },
    {
        "0": "synaptic",
        "1": "0% (0t;0f;720u)",
        "2": "po/de_DE.po",
        "3": "",
        "4": "de_DE at li dot org"
    },
    {
        "0": "powertop",
        "1": "68% (116t;19f;34u)",
        "2": "po/de_DE.po",
        "3": "Ettore Atalan",
        "4": ""
    },
    {
        "0": "grantlee",
        "1": "16% (1t;0f;5u)",
        "2": "examples/contacts/themes/gettext/dopey/de_DE/LC_MESSAGES/dopey.po",
        "3": "Stephen Kelly",
        "4": "kde-i18n-doc at kde dot org"
    },
    {
        "0": "scilab",
        "1": "0% (0t;0f;7u)",
        "2": "modules/integer/locales/de_DE.po",
        "3": "Scilab.team",
        "4": "de at li dot org"
    },
    {
        "0": "scilab",
        "1": "84% (11t;0f;2u)",
        "2": "modules/localization/locales/de_DE.po",
        "3": "Dennis Baudys",
        "4": "de at li dot org"
    },
    {
        "0": "scilab",
        "1": "83% (15t;0f;3u)",
        "2": "modules/history_browser/locales/de_DE.po",
        "3": "Petersen",
        "4": "de at li dot org"
    },
    {
        "0": "scilab",
        "1": "85% (63t;0f;11u)",
        "2": "modules/umfpack/locales/de_DE.po",
        "3": "Keruskerfuerst",
        "4": "de at li dot org"
    },
    {
        "0": "scilab",
        "1": "4% (3t;0f;62u)",
        "2": "modules/arnoldi/locales/de_DE.po",
        "3": "Petersen",
        "4": "de at li dot org"
    },
    {
        "0": "scilab",
        "1": "94% (63t;0f;4u)",
        "2": "modules/compatibility_functions/locales/de_DE.po",
        "3": "Scilab.team",
        "4": "de at li dot org"
    },
    {
        "0": "scilab",
        "1": "13% (34t;0f;221u)",
        "2": "modules/console/locales/de_DE.po",
        "3": "Petersen",
        "4": "de at li dot org"
    },
    {
        "0": "scilab",
        "1": "60% (3t;0f;2u)",
        "2": "modules/parallel/locales/de_DE.po",
        "3": "cmdrhenner",
        "4": "de at li dot org"
    },
    {
        "0": "scilab",
        "1": "68% (187t;0f;87u)",
        "2": "modules/cacsd/locales/de_DE.po",
        "3": "Scilab.team",
        "4": "de at li dot org"
    },
    {
        "0": "scilab",
        "1": "62% (48t;0f;29u)",
        "2": "modules/helptools/locales/de_DE.po",
        "3": "Scilab.team",
        "4": "de at li dot org"
    },
    {
        "0": "scilab",
        "1": "79% (49t;0f;13u)",
        "2": "modules/functions/locales/de_DE.po",
        "3": "Dennis Baudys",
        "4": "de at li dot org"
    },
    {
        "0": "scilab",
        "1": "74% (102t;0f;35u)",
        "2": "modules/fileio/locales/de_DE.po",
        "3": "Dennis Baudys",
        "4": "de at li dot org"
    },
    {
        "0": "scilab",
        "1": "63% (24t;0f;14u)",
        "2": "modules/io/locales/de_DE.po",
        "3": "mrx5682",
        "4": "de at li dot org"
    },
    {
        "0": "scilab",
        "1": "67% (27t;0f;13u)",
        "2": "modules/history_manager/locales/de_DE.po",
        "3": "Jens Maucher",
        "4": "de at li dot org"
    },
    {
        "0": "scilab",
        "1": "21% (6t;0f;22u)",
        "2": "modules/graphic_export/locales/de_DE.po",
        "3": "Keruskerfuerst",
        "4": "de at li dot org"
    },
    {
        "0": "scilab",
        "1": "14% (10t;0f;59u)",
        "2": "modules/overloading/locales/de_DE.po",
        "3": "Scilab.team",
        "4": "de at li dot org"
    },
    {
        "0": "scilab",
        "1": "75% (103t;0f;33u)",
        "2": "modules/dynamic_link/locales/de_DE.po",
        "3": "Petersen",
        "4": "de at li dot org"
    },
    {
        "0": "scilab",
        "1": "33% (1t;0f;2u)",
        "2": "modules/graphic_objects/locales/de_DE.po",
        "3": "Dennis Baudys",
        "4": "de at li dot org"
    },
    {
        "0": "scilab",
        "1": "3% (7t;0f;202u)",
        "2": "modules/hdf5/locales/de_DE.po",
        "3": "Dennis Baudys",
        "4": "de at li dot org"
    },
    {
        "0": "scilab",
        "1": "39% (204t;0f;311u)",
        "2": "modules/graphics/locales/de_DE.po",
        "3": "Petersen",
        "4": "de at li dot org"
    },
    {
        "0": "scilab",
        "1": "47% (73t;0f;81u)",
        "2": "modules/elementary_functions/locales/de_DE.po",
        "3": "Scilab.team",
        "4": "de at li dot org"
    },
    {
        "0": "scilab",
        "1": "73% (14t;0f;5u)",
        "2": "modules/types/locales/de_DE.po",
        "3": "Petersen",
        "4": "de at li dot org"
    },
    {
        "0": "scilab",
        "1": "2% (6t;0f;238u)",
        "2": "modules/scicos/locales/de_DE.po",
        "3": "Keruskerfuerst",
        "4": "de at li dot org"
    },
    {
        "0": "scilab",
        "1": "40% (2t;0f;3u)",
        "2": "modules/renderer/locales/de_DE.po",
        "3": "Petersen",
        "4": "de at li dot org"
    },
    {
        "0": "scilab",
        "1": "98% (55t;0f;1u)",
        "2": "modules/tclsci/locales/de_DE.po",
        "3": "Daniel Winzen",
        "4": "de at li dot org"
    },
    {
        "0": "scilab",
        "1": "24% (14t;0f;43u)",
        "2": "modules/development_tools/locales/de_DE.po",
        "3": "Daniel Dietrich",
        "4": "de at li dot org"
    },
    {
        "0": "scilab",
        "1": "0% (2t;0f;246u)",
        "2": "modules/scicos_blocks/locales/de_DE.po",
        "3": "peter",
        "4": "de at li dot org"
    },
    {
        "0": "scilab",
        "1": "33% (120t;0f;235u)",
        "2": "modules/optimization/locales/de_DE.po",
        "3": "Scilab.team",
        "4": "de at li dot org"
    },
    {
        "0": "scilab",
        "1": "87% (7t;0f;1u)",
        "2": "modules/action_binding/locales/de_DE.po",
        "3": "Jost Lemke",
        "4": "de at li dot org"
    },
    {
        "0": "scilab",
        "1": "68% (62t;0f;29u)",
        "2": "modules/sparse/locales/de_DE.po",
        "3": "Daniel Dietrich",
        "4": "de at li dot org"
    },
    {
        "0": "scilab",
        "1": "14% (1t;0f;6u)",
        "2": "modules/boolean/locales/de_DE.po",
        "3": "Petersen",
        "4": "de at li dot org"
    },
    {
        "0": "scilab",
        "1": "93% (60t;0f;4u)",
        "2": "modules/time/locales/de_DE.po",
        "3": "Petersen",
        "4": "de at li dot org"
    },
    {
        "0": "scilab",
        "1": "91% (22t;0f;2u)",
        "2": "modules/windows_tools/locales/de_DE.po",
        "3": "Niko K",
        "4": "de at li dot org"
    },
    {
        "0": "scilab",
        "1": "67% (89t;0f;43u)",
        "2": "modules/statistics/locales/de_DE.po",
        "3": "Niko K",
        "4": "de at li dot org"
    },
    {
        "0": "scilab",
        "1": "85% (6t;0f;1u)",
        "2": "modules/simulated_annealing/locales/de_DE.po",
        "3": "cmdrhenner",
        "4": "de at li dot org"
    },
    {
        "0": "scilab",
        "1": "50% (22t;0f;22u)",
        "2": "modules/linear_algebra/locales/de_DE.po",
        "3": "Dennis Baudys",
        "4": "de at li dot org"
    },
    {
        "0": "scilab",
        "1": "77% (225t;0f;66u)",
        "2": "modules/core/locales/de_DE.po",
        "3": "Scilab.team",
        "4": "de at li dot org"
    },
    {
        "0": "scilab",
        "1": "45% (9t;0f;11u)",
        "2": "modules/data_structures/locales/de_DE.po",
        "3": "Keruskerfuerst",
        "4": "de at li dot org"
    },
    {
        "0": "scilab",
        "1": "98% (209t;0f;4u)",
        "2": "modules/m2sci/locales/de_DE.po",
        "3": "Petersen",
        "4": "de at li dot org"
    },
    {
        "0": "scilab",
        "1": "90% (10t;0f;1u)",
        "2": "modules/completion/locales/de_DE.po",
        "3": "Benedict Etzel",
        "4": "de at li dot org"
    },
    {
        "0": "scilab",
        "1": "54% (20t;0f;17u)",
        "2": "modules/parameters/locales/de_DE.po",
        "3": "Dennis Baudys",
        "4": "de at li dot org"
    },
    {
        "0": "scilab",
        "1": "58% (49t;0f;35u)",
        "2": "modules/spreadsheet/locales/de_DE.po",
        "3": "mrx5682",
        "4": "de at li dot org"
    },
    {
        "0": "scilab",
        "1": "62% (249t;0f;152u)",
        "2": "modules/xcos/locales/de_DE.po",
        "3": "Petersen",
        "4": "de at li dot org"
    },
    {
        "0": "scilab",
        "1": "80% (70t;0f;17u)",
        "2": "modules/string/locales/de_DE.po",
        "3": "Dennis Baudys",
        "4": "de at li dot org"
    },
    {
        "0": "scilab",
        "1": "95% (359t;0f;16u)",
        "2": "modules/output_stream/locales/de_DE.po",
        "3": "Petersen",
        "4": "de at li dot org"
    },
    {
        "0": "scilab",
        "1": "76% (16t;0f;5u)",
        "2": "modules/polynomials/locales/de_DE.po",
        "3": "Niko K",
        "4": "de at li dot org"
    },
    {
        "0": "scilab",
        "1": "88% (15t;0f;2u)",
        "2": "modules/special_functions/locales/de_DE.po",
        "3": "Scilab.team",
        "4": "de at li dot org"
    },
    {
        "0": "scilab",
        "1": "31% (25t;0f;54u)",
        "2": "modules/api_scilab/locales/de_DE.po",
        "3": "Dennis Baudys",
        "4": "de at li dot org"
    },
    {
        "0": "scilab",
        "1": "70% (40t;0f;17u)",
        "2": "modules/sound/locales/de_DE.po",
        "3": "Dennis Baudys",
        "4": "de at li dot org"
    },
    {
        "0": "scilab",
        "1": "65% (155t;0f;82u)",
        "2": "modules/atoms/locales/de_DE.po",
        "3": "Niko K",
        "4": "de at li dot org"
    },
    {
        "0": "scilab",
        "1": "67% (76t;0f;37u)",
        "2": "modules/randlib/locales/de_DE.po",
        "3": "Jens Maucher",
        "4": "de at li dot org"
    },
    {
        "0": "scilab",
        "1": "25% (38t;0f;113u)",
        "2": "modules/signal_processing/locales/de_DE.po",
        "3": "Petersen",
        "4": "de at li dot org"
    },
    {
        "0": "scilab",
        "1": "30% (110t;0f;248u)",
        "2": "modules/scinotes/locales/de_DE.po",
        "3": "Petersen",
        "4": "de at li dot org"
    },
    {
        "0": "scilab",
        "1": "83% (41t;0f;8u)",
        "2": "modules/jvm/locales/de_DE.po",
        "3": "cmdrhenner",
        "4": "de at li dot org"
    },
    {
        "0": "scilab",
        "1": "60% (9t;0f;6u)",
        "2": "modules/genetic_algorithms/locales/de_DE.po",
        "3": "Daniel Dietrich",
        "4": "de at li dot org"
    },
    {
        "0": "scilab",
        "1": "2% (1t;0f;49u)",
        "2": "modules/external_objects/locales/de_DE.po",
        "3": "Scott",
        "4": "de at li dot org"
    },
    {
        "0": "scilab",
        "1": "81% (59t;0f;13u)",
        "2": "modules/differential_equations/locales/de_DE.po",
        "3": "Petersen",
        "4": "de at li dot org"
    },
    {
        "0": "scilab",
        "1": "22% (8t;0f;28u)",
        "2": "modules/fftw/locales/de_DE.po",
        "3": "Keruskerfuerst",
        "4": "de at li dot org"
    },
    {
        "0": "scilab",
        "1": "38% (291t;0f;473u)",
        "2": "modules/gui/locales/de_DE.po",
        "3": "Petersen",
        "4": "de at li dot org"
    },
    {
        "0": "scilab",
        "1": "80% (4t;0f;1u)",
        "2": "modules/demo_tools/locales/de_DE.po",
        "3": "Niko K",
        "4": "de at li dot org"
    },
    {
        "0": "winff",
        "1": "0% (0t;0f;212u)",
        "2": "languages/winff.de_DE.po",
        "3": "",
        "4": "de_DE at li dot org"
    },
    {
        "0": "libmp3splt",
        "1": "97% (132t;2f;1u)",
        "2": "po/de_DE.po",
        "3": "Mario Blattermann",
        "4": "gnome-de at gnome dot org"
    },
    {
        "0": "lives",
        "1": "6% (131t;4f;1863u)",
        "2": "po/de_DE.po",
        "3": "Michael Kohl",
        "4": "herbert dot u dot huebner at friendglow dot net"
    },
    {
        "0": "encfs",
        "1": "86% (118t;2f;16u)",
        "2": "po/de_DE.po",
        "3": "Moritz Baumann",
        "4": "de_DE at li dot org"
    },
    {
        "0": "squirrelmail-locales",
        "1": "38% (69t;4f;108u)",
        "2": "locale/de_DE/LC_MESSAGES/ldapquery.po",
        "3": "Ralf Hildebrandt",
        "4": "squirrelmail-i18n at lists dot sourceforge dot net"
    },
    {
        "0": "squirrelmail-locales",
        "1": "96% (1353t;0f;49u)",
        "2": "locale/de_DE/LC_MESSAGES/squirrelmail.po",
        "3": "Ralf Hildebrandt",
        "4": "squirrelmail-i18n at lists dot sourceforge dot net"
    },
    {
        "0": "devede",
        "1": "93% (258t;6f;11u)",
        "2": "po/de_DE.po",
        "3": "Holger Wansing",
        "4": "debian-l10n-german at lists dot debian dot org"
    },
    {
        "0": "grsync",
        "1": "98% (159t;1f;1u)",
        "2": "po/de_DE.po",
        "3": "",
        "4": "Ubuntu German Translators"
    },
    {
        "0": "josm",
        "1": "1% (130t;0f;8769u)",
        "2": "i18n/po/de_DE.po",
        "3": "ralekuja",
        "4": "de_DE at li dot org"
    },
    {
        "0": "mp3splt",
        "1": "96% (91t;3f;0u)",
        "2": "po/de_DE.po",
        "3": "Mario Blattermann",
        "4": "gnome-de at gnome dot org"
    },
    {
        "0": "xmoto",
        "1": "98% (813t;0f;9u)",
        "2": "po/de_DE.po",
        "3": "Jens Erler",
        "4": "German"
    },
    {
        "0": "vdr-plugin-xineliboutput",
        "1": "60% (142t;0f;94u)",
        "2": "po/de_DE.po",
        "3": "Udo Richter",
        "4": "vdr at linuxtv dot org"
    },
    {
        "0": "childsplay",
        "1": "35% (75t;18f;117u)",
        "2": "po/childsplay_de_DE.po",
        "3": "Stas Zytkiewicz",
        "4": "en at li dot org"
    },
    {
        "0": "vidalia",
        "1": "0% (0t;0f;46u)",
        "2": "pkg/win32/po/de_DE/vidalia_de_DE.po",
        "3": "",
        "4": ""
    },
    {
        "0": "vidalia",
        "1": "0% (0t;0f;81u)",
        "2": "src/vidalia/i18n/po/de_DE/qt_de_DE.po",
        "3": "Automatically generated",
        "4": "none"
    },
    {
        "0": "vidalia",
        "1": "0% (0t;0f;905u)",
        "2": "src/vidalia/i18n/po/de_DE/vidalia_de_DE.po",
        "3": "",
        "4": "translations at vidalia-project dot net"
    },
    {
        "0": "cryptkeeper",
        "1": "73% (39t;4f;10u)",
        "2": "po/de_DE.po",
        "3": "Christoph Langner",
        "4": "English"
    },
    {
        "0": "hotot",
        "1": "70% (26t;11f;0u)",
        "2": "po/de_DE.po",
        "3": "",
        "4": "Deutsch/Deutschland"
    },
    {
        "0": "mp3splt-gtk",
        "1": "83% (189t;0f;38u)",
        "2": "po/de_DE.po",
        "3": "Peter Pall",
        "4": ""
    },
    {
        "0": "manaplus",
        "1": "0% (0t;0f;1618u)",
        "2": "po/de_DE.po",
        "3": "Andrei Karas",
        "4": "German (Germany) (http://www dot transifex dot com/projects/p/manaplus/language/de_DE/)"
    },
    {
        "0": "keepnote",
        "1": "81% (310t;0f;71u)",
        "2": "gettext/de_DE.UTF8.po",
        "3": "Jan Rimmek",
        "4": "GERMAN"
    },
    {
        "0": "glpi",
        "1": "97% (2460t;0f;66u)",
        "2": "locales/de_DE.po",
        "3": "Ulf Klose",
        "4": "German (Germany) (http://www dot transifex dot com/projects/p/GLPI/language/de_DE/)"
    },
    {
        "0": "3depict",
        "1": "50% (612t;0f;589u)",
        "2": "translations/3Depict_de_DE.po",
        "3": "epix1234",
        "4": ""
    },
    {
        "0": "editra",
        "1": "87% (645t;14f;78u)",
        "2": "scripts/i18n/Editra_de_DE.po",
        "3": "Dennis Baudys",
        "4": "de at li dot org"
    },
    {
        "0": "txt2regex",
        "1": "93% (59t;1f;3u)",
        "2": "po/de_DE.po",
        "3": "Jan Parthey",
        "4": "parthey at web dot de"
    },
    {
        "0": "nagvis",
        "1": "90% (489t;0f;51u)",
        "2": "share/frontend/nagvis-js/locale/de_DE/LC_MESSAGES/nagvis.po",
        "3": "Lars Michelsen",
        "4": "info at nagvis dot org"
    },
    {
        "0": "vdr-plugin-epgsearch",
        "1": "97% (382t;0f;9u)",
        "2": "po/de_DE.po",
        "3": "Klaus Schmidinger",
        "4": "vdr at linuxtv dot org"
    },
    {
        "0": "rgbpaint",
        "1": "87% (34t;0f;5u)",
        "2": "po/de_DE.po",
        "3": "Oliver Frommel",
        "4": "de_DE at li dot org"
    },
    {
        "0": "vdr-plugin-femon",
        "1": "69% (86t;0f;38u)",
        "2": "po/de_DE.po",
        "3": "Christian Wieninger",
        "4": "vdr at linuxtv dot org"
    },
    {
        "0": "pennmush",
        "1": "45% (726t;567f;310u)",
        "2": "po/de_DE.po",
        "3": "",
        "4": ""
    },
    {
        "0": "tryton-server",
        "1": "99% (1008t;0f;2u)",
        "2": "trytond/ir/locale/de_DE.po",
        "3": "",
        "4": ""
    },
    {
        "0": "colorhug-client",
        "1": "79% (178t;0f;47u)",
        "2": "po/de_DE.po",
        "3": "Richard Hughes",
        "4": "German (Germany) (http://www dot transifex dot com/projects/p/colorhug-client/language/de_DE/)"
    },
    {
        "0": "kanyremote",
        "1": "97% (140t;0f;4u)",
        "2": "po/de_DE.po",
        "3": "Johann Bauer",
        "4": "German"
    },
    {
        "0": "avelsieve",
        "1": "48% (208t;87f;138u)",
        "2": "locale/de_DE/LC_MESSAGES/avelsieve.po",
        "3": "Karsten Behrens",
        "4": "de at li dot org"
    },
    {
        "0": "cpm",
        "1": "99% (226t;0f;2u)",
        "2": "po/de_DE.po",
        "3": "Harry Brueckner",
        "4": "harry_b at mm dot st"
    },
    {
        "0": "granule",
        "1": "58% (51t;4f;32u)",
        "2": "po/de_DE.po",
        "3": "arzed",
        "4": "German"
    },
    {
        "0": "gjots2",
        "1": "97% (248t;4f;3u)",
        "2": "po/de_DE.po",
        "3": "",
        "4": ""
    },
    {
        "0": "tryton-modules-account",
        "1": "99% (1179t;0f;1u)",
        "2": "locale/de_DE.po",
        "3": "",
        "4": ""
    },
    {
        "0": "tryton-modules-account-invoice",
        "1": "99% (420t;0f;3u)",
        "2": "locale/de_DE.po",
        "3": "",
        "4": ""
    },
    {
        "0": "repsnapper",
        "1": "86% (411t;0f;64u)",
        "2": "po/de_DE.po",
        "3": "",
        "4": "gb at li dot org"
    },
    {
        "0": "tryton-modules-sale",
        "1": "99% (266t;0f;2u)",
        "2": "locale/de_DE.po",
        "3": "",
        "4": ""
    },
    {
        "0": "phamm",
        "1": "97% (97t;0f;2u)",
        "2": "po/de_DE.po",
        "3": "Jan Dankert",
        "4": ""
    },
    {
        "0": "tryton-modules-calendar",
        "1": "98% (283t;0f;4u)",
        "2": "locale/de_DE.po",
        "3": "",
        "4": ""
    },
    {
        "0": "tryton-modules-purchase",
        "1": "99% (293t;0f;2u)",
        "2": "locale/de_DE.po",
        "3": "",
        "4": ""
    },
    {
        "0": "tryton-modules-calendar-scheduling",
        "1": "92% (50t;0f;4u)",
        "2": "locale/de_DE.po",
        "3": "",
        "4": ""
    },
    {
        "0": "tryton-modules-calendar-todo",
        "1": "98% (215t;0f;4u)",
        "2": "locale/de_DE.po",
        "3": "",
        "4": ""
    },
    {
        "0": "tryton-modules-production",
        "1": "98% (172t;0f;2u)",
        "2": "locale/de_DE.po",
        "3": "",
        "4": ""
    },
    {
        "0": "tryton-modules-sale-supply",
        "1": "87% (7t;0f;1u)",
        "2": "locale/de_DE.po",
        "3": "",
        "4": ""
    },
    {
        "0": "tryton-modules-account-payment",
        "1": "99% (110t;0f;1u)",
        "2": "locale/de_DE.po",
        "3": "",
        "4": ""
    },
    {
        "0": "vdr-plugin-fritzbox",
        "1": "96% (77t;0f;3u)",
        "2": "po/de_DE.po",
        "3": "Matthias Becker",
        "4": "vdr at linuxtv dot org"
    },
    {
        "0": "grantlee5",
        "1": "16% (1t;0f;5u)",
        "2": "examples/contacts/themes/gettext/dopey/de_DE/LC_MESSAGES/dopey.po",
        "3": "Stephen Kelly",
        "4": "kde-i18n-doc at kde dot org"
    },
    {
        "0": "python-colander",
        "1": "76% (23t;4f;3u)",
        "2": "colander/locale/de_DE/LC_MESSAGES/colander.po",
        "3": "Charlie Clark",
        "4": "repoze-dev at lists dot repoze dot org"
    },
    {
        "0": "frontaccounting",
        "1": "91% (101t;2f;7u)",
        "2": "install/lang/de_DE/LC_MESSAGES/de_DE.po",
        "3": "Translation Team",
        "4": ""
    },
    {
        "0": "tryton-modules-commission",
        "1": "99% (119t;0f;1u)",
        "2": "locale/de_DE.po",
        "3": "",
        "4": ""
    },
    {
        "0": "cmake-fedora",
        "1": "92% (59t;0f;5u)",
        "2": "test/data/po/de_DE.po",
        "3": "",
        "4": ""
    },
    {
        "0": "anope",
        "1": "42% (733t;698f;283u)",
        "2": "language/anope.de_DE.po",
        "3": "DukePyrolator",
        "4": "German"
    }
]