[
    {
        "0": "",
        "1": "Name",
        "2": "Artist",
        "3": "Time",
        "4": "Price",
        "5": ""
    },
    {
        "0": "1",
        "1": "Bad Indication",
        "2": "Off Broadway",
        "3": "3:41",
        "4": "$0.99",
        "5": "View In iTunes"
    },
    {
        "0": "2",
        "1": "Bully Bully",
        "2": "Off Broadway",
        "3": "4:11",
        "4": "$0.99",
        "5": "View In iTunes"
    },
    {
        "0": "3",
        "1": "Automatic",
        "2": "Off Broadway",
        "3": "4:49",
        "4": "$0.99",
        "5": "View In iTunes"
    },
    {
        "0": "4",
        "1": "Hang On for Love",
        "2": "Off Broadway",
        "3": "4:43",
        "4": "$0.99",
        "5": "View In iTunes"
    },
    {
        "0": "5",
        "1": "Stay In Time",
        "2": "Off Broadway",
        "3": "2:52",
        "4": "$0.99",
        "5": "View In iTunes"
    },
    {
        "0": "6",
        "1": "Full Moon Turn My Head Around",
        "2": "Off Broadway",
        "3": "6:59",
        "4": "$0.99",
        "5": "View In iTunes"
    },
    {
        "0": "7",
        "1": "Drop Me a Line",
        "2": "Off Broadway",
        "3": "3:30",
        "4": "$0.99",
        "5": "View In iTunes"
    },
    {
        "0": "8",
        "1": "I Belong to Me",
        "2": "Off Broadway",
        "3": "3:17",
        "4": "$0.99",
        "5": "View In iTunes"
    },
    {
        "0": "9",
        "1": "Showdown",
        "2": "Off Broadway",
        "3": "3:59",
        "4": "$0.99",
        "5": "View In iTunes"
    },
    {
        "0": "10",
        "1": "U.S. Girls",
        "2": "Off Broadway",
        "3": "4:30",
        "4": "$0.99",
        "5": "View In iTunes"
    },
    {
        "0": "11",
        "1": "She Said",
        "2": "Off Broadway",
        "3": "4:26",
        "4": "$0.99",
        "5": "View In iTunes"
    }
]