[
    {
        "0": "Business",
        "1": "Contact",
        "2": "Category"
    },
    {
        "0": "",
        "1": "",
        "2": ""
    },
    {
        "0": "1. Barclay Farmstead Museum",
        "1": "209 Barclay Ln. Cherry Hill, NJ 08034 856-795-6225",
        "2": "History Museums & Sites"
    },
    {
        "0": "2. Camden County & Cultural Heritage Commission",
        "1": "250 South Park Dr. Haddon Township, NJ 08108 856-227-7200 ext4063",
        "2": "Art Museums & Centers"
    },
    {
        "0": "3. Hadrosaurus Dinosaur Sculpture",
        "1": "2 Kings Court Haddonfield, NJ 08033 856-216-7253",
        "2": "History Museums & Sites"
    },
    {
        "0": "4. Historical Society of Haddonfield",
        "1": "343 Kings Hwy. E. Haddonfield, NJ 08033 856-429-7375",
        "2": "History Museums & Sites"
    },
    {
        "0": "5. Indian King Tavern Museum",
        "1": "223 Kings Hwy. East Haddonfield, NJ 08033 856-429-6792",
        "2": "History Museums & Sites"
    },
    {
        "0": "6. Museums on Us: Bank of America",
        "1": "PA",
        "2": "Art Museums & Centers, Children's Museums, History Museums & Sites, Science Museums, Specialty Museums"
    },
    {
        "0": "7. Rutgers-Camden Center for the Arts",
        "1": "3rd & Pearl Sts. Camden, NJ 08102 856-225-6306",
        "2": "Art Museums & Centers, Theaters"
    },
    {
        "0": "8. Walt Whitman Arts Center",
        "1": "101 Cooper St. Camden, NJ 08102 856-964-1534",
        "2": "Art Museums & Centers"
    }
]