[
    {
        "0": "#",
        "1": "Name",
        "2": "Age",
        "3": "Club",
        "4": "LMSC",
        "5": "Time"
    },
    {
        "0": "1",
        "1": "Helen Hummer",
        "2": "55",
        "3": "DCM",
        "4": "Potomac Valley",
        "5": "3:52.03"
    },
    {
        "0": "2",
        "1": "Zada Taft",
        "2": "55",
        "3": "SMMM",
        "4": "Pacific",
        "5": "3:53.53"
    },
    {
        "0": "3",
        "1": "Mims Jennings",
        "2": "55",
        "3": "SPRD",
        "4": "Florida",
        "5": "4:12.48"
    },
    {
        "0": "4",
        "1": "Margaret George",
        "2": "57",
        "3": "UNAT",
        "4": "Southern Pacific",
        "5": "4:15.20"
    },
    {
        "0": "5",
        "1": "Annetta Pfeiffer",
        "2": "56",
        "3": "RSC",
        "4": "Southern Pacific",
        "5": "4:16.10"
    },
    {
        "0": "6",
        "1": "Mildred Anderson",
        "2": "59",
        "3": "TGM",
        "4": "Gulf",
        "5": "4:35.60"
    },
    {
        "0": "7",
        "1": "Betty Nelson",
        "2": "55",
        "3": "RYAL",
        "4": "Illinois",
        "5": "4:38.37"
    },
    {
        "0": "8",
        "1": "Lorraine Peterson",
        "2": "56",
        "3": "UNAT",
        "4": "Southern Pacific",
        "5": "4:47.09"
    },
    {
        "0": "9",
        "1": "Dorothy Fraley",
        "2": "59",
        "3": "TGM",
        "4": "Gulf",
        "5": "5:45.20"
    }
]