[
    {
        "0": "Year",
        "1": "Game",
        "2": "Genre",
        "3": "Platform(s)",
        "4": "Developer(s)"
    },
    {
        "0": "2010",
        "1": "Red Dead Redemption",
        "2": "Open World: (Third-Person) Shooter",
        "3": "PlayStation 3, Xbox 360",
        "4": "Rockstar San Diego"
    },
    {
        "0": "2009",
        "1": "Uncharted 2: Among Thieves",
        "2": "Action-adventure, Third-person shooter",
        "3": "PlayStation 3",
        "4": "Naughty Dog"
    },
    {
        "0": "2008",
        "1": "Grand Theft Auto IV",
        "2": "Open World, Action",
        "3": "Windows, PlayStation 3, Xbox 360",
        "4": "Rockstar North"
    },
    {
        "0": "2007",
        "1": "BioShock",
        "2": "Shooter",
        "3": "Windows , Xbox 360, Mac OS X, PlayStation 3",
        "4": "2K Boston/2K Australia"
    },
    {
        "0": "2006",
        "1": "The Legend of Zelda: Twilight Princess",
        "2": "Action-adventure",
        "3": "Wii, Nintendo GameCube",
        "4": "Nintendo"
    },
    {
        "0": "2005",
        "1": "Resident Evil 4",
        "2": "Survival Horror: (Third-Person) Shooter",
        "3": "GameCube, PlayStation 2, Windows, Wii",
        "4": "Capcom"
    },
    {
        "0": "2004",
        "1": "Halo 2",
        "2": "Shooter",
        "3": "Xbox, Windows,",
        "4": "Bungie"
    },
    {
        "0": "2003",
        "1": "Prince of Persia: Sands of Time",
        "2": "Action-adventure",
        "3": "Xbox, GameCube, PlayStation 2, Windows",
        "4": "Ubisoft Montreal"
    },
    {
        "0": "2002",
        "1": "Metroid Prime",
        "2": "Action-adventure",
        "3": "Nintendo GameCube",
        "4": "Nintendo"
    },
    {
        "0": "2001",
        "1": "Halo Combat Evolved",
        "2": "Shooter",
        "3": "Xbox, Windows, Macintosh",
        "4": "Bungie"
    },
    {
        "0": "2000",
        "1": "Tony Hawk's Pro Skater 2",
        "2": "Sports",
        "3": "PC, Nintendo 64, PlayStation, Dreamcast",
        "4": "Activision"
    },
    {
        "0": "1999",
        "1": "Soul Calibur",
        "2": "Fighting",
        "3": "Sega Dreamcast",
        "4": "Namco"
    },
    {
        "0": "1998",
        "1": "The Legend of Zelda: Ocarina of Time",
        "2": "Action-adventure",
        "3": "Nintendo 64",
        "4": "Nintendo"
    },
    {
        "0": "1997",
        "1": "Goldeneye 007",
        "2": "Shooter",
        "3": "Nintendo 64",
        "4": "Rare"
    },
    {
        "0": "1996",
        "1": "Super Mario 64",
        "2": "Action-platformer",
        "3": "Nintendo 64",
        "4": "Nintendo"
    },
    {
        "0": "1995",
        "1": "Twisted Metal",
        "2": "Action-driving game",
        "3": "PlayStation",
        "4": "SingleTrac"
    },
    {
        "0": "1994",
        "1": "Donkey Kong Country",
        "2": "Action-platformer",
        "3": "Super Nintendo",
        "4": "Rare"
    },
    {
        "0": "1993",
        "1": "Samurai Shodown",
        "2": "Fighting",
        "3": "Neo-Geo MVS",
        "4": "SNK"
    },
    {
        "0": "1992",
        "1": "Street Fighter II",
        "2": "Fighting",
        "3": "Super Nintendo",
        "4": "Capcom"
    },
    {
        "0": "1991",
        "1": "Sonic the Hedgehog",
        "2": "Action-platformer",
        "3": "Sega Genesis",
        "4": "Sega"
    },
    {
        "0": "1990",
        "1": "Strider",
        "2": "Action-adventure",
        "3": "Sega Genesis",
        "4": "Capcom"
    },
    {
        "0": "1989",
        "1": "Ghouls 'n Ghosts",
        "2": "Action-adventure",
        "3": "Sega Genesis",
        "4": "Capcom"
    }
]