[
    {
        "0": "Rank",
        "1": "Airport",
        "2": "Location",
        "3": "Code (IATA/ICAO)",
        "4": "Total Passengers",
        "5": "Rank Change",
        "6": "% Change"
    },
    {
        "0": "1.",
        "1": "Hartsfield-Jackson Atlanta International Airport",
        "2": "Atlanta, Georgia, United States",
        "3": "ATL/KATL",
        "4": "88,032,086",
        "5": "",
        "6": "2.2%"
    },
    {
        "0": "2.",
        "1": "London Heathrow Airport",
        "2": "Hillingdon, Greater London, England, United Kingdom",
        "3": "LHR/EGLL",
        "4": "66,037,578",
        "5": "1",
        "6": "1.5%"
    },
    {
        "0": "3.",
        "1": "Beijing Capital International Airport",
        "2": "Chaoyang, Beijing, China",
        "3": "PEK/ZBAA",
        "4": "65,372,012",
        "5": "5",
        "6": "16.9%"
    },
    {
        "0": "4.",
        "1": "O'Hare International Airport",
        "2": "Chicago, Illinois, United States",
        "3": "ORD/KORD",
        "4": "64,158,343",
        "5": "2",
        "6": "6.1%"
    },
    {
        "0": "5.",
        "1": "Tokyo International Airport",
        "2": "?ta, Tokyo, Japan",
        "3": "HND/RJTT",
        "4": "61,903,656",
        "5": "1",
        "6": "7.2%"
    },
    {
        "0": "6.",
        "1": "Paris Charles de Gaulle Airport",
        "2": "Roissy-en-France, Val d'Oise, ?le-de-France, France",
        "3": "CDG/LFPG",
        "4": "57,906,866",
        "5": "1",
        "6": "4.9%"
    },
    {
        "0": "7.",
        "1": "Los Angeles International Airport",
        "2": "Los Angeles, California, United States",
        "3": "LAX/KLAX",
        "4": "56,520,843",
        "5": "1",
        "6": "5.5%"
    },
    {
        "0": "8.",
        "1": "Dallas-Fort Worth International Airport",
        "2": "Dallas/Fort Worth, Texas, United States",
        "3": "DFW/KDFW",
        "4": "56,030,457",
        "5": "1",
        "6": "1.9%"
    },
    {
        "0": "9.",
        "1": "Frankfurt Airport",
        "2": "Flughafen (Frankfurt am Main), Frankfurt, Hesse, Germany",
        "3": "FRA/EDDF",
        "4": "50,932,840",
        "5": "",
        "6": "4.7%"
    },
    {
        "0": "10.",
        "1": "Denver International Airport",
        "2": "Denver, Colorado, United States",
        "3": "DEN/KDEN",
        "4": "50,167,485",
        "5": "",
        "6": "2.1%"
    },
    {
        "0": "11.",
        "1": "Madrid-Barajas Airport",
        "2": "Madrid, Comunidad de Madrid, Spain",
        "3": "MAD/LEMD",
        "4": "48,250,784",
        "5": "",
        "6": "5.1%"
    },
    {
        "0": "12.",
        "1": "John F. Kennedy International Airport",
        "2": "Queens, New York City, New York, United States",
        "3": "JFK/KJFK",
        "4": "45,915,069",
        "5": "1",
        "6": "3.9%"
    },
    {
        "0": "13.",
        "1": "Hong Kong International Airport",
        "2": "Chek Lap Kok, Hong Kong, China",
        "3": "HKG/VHHH",
        "4": "45,558,807",
        "5": "1",
        "6": "4.8%"
    },
    {
        "0": "14.",
        "1": "Amsterdam Airport Schiphol",
        "2": "Haarlemmermeer, North Holland, Netherlands",
        "3": "AMS/EHAM",
        "4": "43,570,370",
        "5": "",
        "6": "8.1%"
    },
    {
        "0": "15.",
        "1": "Dubai International Airport",
        "2": "Garhoud, Dubai, United Arab Emirates",
        "3": "DXB/OMDB",
        "4": "40,901,752",
        "5": "5",
        "6": "9.2%"
    },
    {
        "0": "16.",
        "1": "Suvarnabhumi Airport",
        "2": "Racha Thewa, Bang Phli, Samut Prakan, Greater Bangkok, Thailand",
        "3": "BKK/VTBS",
        "4": "40,500,224",
        "5": "2",
        "6": "4.9%"
    },
    {
        "0": "17.",
        "1": "McCarran International Airport",
        "2": "Las Vegas, Nevada, United States",
        "3": "LAS/KLAS",
        "4": "40,469,012",
        "5": "2",
        "6": "6.3%"
    },
    {
        "0": "18.",
        "1": "George Bush Intercontinental Airport",
        "2": "Houston, Texas, United States",
        "3": "IAH/KIAH",
        "4": "40,007,354",
        "5": "2",
        "6": "4.1%"
    },
    {
        "0": "19.",
        "1": "Phoenix Sky Harbor International Airport",
        "2": "Phoenix, Arizona, United States",
        "3": "PHX/KPHX",
        "4": "37,824,982",
        "5": "2",
        "6": "5.2%"
    },
    {
        "0": "20.",
        "1": "San Francisco International Airport",
        "2": "San Mateo County, California, United States",
        "3": "SFO/KSFO",
        "4": "37,338,942",
        "5": "1",
        "6": "0.3%"
    },
    {
        "0": "21.",
        "1": "Singapore Changi Airport",
        "2": "Changi, East Region, Singapore",
        "3": "SIN/WSSS",
        "4": "37,203,978",
        "5": "2",
        "6": "1.3%"
    },
    {
        "0": "22.",
        "1": "Soekarno-Hatta International Airport",
        "2": "Cengkareng, Jakarta, Java, Indonesia",
        "3": "CGK/WIII",
        "4": "37,143,719",
        "5": "14",
        "6": "15.2%"
    },
    {
        "0": "23.",
        "1": "Guangzhou Baiyun International Airport",
        "2": "Huadu District, Guangzhou, Guangdong, China",
        "3": "CAN/ZGGG",
        "4": "37,048,712",
        "5": "9",
        "6": "10.8%"
    },
    {
        "0": "24.",
        "1": "Charlotte Douglas International Airport",
        "2": "Charlotte, North Carolina, United States",
        "3": "CLT/KCLT",
        "4": "34,536,666",
        "5": "2",
        "6": "0.6%"
    },
    {
        "0": "25.",
        "1": "Miami International Airport",
        "2": "Miami-Dade County, Florida, United States",
        "3": "MIA/KMIA",
        "4": "33,886,025",
        "5": "4",
        "6": "0.5%"
    },
    {
        "0": "26.",
        "1": "Leonardo da Vinci Airport",
        "2": "Fiumicino, Rome, Italy",
        "3": "FCO/LIRF",
        "4": "33,723,213",
        "5": "1",
        "6": "4.0%"
    },
    {
        "0": "27.",
        "1": "Orlando International Airport",
        "2": "Orlando, Florida, United States",
        "3": "MCO/KMCO",
        "4": "33,693,649",
        "5": "5",
        "6": "5.5%"
    },
    {
        "0": "28.",
        "1": "Sydney Airport",
        "2": "Sydney, New South Wales, Australia",
        "3": "SYD/YSSY",
        "4": "33,451,383",
        "5": "5",
        "6": "0.4%"
    },
    {
        "0": "29.",
        "1": "Newark Liberty International Airport",
        "2": "Newark, New Jersey, United States",
        "3": "EWR/KEWR",
        "4": "33,399,207",
        "5": "6",
        "6": "5.5%"
    },
    {
        "0": "30.",
        "1": "Munich Airport",
        "2": "Munich, Bavaria, Germany",
        "3": "MUC/EDDM",
        "4": "32,681,067",
        "5": "3",
        "6": "5.4%"
    },
    {
        "0": "31.",
        "1": "London Gatwick Airport",
        "2": "Crawley, West Sussex, England, United Kingdom",
        "3": "LGW/EGKK",
        "4": "32,398,979",
        "5": "3",
        "6": "5.3%"
    },
    {
        "0": "32.",
        "1": "Minneapolis-Saint Paul International Airport",
        "2": "Fort Snelling, Minnesota, United States",
        "3": "MSP/KMSP",
        "4": "32,378,599",
        "5": "2",
        "6": "4.9%"
    },
    {
        "0": "33.",
        "1": "Narita International Airport",
        "2": "Narita, Chiba, Japan",
        "3": "NRT/RJAA",
        "4": "32,135,191",
        "5": "2",
        "6": "4.0%"
    },
    {
        "0": "34.",
        "1": "Shanghai Pudong International Airport",
        "2": "Pudong, Shanghai, China",
        "3": "PVG/ZSPD",
        "4": "32,102,549",
        "5": "6",
        "6": "13.7%"
    },
    {
        "0": "35.",
        "1": "Detroit Metropolitan Wayne County Airport",
        "2": "Detroit, Michigan, United States",
        "3": "DTW/KDTW",
        "4": "31,357,388",
        "5": "11",
        "6": "10.8%"
    },
    {
        "0": "36.",
        "1": "Seattle-Tacoma International Airport",
        "2": "Seattle, Washington, United States",
        "3": "SEA/KSEA",
        "4": "31,227,512",
        "5": "1",
        "6": "3.0%"
    },
    {
        "0": "37.",
        "1": "Philadelphia International Airport",
        "2": "Philadelphia, Pennsylvania, United States",
        "3": "PHL/KPHI",
        "4": "30,669,564",
        "5": "",
        "6": "3.7%"
    },
    {
        "0": "38.",
        "1": "Toronto Pearson International Airport",
        "2": "Mississauga, Ontario, Canada",
        "3": "YYZ/CYYZ",
        "4": "30,368,339",
        "5": "4",
        "6": "6.1%"
    },
    {
        "0": "39.",
        "1": "Atat?rk International Airport",
        "2": "Yesilk?y, Istanbul, Turkey",
        "3": "IST/LTBA",
        "4": "29,854,119",
        "5": "3",
        "6": "4.3%"
    },
    {
        "0": "40.",
        "1": "Kuala Lumpur International Airport",
        "2": "Sepang, Selangor, Malaysia",
        "3": "KUL/WMKK",
        "4": "29,682,093",
        "5": "1",
        "6": "7.8%"
    },
    {
        "0": "41.",
        "1": "Seoul Incheon International Airport",
        "2": "Incheon, Republic of Korea",
        "3": "ICN/RKSI",
        "4": "28,677,161",
        "5": "2",
        "6": "4.9%"
    },
    {
        "0": "42.",
        "1": "Barcelona Airport",
        "2": "Barcelona, Catalonia, Spain",
        "3": "BCN/LEBL",
        "4": "27,301,662",
        "5": "4",
        "6": "9.8%"
    },
    {
        "0": "43.",
        "1": "Logan International Airport",
        "2": "Boston, Massachusetts, United States",
        "3": "BOS/KBOS",
        "4": "25,512,086",
        "5": "2",
        "6": "2.3%"
    },
    {
        "0": "44.",
        "1": "Indira Gandhi International Airport",
        "2": "Delhi, India",
        "3": "DEL/VIDP",
        "4": "25,252,814",
        "5": "6",
        "6": "8.6%"
    },
    {
        "0": "45.",
        "1": "Melbourne Airport",
        "2": "Melbourne, Victoria, Australia",
        "3": "MEL/YMML",
        "4": "25,248,762",
        "5": "1",
        "6": "1.4%"
    },
    {
        "0": "46.",
        "1": "Paris-Orly Airport",
        "2": "Orly, France",
        "3": "ORY/LFPO",
        "4": "25,107,693",
        "5": "2",
        "6": "4.2%"
    },
    {
        "0": "47.",
        "1": "Shanghai Hongqiao International Airport",
        "2": "Changning District, Shanghai, China",
        "3": "SHA/ZSSS",
        "4": "25,078,548",
        "5": "?",
        "6": "9.6%"
    },
    {
        "0": "48.",
        "1": "Chhatrapati Shivaji International Airport",
        "2": "Mumbai, Maharashtra, India",
        "3": "BOM/VABB",
        "4": "24,804,766",
        "5": "1",
        "6": "1.9%"
    },
    {
        "0": "49.",
        "1": "Shenzhen Bao'an International Airport",
        "2": "Bao'an District, Shenzhen, Guangdong, China",
        "3": "SZX/ZGSZ",
        "4": "24,486,406",
        "5": "?",
        "6": "14.4%"
    },
    {
        "0": "50.",
        "1": "Mexico City International Airport",
        "2": "Mexico City, Mexico",
        "3": "MEX/MMMX",
        "4": "24,243,056",
        "5": "7",
        "6": "7.5%"
    }
]