[
    {
        "0": "Game",
        "1": "Genre",
        "2": "Platform",
        "3": "Release"
    },
    {
        "0": "Aliens: Colonial Marines",
        "1": "Shooter",
        "2": "PS3",
        "3": "Late 2008"
    },
    {
        "0": "All-Pro Football 2K8",
        "1": "Sports",
        "2": "PS3",
        "3": "07/16/07"
    },
    {
        "0": "Alone in the Dark",
        "1": "Survival Horror",
        "2": "PS3",
        "3": "11/18/08"
    },
    {
        "0": "Alpha Protocol",
        "1": "RPG",
        "2": "PS3",
        "3": "TBA 2009"
    },
    {
        "0": "Army Of Two",
        "1": "Action",
        "2": "PS3",
        "3": "03/04/08"
    },
    {
        "0": "Army of Two: The 40th Day",
        "1": "Action",
        "2": "PS3",
        "3": "01/12/10"
    },
    {
        "0": "Assassin's Creed",
        "1": "Action",
        "2": "PS3",
        "3": "11/13/07"
    },
    {
        "0": "Batman: Arkham Asylum",
        "1": "Action",
        "2": "PS3",
        "3": "08/25/09"
    },
    {
        "0": "Bioshock",
        "1": "Action",
        "2": "PS3",
        "3": "10/21/08"
    },
    {
        "0": "Blacksite: Area 51",
        "1": "Action",
        "2": "PS3",
        "3": "12/10/07"
    },
    {
        "0": "Bladestorm: The Hundred Years War",
        "1": "Real Time Strategy",
        "2": "PS3",
        "3": "11/06/07"
    },
    {
        "0": "Blazing Angels: Squadrons of WWII",
        "1": "Flight - Action",
        "2": "PS3",
        "3": "12/12/06"
    },
    {
        "0": "Blur",
        "1": "Racing",
        "2": "PS3",
        "3": "05/25/10"
    },
    {
        "0": "Borderlands",
        "1": "Action",
        "2": "PS3",
        "3": "Holiday 2008"
    },
    {
        "0": "Brothers in Arms: Hell's Highway",
        "1": "First Person Shooter",
        "2": "PS3",
        "3": "09/23/08"
    },
    {
        "0": "Burnout Paradise",
        "1": "Racing",
        "2": "PS3",
        "3": "01/22/08"
    },
    {
        "0": "Call of Duty 3",
        "1": "First Person Shooter",
        "2": "PS3",
        "3": "12/14/06"
    },
    {
        "0": "Call of Duty 4: Modern Warfare",
        "1": "Shooter",
        "2": "PS3",
        "3": "11/05/07"
    },
    {
        "0": "Call of Duty: World at War",
        "1": "First Person Shooter",
        "2": "PS3",
        "3": "11/11/08"
    },
    {
        "0": "Calling All Cars",
        "1": "Action",
        "2": "PS3",
        "3": "05/10/07"
    },
    {
        "0": "Civilization Revolution",
        "1": "Strategy",
        "2": "PS3",
        "3": "Spring 2008"
    },
    {
        "0": "College Hoops 2K8",
        "1": "Sports",
        "2": "PS3",
        "3": "11/19/07"
    },
    {
        "0": "Conan",
        "1": "Action",
        "2": "PS3",
        "3": "10/23/07"
    },
    {
        "0": "Condemned 2: Bloodshot",
        "1": "Action",
        "2": "PS3",
        "3": "03/11/08"
    },
    {
        "0": "Conflict: Denied Ops",
        "1": "Shooter",
        "2": "PS3",
        "3": "02/12/08"
    },
    {
        "0": "Damnation",
        "1": "Action",
        "2": "PS3",
        "3": "TBA 2008"
    },
    {
        "0": "Dark Sector",
        "1": "Action",
        "2": "PS3",
        "3": "03/25/08"
    },
    {
        "0": "Darksiders: Wrath of War",
        "1": "Action",
        "2": "PS3",
        "3": "TBA 2008"
    },
    {
        "0": "Dead Space",
        "1": "Action",
        "2": "PS3",
        "3": "10/20/08"
    },
    {
        "0": "Destroy All Humans! Path of the Furon",
        "1": "Action",
        "2": "PS3",
        "3": "Q1 2008"
    },
    {
        "0": "Devil May Cry 4",
        "1": "Action",
        "2": "PS3",
        "3": "02/05/08"
    },
    {
        "0": "DiRT",
        "1": "Racing",
        "2": "PS3",
        "3": "09/11/07"
    },
    {
        "0": "DJ Hero",
        "1": "Music",
        "2": "PS3",
        "3": "09/27/09"
    },
    {
        "0": "Dynasty Warriors 6",
        "1": "Action",
        "2": "PS3",
        "3": "02/19/08"
    },
    {
        "0": "Eternal Sonata",
        "1": "RPG",
        "2": "PS3",
        "3": "10/21/08"
    },
    {
        "0": "F.E.A.R.",
        "1": "Shooter",
        "2": "PS3",
        "3": "04/24/07"
    },
    {
        "0": "Facebreaker",
        "1": "Sports",
        "2": "PS3",
        "3": "09/03/08"
    },
    {
        "0": "Fallout 3",
        "1": "RPG",
        "2": "PS3",
        "3": "10/28/08"
    },
    {
        "0": "Fantastic 4: Rise of the Silver Surfer",
        "1": "Action",
        "2": "PS3",
        "3": "06/15/07"
    },
    {
        "0": "Far Cry 2",
        "1": "First Person Shooter",
        "2": "PS3",
        "3": "10/21/08"
    },
    {
        "0": "Fatal Inertia",
        "1": "Racing Action",
        "2": "PS3",
        "3": "May 2008"
    },
    {
        "0": "FIFA Soccer 08",
        "1": "Sports",
        "2": "PS3",
        "3": "10/09/07"
    },
    {
        "0": "Fight Night Round 3",
        "1": "Sports",
        "2": "PS3",
        "3": "12/05/06"
    },
    {
        "0": "Final Fantasy XIII",
        "1": "RPG",
        "2": "PS3",
        "3": "TBA 2009"
    },
    {
        "0": "Folklore",
        "1": "RPG",
        "2": "PS3",
        "3": "10/09/07"
    },
    {
        "0": "Fracture",
        "1": "Action",
        "2": "PS3",
        "3": "10/07/08"
    },
    {
        "0": "Full Auto 2: Battlelines",
        "1": "Racing Action",
        "2": "PS3",
        "3": "12/12/06"
    },
    {
        "0": "Genji: Days Of The Blade",
        "1": "Action",
        "2": "PS3",
        "3": "11/17/06"
    },
    {
        "0": "Ghostbusters: The Video Game",
        "1": "Action",
        "2": "PS3",
        "3": "TBA"
    },
    {
        "0": "God of War III",
        "1": "Action",
        "2": "PS3",
        "3": "TBA"
    },
    {
        "0": "God of War III",
        "1": "Action",
        "2": "PS3",
        "3": "03/06/10"
    },
    {
        "0": "Gran Turismo 5 Prologue",
        "1": "Racing",
        "2": "PS3",
        "3": "04/15/08"
    },
    {
        "0": "Grand Theft Auto IV",
        "1": "Action",
        "2": "PS3",
        "3": "04/29/08"
    },
    {
        "0": "Guitar Hero III: Legends of Rock",
        "1": "Music",
        "2": "PS3",
        "3": "10/29/07"
    },
    {
        "0": "Guitar Hero World Tour",
        "1": "Music",
        "2": "PS3",
        "3": "10/26/08"
    },
    {
        "0": "Guitar Hero: Aerosmith",
        "1": "Music",
        "2": "PS3",
        "3": "06/29/08"
    },
    {
        "0": "Guitar Hero: Metallica",
        "1": "Music",
        "2": "PS3",
        "3": "03/29/09"
    },
    {
        "0": "Harry Potter and the Order of the Phoenix",
        "1": "Adventure",
        "2": "PS3",
        "3": "06/25/07"
    },
    {
        "0": "Haze",
        "1": "Action",
        "2": "PS3",
        "3": "05/20/08"
    },
    {
        "0": "Heavenly Sword",
        "1": "Action",
        "2": "PS3",
        "3": "09/12/07"
    },
    {
        "0": "Heavy Rain",
        "1": "Adventure",
        "2": "PS3",
        "3": "02/23/10"
    },
    {
        "0": "Hellboy: Science of Evil",
        "1": "Action",
        "2": "PS3",
        "3": "TBA 2008"
    },
    {
        "0": "Hot Shots Golf: Out of Bounds",
        "1": "Sports",
        "2": "PS3",
        "3": "03/18/08"
    },
    {
        "0": "Infamous",
        "1": "Action",
        "2": "PS3",
        "3": "TBA 2008"
    },
    {
        "0": "Iron Man",
        "1": "Action",
        "2": "PS3",
        "3": "05/02/08"
    },
    {
        "0": "James Bond 007 in Quantum of Solace",
        "1": "Action",
        "2": "PS3",
        "3": "11/04/08"
    },
    {
        "0": "Jericho",
        "1": "Actin",
        "2": "PS3",
        "3": "10/23/07"
    },
    {
        "0": "John Woo Presents Stranglehold",
        "1": "Action",
        "2": "PS3",
        "3": "10/29/07"
    },
    {
        "0": "Juiced 2: Hot Import Nights",
        "1": "Racing",
        "2": "PS3",
        "3": "09/25/07"
    },
    {
        "0": "Kane & Lynch: Dead Men",
        "1": "Action",
        "2": "PS3",
        "3": "11/13/07"
    },
    {
        "0": "Killzone 2",
        "1": "Action",
        "2": "PS3",
        "3": "TBA 2008"
    },
    {
        "0": "Lair",
        "1": "Action",
        "2": "PS3",
        "3": "09/04/07"
    },
    {
        "0": "Legendary",
        "1": "Shooter",
        "2": "PS3",
        "3": "Summer 2008"
    },
    {
        "0": "LEGO Batman: The Videogame",
        "1": "Action",
        "2": "PS3",
        "3": "09/23/08"
    },
    {
        "0": "Little Big Planet",
        "1": "Action",
        "2": "PS3",
        "3": "10/21/08"
    },
    {
        "0": "Lost Planet: Extreme Condition",
        "1": "Action",
        "2": "PS3",
        "3": "02/26/08"
    },
    {
        "0": "Lost: Via Domus",
        "1": "Adventure",
        "2": "PS3",
        "3": "02/26/08"
    },
    {
        "0": "Madden NFL 07",
        "1": "Sports",
        "2": "PS3",
        "3": "11/17/06"
    },
    {
        "0": "Madden NFL 08",
        "1": "Sports",
        "2": "PS3",
        "3": "08/14/07"
    },
    {
        "0": "Madden NFL 09",
        "1": "Sports",
        "2": "PS3",
        "3": "08/12/08"
    },
    {
        "0": "Major League Baseball 2K7",
        "1": "Sports",
        "2": "PS3",
        "3": "02/27/07"
    },
    {
        "0": "Major League Baseball 2K8",
        "1": "Sports",
        "2": "PS3",
        "3": "03/04/08"
    },
    {
        "0": "Marvel: Ultimate Alliance",
        "1": "Action RPG",
        "2": "PS3",
        "3": "11/07/06"
    },
    {
        "0": "Marvel: Ultimate Alliance 2",
        "1": "Action - RPG",
        "2": "PS3",
        "3": "09/15/09"
    },
    {
        "0": "Medal of Honor Airborne",
        "1": "Shooter",
        "2": "PS3",
        "3": "11/19/07"
    },
    {
        "0": "Mercenaries 2: World in Flames",
        "1": "Action",
        "2": "PS3",
        "3": "08/31/08"
    },
    {
        "0": "Metal Gear Online",
        "1": "Action",
        "2": "PS3",
        "3": "TBA"
    },
    {
        "0": "Metal Gear Solid 4: Guns of the Patriots",
        "1": "Action",
        "2": "PS3",
        "3": "06/12/08"
    },
    {
        "0": "Midnight Club: Los Angeles",
        "1": "Racing",
        "2": "PS3",
        "3": "10/07/08"
    },
    {
        "0": "MLB 07: The Show",
        "1": "Sports",
        "2": "PS3",
        "3": "05/15/07"
    },
    {
        "0": "MLB 08: The Show",
        "1": "Sports",
        "2": "PS3",
        "3": "03/04/08"
    },
    {
        "0": "Mobile Suit Gundam: Crossfire",
        "1": "Action",
        "2": "PS3",
        "3": "11/13/06"
    },
    {
        "0": "Mortal Kombat vs. DC Universe",
        "1": "Fighting",
        "2": "PS3",
        "3": "11/10/08"
    },
    {
        "0": "MotorStorm",
        "1": "Racing",
        "2": "PS3",
        "3": "03/06/07"
    },
    {
        "0": "MotorStorm: Pacific Rift",
        "1": "Racing",
        "2": "PS3",
        "3": "10/07/08"
    },
    {
        "0": "MX vs ATV Untamed",
        "1": "Racing",
        "2": "PS3",
        "3": "12/17/07"
    },
    {
        "0": "NASCAR 08",
        "1": "Sports",
        "2": "PS3",
        "3": "07/23/07"
    },
    {
        "0": "NBA 2K7",
        "1": "Sports",
        "2": "PS3",
        "3": "11/13/06"
    },
    {
        "0": "NBA 2K8",
        "1": "Sports",
        "2": "PS3",
        "3": "10/02/07"
    },
    {
        "0": "NBA 2K9",
        "1": "Sports",
        "2": "PS3",
        "3": "10/31/08"
    },
    {
        "0": "NBA Live 08",
        "1": "Sports",
        "2": "PS3",
        "3": "10/02/07"
    },
    {
        "0": "NBA Live 09",
        "1": "Sports",
        "2": "PS3",
        "3": "10/07/08"
    },
    {
        "0": "NBA '07",
        "1": "Sports",
        "2": "PS3",
        "3": "11/13/06"
    },
    {
        "0": "NBA '09: The Inside",
        "1": "Sports",
        "2": "PS3",
        "3": "10/07/08"
    },
    {
        "0": "NBA ?08",
        "1": "Sports",
        "2": "PS3",
        "3": "10/02/07"
    },
    {
        "0": "NCAA Football 08",
        "1": "Sports",
        "2": "PS3",
        "3": "07/17/07"
    },
    {
        "0": "Need for Speed Carbon",
        "1": "Racing",
        "2": "PS3",
        "3": "11/14/06"
    },
    {
        "0": "Need for Speed ProStreet",
        "1": "Racing",
        "2": "PS3",
        "3": "11/13/07"
    },
    {
        "0": "Need for Speed Undercover",
        "1": "Racing",
        "2": "PS3",
        "3": "11/18/08"
    },
    {
        "0": "NFL Tour",
        "1": "Sports",
        "2": "PS3",
        "3": "01/08/08"
    },
    {
        "0": "NHL 08",
        "1": "Sports",
        "2": "PS3",
        "3": "09/11/07"
    },
    {
        "0": "NHL 09",
        "1": "Sports",
        "2": "PS3",
        "3": "09/09/08"
    },
    {
        "0": "NHL 2K7",
        "1": "Sports",
        "2": "PS3",
        "3": "03/23/07"
    },
    {
        "0": "NHL 2K8",
        "1": "Sports",
        "2": "PS3",
        "3": "09/10/07"
    },
    {
        "0": "NHL 2K9",
        "1": "Sports",
        "2": "PS3",
        "3": "09/08/08"
    },
    {
        "0": "Ninja Gaiden Sigma",
        "1": "Action",
        "2": "PS3",
        "3": "07/03/07"
    },
    {
        "0": "Pirates of the Caribbean: At World's End",
        "1": "Action",
        "2": "PS3",
        "3": "05/22/07"
    },
    {
        "0": "Prototype",
        "1": "Action",
        "2": "PS3",
        "3": "Summer 2008"
    },
    {
        "0": "Pure",
        "1": "Racing",
        "2": "PS3",
        "3": "09/16/08"
    },
    {
        "0": "Ratatouille",
        "1": "Action",
        "2": "PS3",
        "3": "October 2007"
    },
    {
        "0": "Ratchet & Clank Future: Tools of Destruction",
        "1": "Action",
        "2": "PS3",
        "3": "10/23/07"
    },
    {
        "0": "Red Faction: Guerrilla",
        "1": "Shooter",
        "2": "PS3",
        "3": "TBA 2009"
    },
    {
        "0": "Resident Evil 5",
        "1": "Action / Survival Horror",
        "2": "PS3",
        "3": "TBA 2008"
    },
    {
        "0": "Resistance 2",
        "1": "First Person Shooter",
        "2": "PS3",
        "3": "11/04/08"
    },
    {
        "0": "Resistance: Fall of Man",
        "1": "FPS",
        "2": "PS3",
        "3": "11/14/06"
    },
    {
        "0": "Ridge Racer 7",
        "1": "Racing",
        "2": "PS3",
        "3": "11/13/06"
    },
    {
        "0": "Rock Band",
        "1": "Music",
        "2": "PS3",
        "3": "11/20/07"
    },
    {
        "0": "Saints Row 2",
        "1": "Action",
        "2": "PS3",
        "3": "10/14/08"
    },
    {
        "0": "Saint's Row",
        "1": "Action",
        "2": "PS3",
        "3": "Cancelled"
    },
    {
        "0": "SEGA Rally Revo",
        "1": "Racing",
        "2": "PS3",
        "3": "10/09/07"
    },
    {
        "0": "Shaun White Snowboarding",
        "1": "Sports",
        "2": "PS3",
        "3": "11/17/08"
    },
    {
        "0": "Silent Hill 5",
        "1": "Adventure",
        "2": "PS3",
        "3": "TBA 2008"
    },
    {
        "0": "Silent Hill: Homecoming",
        "1": "Action/Adventure",
        "2": "PS3",
        "3": "09/30/08"
    },
    {
        "0": "Skate",
        "1": "Sports",
        "2": "PS3",
        "3": "09/24/07"
    },
    {
        "0": "SOCOM: Confrontation",
        "1": "Action",
        "2": "PS3",
        "3": "10/14/08"
    },
    {
        "0": "Soldier of Fortune: Pay Back",
        "1": "FPS",
        "2": "PS3",
        "3": "11/13/07"
    },
    {
        "0": "Sonic the Hedgehog",
        "1": "Platformer",
        "2": "PS3",
        "3": "01/30/07"
    },
    {
        "0": "Spider-Man 3",
        "1": "Action",
        "2": "PS3",
        "3": "05/04/07"
    },
    {
        "0": "Spider-Man: Web of Shadows",
        "1": "Action/Adventure",
        "2": "PS3",
        "3": "10/21/08"
    },
    {
        "0": "Star Wars: The Force Unleashed",
        "1": "Action",
        "2": "PS3",
        "3": "09/16/08"
    },
    {
        "0": "Street Fighter IV",
        "1": "Fighting",
        "2": "PS3",
        "3": "TBA 2008"
    },
    {
        "0": "Street Fighter IV",
        "1": "Fighting",
        "2": "PS3",
        "3": "TBA 2008"
    },
    {
        "0": "Stuntman: Ignition",
        "1": "Racing Action",
        "2": "PS3",
        "3": "09/17/07"
    },
    {
        "0": "Super Street Fighter IV",
        "1": "Fighting",
        "2": "PS3",
        "3": "Spring 2010"
    },
    {
        "0": "Surf's Up",
        "1": "Action",
        "2": "PS3",
        "3": "05/29/07"
    },
    {
        "0": "The Agency",
        "1": "Shooter",
        "2": "PS3",
        "3": "TBA"
    },
    {
        "0": "The BIGS",
        "1": "Sports",
        "2": "PS3",
        "3": "06/25/07"
    },
    {
        "0": "The Bourne Conspiracy",
        "1": "Action",
        "2": "PS3",
        "3": "06/03/08"
    },
    {
        "0": "The Chronicles of Narnia: Prince Caspian",
        "1": "Action",
        "2": "PS3",
        "3": "05/16/08"
    },
    {
        "0": "The Chronicles of Riddick: Assault on Dark Athena",
        "1": "FPS",
        "2": "PS3",
        "3": "TBA 2008"
    },
    {
        "0": "The Club",
        "1": "Action",
        "2": "PS3",
        "3": "02/19/08"
    },
    {
        "0": "The Darkness",
        "1": "Action",
        "2": "PS3",
        "3": "06/25/07"
    },
    {
        "0": "The Elder Scrolls IV: Oblivion",
        "1": "RPG",
        "2": "PS3",
        "3": "03/19/07"
    },
    {
        "0": "The Godfather: The Don's Edition",
        "1": "Action",
        "2": "PS3",
        "3": "03/22/07"
    },
    {
        "0": "The Incredible Hulk",
        "1": "Action",
        "2": "PS3",
        "3": "06/05/08"
    },
    {
        "0": "The Orange Box",
        "1": "Action",
        "2": "PS3",
        "3": "12/11/07"
    },
    {
        "0": "The Simpsons Game",
        "1": "Adventure",
        "2": "PS3",
        "3": "10/30/07"
    },
    {
        "0": "Tiger Woods PGA Tour 07",
        "1": "Sports",
        "2": "PS3",
        "3": "11/14/06"
    },
    {
        "0": "Tiger Woods PGA Tour 08",
        "1": "Sports",
        "2": "PS3",
        "3": "08/28/07"
    },
    {
        "0": "Tiger Woods PGA Tour 09",
        "1": "Sports",
        "2": "PS3",
        "3": "08/26/08"
    },
    {
        "0": "Time Crisis 4",
        "1": "Shooter",
        "2": "PS3",
        "3": "11/20/07"
    },
    {
        "0": "TimeShift",
        "1": "Shooter",
        "2": "PS3",
        "3": "12/19/07"
    },
    {
        "0": "TNA iMPACT",
        "1": "Sports",
        "2": "PS3",
        "3": "09/09/08"
    },
    {
        "0": "Tom Clancy's Ghost Recon Advanced Warfighter 2",
        "1": "FPS",
        "2": "PS3",
        "3": "08/21/07"
    },
    {
        "0": "Tom Clancy's Rainbow Six: Vegas",
        "1": "FPS",
        "2": "PS3",
        "3": "06/26/07"
    },
    {
        "0": "Tom Clancy?s Rainbow Six Vegas 2",
        "1": "Action",
        "2": "PS3",
        "3": "03/18/08"
    },
    {
        "0": "Tomb Raider Underworld",
        "1": "Action/Adventure",
        "2": "PS3",
        "3": "11/18/08"
    },
    {
        "0": "Tony Hawk's Project 8",
        "1": "Sports",
        "2": "PS3",
        "3": "11/07/06"
    },
    {
        "0": "Tony Hawk's Proving Ground",
        "1": "Sports",
        "2": "PS3",
        "3": "10/15/07"
    },
    {
        "0": "Top Spin 3",
        "1": "Sports",
        "2": "PS3",
        "3": "06/23/08"
    },
    {
        "0": "Transformers: The Game",
        "1": "Action",
        "2": "PS3",
        "3": "06/26/07"
    },
    {
        "0": "Turning Point: Fall of Liberty",
        "1": "FPS",
        "2": "PS3",
        "3": "02/26/08"
    },
    {
        "0": "Turok",
        "1": "Action",
        "2": "PS3",
        "3": "02/05/08"
    },
    {
        "0": "Uncharted 2: Among Thieves",
        "1": "Action",
        "2": "PS3",
        "3": "10/13/09"
    },
    {
        "0": "Uncharted: Drake?s Fortune",
        "1": "Action",
        "2": "PS3",
        "3": "11/20/07"
    },
    {
        "0": "Unreal Tournament 3",
        "1": "FPS",
        "2": "PS3",
        "3": "12/10/07"
    },
    {
        "0": "Untold Legends: Dark Kingdom",
        "1": "RPG",
        "2": "PS3",
        "3": "11/15/06"
    },
    {
        "0": "Viking: Battle for Asgard",
        "1": "Action",
        "2": "PS3",
        "3": "03/25/08"
    },
    {
        "0": "Virtua Fighter 5",
        "1": "Fighting",
        "2": "PS3",
        "3": "02/20/07"
    },
    {
        "0": "Virtua Tennis 3",
        "1": "Sports",
        "2": "PS3",
        "3": "03/22/07"
    },
    {
        "0": "Warhawk",
        "1": "Action - Flight",
        "2": "PS3",
        "3": "08/28/07"
    },
    {
        "0": "World in Conflict",
        "1": "Strategy",
        "2": "PS3",
        "3": "Fall 2008"
    },
    {
        "0": "WWE SmackDown! vs. Raw 2008",
        "1": "Sports",
        "2": "PS3",
        "3": "11/13/07"
    },
    {
        "0": "X-Men Origins: Wolverine",
        "1": "Action",
        "2": "PS3",
        "3": "05/01/09"
    }
]