[
    {
        "0": "Lake Name",
        "1": "Access",
        "2": "Acres",
        "3": "Class",
        "4": "Category"
    },
    {
        "0": "Bony Lake",
        "1": "Water",
        "2": "191",
        "3": "B",
        "4": "2"
    },
    {
        "0": "Buffalo Lake",
        "1": "Walk-in",
        "2": "179",
        "3": "B",
        "4": "1"
    },
    {
        "0": "Buskey Bay",
        "1": "Ramp",
        "2": "100",
        "3": "A1",
        "4": "2"
    },
    {
        "0": "Chippewa",
        "1": "Ramp",
        "2": "319",
        "3": "B",
        "4": "1"
    },
    {
        "0": "Cranberry Lake T44N R09W S30",
        "1": "Water",
        "2": "131",
        "3": "B",
        "4": "1"
    },
    {
        "0": "Devils Lake",
        "1": "Water",
        "2": "23",
        "3": "C",
        "4": "2"
    },
    {
        "0": "Eagle Lake (Murray,Inch)",
        "1": "Water",
        "2": "170",
        "3": "B",
        "4": "2"
    },
    {
        "0": "Eau Claire Lake, Lower*",
        "1": "Ramp",
        "2": "802",
        "3": "B",
        "4": "2"
    },
    {
        "0": "Eau Claire Lake, Middle",
        "1": "Ramp",
        "2": "902",
        "3": "A1",
        "4": "2"
    },
    {
        "0": "Eau Claire Lake, Upper",
        "1": "Ramp",
        "2": "996",
        "3": "B",
        "4": "2"
    },
    {
        "0": "Flynn Lake T46N R08W S03",
        "1": "Water",
        "2": "29",
        "3": "B",
        "4": "2"
    },
    {
        "0": "Ghost Lake",
        "1": "Water",
        "2": "132",
        "3": "B",
        "4": "1"
    },
    {
        "0": "Hart Lake (Heart,Wiehe)",
        "1": "Water",
        "2": "259",
        "3": "A1",
        "4": "2"
    },
    {
        "0": "Hildur (Bluebird) Lake",
        "1": "Road",
        "2": "67",
        "3": "C",
        "4": "1"
    },
    {
        "0": "Jackson Lake",
        "1": "Water",
        "2": "142",
        "3": "B",
        "4": "2"
    },
    {
        "0": "McCarry Lake",
        "1": "Water",
        "2": "32",
        "3": "C",
        "4": "2"
    },
    {
        "0": "Millicent Lake (Pike)",
        "1": "Water",
        "2": "183",
        "3": "A1",
        "4": "2"
    },
    {
        "0": "Muskellunge Lake (Butte)",
        "1": "Road",
        "2": "44",
        "3": "C",
        "4": "2"
    },
    {
        "0": "Namekagon Lake(Spring, Garden)",
        "1": "Ramp",
        "2": "3227",
        "3": "A1",
        "4": "2"
    },
    {
        "0": "Pacwawong Lake*",
        "1": "Ramp",
        "2": "160",
        "3": "",
        "4": ""
    },
    {
        "0": "Pike Lake",
        "1": "Water",
        "2": "17",
        "3": "C",
        "4": "2"
    },
    {
        "0": "Shunenberg Lake",
        "1": "Water",
        "2": "44",
        "3": "C",
        "4": "2"
    },
    {
        "0": "Smith Lake",
        "1": "Water",
        "2": "31",
        "3": "C",
        "4": "2"
    },
    {
        "0": "Swett Lake (Sweet)",
        "1": "Water",
        "2": "88",
        "3": "C",
        "4": "2"
    },
    {
        "0": "Twin Bear Lake (Crow)",
        "1": "Ramp",
        "2": "172",
        "3": "A1",
        "4": "2"
    },
    {
        "0": "White Bass Lake",
        "1": "None",
        "2": "112",
        "3": "C",
        "4": "1"
    }
]