[
    {
        "0": "???O",
        "1": "???[?O",
        "2": "?`?[??",
        "3": "????",
        "4": "?N",
        "5": "??"
    },
    {
        "0": "Jeff Bagwell",
        "1": "NL",
        "2": "Astros",
        "3": "07-18",
        "4": "2001",
        "5": "."
    },
    {
        "0": "John Olerud",
        "1": "AL",
        "2": "Mariners",
        "3": "06-17",
        "4": "2001",
        "5": "??2"
    },
    {
        "0": "Luis Gonzalez",
        "1": "?m?k",
        "2": "Diamondbacks",
        "3": "07-05",
        "4": "2000",
        "5": "."
    },
    {
        "0": "Eric Chavez",
        "1": "?`?k",
        "2": "Athletics",
        "3": "06-21",
        "4": "2000",
        "5": "."
    },
    {
        "0": "Mike Lansing",
        "1": "?m?k",
        "2": "Rockies",
        "3": "06-18",
        "4": "2000",
        "5": "."
    },
    {
        "0": "Jason Kendall",
        "1": "?m?k",
        "2": "Pirates",
        "3": "05-19",
        "4": "2000",
        "5": "."
    },
    {
        "0": "Jose Valentin",
        "1": "?`?k",
        "2": "White Sox",
        "3": "04-27",
        "4": "2000",
        "5": "."
    },
    {
        "0": "Chris Singleton",
        "1": "?`?k",
        "2": "White Sox",
        "3": "07-06",
        "4": "1999",
        "5": "."
    },
    {
        "0": "Todd Helton",
        "1": "?m?k",
        "2": "Rockies",
        "3": "06-19",
        "4": "1999",
        "5": "."
    },
    {
        "0": "Jeff Kent",
        "1": "?m?k",
        "2": "Giants",
        "3": "05-03",
        "4": "1999",
        "5": "."
    },
    {
        "0": "Neifi Perez",
        "1": "?m?k",
        "2": "Rockies",
        "3": "07-25",
        "4": "1998",
        "5": "."
    },
    {
        "0": "Dante Bichette",
        "1": "?m?k",
        "2": "Rockies",
        "3": "06-10",
        "4": "1998",
        "5": "."
    },
    {
        "0": "Mike Blowers",
        "1": "?`?k",
        "2": "Athletics",
        "3": "05-18",
        "4": "1998",
        "5": "."
    },
    {
        "0": "John Olerud",
        "1": "?m?k",
        "2": "Mets",
        "3": "09-11",
        "4": "1997",
        "5": "??1"
    },
    {
        "0": "Alex Rodriguez",
        "1": "?`?k",
        "2": "Mariners",
        "3": "06-05",
        "4": "1997",
        "5": "."
    },
    {
        "0": "Alex Ochoa",
        "1": "?m?k",
        "2": "Mets",
        "3": "07-03",
        "4": "1996",
        "5": "."
    },
    {
        "0": "John Valentin",
        "1": "?`?k",
        "2": "Red Sox",
        "3": "06-06",
        "4": "1996",
        "5": "."
    },
    {
        "0": "John Mabry",
        "1": "?m?k",
        "2": "Cardinals",
        "3": "05-18",
        "4": "1996",
        "5": "."
    },
    {
        "0": "Tony Fernandez",
        "1": "?`?k",
        "2": "Yankees",
        "3": "09-03",
        "4": "1995",
        "5": "."
    },
    {
        "0": "Gregg Jefferies",
        "1": "?m?k",
        "2": "Phillies",
        "3": "08-25",
        "4": "1995",
        "5": "."
    },
    {
        "0": "Rondell White",
        "1": "?m?k",
        "2": "Expos",
        "3": "06-11",
        "4": "1995",
        "5": "."
    },
    {
        "0": "Scott Cooper",
        "1": "?`?k",
        "2": "Red Sox",
        "3": "04-12",
        "4": "1994",
        "5": "."
    },
    {
        "0": "Travis Fryman",
        "1": "?`?k",
        "2": "Tigers",
        "3": "07-28",
        "4": "1993",
        "5": "."
    },
    {
        "0": "Jay Buhner",
        "1": "?`?k",
        "2": "Mariners",
        "3": "07-23",
        "4": "1993",
        "5": "."
    },
    {
        "0": "Mark Grace",
        "1": "?m?k",
        "2": "Cubs",
        "3": "05-09",
        "4": "1993",
        "5": "."
    },
    {
        "0": "Andujar Cedeno",
        "1": "?m?k",
        "2": "Astros",
        "3": "08-25",
        "4": "1992",
        "5": "."
    },
    {
        "0": "Ray Lankford",
        "1": "?m?k",
        "2": "Cardinals",
        "3": "09-15",
        "4": "1991",
        "5": "."
    },
    {
        "0": "Dave Winfield",
        "1": "?`?k",
        "2": "Angels",
        "3": "06-24",
        "4": "1991",
        "5": "."
    },
    {
        "0": "Paul Molitor",
        "1": "?`?k",
        "2": "Brewers",
        "3": "05-15",
        "4": "1991",
        "5": "."
    },
    {
        "0": "Robby Thompson",
        "1": "?m?k",
        "2": "Giants",
        "3": "04-22",
        "4": "1991",
        "5": "."
    },
    {
        "0": "George Brett",
        "1": "?`?k",
        "2": "Royals",
        "3": "07-25",
        "4": "1990",
        "5": "2"
    },
    {
        "0": "Gary Redus",
        "1": "?m?k",
        "2": "Pirates",
        "3": "08-25",
        "4": "1989",
        "5": "."
    },
    {
        "0": "Kevin McReynolds",
        "1": "?m?k",
        "2": "Mets",
        "3": "08-01",
        "4": "1989",
        "5": "."
    },
    {
        "0": "Eric Davis",
        "1": "?m?k",
        "2": "Reds",
        "3": "06-02",
        "4": "1989",
        "5": "."
    },
    {
        "0": "Kelly Gruber",
        "1": "?`?k",
        "2": "Blue Jays",
        "3": "04-16",
        "4": "1989",
        "5": "."
    },
    {
        "0": "Mike Greenwell",
        "1": "?`?k",
        "2": "Red Sox",
        "3": "09-14",
        "4": "1988",
        "5": "."
    },
    {
        "0": "Chris Speier",
        "1": "?m?k",
        "2": "Giants",
        "3": "07-09",
        "4": "1988",
        "5": "2"
    },
    {
        "0": "Robin Yount",
        "1": "?`?k",
        "2": "Brewers",
        "3": "06-12",
        "4": "1988",
        "5": "."
    },
    {
        "0": "Albert Hall",
        "1": "?m?k",
        "2": "Braves",
        "3": "09-23",
        "4": "1987",
        "5": "."
    },
    {
        "0": "Tim Raines",
        "1": "?m?k",
        "2": "Expos",
        "3": "08-16",
        "4": "1987",
        "5": "."
    },
    {
        "0": "Candy Maldonado",
        "1": "?m?k",
        "2": "Giants",
        "3": "05-04",
        "4": "1987",
        "5": "."
    },
    {
        "0": "Andre Dawson",
        "1": "?m?k",
        "2": "Cubs",
        "3": "04-29",
        "4": "1987",
        "5": "."
    },
    {
        "0": "Kirby Puckett",
        "1": "?`?k",
        "2": "Twins",
        "3": "08-01",
        "4": "1986",
        "5": "."
    },
    {
        "0": "Tony Phillips",
        "1": "?`?k",
        "2": "Athletics",
        "3": "05-16",
        "4": "1986",
        "5": "."
    },
    {
        "0": "Rich Gedman",
        "1": "?`?k",
        "2": "Red Sox",
        "3": "09-18",
        "4": "1985",
        "5": "."
    },
    {
        "0": "Oddibe McDowell",
        "1": "?`?k",
        "2": "Rangers",
        "3": "07-23",
        "4": "1985",
        "5": "."
    },
    {
        "0": "Keith Hernandez",
        "1": "?m?k",
        "2": "Mets",
        "3": "07-04",
        "4": "1985",
        "5": "."
    },
    {
        "0": "Jeff Leonard",
        "1": "?m?k",
        "2": "Giants",
        "3": "06-27",
        "4": "1985",
        "5": "."
    },
    {
        "0": "Dwight Evans",
        "1": "?`?k",
        "2": "Red Sox",
        "3": "06-28",
        "4": "1984",
        "5": "."
    },
    {
        "0": "Willie McGee",
        "1": "?m?k",
        "2": "Cardinals",
        "3": "06-23",
        "4": "1984",
        "5": "."
    },
    {
        "0": "Carlton Fisk",
        "1": "?`?k",
        "2": "White Sox",
        "3": "05-16",
        "4": "1984",
        "5": "."
    },
    {
        "0": "Cal Ripken, Jr.",
        "1": "?`?k",
        "2": "Orioles",
        "3": "05-06",
        "4": "1984",
        "5": "."
    },
    {
        "0": "Frank White",
        "1": "?`?k",
        "2": "Royals",
        "3": "08-03",
        "4": "1982",
        "5": "2"
    },
    {
        "0": "Charlie Moore",
        "1": "?`?k",
        "2": "Brewers",
        "3": "10-01",
        "4": "1980",
        "5": "."
    },
    {
        "0": "Gary Ward",
        "1": "?`?k",
        "2": "Twins",
        "3": "09-18",
        "4": "1980",
        "5": "."
    },
    {
        "0": "Mike Easler",
        "1": "?m?k",
        "2": "Pirates",
        "3": "06-12",
        "4": "1980",
        "5": "."
    },
    {
        "0": "Fred Lynn",
        "1": "?`?k",
        "2": "Red Sox",
        "3": "05-13",
        "4": "1980",
        "5": "."
    },
    {
        "0": "Ivan DeJesus",
        "1": "?m?k",
        "2": "Cubs",
        "3": "04-22",
        "4": "1980",
        "5": "."
    },
    {
        "0": "Frank White",
        "1": "?`?k",
        "2": "Royals",
        "3": "09-26",
        "4": "1979",
        "5": "1"
    },
    {
        "0": "Bob Watson",
        "1": "?`?k",
        "2": "Red Sox",
        "3": "09-15",
        "4": "1979",
        "5": "??2"
    },
    {
        "0": "Dan Ford",
        "1": "?`?k",
        "2": "Angels",
        "3": "08-10",
        "4": "1979",
        "5": "."
    },
    {
        "0": "George Brett",
        "1": "?`?k",
        "2": "Royals",
        "3": "05-28",
        "4": "1979",
        "5": "1"
    },
    {
        "0": "Mike Cubbage",
        "1": "?`?k",
        "2": "Twins",
        "3": "07-27",
        "4": "1978",
        "5": "."
    },
    {
        "0": "Chris Speier",
        "1": "?m?k",
        "2": "Expos",
        "3": "07-20",
        "4": "1978",
        "5": "1"
    },
    {
        "0": "Andre Thornton",
        "1": "?`?k",
        "2": "Indians",
        "3": "04-22",
        "4": "1978",
        "5": "."
    },
    {
        "0": "Jack Brohamer",
        "1": "?`?k",
        "2": "White Sox",
        "3": "09-24",
        "4": "1977",
        "5": "."
    },
    {
        "0": "John Mayberry",
        "1": "?`?k",
        "2": "Royals",
        "3": "08-05",
        "4": "1977",
        "5": "."
    },
    {
        "0": "Bob Watson",
        "1": "?m?k",
        "2": "Astros",
        "3": "06-24",
        "4": "1977",
        "5": "??1"
    },
    {
        "0": "Mike Hegan",
        "1": "?`?k",
        "2": "Brewers",
        "3": "09-03",
        "4": "1976",
        "5": "."
    },
    {
        "0": "Cesar Cedeno",
        "1": "?m?k",
        "2": "Astros",
        "3": "08-09",
        "4": "1976",
        "5": "2"
    },
    {
        "0": "Lyman Bostock",
        "1": "?`?k",
        "2": "Twins",
        "3": "07-24",
        "4": "1976",
        "5": "."
    },
    {
        "0": "Mike Phillips",
        "1": "?m?k",
        "2": "Mets",
        "3": "06-25",
        "4": "1976",
        "5": "."
    },
    {
        "0": "Larry Hisle",
        "1": "?`?k",
        "2": "Twins",
        "3": "06-04",
        "4": "1976",
        "5": "."
    },
    {
        "0": "Tim Foli",
        "1": "?m?k",
        "2": "Expos",
        "3": "04-22",
        "4": "1976",
        "5": "."
    },
    {
        "0": "Lou Brock",
        "1": "?m?k",
        "2": "Cardinals",
        "3": "05-27",
        "4": "1975",
        "5": "."
    },
    {
        "0": "Richie Zisk",
        "1": "?m?k",
        "2": "Pirates",
        "3": "06-09",
        "4": "1974",
        "5": "."
    },
    {
        "0": "Joe Torre",
        "1": "?m?k",
        "2": "Cardinals",
        "3": "06-27",
        "4": "1973",
        "5": "."
    },
    {
        "0": "Cesar Tovar",
        "1": "?`?k",
        "2": "Twins",
        "3": "09-19",
        "4": "1972",
        "5": "."
    },
    {
        "0": "Bobby Murcer",
        "1": "?`?k",
        "2": "Yankees",
        "3": "08-29",
        "4": "1972",
        "5": "."
    },
    {
        "0": "Cesar Cedeno",
        "1": "?m?k",
        "2": "Astros",
        "3": "08-02",
        "4": "1972",
        "5": "1"
    },
    {
        "0": "Dave Kingman",
        "1": "?m?k",
        "2": "Giants",
        "3": "04-16",
        "4": "1972",
        "5": "."
    },
    {
        "0": "Freddie Patek",
        "1": "?`?k",
        "2": "Royals",
        "3": "07-09",
        "4": "1971",
        "5": "."
    },
    {
        "0": "Jim Ray Hart",
        "1": "?m?k",
        "2": "Giants",
        "3": "07-08",
        "4": "1970",
        "5": "."
    },
    {
        "0": "Tommie Agee",
        "1": "?m?k",
        "2": "Mets",
        "3": "07-06",
        "4": "1970",
        "5": "."
    },
    {
        "0": "Tony Horton",
        "1": "?`?k",
        "2": "Indians",
        "3": "07-02",
        "4": "1970",
        "5": "."
    },
    {
        "0": "Rod Carew",
        "1": "?`?k",
        "2": "Twins",
        "3": "05-20",
        "4": "1970",
        "5": "."
    },
    {
        "0": "Wes Parker",
        "1": "?m?k",
        "2": "Dodgers",
        "3": "05-07",
        "4": "1970",
        "5": "."
    },
    {
        "0": "Jim Fregosi",
        "1": "?`?k",
        "2": "Angels",
        "3": "05-20",
        "4": "1968",
        "5": "2"
    },
    {
        "0": "Randy Hundley",
        "1": "?m?k",
        "2": "Cubs",
        "3": "08-11",
        "4": "1966",
        "5": "2"
    },
    {
        "0": "Billy Williams",
        "1": "?m?k",
        "2": "Cubs",
        "3": "07-17",
        "4": "1966",
        "5": "2"
    },
    {
        "0": "Carl Yastrzemski",
        "1": "?`?k",
        "2": "Red Sox",
        "3": "05-14",
        "4": "1965",
        "5": "2"
    },
    {
        "0": "Jim Fregosi",
        "1": "?`?k",
        "2": "Angels",
        "3": "07-28",
        "4": "1964",
        "5": "1"
    },
    {
        "0": "Willie Stargell",
        "1": "?m?k",
        "2": "Pirates",
        "3": "07-22",
        "4": "1964",
        "5": "."
    },
    {
        "0": "Ken Boyer",
        "1": "?m?k",
        "2": "Cardinals",
        "3": "06-16",
        "4": "1964",
        "5": "2"
    },
    {
        "0": "Jim King",
        "1": "?`?k",
        "2": "Senators",
        "3": "05-26",
        "4": "1964",
        "5": "."
    },
    {
        "0": "Jim Hickman",
        "1": "?m?k",
        "2": "Mets",
        "3": "08-07",
        "4": "1963",
        "5": "."
    },
    {
        "0": "Johnny Callison",
        "1": "?m?k",
        "2": "Phillies",
        "3": "06-27",
        "4": "1963",
        "5": "."
    },
    {
        "0": "Lu Clinton",
        "1": "?`?k",
        "2": "Red Sox",
        "3": "07-13",
        "4": "1962",
        "5": "."
    },
    {
        "0": "Ken Boyer",
        "1": "?m?k",
        "2": "Cardinals",
        "3": "09-14",
        "4": "1961",
        "5": "1"
    },
    {
        "0": "Bill White",
        "1": "?m?k",
        "2": "Cardinals",
        "3": "08-14",
        "4": "1960",
        "5": "."
    },
    {
        "0": "Brooks Robinson",
        "1": "?`?k",
        "2": "Orioles",
        "3": "07-15",
        "4": "1960",
        "5": "."
    },
    {
        "0": "Frank Robinson",
        "1": "?m?k",
        "2": "Reds",
        "3": "05-02",
        "4": "1959",
        "5": "."
    },
    {
        "0": "Mickey Mantle",
        "1": "?`?k",
        "2": "Yankees",
        "3": "07-23",
        "4": "1957",
        "5": "."
    },
    {
        "0": "Lee Walls",
        "1": "?m?k",
        "2": "Cubs",
        "3": "07-02",
        "4": "1957",
        "5": "."
    },
    {
        "0": "Don Mueller",
        "1": "?m?k",
        "2": "Giants",
        "3": "07-11",
        "4": "1954",
        "5": "."
    },
    {
        "0": "Larry Doby",
        "1": "?`?k",
        "2": "Indians",
        "3": "06-04",
        "4": "1952",
        "5": "."
    },
    {
        "0": "Gus Bell",
        "1": "?m?k",
        "2": "Pirates",
        "3": "06-04",
        "4": "1951",
        "5": "."
    },
    {
        "0": "Hoot Evers",
        "1": "?`?k",
        "2": "Tigers",
        "3": "09-07",
        "4": "1950",
        "5": "."
    },
    {
        "0": "Elmer Valo",
        "1": "?`?k",
        "2": "Athletics",
        "3": "08-02",
        "4": "1950",
        "5": "."
    },
    {
        "0": "Roy Smalley",
        "1": "?m?k",
        "2": "Cubs",
        "3": "06-28",
        "4": "1950",
        "5": "."
    },
    {
        "0": "Ralph Kiner",
        "1": "?m?k",
        "2": "Pirates",
        "3": "06-25",
        "4": "1950",
        "5": "."
    },
    {
        "0": "George Kell",
        "1": "?`?k",
        "2": "Tigers",
        "3": "06-02",
        "4": "1950",
        "5": "."
    },
    {
        "0": "Stan Musial",
        "1": "?m?k",
        "2": "Cardinals",
        "3": "07-24",
        "4": "1949",
        "5": "."
    },
    {
        "0": "Gil Hodges",
        "1": "?m?k",
        "2": "Dodgers",
        "3": "06-25",
        "4": "1949",
        "5": "."
    },
    {
        "0": "Wally Westlake",
        "1": "?m?k",
        "2": "Pirates",
        "3": "06-14",
        "4": "1949",
        "5": "2"
    },
    {
        "0": "Jackie Robinson",
        "1": "?m?k",
        "2": "Dodgers",
        "3": "08-29",
        "4": "1948",
        "5": "."
    },
    {
        "0": "Wally Westlake",
        "1": "?m?k",
        "2": "Pirates",
        "3": "07-30",
        "4": "1948",
        "5": "1"
    },
    {
        "0": "Joe DiMaggio",
        "1": "?`?k",
        "2": "Yankees",
        "3": "05-20",
        "4": "1948",
        "5": "2"
    },
    {
        "0": "Vic Wertz",
        "1": "?`?k",
        "2": "Tigers",
        "3": "09-14",
        "4": "1947",
        "5": "."
    },
    {
        "0": "Bobby Doerr",
        "1": "?`?k",
        "2": "Red Sox",
        "3": "05-13",
        "4": "1947",
        "5": "2"
    },
    {
        "0": "Ted Williams",
        "1": "?`?k",
        "2": "Red Sox",
        "3": "07-21",
        "4": "1946",
        "5": "."
    },
    {
        "0": "Mickey Vernon",
        "1": "?`?k",
        "2": "Senators",
        "3": "05-19",
        "4": "1946",
        "5": "."
    },
    {
        "0": "Bill Salked",
        "1": "?m?k",
        "2": "Pirates",
        "3": "08-04",
        "4": "1945",
        "5": "."
    },
    {
        "0": "Bob Elliott",
        "1": "?m?k",
        "2": "Pirates",
        "3": "07-15",
        "4": "1945",
        "5": "."
    },
    {
        "0": "Dixie Walker",
        "1": "?m?k",
        "2": "Dodgers",
        "3": "09-02",
        "4": "1944",
        "5": "."
    },
    {
        "0": "Bob Johnson",
        "1": "?`?k",
        "2": "Red Sox",
        "3": "07-06",
        "4": "1944",
        "5": "."
    },
    {
        "0": "Bobby Doerr",
        "1": "?`?k",
        "2": "Red Sox",
        "3": "05-17",
        "4": "1944",
        "5": "1"
    },
    {
        "0": "Leon Culberson",
        "1": "?`?k",
        "2": "Red Sox",
        "3": "07-03",
        "4": "1943",
        "5": "."
    },
    {
        "0": "George McQuinn",
        "1": "?`?k",
        "2": "Browns",
        "3": "07-19",
        "4": "1941",
        "5": "."
    },
    {
        "0": "Joe Gordon",
        "1": "?`?k",
        "2": "Yankees",
        "3": "09-08",
        "4": "1940",
        "5": "."
    },
    {
        "0": "Joe Cronin",
        "1": "?`?k",
        "2": "Red Sox",
        "3": "08-02",
        "4": "1940",
        "5": "2"
    },
    {
        "0": "Buddy Rosar",
        "1": "?`?k",
        "2": "Yankees",
        "3": "07-19",
        "4": "1940",
        "5": "."
    },
    {
        "0": "Johnny Mize",
        "1": "?m?k",
        "2": "Cardinals",
        "3": "07-13",
        "4": "1940",
        "5": "."
    },
    {
        "0": "Harry Danning",
        "1": "?m?k",
        "2": "Giants",
        "3": "06-15",
        "4": "1940",
        "5": "."
    },
    {
        "0": "Harry Craft",
        "1": "?m?k",
        "2": "Reds",
        "3": "06-08",
        "4": "1940",
        "5": "."
    },
    {
        "0": "Arky Vaughan",
        "1": "?m?k",
        "2": "Pirates",
        "3": "07-19",
        "4": "1939",
        "5": "2"
    },
    {
        "0": "Charlie Gehringer",
        "1": "?`?k",
        "2": "Tigers",
        "3": "05-27",
        "4": "1939",
        "5": "."
    },
    {
        "0": "Sam Chapman",
        "1": "?`?k",
        "2": "Athletics",
        "3": "05-05",
        "4": "1939",
        "5": "."
    },
    {
        "0": "Odell Hale",
        "1": "?`?k",
        "2": "Indians",
        "3": "07-12",
        "4": "1938",
        "5": "."
    },
    {
        "0": "Lou Gehrig",
        "1": "?`?k",
        "2": "Yankees",
        "3": "08-01",
        "4": "1937",
        "5": "2"
    },
    {
        "0": "Joe DiMaggio",
        "1": "?`?k",
        "2": "Yankees",
        "3": "07-09",
        "4": "1937",
        "5": "1"
    },
    {
        "0": "Gee Walker",
        "1": "?`?k",
        "2": "Tigers",
        "3": "04-20",
        "4": "1937",
        "5": "."
    },
    {
        "0": "Sam Leslie",
        "1": "?m?k",
        "2": "Giants",
        "3": "05-24",
        "4": "1936",
        "5": "."
    },
    {
        "0": "Joe Medwick",
        "1": "?m?k",
        "2": "Cardinals",
        "3": "06-29",
        "4": "1935",
        "5": "."
    },
    {
        "0": "Moose Solters",
        "1": "?`?k",
        "2": "Red Sox",
        "3": "08-19",
        "4": "1934",
        "5": "."
    },
    {
        "0": "Lou Gehrig",
        "1": "?`?k",
        "2": "Yankees",
        "3": "06-25",
        "4": "1934",
        "5": "."
    },
    {
        "0": "Roger Cramer",
        "1": "?`?k",
        "2": "Athletics",
        "3": "06-10",
        "4": "1934",
        "5": "."
    },
    {
        "0": "Babe Herman",
        "1": "?m?k",
        "2": "Cubs",
        "3": "09-30",
        "4": "1933",
        "5": "3"
    },
    {
        "0": "Earl Averill",
        "1": "?`?k",
        "2": "Indians",
        "3": "08-17",
        "4": "1933",
        "5": "."
    },
    {
        "0": "Jimmie Foxx",
        "1": "?`?k",
        "2": "Athletics",
        "3": "08-14",
        "4": "1933",
        "5": "."
    },
    {
        "0": "Pinky Higgins",
        "1": "?`?k",
        "2": "Athletics",
        "3": "08-06",
        "4": "1933",
        "5": "."
    },
    {
        "0": "Mickey Cochrane",
        "1": "?`?k",
        "2": "Athletics",
        "3": "08-02",
        "4": "1933",
        "5": "2"
    },
    {
        "0": "Arky Vaughan",
        "1": "?m?k",
        "2": "Pirates",
        "3": "06-24",
        "4": "1933",
        "5": "1"
    },
    {
        "0": "Chuck Klein",
        "1": "?m?k",
        "2": "Phillies",
        "3": "05-26",
        "4": "1933",
        "5": "2"
    },
    {
        "0": "Pepper Martin",
        "1": "?m?k",
        "2": "Cardinals",
        "3": "05-05",
        "4": "1933",
        "5": "."
    },
    {
        "0": "Mickey Cochrane",
        "1": "?`?k",
        "2": "Athletics",
        "3": "07-22",
        "4": "1932",
        "5": "."
    },
    {
        "0": "Tony Lazzeri",
        "1": "?`?k",
        "2": "Yankees",
        "3": "06-03",
        "4": "1932",
        "5": "."
    },
    {
        "0": "Babe Herman",
        "1": "?m?k",
        "2": "Dodgers",
        "3": "07-24",
        "4": "1931",
        "5": "2"
    },
    {
        "0": "Chuck Klein",
        "1": "?m?k",
        "2": "Phillies",
        "3": "07-01",
        "4": "1931",
        "5": "1"
    },
    {
        "0": "Babe Herman",
        "1": "?m?k",
        "2": "Dodgers",
        "3": "05-18",
        "4": "1931",
        "5": "1"
    },
    {
        "0": "Chick Hafey",
        "1": "?m?k",
        "2": "Cardinals",
        "3": "08-21",
        "4": "1930",
        "5": "."
    },
    {
        "0": "Hack Wilson",
        "1": "?m?k",
        "2": "Cubs",
        "3": "06-23",
        "4": "1930",
        "5": "."
    },
    {
        "0": "Freddy Lindstrom",
        "1": "?m?k",
        "2": "Giants",
        "3": "05-08",
        "4": "1930",
        "5": "."
    },
    {
        "0": "Joe Cronin",
        "1": "?`?k",
        "2": "Senators",
        "3": "09-02",
        "4": "1929",
        "5": "1"
    },
    {
        "0": "Oscar Melillo",
        "1": "?`?k",
        "2": "Browns",
        "3": "05-23",
        "4": "1929",
        "5": "."
    },
    {
        "0": "Mel Ott",
        "1": "?m?k",
        "2": "Giants",
        "3": "05-16",
        "4": "1929",
        "5": "."
    },
    {
        "0": "Bob Meusel",
        "1": "?`?k",
        "2": "Yankees",
        "3": "07-26",
        "4": "1928",
        "5": "3"
    },
    {
        "0": "Bill Terry",
        "1": "?m?k",
        "2": "Giants",
        "3": "05-29",
        "4": "1928",
        "5": "."
    },
    {
        "0": "Cy Williams",
        "1": "?m?k",
        "2": "Phillies",
        "3": "08-05",
        "4": "1927",
        "5": "."
    },
    {
        "0": "Jim Bottomley",
        "1": "?m?k",
        "2": "Cardinals",
        "3": "07-15",
        "4": "1927",
        "5": "."
    },
    {
        "0": "Bob Fothergill",
        "1": "?`?k",
        "2": "Tigers",
        "3": "09-26",
        "4": "1926",
        "5": "."
    },
    {
        "0": "Roy Carlyle",
        "1": "?`?k",
        "2": "Red Sox",
        "3": "07-21",
        "4": "1925",
        "5": "."
    },
    {
        "0": "Max Carey",
        "1": "?m?k",
        "2": "Pirates",
        "3": "06-20",
        "4": "1925",
        "5": "."
    },
    {
        "0": "Kiki Cuyler",
        "1": "?m?k",
        "2": "Pirates",
        "3": "06-04",
        "4": "1925",
        "5": "."
    },
    {
        "0": "Goose Goslin",
        "1": "?`?k",
        "2": "Senators",
        "3": "08-28",
        "4": "1924",
        "5": "."
    },
    {
        "0": "Baby Doll Jacobson",
        "1": "?`?k",
        "2": "Browns",
        "3": "04-17",
        "4": "1924",
        "5": "."
    },
    {
        "0": "Pie Traynor",
        "1": "?m?k",
        "2": "Pirates",
        "3": "07-07",
        "4": "1923",
        "5": "."
    },
    {
        "0": "Bob Meusel",
        "1": "?`?k",
        "2": "Yankees",
        "3": "07-03",
        "4": "1922",
        "5": "2"
    },
    {
        "0": "Ray Schalk",
        "1": "?`?k",
        "2": "White Sox",
        "3": "06-27",
        "4": "1922",
        "5": "."
    },
    {
        "0": "Jimmy Johnston",
        "1": "?m?k",
        "2": "Dodgers",
        "3": "05-25",
        "4": "1922",
        "5": "."
    },
    {
        "0": "Ross Youngs",
        "1": "?m?k",
        "2": "Giants",
        "3": "04-29",
        "4": "1922",
        "5": "."
    },
    {
        "0": "Dave Robertson",
        "1": "?m?k",
        "2": "Pirates",
        "3": "08-30",
        "4": "1921",
        "5": "."
    },
    {
        "0": "George Sisler",
        "1": "?`?k",
        "2": "Browns",
        "3": "08-13",
        "4": "1921",
        "5": "2"
    },
    {
        "0": "Dave Bancroft",
        "1": "?m?k",
        "2": "Giants",
        "3": "06-01",
        "4": "1921",
        "5": "."
    },
    {
        "0": "Bob Meusel",
        "1": "?`?k",
        "2": "Yankees",
        "3": "05-07",
        "4": "1921",
        "5": "1"
    },
    {
        "0": "Bobby Veach",
        "1": "?`?k",
        "2": "Tigers",
        "3": "09-17",
        "4": "1920",
        "5": "."
    },
    {
        "0": "George Burns",
        "1": "?m?k",
        "2": "Giants",
        "3": "09-17",
        "4": "1920",
        "5": "."
    },
    {
        "0": "George Sisler",
        "1": "?`?k",
        "2": "Browns",
        "3": "08-08",
        "4": "1920",
        "5": "1"
    },
    {
        "0": "Cliff Heathcote",
        "1": "?m?k",
        "2": "Cardinals",
        "3": "07-13",
        "4": "1918",
        "5": "."
    },
    {
        "0": "Heinie Groh",
        "1": "?m?k",
        "2": "Reds",
        "3": "07-05",
        "4": "1915",
        "5": "."
    },
    {
        "0": "Honus Wagner",
        "1": "?m?k",
        "2": "Pirates",
        "3": "08-22",
        "4": "1912",
        "5": "."
    },
    {
        "0": "Bert Daniels",
        "1": "?`?k",
        "2": "Yankees",
        "3": "07-25",
        "4": "1912",
        "5": "."
    },
    {
        "0": "Chief Meyers",
        "1": "?m?k",
        "2": "Giants",
        "3": "06-10",
        "4": "1912",
        "5": "."
    },
    {
        "0": "Tris Speaker",
        "1": "?`?k",
        "2": "Red Sox",
        "3": "06-09",
        "4": "1912",
        "5": "."
    },
    {
        "0": "Mike Mitchell",
        "1": "?m?k",
        "2": "Reds",
        "3": "08-19",
        "4": "1911",
        "5": "."
    },
    {
        "0": "Frank Baker",
        "1": "?`?k",
        "2": "Athletics",
        "3": "07-03",
        "4": "1911",
        "5": "."
    },
    {
        "0": "Bill Collins",
        "1": "?m?k",
        "2": "Braves",
        "3": "10-06",
        "4": "1910",
        "5": "."
    },
    {
        "0": "Danny Murphy",
        "1": "?`?k",
        "2": "Athletics",
        "3": "08-25",
        "4": "1910",
        "5": "."
    },
    {
        "0": "Owen Wilson",
        "1": "?m?k",
        "2": "Pirates",
        "3": "07-03",
        "4": "1910",
        "5": "."
    },
    {
        "0": "Otis Clymer",
        "1": "?`?k",
        "2": "Senators",
        "3": "10-02",
        "4": "1908",
        "5": "."
    },
    {
        "0": "John Bates",
        "1": "?m?k",
        "2": "Braves",
        "3": "04-26",
        "4": "1907",
        "5": "."
    },
    {
        "0": "Sam Mertes",
        "1": "?m?k",
        "2": "Giants",
        "3": "10-04",
        "4": "1904",
        "5": "."
    },
    {
        "0": "Duff Cooley",
        "1": "?m?k",
        "2": "Braves",
        "3": "06-20",
        "4": "1904",
        "5": "."
    },
    {
        "0": "Bill Bradley",
        "1": "?`?k",
        "2": "Indians",
        "3": "09-24",
        "4": "1903",
        "5": "."
    },
    {
        "0": "Pat Dougherty",
        "1": "?`?k",
        "2": "Red Sox",
        "3": "07-29",
        "4": "1903",
        "5": "."
    },
    {
        "0": "Buck Freeman",
        "1": "?`?k",
        "2": "Red Sox",
        "3": "07-21",
        "4": "1903",
        "5": "."
    },
    {
        "0": "Fred Clarke",
        "1": "?m?k",
        "2": "Pirates",
        "3": "05-07",
        "4": "1903",
        "5": "2"
    },
    {
        "0": "Nap Lajoie",
        "1": "?`?k",
        "2": "Athletics",
        "3": "07-30",
        "4": "1901",
        "5": "."
    },
    {
        "0": "Fred Clarke",
        "1": "?m?k",
        "2": "Pirates",
        "3": "07-23",
        "4": "1901",
        "5": "1"
    },
    {
        "0": "Harry Davis",
        "1": "?`?k",
        "2": "Athletics",
        "3": "07-10",
        "4": "1901",
        "5": "."
    },
    {
        "0": "Bill Joyce",
        "1": "?m?k",
        "2": "Washington",
        "3": "05-30",
        "4": "1896",
        "5": "."
    },
    {
        "0": "Herman Long",
        "1": "?m?k",
        "2": "Boston",
        "3": "05-09",
        "4": "1896",
        "5": "."
    },
    {
        "0": "Ed Cartwright",
        "1": "?m?k",
        "2": "Washington",
        "3": "09-30",
        "4": "1895",
        "5": "."
    },
    {
        "0": "Tom Dowd",
        "1": "?m?k",
        "2": "St. Louis",
        "3": "08-16",
        "4": "1895",
        "5": "."
    },
    {
        "0": "Tom Parrett",
        "1": "?m?k",
        "2": "Cincinnati",
        "3": "09-28",
        "4": "1894",
        "5": "."
    },
    {
        "0": "Sam Thompson",
        "1": "?m?k",
        "2": "Philadelphia",
        "3": "08-17",
        "4": "1894",
        "5": "."
    },
    {
        "0": "Bill Hassamaer",
        "1": "?m?k",
        "2": "Washington",
        "3": "06-13",
        "4": "1894",
        "5": "."
    },
    {
        "0": "Lave Cross",
        "1": "?m?k",
        "2": "Philadelphia",
        "3": "04-24",
        "4": "1894",
        "5": "."
    },
    {
        "0": "Jimmy Ryan",
        "1": "?m?k",
        "2": "Chicago",
        "3": "07-01",
        "4": "1891",
        "5": "2"
    },
    {
        "0": "John Reilly",
        "1": "?m?k",
        "2": "Cincinnati",
        "3": "08-06",
        "4": "1890",
        "5": "."
    },
    {
        "0": "Tom Burns",
        "1": "?m?k",
        "2": "Brooklyn",
        "3": "08-01",
        "4": "1890",
        "5": "."
    },
    {
        "0": "Larry Twitchell",
        "1": "?m?k",
        "2": "Cleveland",
        "3": "08-15",
        "4": "1889",
        "5": "."
    },
    {
        "0": "John Glasscock",
        "1": "?m?k",
        "2": "Indianapolis",
        "3": "08-08",
        "4": "1889",
        "5": "."
    },
    {
        "0": "Mike Tiernan",
        "1": "?m?k",
        "2": "New York",
        "3": "08-25",
        "4": "1888",
        "5": "."
    },
    {
        "0": "Jimmy Ryan",
        "1": "?m?k",
        "2": "Chicago",
        "3": "07-28",
        "4": "1888",
        "5": "1"
    },
    {
        "0": "Fred Carroll",
        "1": "?m?k",
        "2": "Pittsburgh",
        "3": "05-02",
        "4": "1887",
        "5": "."
    },
    {
        "0": "John Rowe",
        "1": "?m?k",
        "2": "Detroit",
        "3": "08-21",
        "4": "1886",
        "5": "."
    },
    {
        "0": "Fred Dunlap",
        "1": "?m?k",
        "2": "St. Louis",
        "3": "05-24",
        "4": "1886",
        "5": "."
    },
    {
        "0": "Bill McQuery",
        "1": "?m?k",
        "2": "Detroit",
        "3": "09-28",
        "4": "1885",
        "5": "."
    },
    {
        "0": "George Wood",
        "1": "?m?k",
        "2": "Detroit",
        "3": "06-13",
        "4": "1885",
        "5": "."
    },
    {
        "0": "Jim O'Rourke",
        "1": "?m?k",
        "2": "Buffalo",
        "3": "06-16",
        "4": "1884",
        "5": "."
    },
    {
        "0": "Charles Foley",
        "1": "?m?k",
        "2": "Buffalo",
        "3": "05-25",
        "4": "1882",
        "5": "."
    }
]