[
    {
        "0": "Fans' Rank",
        "1": "Title",
        "2": "Year",
        "3": "Director(s)",
        "4": "Overall Rank"
    },
    {
        "0": "1",
        "1": "The Godfather",
        "2": "1972",
        "3": "Francis Ford Coppola",
        "4": "1"
    },
    {
        "0": "2",
        "1": "Pulp Fiction",
        "2": "1994",
        "3": "Quentin Tarantino",
        "4": "15"
    },
    {
        "0": "3",
        "1": "Citizen Kane",
        "2": "1941",
        "3": "Orson Welles",
        "4": "2"
    },
    {
        "0": "4",
        "1": "The Godfather: Part II",
        "2": "1974",
        "3": "Francis Ford Coppola",
        "4": "14"
    },
    {
        "0": "5",
        "1": "Star Wars",
        "2": "1977",
        "3": "George Lucas",
        "4": "8"
    },
    {
        "0": "6",
        "1": "Goodfellas",
        "2": "1990",
        "3": "Martin Scorsese",
        "4": "26"
    },
    {
        "0": "7",
        "1": "Casablanca",
        "2": "1942",
        "3": "Michael Curtiz",
        "4": "3"
    },
    {
        "0": "8",
        "1": "Taxi Driver",
        "2": "1976",
        "3": "Martin Scorsese",
        "4": "19"
    },
    {
        "0": "9",
        "1": "2001: A Space Odyssey",
        "2": "1968",
        "3": "Stanley Kubrick",
        "4": "4"
    },
    {
        "0": "10",
        "1": "Apocalypse Now",
        "2": "1979",
        "3": "Francis Ford Coppola",
        "4": "13"
    },
    {
        "0": "11",
        "1": "Schindler's List",
        "2": "1993",
        "3": "Steven Spielberg",
        "4": "22"
    },
    {
        "0": "12",
        "1": "Dr. Strangelove or: How I Learned to Stop Worrying and Love the Bomb",
        "2": "1964",
        "3": "Stanley Kubrick",
        "4": "12"
    },
    {
        "0": "13",
        "1": "The Shawshank Redemption",
        "2": "1994",
        "3": "Frank Darabont",
        "4": "46"
    },
    {
        "0": "14",
        "1": "Psycho",
        "2": "1960",
        "3": "Alfred Hitchcock",
        "4": "7"
    },
    {
        "0": "15",
        "1": "The Empire Strikes Back",
        "2": "1980",
        "3": "Irvin Kershner",
        "4": "43"
    },
    {
        "0": "16",
        "1": "Raiders of the Lost Ark",
        "2": "1981",
        "3": "Steven Spielberg",
        "4": "29"
    },
    {
        "0": "17",
        "1": "The Silence of the Lambs",
        "2": "1991",
        "3": "Jonathan Demme",
        "4": "30"
    },
    {
        "0": "18",
        "1": "One Flew over the Cuckoo's Nest",
        "2": "1975",
        "3": "Milos Forman",
        "4": "35"
    },
    {
        "0": "19",
        "1": "A Clockwork Orange",
        "2": "1971",
        "3": "Stanley Kubrick",
        "4": "36"
    },
    {
        "0": "20",
        "1": "Jaws",
        "2": "1975",
        "3": "Steven Spielberg",
        "4": "24"
    },
    {
        "0": "21",
        "1": "Rear Window",
        "2": "1954",
        "3": "Alfred Hitchcock",
        "4": "34"
    },
    {
        "0": "22",
        "1": "Vertigo",
        "2": "1958",
        "3": "Alfred Hitchcock",
        "4": "11"
    },
    {
        "0": "23",
        "1": "Chinatown",
        "2": "1974",
        "3": "Roman Polanski",
        "4": "20"
    },
    {
        "0": "24",
        "1": "Raging Bull",
        "2": "1980",
        "3": "Martin Scorsese",
        "4": "18"
    },
    {
        "0": "25",
        "1": "American Beauty",
        "2": "1999",
        "3": "Sam Mendes",
        "4": "111"
    },
    {
        "0": "26",
        "1": "Fargo",
        "2": "1996",
        "3": "Joel Coen",
        "4": "49"
    },
    {
        "0": "27",
        "1": "It's a Wonderful Life",
        "2": "1946",
        "3": "Frank Capra",
        "4": "16"
    },
    {
        "0": "28",
        "1": "Saving Private Ryan",
        "2": "1998",
        "3": "Steven Spielberg",
        "4": "50"
    },
    {
        "0": "29",
        "1": "The Usual Suspects",
        "2": "1995",
        "3": "Bryan Singer",
        "4": "55"
    },
    {
        "0": "30",
        "1": "Blade Runner",
        "2": "1982",
        "3": "Ridley Scott",
        "4": "21"
    },
    {
        "0": "31",
        "1": "North by Northwest",
        "2": "1959",
        "3": "Alfred Hitchcock",
        "4": "31"
    },
    {
        "0": "32",
        "1": "Reservoir Dogs",
        "2": "1992",
        "3": "Quentin Tarantino",
        "4": "66"
    },
    {
        "0": "33",
        "1": "The Wizard of Oz",
        "2": "1939",
        "3": "Victor Fleming",
        "4": "5"
    },
    {
        "0": "34",
        "1": "The Matrix",
        "2": "1999",
        "3": "Andy and Larry Wachowski",
        "4": "42"
    },
    {
        "0": "35",
        "1": "Lawrence of Arabia",
        "2": "1962",
        "3": "David Lean",
        "4": "9"
    },
    {
        "0": "36",
        "1": "Fight Club",
        "2": "1999",
        "3": "David Fincher",
        "4": "83"
    },
    {
        "0": "37",
        "1": "Forrest Gump",
        "2": "1994",
        "3": "Robert Zemeckis",
        "4": "93"
    },
    {
        "0": "38",
        "1": "The Shining",
        "2": "1980",
        "3": "Stanley Kubrick",
        "4": "87"
    },
    {
        "0": "39",
        "1": "Annie Hall",
        "2": "1977",
        "3": "Woody Allen",
        "4": "25"
    },
    {
        "0": "40",
        "1": "The Seven Samurai",
        "2": "1954",
        "3": "Akira Kurosawa",
        "4": "32"
    },
    {
        "0": "41",
        "1": "Alien",
        "2": "1979",
        "3": "Ridley Scott",
        "4": "38"
    },
    {
        "0": "42",
        "1": "Seven",
        "2": "1995",
        "3": "David Fincher",
        "4": "112"
    },
    {
        "0": "43",
        "1": "The Graduate",
        "2": "1967",
        "3": "Mike Nichols",
        "4": "39"
    },
    {
        "0": "44",
        "1": "The Lord of the Rings: The Fellowship of the Ring",
        "2": "2001",
        "3": "Peter Jackson",
        "4": "60"
    },
    {
        "0": "45",
        "1": "Braveheart",
        "2": "1995",
        "3": "Mel Gibson",
        "4": "116"
    },
    {
        "0": "46",
        "1": "Gone with the Wind",
        "2": "1939",
        "3": "Victor Fleming",
        "4": "17"
    },
    {
        "0": "47",
        "1": "Aliens",
        "2": "1986",
        "3": "James Cameron",
        "4": "65"
    },
    {
        "0": "48",
        "1": "Singin' in the Rain",
        "2": "1952",
        "3": "Stanley Donen and Gene Kelly",
        "4": "6"
    },
    {
        "0": "49",
        "1": "The Third Man",
        "2": "1949",
        "3": "Carol Reed",
        "4": "27"
    },
    {
        "0": "50",
        "1": "Sunset Blvd.",
        "2": "1950",
        "3": "Billy Wilder",
        "4": "33"
    },
    {
        "0": "51",
        "1": "On the Waterfront",
        "2": "1954",
        "3": "Elia Kazan",
        "4": "40"
    },
    {
        "0": "52",
        "1": "L.A. Confidential",
        "2": "1997",
        "3": "Curtis Hanson",
        "4": "82"
    },
    {
        "0": "53",
        "1": "Full Metal Jacket",
        "2": "1987",
        "3": "Stanley Kubrick",
        "4": "275"
    },
    {
        "0": "54",
        "1": "E.T. the Extra-Terrestrial",
        "2": "1982",
        "3": "Steven Spielberg",
        "4": "23"
    },
    {
        "0": "55",
        "1": "The Good, the Bad and the Ugly",
        "2": "1966",
        "3": "Sergio Leone",
        "4": "118"
    },
    {
        "0": "56",
        "1": "Some Like It Hot",
        "2": "1959",
        "3": "Billy Wilder",
        "4": "10"
    },
    {
        "0": "57",
        "1": "The Maltese Falcon",
        "2": "1941",
        "3": "John Huston",
        "4": "44"
    },
    {
        "0": "58",
        "1": "Return of the Jedi",
        "2": "1983",
        "3": "Richard Marquand",
        "4": "178"
    },
    {
        "0": "59",
        "1": "Memento",
        "2": "2000",
        "3": "Christopher Nolan",
        "4": "136"
    },
    {
        "0": "60",
        "1": "Back to the Future",
        "2": "1985",
        "3": "Robert Zemeckis",
        "4": "91"
    },
    {
        "0": "61",
        "1": "Die Hard",
        "2": "1988",
        "3": "John McTiernan",
        "4": "94"
    },
    {
        "0": "62",
        "1": "Monty Python and the Holy Grail",
        "2": "1975",
        "3": "Terry Gilliam and Terry Jones",
        "4": "133"
    },
    {
        "0": "63",
        "1": "Terminator 2: Judgment Day",
        "2": "1991",
        "3": "James Cameron",
        "4": "98"
    },
    {
        "0": "64",
        "1": "To Kill a Mockingbird",
        "2": "1962",
        "3": "Robert Mulligan",
        "4": "62"
    },
    {
        "0": "65",
        "1": "The Bridge on the River Kwai",
        "2": "1957",
        "3": "David Lean",
        "4": "57"
    },
    {
        "0": "66",
        "1": "Amadeus",
        "2": "1984",
        "3": "Milos Forman",
        "4": "141"
    },
    {
        "0": "67",
        "1": "Platoon",
        "2": "1986",
        "3": "Oliver Stone",
        "4": "122"
    },
    {
        "0": "68",
        "1": "Unforgiven",
        "2": "1992",
        "3": "Clint Eastwood",
        "4": "73"
    },
    {
        "0": "69",
        "1": "The Deer Hunter",
        "2": "1978",
        "3": "Michael Cimino",
        "4": "85"
    },
    {
        "0": "70",
        "1": "The Exorcist",
        "2": "1973",
        "3": "William Friedkin",
        "4": "76"
    },
    {
        "0": "71",
        "1": "Brazil",
        "2": "1985",
        "3": "Terry Gilliam",
        "4": "77"
    },
    {
        "0": "72",
        "1": "Gladiator",
        "2": "2000",
        "3": "Ridley Scott",
        "4": "113"
    },
    {
        "0": "73",
        "1": "The Terminator",
        "2": "1984",
        "3": "James Cameron",
        "4": "95"
    },
    {
        "0": "74",
        "1": "The Lord of the Rings: The Two Towers",
        "2": "2002",
        "3": "Peter Jackson",
        "4": "123"
    },
    {
        "0": "75",
        "1": "Touch of Evil",
        "2": "1958",
        "3": "Orson Welles",
        "4": "54"
    },
    {
        "0": "76",
        "1": "12 Angry Men",
        "2": "1957",
        "3": "Sidney Lumet",
        "4": "154"
    },
    {
        "0": "77",
        "1": "Double Indemnity",
        "2": "1944",
        "3": "Billy Wilder",
        "4": "41"
    },
    {
        "0": "78",
        "1": "The Lord of the Rings: The Return of the King",
        "2": "2003",
        "3": "Peter Jackson",
        "4": "96"
    },
    {
        "0": "79",
        "1": "Magnolia",
        "2": "1999",
        "3": "Paul Thomas Anderson",
        "4": "202"
    },
    {
        "0": "80",
        "1": "The Searchers",
        "2": "1956",
        "3": "John Ford",
        "4": "28"
    },
    {
        "0": "81",
        "1": "All about Eve",
        "2": "1950",
        "3": "Joseph L. Mankiewicz",
        "4": "37"
    },
    {
        "0": "82",
        "1": "Titanic",
        "2": "1997",
        "3": "James Cameron",
        "4": "63"
    },
    {
        "0": "83",
        "1": "Close Encounters of the Third Kind",
        "2": "1977",
        "3": "Steven Spielberg",
        "4": "103"
    },
    {
        "0": "84",
        "1": "The Sixth Sense",
        "2": "1999",
        "3": "M. Night Shyamalan",
        "4": "171"
    },
    {
        "0": "85",
        "1": "Heat",
        "2": "1995",
        "3": "Michael Mann",
        "4": "150"
    },
    {
        "0": "86",
        "1": "Once Upon a Time in the West",
        "2": "1968",
        "3": "Sergio Leone",
        "4": "107"
    },
    {
        "0": "87",
        "1": "Bonnie and Clyde",
        "2": "1967",
        "3": "Arthur Penn",
        "4": "48"
    },
    {
        "0": "88",
        "1": "Scarface",
        "2": "1983",
        "3": "Brian De Palma",
        "4": "239"
    },
    {
        "0": "89",
        "1": "8 1/2",
        "2": "1963",
        "3": "Federico Fellini",
        "4": "80"
    },
    {
        "0": "90",
        "1": "Blue Velvet",
        "2": "1986",
        "3": "David Lynch",
        "4": "59"
    },
    {
        "0": "91",
        "1": "Toy Story",
        "2": "1995",
        "3": "John Lasseter",
        "4": "64"
    },
    {
        "0": "92",
        "1": "The Manchurian Candidate",
        "2": "1962",
        "3": "John Frankenheimer",
        "4": "124"
    },
    {
        "0": "93",
        "1": "The Wild Bunch",
        "2": "1969",
        "3": "Sam Peckinpah",
        "4": "51"
    },
    {
        "0": "94",
        "1": "Jurassic Park",
        "2": "1993",
        "3": "Steven Spielberg",
        "4": "149"
    },
    {
        "0": "95",
        "1": "JFK",
        "2": "1991",
        "3": "Oliver Stone",
        "4": "423"
    },
    {
        "0": "96",
        "1": "The Princess Bride",
        "2": "1987",
        "3": "Rob Reiner",
        "4": "132"
    },
    {
        "0": "97",
        "1": "Rocky",
        "2": "1976",
        "3": "John G. Avildsen",
        "4": "101"
    },
    {
        "0": "98",
        "1": "Butch Cassidy and the Sundance Kid",
        "2": "1969",
        "3": "George Roy Hill",
        "4": "114"
    },
    {
        "0": "99",
        "1": "Midnight Cowboy",
        "2": "1969",
        "3": "John Schlesinger",
        "4": "142"
    },
    {
        "0": "100",
        "1": "The Big Lebowski",
        "2": "1998",
        "3": "Joel Coen",
        "4": "173"
    }
]