[
    {
        "0": "Nr.",
        "1": "Museum",
        "2": "Country",
        "3": "Score *"
    },
    {
        "0": "1",
        "1": "Museum of Modern Art (MoMA)",
        "2": "USA",
        "3": "11"
    },
    {
        "0": "2",
        "1": "Metropolitan Museum of Art",
        "2": "USA",
        "3": "14"
    },
    {
        "0": "3",
        "1": "Mus?e du Louvre",
        "2": "France",
        "3": "34"
    },
    {
        "0": "4",
        "1": "National Gallery of Art",
        "2": "USA",
        "3": "35"
    },
    {
        "0": "5",
        "1": "Victoria and Albert Museum",
        "2": "United Kingdom",
        "3": "37"
    },
    {
        "0": "6",
        "1": "J. Paul Getty Museum",
        "2": "USA",
        "3": "40"
    },
    {
        "0": "7",
        "1": "Deutsches Historisches Museum",
        "2": "Germany",
        "3": "50"
    },
    {
        "0": "8",
        "1": "Los Angeles County Museum of Art (LACMA)",
        "2": "USA",
        "3": "51"
    },
    {
        "0": "9",
        "1": "State Hermitage Museum",
        "2": "Russia",
        "3": "53"
    },
    {
        "0": "10",
        "1": "Brooklyn Museum of Art",
        "2": "USA",
        "3": "58"
    },
    {
        "0": "11",
        "1": "National Maritime Museum",
        "2": "United Kingdom",
        "3": "59"
    },
    {
        "0": "12",
        "1": "Museum of Fine Arts (MFA)",
        "2": "USA",
        "3": "61"
    },
    {
        "0": "13",
        "1": "National Gallery",
        "2": "United Kingdom",
        "3": "67"
    },
    {
        "0": "14",
        "1": "Rijksmuseum",
        "2": "Netherlands",
        "3": "69"
    },
    {
        "0": "15",
        "1": "Museo Nacional del Prado",
        "2": "Spain",
        "3": "72"
    },
    {
        "0": "16",
        "1": "Royal Academy of Arts",
        "2": "United Kingdom",
        "3": "74"
    },
    {
        "0": "17",
        "1": "Tate Britain",
        "2": "United Kingdom",
        "3": "76"
    },
    {
        "0": "18",
        "1": "Museum of New Zealand Te Papa Tongarewa",
        "2": "New Zealand",
        "3": "83"
    },
    {
        "0": "19",
        "1": "Philadelphia Museum of Art",
        "2": "USA",
        "3": "87"
    },
    {
        "0": "20",
        "1": "Minneapolis Institute of Arts",
        "2": "USA",
        "3": "88"
    },
    {
        "0": "21",
        "1": "Indianapolis Museum of Art",
        "2": "USA",
        "3": "89"
    },
    {
        "0": "22",
        "1": "Ashmolean Museum",
        "2": "United Kingdom",
        "3": "94"
    },
    {
        "0": "23",
        "1": "Detroit Institute of Arts (DIA)",
        "2": "USA",
        "3": "108"
    },
    {
        "0": "24",
        "1": "Museo Thyssen-Bornemisza",
        "2": "Spain",
        "3": "111"
    },
    {
        "0": "25",
        "1": "Seattle Art Museum",
        "2": "USA",
        "3": "114"
    },
    {
        "0": "26",
        "1": "Saint Louis Art Museum (SLAM)",
        "2": "USA",
        "3": "123"
    },
    {
        "0": "27",
        "1": "Art Gallery of Ontario (AGO)",
        "2": "Canada",
        "3": "133"
    },
    {
        "0": "28",
        "1": "Manchester Art Gallery",
        "2": "United Kingdom",
        "3": "141"
    },
    {
        "0": "29",
        "1": "Corcoran Gallery of Art",
        "2": "USA",
        "3": "141"
    },
    {
        "0": "30",
        "1": "National Gallery of Scotland /National Portrait Gallery",
        "2": "United Kingdom",
        "3": "145"
    },
    {
        "0": "31",
        "1": "Royal Collection",
        "2": "United Kingdom",
        "3": "149"
    },
    {
        "0": "32",
        "1": "National Museum of Western Art",
        "2": "Japan",
        "3": "150"
    },
    {
        "0": "33",
        "1": "High Museum of Art",
        "2": "USA",
        "3": "156"
    },
    {
        "0": "34",
        "1": "Jewish Museum",
        "2": "USA",
        "3": "161"
    },
    {
        "0": "35",
        "1": "Norton Simon Museum",
        "2": "USA",
        "3": "165"
    },
    {
        "0": "36",
        "1": "Kunsthistorisches Museum (KHM)",
        "2": "Austria",
        "3": "168"
    },
    {
        "0": "37",
        "1": "Frick Collection",
        "2": "USA",
        "3": "168"
    },
    {
        "0": "38",
        "1": "Isabella Stewart Gardner Museum",
        "2": "USA",
        "3": "175"
    },
    {
        "0": "39",
        "1": "Museum of Fine Arts, Houston",
        "2": "USA",
        "3": "178"
    },
    {
        "0": "40",
        "1": "Denver Art Museum",
        "2": "USA",
        "3": "183"
    },
    {
        "0": "41",
        "1": "National Museum of Wales",
        "2": "United Kingdom",
        "3": "184"
    },
    {
        "0": "42",
        "1": "Palacio Real",
        "2": "Spain",
        "3": "186"
    },
    {
        "0": "43",
        "1": "Sinebrychoffin Taidemuseo",
        "2": "Finland",
        "3": "187"
    },
    {
        "0": "44",
        "1": "Patrimonio Nacional",
        "2": "Spain",
        "3": "189"
    },
    {
        "0": "45",
        "1": "Wallace Collection",
        "2": "United Kingdom",
        "3": "190"
    },
    {
        "0": "46",
        "1": "Statens Museum for Kunst",
        "2": "Denmark",
        "3": "194"
    },
    {
        "0": "47",
        "1": "Muzeum Ksiazat Lubomirskich",
        "2": "Poland",
        "3": "197"
    },
    {
        "0": "48",
        "1": "Milwaukee Art Museum",
        "2": "USA",
        "3": "203"
    },
    {
        "0": "49",
        "1": "Walters Art Museum",
        "2": "USA",
        "3": "209"
    },
    {
        "0": "50",
        "1": "Carnegie Museum of Art",
        "2": "USA",
        "3": "218"
    },
    {
        "0": "51",
        "1": "Worcester Art Museum",
        "2": "USA",
        "3": "225"
    },
    {
        "0": "52",
        "1": "St?del Museum",
        "2": "Germany",
        "3": "227"
    },
    {
        "0": "53",
        "1": "Cleveland Museum of Art",
        "2": "USA",
        "3": "234"
    },
    {
        "0": "54",
        "1": "Hamburger Kunsthalle",
        "2": "Germany",
        "3": "237"
    },
    {
        "0": "55",
        "1": "Klassik Stiftung Weimar",
        "2": "Germany",
        "3": "244"
    },
    {
        "0": "56",
        "1": "Portland Art Museum",
        "2": "USA",
        "3": "249"
    },
    {
        "0": "57",
        "1": "Nelson-Atkins Museum of Art",
        "2": "USA",
        "3": "253"
    },
    {
        "0": "58",
        "1": "Albright-Knox Art Gallery",
        "2": "USA",
        "3": "254"
    },
    {
        "0": "59",
        "1": "Landesmuseum f?r Kunst und Kulturgeschichte",
        "2": "Germany",
        "3": "255"
    },
    {
        "0": "60",
        "1": "Museum Boijmans Van Beuningen",
        "2": "Netherlands",
        "3": "255"
    },
    {
        "0": "61",
        "1": "Phoenix Art Museum",
        "2": "USA",
        "3": "256"
    },
    {
        "0": "62",
        "1": "Schloss Sanssouci",
        "2": "Germany",
        "3": "257"
    },
    {
        "0": "63",
        "1": "National Gallery of Canada",
        "2": "Canada",
        "3": "261"
    },
    {
        "0": "64",
        "1": "Gem?ldegalerie, Staatliche Museen zu Berlin",
        "2": "Germany",
        "3": "265"
    },
    {
        "0": "65",
        "1": "North Carolina Museum of Art",
        "2": "USA",
        "3": "265"
    },
    {
        "0": "66",
        "1": "John and Mable Ringling Museum of Art",
        "2": "USA",
        "3": "270"
    },
    {
        "0": "67",
        "1": "Kunst- und Ausstellungshalle der Bundesrepublik Deutschland",
        "2": "Germany",
        "3": "270"
    },
    {
        "0": "68",
        "1": "Dallas Museum of Art",
        "2": "USA",
        "3": "272"
    },
    {
        "0": "69",
        "1": "Germanisches Nationalmuseum",
        "2": "Germany",
        "3": "274"
    },
    {
        "0": "70",
        "1": "Sz?pm?v?szeti M?zeum",
        "2": "Hungary",
        "3": "277"
    },
    {
        "0": "71",
        "1": "Landesmuseum Joanneum - Alte Galerie",
        "2": "Austria",
        "3": "286"
    },
    {
        "0": "72",
        "1": "Mus?e Jacquemart-Andr?",
        "2": "France",
        "3": "289"
    },
    {
        "0": "73",
        "1": "Koninklijke Musea voor Schone Kunsten van Belgi?",
        "2": "Belgium",
        "3": "290"
    },
    {
        "0": "74",
        "1": "British Museum",
        "2": "United Kingdom",
        "3": "292"
    },
    {
        "0": "75",
        "1": "Mus?e National d'Histoire et d'Art",
        "2": "Luxembourg",
        "3": "292"
    },
    {
        "0": "76",
        "1": "Van Gogh Museum",
        "2": "Netherlands",
        "3": "293"
    },
    {
        "0": "77",
        "1": "City Museums and Art Gallery",
        "2": "United Kingdom",
        "3": "293"
    },
    {
        "0": "78",
        "1": "G?teborgs Konstmuseum",
        "2": "Sweden",
        "3": "293"
    },
    {
        "0": "79",
        "1": "Chatsworth House",
        "2": "United Kingdom",
        "3": "294"
    },
    {
        "0": "80",
        "1": "Peter the Great Museum of Anthropology and Ethnography",
        "2": "Russia",
        "3": "295"
    },
    {
        "0": "81",
        "1": "Sterling and Francine Clark Art Institute",
        "2": "USA",
        "3": "309"
    },
    {
        "0": "82",
        "1": "Kunstareal Munchen",
        "2": "Germany",
        "3": "316"
    },
    {
        "0": "83",
        "1": "Kr?ller-M?ller Museum",
        "2": "Netherlands",
        "3": "316"
    },
    {
        "0": "84",
        "1": "Slovensk? N?rodn? Gal?ria",
        "2": "Slovak Republic",
        "3": "316"
    },
    {
        "0": "85",
        "1": "Museum Gustavianum Uppsala",
        "2": "Sweden",
        "3": "317"
    },
    {
        "0": "86",
        "1": "Toledo Museum of Art",
        "2": "USA",
        "3": "319"
    },
    {
        "0": "87",
        "1": "San Diego Museum of Art",
        "2": "USA",
        "3": "319"
    },
    {
        "0": "88",
        "1": "Mauritshuis",
        "2": "Netherlands",
        "3": "320"
    },
    {
        "0": "89",
        "1": "Museum der bildenden K?nste Leipzig",
        "2": "Germany",
        "3": "325"
    },
    {
        "0": "90",
        "1": "Kunsthaus Z?rich",
        "2": "Switzerland",
        "3": "329"
    },
    {
        "0": "91",
        "1": "Pushkin State Museum of Fine Arts",
        "2": "Russia",
        "3": "330"
    },
    {
        "0": "92",
        "1": "Museo Nacional de Bellas Artes",
        "2": "Argentina",
        "3": "330"
    },
    {
        "0": "93",
        "1": "Joods Historisch Museum",
        "2": "Netherlands",
        "3": "333"
    },
    {
        "0": "94",
        "1": "Van Abbemuseum",
        "2": "Netherlands",
        "3": "336"
    },
    {
        "0": "95",
        "1": "Erfgoedcentrum DiEP",
        "2": "Netherlands",
        "3": "339"
    },
    {
        "0": "96",
        "1": "N?rodn? galerie v Praze",
        "2": "Czech Republic",
        "3": "340"
    },
    {
        "0": "97",
        "1": "Amsterdams Historisch Museum (AHM)",
        "2": "Netherlands",
        "3": "344"
    },
    {
        "0": "98",
        "1": "New Orleans Museum of Art (NOMA)",
        "2": "USA",
        "3": "347"
    },
    {
        "0": "99",
        "1": "Staatsgalerie Stuttgart",
        "2": "Germany",
        "3": "347"
    },
    {
        "0": "100",
        "1": "Ackland Art Museum",
        "2": "USA",
        "3": "352"
    },
    {
        "0": "101",
        "1": "Chrysler Museum of Art",
        "2": "USA",
        "3": "354"
    },
    {
        "0": "102",
        "1": "Blanton Museum of Art",
        "2": "USA",
        "3": "356"
    },
    {
        "0": "103",
        "1": "Museo Nacional de Bellas Artes de Cuba",
        "2": "Cuba",
        "3": "357"
    },
    {
        "0": "104",
        "1": "Mus?e des Beaux-Arts de Lyon",
        "2": "France",
        "3": "358"
    },
    {
        "0": "105",
        "1": "Auckland Art Gallery Toi o T??maki",
        "2": "New Zealand",
        "3": "359"
    },
    {
        "0": "106",
        "1": "Muzeum Narodowe w Warszawie",
        "2": "Poland",
        "3": "359"
    },
    {
        "0": "107",
        "1": "Galleria Borghese",
        "2": "Italy",
        "3": "366"
    },
    {
        "0": "108",
        "1": "Kunstmuseum Liechtenstein",
        "2": "Liechtenstein",
        "3": "368"
    },
    {
        "0": "109",
        "1": "Kunstmuseum Basel",
        "2": "Switzerland",
        "3": "378"
    },
    {
        "0": "110",
        "1": "Staatliche Kunstsammlungen Dresden",
        "2": "Germany",
        "3": "385"
    },
    {
        "0": "111",
        "1": "Centraal Museum",
        "2": "Netherlands",
        "3": "386"
    },
    {
        "0": "112",
        "1": "Mus?e des Beaux-Arts de Montr?al",
        "2": "Canada",
        "3": "392"
    },
    {
        "0": "113",
        "1": "Firenze Musei",
        "2": "Italy",
        "3": "398"
    },
    {
        "0": "114",
        "1": "Mus?e d'Art et d'Histoire",
        "2": "Switzerland",
        "3": "402"
    },
    {
        "0": "115",
        "1": "Israel Museum",
        "2": "Israel",
        "3": "403"
    },
    {
        "0": "116",
        "1": "Von der Heydt-Museum",
        "2": "Germany",
        "3": "404"
    },
    {
        "0": "117",
        "1": "Ober?sterreichisches Landesmuseum",
        "2": "Austria",
        "3": "407"
    },
    {
        "0": "118",
        "1": "Liechtenstein Museum",
        "2": "Austria",
        "3": "407"
    },
    {
        "0": "119",
        "1": "Williams College Museum of Art",
        "2": "USA",
        "3": "407"
    },
    {
        "0": "120",
        "1": "Baltimore Museum of Art",
        "2": "USA",
        "3": "408"
    },
    {
        "0": "121",
        "1": "National Museum of Fine Arts",
        "2": "Malta",
        "3": "411"
    },
    {
        "0": "122",
        "1": "Dayton Art Institute",
        "2": "USA",
        "3": "412"
    },
    {
        "0": "123",
        "1": "Museu de Arte",
        "2": "Brazil",
        "3": "412"
    },
    {
        "0": "124",
        "1": "Crocker Art Museum",
        "2": "USA",
        "3": "414"
    },
    {
        "0": "125",
        "1": "National Gallery of Ireland",
        "2": "Ireland",
        "3": "417"
    },
    {
        "0": "126",
        "1": "Wadsworth Atheneum Museum of Art",
        "2": "USA",
        "3": "418"
    },
    {
        "0": "127",
        "1": "Museo Nacional de Escultura",
        "2": "Spain",
        "3": "419"
    },
    {
        "0": "128",
        "1": "Bilboko Arte Eder Museoa",
        "2": "Spain",
        "3": "420"
    },
    {
        "0": "129",
        "1": "Stedelijk Museum",
        "2": "Netherlands",
        "3": "432"
    },
    {
        "0": "130",
        "1": "Palazzo Strozzi",
        "2": "Italy",
        "3": "433"
    },
    {
        "0": "131",
        "1": "Kulturgeschichtliches Museum",
        "2": "Germany",
        "3": "440"
    },
    {
        "0": "132",
        "1": "Sprengel Museum",
        "2": "Germany",
        "3": "441"
    },
    {
        "0": "133",
        "1": "Groninger Museum",
        "2": "Netherlands",
        "3": "443"
    },
    {
        "0": "134",
        "1": "Museum Het Valkhof",
        "2": "Netherlands",
        "3": "450"
    },
    {
        "0": "135",
        "1": "Barnes Foundation",
        "2": "USA",
        "3": "451"
    },
    {
        "0": "136",
        "1": "Dulwich Picture Gallery",
        "2": "United Kingdom",
        "3": "451"
    },
    {
        "0": "137",
        "1": "Koninklijk Instituut voor het Kunstpatrimonium (KIK)",
        "2": "Belgium",
        "3": "454"
    },
    {
        "0": "138",
        "1": "Staatliches Museum Schwerin",
        "2": "Germany",
        "3": "455"
    },
    {
        "0": "139",
        "1": "Speed Art Museum",
        "2": "USA",
        "3": "457"
    },
    {
        "0": "140",
        "1": "Nationalmuseum",
        "2": "Sweden",
        "3": "459"
    },
    {
        "0": "141",
        "1": "Moravsk? Galerie",
        "2": "Czech Republic",
        "3": "460"
    },
    {
        "0": "142",
        "1": "Noordbrabants Museum",
        "2": "Netherlands",
        "3": "462"
    },
    {
        "0": "143",
        "1": "Kunsthalle Bremen",
        "2": "Germany",
        "3": "463"
    },
    {
        "0": "144",
        "1": "Maritiem Museum Rotterdam",
        "2": "Netherlands",
        "3": "465"
    },
    {
        "0": "145",
        "1": "Stedelijk Museum De Lakenhal",
        "2": "Netherlands",
        "3": "469"
    },
    {
        "0": "146",
        "1": "Museum Boerhaave",
        "2": "Netherlands",
        "3": "472"
    },
    {
        "0": "147",
        "1": "Currier Museum of Art",
        "2": "USA",
        "3": "474"
    },
    {
        "0": "148",
        "1": "Historisches Museum Frankfurt am Main",
        "2": "Germany",
        "3": "477"
    },
    {
        "0": "149",
        "1": "Birmingham Museum of Art",
        "2": "USA",
        "3": "478"
    },
    {
        "0": "150",
        "1": "Muzeul Na??ional de Arta al Rom?niei",
        "2": "Romania",
        "3": "478"
    },
    {
        "0": "151",
        "1": "Zamek Kr?lewski na Wawelu",
        "2": "Poland",
        "3": "479"
    },
    {
        "0": "152",
        "1": "Museum Meermanno",
        "2": "Netherlands",
        "3": "480"
    },
    {
        "0": "153",
        "1": "Zuiderzeemuseum",
        "2": "Netherlands",
        "3": "485"
    },
    {
        "0": "154",
        "1": "Nederlands Scheepvaartmuseum Amsterdam",
        "2": "Netherlands",
        "3": "489"
    },
    {
        "0": "155",
        "1": "Bonnefantenmuseum",
        "2": "Netherlands",
        "3": "489"
    },
    {
        "0": "156",
        "1": "Cincinnati Art Museum",
        "2": "USA",
        "3": "489"
    },
    {
        "0": "157",
        "1": "Fries Museum",
        "2": "Netherlands",
        "3": "490"
    },
    {
        "0": "158",
        "1": "Tel Aviv Museum of Art",
        "2": "Israel",
        "3": "494"
    },
    {
        "0": "159",
        "1": "Museum Kunst Palast",
        "2": "Germany",
        "3": "500"
    },
    {
        "0": "160",
        "1": "Staatliche Kunsthalle",
        "2": "Germany",
        "3": "502"
    },
    {
        "0": "161",
        "1": "Albertina",
        "2": "Austria",
        "3": "503"
    },
    {
        "0": "162",
        "1": "Muzeum-Pa??ac w Wilan?wie",
        "2": "Poland",
        "3": "503"
    },
    {
        "0": "163",
        "1": "Norton Museum of Art",
        "2": "USA",
        "3": "505"
    },
    {
        "0": "164",
        "1": "Fundaci?n Carlos de Amberes",
        "2": "Spain",
        "3": "506"
    },
    {
        "0": "165",
        "1": "Museo L?zaro Galdiano",
        "2": "Spain",
        "3": "508"
    },
    {
        "0": "166",
        "1": "Kunsthalle der Hypo-Kulturstiftung",
        "2": "Germany",
        "3": "511"
    },
    {
        "0": "167",
        "1": "Museum of Art, Rhode Island School of Design",
        "2": "USA",
        "3": "516"
    },
    {
        "0": "168",
        "1": "Museum Catharijneconvent",
        "2": "Netherlands",
        "3": "528"
    },
    {
        "0": "169",
        "1": "Courtauld Institute of Art Gallery",
        "2": "United Kingdom",
        "3": "529"
    },
    {
        "0": "170",
        "1": "Galerij Prins Willem V",
        "2": "Netherlands",
        "3": "531"
    },
    {
        "0": "171",
        "1": "Geldmuseum Utrecht",
        "2": "Netherlands",
        "3": "532"
    },
    {
        "0": "172",
        "1": "Schleswig-Holsteinisches Landesmuseum Schloss Gottorf",
        "2": "Germany",
        "3": "532"
    },
    {
        "0": "173",
        "1": "Koninklijke Musea voor Kunst en Geschiedenis",
        "2": "Belgium",
        "3": "534"
    },
    {
        "0": "174",
        "1": "Vlaamse Kunstcollectie",
        "2": "Belgium",
        "3": "535"
    },
    {
        "0": "175",
        "1": "Historisch Museum Deventer",
        "2": "Netherlands",
        "3": "541"
    },
    {
        "0": "176",
        "1": "Peterhof Palace National Museum",
        "2": "Russia",
        "3": "553"
    },
    {
        "0": "177",
        "1": "Bowes Museum",
        "2": "United Kingdom",
        "3": "556"
    },
    {
        "0": "178",
        "1": "Dordrechts Museum",
        "2": "Netherlands",
        "3": "557"
    },
    {
        "0": "179",
        "1": "Martin-von-Wagner-Museum",
        "2": "Germany",
        "3": "557"
    },
    {
        "0": "180",
        "1": "Barber Institute of Fine Arts",
        "2": "United Kingdom",
        "3": "558"
    },
    {
        "0": "181",
        "1": "Teylers Museum",
        "2": "Netherlands",
        "3": "562"
    },
    {
        "0": "182",
        "1": "Mus?e des Augustins",
        "2": "France",
        "3": "565"
    },
    {
        "0": "183",
        "1": "Koninklijk Museum voor Schone Kunsten (KMSKA)",
        "2": "Belgium",
        "3": "568"
    },
    {
        "0": "184",
        "1": "Mus?e Cond?",
        "2": "France",
        "3": "569"
    },
    {
        "0": "185",
        "1": "Muzeul Na??ional Brukenthal",
        "2": "Romania",
        "3": "575"
    },
    {
        "0": "186",
        "1": "Museo Franz Mayer",
        "2": "Mexico",
        "3": "577"
    },
    {
        "0": "187",
        "1": "Bass Museum of Art",
        "2": "USA",
        "3": "580"
    },
    {
        "0": "188",
        "1": "Museo Poldi Pezzoli",
        "2": "Italy",
        "3": "583"
    },
    {
        "0": "189",
        "1": "Muzeum Narodowe w Krakowie",
        "2": "Poland",
        "3": "585"
    },
    {
        "0": "190",
        "1": "Cobra Museum voor Moderne Kunst",
        "2": "Netherlands",
        "3": "586"
    },
    {
        "0": "191",
        "1": "Nasjonalmuseet for Kunst, Arkitektur og Design",
        "2": "Norway",
        "3": "586"
    },
    {
        "0": "192",
        "1": "National Portrait Gallery",
        "2": "United Kingdom",
        "3": "587"
    },
    {
        "0": "193",
        "1": "Koninklijk Museum van het Leger en de Krijgsgeschiedenis",
        "2": "Belgium",
        "3": "588"
    },
    {
        "0": "194",
        "1": "Aachener Dom",
        "2": "Germany",
        "3": "592"
    },
    {
        "0": "195",
        "1": "Museo Nacional de Arte Decorativo",
        "2": "Argentina",
        "3": "593"
    },
    {
        "0": "196",
        "1": "Escher in het Paleis",
        "2": "Netherlands",
        "3": "595"
    },
    {
        "0": "197",
        "1": "Kenwood, The Iveagh Bequest",
        "2": "United Kingdom",
        "3": "598"
    },
    {
        "0": "198",
        "1": "Holland Museum",
        "2": "USA",
        "3": "607"
    },
    {
        "0": "199",
        "1": "Muzeum Narodowe w Poznaniu",
        "2": "Poland",
        "3": "608"
    },
    {
        "0": "200",
        "1": "Bergen Kunstmuseum",
        "2": "Norway",
        "3": "612"
    },
    {
        "0": "201",
        "1": "Castello del Buonconsiglio",
        "2": "Italy",
        "3": "613"
    },
    {
        "0": "202",
        "1": "Pavlovsk Palace",
        "2": "Russia",
        "3": "614"
    },
    {
        "0": "203",
        "1": "Rosenborg Slot",
        "2": "Denmark",
        "3": "618"
    },
    {
        "0": "204",
        "1": "Museum of Fine Arts, St. Petersburg",
        "2": "USA",
        "3": "623"
    },
    {
        "0": "205",
        "1": "Museum voor Moderne Kunst Arnhem (MMKA)",
        "2": "Netherlands",
        "3": "623"
    },
    {
        "0": "206",
        "1": "Zamek Kr?lewski w Warszawie",
        "2": "Poland",
        "3": "623"
    },
    {
        "0": "207",
        "1": "Drents Museum",
        "2": "Netherlands",
        "3": "629"
    },
    {
        "0": "208",
        "1": "Palais des Beaux-Arts",
        "2": "France",
        "3": "636"
    },
    {
        "0": "209",
        "1": "Muzeum Narodowe we Wroc??awiu",
        "2": "Poland",
        "3": "638"
    },
    {
        "0": "210",
        "1": "Mus?e de Grenoble",
        "2": "France",
        "3": "640"
    },
    {
        "0": "211",
        "1": "Philbrook Museum of Art",
        "2": "USA",
        "3": "642"
    },
    {
        "0": "212",
        "1": "Gemeentemuseum Den Haag",
        "2": "Netherlands",
        "3": "644"
    },
    {
        "0": "213",
        "1": "Muzeum Historyczne Miasta Gda??ska",
        "2": "Poland",
        "3": "644"
    },
    {
        "0": "214",
        "1": "Mus?e des Beaux-Arts de Rennes",
        "2": "France",
        "3": "647"
    },
    {
        "0": "215",
        "1": "Museum & Gallery at Bob Jones University",
        "2": "USA",
        "3": "648"
    },
    {
        "0": "216",
        "1": "Frans Hals Museum",
        "2": "Netherlands",
        "3": "653"
    },
    {
        "0": "217",
        "1": "Cummer Museum of Art and Gardens",
        "2": "USA",
        "3": "654"
    },
    {
        "0": "218",
        "1": "Museum voor Schone Kunsten",
        "2": "Belgium",
        "3": "660"
    },
    {
        "0": "219",
        "1": "Muzeum um??n?",
        "2": "Czech Republic",
        "3": "662"
    },
    {
        "0": "220",
        "1": "Singer Museum",
        "2": "Netherlands",
        "3": "663"
    },
    {
        "0": "221",
        "1": "Museum het Rembrandthuis",
        "2": "Netherlands",
        "3": "666"
    },
    {
        "0": "222",
        "1": "Timken Museum of Art",
        "2": "USA",
        "3": "666"
    },
    {
        "0": "223",
        "1": "Kunsthalle T?bingen",
        "2": "Germany",
        "3": "672"
    },
    {
        "0": "224",
        "1": "Taft Museum of Art",
        "2": "USA",
        "3": "672"
    },
    {
        "0": "225",
        "1": "Det Nationalhistoriske Museum p? Frederiksborg Slot",
        "2": "Denmark",
        "3": "679"
    },
    {
        "0": "226",
        "1": "Cabinet des Estampes et des Dessins de la Ville de Li?ge",
        "2": "Belgium",
        "3": "680"
    },
    {
        "0": "227",
        "1": "Mus?e National des Beaux-Arts du Qu?bec",
        "2": "Canada",
        "3": "684"
    },
    {
        "0": "228",
        "1": "Muzej za umjetnost i obrt",
        "2": "Croatia",
        "3": "685"
    },
    {
        "0": "229",
        "1": "Tatton Park, National Trust",
        "2": "United Kingdom",
        "3": "685"
    },
    {
        "0": "230",
        "1": "Residenzgalerie",
        "2": "Austria",
        "3": "689"
    },
    {
        "0": "231",
        "1": "Allard Pierson Museum",
        "2": "Netherlands",
        "3": "690"
    },
    {
        "0": "232",
        "1": "Herzog Anton Ulrich-Museum",
        "2": "Germany",
        "3": "695"
    },
    {
        "0": "233",
        "1": "Latvian Academy of Arts",
        "2": "Latvia",
        "3": "700"
    },
    {
        "0": "234",
        "1": "Allentown Art Museum",
        "2": "USA",
        "3": "708"
    },
    {
        "0": "235",
        "1": "Stedelijk Museum Schiedam",
        "2": "Netherlands",
        "3": "711"
    },
    {
        "0": "236",
        "1": "Zeeuws Museum",
        "2": "Netherlands",
        "3": "716"
    },
    {
        "0": "237",
        "1": "Winnipeg Art Gallery",
        "2": "Canada",
        "3": "727"
    },
    {
        "0": "238",
        "1": "Museum Schloss Wilhelmsh?he",
        "2": "Germany",
        "3": "729"
    },
    {
        "0": "239",
        "1": "Tiroler Landesmuseum Ferdinandeum",
        "2": "Austria",
        "3": "729"
    },
    {
        "0": "240",
        "1": "Museum Bredius",
        "2": "Netherlands",
        "3": "731"
    },
    {
        "0": "241",
        "1": "Ostfriesisches Landesmuseum Emden",
        "2": "Germany",
        "3": "735"
    },
    {
        "0": "242",
        "1": "Gal?ria Mesta Bratislavy",
        "2": "Slovak Republic",
        "3": "736"
    },
    {
        "0": "243",
        "1": "Zeeuws Maritiem MuZEEum",
        "2": "Netherlands",
        "3": "740"
    },
    {
        "0": "244",
        "1": "Slezsk? zemsk? muzeum",
        "2": "Czech Republic",
        "3": "745"
    },
    {
        "0": "245",
        "1": "Muzej Mimara",
        "2": "Croatia",
        "3": "746"
    },
    {
        "0": "246",
        "1": "Keramiekmuseum Princessehof",
        "2": "Netherlands",
        "3": "749"
    },
    {
        "0": "247",
        "1": "museumgoudA / Het Catharina Gasthuis",
        "2": "Netherlands",
        "3": "749"
    },
    {
        "0": "248",
        "1": "Institut National du Patrimoine",
        "2": "France",
        "3": "750"
    },
    {
        "0": "249",
        "1": "Hrvatska Akademija Znanostii Umjetnosti: Kabinet Grafike",
        "2": "Croatia",
        "3": "750"
    },
    {
        "0": "250",
        "1": "Chhatrapati Shivaji Maharaj Vastu Sangrahalaya",
        "2": "India",
        "3": "754"
    },
    {
        "0": "251",
        "1": "Galleria Doria Pamphilj",
        "2": "Italy",
        "3": "759"
    },
    {
        "0": "252",
        "1": "Stedelijk Museum Roermond",
        "2": "Netherlands",
        "3": "759"
    },
    {
        "0": "253",
        "1": "Muzeum Sztuki w ??odzi",
        "2": "Poland",
        "3": "760"
    },
    {
        "0": "254",
        "1": "Mus?e des Beaux-Arts de Strasbourg",
        "2": "France",
        "3": "760"
    },
    {
        "0": "255",
        "1": "Nordico - Museum der Stadt Linz",
        "2": "Austria",
        "3": "761"
    },
    {
        "0": "256",
        "1": "Museum Leuven",
        "2": "Belgium",
        "3": "762"
    },
    {
        "0": "257",
        "1": "Muzeum Zamek w ??a??cucie",
        "2": "Poland",
        "3": "763"
    },
    {
        "0": "258",
        "1": "Bayerisches Nationalmuseum",
        "2": "Germany",
        "3": "764"
    },
    {
        "0": "259",
        "1": "Historisch Museum Rotterdam",
        "2": "Netherlands",
        "3": "765"
    },
    {
        "0": "260",
        "1": "Muzeum w Nieborowie i Arkadii",
        "2": "Poland",
        "3": "767"
    },
    {
        "0": "261",
        "1": "Couven-Museum",
        "2": "Germany",
        "3": "768"
    },
    {
        "0": "262",
        "1": "National Art Museum of the Republic of Belarus",
        "2": "Belarus",
        "3": "774"
    },
    {
        "0": "263",
        "1": "Haus der Niederlande",
        "2": "Germany",
        "3": "775"
    },
    {
        "0": "264",
        "1": "Museum de Fundatie",
        "2": "Netherlands",
        "3": "778"
    },
    {
        "0": "265",
        "1": "Westfries Museum",
        "2": "Netherlands",
        "3": "779"
    },
    {
        "0": "266",
        "1": "Instituto Ricardo Brennand",
        "2": "Brazil",
        "3": "780"
    },
    {
        "0": "267",
        "1": "Mus?e Granet d'Aix-en-Provence",
        "2": "France",
        "3": "781"
    },
    {
        "0": "268",
        "1": "Museum Kranenburgh",
        "2": "Netherlands",
        "3": "782"
    },
    {
        "0": "269",
        "1": "Museu Nacional de Belas Artes",
        "2": "Brazil",
        "3": "784"
    },
    {
        "0": "270",
        "1": "York Art Gallery",
        "2": "United Kingdom",
        "3": "787"
    },
    {
        "0": "271",
        "1": "Museum Schloss B?ckeburg",
        "2": "Germany",
        "3": "789"
    },
    {
        "0": "272",
        "1": "Muzeum Narodowe w Szczecinie",
        "2": "Poland",
        "3": "791"
    },
    {
        "0": "273",
        "1": "New-York Historical Society",
        "2": "USA",
        "3": "794"
    },
    {
        "0": "274",
        "1": "Bijbels Museum",
        "2": "Netherlands",
        "3": "797"
    },
    {
        "0": "275",
        "1": "Museum Jan Cunen",
        "2": "Netherlands",
        "3": "798"
    },
    {
        "0": "276",
        "1": "Mus?e de l'Art Wallon",
        "2": "Belgium",
        "3": "807"
    },
    {
        "0": "277",
        "1": "Hyde Collection",
        "2": "USA",
        "3": "808"
    },
    {
        "0": "278",
        "1": "Gem?ldegalerie der Akademie der bildenden K?nste",
        "2": "Austria",
        "3": "813"
    },
    {
        "0": "279",
        "1": "Pretoria Art Museum",
        "2": "South Africa",
        "3": "814"
    },
    {
        "0": "280",
        "1": "Cheltenham Art Gallery and Museum",
        "2": "United Kingdom",
        "3": "815"
    },
    {
        "0": "281",
        "1": "Panorama Mesdag",
        "2": "Netherlands",
        "3": "821"
    },
    {
        "0": "282",
        "1": "Muzeum Czartoryskich",
        "2": "Poland",
        "3": "825"
    },
    {
        "0": "283",
        "1": "Oblastni Galerie",
        "2": "Czech Republic",
        "3": "830"
    },
    {
        "0": "284",
        "1": "Kunstverein Braunschweig",
        "2": "Germany",
        "3": "833"
    },
    {
        "0": "285",
        "1": "Landesmuseum Mainz",
        "2": "Germany",
        "3": "834"
    },
    {
        "0": "286",
        "1": "Rubenshuis, Musea Antwerpen",
        "2": "Belgium",
        "3": "835"
    },
    {
        "0": "287",
        "1": "National Gallery and Alexandros Soutzos Museum",
        "2": "Greece",
        "3": "836"
    },
    {
        "0": "288",
        "1": "Hessisches Landesmuseum",
        "2": "Germany",
        "3": "837"
    },
    {
        "0": "289",
        "1": "Onze-Lieve-Vrouwekathedraal Antwerpen",
        "2": "Belgium",
        "3": "837"
    },
    {
        "0": "290",
        "1": "Mus?e Fesch",
        "2": "France",
        "3": "839"
    },
    {
        "0": "291",
        "1": "Lviv Art Gallery",
        "2": "Ukraine",
        "3": "840"
    },
    {
        "0": "292",
        "1": "Historisch Museum De Bevelanden",
        "2": "Netherlands",
        "3": "844"
    },
    {
        "0": "293",
        "1": "Mus?e Jenisch",
        "2": "Switzerland",
        "3": "848"
    },
    {
        "0": "294",
        "1": "Strossmayerova galerija starih majstora",
        "2": "Croatia",
        "3": "848"
    },
    {
        "0": "295",
        "1": "Stedelijk Museum Het Prinsenhof",
        "2": "Netherlands",
        "3": "850"
    },
    {
        "0": "296",
        "1": "Museum Willet-Holthuysen",
        "2": "Netherlands",
        "3": "850"
    },
    {
        "0": "297",
        "1": "Haags Historisch Museum",
        "2": "Netherlands",
        "3": "854"
    },
    {
        "0": "298",
        "1": "Agnes Etherington Art Centre",
        "2": "Canada",
        "3": "855"
    },
    {
        "0": "299",
        "1": "Kimbell Art Museum",
        "2": "USA",
        "3": "856"
    },
    {
        "0": "300",
        "1": "Museum Kurhaus Kleve",
        "2": "Germany",
        "3": "860"
    },
    {
        "0": "301",
        "1": "La Cour d'Or-Mus?e de Metz",
        "2": "France",
        "3": "860"
    },
    {
        "0": "302",
        "1": "Collection Frits Lugt, Fondation Custodia",
        "2": "France",
        "3": "865"
    },
    {
        "0": "303",
        "1": "Stedelijk Museum Alkmaar",
        "2": "Netherlands",
        "3": "866"
    },
    {
        "0": "304",
        "1": "Schloss Friedenstein",
        "2": "Germany",
        "3": "866"
    },
    {
        "0": "305",
        "1": "Sammlung Oskar Reinhart ?Am R?merholz?",
        "2": "Switzerland",
        "3": "869"
    },
    {
        "0": "306",
        "1": "Mus?e des Beaux-Arts de Dijon",
        "2": "France",
        "3": "870"
    },
    {
        "0": "307",
        "1": "Karl Ernst Osthaus-Museum",
        "2": "Germany",
        "3": "871"
    },
    {
        "0": "308",
        "1": "Mittelrhein-Museum",
        "2": "Germany",
        "3": "877"
    },
    {
        "0": "309",
        "1": "Sammlung E.G. B?hrle",
        "2": "Switzerland",
        "3": "879"
    },
    {
        "0": "310",
        "1": "Schloss Rohrau - Graf Harrach'sche Familiensammlung",
        "2": "Austria",
        "3": "881"
    },
    {
        "0": "311",
        "1": "Mus?e du Ch?teau des Comtes de Marchin",
        "2": "Belgium",
        "3": "882"
    },
    {
        "0": "312",
        "1": "Mus?e National Magnin de Dijon",
        "2": "France",
        "3": "883"
    },
    {
        "0": "313",
        "1": "Al??ova jiho??esk? galerie",
        "2": "Czech Republic",
        "3": "884"
    },
    {
        "0": "314",
        "1": "Mus?e des Beaux-Arts de Charleroi",
        "2": "Belgium",
        "3": "885"
    },
    {
        "0": "315",
        "1": "Bonner Kunstverein",
        "2": "Germany",
        "3": "891"
    },
    {
        "0": "316",
        "1": "Muzeum Warmii i Mazur",
        "2": "Poland",
        "3": "898"
    },
    {
        "0": "317",
        "1": "Stedelijk Museum Zwolle",
        "2": "Netherlands",
        "3": "899"
    },
    {
        "0": "318",
        "1": "Kunstmuseum Winterthur",
        "2": "Switzerland",
        "3": "901"
    },
    {
        "0": "319",
        "1": "Meininger Museen",
        "2": "Germany",
        "3": "903"
    },
    {
        "0": "320",
        "1": "Schloss Weissenstein",
        "2": "Germany",
        "3": "903"
    },
    {
        "0": "321",
        "1": "Museo Municipal Qui?ones de Le?n",
        "2": "Spain",
        "3": "911"
    },
    {
        "0": "322",
        "1": "National History Museum of Latvia",
        "2": "Latvia",
        "3": "912"
    },
    {
        "0": "323",
        "1": "Museo de Arte de Ponce",
        "2": "Puerto Rico",
        "3": "913"
    },
    {
        "0": "324",
        "1": "Nationaal Glasmuseum Leerdam",
        "2": "Netherlands",
        "3": "913"
    },
    {
        "0": "325",
        "1": "Kasteel Huis Bergh",
        "2": "Netherlands",
        "3": "919"
    },
    {
        "0": "326",
        "1": "Muzeum Lubelskie",
        "2": "Poland",
        "3": "928"
    },
    {
        "0": "327",
        "1": "Muzeum ??azienki Kr?lewskie",
        "2": "Poland",
        "3": "930"
    },
    {
        "0": "328",
        "1": "Historisch Museum Arnhem",
        "2": "Netherlands",
        "3": "932"
    },
    {
        "0": "329",
        "1": "Breda's Museum",
        "2": "Netherlands",
        "3": "932"
    },
    {
        "0": "330",
        "1": "Sofia Art Gallery",
        "2": "Bulgaria",
        "3": "942"
    },
    {
        "0": "331",
        "1": "Museum Oskar Reinhardt am Stadtgarten",
        "2": "Switzerland",
        "3": "946"
    },
    {
        "0": "332",
        "1": "Mus?e des Beaux-Arts et d'Arch?ologie",
        "2": "France",
        "3": "946"
    },
    {
        "0": "333",
        "1": "Springfield Museum of Art",
        "2": "USA",
        "3": "948"
    },
    {
        "0": "334",
        "1": "B.C. Koekkoek-Haus",
        "2": "Germany",
        "3": "953"
    },
    {
        "0": "335",
        "1": "Museum Ons' Lieve Heer op Solder",
        "2": "Netherlands",
        "3": "955"
    },
    {
        "0": "336",
        "1": "Kunstmuseum St. Gallen",
        "2": "Switzerland",
        "3": "958"
    },
    {
        "0": "337",
        "1": "Mus?e Rupert de Chi?vres",
        "2": "France",
        "3": "959"
    },
    {
        "0": "338",
        "1": "Capilla Real de Granada",
        "2": "Spain",
        "3": "960"
    },
    {
        "0": "339",
        "1": "Rijksmuseum Twenthe",
        "2": "Netherlands",
        "3": "963"
    },
    {
        "0": "340",
        "1": "??rzemju m??kslas muzejs",
        "2": "Latvia",
        "3": "970"
    },
    {
        "0": "341",
        "1": "Kunstsammlungen der Veste Coburg",
        "2": "Germany",
        "3": "980"
    },
    {
        "0": "342",
        "1": "Museo Borgogna",
        "2": "Italy",
        "3": "980"
    },
    {
        "0": "343",
        "1": "Galleria Giorgio Franchetti alla Ca' d'Oro",
        "2": "Italy",
        "3": "985"
    },
    {
        "0": "344",
        "1": "Cobbe Collection",
        "2": "United Kingdom",
        "3": "985"
    },
    {
        "0": "345",
        "1": "St?dtisches Museum Schloss Rheydt",
        "2": "Germany",
        "3": "987"
    },
    {
        "0": "346",
        "1": "Museum Mesdag",
        "2": "Netherlands",
        "3": "991"
    },
    {
        "0": "347",
        "1": "Simon van Gijn - museum aan huis",
        "2": "Netherlands",
        "3": "992"
    },
    {
        "0": "348",
        "1": "Mus?e Calvet",
        "2": "France",
        "3": "993"
    },
    {
        "0": "349",
        "1": "Figge Art Museum",
        "2": "USA",
        "3": "1004"
    },
    {
        "0": "350",
        "1": "Rubenianum",
        "2": "Belgium",
        "3": "1004"
    },
    {
        "0": "351",
        "1": "Kereszt?ny M?zeum",
        "2": "Hungary",
        "3": "1006"
    },
    {
        "0": "352",
        "1": "Marie Tak van Poortvliet Museum",
        "2": "Netherlands",
        "3": "1012"
    },
    {
        "0": "353",
        "1": "G?sta Serlachius Museum of Fine Arts",
        "2": "Finland",
        "3": "1015"
    },
    {
        "0": "354",
        "1": "Rockoxhuis",
        "2": "Belgium",
        "3": "1022"
    },
    {
        "0": "355",
        "1": "Obraz?rna Prazsk?ho hradu, Prazsk?? hrad",
        "2": "Czech Republic",
        "3": "1022"
    },
    {
        "0": "356",
        "1": "Museum aan het Vrijthof",
        "2": "Netherlands",
        "3": "1023"
    },
    {
        "0": "357",
        "1": "William Humphreys Art Gallery",
        "2": "South Africa",
        "3": "1025"
    },
    {
        "0": "358",
        "1": "Muzeul de Art?? Timi??oara",
        "2": "Romania",
        "3": "1025"
    },
    {
        "0": "359",
        "1": "Museum Briner und Kern",
        "2": "Switzerland",
        "3": "1029"
    },
    {
        "0": "360",
        "1": "National Gallery for Foreign Art",
        "2": "Bulgaria",
        "3": "1033"
    },
    {
        "0": "361",
        "1": "Stedelijk Museum Zutphen",
        "2": "Netherlands",
        "3": "1035"
    },
    {
        "0": "362",
        "1": "Zilvermuseum Sterckshof Provincie Antwerpen",
        "2": "Belgium",
        "3": "1050"
    },
    {
        "0": "363",
        "1": "Kunsthaus Heylshof",
        "2": "Germany",
        "3": "1051"
    },
    {
        "0": "364",
        "1": "Galleria Nazionale di Palazzo Spinola",
        "2": "Italy",
        "3": "1053"
    },
    {
        "0": "365",
        "1": "Museum Schloss Ehrenburg",
        "2": "Germany",
        "3": "1063"
    },
    {
        "0": "366",
        "1": "Staatliche Graphische Sammlung M?nchen",
        "2": "Germany",
        "3": "1064"
    },
    {
        "0": "367",
        "1": "Nederlands Tegelmuseum",
        "2": "Netherlands",
        "3": "1066"
    },
    {
        "0": "368",
        "1": "Museo di Palazzo Ducale",
        "2": "Italy",
        "3": "1067"
    },
    {
        "0": "369",
        "1": "Nivaagaards Malerisamling",
        "2": "Denmark",
        "3": "1069"
    },
    {
        "0": "370",
        "1": "Villa Vauban - Mus?e d'Art de la Ville de Luxembourg",
        "2": "Luxembourg",
        "3": "1073"
    },
    {
        "0": "371",
        "1": "Kasteel van Loppem",
        "2": "Belgium",
        "3": "1076"
    },
    {
        "0": "372",
        "1": "Anhaltische Gem?ldegalerie",
        "2": "Germany",
        "3": "1077"
    },
    {
        "0": "373",
        "1": "Broelmuseum",
        "2": "Belgium",
        "3": "1095"
    },
    {
        "0": "374",
        "1": "Atlas van Stolk",
        "2": "Netherlands",
        "3": "1105"
    },
    {
        "0": "375",
        "1": "Ottema-Kingma Stichting",
        "2": "Netherlands",
        "3": "1111"
    },
    {
        "0": "376",
        "1": "Museo Nacional de Bellas Artes de Neuqu?n (MNBA Neuqu?n)",
        "2": "Argentina",
        "3": "1130"
    },
    {
        "0": "377",
        "1": "Keizerskapel",
        "2": "Belgium",
        "3": "1144"
    }
]