[
    {
        "0": "Estado partido",
        "1": "Local",
        "2": "vs.",
        "3": "Visitante",
        "4": "Resultado"
    },
    {
        "0": "Ir a narracion",
        "1": "Saint-Etienne",
        "2": "-",
        "3": "Guingamp",
        "4": "2 1"
    },
    {
        "0": "Ir a narracion",
        "1": "Toulouse",
        "2": "-",
        "3": "Niza",
        "4": "2 3"
    },
    {
        "0": "Ir a narracion",
        "1": "Lorient",
        "2": "-",
        "3": "Monaco",
        "4": "0 1"
    },
    {
        "0": "Ir a narracion",
        "1": "Caen",
        "2": "-",
        "3": "Evian",
        "4": "3 2"
    },
    {
        "0": "Ir a narracion",
        "1": "Rennes",
        "2": "-",
        "3": "O. Lyon",
        "4": "0 1"
    },
    {
        "0": "Ir a narracion",
        "1": "PSG",
        "2": "-",
        "3": "Stade de Reims",
        "4": "3 2"
    },
    {
        "0": "Ir a narracion",
        "1": "Lens",
        "2": "-",
        "3": "Nantes",
        "4": "1 0"
    },
    {
        "0": "Ir a narracion",
        "1": "O. Marsella",
        "2": "-",
        "3": "Bastia",
        "4": "3 0"
    },
    {
        "0": "Ir a narracion",
        "1": "Metz",
        "2": "-",
        "3": "Lille",
        "4": "1 4"
    },
    {
        "0": "Ir a narracion",
        "1": "Girondins de Burdeos",
        "2": "-",
        "3": "Montpellier",
        "4": "2 1"
    }
]