[
    {
        "0": "QTY",
        "1": "DISCOUNT"
    },
    {
        "0": "1-9",
        "1": "$3.00"
    },
    {
        "0": "10-99",
        "1": "$2.70"
    },
    {
        "0": "100+",
        "1": "$2.40"
    }
]