[
    {
        "0": "1",
        "1": "Death toll rises to 43 in China highway explosion"
    },
    {
        "0": "",
        "1": ""
    },
    {
        "0": "2",
        "1": "18 killed in series of car bomb attacks in Baghdad"
    },
    {
        "0": "",
        "1": ""
    },
    {
        "0": "3",
        "1": "Gunmen kill 21 soldiers in Egypt desert"
    },
    {
        "0": "",
        "1": ""
    },
    {
        "0": "4",
        "1": "Rammasun incurs huge economic losses in China"
    },
    {
        "0": "",
        "1": ""
    },
    {
        "0": "5",
        "1": "China's Sany ready to act on U.S. gov't move"
    }
]