[
    {
        "0": "Passenger Capacity",
        "1": "6",
        "2": "5",
        "3": "7"
    },
    {
        "0": "Passenger Volume (cu. ft.)",
        "1": "146.9",
        "2": "139.7",
        "3": "141.8"
    },
    {
        "0": "Front Head Room (in)",
        "1": "39.8",
        "2": "39.0",
        "3": "39.2"
    },
    {
        "0": "Front Leg Room (in)",
        "1": "39.8",
        "2": "43.1",
        "3": "41.2"
    },
    {
        "0": "Front Shoulder Room (in)",
        "1": "60.3",
        "2": "57.9",
        "3": "61.6"
    },
    {
        "0": "Front Hip Room (in)",
        "1": "- TBD -",
        "2": "55.5",
        "3": "59.0"
    },
    {
        "0": "Second Head Room (in)",
        "1": "40.4",
        "2": "37.7",
        "3": "38.6"
    },
    {
        "0": "Second Leg Room (in)",
        "1": "36.2",
        "2": "37.1",
        "3": "38.7"
    },
    {
        "0": "Second Shoulder Room (in)",
        "1": "59.6",
        "2": "57.5",
        "3": "61.5"
    },
    {
        "0": "Second Hip Room (in)",
        "1": "- TBD -",
        "2": "54.5",
        "3": "59.1"
    },
    {
        "0": "Third Leg Room (in)",
        "1": "32.4",
        "2": "",
        "3": "28.7"
    },
    {
        "0": "Cargo Volume to Seat 1 (cu. ft.)",
        "1": "85.0",
        "2": "80.3",
        "3": "83.5"
    },
    {
        "0": "Cargo Volume to Seat 2 (cu. ft.)",
        "1": "42.2",
        "2": "40.0",
        "3": "42.9"
    },
    {
        "0": "Cargo Volume to Seat 3 (cu. ft.)",
        "1": "15.2",
        "2": "",
        "3": "15.0"
    }
]