[
    {
        "0": "",
        "1": "",
        "2": "",
        "3": "",
        "4": "",
        "5": "",
        "6": "",
        "7": "",
        "8": "",
        "9": "",
        "10": "",
        "11": ""
    },
    {
        "0": "",
        "1": "5 9%",
        "2": "3 5%",
        "3": "12 21%",
        "4": "7 12%",
        "5": "1 2%",
        "6": "8 14%",
        "7": "3 5%",
        "8": "1 2%",
        "9": "5 9%",
        "10": "8 14%",
        "11": "5 9%"
    },
    {
        "0": "",
        "1": "Death Knight",
        "2": "Druid",
        "3": "Hunter",
        "4": "Mage",
        "5": "Monk",
        "6": "Paladin",
        "7": "Priest",
        "8": "Rogue",
        "9": "Shaman",
        "10": "Warlock",
        "11": "Warrior"
    }
]