[
    {
        "0": "Stock #",
        "1": "TZTUB1024"
    },
    {
        "0": "Dimensions",
        "1": "6 x 5.6 mm to 12.6 x 10.2 mm"
    },
    {
        "0": "Length(inch.)",
        "1": "14.25 to 16.25"
    },
    {
        "0": "No. of Lines",
        "1": "3 Lines"
    },
    {
        "0": "Gross Weight",
        "1": "338.63"
    }
]