[
    {
        "0": "Getting Started with Expression Web",
        "1": ""
    },
    {
        "0": "Creating a Web Site",
        "1": ""
    },
    {
        "0": "Adding Text and Links",
        "1": ""
    },
    {
        "0": "Structuring and Styling Text",
        "1": ""
    },
    {
        "0": "Working with Pictures",
        "1": ""
    },
    {
        "0": "Enhancing a Design with CSS",
        "1": ""
    },
    {
        "0": "Designing Site Navigation",
        "1": ""
    },
    {
        "0": "Testing and Publishing Your Web Site",
        "1": ""
    },
    {
        "0": "Working with Tables",
        "1": ""
    },
    {
        "0": "Working with Forms",
        "1": ""
    },
    {
        "0": "Working with Behaviors and Multimedia",
        "1": ""
    },
    {
        "0": "Using Code Tools",
        "1": ""
    },
    {
        "0": "Advanced Typography Using CSS",
        "1": ""
    },
    {
        "0": "Creating a Layout with CSS",
        "1": ""
    },
    {
        "0": "Designing Like a Pro",
        "1": ""
    },
    {
        "0": "Working with Dynamic Web Templates",
        "1": ""
    },
    {
        "0": "Table of Contents provided by Publisher. All Rights Reserved.",
        "1": ""
    }
]