[
    {
        "Name": "Georg Alexander Pick",
        "Lifespan": "1859-1943",
        "Nationality": "Austrian",
        "Achievements": "Pick's theorem",
        "Cause of Death": "Theresienstadt"
    },
    {
        "Name": "Otto Blumenthal",
        "Lifespan": "1876-1944",
        "Nationality": "German",
        "Achievements": "number theory, Mathematische Annalen",
        "Cause of Death": "Theresienstadt"
    },
    {
        "Name": "Felix Hausdorff",
        "Lifespan": "1868-1942",
        "Nationality": "German",
        "Achievements": "topology",
        "Cause of Death": "Bonn"
    },
    {
        "Name": "Friedrich Hartogs",
        "Lifespan": "1874-1943",
        "Nationality": "German",
        "Achievements": "several complex variables",
        "Cause of Death": "Gro&szlig;hesselohe"
    },
    {
        "Name": "Robert Remak",
        "Lifespan": "1888-1942",
        "Nationality": "German",
        "Achievements": "group theory, number theory, mathematical economics",
        "Cause of Death": "Auschwitz"
    },
    {
        "Name": "Adolf Lindenbaum",
        "Lifespan": "1904-1941",
        "Nationality": "Polish",
        "Achievements": "set theory",
        "Cause of Death": "Vilnius"
    },
    {
        "Name": "Antoni \u0141omnicki",
        "Lifespan": "1881-1941",
        "Nationality": "Polish",
        "Achievements": "Polish mathematician",
        "Cause of Death": "Massacre of Lw&oacute;w"
    },
    {
        "Name": "Stanis\u0142aw Ruziewicz",
        "Lifespan": "1889-1941",
        "Nationality": "Polish",
        "Achievements": "Ruziewicz problem",
        "Cause of Death": "Massacre of Lw&oacute;w"
    },
    {
        "Name": "Stanis\u0142aw Saks",
        "Lifespan": "1897-1942",
        "Nationality": "Polish",
        "Achievements": "measure theory",
        "Cause of Death": "Warsaw"
    },
    {
        "Name": "Juliusz Schauder",
        "Lifespan": "1899-1943",
        "Nationality": "Polish",
        "Achievements": "Schauder fixed point theorem",
        "Cause of Death": "Lviv"
    },
    {
        "Name": "W\u0142odzimierz Sto\u017cek",
        "Lifespan": "1883-1941",
        "Nationality": "Polish",
        "Achievements": "Polish mathematician",
        "Cause of Death": "Massacre of Lw&oacute;w"
    },
    {
        "Name": "Alfred Tauber",
        "Lifespan": "1866-1942",
        "Nationality": "Slovak",
        "Achievements": "Tauberian theorems",
        "Cause of Death": "Theresienstadt"
    }
]