[
    {
        "School": "Benjamin Bosse High School",
        "City / Town": "Evansville",
        "Website": "Website",
        "Size": "855",
        "Principal": "Mr Robert W Adams",
        "Grades": "09-12",
        "IDOE Profile": "Snapshot"
    },
    {
        "School": "Evansville Central High School",
        "City / Town": "Evansville",
        "Website": "Website",
        "Size": "1467",
        "Principal": "Mr John Russell",
        "Grades": "09-12",
        "IDOE Profile": "Snapshot"
    },
    {
        "School": "Christa McAuliffe Alternative Middle School",
        "City / Town": "Evansville",
        "Website": "",
        "Size": "36",
        "Principal": "Mr Jay Hille",
        "Grades": "05-12",
        "IDOE Profile": "Snapshot"
    },
    {
        "School": "Evansville Day School",
        "City / Town": "Evansville",
        "Website": "Website",
        "Size": "257",
        "Principal": "Mr Benjamin Hebebrand",
        "Grades": "PK-12",
        "IDOE Profile": "Snapshot"
    },
    {
        "School": "EVSC Juvenile Correctional Facility",
        "City / Town": "Evansville",
        "Website": "",
        "Size": "",
        "Principal": "Dr Susan McDowell-Riley",
        "Grades": "09-12",
        "IDOE Profile": "Snapshot"
    },
    {
        "School": "Faith Heritage Christian School",
        "City / Town": "Evansville",
        "Website": "Website",
        "Size": "63",
        "Principal": "Dr Greg Pounders",
        "Grades": "PK-12",
        "IDOE Profile": "Snapshot"
    },
    {
        "School": "Francis Joseph Reitz High School",
        "City / Town": "Evansville",
        "Website": "Website",
        "Size": "1352",
        "Principal": "Ms Christine Settle",
        "Grades": "09-12",
        "IDOE Profile": "Snapshot"
    },
    {
        "School": "Henry Reis Educational Center",
        "City / Town": "Evansville",
        "Website": "Website",
        "Size": "113",
        "Principal": "Mr Matory Bailey",
        "Grades": "09-12",
        "IDOE Profile": "Snapshot"
    },
    {
        "School": "Evansville Lutheran School",
        "City / Town": "Evansville",
        "Website": "Website",
        "Size": "64",
        "Principal": "Tony Schull",
        "Grades": "K-12",
        "IDOE Profile": ""
    },
    {
        "School": "Mater Dei High School",
        "City / Town": "Evansville",
        "Website": "Website",
        "Size": "591",
        "Principal": "Dr Anne Marie Williams",
        "Grades": "09-12",
        "IDOE Profile": "Snapshot"
    },
    {
        "School": "North High School",
        "City / Town": "Evansville",
        "Website": "Website",
        "Size": "1506",
        "Principal": "Ms Brenda Weber",
        "Grades": "09-12",
        "IDOE Profile": "Snapshot"
    },
    {
        "School": "Reitz Memorial High School",
        "City / Town": "Evansville",
        "Website": "Website",
        "Size": "840",
        "Principal": "Gwen Godsey",
        "Grades": "09-12",
        "IDOE Profile": "Snapshot"
    },
    {
        "School": "Evansville Signature School",
        "City / Town": "Evansville",
        "Website": "Website",
        "Size": "277",
        "Principal": "Ms Vicki Snyder",
        "Grades": "09-12",
        "IDOE Profile": "Snapshot"
    },
    {
        "School": "Stanley Hall Enrichment Center",
        "City / Town": "Evansville",
        "Website": "Website",
        "Size": "74",
        "Principal": "Ms Elizabeth McGovern",
        "Grades": "09-12",
        "IDOE Profile": "Snapshot"
    },
    {
        "School": "The Learning Center",
        "City / Town": "Evansville",
        "Website": "",
        "Size": "84",
        "Principal": "Ms Gail Stewart",
        "Grades": "KG-12",
        "IDOE Profile": "Snapshot"
    },
    {
        "School": "William Henry Harrison High School",
        "City / Town": "Evansville",
        "Website": "Website",
        "Size": "1427",
        "Principal": "Ms Janet Leistner",
        "Grades": "09-12",
        "IDOE Profile": "Snapshot"
    }
]