[
    {
        "Title": "31 Questions",
        "Network": "Channel 31",
        "Years": "2012-"
    },
    {
        "Title": "Cash Cab",
        "Network": "Channel V",
        "Years": "2007-"
    },
    {
        "Title": "Deal or No Deal",
        "Network": "Seven Network",
        "Years": "2003-"
    },
    {
        "Title": "It's Academic",
        "Network": "Network Ten, Seven Network, 7Two",
        "Years": "1968-1970, , 1970-1978, 2005-"
    },
    {
        "Title": "Kitchen Whiz",
        "Network": "Nine Network, GO!",
        "Years": "2011-"
    },
    {
        "Title": "Millionaire Hot Seat",
        "Network": "Nine Network",
        "Years": "2009-"
    },
    {
        "Title": "Pyramid",
        "Network": "Nine Network, GO!",
        "Years": "2009-"
    },
    {
        "Title": "RocKwiz",
        "Network": "SBS",
        "Years": "2005-"
    },
    {
        "Title": "Spit It Out",
        "Network": "Seven Network, 7Two",
        "Years": "2010-"
    },
    {
        "Title": "What Do You Know?",
        "Network": "ABC3",
        "Years": "2010-"
    }
]