[
    {
        "col1": "1",
        "Name": "Geoffrey Palmer",
        "PM Served": "Lange , Palmer",
        "Took Office": "1987",
        "Left Office": "September 1990",
        "Party": "Labour"
    },
    {
        "col1": "2",
        "Name": "Simon Upton",
        "PM Served": "Bolger , Shipley",
        "Took Office": "1990",
        "Left Office": "1999",
        "Party": "National"
    },
    {
        "col1": "3",
        "Name": "Marian Hobbs",
        "PM Served": "Clark",
        "Took Office": "10 December 1999",
        "Left Office": "19 October 2005",
        "Party": "Labour"
    },
    {
        "col1": "4",
        "Name": "David Benson-Pope",
        "PM Served": "Clark",
        "Took Office": "19 October 2005",
        "Left Office": "27 July 2007",
        "Party": "Labour"
    },
    {
        "col1": "5",
        "Name": "David Parker",
        "PM Served": "Clark",
        "Took Office": "27 July 2007",
        "Left Office": "31 October 2007 [1]",
        "Party": "Labour"
    },
    {
        "col1": "5",
        "Name": "Trevor Mallard",
        "PM Served": "Clark",
        "Took Office": "31 October 2007",
        "Left Office": "Present [2]",
        "Party": "Labour"
    }
]