[
    {
        "EPG": "40",
        "Channel name": "Discovery HD",
        "Broadcasting country": "Poland",
        "Spoken language": "Polish",
        "Subtitles language": "Polish",
        "Free-to-air (FTA)": "No",
        "Type": "Documentaries",
        "HD": "Yes",
        "Pay-per-view": "No"
    },
    {
        "EPG": "41",
        "Channel name": "Discovery Historia",
        "Broadcasting country": "Poland",
        "Spoken language": "Polish",
        "Subtitles language": "Polish",
        "Free-to-air (FTA)": "No",
        "Type": "Documentaries",
        "HD": "No",
        "Pay-per-view": "No"
    },
    {
        "EPG": "42",
        "Channel name": "Discovery Channel",
        "Broadcasting country": "Poland",
        "Spoken language": "Polish",
        "Subtitles language": "Polish",
        "Free-to-air (FTA)": "No",
        "Type": "Documentaries",
        "HD": "No",
        "Pay-per-view": "No"
    },
    {
        "EPG": "43",
        "Channel name": "Animal Planet",
        "Broadcasting country": "Poland",
        "Spoken language": "Polish",
        "Subtitles language": "Polish",
        "Free-to-air (FTA)": "No",
        "Type": "Documentaries",
        "HD": "No",
        "Pay-per-view": "No"
    },
    {
        "EPG": "44",
        "Channel name": "Discovery World",
        "Broadcasting country": "Poland",
        "Spoken language": "Polish",
        "Subtitles language": "Polish",
        "Free-to-air (FTA)": "No",
        "Type": "Documentaries",
        "HD": "No",
        "Pay-per-view": "No"
    },
    {
        "EPG": "45",
        "Channel name": "Discovery Science",
        "Broadcasting country": "Poland",
        "Spoken language": "Polish",
        "Subtitles language": "Polish",
        "Free-to-air (FTA)": "No",
        "Type": "Documentaries",
        "HD": "No",
        "Pay-per-view": "No"
    },
    {
        "EPG": "46",
        "Channel name": "TVN Lingua",
        "Broadcasting country": "Poland",
        "Spoken language": "Polish",
        "Subtitles language": "Polish , others",
        "Free-to-air (FTA)": "No",
        "Type": "Learning",
        "HD": "No",
        "Pay-per-view": "No"
    },
    {
        "EPG": "47",
        "Channel name": "TVP Kultura",
        "Broadcasting country": "Poland",
        "Spoken language": "Polish",
        "Subtitles language": "Polish",
        "Free-to-air (FTA)": "Yes",
        "Type": "Culture",
        "HD": "No",
        "Pay-per-view": "No"
    }
]