[
    {
        "Years led": "1884-1891",
        "Number of years led": "8",
        "Name": "Maud Watson",
        "Country": "United Kingdom",
        "Number of titles for lead": "1",
        "Number of career titles": "2",
        "Tournament at which lead began": "Wimbledon"
    },
    {
        "Years led": "1891-1900",
        "Number of years led": "10",
        "Name": "Lottie Dod",
        "Country": "United Kingdom",
        "Number of titles for lead": "3",
        "Number of career titles": "5",
        "Tournament at which lead began": "Wimbledon"
    },
    {
        "Years led": "1900-1914",
        "Number of years led": "15",
        "Name": "Blanche Bingley Hillyard",
        "Country": "United Kingdom",
        "Number of titles for lead": "6",
        "Number of career titles": "6",
        "Tournament at which lead began": "Wimbledon"
    },
    {
        "Years led": "1914-1923",
        "Number of years led": "10",
        "Name": "Dorothea Douglass",
        "Country": "United Kingdom",
        "Number of titles for lead": "7",
        "Number of career titles": "7",
        "Tournament at which lead began": "Wimbledon"
    },
    {
        "Years led": "1923-1930",
        "Number of years led": "8",
        "Name": "Suzanne Lenglen",
        "Country": "France",
        "Number of titles for lead": "8",
        "Number of career titles": "12",
        "Tournament at which lead began": "World Hard Court Championships"
    },
    {
        "Years led": "1930-1970",
        "Number of years led": "41",
        "Name": "Helen Wills Moody",
        "Country": "United States",
        "Number of titles for lead": "13",
        "Number of career titles": "19",
        "Tournament at which lead began": "Wimbledon"
    },
    {
        "Years led": "1970-current",
        "Number of years led": "38",
        "Name": "Margaret Smith Court",
        "Country": "Australia",
        "Number of titles for lead": "20",
        "Number of career titles": "24",
        "Tournament at which lead began": "U.S Open"
    }
]