[
    {
        "col0": "Christian VI of Denmark",
        "col1": "Roskilde Cathedral",
        "col2": "Copenhagen",
        "col3": "Hirschholm Palace",
        "col4": "L. o. Mecklenburg-Gustrow",
        "col5": "1746-08-06"
    },
    {
        "col0": "Christian VII of Denmark",
        "col1": "Roskilde Cathedral",
        "col2": "Copenhagen",
        "col3": "Rendsburg",
        "col4": "Frederick V of Denmark",
        "col5": "1808-03-13"
    },
    {
        "col0": "Christian IX of Denmark",
        "col1": "Roskilde Cathedral",
        "col2": "Duchy of Schleswig",
        "col3": "Copenhagen",
        "col4": "Princess Louise Caroline of Hesse-Cassel",
        "col5": "1906-01-29"
    },
    {
        "col0": "Christian III of Denmark",
        "col1": "Roskilde Cathedral",
        "col2": "Gottorf Castle",
        "col3": "Kolding",
        "col4": "A. o. Brandenburg",
        "col5": "1559-01-01"
    },
    {
        "col0": "C. Emperor",
        "col1": "Beijing",
        "col2": "Beijing",
        "col3": "Beijing",
        "col4": "T. Emperor",
        "col5": "1644-04-25"
    },
    {
        "col0": "C. Emperor",
        "col1": "Beijing",
        "col2": "Beijing",
        "col3": "Beijing",
        "col4": "Z. Emperor",
        "col5": "1487-09-09"
    },
    {
        "col0": "C. o. Mecklenburg-Strelitz",
        "col1": "England",
        "col2": "Holy Roman Empire",
        "col3": "United Kingdom of Great Britain and Ireland",
        "col4": "Duke Charles Louis Frederick of Mecklenburg, Prince of Mirow",
        "col5": "1818-11-17"
    },
    {
        "col0": "Charlotte of Bourbon, Queen of Cyprus",
        "col1": "Nicosia",
        "col2": "France",
        "col3": "Nicosia",
        "col4": "John I, Count of La Marche",
        "col5": "1422-01-15"
    },
    {
        "col0": "C. d. Rohan",
        "col1": "France",
        "col2": "Paris",
        "col3": "Hotel de Conde",
        "col4": "Charles, Prince of Soubise",
        "col5": "1760-03-04"
    },
    {
        "col0": "Charlotte Catherine de La Tremoille",
        "col1": "France",
        "col2": "France",
        "col3": "France",
        "col4": "Louis III de La Tremoille",
        "col5": "1629-8-29"
    },
    {
        "col0": "C. Bonaparte",
        "col1": "Florence",
        "col2": "French First Republic",
        "col3": "Kingdom of Sardinia",
        "col4": "J. Bonaparte",
        "col5": "1839-03-02"
    },
    {
        "col0": "C. A. d'Orleans",
        "col1": "Val-de-Grace",
        "col2": "Paris",
        "col3": "Luxembourg Palace",
        "col4": "Philippe II, Duke of Orleans",
        "col5": "1761-01-19"
    },
    {
        "col0": "C. P. Royal",
        "col1": "Germany",
        "col2": "London",
        "col3": "Germany",
        "col4": "George III of the United Kingdom",
        "col5": "1828-10-05"
    },
    {
        "col0": "Charlotte, Grand Duchess of Luxembourg",
        "col1": "Notre-Dame Cathedral, Luxembourg",
        "col2": "Luxembourg",
        "col3": "Luxembourg",
        "col4": "William IV, Grand Duke of Luxembourg",
        "col5": "1985-07-09"
    },
    {
        "col0": "C. t. Fat",
        "col1": "Lake Constance",
        "col2": "East Francia",
        "col3": "Carolingian Empire",
        "col4": "L. t. German",
        "col5": "0888-01-13"
    },
    {
        "col0": "Charles of Saxony, Duke of Courland",
        "col1": "Muhlberg, Brandenburg",
        "col2": "Dresden",
        "col3": "Dresden",
        "col4": "Augustus III of Poland",
        "col5": "1796-06-16"
    },
    {
        "col0": "Charles X of France",
        "col1": "Kostanjevica Monastery",
        "col2": "Kingdom of France",
        "col3": "Austrian Empire",
        "col4": "M. o. Saxony",
        "col5": "1836-11-06"
    },
    {
        "col0": "Charles X Gustav of Sweden",
        "col1": "Riddarholmen Church",
        "col2": "Nykoping",
        "col3": "Gothenburg",
        "col4": "C. o. Sweden",
        "col5": "1660-02-13"
    },
    {
        "col0": "Charles XV of Sweden",
        "col1": "Riddarholmskyrkan",
        "col2": "Stockholm",
        "col3": "Malmo",
        "col4": "Oscar I of Sweden",
        "col5": "1872-09-18"
    },
    {
        "col0": "Charles XI of Sweden",
        "col1": "Stockholm",
        "col2": "Stockholm",
        "col3": "Stockholm",
        "col4": "Charles X of Sweden",
        "col5": "1697-04-05"
    },
    {
        "col0": "Charles XII of Sweden",
        "col1": "Stockholm",
        "col2": "Tre Kronor",
        "col3": "Halden",
        "col4": "Charles XI of Sweden",
        "col5": "1718-11-30"
    },
    {
        "col0": "C. V. Brooke",
        "col1": "Sheepstor",
        "col2": "London",
        "col3": "England",
        "col4": "Charles Brooke, Rajah of Sarawak",
        "col5": "1963-0-0"
    },
    {
        "col0": "Charles VII, Holy Roman Emperor",
        "col1": "Theatine Church, Munich",
        "col2": "Brussels",
        "col3": "Electorate of Bavaria",
        "col4": "Maximilian II Emanuel, Elector of Bavaria",
        "col5": "1745-01-20"
    },
    {
        "col0": "Charles VI, Holy Roman Emperor",
        "col1": "Kapuzinergruft",
        "col2": "Vienna",
        "col3": "Vienna",
        "col4": "Leopold I, Holy Roman Emperor",
        "col5": "1740-10-20"
    },
    {
        "col0": "Charles V, Holy Roman Emperor",
        "col1": "El Escorial",
        "col2": "County of Flanders",
        "col3": "Monastery of Yuste",
        "col4": "Philip I of Castile",
        "col5": "1558-09-21"
    },
    {
        "col0": "Charles Theodore, Elector of Bavaria",
        "col1": "Theatine Church, Munich",
        "col2": "Austrian Netherlands",
        "col3": "Munich Residenz",
        "col4": "John Christian, Count Palatine of Sulzbach",
        "col5": "1799-02-16"
    },
    {
        "col0": "Charles Stuart, Duke of Kendal",
        "col1": "Westminster Abbey",
        "col2": "St James's Palace",
        "col3": "St James's Palace",
        "col4": "James II of England",
        "col5": "1667-05-22"
    },
    {
        "col0": "Charles Martel of Anjou",
        "col1": "Naples Cathedral",
        "col2": "Naples",
        "col3": "Naples",
        "col4": "Charles II of Naples",
        "col5": "1295-08-12"
    },
    {
        "col0": "C. Martel",
        "col1": "Basilica of St Denis",
        "col2": "Herstal",
        "col3": "Quierzy",
        "col4": "P. o. Herstal",
        "col5": "0741-10-22"
    },
    {
        "col0": "Charles Louis, Hereditary Prince of Baden",
        "col1": "Pforzheim",
        "col2": "Karlsruhe",
        "col3": "Arboga",
        "col4": "Charles Frederick, Grand Duke of Baden",
        "col5": "1801-12-16"
    },
    {
        "col0": "Charles I of Naples",
        "col1": "France",
        "col2": "Kingdom of France",
        "col3": "Foggia",
        "col4": "Louis VIII of France",
        "col5": "1285-01-07"
    },
    {
        "col0": "Charles I of Hungary",
        "col1": "Szekesfehervar Basilica",
        "col2": "Naples",
        "col3": "Visegrad",
        "col4": "Charles Martel of Anjou",
        "col5": "1342-7-16"
    },
    {
        "col0": "Charles I of England",
        "col1": "Kingdom of England",
        "col2": "Dunfermline",
        "col3": "London",
        "col4": "A. o. Denmark",
        "col5": "1649-01-30"
    },
    {
        "col0": "Charles IX of Sweden",
        "col1": "Strangnas Cathedral",
        "col2": "Tre Kronor",
        "col3": "Nykoping",
        "col4": "Gustav I of Sweden",
        "col5": "1611-10-30"
    },
    {
        "col0": "Charles IV of Spain",
        "col1": "El Escorial",
        "col2": "Kingdom of Naples",
        "col3": "Papal States",
        "col4": "Charles III of Spain",
        "col5": "1819-01-20"
    },
    {
        "col0": "Charles IV, Holy Roman Emperor",
        "col1": "Prague",
        "col2": "Prague",
        "col3": "Prague",
        "col4": "J. o. Bohemia",
        "col5": "1378-11-29"
    },
    {
        "col0": "Charles II of Spain",
        "col1": "Habsburg Spain",
        "col2": "Habsburg Spain",
        "col3": "Habsburg Spain",
        "col4": "Philip IV of Spain",
        "col5": "1700-11-01"
    },
    {
        "col0": "Charles II of England",
        "col1": "Westminster Abbey",
        "col2": "St James's Palace",
        "col3": "London",
        "col4": "Charles I of England",
        "col5": "1685-02-06"
    },
    {
        "col0": "Charles III of Spain",
        "col1": "El Escorial",
        "col2": "Spain",
        "col3": "Madrid",
        "col4": "Philip V of Spain",
        "col5": "1788-12-14"
    },
    {
        "col0": "Charles III, Prince of Monaco",
        "col1": "Saint Nicholas Cathedral, Monaco",
        "col2": "Paris",
        "col3": "Marchais, Aisne",
        "col4": "Florestan I, Prince of Monaco",
        "col5": "1889-09-10"
    },
    {
        "col0": "Charles III, Duke of Parma",
        "col1": "Viareggio",
        "col2": "Florence",
        "col3": "Duchy of Parma",
        "col4": "Charles II, Duke of Parma",
        "col5": "1854-03-27"
    },
    {
        "col0": "Charles II, Lord of Monaco",
        "col1": "Saint Nicholas Cathedral, Monaco",
        "col2": "Monte Carlo",
        "col3": "Monte Carlo",
        "col4": "Honore I, Lord of Monaco",
        "col5": "1589-5-17"
    },
    {
        "col0": "Charles II, Archduke of Austria",
        "col1": "Archduchy of Austria",
        "col2": "Archduchy of Austria",
        "col3": "Archduchy of Austria",
        "col4": "Ferdinand I, Holy Roman Emperor",
        "col5": "1590-07-10"
    },
    {
        "col0": "Charles Emmanuel IV of Sardinia",
        "col1": "Sant'Andrea al Quirinale",
        "col2": "Royal Palace of Turin",
        "col3": "Rome",
        "col4": "Victor Amadeus III of Sardinia",
        "col5": "1819-10-06"
    },
    {
        "col0": "Charles Emmanuel, Prince of Carignano",
        "col1": "Basilica of Superga",
        "col2": "Palazzo Carignano",
        "col3": "French First Republic",
        "col4": "Princess Josephine of Lorraine",
        "col5": "1800-08-16"
    },
    {
        "col0": "C. E. Stuart",
        "col1": "St. Peter's Basilica",
        "col2": "Rome",
        "col3": "Rome",
        "col4": "James Francis Edward Stuart",
        "col5": "1788-01-31"
    },
    {
        "col0": "Charles August, Crown Prince of Sweden",
        "col1": "Riddarholmen Church",
        "col2": "Denmark",
        "col3": "Scania",
        "col4": "Frederick Christian I, Duke of Schleswig-Holstein-Sonderburg-Augustenburg",
        "col5": "1810-05-28"
    },
    {
        "col0": "Charles Amadeus, Duke of Nemours",
        "col1": "Annecy",
        "col2": "Paris",
        "col3": "Paris",
        "col4": "Henri I, Duke of Nemours",
        "col5": "1652-07-30"
    },
    {
        "col0": "Charles, Duke of Orleans",
        "col1": "Saint Denis Basilica",
        "col2": "Paris",
        "col3": "Amboise",
        "col4": "Louis I, Duke of Orleans",
        "col5": "1465-01-05"
    },
    {
        "col0": "Charles, Duke of Berry",
        "col1": "Basilica of St Denis",
        "col2": "Palace of Versailles",
        "col3": "Palace of Versailles",
        "col4": "Louis, Dauphin of France",
        "col5": "1714-05-05"
    },
    {
        "col0": "Charles, Count of Valois",
        "col1": "Basilica of St Denis",
        "col2": "Vincennes",
        "col3": "Nogent-le-Roi",
        "col4": "Philip III of France",
        "col5": "1325-12-16"
    },
    {
        "col0": "Charles, Count of Charolais",
        "col1": "Montmorency, Val-d'Oise",
        "col2": "France",
        "col3": "France",
        "col4": "Louis, Prince of Conde",
        "col5": "1760-07-23"
    },
    {
        "col0": "Charlemagne",
        "col1": "Aachen Cathedral",
        "col2": "Frankish Kingdom",
        "col3": "Aachen",
        "col4": "P. t. Short",
        "col5": "0814-01-28"
    },
    {
        "col0": "C. o. York",
        "col1": "Kings Langley",
        "col2": "Palace of Westminster",
        "col3": "Isle of Wight",
        "col4": "Edward IV of England",
        "col5": "1507-08-24"
    },
    {
        "col0": "Cecily Neville, Duchess of York",
        "col1": "Church of St Mary and All Saints, Fotheringhay",
        "col2": "Durham, England",
        "col3": "Berkhamsted Castle",
        "col4": "Joan Beaufort, Countess of Westmorland",
        "col5": "1495-05-31"
    },
    {
        "col0": "C. o. Saxe-Lauenburg",
        "col1": "Sweden",
        "col2": "Ratzeburg",
        "col3": "Stockholm",
        "col4": "Magnus I, Duke of Saxe-Lauenburg",
        "col5": "1535-09-23"
    },
    {
        "col0": "C. o. Portugal",
        "col1": "Lisbon",
        "col2": "Lisbon",
        "col3": "Lisbon",
        "col4": "E. o. Portugal",
        "col5": "1463-6-17"
    },
    {
        "col0": "C. o. Hungary",
        "col1": "Szekesfehervar Basilica",
        "col2": "Hungary",
        "col3": "Hungary",
        "col4": "Louis I of Hungary",
        "col5": "1378-5-0"
    },
    {
        "col0": "C. o. Bosnia",
        "col1": "Santa Maria in Aracoeli",
        "col2": "Kingdom of Bosnia",
        "col3": "Rome",
        "col4": "J. Balsic",
        "col5": "1478-10-25"
    },
    {
        "col0": "Catherine of Austria, Duchess of Calabria",
        "col1": "Naples",
        "col2": "Vienna",
        "col3": "Naples",
        "col4": "Albert I of Germany",
        "col5": "1323-01-18"
    },
    {
        "col0": "Catherine de' Medici, Governor of Siena",
        "col1": "Florence",
        "col2": "Palazzo Pitti",
        "col3": "Grand Duchy of Tuscany",
        "col4": "C. o. Lorraine",
        "col5": "1629-04-18"
    },
    {
        "col0": "C. d. Medici",
        "col1": "Blois",
        "col2": "Florence",
        "col3": "Kingdom of France",
        "col4": "Lorenzo de' Medici, Duke of Urbino",
        "col5": "1589-0-0"
    },
    {
        "col0": "C. Yurievskaya",
        "col1": "Hayling Island",
        "col2": "Saint Petersburg",
        "col3": "England",
        "col4": "Alexander II of Russia",
        "col5": "1959-12-22"
    },
    {
        "col0": "C. Opalinska",
        "col1": "Nancy, France",
        "col2": "Poland",
        "col3": "France",
        "col4": "J. K. Opalinski",
        "col5": "1747-03-19"
    },
    {
        "col0": "C. Jagiellon",
        "col1": "Sweden",
        "col2": "Poland",
        "col3": "Stockholm",
        "col4": "Sigismund I the Old",
        "col5": "1583-09-16"
    }
]