[
    {
        "col0": "Secaucus Junction",
        "col1": "2",
        "col2": "16",
        "col3": "23440"
    },
    {
        "col0": "Rosslyn station",
        "col1": "2",
        "col2": "-4",
        "col3": "14815"
    },
    {
        "col0": "Pentagon station",
        "col1": "2",
        "col2": "-4",
        "col3": "15145"
    },
    {
        "col0": "Mount Eden Railway Station",
        "col1": "1",
        "col2": "9",
        "col3": "1018"
    },
    {
        "col0": "Metro Center station",
        "col1": "2",
        "col2": "-2",
        "col3": "27058"
    },
    {
        "col0": "Melbourne Central railway station",
        "col1": "2",
        "col2": "11",
        "col3": "15925000"
    },
    {
        "col0": "L'Enfant Plaza station",
        "col1": "2",
        "col2": "0",
        "col3": "20367"
    },
    {
        "col0": "Khurai railway station",
        "col1": "1",
        "col2": "38",
        "col3": "1200"
    },
    {
        "col0": "Jefferson Park Transit Center",
        "col1": "3",
        "col2": "1",
        "col3": "2173168"
    },
    {
        "col0": "Government Center station",
        "col1": "4",
        "col2": "3",
        "col3": "3200000"
    },
    {
        "col0": "Gallery Place station",
        "col1": "2",
        "col2": "0",
        "col3": "25820"
    },
    {
        "col0": "Fort Totten station",
        "col1": "2",
        "col2": "0",
        "col3": "7932"
    },
    {
        "col0": "Five Points station",
        "col1": "1",
        "col2": "0",
        "col3": "19447"
    },
    {
        "col0": "Clark/Lake station",
        "col1": "3",
        "col2": "7",
        "col3": "5997063"
    },
    {
        "col0": "Botanichesky Sad",
        "col1": "1",
        "col2": "-13",
        "col3": "11971270"
    }
]