[
    {
        "col0": "Cryptogramma cascadensis",
        "col1": "Pteridaceae",
        "col2": "G5",
        "col3": "TNC"
    },
    {
        "col0": "Cheilanthes tomentosa",
        "col1": "Pteridaceae",
        "col2": "G5",
        "col3": "TNC"
    },
    {
        "col0": "Cheilanthes parryi",
        "col1": "Pteridaceae",
        "col2": "G4",
        "col3": "TNC"
    },
    {
        "col0": "Cheilanthes newberryi",
        "col1": "Pteridaceae",
        "col2": "G4",
        "col3": "TNC"
    },
    {
        "col0": "Cheilanthes intertexta",
        "col1": "Pteridaceae",
        "col2": "G5",
        "col3": "TNC"
    },
    {
        "col0": "Cheilanthes gracillima",
        "col1": "Pteridaceae",
        "col2": "G4",
        "col3": "TNC"
    },
    {
        "col0": "Cheilanthes feei",
        "col1": "Pteridaceae",
        "col2": "G5",
        "col3": "TNC"
    },
    {
        "col0": "Cheilanthes covillei",
        "col1": "Pteridaceae",
        "col2": "G4",
        "col3": "TNC"
    },
    {
        "col0": "Cheilanthes cooperae",
        "col1": "Pteridaceae",
        "col2": "G3",
        "col3": "TNC"
    },
    {
        "col0": "Cheilanthes clevelandii",
        "col1": "Pteridaceae",
        "col2": "G3",
        "col3": "TNC"
    },
    {
        "col0": "Ceratopteris richardii",
        "col1": "Pteridaceae",
        "col2": "G5",
        "col3": "TNC"
    },
    {
        "col0": "Ceradenia semiadnata",
        "col1": "Polypodiaceae",
        "col2": "VU",
        "col3": "IUCN3.1"
    },
    {
        "col0": "Ceradenia melanopus",
        "col1": "Polypodiaceae",
        "col2": "VU",
        "col3": "IUCN3.1"
    },
    {
        "col0": "Campyloneurum oellgaardii",
        "col1": "Polypodiaceae",
        "col2": "VU",
        "col3": "IUCN3.1"
    },
    {
        "col0": "Calymmodon cucullatus",
        "col1": "Polypodiaceae",
        "col2": "EN",
        "col3": "IUCN3.1"
    },
    {
        "col0": "Botrypus virginianus",
        "col1": "Ophioglossaceae",
        "col2": "G5",
        "col3": "TNC"
    },
    {
        "col0": "Botrychium pumicola",
        "col1": "Ophioglossaceae",
        "col2": "G3",
        "col3": "TNC"
    },
    {
        "col0": "Botrychium pinnatum",
        "col1": "Ophioglossaceae",
        "col2": "G4",
        "col3": "TNC"
    },
    {
        "col0": "Botrychium montanum",
        "col1": "Ophioglossaceae",
        "col2": "G3",
        "col3": "TNC"
    },
    {
        "col0": "Botrychium minganense",
        "col1": "Ophioglossaceae",
        "col2": "G4",
        "col3": "TNC"
    },
    {
        "col0": "Botrychium matricariifolium",
        "col1": "Ophioglossaceae",
        "col2": "G5",
        "col3": "TNC"
    },
    {
        "col0": "Botrychium lunaria",
        "col1": "Ophioglossaceae",
        "col2": "G5",
        "col3": "TNC"
    },
    {
        "col0": "Botrychium crenulatum",
        "col1": "Ophioglossaceae",
        "col2": "G3",
        "col3": "TNC"
    },
    {
        "col0": "Bolbitis riparia",
        "col1": "Elaphoglossaceae",
        "col2": "VU",
        "col3": "IUCN3.1"
    },
    {
        "col0": "Blechnum spicant",
        "col1": "Blechnaceae",
        "col2": "G5",
        "col3": "TNC"
    },
    {
        "col0": "Blechnum sodiroi",
        "col1": "Blechnaceae",
        "col2": "VU",
        "col3": "IUCN3.1"
    },
    {
        "col0": "Blechnum socialis",
        "col1": "Blechnaceae",
        "col2": "DD",
        "col3": "IUCN3.1"
    },
    {
        "col0": "Blechnum scaberulum",
        "col1": "Blechnaceae",
        "col2": "DD",
        "col3": "IUCN3.1"
    }
]