[
    {
        "col0": "Vacant Possession",
        "col1": "John Winter",
        "col2": "J. Stanton",
        "col3": "5700"
    },
    {
        "col0": "Vacancy 2: The First Cut",
        "col1": "Hal Lieberman",
        "col2": "T. Wright",
        "col3": "5160"
    },
    {
        "col0": "Vacancy",
        "col1": "Hal Lieberman",
        "col2": "K. Beckinsale",
        "col3": "5100"
    },
    {
        "col0": "Vaazhkai Padagu",
        "col1": "S. S. Vasan",
        "col2": "G. Ganesan",
        "col3": "9960"
    },
    {
        "col0": "Vaazha Vaitha Deivam",
        "col1": "Sandow M. M. A. Chinnappa Thevar",
        "col2": "G. Ganesan",
        "col3": "8460"
    },
    {
        "col0": "Vaastu Shastra",
        "col1": "Ram Gopal Varma",
        "col2": "S. Sen",
        "col3": "6360"
    },
    {
        "col0": "Vaastu Prakaara",
        "col1": "Yogaraj Bhat",
        "col2": "Jaggesh",
        "col3": "8700"
    },
    {
        "col0": "Vaaranam Aayiram",
        "col1": "Viswanathan Ravichandran",
        "col2": "Suriya",
        "col3": "10140"
    },
    {
        "col0": "Vaanam",
        "col1": "VTV Ganesh",
        "col2": "A. Shetty",
        "col3": "9660"
    },
    {
        "col0": "Vaalu",
        "col1": "S. S. Chakravarthy",
        "col2": "H. Motwani",
        "col3": "8760"
    },
    {
        "col0": "Vaali",
        "col1": "S. S. Chakravarthy",
        "col2": "Simran",
        "col3": "9480"
    },
    {
        "col0": "Vaada",
        "col1": "Vashu Bhagnani",
        "col2": "Z. Khan",
        "col3": "7320"
    },
    {
        "col0": "V for Visa",
        "col1": "Andrew Lanni",
        "col2": "T. Collins",
        "col3": "780"
    },
    {
        "col0": "V for Vendetta",
        "col1": "Joel Silver",
        "col2": "H. Weaving",
        "col3": "7920"
    },
    {
        "col0": "V The Serial",
        "col1": "Ekta Kapoor",
        "col2": "V. T. Serial",
        "col3": "1440"
    },
    {
        "col0": "V",
        "col1": "Chuck Bowman",
        "col2": "J. Badler",
        "col3": "11340"
    },
    {
        "col0": "VIP my Brother Superman",
        "col1": "Bruno Bozzetto",
        "col2": "O. Lionello",
        "col3": "4740"
    },
    {
        "col0": "VH1 Storytellers",
        "col1": "Jon Landau",
        "col2": "B. Springsteen",
        "col3": "6900"
    },
    {
        "col0": "V2: Dead Angel",
        "col1": "Markus Selin",
        "col2": "J. Lampi",
        "col3": "5520"
    },
    {
        "col0": "V. I. P.",
        "col1": "Kalaipuli S. Dhanu",
        "col2": "Simran",
        "col3": "9240"
    },
    {
        "col0": "V.I. Warshawski",
        "col1": "Jeffrey Lurie",
        "col2": "J. O. Sanders",
        "col3": "5340"
    },
    {
        "col0": "Veronique et son cancre",
        "col1": "Claude Chabrol",
        "col2": "N. Berger",
        "col3": "1200"
    },
    {
        "col0": "Varldens basta Karlsson",
        "col1": "Olle Nordemar",
        "col2": "L. Soderdahl",
        "col3": "5940"
    },
    {
        "col0": "Uzak",
        "col1": "Nuri Bilge Ceylan",
        "col2": "M. E. Toprak",
        "col3": "6600"
    },
    {
        "col0": "Uyyala Jampala",
        "col1": "Akkineni Nagarjuna",
        "col2": "A. Gor",
        "col3": "7440"
    },
    {
        "col0": "Uyarndha Manithan",
        "col1": "A. V. Meiyappan",
        "col2": "S. Ganesan",
        "col3": "9600"
    },
    {
        "col0": "Uvanga",
        "col1": "Marie-Helene Cousineau",
        "col2": "M. Ivalu",
        "col3": "5160"
    },
    {
        "col0": "Uuno Turhapuro - kaksoisagentti",
        "col1": "Spede Pasanen",
        "col2": "V. Loiri",
        "col3": "5580"
    },
    {
        "col0": "Uuno Turhapuro - Suomen tasavallan herra presidentti",
        "col1": "Spede Pasanen",
        "col2": "V. Loiri",
        "col3": "5100"
    },
    {
        "col0": "Uuno Turhapuro muuttaa maalle",
        "col1": "Spede Pasanen",
        "col2": "O. Ahonen",
        "col3": "6300"
    },
    {
        "col0": "Uuno Turhapuro armeijan leivissa",
        "col1": "Spede Pasanen",
        "col2": "S. Pasanen",
        "col3": "6120"
    },
    {
        "col0": "Uuno Turhapuro",
        "col1": "Spede Pasanen",
        "col2": "S. Pasanen",
        "col3": "5220"
    },
    {
        "col0": "Uuno Turhapuro - kaksoisagentti",
        "col1": "Spede Pasanen",
        "col2": "T. Hamalainen",
        "col3": "5580"
    },
    {
        "col0": "Uuno Turhapuro - Suomen tasavallan herra presidentti",
        "col1": "Spede Pasanen",
        "col2": "T. Hamalainen",
        "col3": "5100"
    },
    {
        "col0": "Uuno Epsanjassa",
        "col1": "Spede Pasanen",
        "col2": "V. Loiri",
        "col3": "6300"
    },
    {
        "col0": "Uu Kodathara? Ulikki Padathara?",
        "col1": "Mohan Babu",
        "col2": "L. Manchu",
        "col3": "8040"
    },
    {
        "col0": "Utu",
        "col1": "Geoff Murphy",
        "col2": "W. K. Kaa",
        "col3": "6240"
    },
    {
        "col0": "Uttarayanam",
        "col1": "Pattathuvila Karunakaran",
        "col2": "A. Bhasi",
        "col3": "7080"
    },
    {
        "col0": "Uttara",
        "col1": "Buddhadev Dasgupta",
        "col2": "T. Paul",
        "col3": "5580"
    },
    {
        "col0": "Uttama Villain",
        "col1": "Kamal Haasan",
        "col2": "K. Haasan",
        "col3": "10260"
    },
    {
        "col0": "Utsav",
        "col1": "Shashi Kapoor",
        "col2": "Rekha",
        "col3": "8700"
    },
    {
        "col0": "Utkarsha",
        "col1": "Sunil Kumar Desai",
        "col2": "Devraj",
        "col3": "141"
    },
    {
        "col0": "Utilities",
        "col1": "Howard W. Koch",
        "col2": "R. Hays",
        "col3": "5640"
    },
    {
        "col0": "Uthama Puthiran",
        "col1": "C. V. Sridhar",
        "col2": "K. A. Thangavelu",
        "col3": "9420"
    },
    {
        "col0": "Uthama Puthiran",
        "col1": "Modern Theatres",
        "col2": "N. S. Krishnan",
        "col3": "12720"
    },
    {
        "col0": "Ustad Hotel",
        "col1": "Listin Stephen",
        "col2": "D. Salmaan",
        "col3": "9060"
    },
    {
        "col0": "Ustaad",
        "col1": "Ranjith",
        "col2": "Mohanlal",
        "col3": "9900"
    },
    {
        "col0": "Usire",
        "col1": "Rockline Venkatesh",
        "col2": "P. Raj",
        "col3": "8400"
    },
    {
        "col0": "Useless",
        "col1": "Yu Lik-wai",
        "col2": "M. Ke",
        "col3": "4800"
    },
    {
        "col0": "Used Cars",
        "col1": "Bob Gale",
        "col2": "G. Graham",
        "col3": "6780"
    },
    {
        "col0": "Us Two",
        "col1": "Denis Heroux",
        "col2": "C. Deneuve",
        "col3": "6720"
    },
    {
        "col0": "Urumi",
        "col1": "Santosh Sivan",
        "col2": "G. D'Souza",
        "col3": "9600"
    },
    {
        "col0": "Urubu",
        "col1": "George P. Breakston",
        "col2": "G. P. Breakston",
        "col3": "3960"
    },
    {
        "col0": "Urlaub auf Ehrenwort",
        "col1": "Karl Ritter",
        "col2": "F. Kampers",
        "col3": "5220"
    },
    {
        "col0": "Urge",
        "col1": "Mark Neveldine",
        "col2": "P. Brosnan",
        "col3": "5400"
    },
    {
        "col0": "Ureme 5",
        "col1": "Kim Cheong-gi",
        "col2": "S. Hyung-rae",
        "col3": "4860"
    },
    {
        "col0": "Ureme 4",
        "col1": "Kim Cheong-gi",
        "col2": "S. Hyung-rae",
        "col3": "4920"
    },
    {
        "col0": "Ureme 1",
        "col1": "Kim Cheong-gi",
        "col2": "S. Hyung-rae",
        "col3": "5400"
    },
    {
        "col0": "Urbania",
        "col1": "J. Todd Harris",
        "col2": "A. Cumming",
        "col3": "6180"
    },
    {
        "col0": "Urban Legends: Final Cut",
        "col1": "Neal H. Moritz",
        "col2": "A. Anderson",
        "col3": "5640"
    },
    {
        "col0": "Urban Legend",
        "col1": "Neal H. Moritz",
        "col2": "J. Leto",
        "col3": "6000"
    },
    {
        "col0": "Urban Justice",
        "col1": "Steven Seagal",
        "col2": "C. Serano",
        "col3": "5760"
    },
    {
        "col0": "Urban Ghost Story",
        "col1": "Chris Jones",
        "col2": "J. Connery",
        "col3": "5400"
    },
    {
        "col0": "Urban Cowboy",
        "col1": "Robert Evans",
        "col2": "D. Winger",
        "col3": "7920"
    },
    {
        "col0": "Uranium Boom",
        "col1": "Sam Katzman",
        "col2": "P. Medina",
        "col3": "4020"
    },
    {
        "col0": "Uptown Girls",
        "col1": "Fisher Stevens",
        "col2": "M. Shelton",
        "col3": "5520"
    },
    {
        "col0": "Uptight",
        "col1": "Jules Dassin",
        "col2": "R. Dee",
        "col3": "6240"
    },
    {
        "col0": "Upstart Crow",
        "col1": "Gareth Edwards",
        "col2": "D. Mitchell",
        "col3": "1800"
    },
    {
        "col0": "Upstairs and Downstairs",
        "col1": "Betty E. Box",
        "col2": "C. Cardinale",
        "col3": "6060"
    },
    {
        "col0": "Upstairs and Down",
        "col1": "Myron Selznick",
        "col2": "D. Butler",
        "col3": "3000"
    },
    {
        "col0": "Upstairs Downstairs",
        "col1": "Nikki Wilson",
        "col2": "A. Scarborough",
        "col3": "3600"
    },
    {
        "col0": "Upstairs, Downstairs",
        "col1": "John Hawkesworth",
        "col2": "L. Down",
        "col3": "3000"
    },
    {
        "col0": "Ups and Downs",
        "col1": "Vitaphone",
        "col2": "J. Allyson",
        "col3": "1260"
    },
    {
        "col0": "Uproar in Damascus",
        "col1": "Otto Lehmann",
        "col2": "J. Gottschalk",
        "col3": "6180"
    },
    {
        "col0": "Uprising",
        "col1": "Jon Avnet",
        "col2": "D. Sutherland",
        "col3": "9060"
    },
    {
        "col0": "Uppi 2",
        "col1": "Priyanka Upendra",
        "col2": "Upendra",
        "col3": "8160"
    },
    {
        "col0": "Upper World",
        "col1": "Jack L. Warner",
        "col2": "G. Rogers",
        "col3": "-4380"
    },
    {
        "col0": "Uphill All the Way",
        "col1": "Renee Valente",
        "col2": "M. Tillis",
        "col3": "5160"
    },
    {
        "col0": "Up to the Neck",
        "col1": "Herbert Wilcox",
        "col2": "W. Shotter",
        "col3": "4380"
    },
    {
        "col0": "Up to our Necks",
        "col1": "Slipknot",
        "col2": "Slipknot",
        "col3": "3900"
    },
    {
        "col0": "Up the Sandbox",
        "col1": "Robert Chartoff",
        "col2": "B. Streisand",
        "col3": "5820"
    },
    {
        "col0": "Up the River",
        "col1": "Sol M. Wurtzel",
        "col2": "P. Foster",
        "col3": "4500"
    },
    {
        "col0": "Up the River",
        "col1": "William Fox",
        "col2": "S. Tracy",
        "col3": "5520"
    },
    {
        "col0": "Up the MacGregors!",
        "col1": "Albert Band",
        "col2": "D. Bailey",
        "col3": "5400"
    },
    {
        "col0": "Up the Front",
        "col1": "Ned Sherrin",
        "col2": "F. Howerd",
        "col3": "5340"
    },
    {
        "col0": "Up the Down Staircase",
        "col1": "Alan J. Pakula",
        "col2": "E. Heckart",
        "col3": "7440"
    },
    {
        "col0": "Up the Creek",
        "col1": "Samuel Z. Arkoff",
        "col2": "J. Hillerman",
        "col3": "5760"
    },
    {
        "col0": "Up the Chastity Belt",
        "col1": "Ned Sherrin",
        "col2": "F. Howerd",
        "col3": "5640"
    },
    {
        "col0": "Up the Academy",
        "col1": "Marvin Worth",
        "col2": "B. Bach",
        "col3": "5220"
    },
    {
        "col0": "Up in the World",
        "col1": "Earl St. John",
        "col2": "N. Wisdom",
        "col3": "5220"
    },
    {
        "col0": "Up in the Cellar",
        "col1": "Samuel Z. Arkoff",
        "col2": "J. Collins",
        "col3": "5520"
    },
    {
        "col0": "Up in the Air",
        "col1": "Daniel Dubiecki",
        "col2": "A. Kendrick",
        "col3": "6540"
    },
    {
        "col0": "Up in Smoke",
        "col1": "Richard Heermance",
        "col2": "H. Hall",
        "col3": "3840"
    },
    {
        "col0": "Up in Smoke",
        "col1": "Lou Lombardo",
        "col2": "E. Adams",
        "col3": "5160"
    },
    {
        "col0": "Up in Mabel's Room",
        "col1": "Edward Small",
        "col2": "G. Patrick",
        "col3": "4560"
    },
    {
        "col0": "Up in Mabel's Room",
        "col1": "Al Christie",
        "col2": "H. Ford",
        "col3": "4200"
    },
    {
        "col0": "Up in Daisy's Penthouse",
        "col1": "Jules White",
        "col2": "C. Howard",
        "col3": "992"
    },
    {
        "col0": "Up in Central Park",
        "col1": "Karl Tunberg",
        "col2": "D. Haymes",
        "col3": "5040"
    },
    {
        "col0": "Up in Arms",
        "col1": "Samuel Goldwyn",
        "col2": "D. Kaye",
        "col3": "6360"
    },
    {
        "col0": "Up from the Depths",
        "col1": "Cirio H. Santiago",
        "col2": "S. Bottoms",
        "col3": "4500"
    },
    {
        "col0": "Up for the Derby",
        "col1": "Herbert Wilcox",
        "col2": "D. Bartlam",
        "col3": "4200"
    },
    {
        "col0": "Up for the Cup",
        "col1": "Herbert Wilcox",
        "col2": "M. Marriott",
        "col3": "4560"
    },
    {
        "col0": "Up for Murder",
        "col1": "Carl Laemmle, Jr.",
        "col2": "F. McHugh",
        "col3": "4080"
    },
    {
        "col0": "Up and Down",
        "col1": "Ondrej Trojan",
        "col2": "J. Triska",
        "col3": "6480"
    },
    {
        "col0": "Up Pompeii",
        "col1": "Ned Sherrin",
        "col2": "F. Howerd",
        "col3": "5400"
    },
    {
        "col0": "Up Pompeii!",
        "col1": "David Croft",
        "col2": "F. Howerd",
        "col3": "-2700"
    },
    {
        "col0": "Up Periscope",
        "col1": "Aubrey Schenck",
        "col2": "E. O'Brien",
        "col3": "6720"
    },
    {
        "col0": "Up Close and Personal",
        "col1": "Jordan Kerner",
        "col2": "M. Pfeiffer",
        "col3": "7440"
    },
    {
        "col0": "Up All Night",
        "col1": "Christina Applegate",
        "col2": "W. Arnett",
        "col3": "1320"
    },
    {
        "col0": "Up 'n' Under",
        "col1": "Mark Thomas",
        "col2": "N. Morrissey",
        "col3": "5940"
    },
    {
        "col0": "Up!",
        "col1": "Russ Meyer",
        "col2": "K. Natividad",
        "col3": "4800"
    },
    {
        "col0": "Until the End of the World",
        "col1": "Jonathan Taplin",
        "col2": "J. Moreau",
        "col3": "9480"
    },
    {
        "col0": "Until We Meet Again",
        "col1": "Luggi Waldleitner",
        "col2": "M. Schell",
        "col3": "5040"
    },
    {
        "col0": "Until They Sail",
        "col1": "Charles Schnee",
        "col2": "J. Fontaine",
        "col3": "5640"
    },
    {
        "col0": "Until September",
        "col1": "Michael Gruskoff",
        "col2": "C. Cazenove",
        "col3": "5700"
    },
    {
        "col0": "Until Money Departs You",
        "col1": "Artur Brauner",
        "col2": "C. Collins",
        "col3": "5760"
    },
    {
        "col0": "Unthinkable",
        "col1": "Marco Weber",
        "col2": "C. Moss",
        "col3": "5820"
    },
    {
        "col0": "Unter den tausend Laternen",
        "col1": "Walter Koppel",
        "col2": "M. Auclair",
        "col3": "5640"
    },
    {
        "col0": "Untamed Youth",
        "col1": "Aubrey Schenck",
        "col2": "M. V. Doren",
        "col3": "4800"
    },
    {
        "col0": "Untamed",
        "col1": "Tomoyuki Tanaka",
        "col2": "H. Takamine",
        "col3": "7260"
    },
    {
        "col0": "Unsuni",
        "col1": "Sajid Hasan",
        "col2": "M. Hayat",
        "col3": "-2400"
    },
    {
        "col0": "Unsub",
        "col1": "Stephen J. Cannell",
        "col2": "M. E. Walsh",
        "col3": "2640"
    },
    {
        "col0": "Unstrung Heroes",
        "col1": "Susan Arnold",
        "col2": "J. Turturro",
        "col3": "5580"
    },
    {
        "col0": "Unstoppable Marriage",
        "col1": "Kim Jho Kwang-soo",
        "col2": "H. Seok-jin",
        "col3": "6900"
    },
    {
        "col0": "Unstoppable",
        "col1": "Mimi Rogers",
        "col2": "C. Pine",
        "col3": "5880"
    },
    {
        "col0": "Unstoppable",
        "col1": "Boaz Davidson",
        "col2": "W. Snipes",
        "col3": "5760"
    },
    {
        "col0": "Unseen Evil",
        "col1": "Johnnie J. Young",
        "col2": "T. Thomerson",
        "col3": "5580"
    },
    {
        "col0": "Unscripted",
        "col1": "Grant Heslov",
        "col2": "F. Langella",
        "col3": "-1560"
    },
    {
        "col0": "Unruled Paper",
        "col1": "Iranian calendar",
        "col2": "J. Mashayekhi",
        "col3": "6600"
    },
    {
        "col0": "Unrest",
        "col1": "Adam Lebovitz",
        "col2": "D. O'Connor",
        "col3": "5280"
    }
]