[
    {
        "col0": "Wyoming Territorial Prison State Historic Site",
        "col1": "6070",
        "col2": "6070",
        "col3": "1872"
    },
    {
        "col0": "Wiscasset Jail and Museum",
        "col1": "20234",
        "col2": "20234",
        "col3": "1809"
    },
    {
        "col0": "Old York Gaol",
        "col1": "2023",
        "col2": "2023",
        "col3": "1719"
    },
    {
        "col0": "Old Wilkes County Jail",
        "col1": "2023",
        "col2": "2023",
        "col3": "1858"
    },
    {
        "col0": "Old Pickens Jail",
        "col1": "4046",
        "col2": "4046",
        "col3": "1903"
    },
    {
        "col0": "Old Newgate Prison",
        "col1": "20234",
        "col2": "20234",
        "col3": "1775"
    },
    {
        "col0": "Old Muhlenberg County Jail",
        "col1": "809",
        "col2": "809",
        "col3": "1912"
    },
    {
        "col0": "Old Indiana County Jail and Sheriff's Office",
        "col1": "1214",
        "col2": "1214",
        "col3": "1887"
    },
    {
        "col0": "Old Idaho State Penitentiary",
        "col1": "2063896",
        "col2": "2063896",
        "col3": "1870"
    },
    {
        "col0": "Ohio State Reformatory",
        "col1": "161874",
        "col2": "161874",
        "col3": "1886"
    },
    {
        "col0": "Lorton Reformatory",
        "col1": "2069157",
        "col2": "2069157",
        "col3": "1910"
    },
    {
        "col0": "Gardnerville Branch Jail",
        "col1": "404",
        "col2": "404",
        "col3": "1910"
    },
    {
        "col0": "Essex County Jail",
        "col1": "6070",
        "col2": "6070",
        "col3": "1837"
    },
    {
        "col0": "Eastern State Penitentiary",
        "col1": "44515",
        "col2": "44515",
        "col3": "1829"
    },
    {
        "col0": "Davie County Jail",
        "col1": "4046",
        "col2": "4046",
        "col3": "1839"
    },
    {
        "col0": "Coosa County Jail",
        "col1": "2023",
        "col2": "2023",
        "col3": "1842"
    },
    {
        "col0": "Carbon County Jail",
        "col1": "19829",
        "col2": "19829",
        "col3": "1869"
    },
    {
        "col0": "Camden County Jail",
        "col1": "14163",
        "col2": "14163",
        "col3": "1910"
    },
    {
        "col0": "Cambria County Jail",
        "col1": "6474",
        "col2": "6474",
        "col3": "1872"
    },
    {
        "col0": "Breathitt County Jail",
        "col1": "809",
        "col2": "809",
        "col3": "1934"
    },
    {
        "col0": "Alton Military Prison",
        "col1": "16187",
        "col2": "16187",
        "col3": "1833"
    }
]