[
    {
        "col0": "Yarley Meadows",
        "col1": "Gloucestershire",
        "col2": "122000",
        "col3": "Biological"
    },
    {
        "col0": "Wyndrush Pastures",
        "col1": "Pembrokeshire",
        "col2": "455000",
        "col3": "Biological"
    },
    {
        "col0": "Wurt Pit and Devil's Punchbowl",
        "col1": "Somerset",
        "col2": "2000",
        "col3": "Geological"
    },
    {
        "col0": "Wotton Hill",
        "col1": "Gloucestershire",
        "col2": "261000",
        "col3": "Biological/Geological"
    },
    {
        "col0": "Woolhayes Farm",
        "col1": "Somerset",
        "col2": "132000",
        "col3": "Biological"
    },
    {
        "col0": "Woodwalton Fen",
        "col1": "Cambridgeshire",
        "col2": "2090000",
        "col3": "Biological"
    },
    {
        "col0": "Wood Green Quarry & Railway Cutting",
        "col1": "Gloucestershire",
        "col2": "3000",
        "col3": "Geological"
    },
    {
        "col0": "Wolstonbury Hill",
        "col1": "West Sussex",
        "col2": "586000",
        "col3": "Biological"
    },
    {
        "col0": "Wistman's Wood",
        "col1": "Devon",
        "col2": "35000",
        "col3": "Biological"
    },
    {
        "col0": "Winson Meadows",
        "col1": "Gloucestershire",
        "col2": "79300",
        "col3": "Biological"
    },
    {
        "col0": "Windsor Hill Quarry",
        "col1": "Somerset",
        "col2": "8000",
        "col3": "Geological"
    },
    {
        "col0": "Windsor Hill Marsh",
        "col1": "Somerset",
        "col2": "8400",
        "col3": "Biological"
    },
    {
        "col0": "Winchelsea Cutting",
        "col1": "East Sussex",
        "col2": "1300",
        "col3": "Geological"
    },
    {
        "col0": "Wilmington Downs",
        "col1": "East Sussex",
        "col2": "2082000",
        "col3": "Biological"
    },
    {
        "col0": "Willingford Meadows",
        "col1": "East Sussex",
        "col2": "114000",
        "col3": "Biological"
    },
    {
        "col0": "Wildmoorway Meadows",
        "col1": "Gloucestershire",
        "col2": "126000",
        "col3": "Biological"
    },
    {
        "col0": "Wigpool Ironstone Mine",
        "col1": "Gloucestershire",
        "col2": "348800",
        "col3": "Biological"
    },
    {
        "col0": "Wicken Fen",
        "col1": "Cambridgeshire",
        "col2": "2470000",
        "col3": "Biological"
    },
    {
        "col0": "Whitevine Meadows",
        "col1": "Somerset",
        "col2": "130000",
        "col3": "Biological"
    },
    {
        "col0": "Whelford Meadow",
        "col1": "Gloucestershire",
        "col2": "18600",
        "col3": "Biological"
    },
    {
        "col0": "Wet Moor",
        "col1": "Somerset",
        "col2": "4910000",
        "col3": "Biological"
    },
    {
        "col0": "Westhay Moor",
        "col1": "Somerset",
        "col2": "5136674",
        "col3": "Biological"
    },
    {
        "col0": "Westhay Heath",
        "col1": "Somerset",
        "col2": "259000",
        "col3": "Biological"
    },
    {
        "col0": "Westbury Brook Ironstone Mine",
        "col1": "Gloucestershire",
        "col2": "156900",
        "col3": "Biological"
    },
    {
        "col0": "West Sedgemoor",
        "col1": "Somerset",
        "col2": "10160000",
        "col3": "Biological"
    },
    {
        "col0": "West Moor SSSI",
        "col1": "Somerset",
        "col2": "2130000",
        "col3": "Biological"
    },
    {
        "col0": "West Hoathly SSSI",
        "col1": "West Sussex",
        "col2": "6600",
        "col3": "Geological"
    },
    {
        "col0": "West Cornwall Bryophytes Site of Special Scientific Interest",
        "col1": "Cornwall",
        "col2": "539300",
        "col3": "Biological"
    },
    {
        "col0": "Wellacre Quarry",
        "col1": "Gloucestershire",
        "col2": "123000",
        "col3": "Geological"
    },
    {
        "col0": "Waun Fawr, Puncheston",
        "col1": "Pembrokeshire",
        "col2": "82600",
        "col3": "Biological"
    },
    {
        "col0": "Wangford Warren and Carr",
        "col1": "Suffolk",
        "col2": "540600",
        "col3": "Biological"
    },
    {
        "col0": "Walton and Ivythorn Hills",
        "col1": "Somerset",
        "col2": "349000",
        "col3": "Biological"
    },
    {
        "col0": "Wallis Moor",
        "col1": "Pembrokeshire",
        "col2": "632200",
        "col3": "Biological"
    },
    {
        "col0": "Waldron Cutting",
        "col1": "East Sussex",
        "col2": "1900",
        "col3": "Geological"
    },
    {
        "col0": "Wainlode Cliff",
        "col1": "Gloucestershire",
        "col2": "13000",
        "col3": "Geological"
    },
    {
        "col0": "Viaduct Quarry",
        "col1": "Somerset",
        "col2": "3000",
        "col3": "Geological"
    },
    {
        "col0": "Ventongimps Moor",
        "col1": "Cornwall",
        "col2": "82000",
        "col3": "Biological"
    },
    {
        "col0": "Veizey's Quarry",
        "col1": "Gloucestershire",
        "col2": "14000",
        "col3": "Geological"
    },
    {
        "col0": "Vallis Vale",
        "col1": "Somerset",
        "col2": "239000",
        "col3": "Biological and Geological"
    },
    {
        "col0": "Upper Wye Gorge",
        "col1": "Gloucestershire",
        "col2": "2451000",
        "col3": "Biological/Geological"
    },
    {
        "col0": "Uphill Cliff",
        "col1": "Avon",
        "col2": "198000",
        "col3": "Biological"
    },
    {
        "col0": "Upham Meadow and Summer Leasow",
        "col1": "Gloucestershire",
        "col2": "1040000",
        "col3": "Biological"
    },
    {
        "col0": "Twinhills Woods and Meadows",
        "col1": "Somerset",
        "col2": "212000",
        "col3": "Biological"
    },
    {
        "col0": "Turvey's Piece",
        "col1": "Gloucestershire",
        "col2": "10200",
        "col3": "Biological"
    },
    {
        "col0": "Turners Hill SSSI",
        "col1": "West Sussex",
        "col2": "1600",
        "col3": "Geological"
    },
    {
        "col0": "Tudor Farm Bank",
        "col1": "Gloucestershire",
        "col2": "36800",
        "col3": "Biological"
    },
    {
        "col0": "Trewent Point",
        "col1": "Pembrokeshire",
        "col2": "641500",
        "col3": "Biological and Geological"
    },
    {
        "col0": "Treffgarne Bridge Quarry",
        "col1": "Pembrokeshire",
        "col2": "4000",
        "col3": "Geological"
    },
    {
        "col0": "Trefeiddan Moor",
        "col1": "Pembrokeshire",
        "col2": "216100",
        "col3": "Biological"
    },
    {
        "col0": "Treen Cliff",
        "col1": "Cornwall",
        "col2": "493000",
        "col3": "Biological"
    },
    {
        "col0": "Thurlbear Wood and Quarrylands",
        "col1": "Somerset",
        "col2": "267000",
        "col3": "Biological"
    },
    {
        "col0": "Thorness Bay",
        "col1": "Isle of Wight",
        "col2": "862000",
        "col3": "Biological and Geological"
    },
    {
        "col0": "The Wilderness SSSI, Isle of Wight",
        "col1": "Isle of Wight",
        "col2": "126000",
        "col3": "Biological"
    },
    {
        "col0": "The Hudnalls",
        "col1": "Gloucestershire",
        "col2": "944000",
        "col3": "Biological"
    },
    {
        "col0": "Tealham and Tadham Moors",
        "col1": "Somerset",
        "col2": "9176000",
        "col3": "Biological"
    },
    {
        "col0": "Tamar-Tavy Estuary",
        "col1": "Cornwall",
        "col2": "14223000",
        "col3": "Biological"
    },
    {
        "col0": "Sylvia's Meadow",
        "col1": "Cornwall",
        "col2": "44600",
        "col3": "Biological"
    },
    {
        "col0": "Sylvan House Barn",
        "col1": "Gloucestershire",
        "col2": "50",
        "col3": "Biological"
    },
    {
        "col0": "Swift's Hill SSSI",
        "col1": "Gloucestershire",
        "col2": "91500",
        "col3": "Biological/Geological"
    },
    {
        "col0": "Swanpool Wood and Furnace Grove",
        "col1": "Gloucestershire",
        "col2": "135900",
        "col3": "Biological"
    },
    {
        "col0": "Studland and Godlingston Heath National Nature Reserve",
        "col1": "Dorset",
        "col2": "7590000",
        "col3": "biological, historical, ornithological"
    },
    {
        "col0": "Strumble Head - Llechdafad Cliffs",
        "col1": "Pembrokeshire",
        "col2": "2046300",
        "col3": "Biological and Geological"
    },
    {
        "col0": "Street Heath",
        "col1": "Somerset",
        "col2": "125000",
        "col3": "Biological"
    },
    {
        "col0": "Strawberry Banks",
        "col1": "Gloucestershire",
        "col2": "51000",
        "col3": "Biological"
    },
    {
        "col0": "Stowell Meadow",
        "col1": "Somerset",
        "col2": "28000",
        "col3": "Biological"
    },
    {
        "col0": "Stony Furlong Railway Cutting",
        "col1": "Gloucestershire",
        "col2": "27000",
        "col3": "Geological"
    },
    {
        "col0": "Stone Farm Rocks",
        "col1": "West Sussex",
        "col2": "6400",
        "col3": "Geological"
    },
    {
        "col0": "Stockland Farm Meadows",
        "col1": "East Sussex",
        "col2": "58000",
        "col3": "Biological"
    },
    {
        "col0": "Stinchcombe",
        "col1": "Gloucestershire",
        "col2": "286000",
        "col3": "Biological"
    },
    {
        "col0": "Stenders Quarry",
        "col1": "Gloucestershire",
        "col2": "28000",
        "col3": "Biological/Geological"
    },
    {
        "col0": "Steeple Point to Marsland Mouth",
        "col1": "Cornwall",
        "col2": "3428000",
        "col3": "Biological"
    },
    {
        "col0": "Stanley Bank Meadow",
        "col1": "Merseyside",
        "col2": "148924",
        "col3": "Biological"
    },
    {
        "col0": "St. Dunstan's Well Catchment",
        "col1": "Somerset",
        "col2": "398000",
        "col3": "Biological and Geological"
    },
    {
        "col0": "St. Dunstan's Farm Meadows",
        "col1": "East Sussex",
        "col2": "102000",
        "col3": "Biological"
    },
    {
        "col0": "Speech House Oaks",
        "col1": "Gloucestershire",
        "col2": "162600",
        "col3": "Biological"
    },
    {
        "col0": "Sparkford Wood",
        "col1": "Somerset",
        "col2": "84000",
        "col3": "Biological"
    },
    {
        "col0": "Southlake Moor",
        "col1": "Somerset",
        "col2": "1961000",
        "col3": "Biological"
    },
    {
        "col0": "Southey and Gotleigh Moors",
        "col1": "Somerset",
        "col2": "813000",
        "col3": "Biological"
    },
    {
        "col0": "Southerham Works Pit",
        "col1": "East Sussex",
        "col2": "8300",
        "col3": "Geological"
    },
    {
        "col0": "Southerham Machine Bottom Pit",
        "col1": "East Sussex",
        "col2": "16000",
        "col3": "Geological"
    },
    {
        "col0": "Southerham Grey Pit",
        "col1": "East Sussex",
        "col2": "84000",
        "col3": "Geological"
    },
    {
        "col0": "Sound Heath",
        "col1": "Cheshire",
        "col2": "48000",
        "col3": "Biological"
    },
    {
        "col0": "Soudley Ponds",
        "col1": "Gloucestershire",
        "col2": "70400",
        "col3": "Biological"
    },
    {
        "col0": "Snowdon Hill Quarry",
        "col1": "Somerset",
        "col2": "6000",
        "col3": "Geological"
    },
    {
        "col0": "Slade Brook",
        "col1": "Gloucestershire",
        "col2": "36300",
        "col3": "Biological/Geological"
    },
    {
        "col0": "Shorn Cliff and Caswell Woods",
        "col1": "Gloucestershire",
        "col2": "692000",
        "col3": "Biological"
    },
    {
        "col0": "Shepton Montague Railway Cutting",
        "col1": "Somerset",
        "col2": "16100",
        "col3": "Geological"
    },
    {
        "col0": "Sharpham Moor Plot",
        "col1": "Somerset",
        "col2": "5000",
        "col3": "Biological"
    },
    {
        "col0": "Shapwick Heath",
        "col1": "Somerset",
        "col2": "3940000",
        "col3": "Biological"
    },
    {
        "col0": "Severn Ham, Tewkesbury",
        "col1": "Gloucestershire",
        "col2": "708200",
        "col3": "Biological"
    },
    {
        "col0": "Severn Estuary",
        "col1": "Gloucestershire",
        "col2": "14368000",
        "col3": "Biological/Geological"
    },
    {
        "col0": "Seavington St. Mary SSSI, Somerset",
        "col1": "Somerset",
        "col2": "3000",
        "col3": "Geological"
    },
    {
        "col0": "Seaford to Beachy Head",
        "col1": "East Sussex",
        "col2": "11020000",
        "col3": "Biological and Geological"
    },
    {
        "col0": "Scully Grove Quarry",
        "col1": "Gloucestershire",
        "col2": "4000",
        "col3": "Geological"
    },
    {
        "col0": "Sapperton Meadows",
        "col1": "East Sussex",
        "col2": "146000",
        "col3": "Biological"
    },
    {
        "col0": "Sandpit Hole and Bishop's Lot",
        "col1": "Somerset",
        "col2": "18000",
        "col3": "Geological"
    },
    {
        "col0": "Salmonsbury Meadows SSSI",
        "col1": "Gloucestershire",
        "col2": "180000",
        "col3": "Biological/Geological"
    },
    {
        "col0": "Ryde Sands and Wootton Creek SSSI",
        "col1": "Isle of Wight",
        "col2": "4244000",
        "col3": "Biological"
    },
    {
        "col0": "Ruttersleigh",
        "col1": "Somerset",
        "col2": "970000",
        "col3": "Biological"
    },
    {
        "col0": "Rough Bank, Miserden",
        "col1": "Gloucestershire",
        "col2": "92000",
        "col3": "Biological"
    },
    {
        "col0": "Rosenannon Downs",
        "col1": "Cornwall",
        "col2": "1355000",
        "col3": "Biological"
    },
    {
        "col0": "Roebuck Meadows",
        "col1": "Somerset",
        "col2": "36000",
        "col3": "Biological"
    },
    {
        "col0": "Rodney Stoke SSSI",
        "col1": "Somerset",
        "col2": "696000",
        "col3": "Biological"
    }
]