[
    {
        "col0": "Who Needs You Baby",
        "col1": "Hypnotize the Moon",
        "col2": "C. Walker",
        "col3": "Clay Walker"
    },
    {
        "col0": "Who Needs Pictures",
        "col1": "He Didn't Have to Be",
        "col2": "B. Paisley",
        "col3": "Brad Paisley"
    },
    {
        "col0": "Who Needs Love Like That",
        "col1": "Heavenly Action",
        "col2": "V. Clarke",
        "col3": "Erasure"
    },
    {
        "col0": "Who Needs Enemies?",
        "col1": "A.I.M.",
        "col2": "B. Bacharach",
        "col3": "The Cooper Temple Clause"
    },
    {
        "col0": "Who Loves You",
        "col1": "December 1963",
        "col2": "B. Gaudio",
        "col3": "The Four Seasons"
    },
    {
        "col0": "Who Let the Dogs Out?",
        "col1": "You All Dat",
        "col2": "A. Douglas",
        "col3": "Baha Men"
    },
    {
        "col0": "Who Let In the Rain",
        "col1": "That's What I Think",
        "col2": "C. Lauper",
        "col3": "Cyndi Lauper"
    },
    {
        "col0": "Who Is She 2 U",
        "col1": "Afrodisiac",
        "col2": "Timbaland",
        "col3": "Brandy Norwood"
    },
    {
        "col0": "Who Is It",
        "col1": "Heal the World",
        "col2": "M. Jackson",
        "col3": "Michael Jackson"
    },
    {
        "col0": "Who Is It",
        "col1": "Triumph of a Heart",
        "col2": "Bjork",
        "col3": "Bjork"
    },
    {
        "col0": "Who I Was Born to Be",
        "col1": "Proud",
        "col2": "A. Mae",
        "col3": "Susan Boyle"
    },
    {
        "col0": "Who I Am with You",
        "col1": "Lonely Eyes",
        "col2": "J. Sellers",
        "col3": "Chris Young"
    },
    {
        "col0": "Who I Am Hates Who I've Been",
        "col1": "The Truth",
        "col2": "M. Thiessen",
        "col3": "Relient K"
    },
    {
        "col0": "Who I Am",
        "col1": "An Invitation",
        "col2": "I. S. Dahl",
        "col3": "Lena Katina"
    },
    {
        "col0": "Who I Am",
        "col1": "Helplessly, Hopelessly",
        "col2": "B. James",
        "col3": "Jessica Andrews"
    },
    {
        "col0": "Who Feels Love?",
        "col1": "Sunday Morning Call",
        "col2": "N. Gallagher",
        "col3": "Oasis"
    },
    {
        "col0": "Who Do You Wanna Be",
        "col1": "Ooh, Yes I Do",
        "col2": "H. v. Hemert",
        "col3": "Luv'"
    },
    {
        "col0": "Who Do You Think You Are",
        "col1": "Million Miles Away",
        "col2": "K. Wilde",
        "col3": "Kim Wilde"
    },
    {
        "col0": "Who Do You Think You Are",
        "col1": "Skitszo",
        "col2": "RedOne",
        "col3": "Colette Carr"
    },
    {
        "col0": "Who Do You Think You Are",
        "col1": "Xmas 93",
        "col2": "C. Scott",
        "col3": "Saint Etienne"
    },
    {
        "col0": "Who Do You Think You're Foolin'",
        "col1": "Love Is in Control",
        "col2": "P. Bellotte",
        "col3": "Donna Summer"
    },
    {
        "col0": "Who Do You Know in California",
        "col1": "A Little Bit Crazy",
        "col2": "E. Raven",
        "col3": "Eddy Raven"
    },
    {
        "col0": "Who Dat Girl",
        "col1": "Dance with Me",
        "col2": "B. Mars",
        "col3": "Flo Rida"
    },
    {
        "col0": "Who Dat",
        "col1": "A Star Is Born",
        "col2": "J. Cole",
        "col3": "J. Cole"
    },
    {
        "col0": "Who Could Win a Rabbit",
        "col1": "Grass",
        "col2": "A. Collective",
        "col3": "Animal Collective"
    },
    {
        "col0": "Who Are You When I'm Not Looking",
        "col1": "Honey Bee",
        "col2": "J. Wiggins",
        "col3": "Blake Shelton"
    },
    {
        "col0": "Who Are You",
        "col1": "Trick of the Light",
        "col2": "P. Townshend",
        "col3": "The Who"
    },
    {
        "col0": "Who Am I",
        "col1": "Changes",
        "col2": "L. Silvas",
        "col3": "Will Young"
    },
    {
        "col0": "Who Am I",
        "col1": "Voice of Truth",
        "col2": "M. Hall",
        "col3": "Casting Crowns"
    },
    {
        "col0": "Who Am I?",
        "col1": "Colour My World",
        "col2": "T. Hatch",
        "col3": "Petula Clark"
    },
    {
        "col0": "Who's the Man?",
        "col1": "Just Another Victim",
        "col2": "Everlast",
        "col3": "House of Pain"
    },
    {
        "col0": "Who's da Man",
        "col1": "Fotbollsfest",
        "col2": "F. Andersson",
        "col3": "Elias"
    },
    {
        "col0": "Who's Zoomin' Who",
        "col1": "Sisters Are Doin' It for Themselves",
        "col2": "A. Franklin",
        "col3": "Aretha Franklin"
    },
    {
        "col0": "Who's Your Daddy?",
        "col1": "Rock You Baby",
        "col2": "T. Keith",
        "col3": "Toby Keith"
    },
    {
        "col0": "Who's Your Baby",
        "col1": "Sunshine",
        "col2": "J. Barry",
        "col3": "The Archies"
    },
    {
        "col0": "Who's That Man",
        "col1": "Upstairs Downtown",
        "col2": "T. Keith",
        "col3": "Toby Keith"
    },
    {
        "col0": "Who's That Girl",
        "col1": "Handle Me",
        "col2": "Robyn",
        "col3": "Robyn"
    },
    {
        "col0": "Who's That Girl",
        "col1": "All Night Long",
        "col2": "G. Sebastian",
        "col3": "Guy Sebastian"
    },
    {
        "col0": "Who's That Girl?",
        "col1": "Let Me Blow Ya Mind",
        "col2": "Eve",
        "col3": "Eve"
    },
    {
        "col0": "Who's That Girl?",
        "col1": "Right by Your Side",
        "col2": "A. Lennox",
        "col3": "Eurythmics"
    },
    {
        "col0": "Who's Lovin' You",
        "col1": "ABC",
        "col2": "W. \". Robinson",
        "col3": "The Miracles"
    },
    {
        "col0": "Who's Lonely Now",
        "col1": "Walkin', Talkin', Cryin', Barely Beatin' Broken Heart",
        "col2": "K. Brooks",
        "col3": "Highway 101"
    },
    {
        "col0": "Who's Laughing Now",
        "col1": "Domino",
        "col2": "J. J",
        "col3": "Jessie J"
    },
    {
        "col0": "Who's Holding Donna Now",
        "col1": "You Wear It Well",
        "col2": "D. Foster",
        "col3": "DeBarge"
    },
    {
        "col0": "Who's Got a Match?",
        "col1": "Mountains",
        "col2": "S. Neil",
        "col3": "Biffy Clyro"
    },
    {
        "col0": "Who's Gonna Mow Your Grass",
        "col1": "Johnny B. Goode",
        "col2": "B. Owens",
        "col3": "Buck Owens"
    },
    {
        "col0": "Who's Gonna Fill Their Shoes",
        "col1": "The One I Loved Back Then",
        "col2": "T. Seals",
        "col3": "George Jones"
    },
    {
        "col0": "Who's David",
        "col1": "Air Hostess",
        "col2": "T. Fletcher",
        "col3": "Busted"
    },
    {
        "col0": "Who's Crying Now",
        "col1": "Don't Stop Believin'",
        "col2": "J. Cain",
        "col3": "Journey"
    },
    {
        "col0": "Who's Been Writing on the Wall Again",
        "col1": "Treacle Brown",
        "col2": "B. Gibb",
        "col3": "Lori Balmer"
    },
    {
        "col0": "Who's Afraid of the Big Bad Wolf?",
        "col1": "Strictly Business",
        "col2": "F. Churchill",
        "col3": "LL Cool J"
    },
    {
        "col0": "Who'll Stop the Rain",
        "col1": "Up Around the Bend",
        "col2": "J. Fogerty",
        "col3": "Creedence Clearwater Revival"
    },
    {
        "col0": "Who'll Be the One",
        "col1": "Heaven and Hell",
        "col2": "G. Young",
        "col3": "The Easybeats"
    },
    {
        "col0": "Who'll Be the Next in Line",
        "col1": "A Well Respected Man",
        "col2": "R. Davies",
        "col3": "The Kinks"
    },
    {
        "col0": "Who'd Have Known",
        "col1": "Just Be Good to Green",
        "col2": "H. Donald",
        "col3": "Lily Allen"
    },
    {
        "col0": "White as Snow",
        "col1": "Breathe",
        "col2": "T. music",
        "col3": "U2"
    },
    {
        "col0": "White Wedding",
        "col1": "Rebel Yell",
        "col2": "B. Idol",
        "col3": "Billy Idol"
    },
    {
        "col0": "White Walls",
        "col1": "Arrows",
        "col2": "Macklemore",
        "col3": "Macklemore & Ryan Lewis"
    }
]