[
    {
        "col0": "Touching",
        "col1": "Barrage",
        "col2": "1965-11-05",
        "col3": "1767"
    },
    {
        "col0": "Touch Me",
        "col1": "Willingly",
        "col2": "1961-08-22",
        "col3": "130"
    },
    {
        "col0": "Touch 'Em with Love",
        "col1": "Way Down South",
        "col2": "1969-05-01",
        "col3": "1605"
    },
    {
        "col0": "Totale's Turns",
        "col1": "Dragnet",
        "col2": "1979-10-27",
        "col3": "2585"
    },
    {
        "col0": "Total Response",
        "col1": "That Healin' Feelin'",
        "col2": "1970-11-15",
        "col3": "2447"
    },
    {
        "col0": "Total Eclipse",
        "col1": "Patterns",
        "col2": "1968-07-12",
        "col3": "2432"
    },
    {
        "col0": "Total Abandon: Australia '99",
        "col1": "Live at The Olympia '96",
        "col2": "1999-04-20",
        "col3": "6967"
    },
    {
        "col0": "Toshiko Plays Billy Strayhorn",
        "col1": "Dedications II",
        "col2": "0004-04-03",
        "col3": "2246"
    },
    {
        "col0": "Toshiko Akiyoshi Jazz Orchestra in Shanghai",
        "col1": "Last Live in Blue Note Tokyo",
        "col2": "2010-10-17",
        "col3": "7200"
    },
    {
        "col0": "Tori Amos: Live from New York",
        "col1": "Little Earthquakes",
        "col2": "1997-01-23",
        "col3": "6000"
    },
    {
        "col0": "Too Young",
        "col1": "Puppy Love",
        "col2": "1972-04-17",
        "col3": "179"
    },
    {
        "col0": "Too Weird to Live, Too Rare to Die!",
        "col1": "Vices & Virtues",
        "col2": "2012-02-13",
        "col3": "1952"
    },
    {
        "col0": "Too Much Monkey Business",
        "col1": "Roll Over Beethoven",
        "col2": "1956-04-16",
        "col3": "176"
    },
    {
        "col0": "Too Much",
        "col1": "Love Me Tender",
        "col2": "1956-09-02",
        "col3": "153"
    },
    {
        "col0": "Too Many People",
        "col1": "Another Day",
        "col2": "1970-11-10",
        "col3": "250"
    },
    {
        "col0": "Too Bad You're Beautiful",
        "col1": "Sin, Sorrow and Sadness",
        "col2": "2001-05-15",
        "col3": "2872"
    },
    {
        "col0": "Tony Sings for Two",
        "col1": "To My Wonderful One",
        "col2": "1959-10-28",
        "col3": "2015"
    },
    {
        "col0": "Tony Makes It Happen",
        "col1": "A Time for Love",
        "col2": "1966-11-26",
        "col3": "1820"
    },
    {
        "col0": "Tony Bennett at Carnegie Hall",
        "col1": "I Left My Heart in San Francisco",
        "col2": "1962-06-09",
        "col3": "3812"
    },
    {
        "col0": "Tony Bennett's Something",
        "col1": "Tony Sings the Great Hits of Today!",
        "col2": "0003-04-02",
        "col3": "3150"
    },
    {
        "col0": "Tonite's Music Today",
        "col1": "The Dual Role of Bob Brookmeyer",
        "col2": "1956-01-31",
        "col3": "2118"
    },
    {
        "col0": "Tonight at Noon",
        "col1": "Oh Yeah",
        "col2": "1957-03-12",
        "col3": "2288"
    },
    {
        "col0": "Tonight I'll Be Staying Here with You",
        "col1": "Lay Lady Lay",
        "col2": "1969-02-17",
        "col3": "203"
    },
    {
        "col0": "Tonight",
        "col1": "Blue Jean",
        "col2": "1985-03-23",
        "col3": "223"
    },
    {
        "col0": "Tonight",
        "col1": "Stand Up",
        "col2": "1988-05-05",
        "col3": "241"
    },
    {
        "col0": "Tonight, Not Again: Jason Mraz Live at the Eagles Ballroom",
        "col1": "Waiting for My Rocket to Come",
        "col2": "2003-10-28",
        "col3": "4583"
    },
    {
        "col0": "Tongues",
        "col1": "The Exchange Session Vol. 2",
        "col2": "2006-02-07",
        "col3": "2684"
    },
    {
        "col0": "Tones",
        "col1": "Seven Worlds",
        "col2": "1985-11-17",
        "col3": "2731"
    },
    {
        "col0": "Tomorrow Tomorrow",
        "col1": "First of May",
        "col2": "1969-03-21",
        "col3": "245"
    },
    {
        "col0": "Tomorrow Is a Long Time",
        "col1": "It's All Over Now, Baby Blue",
        "col2": "1963-04-12",
        "col3": "181"
    },
    {
        "col0": "Tommy",
        "col1": "Direct Hits",
        "col2": "1968-09-19",
        "col3": "4515"
    },
    {
        "col0": "Tom Cat",
        "col1": "Search for the New Land",
        "col2": "1964-08-11",
        "col3": "2484"
    },
    {
        "col0": "Toledo Window Box",
        "col1": "Occupation: Foole",
        "col2": "1974-07-20",
        "col3": "2666"
    },
    {
        "col0": "Tokyo Warhearts",
        "col1": "Hatebreeder",
        "col2": "1999-07-11",
        "col3": "2684"
    },
    {
        "col0": "Tokyo Live",
        "col1": "Higher Plane",
        "col2": "1978-06-23",
        "col3": "4609"
    },
    {
        "col0": "Tokyo Encore",
        "col1": "Revolution on Ice",
        "col2": "1993-09-27",
        "col3": "1829"
    },
    {
        "col0": "Tokyo Dome Live in Concert",
        "col1": "A Different Kind of Truth",
        "col2": "2013-06-21",
        "col3": "7192"
    },
    {
        "col0": "Tokyo Collection",
        "col1": "Color Bars",
        "col2": "2005-02-09",
        "col3": "3719"
    },
    {
        "col0": "Tokyo '96",
        "col1": "Keith Jarrett at the Blue Note",
        "col2": "1996-03-30",
        "col3": "4739"
    },
    {
        "col0": "Together Alone",
        "col1": "Paris Concert",
        "col2": "1971-12-29",
        "col3": "2566"
    },
    {
        "col0": "Together Again for the Last Time",
        "col1": "Gene Ammons in Sweden",
        "col2": "1973-12-10",
        "col3": "2142"
    },
    {
        "col0": "Together Again: Live at the Montreux Jazz Festival '82",
        "col1": "Reunion at Budokan 1981",
        "col2": "1982-07-25",
        "col3": "3069"
    },
    {
        "col0": "Together",
        "col1": "Counterpoints",
        "col2": "1978-09-03",
        "col3": "2475"
    },
    {
        "col0": "Together",
        "col1": "Breakin' in a Brand New Broken Heart",
        "col2": "1961-06-03",
        "col3": "172"
    },
    {
        "col0": "Today on Earth",
        "col1": "Colorfield",
        "col2": "2009-06-17",
        "col3": "4026"
    },
    {
        "col0": "Today and Tomorrow",
        "col1": "Nights of Ballads & Blues",
        "col2": "1963-06-04",
        "col3": "2324"
    },
    {
        "col0": "Tocando Madera",
        "col1": "?El Concepto?",
        "col2": "1999-09-02",
        "col3": "3616"
    },
    {
        "col0": "Toad",
        "col1": "I'm So Glad",
        "col2": "1968-03-07",
        "col3": "309"
    },
    {
        "col0": "To the Ends of the Earth",
        "col1": "King of Majesty",
        "col2": "2002-09-07",
        "col3": "4218"
    },
    {
        "col0": "To a Finland Station",
        "col1": "Musician, Composer, Raconteur",
        "col2": "1982-09-09",
        "col3": "2672"
    },
    {
        "col0": "To You Sweetheart, Aloha",
        "col1": "Two Time Winners",
        "col2": "1958-11-03",
        "col3": "1679"
    },
    {
        "col0": "To Whom Who Keeps a Record",
        "col1": "Skies of America",
        "col2": "1959-10-08",
        "col3": "2417"
    },
    {
        "col0": "To Whom It May Concern",
        "col1": "The Very Thought of You",
        "col2": "0018-08-11",
        "col3": "2872"
    },
    {
        "col0": "To Them - To Us",
        "col1": "Improvisations",
        "col2": "1981-05-27",
        "col3": "2636"
    },
    {
        "col0": "To Terrapin: Hartford '77",
        "col1": "Road Trips Volume 2 Number 2",
        "col2": "1977-05-28",
        "col3": "10939"
    },
    {
        "col0": "To Swing or Not to Swing",
        "col1": "Kessel Plays Standards",
        "col2": "1955-03-28",
        "col3": "2764"
    },
    {
        "col0": "To Russell, My Brother, Whom I Slept With",
        "col1": "Bill Cosby Sings Hooray for the Salvation Army Band!",
        "col2": "1968-01-27",
        "col3": "2469"
    },
    {
        "col0": "To My Queen",
        "col1": "Relativity",
        "col2": "1962-09-21",
        "col3": "1951"
    },
    {
        "col0": "To Mega Therion",
        "col1": "Emperor's Return",
        "col2": "1985-09-28",
        "col3": "2392"
    },
    {
        "col0": "To Make a Man",
        "col1": "Woman of the World",
        "col2": "1969-05-28",
        "col3": "135"
    },
    {
        "col0": "To Love a Child",
        "col1": "Here's to the Band",
        "col2": "1981-12-05",
        "col3": "201"
    },
    {
        "col0": "To Duke with Love",
        "col1": "Yesterday's Thoughts",
        "col2": "1975-03-05",
        "col3": "2430"
    },
    {
        "col0": "To Duke",
        "col1": "I've Been to Many Places",
        "col2": "2014-06-10",
        "col3": "3388"
    },
    {
        "col0": "To Diz with Love",
        "col1": "To Bird with Love",
        "col2": "1992-02-01",
        "col3": "3948"
    },
    {
        "col0": "To Britain with Love... And Bruises",
        "col1": "A Prayer Under Pressure Of Violent Anguish",
        "col2": "2000-11-29",
        "col3": "2160"
    },
    {
        "col0": "To Bird with Love",
        "col1": "Bird Songs: The Final Recordings",
        "col2": "1992-01-25",
        "col3": "3800"
    },
    {
        "col0": "To Beast or Not to Beast",
        "col1": "Scarchives Vol. 1",
        "col2": "2012-10-30",
        "col3": "2595"
    },
    {
        "col0": "Tired Hooker",
        "col1": "Pants Off",
        "col2": "2011-12-20",
        "col3": "2637"
    },
    {
        "col0": "Tiptoe Tapdance",
        "col1": "Direct from L.A.",
        "col2": "1977-06-29",
        "col3": "2240"
    },
    {
        "col0": "Tippin' the Scales",
        "col1": "Let Freedom Ring",
        "col2": "1962-09-28",
        "col3": "2160"
    },
    {
        "col0": "Tiny in Swingville",
        "col1": "Callin' the Blues",
        "col2": "1959-08-13",
        "col3": "2399"
    },
    {
        "col0": "Tiny Dancer",
        "col1": "Red Rag Top",
        "col2": "1971-08-09",
        "col3": "196"
    },
    {
        "col0": "Tink of S.E.",
        "col1": "Lisa Carol Freemont",
        "col2": "1986-08-26",
        "col3": "2675"
    },
    {
        "col0": "Tindersticks",
        "col1": "Tindersticks",
        "col2": "1994-05-15",
        "col3": "4226"
    },
    {
        "col0": "Tin Soldier",
        "col1": "Itchycoo Park",
        "col2": "1967-11-06",
        "col3": "186"
    },
    {
        "col0": "Tin Machine Live: Oy Vey, Baby",
        "col1": "Tin Machine II",
        "col2": "1991-11-20",
        "col3": "2957"
    },
    {
        "col0": "Times Like These",
        "col1": "All My Life",
        "col2": "2002-11-29",
        "col3": "235"
    },
    {
        "col0": "Timeless: Live in Concert",
        "col1": "A Love Like Ours",
        "col2": "1999-12-31",
        "col3": "7397"
    },
    {
        "col0": "Time to Think",
        "col1": "Southern Reunion",
        "col2": "1999-07-29",
        "col3": "3610"
    },
    {
        "col0": "Time to React - Live!",
        "col1": "D.e.s.t.i.t.u.t.i.o.n",
        "col2": "1994-12-17",
        "col3": "2351"
    },
    {
        "col0": "Time for a Witness",
        "col1": "Only Life",
        "col2": "1990-12-19",
        "col3": "2524"
    },
    {
        "col0": "Time for Tyner",
        "col1": "Tender Moments",
        "col2": "1968-05-17",
        "col3": "2576"
    },
    {
        "col0": "Time Will Pronounce",
        "col1": "The Essential Michael Nyman Band",
        "col2": "1992-06-12",
        "col3": "3861"
    },
    {
        "col0": "Time Traveller",
        "col1": "A Night at Red Rocks with the Colorado Symphony Orchestra",
        "col2": "1967-03-30",
        "col3": "18462"
    },
    {
        "col0": "Time Remembered",
        "col1": "The Paris Concert: Edition One",
        "col2": "1958-12-15",
        "col3": "4246"
    },
    {
        "col0": "Time Machine 2011: Live in Cleveland",
        "col1": "Rush ABC: Live from Cleveland's Agora Ballroom 1974",
        "col2": "2011-04-15",
        "col3": "8819"
    },
    {
        "col0": "Time Lines",
        "col1": "The Day the World Stood Still",
        "col2": "2005-07-18",
        "col3": "3925"
    },
    {
        "col0": "Time Is of the Essence Is Beyond Time",
        "col1": "Now!",
        "col2": "1997-12-02",
        "col3": "3990"
    },
    {
        "col0": "Time I",
        "col1": "Wintersun",
        "col2": "2006-05-02",
        "col3": "2407"
    },
    {
        "col0": "Time Fades Away",
        "col1": "Journey Through the Past",
        "col2": "1973-04-01",
        "col3": "2073"
    },
    {
        "col0": "Time After Time",
        "col1": "Oscar Peterson Live!",
        "col2": "0014-11-12",
        "col3": "2754"
    },
    {
        "col0": "Time After Time",
        "col1": "Songbird",
        "col2": "1996-01-03",
        "col3": "2408"
    },
    {
        "col0": "Tim Hardin 3 Live in Concert",
        "col1": "This is Tim Hardin",
        "col2": "1968-04-10",
        "col3": "4179"
    },
    {
        "col0": "Tijuana Moods",
        "col1": "Mingus Three",
        "col2": "1957-08-06",
        "col3": "2115"
    },
    {
        "col0": "Tiger",
        "col1": "Turn Me Loose",
        "col2": "1959-06-15",
        "col3": "145"
    },
    {
        "col0": "Tie One On!",
        "col1": "The Bouncing Souls",
        "col2": "1998-07-19",
        "col3": "1398"
    },
    {
        "col0": "Tide",
        "col1": "Stone Flower",
        "col2": "0020-05-08",
        "col3": "2149"
    },
    {
        "col0": "Ticket to Ride",
        "col1": "I Feel Fine",
        "col2": "1965-02-15",
        "col3": "190"
    },
    {
        "col0": "Thursday Night in San Francisco",
        "col1": "Wednesday Night in San Francisco",
        "col2": "1968-06-27",
        "col3": "3273"
    },
    {
        "col0": "Thursday Night at the Village Vanguard",
        "col1": "No Limit",
        "col2": "1977-07-28",
        "col3": "3487"
    },
    {
        "col0": "Through the Past, Darkly",
        "col1": "Big Hits",
        "col2": "1963-08-08",
        "col3": "2550"
    },
    {
        "col0": "Thriller",
        "col1": "E.T. the Extra-Terrestrial",
        "col2": "1982-11-08",
        "col3": "2539"
    },
    {
        "col0": "Three or Four Shades of Blues",
        "col1": "Changes Two",
        "col2": "0010-03-09",
        "col3": "2653"
    },
    {
        "col0": "Three from the Vault",
        "col1": "Live at the Cow Palace",
        "col2": "1971-02-19",
        "col3": "8562"
    },
    {
        "col0": "Three Views",
        "col1": "United Front: Brass Ecstasy at Newport",
        "col2": "2011-06-27",
        "col3": "8436"
    },
    {
        "col0": "Three Steps to Heaven",
        "col1": "Hallelujah, I Love Her So",
        "col2": "1960-01-08",
        "col3": "141"
    },
    {
        "col0": "Three Songs on a Trip to the United States",
        "col1": "Black Snakes",
        "col2": "1983-08-28",
        "col3": "1762"
    },
    {
        "col0": "Three Sides Live",
        "col1": "3x3",
        "col2": "1976-07-08",
        "col3": "5562"
    },
    {
        "col0": "Three Nights in Tokyo",
        "col1": "Realized Fantasies",
        "col2": "1992-08-25",
        "col3": "3860"
    },
    {
        "col0": "Threads",
        "col1": "Freedom Suite",
        "col2": "2003-06-13",
        "col3": "2685"
    },
    {
        "col0": "Thrall: Demonsweatlive",
        "col1": "Black Aria",
        "col2": "1992-10-31",
        "col3": "1899"
    },
    {
        "col0": "Thrak",
        "col1": "Vrooom",
        "col2": "1994-12-04",
        "col3": "3390"
    },
    {
        "col0": "Thoughts of Dar es Salaam",
        "col1": "Aiee! The Phantom",
        "col2": "1996-07-01",
        "col3": "3580"
    },
    {
        "col0": "Thoughts",
        "col1": "November 1981",
        "col2": "1985-05-16",
        "col3": "2665"
    },
    {
        "col0": "Those Sessions",
        "col1": "Black Foliage: Animation Music Volume 1",
        "col2": "1997-03-18",
        "col3": "1945"
    },
    {
        "col0": "Those Lazy-Hazy-Crazy Days of Summer",
        "col1": "More Cole Espanol",
        "col2": "0016-05-15",
        "col3": "1610"
    },
    {
        "col0": "This Whole World",
        "col1": "Cotton Fields",
        "col2": "1969-11-13",
        "col3": "120"
    },
    {
        "col0": "This Time Around: Live in Tokyo",
        "col1": "Live at the Rotterdam Ahoy",
        "col2": "1975-12-15",
        "col3": "7537"
    },
    {
        "col0": "This One's for Ja",
        "col1": "Minor Swing",
        "col2": "1996-12-26",
        "col3": "3249"
    },
    {
        "col0": "This One's for Blanton!",
        "col1": "The Ellington Suites",
        "col2": "1972-12-05",
        "col3": "2365"
    },
    {
        "col0": "This Man Is Mine",
        "col1": "Unchained Melody",
        "col2": "1981-10-19",
        "col3": "181"
    },
    {
        "col0": "This Is the Six",
        "col1": "The North Stands for Nothing",
        "col2": "2011-11-01",
        "col3": "2672"
    },
    {
        "col0": "This Is the Moment!",
        "col1": "2 Horns / 2 Rhythm",
        "col2": "1958-08-15",
        "col3": "2260"
    },
    {
        "col0": "This Is a Call",
        "col1": "Exhausted",
        "col2": "1997-06-07",
        "col3": "225"
    },
    {
        "col0": "This Is What You Get",
        "col1": "Three Cheers for Disappointment",
        "col2": "2003-11-01",
        "col3": "2461"
    },
    {
        "col0": "This Is What I Do",
        "col1": "Global Warming",
        "col2": "0009-05-08",
        "col3": "2899"
    },
    {
        "col0": "This Is The Moody Blues",
        "col1": "Seventh Sojourn",
        "col2": "1967-10-08",
        "col3": "5658"
    },
    {
        "col0": "This Is Sinatra Volume 2",
        "col1": "Come Fly with Me",
        "col2": "1954-05-13",
        "col3": "2455"
    },
    {
        "col0": "This Is Sinatra!",
        "col1": "Songs for Swingin' Lovers",
        "col2": "1953-04-30",
        "col3": "2152"
    },
    {
        "col0": "This Is Ray Brown",
        "col1": "Bass Hit!",
        "col2": "0028-02-27",
        "col3": "1938"
    },
    {
        "col0": "This Is Our Music",
        "col1": "Change of the Century",
        "col2": "1960-08-02",
        "col3": "2326"
    },
    {
        "col0": "This Is Our God",
        "col1": "Saviour King",
        "col2": "2008-03-09",
        "col3": "4633"
    },
    {
        "col0": "This Is New",
        "col1": "I Love Jerome Kern",
        "col2": "1957-04-03",
        "col3": "2540"
    },
    {
        "col0": "This Is New",
        "col1": "Live at Yoshi's",
        "col2": "2001-12-29",
        "col3": "2191"
    },
    {
        "col0": "This Is My Live",
        "col1": "Iparhi Agapi Edo",
        "col2": "2007-09-09",
        "col3": "4375"
    },
    {
        "col0": "This Is Love",
        "col1": "The Wonderful World of Make Believe",
        "col2": "1964-03-12",
        "col3": "2577"
    },
    {
        "col0": "This Is How I Feel About Jazz",
        "col1": "Jazz Abroad",
        "col2": "0019-09-14",
        "col3": "2192"
    },
    {
        "col0": "This Is Hampton Hawes",
        "col1": "Hampton Hawes Trio",
        "col2": "1955-12-03",
        "col3": "2538"
    },
    {
        "col0": "This Is All I Ask",
        "col1": "I Wanna Be Around...",
        "col2": "1963-04-22",
        "col3": "1968"
    },
    {
        "col0": "This Is...Brenda",
        "col1": "Brenda Lee",
        "col2": "1960-03-27",
        "col3": "1914"
    },
    {
        "col0": "This Girl's in Love with You",
        "col1": "Aretha's Gold",
        "col2": "1969-10-03",
        "col3": "2145"
    },
    {
        "col0": "This Door Swings Both Ways",
        "col1": "Listen People",
        "col2": "1966-05-27",
        "col3": "125"
    },
    {
        "col0": "This Boy",
        "col1": "She Loves You",
        "col2": "1963-10-17",
        "col3": "133"
    },
    {
        "col0": "Thirty Three & 1/3",
        "col1": "The Best of George Harrison",
        "col2": "1976-09-13",
        "col3": "2355"
    },
    {
        "col0": "Third Set",
        "col1": "Second Set",
        "col2": "1977-10-01",
        "col3": "3007"
    },
    {
        "col0": "Third Season",
        "col1": "Hi Voltage",
        "col2": "1967-02-24",
        "col3": "2293"
    },
    {
        "col0": "Third Plane",
        "col1": "Piccolo",
        "col2": "1977-07-13",
        "col3": "2380"
    },
    {
        "col0": "Thinking of Home",
        "col1": "The Flip",
        "col2": "1970-07-31",
        "col3": "2575"
    },
    {
        "col0": "Think Tank",
        "col1": "Black Coffee Blues",
        "col2": "1998-02-13",
        "col3": "7566"
    },
    {
        "col0": "Think",
        "col1": "I'll Go Crazy",
        "col2": "1960-02-20",
        "col3": "155"
    },
    {
        "col0": "Things to Come from Those Now Gone",
        "col1": "Young at Heart/Wise in Time",
        "col2": "1972-10-11",
        "col3": "2083"
    },
    {
        "col0": "Things We Said Today",
        "col1": "Can't Buy Me Love",
        "col2": "1964-06-02",
        "col3": "158"
    },
    {
        "col0": "Things Goin' On",
        "col1": "Simple Man",
        "col2": "1973-04-30",
        "col3": "297"
    },
    {
        "col0": "Things Are Getting Better",
        "col1": "Jump for Joy",
        "col2": "1958-10-28",
        "col3": "2571"
    },
    {
        "col0": "Thief",
        "col1": "City of Daughters",
        "col2": "1999-09-04",
        "col3": "2631"
    },
    {
        "col0": "They Don't Know",
        "col1": "Sittin' Sidewayz",
        "col2": "2005-10-04",
        "col3": "219"
    },
    {
        "col0": "They Don't Care About Us",
        "col1": "I Need You",
        "col2": "1995-06-23",
        "col3": "251"
    },
    {
        "col0": "They Came from the Shadows",
        "col1": "Warning Device",
        "col2": "2009-05-23",
        "col3": "1884"
    },
    {
        "col0": "They've Actually Gotten Worse Live!",
        "col1": "Wolves in Wolves' Clothing",
        "col2": "2007-02-01",
        "col3": "3551"
    },
    {
        "col0": "They're Red Hot",
        "col1": "Cross Road Blues",
        "col2": "1936-11-23",
        "col3": "178"
    },
    {
        "col0": "They'll Never Take Her Love from Me",
        "col1": "Why Don't You Love Me",
        "col2": "1950-06-14",
        "col3": "164"
    },
    {
        "col0": "Thesis",
        "col1": "By the Law of Music",
        "col2": "1997-01-23",
        "col3": "3807"
    },
    {
        "col0": "These Tunes Remind Me of You",
        "col1": "The Impeccable Mr. Wilson",
        "col2": "1956-09-13",
        "col3": "2365"
    },
    {
        "col0": "These Things Take Time",
        "col1": "The Sleeping Sickness",
        "col2": "1999-12-11",
        "col3": "2694"
    },
    {
        "col0": "These Boots Are Made for Walkin'",
        "col1": "Angels",
        "col2": "1965-11-19",
        "col3": "162"
    },
    {
        "col0": "These Are the Vistas",
        "col1": "The Bad Plus",
        "col2": "2002-09-30",
        "col3": "3148"
    },
    {
        "col0": "These Are Soulful Days",
        "col1": "The Return of Don Patterson",
        "col2": "1973-09-17",
        "col3": "2818"
    },
    {
        "col0": "There and Here",
        "col1": "V",
        "col2": "2000-08-31",
        "col3": "7515"
    },
    {
        "col0": "There Will Never Be Another You",
        "col1": "The Standard Sonny Rollins",
        "col2": "1965-06-17",
        "col3": "2057"
    },
    {
        "col0": "There It Is",
        "col1": "King Heroin",
        "col2": "1972-02-07",
        "col3": "167"
    },
    {
        "col0": "There He Is",
        "col1": "In My Lonely Room",
        "col2": "1962-08-01",
        "col3": "144"
    },
    {
        "col0": "There Goes My Baby",
        "col1": "Drip Drop",
        "col2": "1959-03-06",
        "col3": "128"
    },
    {
        "col0": "There's a Whole Lalo Schifrin Goin' On",
        "col1": "The Fox",
        "col2": "0019-03-18",
        "col3": "1699"
    },
    {
        "col0": "There's a Kind of Hush All Over the World",
        "col1": "Both Sides of Herman's Hermits",
        "col2": "1966-12-07",
        "col3": "1721"
    },
    {
        "col0": "There's a Kind of Hush",
        "col1": "Solitaire",
        "col2": "1966-12-07",
        "col3": "151"
    },
    {
        "col0": "There's a Fire",
        "col1": "The Strangest Things",
        "col2": "2004-09-23",
        "col3": "1443"
    },
    {
        "col0": "There's Know Place Like Home",
        "col1": "Works in Progress",
        "col2": "2009-02-07",
        "col3": "4743"
    },
    {
        "col0": "There'll Be No Teardrops Tonight",
        "col1": "Wedding Bells",
        "col2": "1949-12-22",
        "col3": "167"
    },
    {
        "col0": "Then and Only Then",
        "col1": "Once a Day",
        "col2": "1964-11-18",
        "col3": "145"
    },
    {
        "col0": "Then and Now",
        "col1": "Under the Influence",
        "col2": "1996-11-22",
        "col3": "2877"
    },
    {
        "col0": "Then and Now",
        "col1": "Live at the Isle of Wight Festival 1970",
        "col2": "1974-04-06",
        "col3": "7596"
    },
    {
        "col0": "Then He Kissed Me",
        "col1": "Good Vibrations",
        "col2": "1965-05-05",
        "col3": "135"
    },
    {
        "col0": "Then!",
        "col1": "All Night Wrong",
        "col2": "1990-05-06",
        "col3": "3335"
    },
    {
        "col0": "Theme Music from \"The James Dean Story\"",
        "col1": "Quartet: Russ Freeman/Chet Baker",
        "col2": "1956-11-08",
        "col3": "2532"
    },
    {
        "col0": "Them Dirty Blues",
        "col1": "The Cannonball Adderley Quintet in San Francisco",
        "col2": "1960-02-01",
        "col3": "3072"
    },
    {
        "col0": "Thelonious Sphere Monk: Dreaming of the Masters Series Vol. 2",
        "col1": "America - South Africa",
        "col2": "1990-03-11",
        "col3": "3716"
    },
    {
        "col0": "Thelonious Monk with John Coltrane",
        "col1": "Thelonious Himself",
        "col2": "1957-04-12",
        "col3": "2257"
    },
    {
        "col0": "Thelonious Monk in Italy",
        "col1": "Monk in France",
        "col2": "1961-04-21",
        "col3": "2685"
    },
    {
        "col0": "Thelonious Monk at the Blackhawk",
        "col1": "Thelonious Alone in San Francisco",
        "col2": "1960-04-29",
        "col3": "3540"
    },
    {
        "col0": "Thelonious Monk Trio",
        "col1": "Genius of Modern Music: Volume 2",
        "col2": "1952-12-18",
        "col3": "2095"
    },
    {
        "col0": "Thelonious Monk Quartet with John Coltrane at Carnegie Hall",
        "col1": "Mulligan Meets Monk",
        "col2": "1957-11-29",
        "col3": "3109"
    },
    {
        "col0": "Thelonica",
        "col1": "Giant Steps",
        "col2": "1982-12-01",
        "col3": "2287"
    },
    {
        "col0": "Their Satanic Majesties Request",
        "col1": "Between the Buttons",
        "col2": "1967-10-23",
        "col3": "2646"
    },
    {
        "col0": "Theater of the Mind",
        "col1": "Release Therapy",
        "col2": "2007-01-02",
        "col3": "3615"
    },
    {
        "col0": "The Zookeeper's House",
        "col1": "Two",
        "col2": "2013-10-26",
        "col3": "3042"
    }
]