[
    {
        "col0": "Sir Charles Lyttelton, 3rd Baronet",
        "col1": "1628-1-1",
        "col2": "1716-5-2",
        "col3": "1628-1-1"
    },
    {
        "col0": "Sir Charles Lowther, 4th Baronet",
        "col1": "1880-7-22",
        "col2": "1949-1-22",
        "col3": "1880-7-22"
    },
    {
        "col0": "Sir Charles Lowther, 3rd Baronet",
        "col1": "1803-9-26",
        "col2": "1894-11-6",
        "col3": "1803-9-26"
    },
    {
        "col0": "Sir Charles Lockhart-Ross, 7th Baronet",
        "col1": "1763-1-1",
        "col2": "1814-1-1",
        "col3": "1763-1-1"
    },
    {
        "col0": "Sir Charles Lloyd, 1st Baronet, of Milfield",
        "col1": "1662-0-0",
        "col2": "1723-12-28",
        "col3": "1662-0-0"
    },
    {
        "col0": "Sir Charles Lewis, 1st Baronet",
        "col1": "1825-12-25",
        "col2": "1893-2-10",
        "col3": "1825-12-25"
    },
    {
        "col0": "Sir Charles Langham, 13th Baronet",
        "col1": "1870-5-24",
        "col2": "1951-10-3",
        "col3": "1870-5-24"
    },
    {
        "col0": "Sir Charles Cockerell, 1st Baronet",
        "col1": "1755-2-18",
        "col2": "1837-1-6",
        "col3": "1755-2-18"
    },
    {
        "col0": "Sir Charles Burrell, 3rd Baronet",
        "col1": "1774-5-24",
        "col2": "1862-1-4",
        "col3": "1774-5-24"
    },
    {
        "col0": "Sir Charles Asgill, 1st Baronet",
        "col1": "1713-3-17",
        "col2": "1788-9-15",
        "col3": "1713-3-17"
    },
    {
        "col0": "Sir Bysshe Shelley, 1st Baronet",
        "col1": "1731-6-21",
        "col2": "1815-1-6",
        "col3": "1731-6-21"
    },
    {
        "col0": "Sir Arthur Young, 1st Baronet",
        "col1": "1889-1-1",
        "col2": "1950-1-1",
        "col3": "1889-1-1"
    },
    {
        "col0": "Sir Arthur Wheeler, 1st Baronet",
        "col1": "1860-9-18",
        "col2": "1943-5-20",
        "col3": "1860-9-18"
    },
    {
        "col0": "Sir Arthur Pease, 1st Baronet",
        "col1": "1866-3-11",
        "col2": "1927-11-23",
        "col3": "1866-3-11"
    },
    {
        "col0": "Sir Arthur Elton, 7th Baronet",
        "col1": "1818-4-19",
        "col2": "1883-10-14",
        "col3": "1818-4-19"
    },
    {
        "col0": "Sir Arthur Elton, 10th Baronet",
        "col1": "1906-2-10",
        "col2": "1973-1-1",
        "col3": "1906-2-10"
    },
    {
        "col0": "Sir Arthur Blakiston, 7th Baronet",
        "col1": "1892-6-16",
        "col2": "1974-1-31",
        "col3": "1892-6-16"
    },
    {
        "col0": "Sir Arthur Acheson, 5th Baronet",
        "col1": "1688-1-26",
        "col2": "1748-2-8",
        "col3": "1688-1-26"
    },
    {
        "col0": "Sir Anthony Esmonde, 15th Baronet",
        "col1": "1899-1-18",
        "col2": "1981-1-1",
        "col3": "1899-1-18"
    },
    {
        "col0": "Sir Anthony Cope, 4th Baronet",
        "col1": "1632-11-16",
        "col2": "1675-6-11",
        "col3": "1632-11-16"
    },
    {
        "col0": "Sir Andrew Agnew, 9th Baronet",
        "col1": "1850-8-14",
        "col2": "1928-7-14",
        "col3": "1850-8-14"
    },
    {
        "col0": "Sir Andrew Agnew, 8th Baronet",
        "col1": "1818-1-2",
        "col2": "1892-3-25",
        "col3": "1818-1-2"
    },
    {
        "col0": "Sir Alfred Hickman, 1st Baronet",
        "col1": "1830-7-3",
        "col2": "1910-3-11",
        "col3": "1830-7-3"
    },
    {
        "col0": "Sir Alexander Reid, 3rd Baronet",
        "col1": "1932-12-6",
        "col2": "1972-0-0",
        "col3": "1932-12-6"
    },
    {
        "col0": "Sir Alexander Lauder, 4th Baronet",
        "col1": "1698-11-6",
        "col2": "1730-5-17",
        "col3": "1698-11-6"
    },
    {
        "col0": "Sir Alexander Grant, 8th Baronet",
        "col1": "1782-11-13",
        "col2": "1854-11-29",
        "col3": "1782-11-13"
    },
    {
        "col0": "Sir Alexander Don, 6th Baronet",
        "col1": "1780-1-1",
        "col2": "1826-1-1",
        "col3": "1780-1-1"
    },
    {
        "col0": "Sir Alexander Cornewall Duff-Gordon, 3rd Baronet",
        "col1": "1811-2-3",
        "col2": "1872-10-27",
        "col3": "1811-2-3"
    },
    {
        "col0": "Sir Alexander Baird, 1st Baronet",
        "col1": "1849-10-22",
        "col2": "1920-6-20",
        "col3": "1849-10-22"
    },
    {
        "col0": "Sir Adam Hay, 7th Baronet",
        "col1": "1795-12-14",
        "col2": "1867-1-18",
        "col3": "1795-12-14"
    },
    {
        "col0": "Sir Abraham Hume, 1st Baronet",
        "col1": "1703-1-1",
        "col2": "1772-10-10",
        "col3": "1703-1-1"
    },
    {
        "col0": "R. Cullen",
        "col1": "1661-1-1",
        "col2": "1730-1-1",
        "col3": "1661-1-1"
    },
    {
        "col0": "R. Hodge",
        "col1": "1859-9-0",
        "col2": "1950-9-21",
        "col3": "1859-9-0"
    },
    {
        "col0": "R. Newdigate",
        "col1": "1719-5-30",
        "col2": "1806-11-23",
        "col3": "1719-5-30"
    },
    {
        "col0": "R. Hobart",
        "col1": "1836-9-13",
        "col2": "1928-8-4",
        "col3": "1836-9-13"
    },
    {
        "col0": "R. Vassar-Smith",
        "col1": "1909-1-1",
        "col2": "1995-1-1",
        "col3": "1909-1-1"
    },
    {
        "col0": "R. Heron",
        "col1": "1726-1-1",
        "col2": "1824-1-1",
        "col3": "1726-1-1"
    },
    {
        "col0": "R. Sitwell",
        "col1": "1927-4-15",
        "col2": "2009-3-31",
        "col3": "1927-4-15"
    },
    {
        "col0": "R. Lopes",
        "col1": "1788-9-10",
        "col2": "1854-1-23",
        "col3": "1788-9-10"
    },
    {
        "col0": "P. Nugent",
        "col1": "1797-9-29",
        "col2": "1874-6-25",
        "col3": "1797-9-29"
    },
    {
        "col0": "P. Newson",
        "col1": "1874-4-4",
        "col2": "1950-5-17",
        "col3": "1874-4-4"
    },
    {
        "col0": "P. Studholme",
        "col1": "1930-1-16",
        "col2": "1990-0-0",
        "col3": "1930-1-16"
    },
    {
        "col0": "P. Warrender",
        "col1": "1731-3-7",
        "col2": "1799-6-14",
        "col3": "1731-3-7"
    },
    {
        "col0": "N. Everard",
        "col1": "1849-10-24",
        "col2": "1929-7-12",
        "col3": "1849-10-24"
    },
    {
        "col0": "N. Bowater",
        "col1": "1892-12-25",
        "col2": "1984-1-22",
        "col3": "1892-12-25"
    },
    {
        "col0": "M. Sharp",
        "col1": "1856-1-30",
        "col2": "1924-5-22",
        "col3": "1856-1-30"
    },
    {
        "col0": "M. Burrell",
        "col1": "1699-11-5",
        "col2": "1787-4-6",
        "col3": "1699-11-5"
    },
    {
        "col0": "M. Blakiston",
        "col1": "1702-1-1",
        "col2": "1774-1-1",
        "col3": "1702-1-1"
    },
    {
        "col0": "Martin Redmayne, Baron Redmayne of Rushcliffe",
        "col1": "1910-11-16",
        "col2": "1983-4-28",
        "col3": "1910-11-16"
    },
    {
        "col0": "M. MacTaggart-Stewart",
        "col1": "1834-10-12",
        "col2": "1923-9-26",
        "col3": "1834-10-12"
    },
    {
        "col0": "L. Bennet",
        "col1": "1631-1-1",
        "col2": "1693-12-5",
        "col3": "1631-1-1"
    },
    {
        "col0": "L. Forestier-Walker",
        "col1": "1866-1-1",
        "col2": "1934-1-1",
        "col3": "1866-1-1"
    },
    {
        "col0": "L. V. Palk",
        "col1": "1793-04-24",
        "col2": "1860-05-16",
        "col3": "1793-04-24"
    },
    {
        "col0": "Joshua Vanneck, 1st Baron Huntingfield",
        "col1": "1745-12-31",
        "col2": "1816-8-15",
        "col3": "1745-12-31"
    },
    {
        "col0": "J. Hewitt",
        "col1": "1865-10-14",
        "col2": "1923-2-8",
        "col3": "1865-10-14"
    },
    {
        "col0": "J. Neeld",
        "col1": "1805-1-1",
        "col2": "1891-1-1",
        "col3": "1805-1-1"
    },
    {
        "col0": "J. Kinloch",
        "col1": "1849-1-1",
        "col2": "1910-1-1",
        "col3": "1849-1-1"
    },
    {
        "col0": "John Henry Greville Smyth",
        "col1": "1836-1-2",
        "col2": "1901-9-27",
        "col3": "1836-1-2"
    },
    {
        "col0": "J. Esplen",
        "col1": "1863-0-0",
        "col2": "1930-2-7",
        "col3": "1863-0-0"
    },
    {
        "col0": "J. B. Edwards",
        "col1": "1889-1-12",
        "col2": "1922-8-22",
        "col3": "1889-1-12"
    },
    {
        "col0": "J. Aubrey-Fletcher",
        "col1": "1912-8-22",
        "col2": "1992-6-19",
        "col3": "1912-8-22"
    },
    {
        "col0": "J. Armytage",
        "col1": "1732-7-13",
        "col2": "1758-9-10",
        "col3": "1732-7-13"
    },
    {
        "col0": "J. Lucas",
        "col1": "1889-8-27",
        "col2": "1980-5-2",
        "col3": "1889-8-27"
    },
    {
        "col0": "Jehangir Cowasji Jehangir Readymoney",
        "col1": "1853-6-8",
        "col2": "1934-7-26",
        "col3": "1853-6-8"
    },
    {
        "col0": "J. Rushout",
        "col1": "1644-3-22",
        "col2": "1698-2-16",
        "col3": "1644-3-22"
    },
    {
        "col0": "J. Rivett-Carnac",
        "col1": "1784-11-11",
        "col2": "1846-1-28",
        "col3": "1784-11-11"
    },
    {
        "col0": "J. E. Home",
        "col1": "1798-10-25",
        "col2": "1853-11-1",
        "col3": "1798-10-25"
    },
    {
        "col0": "J. Bellingham",
        "col1": "1623-9-8",
        "col2": "1650-10-26",
        "col3": "1623-9-8"
    },
    {
        "col0": "H. Evelyn",
        "col1": "1769-1-31",
        "col2": "1848-8-28",
        "col3": "1769-1-31"
    },
    {
        "col0": "H. Mackworth",
        "col1": "1687-9-7",
        "col2": "1765-8-20",
        "col3": "1687-9-7"
    },
    {
        "col0": "H. Cory",
        "col1": "1857-2-2",
        "col2": "1933-2-2",
        "col3": "1857-2-2"
    },
    {
        "col0": "H. Stracey",
        "col1": "1802-1-1",
        "col2": "1885-1-1",
        "col3": "1802-1-1"
    },
    {
        "col0": "H. Peek",
        "col1": "1825-2-26",
        "col2": "1898-8-26",
        "col3": "1825-2-26"
    },
    {
        "col0": "H. Hibbert",
        "col1": "1850-4-4",
        "col2": "1927-11-15",
        "col3": "1850-4-4"
    },
    {
        "col0": "H. Benyon",
        "col1": "1884-1-1",
        "col2": "1959-1-1",
        "col3": "1884-1-1"
    },
    {
        "col0": "H. Meysey-Thompson",
        "col1": "1809-8-11",
        "col2": "1874-5-17",
        "col3": "1809-8-11"
    },
    {
        "col0": "H. Mallaby-Deeley",
        "col1": "1863-10-27",
        "col2": "1937-2-4",
        "col3": "1863-10-27"
    },
    {
        "col0": "H. Hope",
        "col1": "1865-1-1",
        "col2": "1959-1-1",
        "col3": "1865-1-1"
    },
    {
        "col0": "H. A. Wernher",
        "col1": "1893-1-16",
        "col2": "1973-6-30",
        "col3": "1893-1-16"
    },
    {
        "col0": "H. Lever",
        "col1": "1869-4-18",
        "col2": "1947-7-1",
        "col3": "1869-4-18"
    },
    {
        "col0": "H. Kerr",
        "col1": "1903-8-1",
        "col2": "1974-12-26",
        "col3": "1903-8-1"
    },
    {
        "col0": "G. Foster",
        "col1": "1866-6-10",
        "col2": "1931-1-1",
        "col3": "1866-6-10"
    },
    {
        "col0": "G. Tapps-Gervis-Meyrick",
        "col1": "1827-9-1",
        "col2": "1896-3-7",
        "col3": "1827-9-1"
    },
    {
        "col0": "G. Tapps-Gervis",
        "col1": "1795-5-24",
        "col2": "1842-8-26",
        "col3": "1795-5-24"
    },
    {
        "col0": "G. Stucley",
        "col1": "1812-8-17",
        "col2": "1900-3-13",
        "col3": "1812-8-17"
    },
    {
        "col0": "G. Sleight",
        "col1": "1853-3-26",
        "col2": "1921-3-19",
        "col3": "1853-3-26"
    },
    {
        "col0": "G. Holcroft",
        "col1": "1856-0-0",
        "col2": "1951-4-19",
        "col3": "1856-0-0"
    },
    {
        "col0": "G. C. Williams",
        "col1": "1878-1-1",
        "col2": "1958-1-1",
        "col3": "1878-1-1"
    },
    {
        "col0": "G. B. Smith",
        "col1": "1912-12-12",
        "col2": "1976-9-18",
        "col3": "1912-12-12"
    },
    {
        "col0": "G. Bisshopp",
        "col1": "1791-7-5",
        "col2": "1834-3-22",
        "col3": "1791-7-5"
    },
    {
        "col0": "G. Cornewall",
        "col1": "1869-5-7",
        "col2": "1951-1-21",
        "col3": "1869-5-7"
    },
    {
        "col0": "F. Orr-Lewis",
        "col1": "1860-02-11",
        "col2": "1921-11-18",
        "col3": "1860-02-11"
    },
    {
        "col0": "F. Milner",
        "col1": "1849-11-7",
        "col2": "1931-6-8",
        "col3": "1849-11-7"
    },
    {
        "col0": "F. Sanderson",
        "col1": "1880-1-1",
        "col2": "1965-7-18",
        "col3": "1880-1-1"
    },
    {
        "col0": "F. Freeling",
        "col1": "1764-8-25",
        "col2": "1836-7-10",
        "col3": "1764-8-25"
    },
    {
        "col0": "F. Champneys",
        "col1": "1848-3-25",
        "col2": "1930-2-4",
        "col3": "1848-3-25"
    },
    {
        "col0": "Francis Blackwood, 10th Baron Dufferin and Claneboye",
        "col1": "1916-5-20",
        "col2": "1991-11-13",
        "col3": "1916-5-20"
    },
    {
        "col0": "F. Dalberg-Acton",
        "col1": "1801-7-24",
        "col2": "1837-1-31",
        "col3": "1801-7-24"
    },
    {
        "col0": "E. M. Harvey",
        "col1": "1867-0-0",
        "col2": "1955-0-0",
        "col3": "1867-0-0"
    },
    {
        "col0": "E. Craig",
        "col1": "1859-0-0",
        "col2": "1933-4-9",
        "col3": "1859-0-0"
    },
    {
        "col0": "E. Ohlson",
        "col1": "1873-7-19",
        "col2": "1934-3-20",
        "col3": "1873-7-19"
    },
    {
        "col0": "E. d. Bouverie",
        "col1": "1690-0-0",
        "col2": "1736-11-21",
        "col3": "1690-0-0"
    },
    {
        "col0": "E. Manningham-Buller",
        "col1": "1800-7-19",
        "col2": "1882-9-22",
        "col3": "1800-7-19"
    },
    {
        "col0": "E. M. Edgar",
        "col1": "1876-2-27",
        "col2": "1934-10-7",
        "col3": "1876-2-27"
    },
    {
        "col0": "E. Irby",
        "col1": "1676-7-31",
        "col2": "1718-11-11",
        "col3": "1676-7-31"
    },
    {
        "col0": "E. Workman-Macnaghten",
        "col1": "1790-4-1",
        "col2": "1876-1-6",
        "col3": "1790-4-1"
    },
    {
        "col0": "E. Findlay",
        "col1": "1902-6-14",
        "col2": "1962-9-6",
        "col3": "1902-6-14"
    },
    {
        "col0": "C. Ackroyd",
        "col1": "1892-9-4",
        "col2": "1973-4-11",
        "col3": "1892-9-4"
    },
    {
        "col0": "C. Ebrahim",
        "col1": "1840-10-21",
        "col2": "1924-9-26",
        "col3": "1840-10-21"
    },
    {
        "col0": "C. Cory-Wright",
        "col1": "1838-8-11",
        "col2": "1909-5-30",
        "col3": "1838-8-11"
    },
    {
        "col0": "C. Renshaw",
        "col1": "1848-12-9",
        "col2": "1918-3-6",
        "col3": "1848-12-9"
    },
    {
        "col0": "C. Jessel",
        "col1": "1860-5-11",
        "col2": "1928-7-15",
        "col3": "1860-5-11"
    },
    {
        "col0": "C. Graves-Sawle",
        "col1": "1816-10-10",
        "col2": "1903-4-20",
        "col3": "1816-10-10"
    },
    {
        "col0": "C. Gladstone",
        "col1": "1888-10-28",
        "col2": "1968-4-28",
        "col3": "1888-10-28"
    },
    {
        "col0": "C. C. Lloyd",
        "col1": "1706-1-1",
        "col2": "1729-2-25",
        "col3": "1706-1-1"
    },
    {
        "col0": "B. Beauchamp",
        "col1": "1897-5-5",
        "col2": "1976-8-25",
        "col3": "1897-5-5"
    },
    {
        "col0": "B. Waley-Cohen",
        "col1": "1914-5-29",
        "col2": "1991-7-3",
        "col3": "1914-5-29"
    },
    {
        "col0": "A. Cayzer",
        "col1": "1876-1-21",
        "col2": "1943-2-28",
        "col3": "1876-1-21"
    },
    {
        "col0": "Arthur Maxwell, 11th Baron Farnham",
        "col1": "1879-10-2",
        "col2": "1957-2-5",
        "col3": "1879-10-2"
    },
    {
        "col0": "A. Cory-Wright",
        "col1": "1869-11-18",
        "col2": "1951-4-21",
        "col3": "1869-11-18"
    },
    {
        "col0": "A. Birkmyre",
        "col1": "1875-0-0",
        "col2": "1935-6-24",
        "col3": "1875-0-0"
    },
    {
        "col0": "Archibald Acheson, 1st Viscount Gosford",
        "col1": "1718-9-1",
        "col2": "1790-9-5",
        "col3": "1718-9-1"
    },
    {
        "col0": "A. G. Acland",
        "col1": "1916-8-17",
        "col2": "1983-12-14",
        "col3": "1916-8-17"
    },
    {
        "col0": "A. Aucher",
        "col1": "1614-1-1",
        "col2": "1692-5-31",
        "col3": "1614-1-1"
    },
    {
        "col0": "A. Lauder",
        "col1": "1702-5-8",
        "col2": "1769-3-6",
        "col3": "1702-5-8"
    },
    {
        "col0": "A. Armstrong",
        "col1": "1786-10-19",
        "col2": "1863-1-27",
        "col3": "1786-10-19"
    },
    {
        "col0": "A. Erskine-Hill",
        "col1": "1894-4-3",
        "col2": "1947-6-6",
        "col3": "1894-4-3"
    },
    {
        "col0": "A. Cumming-Gordon",
        "col1": "1787-5-19",
        "col2": "1806-2-10",
        "col3": "1787-5-19"
    },
    {
        "col0": "A. Janssen",
        "col1": "1699-0-0",
        "col2": "1765-0-0",
        "col3": "1699-0-0"
    }
]