[
    {
        "col0": "K47DF-D",
        "col1": "Telemundo",
        "col2": "47.1:Telemundo(720p)",
        "col3": "22 (UHF)",
        "col4": "21700"
    },
    {
        "col0": "K46DY",
        "col1": "Trinity Broadcasting Network",
        "col2": "(not on air yet)",
        "col3": "46 (UHF) (not on air yet)",
        "col4": "8700"
    },
    {
        "col0": "K38IZ-D",
        "col1": "This TV",
        "col2": "[[#Digital channels",
        "col3": "38 (UHF)",
        "col4": "20000"
    },
    {
        "col0": "K38HE-D",
        "col1": "Tri-State Christian Television",
        "col2": "38.1 K38HE-D",
        "col3": "38 (UHF)",
        "col4": "15000"
    },
    {
        "col0": "K25NK-D",
        "col1": "3ABN",
        "col2": "25.1 3ABN",
        "col3": "25 (UHF)",
        "col4": "29000"
    },
    {
        "col0": "K20KF-D",
        "col1": "3ABN",
        "col2": "16.1 3ABN",
        "col3": "20 (UHF)",
        "col4": "16000"
    },
    {
        "col0": "K17HI-D",
        "col1": "3ABN",
        "col2": "17.13ABN",
        "col3": "17 (UHF)",
        "col4": "1500"
    },
    {
        "col0": "K16HY-D",
        "col1": "Eternal Word Television Network",
        "col2": "16.1 Text Info",
        "col3": "16 (UHF)",
        "col4": "15000"
    },
    {
        "col0": "East Tennessee PBS",
        "col1": "PBS",
        "col2": "x.1PBS",
        "col3": "Virtual:",
        "col4": "100000"
    },
    {
        "col0": "DXEC-TV",
        "col1": "ABS-CBN",
        "col2": "[[#Digital television",
        "col3": "24 (UHF) (ISDB-T) (test broadcast)",
        "col4": "30000"
    },
    {
        "col0": "DWAO-TV",
        "col1": "Progressive Broadcasting Corporation",
        "col2": "9.1: UNTV",
        "col3": "38 (UHF/under test broadcast) (ISDB-T)",
        "col4": "60000"
    },
    {
        "col0": "CKVU-DT",
        "col1": "Owned-and-operated station",
        "col2": "10.1City",
        "col3": "33 (UHF)",
        "col4": "8300"
    },
    {
        "col0": "CJON-DT",
        "col1": "CTV Television Network",
        "col2": "21.1 NTV HD",
        "col3": "21 (UHF)",
        "col4": "482300"
    },
    {
        "col0": "CJMT-DT",
        "col1": "Owned-and-operated station",
        "col2": "40.1Omni Television",
        "col3": "40 (UHF)",
        "col4": "18100"
    },
    {
        "col0": "CIVT-DT",
        "col1": "Owned-and-operated station",
        "col2": "32.1CTV",
        "col3": "32 (UHF)",
        "col4": "33000"
    },
    {
        "col0": "CIVI-DT",
        "col1": "Owned-and-operated station",
        "col2": "53.1CTV Two",
        "col3": "23 (UHF)",
        "col4": "1500"
    },
    {
        "col0": "CITY-DT",
        "col1": "Owned-and-operated station",
        "col2": "57.1City",
        "col3": "44 (UHF)",
        "col4": "21000"
    },
    {
        "col0": "CITS-DT",
        "col1": "Owned-and-operated station",
        "col2": "36.1CTS",
        "col3": "36 (UHF)",
        "col4": "20000"
    },
    {
        "col0": "CIII-DT",
        "col1": "Owned-and-operated station",
        "col2": "41.1/.2Global",
        "col3": "41 (UHF)",
        "col4": "100000"
    },
    {
        "col0": "CHNU-DT",
        "col1": "Independent station",
        "col2": "66.1 Main programming",
        "col3": "47 (UHF)",
        "col4": "21400"
    },
    {
        "col0": "CHNM-DT",
        "col1": "Owned-and-operated station",
        "col2": "42.1Omni Television",
        "col3": "20 (UHF)",
        "col4": "8300"
    },
    {
        "col0": "CHEK-DT",
        "col1": "Independent station",
        "col2": "6.1 Main programming",
        "col3": "49 (UHF)",
        "col4": "28000"
    },
    {
        "col0": "CHBC-DT",
        "col1": "Owned-and-operated station",
        "col2": "2.1Global",
        "col3": "27 (UHF)",
        "col4": "32600"
    },
    {
        "col0": "CHAN-DT",
        "col1": "Owned-and-operated station",
        "col2": "8.1Global",
        "col3": "22 (UHF)",
        "col4": "40000"
    },
    {
        "col0": "CFMT-DT",
        "col1": "Owned-and-operated station",
        "col2": "47.1Omni Television",
        "col3": "47 (UHF)",
        "col4": "22200"
    },
    {
        "col0": "CBUT-DT",
        "col1": "CBC Television",
        "col2": "2.1CBC Television",
        "col3": "43 (UHF)",
        "col4": "103340"
    },
    {
        "col0": "CBUFT-DT",
        "col1": "Owned-and-operated station",
        "col2": "26.1Ici Radio-Canada Tele",
        "col3": "26 (UHF)",
        "col4": "27520"
    },
    {
        "col0": "CBLFT-DT",
        "col1": "Owned-and-operated station",
        "col2": "25.1Ici Radio-Canada Tele",
        "col3": "25 (UHF)",
        "col4": "106200"
    }
]