[
    {
        "col0": "Yamdena mosaic-tailed rat",
        "col1": "Muridae",
        "col2": "iucn3.1",
        "col3": "DD"
    },
    {
        "col0": "Yalden's rat",
        "col1": "Muridae",
        "col2": "IUCN3.1",
        "col3": "EN"
    },
    {
        "col0": "Yakati rainbowfish",
        "col1": "Melanotaeniidae",
        "col2": "IUCN2.3",
        "col3": "DD"
    },
    {
        "col0": "Yacare caiman",
        "col1": "Alligatoridae",
        "col2": "IUCN2.3",
        "col3": "LR/lc"
    },
    {
        "col0": "Y-bar shrimp goby",
        "col1": "Gobiidae",
        "col2": "iucn3.1",
        "col3": "NE"
    },
    {
        "col0": "Xyrichtys virens",
        "col1": "Labridae",
        "col2": "IUCN2.3",
        "col3": "VU"
    },
    {
        "col0": "Xylotoles costatus",
        "col1": "Cerambycidae",
        "col2": "IUCN3.1",
        "col3": "EN"
    },
    {
        "col0": "Xylophis stenorhynchus",
        "col1": "Colubridae",
        "col2": "IUCN3.1",
        "col3": "DD"
    },
    {
        "col0": "Xylophis perroteti",
        "col1": "Xenodermatidae",
        "col2": "IUCN3.1",
        "col3": "LC"
    },
    {
        "col0": "Xylophanes tersa",
        "col1": "Sphingidae",
        "col2": "IUCN3.1",
        "col3": "NE"
    },
    {
        "col0": "Xylophanes pluto",
        "col1": "Sphingidae",
        "col2": "TNC",
        "col3": "G4"
    },
    {
        "col0": "Xyliphius melanopterus",
        "col1": "Aspredinidae",
        "col2": "iucn3.1",
        "col3": "NE"
    },
    {
        "col0": "Xyliphius magdalenae",
        "col1": "Aspredinidae",
        "col2": "iucn3.1",
        "col3": "NE"
    },
    {
        "col0": "Xyliphius lombarderoi",
        "col1": "Aspredinidae",
        "col2": "iucn3.1",
        "col3": "NE"
    },
    {
        "col0": "Xyliphius lepturus",
        "col1": "Aspredinidae",
        "col2": "iucn3.1",
        "col3": "NE"
    },
    {
        "col0": "Xyliphius kryptos",
        "col1": "Aspredinidae",
        "col2": "iucn3.1",
        "col3": "NE"
    },
    {
        "col0": "Xyliphius barbatus",
        "col1": "Aspredinidae",
        "col2": "iucn3.1",
        "col3": "NE"
    },
    {
        "col0": "Xyelacyba myersi",
        "col1": "Ophidiidae",
        "col2": "iucn3.1",
        "col3": "NE"
    },
    {
        "col0": "Xiurenbagrus xiurenensis",
        "col1": "Amblycipitidae",
        "col2": "IUCN3.1",
        "col3": "DD"
    },
    {
        "col0": "Xiphophorus montezumae",
        "col1": "Poeciliidae",
        "col2": "iucn3.1",
        "col3": "LC"
    },
    {
        "col0": "Xiphasia setifer",
        "col1": "Blenniidae",
        "col2": "IUCN3.1",
        "col3": "LC"
    },
    {
        "col0": "Xiphasia matsubarai",
        "col1": "Blenniidae",
        "col2": "IUCN3.1",
        "col3": "LC"
    },
    {
        "col0": "Xingu corydoras",
        "col1": "Callichthyidae",
        "col2": "iucn3.1",
        "col3": "NE"
    },
    {
        "col0": "Xingu antbird",
        "col1": "Thamnophilidae",
        "col2": "IUCN3.1",
        "col3": "LC"
    },
    {
        "col0": "Xingu River ray",
        "col1": "Potamotrygonidae",
        "col2": "IUCN2.3",
        "col3": "DD"
    },
    {
        "col0": "Xerus erythropus",
        "col1": "Sciuridae",
        "col2": "iucn3.1",
        "col3": "LC"
    },
    {
        "col0": "Xerotricha zujarensis",
        "col1": "Helicoidea",
        "col2": "IUCN2.3",
        "col3": "LR/nt"
    },
    {
        "col0": "Xerotricha zaratei",
        "col1": "Helicoidea",
        "col2": "IUCN2.3",
        "col3": "LR/nt"
    },
    {
        "col0": "Xerotricha mariae",
        "col1": "Helicoidea",
        "col2": "IUCN2.3",
        "col3": "VU"
    },
    {
        "col0": "Xerotricha gasulli",
        "col1": "Helicoidea",
        "col2": "IUCN2.3",
        "col3": "LR/nt"
    },
    {
        "col0": "Xerotricha bierzona",
        "col1": "Helicoidea",
        "col2": "IUCN2.3",
        "col3": "VU"
    },
    {
        "col0": "Xerosecta giustii",
        "col1": "Helicoidea",
        "col2": "IUCN3.1",
        "col3": "CR"
    },
    {
        "col0": "Xerosecta cespitum",
        "col1": "Helicoidea",
        "col2": "iucn3.1",
        "col3": "LC"
    },
    {
        "col0": "Xerosecta adolfi",
        "col1": "Helicoidea",
        "col2": "IUCN3.1",
        "col3": "EN"
    },
    {
        "col0": "Xerocrassa zaharensis",
        "col1": "Helicoidea",
        "col2": "iucn3.1",
        "col3": "VU"
    },
    {
        "col0": "Xerocrassa turolensis",
        "col1": "Hygromiidae",
        "col2": "iucn3.1",
        "col3": "NT"
    },
    {
        "col0": "Xerocrassa subvariegata",
        "col1": "Hygromiidae",
        "col2": "iucn3.1",
        "col3": "LC"
    },
    {
        "col0": "Xerocrassa subrogata",
        "col1": "Hygromiidae",
        "col2": "iucn3.1",
        "col3": "LC"
    },
    {
        "col0": "Xerocrassa siphnica",
        "col1": "Hygromiidae",
        "col2": "iucn3.1",
        "col3": "LC"
    },
    {
        "col0": "Xerocrassa siderensis",
        "col1": "Hygromiidae",
        "col2": "iucn3.1",
        "col3": "LC"
    },
    {
        "col0": "Xerocrassa roblesi",
        "col1": "Hygromiidae",
        "col2": "iucn3.1",
        "col3": "VU"
    },
    {
        "col0": "Xerocrassa ripacurcica",
        "col1": "Helicoidea",
        "col2": "iucn3.1",
        "col3": "LC"
    },
    {
        "col0": "Xerocrassa rhithymna",
        "col1": "Hygromiidae",
        "col2": "iucn3.1",
        "col3": "LC"
    },
    {
        "col0": "Xerocrassa prietoi",
        "col1": "Hygromiidae",
        "col2": "iucn3.1",
        "col3": "NT"
    },
    {
        "col0": "Xerocrassa poecilodoma",
        "col1": "Hygromiidae",
        "col2": "iucn3.1",
        "col3": "LC"
    },
    {
        "col0": "Xerocrassa penchinati",
        "col1": "Helicoidea",
        "col2": "iucn3.1",
        "col3": "LC"
    },
    {
        "col0": "Xerocrassa nyeli",
        "col1": "Helicoidea",
        "col2": "iucn3.1",
        "col3": "NT"
    },
    {
        "col0": "Xerocrassa nicosiana",
        "col1": "Helicoidea",
        "col2": "iucn3.1",
        "col3": "LC"
    },
    {
        "col0": "Xerocrassa moraguesi",
        "col1": "Helicoidea",
        "col2": "iucn3.1",
        "col3": "EN"
    },
    {
        "col0": "Xerocrassa montserratensis",
        "col1": "Helicoidea",
        "col2": "iucn3.1",
        "col3": "EN"
    },
    {
        "col0": "Xerocrassa molinae",
        "col1": "Helicoidea",
        "col2": "iucn3.1",
        "col3": "NT"
    },
    {
        "col0": "Xerocrassa mesostena",
        "col1": "Helicoidea",
        "col2": "iucn3.1",
        "col3": "LC"
    },
    {
        "col0": "Xerocrassa meda",
        "col1": "Helicoidea",
        "col2": "iucn3.1",
        "col3": "LC"
    },
    {
        "col0": "Xerocrassa lasithiensis",
        "col1": "Helicoidea",
        "col2": "iucn3.1",
        "col3": "LC"
    },
    {
        "col0": "Xerocrassa kydonia",
        "col1": "Helicoidea",
        "col2": "iucn3.1",
        "col3": "LC"
    },
    {
        "col0": "Xerocrassa jimenensis",
        "col1": "Helicoidea",
        "col2": "iucn3.1",
        "col3": "NT"
    },
    {
        "col0": "Xerocrassa homeyeri",
        "col1": "Helicoidea",
        "col2": "iucn3.1",
        "col3": "LC"
    },
    {
        "col0": "Xerocrassa heraklea",
        "col1": "Helicoidea",
        "col2": "iucn3.1",
        "col3": "LC"
    },
    {
        "col0": "Xerocrassa grata",
        "col1": "Helicoidea",
        "col2": "iucn3.1",
        "col3": "DD"
    },
    {
        "col0": "Xerocrassa grabusana",
        "col1": "Helicoidea",
        "col2": "iucn3.1",
        "col3": "LC"
    },
    {
        "col0": "Xerocrassa gharlapsi",
        "col1": "Helicoidea",
        "col2": "iucn2.3",
        "col3": "VU"
    },
    {
        "col0": "Xerocrassa geyeri",
        "col1": "Helicoidea",
        "col2": "iucn3.1",
        "col3": "DD"
    },
    {
        "col0": "Xerocrassa frater",
        "col1": "Helicoidea",
        "col2": "iucn3.1",
        "col3": "LC"
    },
    {
        "col0": "Xerocrassa franciscoi",
        "col1": "Helicoidea",
        "col2": "iucn3.1",
        "col3": "LC"
    },
    {
        "col0": "Xerocrassa ferreri",
        "col1": "Helicoidea",
        "col2": "iucn3.1",
        "col3": "NT"
    },
    {
        "col0": "Xerocrassa edmundi",
        "col1": "Helicoidea",
        "col2": "iucn3.1",
        "col3": "EN"
    },
    {
        "col0": "Xerocrassa ebusitana",
        "col1": "Helicoidea",
        "col2": "iucn3.1",
        "col3": "NT"
    },
    {
        "col0": "Xerocrassa derogata",
        "col1": "Helicoidea",
        "col2": "iucn3.1",
        "col3": "LC"
    },
    {
        "col0": "Xerocrassa cretica",
        "col1": "Helicoidea",
        "col2": "iucn3.1",
        "col3": "LC"
    },
    {
        "col0": "Xerocrassa cobosi",
        "col1": "Helicoidea",
        "col2": "iucn3.1",
        "col3": "DD"
    },
    {
        "col0": "Xerocrassa claudiconus",
        "col1": "Helicoidea",
        "col2": "iucn3.1",
        "col3": "LC"
    },
    {
        "col0": "Xerocrassa claudia",
        "col1": "Helicoidea",
        "col2": "iucn3.1",
        "col3": "LC"
    },
    {
        "col0": "Xerocrassa cisternasi",
        "col1": "Helicoidea",
        "col2": "iucn3.1",
        "col3": "NT"
    },
    {
        "col0": "Xerocrassa caroli",
        "col1": "Helicoidea",
        "col2": "iucn3.1",
        "col3": "LC"
    },
    {
        "col0": "Xerocrassa cardonae",
        "col1": "Helicoidea",
        "col2": "iucn3.1",
        "col3": "VU"
    },
    {
        "col0": "Xerocrassa barceloi",
        "col1": "Helicoidea",
        "col2": "iucn3.1",
        "col3": "LC"
    },
    {
        "col0": "Xerocrassa amphiconus",
        "col1": "Helicoidea",
        "col2": "iucn3.1",
        "col3": "LC"
    },
    {
        "col0": "Xerces blue",
        "col1": "Lycaenidae",
        "col2": "IUCN2.3",
        "col3": "EX"
    },
    {
        "col0": "Xenotyphlops grandidieri",
        "col1": "Typhlopoidea",
        "col2": "IUCN3.1",
        "col3": "CR"
    },
    {
        "col0": "Xenotilapia tenuidentata",
        "col1": "Cichlidae",
        "col2": "IUCN3.1",
        "col3": "LC"
    },
    {
        "col0": "Xenotilapia spiloptera",
        "col1": "Cichlidae",
        "col2": "IUCN3.1",
        "col3": "DD"
    },
    {
        "col0": "Xenotilapia sima",
        "col1": "Cichlidae",
        "col2": "IUCN3.1",
        "col3": "LC"
    },
    {
        "col0": "Xenotilapia ornatipinnis",
        "col1": "Cichlidae",
        "col2": "IUCN3.1",
        "col3": "LC"
    },
    {
        "col0": "Xenotilapia ochrogenys",
        "col1": "Cichlidae",
        "col2": "IUCN3.1",
        "col3": "LC"
    },
    {
        "col0": "Xenotilapia nigrolabiata",
        "col1": "Cichlidae",
        "col2": "IUCN3.1",
        "col3": "LC"
    },
    {
        "col0": "Xenotilapia nasus",
        "col1": "Cichlidae",
        "col2": "IUCN3.1",
        "col3": "DD"
    },
    {
        "col0": "Xenotilapia melanogenys",
        "col1": "Cichlidae",
        "col2": "IUCN3.1",
        "col3": "DD"
    },
    {
        "col0": "Xenotilapia longispinis",
        "col1": "Cichlidae",
        "col2": "IUCN3.1",
        "col3": "LC"
    },
    {
        "col0": "Xenotilapia leptura",
        "col1": "Cichlidae",
        "col2": "IUCN3.1",
        "col3": "LC"
    },
    {
        "col0": "Xenotilapia caudofasciata",
        "col1": "Cichlidae",
        "col2": "IUCN3.1",
        "col3": "LC"
    },
    {
        "col0": "Xenotilapia burtoni",
        "col1": "Cichlidae",
        "col2": "IUCN3.1",
        "col3": "VU"
    },
    {
        "col0": "Xenotilapia boulengeri",
        "col1": "Cichlidae",
        "col2": "IUCN3.1",
        "col3": "LC"
    },
    {
        "col0": "Xenotilapia bathyphila",
        "col1": "Cichlidae",
        "col2": "IUCN3.1",
        "col3": "LC"
    },
    {
        "col0": "Xenotaenia resolanae",
        "col1": "Goodeidae",
        "col2": "iucn3.1",
        "col3": "NE"
    },
    {
        "col0": "Xenosaurus grandis",
        "col1": "Xenosauridae",
        "col2": "IUCN3.1",
        "col3": "VU"
    },
    {
        "col0": "Xenorhina similis",
        "col1": "Microhylidae",
        "col2": "IUCN3.1",
        "col3": "LC"
    },
    {
        "col0": "Xenorhina parkerorum",
        "col1": "Microhylidae",
        "col2": "IUCN3.1",
        "col3": "LC"
    },
    {
        "col0": "Xenorhina oxycephala",
        "col1": "Microhylidae",
        "col2": "IUCN3.1",
        "col3": "LC"
    },
    {
        "col0": "Xenorhina minima",
        "col1": "Microhylidae",
        "col2": "IUCN3.1",
        "col3": "DD"
    },
    {
        "col0": "Xenorhina eiponis",
        "col1": "Microhylidae",
        "col2": "IUCN3.1",
        "col3": "DD"
    },
    {
        "col0": "Xenorhina bouwensi",
        "col1": "Microhylidae",
        "col2": "IUCN3.1",
        "col3": "LC"
    },
    {
        "col0": "Xenorhina arboricola",
        "col1": "Microhylidae",
        "col2": "IUCN3.1",
        "col3": "DD"
    },
    {
        "col0": "Xenorhina adisca",
        "col1": "Microhylidae",
        "col2": "IUCN3.1",
        "col3": "DD"
    },
    {
        "col0": "Xenopus lenduensis",
        "col1": "Pipidae",
        "col2": "IUCN3.1",
        "col3": "CR"
    },
    {
        "col0": "Xenopus itombwensis",
        "col1": "Pipidae",
        "col2": "IUCN3.1",
        "col3": "CR"
    },
    {
        "col0": "Xenopus epitropicalis",
        "col1": "Pipidae",
        "col2": "IUCN3.1",
        "col3": "LC"
    },
    {
        "col0": "Xenopoclinus leprosus",
        "col1": "Clinidae",
        "col2": "iucn3.1",
        "col3": "LC"
    },
    {
        "col0": "Xenopoclinus kochi",
        "col1": "Clinidae",
        "col2": "IUCN3.1",
        "col3": "LC"
    },
    {
        "col0": "Xenophthalmichthys danae",
        "col1": "Microstomatidae",
        "col2": "iucn3.1",
        "col3": "NE"
    },
    {
        "col0": "Xenophallus umbratilis",
        "col1": "Poeciliidae",
        "col2": "iucn3.1",
        "col3": "NE"
    },
    {
        "col0": "Xenopeltis hainanensis",
        "col1": "Xenopeltidae",
        "col2": "IUCN3.1",
        "col3": "LC"
    },
    {
        "col0": "Xenomugil thoburni",
        "col1": "Mugilidae",
        "col2": "iucn3.1",
        "col3": "LC"
    },
    {
        "col0": "Xenomedea rhodopyga",
        "col1": "Labrisomidae",
        "col2": "iucn3.1",
        "col3": "LC"
    },
    {
        "col0": "Xenolepidichthys dalgleishi",
        "col1": "Grammicolepididae",
        "col2": "iucn3.1",
        "col3": "NE"
    },
    {
        "col0": "Xenohyla truncata",
        "col1": "Hylidae",
        "col2": "IUCN3.1",
        "col3": "NT"
    },
    {
        "col0": "Xenohyla eugenioi",
        "col1": "Hylidae",
        "col2": "IUCN3.1",
        "col3": "DD"
    },
    {
        "col0": "Xenodiscula taintori",
        "col1": "Sagdidae",
        "col2": "IUCN2.3",
        "col3": "DD"
    },
    {
        "col0": "Xenodexia ctenolepis",
        "col1": "Poeciliidae",
        "col2": "iucn3.1",
        "col3": "NE"
    },
    {
        "col0": "Xenocys jessiae",
        "col1": "Haemulidae",
        "col2": "iucn3.1",
        "col3": "VU"
    },
    {
        "col0": "Xenocypris yunnanensis",
        "col1": "Cyprinidae",
        "col2": "IUCN3.1",
        "col3": "CR"
    },
    {
        "col0": "Xenochromis hecqui",
        "col1": "Cichlidae",
        "col2": "IUCN3.1",
        "col3": "DD"
    },
    {
        "col0": "Xenocalamus transvaalensis",
        "col1": "Atractaspididae",
        "col2": "iucn2.3",
        "col3": "DD"
    },
    {
        "col0": "Xenobrama microlepis",
        "col1": "Bramidae",
        "col2": "iucn3.1",
        "col3": "NE"
    },
    {
        "col0": "Xenobalistes tumidipectoris",
        "col1": "Balistidae",
        "col2": "iucn3.1",
        "col3": "NE"
    },
    {
        "col0": "Xeniamia",
        "col1": "Apogonidae",
        "col2": "IUCN3.1",
        "col3": "NE"
    },
    {
        "col0": "Xavier's greenbul",
        "col1": "Pycnonotidae",
        "col2": "IUCN3.1",
        "col3": "LC"
    },
    {
        "col0": "Xantus leaf-toed gecko",
        "col1": "Gekkonidae",
        "col2": "iucn3.1",
        "col3": "LC"
    },
    {
        "col0": "Xantus's hummingbird",
        "col1": "Trochilidae",
        "col2": "IUCN3.1",
        "col3": "LC"
    },
    {
        "col0": "Xanthippe's shrew",
        "col1": "Soricidae",
        "col2": "IUCN3.1",
        "col3": "LC"
    },
    {
        "col0": "Xanthichthys mento",
        "col1": "Balistidae",
        "col2": "IUCN3.1",
        "col3": "LC"
    },
    {
        "col0": "Wyoming pocket gopher",
        "col1": "Geomyidae",
        "col2": "IUCN3.1",
        "col3": "LC"
    },
    {
        "col0": "Wyoming ground squirrel",
        "col1": "Sciuridae",
        "col2": "iucn3.1",
        "col3": "LC"
    },
    {
        "col0": "Wynaad laughingthrush",
        "col1": "Leiothrichidae",
        "col2": "IUCN3.1",
        "col3": "LC"
    },
    {
        "col0": "Wushan salamander",
        "col1": "Hynobiidae",
        "col2": "IUCN3.1",
        "col3": "NT"
    },
    {
        "col0": "Wuliangshan horned toad",
        "col1": "Megophryidae",
        "col2": "IUCN3.1",
        "col3": "DD"
    },
    {
        "col0": "Wuchang bream",
        "col1": "Cyprinidae",
        "col2": "IUCN3.1",
        "col3": "LC"
    },
    {
        "col0": "Wrymouth",
        "col1": "Cryptacanthodidae",
        "col2": "iucn3.1",
        "col3": "NE"
    },
    {
        "col0": "Wrybill",
        "col1": "Charadriidae",
        "col2": "IUCN3.1",
        "col3": "VU"
    },
    {
        "col0": "Wroughton's free-tailed bat",
        "col1": "Molossidae",
        "col2": "iucn",
        "col3": "DD"
    },
    {
        "col0": "Writhed hornbill",
        "col1": "Bucerotidae",
        "col2": "IUCN3.1",
        "col3": "NT"
    },
    {
        "col0": "Wrinkled toadlet",
        "col1": "Myobatrachidae",
        "col2": "iucn3.1",
        "col3": "LC"
    },
    {
        "col0": "Wrinkled hornbill",
        "col1": "Hornbill",
        "col2": "IUCN3.1",
        "col3": "NT"
    },
    {
        "col0": "Wrinkle-lipped free-tailed bat",
        "col1": "Molossidae",
        "col2": "IUCN",
        "col3": "lc"
    },
    {
        "col0": "Wrinkle-faced bat",
        "col1": "Phyllostomidae",
        "col2": "IUCN3.1",
        "col3": "LC"
    },
    {
        "col0": "Wright's skink",
        "col1": "Scincidae",
        "col2": "IUCN3.1",
        "col3": "VU"
    },
    {
        "col0": "Wright's mountain tree frog",
        "col1": "Hylidae",
        "col2": "IUCN3.1",
        "col3": "LC"
    }
]