[
    {
        "col0": "W8 engine",
        "col1": "370",
        "col2": "0",
        "col3": "petrol"
    },
    {
        "col0": "Volvo B8444S engine",
        "col1": "440",
        "col2": "0",
        "col3": "petrol"
    },
    {
        "col0": "Volkswagen G60 engine",
        "col1": "225",
        "col2": "0",
        "col3": "petrol"
    },
    {
        "col0": "VR6 engine",
        "col1": "245",
        "col2": "0",
        "col3": "petrol"
    },
    {
        "col0": "Triumph V8",
        "col1": "230",
        "col2": "0",
        "col3": "petrol"
    },
    {
        "col0": "Toyota W engine",
        "col1": "275",
        "col2": "0",
        "col3": "diesel"
    },
    {
        "col0": "Toyota AD engine",
        "col1": "310",
        "col2": "0",
        "col3": "diesel"
    },
    {
        "col0": "Rolls-Royce C range engines",
        "col1": "813",
        "col2": "0",
        "col3": "diesel"
    },
    {
        "col0": "Mercedes-Benz OM654 engine",
        "col1": "400",
        "col2": "0",
        "col3": "diesel"
    },
    {
        "col0": "Mercedes-Benz OM642",
        "col1": "620",
        "col2": "0",
        "col3": "diesel"
    },
    {
        "col0": "Mercedes-Benz OM603",
        "col1": "185",
        "col2": "0",
        "col3": "diesel"
    },
    {
        "col0": "Lamborghini V8",
        "col1": "273",
        "col2": "0",
        "col3": "petrol"
    },
    {
        "col0": "Lamborghini V12",
        "col1": "650",
        "col2": "0",
        "col3": "petrol"
    },
    {
        "col0": "Lamborghini V10",
        "col1": "510",
        "col2": "0",
        "col3": "petrol"
    },
    {
        "col0": "JTD engine",
        "col1": "125",
        "col2": "0",
        "col3": "diesel"
    },
    {
        "col0": "Daimler V8 engines",
        "col1": "383",
        "col2": "0",
        "col3": "petrol"
    }
]