[
    {
        "col0": "Agua de Pena",
        "col1": "Machico",
        "col2": "0",
        "col3": "(+351) 291 XXX XXX"
    },
    {
        "col0": "Agua de Pau",
        "col1": "Sao Miguel Island",
        "col2": "0",
        "col3": "(+351) 292 XX XX XX"
    },
    {
        "col0": "Zambujeira do Mar",
        "col1": "Beja District",
        "col2": "0",
        "col3": "(+351) 283 XX XX XX"
    },
    {
        "col0": "Woodridge, New York",
        "col1": "Sullivan County, New York",
        "col2": "323",
        "col3": "845"
    },
    {
        "col0": "Welsberg-Taisten",
        "col1": "South Tyrol",
        "col2": "1042",
        "col3": "474"
    },
    {
        "col0": "Watervliet, New York",
        "col1": "Albany County, New York",
        "col2": "0",
        "col3": "518"
    },
    {
        "col0": "Vrutky",
        "col1": "Martin District",
        "col2": "370",
        "col3": "+421-43"
    },
    {
        "col0": "Vila do Porto",
        "col1": "Santa Maria Island",
        "col2": "0",
        "col3": "(+351) 292 XXX-XXXX"
    },
    {
        "col0": "Vila do Porto",
        "col1": "Santa Maria Island",
        "col2": "0",
        "col3": "(+351) 292 XX XX XX"
    },
    {
        "col0": "Vila do Corvo",
        "col1": "Corvo Island",
        "col2": "0",
        "col3": "(+351) 292 XX XX XX"
    },
    {
        "col0": "Vila do Bispo",
        "col1": "Faro District",
        "col2": "0",
        "col3": "(+351) 282 XX XX XX"
    },
    {
        "col0": "Vila Nova",
        "col1": "Terceira Island",
        "col2": "0",
        "col3": "(+351) 292 XXX XXX"
    },
    {
        "col0": "Vila Franca do Campo",
        "col1": "Sao Miguel Island",
        "col2": "0",
        "col3": "(+351) 296 XX XX XX"
    },
    {
        "col0": "Velky Saris",
        "col1": "PreA!ov District",
        "col2": "255",
        "col3": "421-51"
    },
    {
        "col0": "Velas",
        "col1": "Sao Jorge Island",
        "col2": "0",
        "col3": "(+351) 292 XXX-XXXX"
    },
    {
        "col0": "Velky Saris",
        "col1": "PreA!ov District",
        "col2": "255",
        "col3": "421-51"
    },
    {
        "col0": "Urzelina",
        "col1": "Sao Jorge Island",
        "col2": "0",
        "col3": "(+351) 292 XX XX XX"
    },
    {
        "col0": "Tunes",
        "col1": "Faro",
        "col2": "0",
        "col3": "(+351) 282 XX XX XX"
    },
    {
        "col0": "Troy, New York",
        "col1": "Rensselaer County, New York",
        "col2": "0",
        "col3": "518"
    },
    {
        "col0": "Tredozio",
        "col1": "Province of Forli-Cesena",
        "col2": "360",
        "col3": "546"
    },
    {
        "col0": "Topo",
        "col1": "Sao Jorge Island",
        "col2": "0",
        "col3": "(+351) 292 XXX-XXXX"
    },
    {
        "col0": "Tivoli, New York",
        "col1": "Dutchess County, New York",
        "col2": "0",
        "col3": "845Exchange: 757"
    },
    {
        "col0": "Terra Cha",
        "col1": "Terceira Island",
        "col2": "93",
        "col3": "(+351) 292 XXX-XXXX"
    },
    {
        "col0": "Se",
        "col1": "Funchal",
        "col2": "0",
        "col3": "(+351) 291 XXX XXX"
    },
    {
        "col0": "Sao Roque do Pico",
        "col1": "Pico Island",
        "col2": "0",
        "col3": "(+351) 292 XX XX XX"
    },
    {
        "col0": "Sao Roque do Pico",
        "col1": "Pico Island",
        "col2": "0",
        "col3": "(+351) 292 XX XX XX"
    },
    {
        "col0": "Sao Roque",
        "col1": "Funchal",
        "col2": "140",
        "col3": "(+351) 291 XXX XXX"
    },
    {
        "col0": "Sao Pedro",
        "col1": "Santa Maria Island",
        "col2": "0",
        "col3": "(+351) 292 XXX-XXXX"
    },
    {
        "col0": "Sao Mateus",
        "col1": "Pico Island",
        "col2": "0",
        "col3": "(+351) 292 XX XX XX"
    },
    {
        "col0": "Sao Joao",
        "col1": "Pico Island",
        "col2": "0",
        "col3": "(+351) 292 XX XX XX"
    },
    {
        "col0": "Sao Caetano",
        "col1": "Pico Island",
        "col2": "0",
        "col3": "(+351) 292 XX XX XX"
    },
    {
        "col0": "Sao Bras",
        "col1": "Terceira Island",
        "col2": "67",
        "col3": "(+351) 292 XXX XXX"
    },
    {
        "col0": "Sete Cidades",
        "col1": "Sao Miguel Island",
        "col2": "261",
        "col3": "(+351) 292 XXX-XXXX"
    },
    {
        "col0": "Serreta",
        "col1": "Terceira Island",
        "col2": "0",
        "col3": "(+351) 292 XX XX XX"
    }
]