[
    {
        "col0": "Ferrissia gentilis",
        "col1": "Planorbidae",
        "col2": "LC",
        "col3": "IUCN3.1"
    },
    {
        "col0": "Ferrissia fragilis",
        "col1": "Planorbidae",
        "col2": "LC",
        "col3": "iucn3.1"
    },
    {
        "col0": "Fenouilia kreitneri",
        "col1": "Pomatiopsidae",
        "col2": "EN",
        "col3": "IUCN3.1"
    },
    {
        "col0": "Fat threeridge",
        "col1": "Unionidae",
        "col2": "CR",
        "col3": "IUCN2.3"
    },
    {
        "col0": "Fat pocketbook pearly mussel",
        "col1": "Unionidae",
        "col2": "VU",
        "col3": "IUCN3.1"
    },
    {
        "col0": "Fat Guam partula",
        "col1": "Partuloidea",
        "col2": "CR",
        "col3": "IUCN2.3"
    },
    {
        "col0": "Fanshell",
        "col1": "Unionidae",
        "col2": "CR",
        "col3": "IUCN2.3"
    },
    {
        "col0": "Falniowskia neglectissima",
        "col1": "Hydrobiidae",
        "col2": "dd",
        "col3": "IUCN3.1"
    },
    {
        "col0": "Falkneria camerani",
        "col1": "Helicoidea",
        "col2": "VU",
        "col3": "IUCN3.1"
    },
    {
        "col0": "Fairbanks springsnail",
        "col1": "Hydrobiidae",
        "col2": "DD",
        "col3": "IUCN2.3"
    },
    {
        "col0": "Eximiorhagada asperrima",
        "col1": "Camaenidae",
        "col2": "DD",
        "col3": "IUCN2.3"
    },
    {
        "col0": "Excised slitshell",
        "col1": "Cerithioidea",
        "col2": "EX",
        "col3": "IUCN2.3"
    },
    {
        "col0": "Eussoia leptodonta",
        "col1": "Rissooidea",
        "col2": "dd",
        "col3": "IUCN3.1"
    },
    {
        "col0": "Euprymna berryi",
        "col1": "Sepiolidae",
        "col2": "DD",
        "col3": "iucn3.1"
    },
    {
        "col0": "Euonyma curtissima",
        "col1": "Achatinoidea",
        "col2": "EN",
        "col3": "IUCN2.3"
    },
    {
        "col0": "Euhadra sadoensis",
        "col1": "Helicoidea",
        "col2": "DD",
        "col3": "IUCN2.3"
    },
    {
        "col0": "Euhadra nachicola",
        "col1": "Helicoidea",
        "col2": "DD",
        "col3": "IUCN2.3"
    },
    {
        "col0": "Euhadra murayamai",
        "col1": "Helicoidea",
        "col2": "DD",
        "col3": "IUCN2.3"
    },
    {
        "col0": "Euglandina wani",
        "col1": "Spiraxidae",
        "col2": "DD",
        "col3": "IUCN2.3"
    },
    {
        "col0": "Eucobresia diaphana",
        "col1": "Limacoidea",
        "col2": "LC",
        "col3": "IUCN3.1"
    },
    {
        "col0": "Euchondrus ramonensis",
        "col1": "Enidae",
        "col2": "CR",
        "col3": "IUCN2.3"
    },
    {
        "col0": "Eua zebrina",
        "col1": "Partuloidea",
        "col2": "EN",
        "col3": "IUCN2.3"
    },
    {
        "col0": "Esperiana esperi",
        "col1": "Melanopsidae",
        "col2": "LC",
        "col3": "IUCN3.1"
    },
    {
        "col0": "Esperiana daudebartii",
        "col1": "Melanopsidae",
        "col2": "LC",
        "col3": "IUCN3.1"
    },
    {
        "col0": "Escargot de Quimper",
        "col1": "Helicoidea",
        "col2": "LR/lc",
        "col3": "IUCN2.3"
    },
    {
        "col0": "Erepta stylodon",
        "col1": "Helicarionidae",
        "col2": "CR",
        "col3": "IUCN2.3"
    },
    {
        "col0": "Erepta odontina",
        "col1": "Helicarionidae",
        "col2": "EN",
        "col3": "IUCN2.3"
    },
    {
        "col0": "Erepta nevilli",
        "col1": "Helicarionidae",
        "col2": "EX",
        "col3": "IUCN2.3"
    },
    {
        "col0": "Epioblasma walkeri",
        "col1": "Unionidae",
        "col2": "G1",
        "col3": "TNC"
    },
    {
        "col0": "Epioblasma triquetra",
        "col1": "Unionidae",
        "col2": "G3",
        "col3": "TNC"
    },
    {
        "col0": "Epioblasma torulosa",
        "col1": "Unionidae",
        "col2": "CR",
        "col3": "IUCN3.1"
    },
    {
        "col0": "Enterprise siltsnail",
        "col1": "Hydrobiidae",
        "col2": "VU",
        "col3": "IUCN2.3"
    },
    {
        "col0": "Endodonta apiculata",
        "col1": "Punctoidea",
        "col2": "CR",
        "col3": "IUCN2.3"
    },
    {
        "col0": "Ena montana",
        "col1": "Enidae",
        "col2": "LC",
        "col3": "iucn3.1"
    },
    {
        "col0": "Emerald green snail",
        "col1": "Camaenidae",
        "col2": "NT",
        "col3": "IUCN2.3"
    },
    {
        "col0": "Embertoniphanta farafanga",
        "col1": "Acavoidea",
        "col2": "NE",
        "col3": "iucn3.1"
    },
    {
        "col0": "Elysia chlorotica",
        "col1": "Plakobranchidae",
        "col2": "NE",
        "col3": "iucn"
    },
    {
        "col0": "Elongate-gland springsnail",
        "col1": "Hydrobiidae",
        "col2": "DD",
        "col3": "IUCN2.3"
    },
    {
        "col0": "Elliptio producta",
        "col1": "Unionidae",
        "col2": "LR/nt",
        "col3": "IUCN2.3"
    },
    {
        "col0": "Elliptio mcmichaeli",
        "col1": "Unionidae",
        "col2": "LR/nt",
        "col3": "IUCN2.3"
    },
    {
        "col0": "Elliptio hopetonensis",
        "col1": "Unionidae",
        "col2": "LR/nt",
        "col3": "IUCN2.3"
    },
    {
        "col0": "Elliptio folliculata",
        "col1": "Unionidae",
        "col2": "LR/nt",
        "col3": "IUCN2.3"
    },
    {
        "col0": "Elliptio downiei",
        "col1": "Unionidae",
        "col2": "LR/nt",
        "col3": "IUCN2.3"
    },
    {
        "col0": "Elliptio dariensis",
        "col1": "Unionidae",
        "col2": "LR/nt",
        "col3": "IUCN2.3"
    },
    {
        "col0": "Elliptio crassidens",
        "col1": "Unionidae",
        "col2": "LC",
        "col3": "IUCN3.1"
    },
    {
        "col0": "Elliptio congaraea",
        "col1": "Unionidae",
        "col2": "LR/nt",
        "col3": "IUCN2.3"
    },
    {
        "col0": "Elliptio angustata",
        "col1": "Unionidae",
        "col2": "LR/nt",
        "col3": "IUCN2.3"
    },
    {
        "col0": "Elliptio ahenea",
        "col1": "Unionidae",
        "col2": "LR/nt",
        "col3": "IUCN2.3"
    },
    {
        "col0": "Ellipsaria lineolata",
        "col1": "Unionidae",
        "col2": "LR/nt",
        "col3": "IUCN2.3"
    },
    {
        "col0": "Elktoe",
        "col1": "Unionidae",
        "col2": "DD",
        "col3": "IUCN2.3"
    },
    {
        "col0": "Elk River file snail",
        "col1": "Cerithioidea",
        "col2": "VU",
        "col3": "IUCN2.3"
    },
    {
        "col0": "Elisolimax rufescens",
        "col1": "Helicarionidae",
        "col2": "DD",
        "col3": "IUCN2.3"
    },
    {
        "col0": "Elimia troostiana",
        "col1": "Cerithioidea",
        "col2": "VU",
        "col3": "IUCN2.3"
    },
    {
        "col0": "Elimia teres",
        "col1": "Cerithioidea",
        "col2": "VU",
        "col3": "IUCN2.3"
    },
    {
        "col0": "Elimia strigosa",
        "col1": "Cerithioidea",
        "col2": "VU",
        "col3": "IUCN2.3"
    },
    {
        "col0": "Elimia pybasi",
        "col1": "Cerithioidea",
        "col2": "VU",
        "col3": "IUCN2.3"
    },
    {
        "col0": "Elimia potosiensis",
        "col1": "Cerithioidea",
        "col2": "LC",
        "col3": "IUCN3.1"
    },
    {
        "col0": "Elimia porrecta",
        "col1": "Cerithioidea",
        "col2": "VU",
        "col3": "IUCN2.3"
    },
    {
        "col0": "Elimia macglameriana",
        "col1": "Cerithioidea",
        "col2": "EX",
        "col3": "IUCN2.3"
    },
    {
        "col0": "Elimia lachryma",
        "col1": "Cerithioidea",
        "col2": "EX",
        "col3": "IUCN2.3"
    },
    {
        "col0": "Elimia gibbera",
        "col1": "Cerithioidea",
        "col2": "EX",
        "col3": "IUCN2.3"
    },
    {
        "col0": "Elimia aterina",
        "col1": "Cerithioidea",
        "col2": "VU",
        "col3": "IUCN2.3"
    },
    {
        "col0": "Elimia acuta",
        "col1": "Cerithioidea",
        "col2": "VU",
        "col3": "IUCN2.3"
    },
    {
        "col0": "Elasmias quadrasi",
        "col1": "Achatinelloidea",
        "col2": "DD",
        "col3": "IUCN2.3"
    },
    {
        "col0": "Elasmias kitaiwojimanum",
        "col1": "Achatinelloidea",
        "col2": "VU",
        "col3": "IUCN2.3"
    },
    {
        "col0": "Elasmias jaurffreti",
        "col1": "Achatinelloidea",
        "col2": "DD",
        "col3": "IUCN2.3"
    },
    {
        "col0": "Elasmias cernicum",
        "col1": "Achatinelloidea",
        "col2": "VU",
        "col3": "IUCN2.3"
    },
    {
        "col0": "Eelgrass limpet",
        "col1": "Lottiidae",
        "col2": "EX",
        "col3": "IUCN2.3"
    },
    {
        "col0": "Edible naiad",
        "col1": "Unionidae",
        "col2": "EN",
        "col3": "IUCN2.3"
    },
    {
        "col0": "Edentulina usambarensis",
        "col1": "Streptaxoidea",
        "col2": "DD",
        "col3": "IUCN2.3"
    },
    {
        "col0": "Dwarf wedgemussel",
        "col1": "Unionidae",
        "col2": "EN",
        "col3": "iucn2.3"
    },
    {
        "col0": "Dwarf pebblesnail",
        "col1": "Hydrobiidae",
        "col2": "CR",
        "col3": "IUCN2.3"
    },
    {
        "col0": "Dutton's river snail",
        "col1": "Cerithioidea",
        "col2": "VU",
        "col3": "IUCN2.3"
    },
    {
        "col0": "Durangonella de Coahuila snail",
        "col1": "Hydrobiidae",
        "col2": "VU",
        "col3": "IUCN2.3"
    },
    {
        "col0": "Dupucharopa millestriata",
        "col1": "Charopidae",
        "col2": "VU",
        "col3": "IUCN2.3"
    },
    {
        "col0": "Dupontia proletaria",
        "col1": "Gastrodontoidea",
        "col2": "EX",
        "col3": "IUCN2.3"
    },
    {
        "col0": "Dupontia poweri",
        "col1": "Gastrodontoidea",
        "col2": "VU",
        "col3": "IUCN2.3"
    },
    {
        "col0": "Dupontia perlucida",
        "col1": "Gastrodontoidea",
        "col2": "EN",
        "col3": "IUCN2.3"
    },
    {
        "col0": "Dupontia nitella",
        "col1": "Gastrodontoidea",
        "col2": "VU",
        "col3": "IUCN2.3"
    },
    {
        "col0": "Dupontia levis",
        "col1": "Gastrodontoidea",
        "col2": "VU",
        "col3": "IUCN2.3"
    },
    {
        "col0": "Duckwater pyrg",
        "col1": "Hydrobiidae",
        "col2": "EN",
        "col3": "IUCN2.3"
    },
    {
        "col0": "Duck mussel",
        "col1": "Unionidae",
        "col2": "LC",
        "col3": "iucn3.1"
    },
    {
        "col0": "Drymaeus acervatus",
        "col1": "Orthalicoidea",
        "col2": "VU",
        "col3": "IUCN2.3"
    },
    {
        "col0": "Dromedary naiad",
        "col1": "Unionidae",
        "col2": "CR",
        "col3": "IUCN2.3"
    },
    {
        "col0": "Draparnaudia subnecata",
        "col1": "Partuloidea",
        "col2": "CR",
        "col3": "IUCN2.3"
    },
    {
        "col0": "Draparnaudia anniae",
        "col1": "Partuloidea",
        "col2": "CR",
        "col3": "IUCN2.3"
    },
    {
        "col0": "Doryssa hohenackeri",
        "col1": "Pachychilidae",
        "col2": "LC",
        "col3": "iucn3.1"
    },
    {
        "col0": "Doryssa consolidata",
        "col1": "Pachychilidae",
        "col2": "NE",
        "col3": "iucn3.1"
    },
    {
        "col0": "Domed ancylid",
        "col1": "Planorbidae",
        "col2": "VU",
        "col3": "IUCN2.3"
    },
    {
        "col0": "Dolapex amiculus",
        "col1": "Helicarionidae",
        "col2": "EN",
        "col3": "IUCN2.3"
    },
    {
        "col0": "Dlinza Forest pinwheel",
        "col1": "Charopidae",
        "col2": "CR",
        "col3": "IUCN3.1"
    },
    {
        "col0": "Divellomelon hillieri",
        "col1": "Camaenidae",
        "col2": "VU",
        "col3": "IUCN2.3"
    },
    {
        "col0": "Ditropis whitei",
        "col1": "Cyclophoroidea",
        "col2": "VU",
        "col3": "IUCN2.3"
    },
    {
        "col0": "Distal-gland springsnail",
        "col1": "Hydrobiidae",
        "col2": "DD",
        "col3": "IUCN2.3"
    },
    {
        "col0": "Discus scutula",
        "col1": "Punctoidea",
        "col2": "LR/nt",
        "col3": "IUCN2.3"
    },
    {
        "col0": "Discus macclintocki",
        "col1": "Punctoidea",
        "col2": "EN",
        "col3": "IUCN3.1"
    },
    {
        "col0": "Discus guerinianus",
        "col1": "Punctoidea",
        "col2": "CR",
        "col3": "IUCN3.1"
    },
    {
        "col0": "Disculella maderensis",
        "col1": "Helicoidea",
        "col2": "LR/lc",
        "col3": "IUCN2.3"
    },
    {
        "col0": "Discula testudinalis",
        "col1": "Helicoidea",
        "col2": "CR",
        "col3": "IUCN2.3"
    },
    {
        "col0": "Discula tabellata",
        "col1": "Helicoidea",
        "col2": "EN",
        "col3": "IUCN2.3"
    },
    {
        "col0": "Discula leacockiana",
        "col1": "Helicoidea",
        "col2": "VU",
        "col3": "IUCN2.3"
    },
    {
        "col0": "Discula cheiranthicola",
        "col1": "Helicoidea",
        "col2": "VU",
        "col3": "IUCN2.3"
    },
    {
        "col0": "Discula bulweri",
        "col1": "Helicoidea",
        "col2": "EN",
        "col3": "IUCN2.3"
    },
    {
        "col0": "Discocharopa mimosa",
        "col1": "Charopidae",
        "col2": "LC",
        "col3": "IUCN3.1"
    },
    {
        "col0": "Dipnelix pertricosa",
        "col1": "Charopidae",
        "col2": "DD",
        "col3": "IUCN2.3"
    },
    {
        "col0": "Diplommatina ringens",
        "col1": "Cyclophoroidea",
        "col2": "DD",
        "col3": "IUCN2.3"
    },
    {
        "col0": "Diplommatina pyramis",
        "col1": "Cyclophoroidea",
        "col2": "DD",
        "col3": "IUCN2.3"
    },
    {
        "col0": "Diplommatina madaiensis",
        "col1": "Cyclophoroidea",
        "col2": "CR",
        "col3": "IUCN3.1"
    },
    {
        "col0": "Diplommatina lutea",
        "col1": "Cyclophoroidea",
        "col2": "DD",
        "col3": "IUCN2.3"
    },
    {
        "col0": "Diplommatina lateralis",
        "col1": "Cyclophoroidea",
        "col2": "DD",
        "col3": "IUCN2.3"
    },
    {
        "col0": "Diplommatina lamellata",
        "col1": "Cyclophoroidea",
        "col2": "DD",
        "col3": "IUCN2.3"
    },
    {
        "col0": "Diplommatina inflatula",
        "col1": "Cyclophoroidea",
        "col2": "DD",
        "col3": "IUCN2.3"
    },
    {
        "col0": "Diplommatina gibboni",
        "col1": "Cyclophoroidea",
        "col2": "DD",
        "col3": "IUCN2.3"
    },
    {
        "col0": "Diplommatina crassilabris",
        "col1": "Cyclophoroidea",
        "col2": "DD",
        "col3": "IUCN2.3"
    },
    {
        "col0": "Diplommatina circumstomata",
        "col1": "Cyclophoroidea",
        "col2": "DD",
        "col3": "IUCN2.3"
    },
    {
        "col0": "Diplommatina cacuminulus",
        "col1": "Cyclophoroidea",
        "col2": "CR",
        "col3": "IUCN3.1"
    },
    {
        "col0": "Diplommatina aurea",
        "col1": "Cyclophoroidea",
        "col2": "DD",
        "col3": "IUCN2.3"
    },
    {
        "col0": "Diplommatina alata",
        "col1": "Cyclophoroidea",
        "col2": "DD",
        "col3": "IUCN2.3"
    },
    {
        "col0": "Diplodon pfeifferi",
        "col1": "Hyriidae",
        "col2": "VU",
        "col3": "IUCN2.3"
    },
    {
        "col0": "Diplodon fontaineanus",
        "col1": "Hyriidae",
        "col2": "EN",
        "col3": "IUCN2.3"
    },
    {
        "col0": "Diplodon expansus",
        "col1": "Hyriidae",
        "col2": "VU",
        "col3": "IUCN2.3"
    },
    {
        "col0": "Diplodon dunkerianus",
        "col1": "Hyriidae",
        "col2": "EN",
        "col3": "IUCN2.3"
    },
    {
        "col0": "Digerus gibberulus",
        "col1": "Orthalicoidea",
        "col2": "EX",
        "col3": "IUCN2.3"
    },
    {
        "col0": "Diastole tenuistriata",
        "col1": "Helicarionidae",
        "col2": "VU",
        "col3": "IUCN2.3"
    },
    {
        "col0": "Diamond Y springsnail",
        "col1": "Hydrobiidae",
        "col2": "DD",
        "col3": "IUCN2.3"
    },
    {
        "col0": "Desmoulin's whorl snail",
        "col1": "Pupilloidea",
        "col2": "VU",
        "col3": "iucn3.1"
    },
    {
        "col0": "Deroceras vascoana",
        "col1": "Limacoidea",
        "col2": "LR/nt",
        "col3": "IUCN2.3"
    },
    {
        "col0": "Deroceras tarracense",
        "col1": "Limacoidea",
        "col2": "VU",
        "col3": "IUCN2.3"
    },
    {
        "col0": "Deroceras fatrense",
        "col1": "Limacoidea",
        "col2": "DD",
        "col3": "IUCN2.3"
    },
    {
        "col0": "Depressed river mussel",
        "col1": "Unionidae",
        "col2": "VU",
        "col3": "iucn3.1"
    },
    {
        "col0": "Dendrotrochus ponapensis",
        "col1": "Gastrodontoidea",
        "col2": "DD",
        "col3": "IUCN2.3"
    },
    {
        "col0": "Delos oualanensis",
        "col1": "Rhytididae",
        "col2": "DD",
        "col3": "IUCN2.3"
    },
    {
        "col0": "Davis County springsnail",
        "col1": "Hydrobiidae",
        "col2": "DD",
        "col3": "IUCN2.3"
    },
    {
        "col0": "Dark pigtoe",
        "col1": "Unionidae",
        "col2": "CR",
        "col3": "IUCN2.3"
    },
    {
        "col0": "Daphnobela miocaenica",
        "col1": "Conoidea",
        "col2": "EX",
        "col3": "IUCN2.3"
    },
    {
        "col0": "Daphnobela minutissima",
        "col1": "Conoidea",
        "col2": "EX",
        "col3": "IUCN2.3"
    },
    {
        "col0": "Daphnobela juncea",
        "col1": "Conoidea",
        "col2": "EX",
        "col3": "IUCN2.3"
    },
    {
        "col0": "Daphnobela",
        "col1": "Conoidea",
        "col2": "EX",
        "col3": "IUCN2.3"
    },
    {
        "col0": "Dancea rodriguezensis",
        "col1": "Gastrodontoidea",
        "col2": "EN",
        "col3": "IUCN2.3"
    },
    {
        "col0": "Damochlora spina",
        "col1": "Camaenidae",
        "col2": "VU",
        "col3": "IUCN2.3"
    },
    {
        "col0": "Damochlora millepunctata",
        "col1": "Camaenidae",
        "col2": "EN",
        "col3": "IUCN2.3"
    },
    {
        "col0": "Daedalochila hippocrepis",
        "col1": "Helicoidea",
        "col2": "LR/nt",
        "col3": "IUCN2.3"
    },
    {
        "col0": "Cytora hirsutissima",
        "col1": "Cyclophoroidea",
        "col2": "DD",
        "col3": "IUCN2.3"
    },
    {
        "col0": "Cyrnotheba corsica",
        "col1": "Helicidae",
        "col2": "LR/lc",
        "col3": "IUCN2.3"
    },
    {
        "col0": "Cylindrus obtusus",
        "col1": "Helicidae",
        "col2": "LR/nt",
        "col3": "IUCN2.3"
    },
    {
        "col0": "Cylindrovertilla kingi",
        "col1": "Pupilloidea",
        "col2": "LR/lc",
        "col3": "IUCN2.3"
    },
    {
        "col0": "Cylindrical lioplax",
        "col1": "Viviparidae",
        "col2": "VU",
        "col3": "IUCN2.3"
    },
    {
        "col0": "Cylichnidia ovuliformis",
        "col1": "Achatinoidea",
        "col2": "VU",
        "col3": "IUCN3.1"
    },
    {
        "col0": "Cyclosurus mariei",
        "col1": "Cyclophoroidea",
        "col2": "EX",
        "col3": "IUCN2.3"
    },
    {
        "col0": "Cyclophorus horridulum",
        "col1": "Cyclophoroidea",
        "col2": "EX",
        "col3": "IUCN2.3"
    },
    {
        "col0": "Cyclonaias tuberculata",
        "col1": "Unionidae",
        "col2": "LR/nt",
        "col3": "IUCN2.3"
    },
    {
        "col0": "Cyathopoma randalana",
        "col1": "Cyclophoroidea",
        "col2": "VU",
        "col3": "IUCN2.3"
    },
    {
        "col0": "Cyathopoma nishinoi",
        "col1": "Cyclophoroidea",
        "col2": "DD",
        "col3": "IUCN2.3"
    },
    {
        "col0": "Cupedora tomsetti",
        "col1": "Camaenidae",
        "col2": "LR/nt",
        "col3": "IUCN2.3"
    },
    {
        "col0": "Cupedora sutilosa",
        "col1": "Camaenidae",
        "col2": "LR/nt",
        "col3": "IUCN2.3"
    },
    {
        "col0": "Cupedora nottensis",
        "col1": "Camaenidae",
        "col2": "VU",
        "col3": "IUCN2.3"
    },
    {
        "col0": "Cupedora marcidum",
        "col1": "Camaenidae",
        "col2": "LR/nt",
        "col3": "IUCN2.3"
    },
    {
        "col0": "Cupedora luteofusca",
        "col1": "Camaenidae",
        "col2": "LR/nt",
        "col3": "IUCN2.3"
    },
    {
        "col0": "Cupedora evandaleana",
        "col1": "Camaenidae",
        "col2": "EN",
        "col3": "IUCN2.3"
    },
    {
        "col0": "Cupedora broughami",
        "col1": "Camaenidae",
        "col2": "LR/nt",
        "col3": "IUCN2.3"
    },
    {
        "col0": "Cumberlandian combshell",
        "col1": "Unionidae",
        "col2": "CR",
        "col3": "IUCN2.3"
    },
    {
        "col0": "Cumberland pigtoe",
        "col1": "Unionidae",
        "col2": "CR",
        "col3": "IUCN2.3"
    },
    {
        "col0": "Cumberland monkeyface pearly mussel",
        "col1": "Unionidae",
        "col2": "CR",
        "col3": "IUCN2.3"
    },
    {
        "col0": "Cumberland leafshell",
        "col1": "Unionidae",
        "col2": "EX",
        "col3": "IUCN2.3"
    },
    {
        "col0": "Cumberland bean pearly mussel",
        "col1": "Unionidae",
        "col2": "CR",
        "col3": "IUCN2.3"
    },
    {
        "col0": "Culmenella rezvoji",
        "col1": "Planorbidae",
        "col2": "DD",
        "col3": "IUCN2.3"
    },
    {
        "col0": "Ctenophila vorticella",
        "col1": "Gastrodontoidea",
        "col2": "VU",
        "col3": "IUCN2.3"
    },
    {
        "col0": "Ctenophila setiliris",
        "col1": "Gastrodontoidea",
        "col2": "EN",
        "col3": "IUCN2.3"
    },
    {
        "col0": "Ctenophila salaziensis",
        "col1": "Gastrodontoidea",
        "col2": "LR/lc",
        "col3": "IUCN2.3"
    },
    {
        "col0": "Ctenophila caldwelli",
        "col1": "Gastrodontoidea",
        "col2": "EN",
        "col3": "IUCN2.3"
    },
    {
        "col0": "Ctenoglypta newtoni",
        "col1": "Gastrodontoidea",
        "col2": "EX",
        "col3": "IUCN2.3"
    },
    {
        "col0": "Crystal siltsnail",
        "col1": "Hydrobiidae",
        "col2": "VU",
        "col3": "IUCN2.3"
    },
    {
        "col0": "Crystal Spring springsnail",
        "col1": "Hydrobiidae",
        "col2": "DD",
        "col3": "IUCN2.3"
    },
    {
        "col0": "Cryptosaccus asturiensis",
        "col1": "Helicoidea",
        "col2": "LR/nt",
        "col3": "IUCN2.3"
    },
    {
        "col0": "Cryptazeca vasconica",
        "col1": "Cochlicopidae",
        "col2": "LR/nt",
        "col3": "IUCN2.3"
    },
    {
        "col0": "Cryptazeca subcylindrica",
        "col1": "Cochlicopidae",
        "col2": "VU",
        "col3": "IUCN2.3"
    },
    {
        "col0": "Cryptazeca spelaea",
        "col1": "Cochlicopidae",
        "col2": "VU",
        "col3": "IUCN2.3"
    },
    {
        "col0": "Cryptazeca monodonta",
        "col1": "Cochlicopidae",
        "col2": "VU",
        "col3": "IUCN2.3"
    },
    {
        "col0": "Cryptazeca kobelti",
        "col1": "Cochlicopidae",
        "col2": "EN",
        "col3": "IUCN2.3"
    },
    {
        "col0": "Cryptazeca elongata",
        "col1": "Cochlicopidae",
        "col2": "VU",
        "col3": "IUCN2.3"
    },
    {
        "col0": "Cristilabrum spectaculum",
        "col1": "Camaenidae",
        "col2": "LR/nt",
        "col3": "IUCN2.3"
    },
    {
        "col0": "Cristilabrum solitudum",
        "col1": "Camaenidae",
        "col2": "EN",
        "col3": "IUCN2.3"
    },
    {
        "col0": "Cristilabrum simplex",
        "col1": "Camaenidae",
        "col2": "VU",
        "col3": "IUCN2.3"
    },
    {
        "col0": "Cristilabrum rectum",
        "col1": "Camaenidae",
        "col2": "VU",
        "col3": "IUCN2.3"
    },
    {
        "col0": "Cristilabrum primum",
        "col1": "Camaenidae",
        "col2": "VU",
        "col3": "IUCN2.3"
    },
    {
        "col0": "Cristilabrum monodon",
        "col1": "Camaenidae",
        "col2": "VU",
        "col3": "IUCN2.3"
    },
    {
        "col0": "Cristilabrum isolatum",
        "col1": "Camaenidae",
        "col2": "VU",
        "col3": "IUCN2.3"
    },
    {
        "col0": "Cristilabrum grossum",
        "col1": "Camaenidae",
        "col2": "EN",
        "col3": "IUCN2.3"
    },
    {
        "col0": "Cristilabrum buryillum",
        "col1": "Camaenidae",
        "col2": "EN",
        "col3": "IUCN2.3"
    },
    {
        "col0": "Cristilabrum bubulum",
        "col1": "Camaenidae",
        "col2": "EN",
        "col3": "IUCN2.3"
    },
    {
        "col0": "Cristigibba wesselensis",
        "col1": "Camaenidae",
        "col2": "DD",
        "col3": "IUCN2.3"
    },
    {
        "col0": "Cremnoconchus syhadrensis",
        "col1": "Littorinidae",
        "col2": "EN",
        "col3": "IUCN3.1"
    },
    {
        "col0": "Cremnoconchus conicus",
        "col1": "Littorinidae",
        "col2": "VU",
        "col3": "IUCN3.1"
    },
    {
        "col0": "Cremnoconchus carinatus",
        "col1": "Littorinidae",
        "col2": "EN",
        "col3": "IUCN3.1"
    },
    {
        "col0": "Craterodiscus pricei",
        "col1": "Camaenidae",
        "col2": "LR/nt",
        "col3": "IUCN2.3"
    },
    {
        "col0": "Crassispira sacerdotalis",
        "col1": "Conoidea",
        "col2": "DD",
        "col3": "IUCN2.3"
    },
    {
        "col0": "Craspedoma trochoideum",
        "col1": "Cyclophoroidea",
        "col2": "LR/cd",
        "col3": "IUCN2.3"
    }
]