[
    {
        "col0": "Tanga Airport",
        "col1": "Tanzania",
        "col2": "HTTG",
        "col3": "39"
    },
    {
        "col0": "Tandil Airport",
        "col1": "Tandil",
        "col2": "SAZT",
        "col3": "174"
    },
    {
        "col0": "Tandag Airport",
        "col1": "Tandag",
        "col2": "RPMW",
        "col3": "4"
    },
    {
        "col0": "Tancredo Neves International Airport",
        "col1": "Belo Horizonte",
        "col2": "SBCF",
        "col3": "826"
    },
    {
        "col0": "Tan Tan Airport",
        "col1": "Morocco",
        "col2": "(Location of airport in Morocco)",
        "col3": "199"
    },
    {
        "col0": "Tan Son Nhat International Airport",
        "col1": "Vietnam",
        "col2": "VVTS",
        "col3": "10"
    },
    {
        "col0": "Tamworth Airport",
        "col1": "Australia",
        "col2": "YSTW",
        "col3": "406"
    },
    {
        "col0": "Tampere-Pirkkala Airport",
        "col1": "Tampere",
        "col2": "EFTP",
        "col3": "118"
    },
    {
        "col0": "Tampa Padang Airport",
        "col1": "Dutch East Indies",
        "col2": "WAAJ",
        "col3": "2"
    },
    {
        "col0": "Tampa International Airport",
        "col1": "Tampa Bay Area",
        "col2": "KTPA",
        "col3": "7"
    },
    {
        "col0": "Tampa Executive Airport",
        "col1": "Tampa, Florida",
        "col2": "KVDF",
        "col3": "6"
    },
    {
        "col0": "Tampa Bay Executive Airport",
        "col1": "Tampa Bay, Florida",
        "col2": "KRRF",
        "col3": "12"
    },
    {
        "col0": "Tamga Airport",
        "col1": "Jeti-Oguz District",
        "col2": "UAFA",
        "col3": "1723"
    },
    {
        "col0": "Tambuti Airfield",
        "col1": "Big Bend, Swaziland",
        "col2": "FDBT",
        "col3": "141"
    },
    {
        "col0": "Tambov Donskoye Airport",
        "col1": "Russia",
        "col2": "UUOT",
        "col3": "126"
    },
    {
        "col0": "Tambolaka Airport",
        "col1": "Waikabubak",
        "col2": "(Location of airport in Sumba Island)",
        "col3": "61"
    },
    {
        "col0": "Tambohorano Airport",
        "col1": "Tambohorano",
        "col2": "FMMU",
        "col3": "7"
    },
    {
        "col0": "Tambao Airport",
        "col1": "Burkina Faso",
        "col2": "DFEM",
        "col3": "250"
    },
    {
        "col0": "Tambacounda Airport",
        "col1": "Senegal",
        "col2": "GOTT",
        "col3": "49"
    },
    {
        "col0": "Taloqan Airport",
        "col1": "Takhar Province",
        "col2": "(Location of airport in Afghanistan)",
        "col3": "815"
    },
    {
        "col0": "Tallinn Airport",
        "col1": "Estonia",
        "col2": "EETN",
        "col3": "39"
    },
    {
        "col0": "Tallahassee International Airport",
        "col1": "Tallahassee, Florida",
        "col2": "KTLH",
        "col3": "24"
    },
    {
        "col0": "Talladega Municipal Airport",
        "col1": "Talladega, Alabama",
        "col2": "KASN",
        "col3": "160"
    },
    {
        "col0": "Talkeetna Airport",
        "col1": "Talkeetna, Alaska",
        "col2": "PATK",
        "col3": "109"
    },
    {
        "col0": "Taldykorgan Airport",
        "col1": "Taldykorgan",
        "col2": "UAAT",
        "col3": "593"
    },
    {
        "col0": "Talas Airport",
        "col1": "Talas, Kyrgyzstan",
        "col2": "UAFT",
        "col3": "1265"
    },
    {
        "col0": "Talagi Airport",
        "col1": "Arkhangelsk",
        "col2": "ULAA",
        "col3": "18"
    },
    {
        "col0": "Takhamalt Airport",
        "col1": "Algeria",
        "col2": "(Location of airport in Algeria)",
        "col3": "542"
    },
    {
        "col0": "Takengon Rembele Airport",
        "col1": "Takengon",
        "col2": "WITK",
        "col3": "1310"
    },
    {
        "col0": "Takaroa Airport",
        "col1": "Takaroa",
        "col2": "NTKR",
        "col3": "3"
    },
    {
        "col0": "Taitung Airport",
        "col1": "Taiwan",
        "col2": "RCFN",
        "col3": "43"
    },
    {
        "col0": "Taiping Airport",
        "col1": "Malaysia",
        "col2": "WMBI",
        "col3": "12"
    },
    {
        "col0": "Taipei Songshan Airport",
        "col1": "Taipei",
        "col2": "(Location of airport in Taiwan)",
        "col3": "5"
    },
    {
        "col0": "Taichung Airport",
        "col1": "Taichung-Changhua metropolitan area",
        "col2": "(Location of airport in Taiwan)",
        "col3": "202"
    },
    {
        "col0": "Tahoua Airport",
        "col1": "Tahoua",
        "col2": "DRRT",
        "col3": "385"
    },
    {
        "col0": "Tahlequah Municipal Airport",
        "col1": "Tahlequah, Oklahoma",
        "col2": "KTQH",
        "col3": "266"
    },
    {
        "col0": "Tagbilaran Airport",
        "col1": "Tagbilaran",
        "col2": "RPVT",
        "col3": "11"
    },
    {
        "col0": "Taetan Airport",
        "col1": "North Korea",
        "col2": "N/A",
        "col3": "74"
    },
    {
        "col0": "Taechon Airport",
        "col1": "North Korea",
        "col2": "N/A",
        "col3": "35"
    },
    {
        "col0": "Tadjoura Airport",
        "col1": "Djibouti",
        "col2": "HDTJ",
        "col3": "74"
    },
    {
        "col0": "Tacuarembo Airport",
        "col1": "Tacuarembo",
        "col2": "SUTB",
        "col3": "134"
    },
    {
        "col0": "Tacoma Narrows Airport",
        "col1": "Tacoma, Washington",
        "col2": "KTIW",
        "col3": "89"
    },
    {
        "col0": "Tachilek Airport",
        "col1": "Myanmar",
        "col2": "(Location of airport in Burma)",
        "col3": "390"
    },
    {
        "col0": "Tacheng Airport",
        "col1": "Xinjiang",
        "col2": "(Location of airport in Xinjiang)",
        "col3": "604"
    },
    {
        "col0": "Tabuk Regional Airport",
        "col1": "Tabuk, Saudi Arabia",
        "col2": "(Location of airport in Saudi Arabia)",
        "col3": "777"
    },
    {
        "col0": "Tabou Airport",
        "col1": "Tabou",
        "col2": "DITB",
        "col3": "11"
    },
    {
        "col0": "Tabatinga International Airport",
        "col1": "Tabatinga",
        "col2": "SBTT",
        "col3": "85"
    },
    {
        "col0": "Tabarka-Ain Draham International Airport",
        "col1": "Tunisia",
        "col2": "(Location of airport in Tunisia)",
        "col3": "70"
    },
    {
        "col0": "Taba International Airport",
        "col1": "Egypt",
        "col2": "(Location of airport in Sinai)",
        "col3": "736"
    },
    {
        "col0": "Ta'if Regional Airport",
        "col1": "Ta'if",
        "col2": "(Location of airport in Saudi Arabia)",
        "col3": "1477"
    },
    {
        "col0": "TSTC Waco Airport",
        "col1": "Waco, Texas",
        "col2": "KCNW",
        "col3": "143"
    },
    {
        "col0": "T. F. Green Airport",
        "col1": "Providence, Rhode Island",
        "col2": "KPVD",
        "col3": "16"
    },
    {
        "col0": "Tonsberg Airport, Jarlsberg",
        "col1": "Tonsberg",
        "col2": "ENJB",
        "col3": "9"
    },
    {
        "col0": "Tolanaro Airport",
        "col1": "Tolanaro",
        "col2": "(Location of Airport in Madagascar)",
        "col3": "6"
    },
    {
        "col0": "Targu Mures International Airport",
        "col1": "Targu Mures",
        "col2": "(Location of airport in Romania)",
        "col3": "293"
    },
    {
        "col0": "Selibaby Airport",
        "col1": "Mauritania",
        "col2": "(Location of airport in Mauritania)",
        "col3": "79"
    },
    {
        "col0": "Sao Tome International Airport",
        "col1": "Sao Tome",
        "col2": "(Location of airport in Sao Tome and Principe)",
        "col3": "10"
    },
    {
        "col0": "Sao Raimundo Nonato Airport",
        "col1": "Sao Raimundo Nonato",
        "col2": "SWKQ",
        "col3": "415"
    },
    {
        "col0": "Sao Pedro Airport",
        "col1": "Sao Pedro, Sao Paulo",
        "col2": "SDAE",
        "col3": "566"
    },
    {
        "col0": "Sao Paulo-Guarulhos International Airport",
        "col1": "Sao Paulo",
        "col2": "SBGR",
        "col3": "749"
    },
    {
        "col0": "Sao Paulo-Congonhas Airport",
        "col1": "Sao Paulo",
        "col2": "SBSP",
        "col3": "801"
    },
    {
        "col0": "Sao Paulo de Olivenca Airport",
        "col1": "Sao Paulo de Olivenca",
        "col2": "SDCG",
        "col3": "102"
    },
    {
        "col0": "Sao Miguel do Oeste Airport",
        "col1": "Sao Miguel do Oeste",
        "col2": "SSOE",
        "col3": "665"
    },
    {
        "col0": "Sao Joao del-Rei Airport",
        "col1": "Sao Joao del Rei",
        "col2": "SNJR",
        "col3": "947"
    },
    {
        "col0": "Sao Jose dos Campos Airport",
        "col1": "Sao Jose dos Campos",
        "col2": "SBSJ",
        "col3": "646"
    },
    {
        "col0": "Sao Jose do Rio Preto Airport",
        "col1": "Sao Jose do Rio Preto",
        "col2": "SBSR",
        "col3": "542"
    },
    {
        "col0": "Sao Jorge Airport",
        "col1": "Azores",
        "col2": "LPSJ",
        "col3": "102"
    },
    {
        "col0": "Sao Jacinto Airport",
        "col1": "Aveiro, Portugal",
        "col2": "LPAV",
        "col3": "7"
    },
    {
        "col0": "Sao Gabriel da Cachoeira Airport",
        "col1": "Sao Gabriel da Cachoeira",
        "col2": "SBUA",
        "col3": "75"
    },
    {
        "col0": "Sao Felix do Xingu Airport",
        "col1": "Sao Felix do Xingu",
        "col2": "SNFX",
        "col3": "199"
    },
    {
        "col0": "Sao Felix do Araguaia Airport",
        "col1": "Sao Felix do Araguaia",
        "col2": "SWFX",
        "col3": "198"
    },
    {
        "col0": "Sao Filipe Airport",
        "col1": "Sao Filipe, Cape Verde",
        "col2": "GVSF",
        "col3": "20"
    },
    {
        "col0": "Sao Carlos Airport",
        "col1": "Sao Carlos",
        "col2": "SDSC",
        "col3": "807"
    },
    {
        "col0": "Sao Borja Airport",
        "col1": "Sao Borja",
        "col2": "SSSB",
        "col3": "74"
    },
    {
        "col0": "Szeged Airport",
        "col1": "Hungary",
        "col2": "(Location of airport in Hungary)",
        "col3": "79"
    },
    {
        "col0": "Sywell Aerodrome",
        "col1": "Kettering",
        "col2": "EGBK",
        "col3": "129"
    },
    {
        "col0": "Syukuran Aminuddin Amir Airport",
        "col1": "Luwuk",
        "col2": "WAFW",
        "col3": "17"
    },
    {
        "col0": "Syros Island National Airport",
        "col1": "Greece",
        "col2": "(Location of airport in Greece)",
        "col3": "71"
    },
    {
        "col0": "Syracuse Hancock International Airport",
        "col1": "Syracuse, New York",
        "col2": "KSYR",
        "col3": "128"
    },
    {
        "col0": "Sylt Airport",
        "col1": "Germany",
        "col2": "EDXW",
        "col3": "15"
    },
    {
        "col0": "Sylacauga Municipal Airport",
        "col1": "Sylacauga, Alabama",
        "col2": "KSCD",
        "col3": "173"
    },
    {
        "col0": "Syktyvkar Airport",
        "col1": "Syktyvkar",
        "col2": "UUYY",
        "col3": "91"
    },
    {
        "col0": "Sydney Airport",
        "col1": "Sydney",
        "col2": "YSSY",
        "col3": "6"
    },
    {
        "col0": "Sydney/J.A. Douglas McCurdy Airport",
        "col1": "Nova Scotia",
        "col2": "CYQY",
        "col3": "61"
    },
    {
        "col0": "Syangboche Airport",
        "col1": "Solukhumbu",
        "col2": "(Location of airport in Nepal)",
        "col3": "3780"
    },
    {
        "col0": "Syamsudin Noor Airport",
        "col1": "Banjarmasin",
        "col2": "WAOO",
        "col3": "20"
    },
    {
        "col0": "Swan Island Municipal Airport",
        "col1": "Portland, Oregon",
        "col2": "none",
        "col3": "6"
    },
    {
        "col0": "Swami Vivekananda Airport",
        "col1": "Chhattisgarh",
        "col2": "VERP",
        "col3": "317"
    },
    {
        "col0": "Svolvaer Airport, Helle",
        "col1": "Svolvaer",
        "col2": "ENSH",
        "col3": "8"
    },
    {
        "col0": "Svea Airport",
        "col1": "Norway",
        "col2": "ENSA",
        "col3": "9"
    },
    {
        "col0": "Svalbard Airport, Longyear",
        "col1": "Norway",
        "col2": "ENSB",
        "col3": "28"
    },
    {
        "col0": "Suvarnabhumi Airport",
        "col1": "Bangkok",
        "col2": "VTBS",
        "col3": "1"
    },
    {
        "col0": "Sussex Airport",
        "col1": "Sussex, New Jersey",
        "col2": "KFWN",
        "col3": "128"
    },
    {
        "col0": "Susanville Municipal Airport",
        "col1": "Susanville, California",
        "col2": "KSVE",
        "col3": "1264"
    },
    {
        "col0": "Surkhet Airport",
        "col1": "Nepal",
        "col2": "(Location of airport in Nepal)",
        "col3": "71"
    },
    {
        "col0": "Surigao Airport",
        "col1": "Surigao City",
        "col2": "RPMS",
        "col3": "6"
    },
    {
        "col0": "Surgut International Airport",
        "col1": "Surgut",
        "col2": "USRR",
        "col3": "60"
    },
    {
        "col0": "Surat Airport",
        "col1": "Surat",
        "col2": "VASU",
        "col3": "4"
    },
    {
        "col0": "Sur Airport",
        "col1": "Sur, Oman",
        "col2": "OOSR",
        "col3": "6"
    },
    {
        "col0": "Sunshine Coast Airport",
        "col1": "Sunshine Coast, Queensland",
        "col2": "YBSU",
        "col3": "4"
    },
    {
        "col0": "Sungam Ni Airport",
        "col1": "North Korea",
        "col2": "N/A",
        "col3": "28"
    },
    {
        "col0": "Sundance Airpark",
        "col1": "Oklahoma City, Oklahoma",
        "col2": "KHSD",
        "col3": "363"
    },
    {
        "col0": "Sunchon Airport",
        "col1": "North Korea",
        "col2": "ZKSC",
        "col3": "42"
    },
    {
        "col0": "Sunan Shuofang International Airport",
        "col1": "Wuxi",
        "col2": "ZSWX",
        "col3": "5"
    },
    {
        "col0": "Sumter Airport",
        "col1": "Sumter, South Carolina",
        "col2": "KSMS",
        "col3": "55"
    },
    {
        "col0": "Summit Airport",
        "col1": "Alaska",
        "col2": "PAST",
        "col3": "734"
    },
    {
        "col0": "Summerville Airport",
        "col1": "Summerville, South Carolina",
        "col2": "KDYB",
        "col3": "17"
    },
    {
        "col0": "Sumburgh Airport",
        "col1": "Shetland",
        "col2": "EGPB",
        "col3": "6"
    },
    {
        "col0": "Sumbe Airport",
        "col1": "Sumbe",
        "col2": "FNSU",
        "col3": "10"
    },
    {
        "col0": "Sultan Thaha Airport",
        "col1": "Jambi",
        "col2": "WIJJ (previous: WIPA)",
        "col3": "24"
    },
    {
        "col0": "Sultan Syarif Kasim II International Airport",
        "col1": "Pekanbaru",
        "col2": "WIBB",
        "col3": "31"
    },
    {
        "col0": "Sultan Muhammad Salahudin Airport",
        "col1": "Dutch East Indies",
        "col2": "WADB",
        "col3": "0"
    },
    {
        "col0": "Sultan Muhammad Kaharuddin III Airport",
        "col1": "Sumbawa Besar",
        "col2": "(Location of the Airport in Indonesia)",
        "col3": "5"
    },
    {
        "col0": "Sultan Mahmud Badaruddin II International Airport",
        "col1": "Palembang",
        "col2": "WIPP",
        "col3": "36"
    },
    {
        "col0": "Sultan Mahmud Airport",
        "col1": "Malaysia",
        "col2": "WMKN",
        "col3": "6"
    },
    {
        "col0": "Sultan Ismail Petra Airport",
        "col1": "Malaysia",
        "col2": "WMKC",
        "col3": "4"
    },
    {
        "col0": "Sultan Iskandar Muda International Airport",
        "col1": "Banda Aceh",
        "col2": "WITT",
        "col3": "19"
    },
    {
        "col0": "Sultan Hasanuddin International Airport",
        "col1": "Makassar",
        "col2": "WAAA",
        "col3": "14"
    },
    {
        "col0": "Sultan Haji Ahmad Shah Airport",
        "col1": "Pahang",
        "col2": "WMKD",
        "col3": "17"
    },
    {
        "col0": "Sultan Bantilan Airport",
        "col1": "Central Sulawesi",
        "col2": "(Location of the Airport in Sulawesi)",
        "col3": "2"
    },
    {
        "col0": "Sultan Azlan Shah Airport",
        "col1": "Malaysia",
        "col2": "WMKI",
        "col3": "39"
    },
    {
        "col0": "Sultan Aji Muhammad Sulaiman Airport",
        "col1": "Balikpapan",
        "col2": "(Location of airport in Indonesia)",
        "col3": "3"
    },
    {
        "col0": "Sultan Abdul Halim Airport",
        "col1": "Malaysia",
        "col2": "WMKA",
        "col3": "4"
    },
    {
        "col0": "Sultan Abdul Aziz Shah Airport",
        "col1": "West Malaysia",
        "col2": "WMSA",
        "col3": "27"
    },
    {
        "col0": "Sulphur Springs Municipal Airport",
        "col1": "Sulphur Springs, Texas",
        "col2": "KSLR",
        "col3": "149"
    },
    {
        "col0": "Sullivan Regional Airport",
        "col1": "Sullivan, Missouri",
        "col2": "KUUV",
        "col3": "284"
    },
    {
        "col0": "Sullivan County International Airport",
        "col1": "Monticello, New York",
        "col2": "KMSV",
        "col3": "427"
    },
    {
        "col0": "Sullivan County Airport",
        "col1": "Sullivan, Indiana",
        "col2": "KSIV",
        "col3": "164"
    },
    {
        "col0": "Sulaimaniyah International Airport",
        "col1": "Iraq",
        "col2": "(Location of airport in Iraq)",
        "col3": "759"
    },
    {
        "col0": "Sukhumi Babushara Airport",
        "col1": "Sukhumi",
        "col2": "UGSS",
        "col3": "16"
    },
    {
        "col0": "Sukhothai Airport",
        "col1": "Thailand",
        "col2": "(Location of airport in Thailand)",
        "col3": "54"
    },
    {
        "col0": "Sugimanuru Airport",
        "col1": "Raha, Indonesia",
        "col2": "(Location of the Airport in Sulawesi)",
        "col3": "74"
    },
    {
        "col0": "Sugar Land Regional Airport",
        "col1": "Greater Houston",
        "col2": "KSGR",
        "col3": "24"
    },
    {
        "col0": "Suffolk Executive Airport",
        "col1": "Suffolk, Virginia",
        "col2": "KSFQ",
        "col3": "21"
    },
    {
        "col0": "Sudbury Airport",
        "col1": "Ontario",
        "col2": "CYSB",
        "col3": "348"
    },
    {
        "col0": "Sucua Airport",
        "col1": "Sucua",
        "col2": "SESC",
        "col3": "949"
    },
    {
        "col0": "Suceava International Airport",
        "col1": "Romania",
        "col2": "(Location of airport in Romania)",
        "col3": "419"
    },
    {
        "col0": "Sucua Airport",
        "col1": "Sucua",
        "col2": "SESC",
        "col3": "949"
    },
    {
        "col0": "Subotica Airport",
        "col1": "Subotica",
        "col2": "LYSU",
        "col3": "109"
    },
    {
        "col0": "Subic Bay International Airport",
        "col1": "Pangasinan",
        "col2": "RPLB",
        "col3": "19"
    },
    {
        "col0": "Suai Airport",
        "col1": "East Timor",
        "col2": "WPDB",
        "col3": "29"
    },
    {
        "col0": "Sua Pan Airport",
        "col1": "Botswana",
        "col2": "(Location of airport in Botswana)",
        "col3": "909"
    },
    {
        "col0": "Stykkisholmur Airport",
        "col1": "Stykkisholmur",
        "col2": "BIST",
        "col3": "12"
    },
    {
        "col0": "Stuttgart Municipal Airport",
        "col1": "Stuttgart, Arkansas",
        "col2": "KSGT",
        "col3": "68"
    },
    {
        "col0": "Stuttgart Airport",
        "col1": "Germany",
        "col2": "EDDS",
        "col3": "388"
    },
    {
        "col0": "Sturgis Municipal Airport",
        "col1": "Sturgis, Kentucky",
        "col2": "KTWT",
        "col3": "113"
    },
    {
        "col0": "Stuart Powell Field",
        "col1": "Danville, Kentucky",
        "col2": "KDVK",
        "col3": "311"
    },
    {
        "col0": "Stroud Municipal Airport",
        "col1": "Stroud, Oklahoma",
        "col2": "KSUD",
        "col3": "274"
    },
    {
        "col0": "Strother Field",
        "col1": "Arkansas City, Kansas",
        "col2": "KWLD",
        "col3": "353"
    },
    {
        "col0": "Stronsay Airport",
        "col1": "Stronsay",
        "col2": "EGER",
        "col3": "11"
    },
    {
        "col0": "Strigino International Airport",
        "col1": "Nizhny Novgorod",
        "col2": "(Location of airport in Nizhniy Novgorod Krai)",
        "col3": "78"
    },
    {
        "col0": "Strasbourg Airport",
        "col1": "France",
        "col2": "LFST",
        "col3": "153"
    },
    {
        "col0": "Strahan Airport",
        "col1": "West Coast, Tasmania",
        "col2": "YSRN",
        "col3": "20"
    },
    {
        "col0": "Stornoway Airport",
        "col1": "Stornoway",
        "col2": "EGPO",
        "col3": "7"
    },
    {
        "col0": "Stord Airport, Sorstokken",
        "col1": "Norway",
        "col2": "ENSO",
        "col3": "49"
    },
    {
        "col0": "Stokmarknes Airport, Skagen",
        "col1": "Sortland",
        "col2": "ENSK",
        "col3": "3"
    },
    {
        "col0": "Stockton Metropolitan Airport",
        "col1": "Stockton, California",
        "col2": "KSCK",
        "col3": "10"
    },
    {
        "col0": "Stockholm Vasteras Airport",
        "col1": "Sweden",
        "col2": "(Location of airport inVastmanland)",
        "col3": "6"
    },
    {
        "col0": "Stockholm Skavsta Airport",
        "col1": "Stockholm",
        "col2": "ESKN",
        "col3": "42"
    },
    {
        "col0": "Stockholm Bromma Airport",
        "col1": "Stockholm",
        "col2": "ESSB",
        "col3": "14"
    },
    {
        "col0": "Stockholm Arlanda Airport",
        "col1": "Stockholm",
        "col2": "ESSA",
        "col3": "41"
    },
    {
        "col0": "Stockerau Airport",
        "col1": "Stockerau",
        "col2": "LOAU",
        "col3": "210"
    },
    {
        "col0": "Stinson Municipal Airport",
        "col1": "Texas",
        "col2": "KSSF",
        "col3": "175"
    },
    {
        "col0": "Stillwater Regional Airport",
        "col1": "Oklahoma",
        "col2": "KSWO",
        "col3": "304"
    },
    {
        "col0": "Stigler Regional Airport",
        "col1": "Stigler, Oklahoma",
        "col2": "KGZL",
        "col3": "182"
    },
    {
        "col0": "Stewart International Airport",
        "col1": "Hudson Valley",
        "col2": "KSWF",
        "col3": "149"
    },
    {
        "col0": "Steung Treng Airport",
        "col1": "Cambodia",
        "col2": "(Location of airport in Cambodia)",
        "col3": "61"
    },
    {
        "col0": "Stephenville International Airport",
        "col1": "Corner Brook",
        "col2": "CYJT",
        "col3": "24"
    },
    {
        "col0": "Stepanavan Airport",
        "col1": "Stepanavan",
        "col2": "UDLS",
        "col3": "1474"
    },
    {
        "col0": "Stennis International Airport",
        "col1": "Bay St. Louis, Mississippi",
        "col2": "KHSA",
        "col3": "7"
    },
    {
        "col0": "Stella Maris Airport",
        "col1": "Bahamas",
        "col2": "MYLS",
        "col3": "3"
    },
    {
        "col0": "Steamboat Springs Airport",
        "col1": "Steamboat Springs, Colorado",
        "col2": "KSBS",
        "col3": "2097"
    },
    {
        "col0": "Stavropol Shpakovskoye Airport",
        "col1": "Stavropol",
        "col2": "(Location of airport in Stavropol Krai)",
        "col3": "452"
    },
    {
        "col0": "Stavanger Airport, Sola",
        "col1": "Norway",
        "col2": "ENZV",
        "col3": "8"
    },
    {
        "col0": "Statesboro-Bulloch County Airport",
        "col1": "Statesboro, Georgia",
        "col2": "KTBR",
        "col3": "56"
    },
    {
        "col0": "Stara Zagora Airport",
        "col1": "Stara Zagora",
        "col2": "LBSZ",
        "col3": "195"
    },
    {
        "col0": "Stanton County Municipal Airport",
        "col1": "Stanton County, Kansas",
        "col2": "KJHN",
        "col3": "1013"
    },
    {
        "col0": "Stanton Airfield",
        "col1": "Stanton, Minnesota",
        "col2": "KSYN",
        "col3": "280"
    },
    {
        "col0": "Stanthorpe Airport",
        "col1": "Queensland",
        "col2": "YSPE",
        "col3": "894"
    },
    {
        "col0": "Stanly County Airport",
        "col1": "Albemarle, North Carolina",
        "col2": "KVUJ",
        "col3": "185"
    },
    {
        "col0": "Staniel Cay Airport",
        "col1": "Bahamas",
        "col2": "MYES",
        "col3": "1"
    },
    {
        "col0": "Stan Stamper Municipal Airport",
        "col1": "Hugo, Oklahoma",
        "col2": "KHHW",
        "col3": "174"
    },
    {
        "col0": "St Mary's Airport, Isles of Scilly",
        "col1": "Isles of Scilly",
        "col2": "EGHE",
        "col3": "35"
    },
    {
        "col0": "St. Pete-Clearwater International Airport",
        "col1": "Tampa Bay Area",
        "col2": "KPIE",
        "col3": "3"
    },
    {
        "col0": "St. Paul Island Airport",
        "col1": "St. Paul Island, Alaska",
        "col2": "PASN",
        "col3": "19"
    },
    {
        "col0": "St. Paul Downtown Airport",
        "col1": "St. Paul, Minnesota",
        "col2": "KSTP",
        "col3": "214"
    },
    {
        "col0": "St. Michael Airport",
        "col1": "St. Michael, Alaska",
        "col2": "PAMK",
        "col3": "29"
    },
    {
        "col0": "St. Marys Municipal Airport",
        "col1": "St. Marys, Pennsylvania",
        "col2": "KOYM",
        "col3": "589"
    },
    {
        "col0": "St. Louis Regional Airport",
        "col1": "Alton, Illinois",
        "col2": "KALN",
        "col3": "165"
    }
]