[
    {
        "col0": "XK",
        "col1": "p",
        "col2": "BAE48708",
        "col3": "314850",
        "col4": "P51811"
    },
    {
        "col0": "Sucrase-isomaltase",
        "col1": "q",
        "col2": "3LPO",
        "col3": "609845",
        "col4": "P14410"
    },
    {
        "col0": "Sterol regulatory element-binding protein",
        "col1": "p",
        "col2": "1am9",
        "col3": "184756",
        "col4": "P36956"
    },
    {
        "col0": "Sialoadhesin",
        "col1": "p",
        "col2": "2BVE",
        "col3": "600751",
        "col4": "Q9BZZ2"
    },
    {
        "col0": "Relaxin family peptide hormones",
        "col1": "p",
        "col2": "6RLX",
        "col3": "179730",
        "col4": "P04090"
    },
    {
        "col0": "Relaxin",
        "col1": "p",
        "col2": "6RLX",
        "col3": "179730",
        "col4": "P04090"
    },
    {
        "col0": "RAR-related orphan receptor",
        "col1": "q",
        "col2": "1N83",
        "col3": "600825",
        "col4": "P35398"
    },
    {
        "col0": "Protein Z",
        "col1": "q",
        "col2": "1LP1",
        "col3": "176895",
        "col4": "P22891"
    },
    {
        "col0": "Prolactin receptor",
        "col1": "p",
        "col2": "1RW5",
        "col3": "176761",
        "col4": "P16471"
    },
    {
        "col0": "P300-CBP coactivator family",
        "col1": "p",
        "col2": "3biy",
        "col3": "600140",
        "col4": "Q09472"
    },
    {
        "col0": "Neuropilin",
        "col1": "p",
        "col2": "3I97",
        "col3": "602069",
        "col4": "O14786"
    },
    {
        "col0": "N-acyl phosphatidylethanolamine-specific phospholipase D",
        "col1": "q",
        "col2": "4QN9",
        "col3": "612334",
        "col4": "Q6IQ20"
    },
    {
        "col0": "Motilin",
        "col1": "p",
        "col2": "1lbj",
        "col3": "158270",
        "col4": "P12872"
    },
    {
        "col0": "Mitochondrial calcium uniporter",
        "col1": "22",
        "col2": "Q8NE86",
        "col3": "614197",
        "col4": "Q8NE86"
    },
    {
        "col0": "Macrophage inflammatory protein",
        "col1": "q",
        "col2": "1B50",
        "col3": "182283",
        "col4": "P10147"
    },
    {
        "col0": "Laforin",
        "col1": "q",
        "col2": "4RKK",
        "col3": "607566",
        "col4": "O95278"
    },
    {
        "col0": "Ku",
        "col1": "q",
        "col2": "1JEY",
        "col3": "152690",
        "col4": "P12956"
    },
    {
        "col0": "Interleukin 23",
        "col1": "q",
        "col2": "1F42",
        "col3": "161561",
        "col4": "P29460"
    }
]