[
    {
        "col0": "E. Mendogni",
        "col1": "Desio",
        "col2": "Italy",
        "col3": "2008-2-10"
    },
    {
        "col0": "E. Andres",
        "col1": "South Holland, Illinois",
        "col2": "United States",
        "col3": "1999-7-20"
    },
    {
        "col0": "E. George",
        "col1": "Terre Haute, Indiana",
        "col2": "United States",
        "col3": "1976-5-31"
    },
    {
        "col0": "E. Hasha",
        "col1": "New Jersey",
        "col2": "United States",
        "col3": "1912-9-8"
    },
    {
        "col0": "E. Elisian",
        "col1": "Milwaukee",
        "col2": "United States",
        "col3": "1959-8-30"
    },
    {
        "col0": "E. Cooper",
        "col1": "Atwater, California",
        "col2": "United States",
        "col3": "1965-10-22"
    },
    {
        "col0": "D. Dinsmore",
        "col1": "Fort Lauderdale, Florida",
        "col2": "United States",
        "col3": "1985-10-12"
    },
    {
        "col0": "D. Romboni",
        "col1": "Italy",
        "col2": "Italy",
        "col3": "2013-11-30"
    },
    {
        "col0": "D. Branson",
        "col1": "Gardena, California",
        "col2": "United States",
        "col3": "1966-11-12"
    },
    {
        "col0": "D. Pironi",
        "col1": "Isle of Wight",
        "col2": "France",
        "col3": "1987-8-23"
    },
    {
        "col0": "D. Dale",
        "col1": "Bonn",
        "col2": "United Kingdom",
        "col3": "1961-04-30"
    },
    {
        "col0": "D. Titterington",
        "col1": "Dundee",
        "col2": "United Kingdom",
        "col3": "2002-4-13"
    },
    {
        "col0": "D. Poore",
        "col1": "London",
        "col2": "United Kingdom",
        "col3": "1987-2-12"
    },
    {
        "col0": "D. Wilson",
        "col1": "Los Angeles",
        "col2": "United States",
        "col3": "1971-4-23"
    },
    {
        "col0": "D. Keeter",
        "col1": "Torrance, California",
        "col2": "United States",
        "col3": "1975-05-01"
    },
    {
        "col0": "D. Whitworth",
        "col1": "Belgium",
        "col2": "United Kingdom",
        "col3": "1950-7-3"
    },
    {
        "col0": "D. Prophet",
        "col1": "Silverstone",
        "col2": "United Kingdom",
        "col3": "1981-3-29"
    },
    {
        "col0": "D. Jefferies",
        "col1": "Isle of Man",
        "col2": "British nationality law",
        "col3": "2003-05-29"
    },
    {
        "col0": "D. Simmonds",
        "col1": "Rungis",
        "col2": "United Kingdom",
        "col3": "1972-10-23"
    },
    {
        "col0": "D. Resta",
        "col1": "Brooklands",
        "col2": "United Kingdom",
        "col3": "1924-09-02"
    },
    {
        "col0": "D. Ambrosini",
        "col1": "Albi",
        "col2": "Italy",
        "col3": "1951-7-14"
    },
    {
        "col0": "D. Rivas",
        "col1": "Salinas, California",
        "col2": "Spain",
        "col3": "2015-07-19"
    },
    {
        "col0": "D. Kato",
        "col1": "Yokkaichi, Mie",
        "col2": "Japan",
        "col3": "2003-4-20"
    },
    {
        "col0": "C. Harrison",
        "col1": "Sheffield",
        "col2": "United Kingdom",
        "col3": "1981-1-21"
    },
    {
        "col0": "C. Griffith",
        "col1": "Rochester, Indiana",
        "col2": "United States",
        "col3": "1996-1-23"
    },
    {
        "col0": "C. Biondetti",
        "col1": "Florence",
        "col2": "Italy",
        "col3": "1955-2-24"
    },
    {
        "col0": "C. Daigh",
        "col1": "Newport Beach, California",
        "col2": "United States",
        "col3": "2008-4-29"
    },
    {
        "col0": "C. Arnold",
        "col1": "Santa Ana, California",
        "col2": "United States",
        "col3": "1997-9-4"
    },
    {
        "col0": "C. Bakkerud",
        "col1": "London",
        "col2": "Denmark",
        "col3": "2011-09-11"
    },
    {
        "col0": "C. Trickle",
        "col1": "Las Vegas Valley",
        "col2": "United States",
        "col3": "1998-03-25"
    },
    {
        "col0": "C. Lawrence",
        "col1": "Herefordshire",
        "col2": "United Kingdom",
        "col3": "2011-8-13"
    },
    {
        "col0": "C. Miller",
        "col1": "Indianapolis",
        "col2": "United States",
        "col3": "1953-5-15"
    },
    {
        "col0": "C. v. Dongen",
        "col1": "Capelle aan den IJssel",
        "col2": "Netherlands",
        "col3": "2011-12-23"
    },
    {
        "col0": "C. Green",
        "col1": "Winchester, Indiana",
        "col2": "United States",
        "col3": "1951-7-29"
    },
    {
        "col0": "C. Bandirola",
        "col1": "Voghera",
        "col2": "Italy",
        "col3": "1981-9-21"
    },
    {
        "col0": "C. Scarborough",
        "col1": "Indianapolis",
        "col2": "United States",
        "col3": "1953-5-30"
    },
    {
        "col0": "C. Forberg",
        "col1": "Brownsburg, Indiana",
        "col2": "United States",
        "col3": "2000-1-17"
    },
    {
        "col0": "Carel Godin de Beaufort",
        "col1": "Cologne",
        "col2": "Netherlands",
        "col3": "1964-8-2"
    },
    {
        "col0": "C. Niday",
        "col1": "Lancaster, California",
        "col2": "United States",
        "col3": "1988-2-14"
    },
    {
        "col0": "B. Ruffo",
        "col1": "Verona",
        "col2": "Italy",
        "col3": "2007-2-10"
    },
    {
        "col0": "B. McPhee",
        "col1": "Australia",
        "col2": "Australian",
        "col3": "2009-09-22"
    },
    {
        "col0": "B. Ball",
        "col1": "Phoenix, Arizona",
        "col2": "United States",
        "col3": "1954-2-27"
    },
    {
        "col0": "B. Veith",
        "col1": "Santa Rosa, California",
        "col2": "United States",
        "col3": "2006-3-29"
    },
    {
        "col0": "B. Scott",
        "col1": "Darlington, South Carolina",
        "col2": "United States",
        "col3": "1954-7-5"
    },
    {
        "col0": "B. Brown",
        "col1": "Stuttgart",
        "col2": "Australia",
        "col3": "1960-07-23"
    },
    {
        "col0": "B. Wilkinson",
        "col1": "New South Wales",
        "col2": "Australia national speedway team",
        "col3": "1940-07-27"
    },
    {
        "col0": "B. Sanders",
        "col1": "England",
        "col2": "Australia",
        "col3": "1985-04-23"
    },
    {
        "col0": "B. Garrett",
        "col1": "Glendale, California",
        "col2": "United States",
        "col3": "1999-2-15"
    },
    {
        "col0": "B. Devore",
        "col1": "Indianapolis",
        "col2": "United States",
        "col3": "1985-8-12"
    },
    {
        "col0": "B. Carlson",
        "col1": "Tacoma, Washington",
        "col2": "United States",
        "col3": "1915-07-04"
    },
    {
        "col0": "B. Schindler",
        "col1": "Allentown, Pennsylvania",
        "col2": "United States",
        "col3": "1952-9-20"
    },
    {
        "col0": "B. Ivy",
        "col1": "East Germany",
        "col2": "United Kingdom",
        "col3": "1969-07-12"
    },
    {
        "col0": "B. Homeier",
        "col1": "Houston",
        "col2": "United States",
        "col3": "2001-5-5"
    },
    {
        "col0": "B. Endicott",
        "col1": "Indiana",
        "col2": "United States",
        "col3": "1944-06-07"
    },
    {
        "col0": "B. J. Mazmanian",
        "col1": "California",
        "col2": "United States",
        "col3": "2006-07-21"
    },
    {
        "col0": "B. Swain",
        "col1": "England",
        "col2": "United Kingdom",
        "col3": "2007-05-15"
    },
    {
        "col0": "B. Martinez",
        "col1": "Monterey, California",
        "col2": "Spain",
        "col3": "2015-07-19"
    }
]