[
    {
        "col0": "Podocin",
        "col1": "7827",
        "col2": "Q9NP85",
        "col3": "13394"
    },
    {
        "col0": "Pleckstrin",
        "col1": "5341",
        "col2": "P08567",
        "col3": "9070"
    },
    {
        "col0": "Platelet-derived growth factor receptor",
        "col1": "5156",
        "col2": "P09619",
        "col3": "8803"
    },
    {
        "col0": "Phospholipid scramblase",
        "col1": "389158",
        "col2": "A0PG75",
        "col3": "16494"
    },
    {
        "col0": "Phospholipase B",
        "col1": "151056",
        "col2": "Q6P1J6",
        "col3": "30041"
    },
    {
        "col0": "Phosphoglycerate mutase",
        "col1": "5223",
        "col2": "P15259",
        "col3": "8888"
    },
    {
        "col0": "Phosphogluconate dehydrogenase",
        "col1": "5226",
        "col2": "P52209",
        "col3": "8891"
    },
    {
        "col0": "Phosphodiesterase 3",
        "col1": "5139",
        "col2": "Q13370",
        "col3": "8778"
    },
    {
        "col0": "Phenylethanolamine N-methyltransferase",
        "col1": "5409",
        "col2": "P11086",
        "col3": "9160"
    },
    {
        "col0": "Persephin",
        "col1": "5623",
        "col2": "O60542",
        "col3": "9579"
    },
    {
        "col0": "Peroxisome proliferator-activated receptor",
        "col1": "5465",
        "col2": "P37231",
        "col3": "9232"
    },
    {
        "col0": "Peroxin-7",
        "col1": "5191",
        "col2": "O00628",
        "col3": "8860"
    },
    {
        "col0": "Period",
        "col1": "5187",
        "col2": "O15055",
        "col3": "8845"
    },
    {
        "col0": "Patched",
        "col1": "5727",
        "col2": "Q13635",
        "col3": "9585"
    },
    {
        "col0": "Parvalbumin",
        "col1": "5816",
        "col2": "P20472",
        "col3": "9704"
    },
    {
        "col0": "Parathyroid hormone receptor",
        "col1": "5745",
        "col2": "P49190",
        "col3": "9608"
    },
    {
        "col0": "Paraoxonase",
        "col1": "5444",
        "col2": "P27169",
        "col3": "9204"
    },
    {
        "col0": "Pannexin",
        "col1": "116337",
        "col2": "Q96QZ0",
        "col3": "20573"
    },
    {
        "col0": "Pancreatic polypeptide",
        "col1": "5539",
        "col2": "P01298",
        "col3": "9327"
    },
    {
        "col0": "Palmitoyl protein thioesterase",
        "col1": "5538",
        "col2": "P50897",
        "col3": "9325"
    },
    {
        "col0": "PXK",
        "col1": "54899",
        "col2": "Q6ZN39",
        "col3": "23326"
    },
    {
        "col0": "PORCN",
        "col1": "64840",
        "col2": "Q9H237",
        "col3": "17652"
    },
    {
        "col0": "POLR3GL",
        "col1": "84265",
        "col2": "Q9BT43",
        "col3": "28466"
    },
    {
        "col0": "PHLPP",
        "col1": "23035",
        "col2": "O60346",
        "col3": "20610"
    },
    {
        "col0": "PEN-2",
        "col1": "55851",
        "col2": "Q9NZ42",
        "col3": "30100"
    },
    {
        "col0": "PELP-1",
        "col1": "27043",
        "col2": "Q8IZL8",
        "col3": "30134"
    },
    {
        "col0": "PBB/342346",
        "col1": "342346",
        "col2": "A6NNT2",
        "col3": "40031"
    },
    {
        "col0": "P87PIKAP",
        "col1": "146850",
        "col2": "P31749",
        "col3": "27101"
    },
    {
        "col0": "P38 mitogen-activated protein kinases",
        "col1": "1432",
        "col2": "O15264",
        "col3": "6873"
    },
    {
        "col0": "P300-CBP coactivator family",
        "col1": "1387",
        "col2": "Q09472",
        "col3": "2348"
    },
    {
        "col0": "P14arf",
        "col1": "1029",
        "col2": "P42771",
        "col3": "1787"
    },
    {
        "col0": "P-type calcium channel",
        "col1": "773",
        "col2": "O00555",
        "col3": "1388"
    },
    {
        "col0": "Orosomucoid",
        "col1": "5004",
        "col2": "P02763",
        "col3": "8498"
    },
    {
        "col0": "Ornithine translocase",
        "col1": "10166",
        "col2": "Q9Y619",
        "col3": "10985"
    },
    {
        "col0": "Orexin receptor",
        "col1": "3061",
        "col2": "O43613",
        "col3": "4848"
    },
    {
        "col0": "Orexin",
        "col1": "3060",
        "col2": "O43612",
        "col3": "4847"
    },
    {
        "col0": "Olfactory marker protein",
        "col1": "4975",
        "col2": "P47874",
        "col3": "8136"
    },
    {
        "col0": "Odorant-binding protein",
        "col1": "29989",
        "col2": "Q9NPH6",
        "col3": "23380"
    },
    {
        "col0": "Oct-2",
        "col1": "5452",
        "col2": "P09086",
        "col3": "9213"
    },
    {
        "col0": "Obestatin",
        "col1": "51738",
        "col2": "Q9UBU3",
        "col3": "18129"
    },
    {
        "col0": "OX40L",
        "col1": "7292",
        "col2": "P23510",
        "col3": "11934"
    },
    {
        "col0": "Nucleoporin 37",
        "col1": "79023",
        "col2": "Q8NFH4",
        "col3": "29929"
    },
    {
        "col0": "Nucleoporin 210kDa",
        "col1": "23225",
        "col2": "Q8TEM1",
        "col3": "30052"
    },
    {
        "col0": "Nucleoporin 188",
        "col1": "23511",
        "col2": "Q5SRE5",
        "col3": "17859"
    },
    {
        "col0": "Nuclear cap-binding protein complex",
        "col1": "22916",
        "col2": "P52298",
        "col3": "7658"
    },
    {
        "col0": "Nitrilase",
        "col1": "4817",
        "col2": "Q86X76",
        "col3": "7828"
    },
    {
        "col0": "Neurturin",
        "col1": "4902",
        "col2": "Q99748",
        "col3": "8007"
    },
    {
        "col0": "Neurotensin receptor",
        "col1": "23620",
        "col2": "O95665",
        "col3": "11186"
    },
    {
        "col0": "Neuropilin",
        "col1": "8828",
        "col2": "O14786",
        "col3": "8004"
    },
    {
        "col0": "Neurophysin II",
        "col1": "551",
        "col2": "P01185",
        "col3": "894"
    },
    {
        "col0": "Neuropeptide Y receptor",
        "col1": "4886",
        "col2": "P25929",
        "col3": "7956"
    },
    {
        "col0": "Neuropeptide FF receptor",
        "col1": "10886",
        "col2": "Q9GZQ6",
        "col3": "17425"
    },
    {
        "col0": "Neuropeptide B/W receptor",
        "col1": "2831",
        "col2": "P48145",
        "col3": "4522"
    },
    {
        "col0": "Neuromedin U receptor",
        "col1": "10316",
        "col2": "Q9GZQ4",
        "col3": "16454"
    },
    {
        "col0": "Neuromedin U",
        "col1": "10874",
        "col2": "P48645",
        "col3": "7859"
    },
    {
        "col0": "Neuromedin B",
        "col1": "4828",
        "col2": "P08949",
        "col3": "7842"
    },
    {
        "col0": "Neuroligin",
        "col1": "22871",
        "col2": "Q8N0W4",
        "col3": "14287"
    },
    {
        "col0": "Neurokinin A",
        "col1": "6863",
        "col2": "P20366",
        "col3": "11517"
    },
    {
        "col0": "Neurogranin",
        "col1": "4900",
        "col2": "Q92686",
        "col3": "8000"
    },
    {
        "col0": "Neuroglobin",
        "col1": "58157",
        "col2": "Q9NPG2",
        "col3": "6553"
    },
    {
        "col0": "Neurogenins",
        "col1": "4762",
        "col2": "Q92886",
        "col3": "13805"
    },
    {
        "col0": "Neurofilament",
        "col1": "10763",
        "col2": "P07196",
        "col3": "6057"
    },
    {
        "col0": "Neurocalcin",
        "col1": "83988",
        "col2": "P61601",
        "col3": "7655"
    },
    {
        "col0": "Neurexin",
        "col1": "9369",
        "col2": "P58401",
        "col3": "8008"
    },
    {
        "col0": "Neonatal Fc receptor",
        "col1": "2217",
        "col2": "P55899",
        "col3": "3621"
    },
    {
        "col0": "Na-K-Cl cotransporter",
        "col1": "6557",
        "col2": "P55011",
        "col3": "10910"
    },
    {
        "col0": "NSD1",
        "col1": "64324",
        "col2": "Q96L73",
        "col3": "14234"
    },
    {
        "col0": "NPC1L1",
        "col1": "29881",
        "col2": "Q9UHC9",
        "col3": "7898"
    },
    {
        "col0": "NPAS1",
        "col1": "4861",
        "col2": "Q99742",
        "col3": "7894"
    },
    {
        "col0": "NKG2",
        "col1": "3821",
        "col2": "P26715",
        "col3": "6374"
    },
    {
        "col0": "NF-kB",
        "col1": "4790",
        "col2": "P19838",
        "col3": "7794"
    },
    {
        "col0": "N-terminal prohormone of brain natriuretic peptide",
        "col1": "4879",
        "col2": "P16860",
        "col3": "7940"
    },
    {
        "col0": "N-acyl phosphatidylethanolamine-specific phospholipase D",
        "col1": "222236",
        "col2": "Q6IQ20",
        "col3": "21683"
    },
    {
        "col0": "N-acetylglucosamine-1-phosphate transferase",
        "col1": "79158",
        "col2": "Q3T906",
        "col3": "23026"
    },
    {
        "col0": "N-Acetylglutamate synthase",
        "col1": "162417",
        "col2": "Q8N159",
        "col3": "17996"
    },
    {
        "col0": "N-Acetylglucosamine receptor",
        "col1": "4670",
        "col2": "P52272",
        "col3": "5046"
    },
    {
        "col0": "Myosin light-chain kinase",
        "col1": "340156",
        "col2": "Q15746",
        "col3": "16243"
    },
    {
        "col0": "Myophosphorylase",
        "col1": "5837",
        "col2": "P11217",
        "col3": "9726"
    },
    {
        "col0": "Myelin-associated glycoprotein",
        "col1": "4099",
        "col2": "P20916",
        "col3": "6783"
    },
    {
        "col0": "Mu hemoglobin",
        "col1": "3042",
        "col2": "Q6B0K9",
        "col3": "4826"
    },
    {
        "col0": "MuSK protein",
        "col1": "4593",
        "col2": "O15146",
        "col3": "7525"
    },
    {
        "col0": "Motilin",
        "col1": "4295",
        "col2": "P12872",
        "col3": "7141"
    },
    {
        "col0": "Monoacylglycerol lipase",
        "col1": "11343",
        "col2": "Q99685",
        "col3": "17038"
    },
    {
        "col0": "Mitochondrial calcium uniporter",
        "col1": "90550",
        "col2": "Q8NE86",
        "col3": "23526"
    },
    {
        "col0": "Microcephalin",
        "col1": "79648",
        "col2": "Q8NEM0",
        "col3": "6954"
    },
    {
        "col0": "Methylcrotonyl-CoA carboxylase",
        "col1": "56922",
        "col2": "Q96RQ3",
        "col3": "6936"
    },
    {
        "col0": "Membrane-bound transcription factor site-2 protease",
        "col1": "51360",
        "col2": "O43462",
        "col3": "15455"
    },
    {
        "col0": "Melatonin receptor",
        "col1": "4543",
        "col2": "P48039",
        "col3": "7463"
    },
    {
        "col0": "Melanocyte-stimulating hormone",
        "col1": "5443",
        "col2": "P01189",
        "col3": "9201"
    },
    {
        "col0": "Melanin-concentrating hormone receptor",
        "col1": "2847",
        "col2": "Q969V1",
        "col3": "20867"
    },
    {
        "col0": "Melanin-concentrating hormone",
        "col1": "5367",
        "col2": "P20382",
        "col3": "9109"
    },
    {
        "col0": "Map44",
        "col1": "5648",
        "col2": "P48740",
        "col3": "6901"
    },
    {
        "col0": "Mannose receptor",
        "col1": "4360",
        "col2": "P22897",
        "col3": "16875"
    },
    {
        "col0": "Mannose 6-phosphate receptor",
        "col1": "3482",
        "col2": "P11717",
        "col3": "5467"
    },
    {
        "col0": "Major histocompatibility complex, class II, DP alpha 1",
        "col1": "3113",
        "col2": "P20036",
        "col3": "4938"
    },
    {
        "col0": "Macrophage inflammatory protein",
        "col1": "6348",
        "col2": "P10147",
        "col3": "10627"
    },
    {
        "col0": "MYLK4",
        "col1": "340156",
        "col2": "Q86YV6",
        "col3": "27972"
    },
    {
        "col0": "MTORC2",
        "col1": "2475",
        "col2": "P42345",
        "col3": "18752"
    },
    {
        "col0": "MTORC1",
        "col1": "2475",
        "col2": "P42345",
        "col3": "30287"
    },
    {
        "col0": "MT-RNR2",
        "col1": "4550",
        "col2": "Q8IVG9",
        "col3": "7471"
    },
    {
        "col0": "MOSC1",
        "col1": "64757",
        "col2": "Q5VT66",
        "col3": "26189"
    },
    {
        "col0": "MCEF",
        "col1": "27125",
        "col2": "Q9UHB7",
        "col3": "17869"
    },
    {
        "col0": "MAS1 oncogene",
        "col1": "116511",
        "col2": "P04201",
        "col3": "13961"
    },
    {
        "col0": "MALT1",
        "col1": "10892",
        "col2": "Q9UDY8",
        "col3": "6819"
    },
    {
        "col0": "Lysyl hydroxylase",
        "col1": "5351",
        "col2": "O00469",
        "col3": "9081"
    },
    {
        "col0": "Lysosomal trafficking regulator",
        "col1": "1130",
        "col2": "Q99698",
        "col3": "1968"
    },
    {
        "col0": "Lysosomal lipase",
        "col1": "3988",
        "col2": "P38571",
        "col3": "6617"
    },
    {
        "col0": "Lymphotoxin",
        "col1": "4049",
        "col2": "P01374",
        "col3": "6709"
    },
    {
        "col0": "Luteinizing hormone",
        "col1": "1081",
        "col2": "P01215",
        "col3": "1885"
    },
    {
        "col0": "Low-molecular-weight kininogen",
        "col1": "3827",
        "col2": "P01042",
        "col3": "6383"
    },
    {
        "col0": "Liver X receptor",
        "col1": "10062",
        "col2": "P55055",
        "col3": "7965"
    },
    {
        "col0": "Lipotropin",
        "col1": "5443",
        "col2": "P01189",
        "col3": "9201"
    },
    {
        "col0": "Leucyl aminopeptidase",
        "col1": "51056",
        "col2": "P28838",
        "col3": "18449"
    },
    {
        "col0": "Leprecan",
        "col1": "64175",
        "col2": "Q32P28",
        "col3": "19316"
    },
    {
        "col0": "Lefty",
        "col1": "10637",
        "col2": "O00292",
        "col3": "3122"
    },
    {
        "col0": "Latrophilin",
        "col1": "22859",
        "col2": "O94910",
        "col3": "18582"
    },
    {
        "col0": "Latent TGF-beta binding protein",
        "col1": "4052",
        "col2": "Q14766",
        "col3": "6714"
    },
    {
        "col0": "Lanosterol 14 alpha-demethylase",
        "col1": "1595",
        "col2": "Q16850",
        "col3": "2649"
    },
    {
        "col0": "Laforin",
        "col1": "7957",
        "col2": "O95278",
        "col3": "3413"
    },
    {
        "col0": "LIX1L",
        "col1": "128077",
        "col2": "Q8IVB5",
        "col3": "28715"
    },
    {
        "col0": "LEM domain-containing protein 3",
        "col1": "23592",
        "col2": "Q9Y2U8",
        "col3": "28887"
    },
    {
        "col0": "Ku",
        "col1": "2547",
        "col2": "P12956",
        "col3": "12833"
    },
    {
        "col0": "Kir2.6",
        "col1": "100134444",
        "col2": "B7U540",
        "col3": "39080"
    },
    {
        "col0": "Keratin 6B",
        "col1": "3854",
        "col2": "P04259",
        "col3": "6444"
    },
    {
        "col0": "Kell antigen system",
        "col1": "3792",
        "col2": "P23276",
        "col3": "6308"
    },
    {
        "col0": "KLRA1",
        "col1": "10748",
        "col2": "O75889",
        "col3": "6372"
    },
    {
        "col0": "KAL1 gene",
        "col1": "3730",
        "col2": "P23352",
        "col3": "6211"
    },
    {
        "col0": "Isopentenyl-diphosphate delta isomerase",
        "col1": "3422",
        "col2": "Q13907",
        "col3": "5387"
    },
    {
        "col0": "Iron-responsive element-binding protein",
        "col1": "3658",
        "col2": "P21399",
        "col3": "117"
    },
    {
        "col0": "Internexin",
        "col1": "9118",
        "col2": "Q16352",
        "col3": "6057"
    },
    {
        "col0": "Interleukin 28",
        "col1": "282616",
        "col2": "Q8IZI9",
        "col3": "18364"
    },
    {
        "col0": "Interleukin 27",
        "col1": "10148",
        "col2": "Q14213",
        "col3": "19157"
    },
    {
        "col0": "Interleukin 23",
        "col1": "3593",
        "col2": "P29460",
        "col3": "15488"
    },
    {
        "col0": "Interleukin 17",
        "col1": "112744",
        "col2": "Q16552",
        "col3": "13765"
    },
    {
        "col0": "Interleukin 12",
        "col1": "3592",
        "col2": "P29459",
        "col3": "5969"
    },
    {
        "col0": "Interleukin-8 receptor",
        "col1": "3577",
        "col2": "P25024",
        "col3": "6026"
    },
    {
        "col0": "Interleukin-7 receptor",
        "col1": "3561",
        "col2": "P16871",
        "col3": "6010"
    },
    {
        "col0": "Interleukin-5 receptor",
        "col1": "1439",
        "col2": "P32927",
        "col3": "2436"
    },
    {
        "col0": "Interleukin-28 receptor",
        "col1": "163702",
        "col2": "Q08334",
        "col3": "18584"
    },
    {
        "col0": "Interleukin-27 receptor",
        "col1": "3572",
        "col2": "P40189",
        "col3": "17290"
    },
    {
        "col0": "Interleukin-22 receptor",
        "col1": "116379",
        "col2": "A8K839",
        "col3": "13700"
    },
    {
        "col0": "Interleukin-20 receptor",
        "col1": "53832",
        "col2": "Q6UXL0",
        "col3": "6003"
    },
    {
        "col0": "Interleukin-1 receptor",
        "col1": "3554",
        "col2": "P14778",
        "col3": "5993"
    },
    {
        "col0": "Interleukin-18 receptor",
        "col1": "8807",
        "col2": "O95256",
        "col3": "5988"
    },
    {
        "col0": "Interleukin-17 receptor",
        "col1": "132014",
        "col2": "Q6ZVW7",
        "col3": "17616"
    },
    {
        "col0": "Interleukin-15 receptor",
        "col1": "3560",
        "col2": "P14784",
        "col3": "5978"
    },
    {
        "col0": "Interleukin-13 receptor",
        "col1": "3566",
        "col2": "P78552",
        "col3": "5974"
    },
    {
        "col0": "Interleukin-12 receptor",
        "col1": "3594",
        "col2": "P42701",
        "col3": "5971"
    },
    {
        "col0": "Interleukin-11 receptor",
        "col1": "3590",
        "col2": "Q14626",
        "col3": "5967"
    },
    {
        "col0": "Interleukin-10 receptor",
        "col1": "3587",
        "col2": "Q08334",
        "col3": "5964"
    },
    {
        "col0": "Interferon gamma receptor 2",
        "col1": "3460",
        "col2": "P38484",
        "col3": "5440"
    },
    {
        "col0": "Interferon-gamma receptor",
        "col1": "3459",
        "col2": "P15260",
        "col3": "5439"
    },
    {
        "col0": "Interferon-alpha/beta receptor",
        "col1": "3454",
        "col2": "P17181",
        "col3": "5432"
    }
]