[
    {
        "col0": "A . Rosina",
        "col1": "Reiter Engineering",
        "col2": "Czechoslovakia",
        "col3": "1987-07-15",
        "col4": "1987-07-15"
    },
    {
        "col0": "O. Tunjo",
        "col1": "Jenzer Motorsport",
        "col2": "Colombia",
        "col3": "1996-01-05",
        "col4": "1996-01-05"
    },
    {
        "col0": "E. Cayrolle",
        "col1": "SUNRED Engineering",
        "col2": "Pau, Pyrenees-Atlantiques",
        "col3": "1962-08-27",
        "col4": "1962-08-27"
    },
    {
        "col0": "A. Smith",
        "col1": "Team BKR",
        "col2": "Dublin",
        "col3": "1989-11-09",
        "col4": "1989-11-09"
    },
    {
        "col0": "A. Barba",
        "col1": "AF Corse",
        "col2": "Seville",
        "col3": "1984-02-17",
        "col4": "1984-02-17"
    },
    {
        "col0": "A. Palou",
        "col1": "Campos Racing",
        "col2": "Spain",
        "col3": "1997-04-01",
        "col4": "1997-04-01"
    },
    {
        "col0": "Z. Szabo",
        "col1": "Zengo Motorsport",
        "col2": "Hungary",
        "col3": "1995-11-16",
        "col4": "1995-11-16"
    },
    {
        "col0": "Z. Amberg",
        "col1": "AV Formula",
        "col2": "Stans",
        "col3": "1992-09-25",
        "col4": "1992-09-25"
    },
    {
        "col0": "Z. Ali",
        "col1": "Performance Racing",
        "col2": "Jakarta",
        "col3": "1987-08-25",
        "col4": "1987-08-25"
    },
    {
        "col0": "Z. Veach",
        "col1": "Belardi Auto Racing",
        "col2": "Stockdale, Ohio",
        "col3": "1994-12-09",
        "col4": "1994-12-09"
    },
    {
        "col0": "Y. Muller",
        "col1": "Citroen Total WTCC",
        "col2": "Altkirch",
        "col3": "1969-08-16",
        "col4": "1969-08-16"
    },
    {
        "col0": "Y. Taniguchi",
        "col1": "NIKA Racing",
        "col2": "Hiroshima",
        "col3": "1968-09-27",
        "col4": "1968-09-27"
    },
    {
        "col0": "Y. Nakayama",
        "col1": "Mugen Motorsports",
        "col2": "Kanazawa, Ishikawa",
        "col3": "1987-07-29",
        "col4": "1987-07-29"
    },
    {
        "col0": "Y. Sekiguchi",
        "col1": "Racing Project Bandoh",
        "col2": "Japan",
        "col3": "1987-12-29",
        "col4": "1987-12-29"
    },
    {
        "col0": "Y. E. Marnissi",
        "col1": "Maurer Motorsport",
        "col2": "Al Hoceima",
        "col3": "1976-02-02",
        "col4": "1976-02-02"
    },
    {
        "col0": "Y. Kuroda",
        "col1": "Euronova Racing",
        "col2": "Yamagata, Yamagata",
        "col3": "1987-01-10",
        "col4": "1987-01-10"
    },
    {
        "col0": "Y. Koguchi",
        "col1": "Dunlop Tyres",
        "col2": "Japan",
        "col3": "1969-02-02",
        "col4": "1969-02-02"
    },
    {
        "col0": "Y. Buurman",
        "col1": "A.C. Milan",
        "col2": "Ubbergen",
        "col3": "1987-02-19",
        "col4": "1987-02-19"
    },
    {
        "col0": "Y. Clairay",
        "col1": "Luc Alphand",
        "col2": "Laval, Mayenne",
        "col3": "1983-12-02",
        "col4": "1983-12-02"
    },
    {
        "col0": "X. Maassen",
        "col1": "Prospeed Competition",
        "col2": "Heerlen",
        "col3": "1980-06-22",
        "col4": "1980-06-22"
    },
    {
        "col0": "W. O'Brien",
        "col1": "Teamwork Motorsport",
        "col2": "New Jersey",
        "col3": "1951-02-23",
        "col4": "1951-02-23"
    },
    {
        "col0": "W. Buller",
        "col1": "RP Motorsport",
        "col2": "Scarva",
        "col3": "1992-09-17",
        "col4": "1992-09-17"
    },
    {
        "col0": "W. Power",
        "col1": "Team Penske",
        "col2": "Toowoomba",
        "col3": "1981-03-01",
        "col4": "1981-03-01"
    },
    {
        "col0": "W. Bratt",
        "col1": "Rob Austin",
        "col2": "Oxford",
        "col3": "1988-04-13",
        "col4": "1988-04-13"
    },
    {
        "col0": "W. Tan",
        "col1": "Team Pelfrey",
        "col2": "Kuala Lumpur",
        "col3": "1994-12-03",
        "col4": "1994-12-03"
    },
    {
        "col0": "W. Scott",
        "col1": "Team BMR",
        "col2": "Bishop's Stortford",
        "col3": "1971-09-28",
        "col4": "1971-09-28"
    },
    {
        "col0": "W. Grubmuller",
        "col1": "P1 Motorsport",
        "col2": "Vienna",
        "col3": "1989-01-13",
        "col4": "1989-01-13"
    },
    {
        "col0": "V. Meira",
        "col1": "A.J. Foyt Enterprises",
        "col2": "Brasilia",
        "col3": "1977-03-27",
        "col4": "1977-03-27"
    },
    {
        "col0": "V. Jimenez",
        "col1": "Redline Racing",
        "col2": "Madrid",
        "col3": "1984-02-04",
        "col4": "1984-02-04"
    },
    {
        "col0": "V. Garcia",
        "col1": "Team Moore Racing",
        "col2": "Madrid",
        "col3": "1990-03-10",
        "col4": "1990-03-10"
    },
    {
        "col0": "V. Sheshenin",
        "col1": "Engstler Motorsport",
        "col2": "Russia",
        "col3": "1989-03-10",
        "col4": "1989-03-10"
    },
    {
        "col0": "V. Chagin",
        "col1": "Kamaz",
        "col2": "Russian SFSR",
        "col3": "1970-01-05",
        "col4": "1970-01-05"
    },
    {
        "col0": "V. Atoev",
        "col1": "AF Corse",
        "col2": "Russia",
        "col3": "1999-01-22",
        "col4": "1999-01-22"
    },
    {
        "col0": "V. Arabadzhiev",
        "col1": "Coloni Motorsport",
        "col2": "Plovdiv",
        "col3": "1984-03-16",
        "col4": "1984-03-16"
    },
    {
        "col0": "V. Baptista",
        "col1": "RP Motorsport",
        "col2": "Sao Paulo",
        "col3": "1998-03-20",
        "col4": "1998-03-20"
    },
    {
        "col0": "V. Petrov",
        "col1": "Mucke Motorsport",
        "col2": "Vyborg",
        "col3": "1984-09-08",
        "col4": "1984-09-08"
    },
    {
        "col0": "V. D. Bella",
        "col1": "Citroen",
        "col2": "Milan",
        "col3": "1977-03-23",
        "col4": "1977-03-23"
    },
    {
        "col0": "V. Shapovalov",
        "col1": "Russian Bears Motorsport",
        "col2": "Sterlitamak",
        "col3": "1965-03-04",
        "col4": "1965-03-04"
    },
    {
        "col0": "V. Correa",
        "col1": "Team West-Tec",
        "col2": "Brazil",
        "col3": "1990-03-14",
        "col4": "1990-03-14"
    },
    {
        "col0": "V. Meira",
        "col1": "A.J. Foyt Enterprises",
        "col2": "Brasilia",
        "col3": "1977-03-27",
        "col4": "1977-03-27"
    },
    {
        "col0": "V. Jimenez",
        "col1": "Redline Racing",
        "col2": "Madrid",
        "col3": "1984-02-04",
        "col4": "1984-02-04"
    },
    {
        "col0": "V. Garcia",
        "col1": "Team Moore Racing",
        "col2": "Madrid",
        "col3": "1990-03-10",
        "col4": "1990-03-10"
    },
    {
        "col0": "U. Sonderegger",
        "col1": "Wiechers-Sport",
        "col2": "Glarus",
        "col3": "1964-04-28",
        "col4": "1964-04-28"
    },
    {
        "col0": "T. Rocha",
        "col1": "Clube de Regatas do Flamengo",
        "col2": "Sao Paulo",
        "col3": "1982-12-13",
        "col4": "1982-12-13"
    },
    {
        "col0": "T. Matsuda",
        "col1": "Nismo",
        "col2": "Mie Prefecture",
        "col3": "1979-06-18",
        "col4": "1979-06-18"
    },
    {
        "col0": "T. Vautier",
        "col1": "Schmidt Peterson Motorsports",
        "col2": "Saint-Martin-d'Heres",
        "col3": "1989-08-22",
        "col4": "1989-08-22"
    },
    {
        "col0": "T. Pastrana",
        "col1": "Subaru Rally Team USA",
        "col2": "Annapolis, Maryland",
        "col3": "1983-10-08",
        "col4": "1983-10-08"
    },
    {
        "col0": "T. Bell",
        "col1": "Andretti Autosport",
        "col2": "San Francisco",
        "col3": "1975-04-19",
        "col4": "1975-04-19"
    },
    {
        "col0": "T. Graves",
        "col1": "Alan Docking Racing",
        "col2": "Thailand",
        "col3": "1972-03-26",
        "col4": "1972-03-26"
    },
    {
        "col0": "T. Heikkinen",
        "col1": "EKS RX",
        "col2": "Denver",
        "col3": "1991-03-23",
        "col4": "1991-03-23"
    },
    {
        "col0": "T. Gilham",
        "col1": "Tony Gilham Racing",
        "col2": "England",
        "col3": "1979-05-19",
        "col4": "1979-05-19"
    },
    {
        "col0": "T. Kostka",
        "col1": "Audi Sport",
        "col2": "Zlin",
        "col3": "1984-08-27",
        "col4": "1984-08-27"
    },
    {
        "col0": "T. Nojiri",
        "col1": "Autobacs Racing Team Aguri",
        "col2": "Ibaraki Prefecture",
        "col3": "1989-09-15",
        "col4": "1989-09-15"
    },
    {
        "col0": "T. Rustad",
        "col1": "Albatec Racing",
        "col2": "Oslo",
        "col3": "1968-09-03",
        "col4": "1968-09-03"
    },
    {
        "col0": "T. Onslow-Cole",
        "col1": "Motorbase Performance",
        "col2": "Kingston upon Thames",
        "col3": "1987-05-16",
        "col4": "1987-05-16"
    },
    {
        "col0": "T. Kristensen",
        "col1": "Joest Racing",
        "col2": "Hobro",
        "col3": "1967-07-07",
        "col4": "1967-07-07"
    },
    {
        "col0": "T. Kimber-Smith",
        "col1": "Greaves Motorsport",
        "col2": "England",
        "col3": "1984-11-01",
        "col4": "1984-11-01"
    },
    {
        "col0": "T. Ingram",
        "col1": "Speedworks Motorsport",
        "col2": "High Wycombe",
        "col3": "1993-08-20",
        "col4": "1993-08-20"
    },
    {
        "col0": "T. Gladdis",
        "col1": "MotorSport Vision",
        "col2": "Isle of Wight",
        "col3": "1991-02-24",
        "col4": "1991-02-24"
    },
    {
        "col0": "T. Dillmann",
        "col1": "AV Formula",
        "col2": "Mulhouse",
        "col3": "1989-04-06",
        "col4": "1989-04-06"
    },
    {
        "col0": "T. Coronel",
        "col1": "ROAL Motorsport",
        "col2": "Naarden",
        "col3": "1972-04-05",
        "col4": "1972-04-05"
    },
    {
        "col0": "T. Chilton",
        "col1": "Sebastien Loeb Racing",
        "col2": "Reigate",
        "col3": "1985-03-15",
        "col4": "1985-03-15"
    },
    {
        "col0": "T. Blomqvist",
        "col1": "BMW Team RBM",
        "col2": "Cambridge",
        "col3": "1993-11-30",
        "col4": "1993-11-30"
    },
    {
        "col0": "T. Kostka",
        "col1": "Audi Sport",
        "col2": "Zlin",
        "col3": "1984-08-27",
        "col4": "1984-08-27"
    },
    {
        "col0": "T. Davis",
        "col1": "Team HARD",
        "col2": "Herefordshire",
        "col3": "1991-06-26",
        "col4": "1991-06-26"
    },
    {
        "col0": "T. Hegewald",
        "col1": "Motorsport Vision",
        "col2": "Neuwied",
        "col3": "1989-08-03",
        "col4": "1989-08-03"
    },
    {
        "col0": "T. Ellinas",
        "col1": "Strakka Racing",
        "col2": "Larnaca",
        "col3": "1992-01-27",
        "col4": "1992-01-27"
    },
    {
        "col0": "T. Sritrai",
        "col1": "Asia Racing Team",
        "col2": "Thailand",
        "col3": "1989-08-22",
        "col4": "1989-08-22"
    },
    {
        "col0": "T. Timerzyanov",
        "col1": "World RX Team Austria",
        "col2": "Russian Soviet Federative Socialist Republic",
        "col3": "1987-01-31",
        "col4": "1987-01-31"
    },
    {
        "col0": "T. Scheider",
        "col1": "Phoenix Racing",
        "col2": "West Germany",
        "col3": "1978-11-10",
        "col4": "1978-11-10"
    },
    {
        "col0": "T. Glock",
        "col1": "Team RMG",
        "col2": "West Germany",
        "col3": "1982-03-18",
        "col4": "1982-03-18"
    },
    {
        "col0": "T. Hansen",
        "col1": "Hansen Motorsport",
        "col2": "Sweden",
        "col3": "1992-05-21",
        "col4": "1992-05-21"
    },
    {
        "col0": "T. Sandtler",
        "col1": "Prema Powerteam",
        "col2": "Bochum",
        "col3": "1987-02-20",
        "col4": "1987-02-20"
    },
    {
        "col0": "T. Coronel",
        "col1": "SUNRED Engineering",
        "col2": "Naarden",
        "col3": "1972-04-05",
        "col4": "1972-04-05"
    },
    {
        "col0": "T. Blanchard",
        "col1": "Britek Motorsport",
        "col2": "Melbourne",
        "col3": "1987-06-30",
        "col4": "1987-06-30"
    },
    {
        "col0": "T. Monteiro",
        "col1": "JAS Motorsport",
        "col2": "Porto",
        "col3": "1976-07-24",
        "col4": "1976-07-24"
    },
    {
        "col0": "T. Geronimi",
        "col1": "Signature-Plus",
        "col2": "Lorena, Sao Paulo",
        "col3": "1988-11-27",
        "col4": "1988-11-27"
    },
    {
        "col0": "T. Randle",
        "col1": "Comtec Racing",
        "col2": "Melbourne",
        "col3": "1996-04-07",
        "col4": "1996-04-07"
    },
    {
        "col0": "T. Mutsch",
        "col1": "Matech Competition",
        "col2": "Trier",
        "col3": "1979-05-02",
        "col4": "1979-05-02"
    },
    {
        "col0": "T. Holzer",
        "col1": "Kodewa",
        "col2": "Augsburg",
        "col3": "1985-12-27",
        "col4": "1985-12-27"
    },
    {
        "col0": "T. Storz",
        "col1": "MotorSport Vision",
        "col2": "Tettnang",
        "col3": "1991-10-12",
        "col4": "1991-10-12"
    },
    {
        "col0": "T. Bjork",
        "col1": "Polestar Racing",
        "col2": "Vretstorp",
        "col3": "1980-12-14",
        "col4": "1980-12-14"
    },
    {
        "col0": "T. Sakuma",
        "col1": "Toyo Tire & Rubber Company",
        "col2": "Japan",
        "col3": "1974-07-04",
        "col4": "1974-07-04"
    },
    {
        "col0": "T. Calderon",
        "col1": "Carlin Motorsport",
        "col2": "Bogota",
        "col3": "1993-03-10",
        "col4": "1993-03-10"
    },
    {
        "col0": "T. Izawa",
        "col1": "ART Grand Prix",
        "col2": "Tokyo",
        "col3": "1984-06-01",
        "col4": "1984-06-01"
    },
    {
        "col0": "T. Iguchi",
        "col1": "R&D Sport",
        "col2": "Fukuoka",
        "col3": "1988-02-13",
        "col4": "1988-02-13"
    },
    {
        "col0": "T. Sato",
        "col1": "A. J. Foyt Enterprises",
        "col2": "Tokyo",
        "col3": "1977-01-28",
        "col4": "1977-01-28"
    },
    {
        "col0": "T. Kogure",
        "col1": "Nakajima Racing",
        "col2": "Japan",
        "col3": "1980-08-01",
        "col4": "1980-08-01"
    },
    {
        "col0": "T. Kobayashi",
        "col1": "Autobacs Racing Team Aguri",
        "col2": "Hiroshima",
        "col3": "1987-11-08",
        "col4": "1987-11-08"
    },
    {
        "col0": "S. S. Camara",
        "col1": "Motopark Academy",
        "col2": "Brazil",
        "col3": "1998-05-23",
        "col4": "1998-05-23"
    },
    {
        "col0": "S. Loeb",
        "col1": "Team Peugeot-Hansen",
        "col2": "France",
        "col3": "1974-02-26",
        "col4": "1974-02-26"
    },
    {
        "col0": "S. Buemi",
        "col1": "Toyota Motorsport GmbH",
        "col2": "A1 Team Switzerland",
        "col3": "1988-10-31",
        "col4": "1988-10-31"
    },
    {
        "col0": "S. Wong",
        "col1": "WestCoast Racing",
        "col2": "Hong Kong",
        "col3": "1978-07-29",
        "col4": "1978-07-29"
    },
    {
        "col0": "S. Sarrazin",
        "col1": "Toyota Motorsport GmbH",
        "col2": "Gard",
        "col3": "1974-11-2",
        "col4": "1974-11-2"
    },
    {
        "col0": "S. Richelmi",
        "col1": "DAMS",
        "col2": "Monte Carlo",
        "col3": "1990-03-17",
        "col4": "1990-03-17"
    },
    {
        "col0": "S. Peterhansel",
        "col1": "Peugeot",
        "col2": "France",
        "col3": "1965-08-06",
        "col4": "1965-08-06"
    },
    {
        "col0": "S. Hall",
        "col1": "Aston Martin Racing",
        "col2": "Chelmsford",
        "col3": "1984-10-18",
        "col4": "1984-10-18"
    },
    {
        "col0": "S. Vandoorne",
        "col1": "Dandelion Racing",
        "col2": "Belgium",
        "col3": "1992-03-26",
        "col4": "1992-03-26"
    },
    {
        "col0": "S. Longin",
        "col1": "PK Carsport",
        "col2": "Flemish Brabant",
        "col3": "1991-07-30",
        "col4": "1991-07-30"
    },
    {
        "col0": "S. Zacchia",
        "col1": "Hope Racing",
        "col2": "Yverdon-les-Bains",
        "col3": "1982-08-15",
        "col4": "1982-08-15"
    },
    {
        "col0": "S. Owen",
        "col1": "Rod Nash Racing",
        "col2": "Melbourne",
        "col3": "1974-12-18",
        "col4": "1974-12-18"
    },
    {
        "col0": "S. Jelley",
        "col1": "Team Parker Racing",
        "col2": "Leicester",
        "col3": "1982-05-12",
        "col4": "1982-05-12"
    },
    {
        "col0": "S. Gattuso",
        "col1": "Loris Kessel",
        "col2": "Sarnico",
        "col3": "1984-05-03",
        "col4": "1984-05-03"
    },
    {
        "col0": "S. Gabellini",
        "col1": "ROAL Motorsport",
        "col2": "Pesaro",
        "col3": "1965-04-18",
        "col4": "1965-04-18"
    },
    {
        "col0": "S. D'Aste",
        "col1": "Munnich Motorsport",
        "col2": "Genoa",
        "col3": "1974-02-26",
        "col4": "1974-02-26"
    },
    {
        "col0": "S. Comini",
        "col1": "W Racing Team",
        "col2": "Lugano",
        "col3": "1990-02-03",
        "col4": "1990-02-03"
    },
    {
        "col0": "S. Coletti",
        "col1": "SMP Racing",
        "col2": "Monaco",
        "col3": "1989-04-06",
        "col4": "1989-04-06"
    },
    {
        "col0": "S. Bizzarri",
        "col1": "RP Motorsport",
        "col2": "Seattle",
        "col3": "1990-03-30",
        "col4": "1990-03-30"
    },
    {
        "col0": "S. Wilson",
        "col1": "Fan Force United",
        "col2": "Sheffield",
        "col3": "1989-09-20",
        "col4": "1989-09-20"
    },
    {
        "col0": "S. Wackerbauer",
        "col1": "Abt Sportsline",
        "col2": "Germany",
        "col3": "1995-11-02",
        "col4": "1995-11-02"
    },
    {
        "col0": "S. Hodgetts",
        "col1": "Scuderia Vittoria",
        "col2": "Bromsgrove",
        "col3": "1982-06-17",
        "col4": "1982-06-17"
    },
    {
        "col0": "S. Dusseldorp",
        "col1": "Van Amersfoort Racing",
        "col2": "Winterswijk",
        "col3": "1989-09-27",
        "col4": "1989-09-27"
    },
    {
        "col0": "S. Sarrazin",
        "col1": "Toyota Motorsport GmbH",
        "col2": "Ales",
        "col3": "1974-11-2",
        "col4": "1974-11-2"
    },
    {
        "col0": "S. Richelmi",
        "col1": "DAMS",
        "col2": "Monte Carlo",
        "col3": "1990-03-17",
        "col4": "1990-03-17"
    },
    {
        "col0": "S. Peterhansel",
        "col1": "Peugeot",
        "col2": "France",
        "col3": "1965-08-06",
        "col4": "1965-08-06"
    },
    {
        "col0": "S. Florsch",
        "col1": "Motopark Academy",
        "col2": "Munich",
        "col3": "2000-12-01",
        "col4": "2000-12-01"
    },
    {
        "col0": "S. Cunill",
        "col1": "Konrad Motorsport",
        "col2": "Mountain View, California",
        "col3": "1990-10-20",
        "col4": "1990-10-20"
    },
    {
        "col0": "S. d. Silvestro",
        "col1": "Andretti Autosport",
        "col2": "Thun",
        "col3": "1988-09-01",
        "col4": "1988-09-01"
    },
    {
        "col0": "S. Trummer",
        "col1": "Hilmer Motorsport",
        "col2": "Switzerland",
        "col3": "1989-06-08",
        "col4": "1989-06-08"
    },
    {
        "col0": "S. Pagenaud",
        "col1": "Team Penske",
        "col2": "Poitiers",
        "col3": "1984-05-18",
        "col4": "1984-05-18"
    },
    {
        "col0": "S. Belcher",
        "col1": "Speedworks Motorsport",
        "col2": "Wiltshire",
        "col3": "1973-12-18",
        "col4": "1973-12-18"
    },
    {
        "col0": "S. Creed",
        "col1": "Traxxas",
        "col2": "Alpine, California",
        "col3": "1997-09-30",
        "col4": "1997-09-30"
    },
    {
        "col0": "S. Thong",
        "col1": "Audi Sport",
        "col2": "Hong Kong",
        "col3": "1995-11-01",
        "col4": "1995-11-01"
    },
    {
        "col0": "S. Pena",
        "col1": "Rev Racing",
        "col2": "Virginia",
        "col3": "1993-02-13",
        "col4": "1993-02-13"
    },
    {
        "col0": "S. Canamasas",
        "col1": "Carlin Motorsport",
        "col2": "Barcelona",
        "col3": "1986-4-30",
        "col4": "1986-4-30"
    },
    {
        "col0": "S. Campana",
        "col1": "Team Lazarus",
        "col2": "Reggio Emilia",
        "col3": "1986-06-05",
        "col4": "1986-06-05"
    },
    {
        "col0": "S. Sirotkin",
        "col1": "ART Grand Prix",
        "col2": "Moscow",
        "col3": "1995-08-27",
        "col4": "1995-08-27"
    },
    {
        "col0": "S. Afanasyev",
        "col1": "Charouz Racing System",
        "col2": "Moscow",
        "col3": "1988-03-25",
        "col4": "1988-03-25"
    },
    {
        "col0": "S. Ara",
        "col1": "Swiss Racing Team",
        "col2": "Chiba, Chiba",
        "col3": "1974-05-05",
        "col4": "1974-05-05"
    },
    {
        "col0": "S. Saavedra",
        "col1": "AFS Racing",
        "col2": "Bogota",
        "col3": "1990-06-02",
        "col4": "1990-06-02"
    },
    {
        "col0": "S. Eriksson",
        "col1": "Olsbergs MSE",
        "col2": "Hagfors",
        "col3": "1993-01-05",
        "col4": "1993-01-05"
    },
    {
        "col0": "S. Saavedra",
        "col1": "AFS Racing",
        "col2": "Bogota",
        "col3": "1990-06-02",
        "col4": "1990-06-02"
    },
    {
        "col0": "S. Morris",
        "col1": "Status Grand Prix",
        "col2": "Wrexham",
        "col3": "1995-11-30",
        "col4": "1995-11-30"
    },
    {
        "col0": "S. Rayhall",
        "col1": "8 Star Motorsports",
        "col2": "Winston, Georgia",
        "col3": "1995-03-10",
        "col4": "1995-03-10"
    },
    {
        "col0": "S. Gelael",
        "col1": "Campos Racing",
        "col2": "Dutch East Indies",
        "col3": "1996-11-01",
        "col4": "1996-11-01"
    },
    {
        "col0": "S. Tucker",
        "col1": "Level 5 Motorsports",
        "col2": "Kansas City, Missouri",
        "col3": "1955-12-25",
        "col4": "1955-12-25"
    },
    {
        "col0": "S. Speed",
        "col1": "Andretti Autosport",
        "col2": "Manteca, California",
        "col3": "1983-01-24",
        "col4": "1983-01-24"
    },
    {
        "col0": "S. Sharp",
        "col1": "Extreme Speed Motorsports",
        "col2": "Connecticut",
        "col3": "1968-02-14",
        "col4": "1968-02-14"
    },
    {
        "col0": "S. Pye",
        "col1": "DJR Team Penske",
        "col2": "Adelaide",
        "col3": "1990-01-08",
        "col4": "1990-01-08"
    },
    {
        "col0": "S. Martin",
        "col1": "Club100",
        "col2": "East Sussex",
        "col3": "1993-11-27",
        "col4": "1993-11-27"
    },
    {
        "col0": "S. Dixon",
        "col1": "Chip Ganassi Racing",
        "col2": "Brisbane",
        "col3": "1980-07-22",
        "col4": "1980-07-22"
    },
    {
        "col0": "S. Hermanto",
        "col1": "Litespeed F3",
        "col2": "Jakarta",
        "col3": "1984-06-29",
        "col4": "1984-06-29"
    },
    {
        "col0": "S. Ferrucci",
        "col1": "DAMS",
        "col2": "Woodbury, Connecticut",
        "col3": "1998-05-31",
        "col4": "1998-05-31"
    },
    {
        "col0": "S. Urrutia",
        "col1": "Schmidt Peterson Motorsports",
        "col2": "Uruguay",
        "col3": "1996-08-30",
        "col4": "1996-08-30"
    },
    {
        "col0": "S. Stuvik",
        "col1": "Trident Racing",
        "col2": "Phuket Province",
        "col3": "1995-04-11",
        "col4": "1995-04-11"
    },
    {
        "col0": "S. Zeller",
        "col1": "Jo Zeller",
        "col2": "Uster",
        "col3": "1991-11-16",
        "col4": "1991-11-16"
    },
    {
        "col0": "S. Chan",
        "col1": "Formula Racing Development Limited",
        "col2": "Canada",
        "col3": "1956-12-05",
        "col4": "1956-12-05"
    },
    {
        "col0": "S. Gomez",
        "col1": "Campos Racing",
        "col2": "Venezuela",
        "col3": "1992-02-04",
        "col4": "1992-02-04"
    },
    {
        "col0": "S. Tordoff",
        "col1": "West Surrey Racing",
        "col2": "Bradford",
        "col3": "1989-04-19",
        "col4": "1989-04-19"
    },
    {
        "col0": "S. Sunderland",
        "col1": "Red Bull",
        "col2": "Poole",
        "col3": "1989-04-15",
        "col4": "1989-04-15"
    },
    {
        "col0": "S. Lok",
        "col1": "Asia Racing Team",
        "col2": "Hong Kong",
        "col3": "1967-01-03",
        "col4": "1967-01-03"
    },
    {
        "col0": "S. Dejonghe",
        "col1": "Virtuosi Racing",
        "col2": "Essen, Belgium",
        "col3": "1991-09-02",
        "col4": "1991-09-02"
    },
    {
        "col0": "S. Bird",
        "col1": "AF Corse",
        "col2": "Roehampton",
        "col3": "1987-01-09",
        "col4": "1987-01-09"
    },
    {
        "col0": "S. Duran",
        "col1": "Team Aguri",
        "col2": "Mexico City",
        "col3": "1985-05-06",
        "col4": "1985-05-06"
    },
    {
        "col0": "S. A. Khalifa",
        "col1": "Bas Koeten Racing",
        "col2": "Bahrain",
        "col3": "1976-03-24",
        "col4": "1976-03-24"
    },
    {
        "col0": "S. Karam",
        "col1": "Dreyer & Reinbold Racing",
        "col2": "Nazareth, Pennsylvania",
        "col3": "1995-03-05",
        "col4": "1995-03-05"
    }
]