[
    {
        "col0": "Sarah Fuller Flower Adams",
        "col1": "Old Harlow",
        "col2": "1805-02-22",
        "col3": "1848-09-14",
        "col4": "1805-02-22"
    },
    {
        "col0": "R. Mathias",
        "col1": "Talybont-on-Usk",
        "col2": "1915-9-4",
        "col3": "2007-8-16",
        "col4": "1915-9-4"
    },
    {
        "col0": "O. Owain",
        "col1": "Pwllheli",
        "col2": "1929-12-11",
        "col3": "1993-12-1",
        "col4": "1929-12-11"
    },
    {
        "col0": "M. Abdy",
        "col1": "London",
        "col2": "1797-2-25",
        "col3": "1867-7-19",
        "col4": "1797-2-25"
    },
    {
        "col0": "M. Tait",
        "col1": "Kirkwall",
        "col2": "1918-11-11",
        "col3": "1999-1-1",
        "col4": "1918-11-11"
    },
    {
        "col0": "K. Gershon",
        "col1": "Bielefeld",
        "col2": "1923-8-29",
        "col3": "1993-3-24",
        "col4": "1923-8-29"
    },
    {
        "col0": "J. Leftwich",
        "col1": "Zutphen",
        "col2": "1892-1-1",
        "col3": "1983-1-1",
        "col4": "1892-1-1"
    },
    {
        "col0": "J. Fairfax",
        "col1": "Devon",
        "col2": "1930-11-09",
        "col3": "2009-01-14",
        "col4": "1930-11-09"
    },
    {
        "col0": "J. Williams",
        "col1": "Chelsea, London",
        "col2": "1806-2-1",
        "col3": "1885-3-15",
        "col4": "1806-2-1"
    },
    {
        "col0": "J. L. Robertson",
        "col1": "Milnathort",
        "col2": "1846-9-18",
        "col3": "1922-6-1",
        "col4": "1846-9-18"
    },
    {
        "col0": "J. G. Fairfax",
        "col1": "Australia",
        "col2": "1886-07-15",
        "col3": "1976-01-27",
        "col4": "1886-07-15"
    }
]