[
    {
        "col0": "E. Hallberg",
        "col1": "Falkenberg",
        "col2": "Klippan, Scania",
        "col3": "1944-04-28",
        "col4": "1894-01-05",
        "col5": "1894-01-05"
    },
    {
        "col0": "E. Degner",
        "col1": "Gliwice",
        "col2": "Arona, Tenerife",
        "col3": "1983-9-10",
        "col4": "1931-9-22",
        "col5": "1931-9-22"
    },
    {
        "col0": "E. Lyons",
        "col1": "Ireland",
        "col2": "Kill, County Kildare",
        "col3": "2014-02-07",
        "col4": "1914-03-05",
        "col5": "1914-03-05"
    },
    {
        "col0": "E. Langton",
        "col1": "Leeds",
        "col2": "Australia",
        "col3": "2001-1-1",
        "col4": "1907-09-27",
        "col5": "1907-09-27"
    },
    {
        "col0": "E. Fernihough",
        "col1": "United Kingdom",
        "col2": "Budapest",
        "col3": "1938-04-23",
        "col4": "1905-02-17",
        "col5": "1905-02-17"
    },
    {
        "col0": "E. Lorenzetti",
        "col1": "Rome",
        "col2": "Milan",
        "col3": "1989-8-8",
        "col4": "1911-1-4",
        "col5": "1911-1-4"
    },
    {
        "col0": "E. Mendogni",
        "col1": "Parma",
        "col2": "Desio",
        "col3": "2008-2-10",
        "col4": "1932-5-13",
        "col5": "1932-5-13"
    },
    {
        "col0": "Emanuele Beraudo di Pralormo",
        "col1": "Pralormo",
        "col2": "Pralormo",
        "col3": "1960-10-11",
        "col4": "1887-7-13",
        "col5": "1887-7-13"
    },
    {
        "col0": "D. Romboni",
        "col1": "Italy",
        "col2": "Italy",
        "col3": "2013-11-30",
        "col4": "1968-12-08",
        "col5": "1968-12-08"
    },
    {
        "col0": "D. Dale",
        "col1": "Frampton, Lincolnshire",
        "col2": "Bonn",
        "col3": "1961-04-30",
        "col4": "1927-04-25",
        "col5": "1927-04-25"
    },
    {
        "col0": "D. Minter",
        "col1": "Kent",
        "col2": "Kent",
        "col3": "2015-01-02",
        "col4": "1932-04-27",
        "col5": "1932-04-27"
    },
    {
        "col0": "D. Keeter",
        "col1": "United States",
        "col2": "Torrance, California",
        "col3": "1975-05-01",
        "col4": "1944-10-15",
        "col5": "1944-10-15"
    },
    {
        "col0": "D. Jefferies",
        "col1": "England",
        "col2": "Isle of Man",
        "col3": "2003-05-29",
        "col4": "1972-09-18",
        "col5": "1972-09-18"
    },
    {
        "col0": "D. Simmonds",
        "col1": "London",
        "col2": "Rungis",
        "col3": "1972-10-23",
        "col4": "1939-10-25",
        "col5": "1939-10-25"
    },
    {
        "col0": "D. Mirra",
        "col1": "Chittenango, New York",
        "col2": "Greenville, North Carolina",
        "col3": "2016-02-04",
        "col4": "1974-04-04",
        "col5": "1974-04-04"
    },
    {
        "col0": "D. Ambrosini",
        "col1": "Cesena",
        "col2": "Albi",
        "col3": "1951-7-14",
        "col4": "1918-3-7",
        "col5": "1918-3-7"
    },
    {
        "col0": "D. Rivas",
        "col1": "Moana",
        "col2": "Salinas, California",
        "col3": "2015-07-19",
        "col4": "1988-03-13",
        "col5": "1988-03-13"
    },
    {
        "col0": "D. Searls",
        "col1": "Australia",
        "col2": "Australia",
        "col3": "2011-11-25",
        "col4": "1988-02-22",
        "col5": "1988-02-22"
    },
    {
        "col0": "D. Kato",
        "col1": "Saitama, Saitama",
        "col2": "Yokkaichi, Mie",
        "col3": "2003-4-20",
        "col4": "1976-7-4",
        "col5": "1976-7-4"
    },
    {
        "col0": "D. Natterqvist",
        "col1": "Stockholm",
        "col2": "Farjestaden",
        "col3": "2009-11-20",
        "col4": "1922-06-20",
        "col5": "1922-06-20"
    },
    {
        "col0": "C. Roger",
        "col1": "England",
        "col2": "England",
        "col3": "2015-05-26",
        "col4": "1921-12-27",
        "col5": "1921-12-27"
    },
    {
        "col0": "C. \". Burton",
        "col1": "England",
        "col2": "England",
        "col3": "1990-6-1",
        "col4": "1908-01-16",
        "col5": "1908-01-16"
    },
    {
        "col0": "C. Julian",
        "col1": "Cornwall",
        "col2": "England",
        "col3": "1997-05-17",
        "col4": "1937-03-04",
        "col5": "1937-03-04"
    },
    {
        "col0": "C. Green",
        "col1": "Upwell",
        "col2": "Walsoken",
        "col3": "1874-02-26",
        "col4": "1820-0-0",
        "col5": "1820-0-0"
    },
    {
        "col0": "Charles Pahud de Mortanges",
        "col1": "The Hague",
        "col2": "Leiden",
        "col3": "1971-4-8",
        "col4": "1896-5-13",
        "col5": "1896-5-13"
    },
    {
        "col0": "C. Marion",
        "col1": "Saint-Germain-en-Laye",
        "col2": "Annecy",
        "col3": "1944-11-16",
        "col4": "1887-1-14",
        "col5": "1887-1-14"
    },
    {
        "col0": "C. v. Dongen",
        "col1": "Rotterdam",
        "col2": "Capelle aan den IJssel",
        "col3": "2011-12-23",
        "col4": "1932-1-1",
        "col5": "1932-1-1"
    },
    {
        "col0": "C. Bandirola",
        "col1": "Voghera",
        "col2": "Voghera",
        "col3": "1981-9-21",
        "col4": "1915-9-25",
        "col5": "1915-9-25"
    },
    {
        "col0": "C. S. Clancy",
        "col1": "Epping, New Hampshire",
        "col2": "Alexandria, Virginia",
        "col3": "1971-1-0",
        "col4": "1890-08-08",
        "col5": "1890-08-08"
    },
    {
        "col0": "C. G. Lewenhaupt",
        "col1": "Orebro",
        "col2": "Stockholm",
        "col3": "1935-05-11",
        "col4": "1884-01-07",
        "col5": "1884-01-07"
    },
    {
        "col0": "Carl Freiherr von Langen",
        "col1": "Klein Belitz",
        "col2": "Potsdam",
        "col3": "1934-8-2",
        "col4": "1887-7-25",
        "col5": "1887-7-25"
    },
    {
        "col0": "C. Stjernsward",
        "col1": "Kristianstad",
        "col2": "Skanor",
        "col3": "1981-03-18",
        "col4": "1905-07-20",
        "col5": "1905-07-20"
    },
    {
        "col0": "B. Ruffo",
        "col1": "Verona",
        "col2": "Verona",
        "col3": "2007-2-10",
        "col4": "1920-12-9",
        "col5": "1920-12-9"
    },
    {
        "col0": "B. McIntyre",
        "col1": "Glasgow",
        "col2": "Chester",
        "col3": "1962-08-15",
        "col4": "1928-11-28",
        "col5": "1928-11-28"
    },
    {
        "col0": "B. Brown",
        "col1": "Australia",
        "col2": "Stuttgart",
        "col3": "1960-07-23",
        "col4": "1930-05-09",
        "col5": "1930-05-09"
    },
    {
        "col0": "B. Anderson",
        "col1": "Hendon",
        "col2": "Northampton",
        "col3": "1967-08-14",
        "col4": "1931-05-19",
        "col5": "1931-05-19"
    },
    {
        "col0": "B. Wilkinson",
        "col1": "New South Wales",
        "col2": "New South Wales",
        "col3": "1940-07-27",
        "col4": "1911-08-27",
        "col5": "1911-08-27"
    },
    {
        "col0": "B. Sanders",
        "col1": "New South Wales",
        "col2": "England",
        "col3": "1985-04-23",
        "col4": "1955-09-09",
        "col5": "1955-09-09"
    },
    {
        "col0": "B. Lomas",
        "col1": "Milford, Derbyshire",
        "col2": "Mansfield",
        "col3": "2007-08-14",
        "col4": "1928-03-08",
        "col5": "1928-03-08"
    },
    {
        "col0": "B. Ivy",
        "col1": "Maidstone",
        "col2": "East Germany",
        "col3": "1969-07-12",
        "col4": "1942-08-27",
        "col5": "1942-08-27"
    },
    {
        "col0": "B. Swain",
        "col1": "England",
        "col2": "England",
        "col3": "2007-05-15",
        "col4": "1936-01-22",
        "col5": "1936-01-22"
    },
    {
        "col0": "B. Martinez",
        "col1": "Spain",
        "col2": "Monterey, California",
        "col3": "2015-07-19",
        "col4": "1980-01-10",
        "col5": "1980-01-10"
    },
    {
        "col0": "B. L. Hieatt",
        "col1": "Reading, Berkshire",
        "col2": "Brooklands",
        "col3": "1930-05-03",
        "col4": "1909-0-0",
        "col5": "1909-0-0"
    },
    {
        "col0": "B. Drinkwater",
        "col1": "Rochdale",
        "col2": "Isle of Man",
        "col3": "1949-06-09",
        "col4": "1910-02-13",
        "col5": "1910-02-13"
    },
    {
        "col0": "B. Sheene",
        "col1": "London",
        "col2": "Sydney",
        "col3": "2003-03-10",
        "col4": "1950-09-11",
        "col5": "1950-09-11"
    },
    {
        "col0": "A. Stahle",
        "col1": "Helsingborg",
        "col2": "Malmo",
        "col3": "1987-11-21",
        "col4": "1891-02-01",
        "col5": "1891-02-01"
    },
    {
        "col0": "A. v. Pongracz",
        "col1": "Bielsko-Biala",
        "col2": "Vienna",
        "col3": "1942-1-13",
        "col4": "1864-6-25",
        "col5": "1864-6-25"
    },
    {
        "col0": "A. Francke",
        "col1": "Stockholm",
        "col2": "Stockholm",
        "col3": "1973-03-11",
        "col4": "1904-05-06",
        "col5": "1904-05-06"
    }
]