[
    {
        "col0": "WPCW",
        "col1": "KDKA",
        "col2": "30000",
        "col3": "19 (PSIP)"
    },
    {
        "col0": "WOTH-CD",
        "col1": "WBQC-LD",
        "col2": "15000",
        "col3": "20 (PSIP)"
    },
    {
        "col0": "WOAI-TV",
        "col1": "KABB",
        "col2": "905000",
        "col3": "4 (PSIP)"
    },
    {
        "col0": "WNYF-CD",
        "col1": "WWNY-TV",
        "col2": "4000",
        "col3": "28 (PSIP)"
    },
    {
        "col0": "WNOL-TV",
        "col1": "WGNO",
        "col2": "1000000",
        "col3": "38 (PSIP)"
    },
    {
        "col0": "WMYD",
        "col1": "WXYZ-TV",
        "col2": "500000",
        "col3": "20 (PSIP)"
    },
    {
        "col0": "WMFD-TV",
        "col1": "WOHZ-CD",
        "col2": "4800",
        "col3": "68 (PSIP)"
    },
    {
        "col0": "WMDO-CD",
        "col1": "WFDC-DT",
        "col2": "1100",
        "col3": "47 (PSIP)"
    },
    {
        "col0": "WMDE",
        "col1": "WACP",
        "col2": "10000",
        "col3": "36 (PSIP)"
    },
    {
        "col0": "WLMT",
        "col1": "WATN-TV",
        "col2": "871000",
        "col3": "30 (PSIP)"
    },
    {
        "col0": "WLAJ",
        "col1": "WLNS-TV",
        "col2": "483300",
        "col3": "53 (PSIP)"
    },
    {
        "col0": "WKRC-TV",
        "col1": "WSTR-TV",
        "col2": "15550",
        "col3": "12 (PSIP)"
    }
]