[
    {
        "col0": "Acta Biotheoretica",
        "col1": "Springer Science+Business Media",
        "col2": "ABIOAN",
        "col3": "38011617"
    },
    {
        "col0": "Acta Biomaterialia",
        "col1": "Elsevier",
        "col2": "ABCICB",
        "col3": "2005243536"
    },
    {
        "col0": "Acta Biologica Colombiana",
        "col1": "National University of Colombia",
        "col2": "ABICEP",
        "col3": "sn86016249"
    },
    {
        "col0": "Acta Biochimica et Biophysica Sinica",
        "col1": "Oxford Journals",
        "col2": "ABBSC2",
        "col3": "2004243168"
    },
    {
        "col0": "Acta Astronautica",
        "col1": "Elsevier",
        "col2": "AASTCF",
        "col3": "74645400"
    },
    {
        "col0": "Acta Applicandae Mathematicae",
        "col1": "Springer Science+Business Media",
        "col2": "AAMADV",
        "col3": "83646887"
    },
    {
        "col0": "Acta Agriculturae Scandinavica. Section B. Soil and Plant Science",
        "col1": "Taylor & Francis",
        "col2": "AASBEV",
        "col3": "sf97001064"
    },
    {
        "col0": "Accounts of Chemical Research",
        "col1": "American Chemical Society",
        "col2": "ACHRE4",
        "col3": "70008300"
    },
    {
        "col0": "Academic Questions",
        "col1": "Springer Science+Business Media",
        "col2": "ACQUEO",
        "col3": "88649846"
    },
    {
        "col0": "Academic Emergency Medicine",
        "col1": "John Wiley & Sons",
        "col2": "AEMEF5",
        "col3": "sn93006121"
    },
    {
        "col0": "Abhandlungen aus dem Mathematischen Seminar der Universitat Hamburg",
        "col1": "Springer Science+Business Media",
        "col2": "AMHAAJ",
        "col3": "32024459"
    },
    {
        "col0": "Abacus",
        "col1": "Wiley-Blackwell",
        "col2": "ABACAF",
        "col3": "90643859"
    },
    {
        "col0": "AORN Journal",
        "col1": "Elsevier",
        "col2": "AOJOEL",
        "col3": "67004489"
    },
    {
        "col0": "AMBIO",
        "col1": "Springer Science+Business Media",
        "col2": "AMBOCX",
        "col3": "72623229"
    },
    {
        "col0": "AIP Conference Proceedings",
        "col1": "American Institute of Physics",
        "col2": "APCPCS",
        "col3": "2004214302"
    },
    {
        "col0": "AIDS and Behavior",
        "col1": "Springer Science+Business Media",
        "col2": "AIBEFC",
        "col3": "97643440"
    },
    {
        "col0": "AIDS Care",
        "col1": "Taylor & Francis",
        "col2": "AIDCEF",
        "col3": "96640174"
    },
    {
        "col0": "AIDS",
        "col1": "Lippincott Williams & Wilkins",
        "col2": "AIDSET",
        "col3": "90640840"
    },
    {
        "col0": "AIAA Journal",
        "col1": "American Institute of Aeronautics and Astronautics",
        "col2": "AIAJAH",
        "col3": "64004358"
    },
    {
        "col0": "ACS Applied Materials & Interfaces",
        "col1": "American Chemical Society",
        "col2": "AAMICK",
        "col3": "2008201974"
    },
    {
        "col0": "ACM Transactions on Information Systems",
        "col1": "Association for Computing Machinery",
        "col2": "ATISET",
        "col3": "89646863"
    },
    {
        "col0": "ACM Transactions on Computer-Human Interaction",
        "col1": "Association for Computing Machinery",
        "col2": "ATCIF4",
        "col3": "94644508"
    },
    {
        "col0": "AAPS PharmSciTech",
        "col1": "Springer Science+Business Media",
        "col2": "AAPHFZ",
        "col3": "215572"
    }
]