[
    {
        "col0": "Fort Yellowstone",
        "col1": "R. Reamer",
        "col2": "Gardiner, Montana",
        "col3": "1891"
    },
    {
        "col0": "Fort Ticonderoga",
        "col1": "Michel Chartier de Lotbiniere, Marquis de Lotbiniere",
        "col2": "Vermont",
        "col3": "1755"
    },
    {
        "col0": "Fort Snelling",
        "col1": "J. Snelling",
        "col2": "Minnesota",
        "col3": "1819"
    },
    {
        "col0": "Fort Proctor",
        "col1": "J. G. Totten",
        "col2": "Shell Beach, Louisiana",
        "col3": "1856"
    },
    {
        "col0": "Fort Pocahontas",
        "col1": "United States Colored Troops",
        "col2": "Charles City, Virginia",
        "col3": "1864"
    },
    {
        "col0": "Fort Negley",
        "col1": "James St. Clair Morton",
        "col2": "Nashville, Tennessee",
        "col3": "1862"
    },
    {
        "col0": "Fort Livingston, Louisiana",
        "col1": "H. G. Wright",
        "col2": "Grand Isle, Louisiana",
        "col3": "1841"
    },
    {
        "col0": "Fort Dobbs",
        "col1": "A. Dobbs",
        "col2": "Statesville, North Carolina",
        "col3": "1755"
    },
    {
        "col0": "Fort Boonesborough State Park",
        "col1": "D. Boone",
        "col2": "Richmond, Kentucky",
        "col3": "1775"
    },
    {
        "col0": "Bent's Old Fort National Historic Site",
        "col1": "C. Bent",
        "col2": "Colorado",
        "col3": "1833"
    }
]