[
    {
        "col0": "J. Saros",
        "col1": "Milwaukee Admirals",
        "col2": "Nashville Predators",
        "col3": "HPK",
        "col4": "1995-04-19"
    },
    {
        "col0": "J. Peters",
        "col1": "Tucson Roadrunners",
        "col2": "Carolina Hurricanes",
        "col3": "Carolina Hurricanes",
        "col4": "1986-08-30"
    },
    {
        "col0": "J. Bergman",
        "col1": "San Jose Barracuda",
        "col2": "San Jose Sharks",
        "col3": "Frolunda HC",
        "col4": "1995-11-02"
    },
    {
        "col0": "J. Lammikko",
        "col1": "Springfield Thunderbirds",
        "col2": "Florida Panthers",
        "col3": "Assat",
        "col4": "1996-01-29"
    },
    {
        "col0": "J. Schroeder",
        "col1": "Iowa Wild",
        "col2": "Vancouver Canucks",
        "col3": "Vancouver Canucks",
        "col4": "1990-09-29"
    },
    {
        "col0": "J. Caron",
        "col1": "Chicago Wolves",
        "col2": "Boston Bruins",
        "col3": "Boston Bruins",
        "col4": "1990-11-02"
    },
    {
        "col0": "J. Racine",
        "col1": "St. John's IceCaps",
        "col2": "Florida Panthers",
        "col3": "Florida Panthers",
        "col4": "1993-05-28"
    },
    {
        "col0": "J. Carlsson",
        "col1": "Indy Fuel",
        "col2": "Chicago Blackhawks",
        "col3": "Brynas IF",
        "col4": "1988-08-05"
    },
    {
        "col0": "J. Ramage",
        "col1": "Cleveland Monsters",
        "col2": "Calgary Flames",
        "col3": "Calgary Flames",
        "col4": "1991-02-07"
    },
    {
        "col0": "J. E. Ek",
        "col1": "Iowa Wild",
        "col2": "Minnesota Wild",
        "col3": "Farjestad BK",
        "col4": "1997-01-29"
    },
    {
        "col0": "J. Cannata",
        "col1": "Hershey Bears",
        "col2": "Vancouver Canucks",
        "col3": "Vancouver Canucks",
        "col4": "1990-01-02"
    },
    {
        "col0": "J. O'Brien",
        "col1": "San Antonio Rampage",
        "col2": "Ottawa Senators",
        "col3": "New Jersey Devils",
        "col4": "1989-01-29"
    },
    {
        "col0": "J. Pettersson",
        "col1": "Lehigh Valley Phantoms",
        "col2": "Philadelphia Flyers",
        "col3": "Linkopings HC",
        "col4": "1994-07-16"
    },
    {
        "col0": "J. Sallinen",
        "col1": "Bakersfield Condors",
        "col2": "Minnesota Wild",
        "col3": "Jokerit",
        "col4": "1990-10-26"
    },
    {
        "col0": "J. Schultz",
        "col1": "San Diego Gulls",
        "col2": "Washington Capitals",
        "col3": "Los Angeles Kings",
        "col4": "1986-02-25"
    },
    {
        "col0": "J. Janus",
        "col1": "Norfolk Admirals",
        "col2": "Tampa Bay Lightning",
        "col3": "Florida Everblades",
        "col4": "1989-09-21"
    },
    {
        "col0": "J. Kostalek",
        "col1": "Manitoba Moose",
        "col2": "Winnipeg Jets",
        "col3": "HC Sparta Praha",
        "col4": "1995-02-17"
    },
    {
        "col0": "J. Vrana",
        "col1": "Hershey Bears",
        "col2": "Washington Capitals",
        "col3": "Linkopings HC",
        "col4": "1996-02-28"
    },
    {
        "col0": "J. DeBrusk",
        "col1": "Providence Bruins",
        "col2": "Boston Bruins",
        "col3": "Swift Current Broncos",
        "col4": "1996-10-17"
    },
    {
        "col0": "J. Campbell",
        "col1": "Ontario Reign",
        "col2": "Dallas Stars",
        "col3": "Dallas Stars",
        "col4": "1992-01-09"
    },
    {
        "col0": "H. Shinkaruk",
        "col1": "Stockton Heat",
        "col2": "Vancouver Canucks",
        "col3": "Vancouver Canucks",
        "col4": "1994-10-13"
    },
    {
        "col0": "H. Samuelsson",
        "col1": "Tucson Roadrunners",
        "col2": "Phoenix Coyotes",
        "col3": "Modo Hockey",
        "col4": "1994-02-07"
    },
    {
        "col0": "H. Kiviaho",
        "col1": "Idaho Steelheads",
        "col2": "Dallas Stars",
        "col3": "KalPa",
        "col4": "1994-02-26"
    },
    {
        "col0": "H. Ikonen",
        "col1": "Syracuse Crunch",
        "col2": "Tampa Bay Lightning",
        "col3": "KalPa",
        "col4": "1994-04-17"
    },
    {
        "col0": "H. Virta",
        "col1": "Hockey Club Lugano",
        "col2": "Buffalo Sabres",
        "col3": "National Hockey League",
        "col4": "1963-03-22"
    },
    {
        "col0": "G. Reinhart",
        "col1": "Bakersfield Condors",
        "col2": "New York Islanders",
        "col3": "New York Islanders",
        "col4": "1994-01-24"
    },
    {
        "col0": "G. Stewart",
        "col1": "Oklahoma City Barons",
        "col2": "Montreal Canadiens",
        "col3": "Montreal Canadiens",
        "col4": "1986-05-21"
    },
    {
        "col0": "G. Mulvey",
        "col1": "Calgary Centennials",
        "col2": "Chicago Blackhawks",
        "col3": "Chicago Blackhawks",
        "col4": "1956-09-17"
    },
    {
        "col0": "G. Wilson",
        "col1": "Wilkes-Barre/Scranton Penguins",
        "col2": "Florida Panthers",
        "col3": "Florida Panthers",
        "col4": "1991-03-16"
    },
    {
        "col0": "F. Claesson",
        "col1": "Binghamton Senators",
        "col2": "Ottawa Senators",
        "col3": "Djurgardens IF Hockey",
        "col4": "1992-11-24"
    },
    {
        "col0": "F. Beaubien",
        "col1": "Worcester Sharks",
        "col2": "Los Angeles Kings",
        "col3": "Ligue Magnus",
        "col4": "1975-04-01"
    },
    {
        "col0": "F. Ahl",
        "col1": "Regina Pats",
        "col2": "Ottawa Senators",
        "col3": "HV71",
        "col4": "1997-06-12"
    },
    {
        "col0": "E. Svechnikov",
        "col1": "Grand Rapids Griffins",
        "col2": "Detroit Red Wings",
        "col3": "Ak Bars Kazan",
        "col4": "1996-10-31"
    },
    {
        "col0": "E. Karlsson",
        "col1": "Charlotte Checkers",
        "col2": "Carolina Hurricanes",
        "col3": "Frolunda HC",
        "col4": "1994-07-28"
    },
    {
        "col0": "E. Gustafsson",
        "col1": "Rockford IceHogs",
        "col2": "Edmonton Oilers",
        "col3": "Frolunda HC",
        "col4": "1992-03-14"
    },
    {
        "col0": "E. Tangradi",
        "col1": "Grand Rapids Griffins",
        "col2": "Anaheim Ducks",
        "col3": "Pittsburgh Penguins",
        "col4": "1989-02-10"
    },
    {
        "col0": "D. Tokarski",
        "col1": "San Diego Gulls",
        "col2": "Tampa Bay Lightning",
        "col3": "Montreal Canadiens",
        "col4": "1989-09-16"
    },
    {
        "col0": "D. Simon",
        "col1": "Wilkes-Barre/Scranton Penguins",
        "col2": "Pittsburgh Penguins",
        "col3": "HC Sparta Praha",
        "col4": "1994-08-08"
    },
    {
        "col0": "D. Timashov",
        "col1": "Toronto Marlies",
        "col2": "Toronto Maple Leafs",
        "col3": "Modo Hockey",
        "col4": "1996-10-01"
    },
    {
        "col0": "D. Guryanov",
        "col1": "Texas Stars",
        "col2": "Dallas Stars",
        "col3": "HC Lada Togliatti",
        "col4": "1997-06-07"
    },
    {
        "col0": "D. Warsofsky",
        "col1": "Wilkes-Barre/Scranton Penguins",
        "col2": "St. Louis Blues",
        "col3": "Boston Bruins",
        "col4": "1990-05-30"
    },
    {
        "col0": "D. Zaar",
        "col1": "Cleveland Monsters",
        "col2": "Columbus Blue Jackets",
        "col3": "Lulea HF",
        "col4": "1994-04-24"
    },
    {
        "col0": "D. Pribyl",
        "col1": "Stockton Heat",
        "col2": "Montreal Canadiens",
        "col3": "HC Sparta Praha",
        "col4": "1992-12-18"
    },
    {
        "col0": "C. Cunningham",
        "col1": "Tucson Roadrunners",
        "col2": "Boston Bruins",
        "col3": "Boston Bruins",
        "col4": "1990-09-13"
    },
    {
        "col0": "C. Tropp",
        "col1": "San Diego Gulls",
        "col2": "Buffalo Sabres",
        "col3": "Buffalo Sabres",
        "col4": "1989-07-25"
    },
    {
        "col0": "C. Brickley",
        "col1": "Charlotte Checkers",
        "col2": "Florida Panthers",
        "col3": "Florida Panthers",
        "col4": "1992-02-25"
    },
    {
        "col0": "C. Greening",
        "col1": "Toronto Marlies",
        "col2": "Ottawa Senators",
        "col3": "Ottawa Senators",
        "col4": "1986-03-09"
    },
    {
        "col0": "C. Bertschy",
        "col1": "Iowa Wild",
        "col2": "Minnesota Wild",
        "col3": "SC Bern",
        "col4": "1994-04-05"
    },
    {
        "col0": "C. Djoos",
        "col1": "Hershey Bears",
        "col2": "Washington Capitals",
        "col3": "Brynas IF",
        "col4": "1994-08-06"
    },
    {
        "col0": "C. Butler",
        "col1": "Chicago Wolves",
        "col2": "Buffalo Sabres",
        "col3": "Buffalo Sabres",
        "col4": "1986-10-27"
    },
    {
        "col0": "C. Brown",
        "col1": "Hartford Wolf Pack",
        "col2": "Phoenix Coyotes",
        "col3": "Washington Capitals",
        "col4": "1991-02-03"
    },
    {
        "col0": "C. Bourque",
        "col1": "Hershey Bears",
        "col2": "Washington Capitals",
        "col3": "Boston Bruins",
        "col4": "1986-01-29"
    },
    {
        "col0": "C. Dahlstrom",
        "col1": "Rockford IceHogs",
        "col2": "Chicago Blackhawks",
        "col3": "Linkopings HC",
        "col4": "1995-01-28"
    },
    {
        "col0": "C. Gaunce",
        "col1": "Wilkes-Barre/Scranton Penguins",
        "col2": "Colorado Avalanche",
        "col3": "Colorado Avalanche",
        "col4": "1990-03-19"
    },
    {
        "col0": "C. Andersson",
        "col1": "Hartford Wolf Pack",
        "col2": "New York Rangers",
        "col3": "EV Zug",
        "col4": "1994-05-16"
    },
    {
        "col0": "B. Laich",
        "col1": "Toronto Marlies",
        "col2": "Ottawa Senators",
        "col3": "Ottawa Senators",
        "col4": "1983-06-23"
    },
    {
        "col0": "B. Sutter",
        "col1": "Springfield Thunderbirds",
        "col2": "Carolina Hurricanes",
        "col3": "Carolina Hurricanes",
        "col4": "1991-09-26"
    },
    {
        "col0": "B. Strait",
        "col1": "Manitoba Moose",
        "col2": "Pittsburgh Penguins",
        "col3": "Pittsburgh Penguins",
        "col4": "1988-01-04"
    },
    {
        "col0": "B. Gormley",
        "col1": "Albany Devils",
        "col2": "Phoenix Coyotes",
        "col3": "Arizona Coyotes",
        "col4": "1992-02-18"
    },
    {
        "col0": "B. Ryan",
        "col1": "Milwaukee Admirals",
        "col2": "Nashville Predators",
        "col3": "ECHL",
        "col4": "1988-10-16"
    },
    {
        "col0": "A. Lindholm",
        "col1": "San Antonio Rampage",
        "col2": "Colorado Avalanche",
        "col3": "Skelleftea AIK",
        "col4": "1994-11-29"
    },
    {
        "col0": "A. Forsberg",
        "col1": "Cleveland Monsters",
        "col2": "Columbus Blue Jackets",
        "col3": "Modo Hockey",
        "col4": "1992-11-27"
    },
    {
        "col0": "A. Blidh",
        "col1": "Providence Bruins",
        "col2": "Boston Bruins",
        "col3": "Frolunda HC",
        "col4": "1995-03-14"
    },
    {
        "col0": "A. MacWilliam",
        "col1": "Albany Devils",
        "col2": "Toronto Maple Leafs",
        "col3": "Toronto Maple Leafs",
        "col4": "1990-03-25"
    },
    {
        "col0": "A. Campbell",
        "col1": "Toronto Marlies",
        "col2": "Los Angeles Kings",
        "col3": "Arizona Coyotes",
        "col4": "1988-02-04"
    },
    {
        "col0": "A. Bodnarchuk",
        "col1": "Texas Stars",
        "col2": "Boston Bruins",
        "col3": "Boston Bruins",
        "col4": "1988-07-11"
    },
    {
        "col0": "A. Johnsson",
        "col1": "Toronto Marlies",
        "col2": "Toronto Maple Leafs",
        "col3": "Frolunda HC",
        "col4": "1987-12-11"
    },
    {
        "col0": "A. Grenier",
        "col1": "Utica Comets",
        "col2": "Vancouver Canucks",
        "col3": "EC Red Bull Salzburg",
        "col4": "1991-09-05"
    },
    {
        "col0": "A. Stalock",
        "col1": "Iowa Wild",
        "col2": "San Jose Sharks",
        "col3": "San Jose Sharks",
        "col4": "1987-07-28"
    },
    {
        "col0": "A. Friesen",
        "col1": "Chicago Wolves",
        "col2": "Vancouver Canucks",
        "col3": "Vancouver Canucks",
        "col4": "1991-01-30"
    },
    {
        "col0": "A. Kempe",
        "col1": "Ontario Reign",
        "col2": "Los Angeles Kings",
        "col3": "Modo Hockey",
        "col4": "1996-09-13"
    }
]