[
    {
        "col0": "E>>Iolani Palace",
        "col1": "Hawaii",
        "col2": "1879",
        "col3": "42896"
    },
    {
        "col0": "Yosemite Village Historic District",
        "col1": "National Park Service",
        "col2": "1855",
        "col3": "186155"
    },
    {
        "col0": "X-10 Graphite Reactor",
        "col1": "United States Department of Energy",
        "col2": "1943",
        "col3": "4046"
    },
    {
        "col0": "Woodlawn",
        "col1": "Hastings Center",
        "col2": "1854",
        "col3": "169967"
    },
    {
        "col0": "Woodford",
        "col1": "Fairmount Park Commission",
        "col2": "1756",
        "col3": "4046"
    },
    {
        "col0": "Windsor Ruins",
        "col1": "Mississippi Department of Archives and History",
        "col2": "1859",
        "col3": "8498"
    },
    {
        "col0": "William R. Cotter Federal Building",
        "col1": "General Services Administration",
        "col2": "1931",
        "col3": "6879"
    },
    {
        "col0": "William Howard Taft National Historic Site",
        "col1": "National Park Service",
        "col2": "1842",
        "col3": "12140"
    },
    {
        "col0": "William Floyd House",
        "col1": "National Park Service",
        "col2": "1774",
        "col3": "2472629"
    },
    {
        "col0": "Wilkin County Courthouse",
        "col1": "Wilkin County, Minnesota",
        "col2": "1928",
        "col3": "4046"
    },
    {
        "col0": "Wildcat Creek Bridge",
        "col1": "Lane County, Oregon",
        "col2": "1925",
        "col3": "529"
    },
    {
        "col0": "White Sands National Monument",
        "col1": "National Park Service",
        "col2": "1936",
        "col3": "581666814"
    },
    {
        "col0": "Weston and Gauley Bridge Turnpike",
        "col1": "United States Army Corps of Engineers",
        "col2": "1861",
        "col3": "109265"
    },
    {
        "col0": "Western Maryland Railroad Right-of-Way, Milepost 126 to Milepost 160",
        "col1": "National Park Service",
        "col2": "1903",
        "col3": "2023428"
    },
    {
        "col0": "West Point Mint",
        "col1": "United States Mint",
        "col2": "1937",
        "col3": "16187"
    },
    {
        "col0": "West Point Foundry",
        "col1": "Scenic Hudson",
        "col2": "1817",
        "col3": "376357"
    },
    {
        "col0": "Webb Horton House",
        "col1": "SUNY Orange",
        "col2": "1906",
        "col3": "20234"
    },
    {
        "col0": "Wawona Covered Bridge",
        "col1": "National Park Service",
        "col2": "1868",
        "col3": "4046"
    },
    {
        "col0": "Watervliet Arsenal",
        "col1": "United States Army",
        "col2": "1813",
        "col3": "574653"
    },
    {
        "col0": "Washington Square",
        "col1": "National Park Service",
        "col2": "1683",
        "col3": "25899"
    },
    {
        "col0": "Washington Road Elm Allee",
        "col1": "Princeton University",
        "col2": "1920",
        "col3": "24281"
    },
    {
        "col0": "Washington's headquarters, Newburgh, New York",
        "col1": "Palisades Interstate Park Commission",
        "col2": "1750",
        "col3": "28327"
    },
    {
        "col0": "Warner Parks",
        "col1": "Nashville Board of Parks and Recreation",
        "col2": "1927",
        "col3": "10780825"
    },
    {
        "col0": "Walter Hand House",
        "col1": "Cromwell Manor",
        "col2": "1870",
        "col3": "20234"
    },
    {
        "col0": "Walter Brewster House",
        "col1": "Southeast, New York",
        "col2": "1850",
        "col3": "8093"
    },
    {
        "col0": "Wallace Pratt Lodge",
        "col1": "National Park Service",
        "col2": "1930",
        "col3": "16187"
    },
    {
        "col0": "Walker Sisters Place",
        "col1": "National Park Service",
        "col2": "1840",
        "col3": "40468"
    },
    {
        "col0": "Wailuku Civic Center Historic District",
        "col1": "Maui County, Hawaii",
        "col2": "1907",
        "col3": "161874"
    },
    {
        "col0": "Vista House",
        "col1": "Oregon Parks and Recreation Department",
        "col2": "1918",
        "col3": "12140"
    },
    {
        "col0": "Virginia State Capitol",
        "col1": "Commonwealth of Virginia",
        "col2": "1785",
        "col3": "57060"
    },
    {
        "col0": "Virginia Robinson Gardens",
        "col1": "Los Angeles County",
        "col2": "1911",
        "col3": "25090"
    },
    {
        "col0": "Virginia Kendall State Park Historic District",
        "col1": "National Park Service",
        "col2": "1933",
        "col3": "2144833"
    },
    {
        "col0": "Villaran Bridge",
        "col1": "Puerto Rico Department of Transportation and Public Works",
        "col2": "1892",
        "col3": "149"
    },
    {
        "col0": "Villa Vizcaya",
        "col1": "Miami-Dade County, Florida",
        "col2": "1914",
        "col3": "174014"
    },
    {
        "col0": "Vicksburg National Military Park",
        "col1": "National Park Service",
        "col2": "1899",
        "col3": "7497813"
    },
    {
        "col0": "Venetian Pool",
        "col1": "Coral Gables, Florida",
        "col2": "1924",
        "col3": "16187"
    }
]