[
    {
        "col0": "CFTV-DT",
        "col1": "27",
        "col2": "Analog: 34 (2005-2012)",
        "col3": "CFTV-TV (2005-2012)"
    },
    {
        "col0": "CFTU-DT",
        "col1": "208",
        "col2": "29 (UHF), 1986-2012)",
        "col3": "CFTU-TV (1986-2012)"
    },
    {
        "col0": "CFTO-DT",
        "col1": "467",
        "col2": "9 (VHF, 1960-2011)",
        "col3": "CFTO-TV (1960-2011)"
    },
    {
        "col0": "CFTF-DT",
        "col1": "341",
        "col2": "29 (Analog, 1988-2011)",
        "col3": "CFTF-TV (1988-2011)"
    },
    {
        "col0": "CFSK-DT",
        "col1": "200",
        "col2": "Analog: 4 (VHF, 1987-2011)",
        "col3": "CFSK-TV (1987-2011)"
    },
    {
        "col0": "CFRN-DT",
        "col1": "228",
        "col2": "3 (VHF, 1954-2011)",
        "col3": "CFRN-TV (1954-2011)"
    },
    {
        "col0": "CFRE-DT",
        "col1": "300",
        "col2": "11 (VHF, 1987-2011)",
        "col3": "CFRE-TV (1987-2011)"
    },
    {
        "col0": "CFQC-DT",
        "col1": "267",
        "col2": "8 (VHF, 1954-2011)",
        "col3": "CFQC-TV (1954-2011)"
    },
    {
        "col0": "CFPL-DT",
        "col1": "241",
        "col2": "10 (VHF, 1953-2011)",
        "col3": "CFPL-TV (1953-2011)"
    },
    {
        "col0": "CFMT-DT",
        "col1": "501",
        "col2": "47 (UHF, 1979-2011)",
        "col3": "CFMT-TV (1979-2011)"
    },
    {
        "col0": "CFKS-DT",
        "col1": "591",
        "col2": "30 (Analog, 1986-2011)",
        "col3": "CFKS-TV (1986-2011)"
    }
]