[
    {
        "col0": "K. V. Erich",
        "col1": "United States",
        "col2": "1979-05-07",
        "col3": "1960-02-03"
    },
    {
        "col0": "K. Sonoda",
        "col1": "Mauritius",
        "col2": "1975-01-15",
        "col3": "1956-09-16"
    },
    {
        "col0": "J. Tsuruta",
        "col1": "Philippines",
        "col2": "1973-03-24",
        "col3": "1951-03-25"
    },
    {
        "col0": "J. Gonzalez",
        "col1": "Argentina",
        "col2": "1990-05-19",
        "col3": "1966-01-31"
    },
    {
        "col0": "J. Barend",
        "col1": "Avon, New York",
        "col2": "1949-11-01",
        "col3": "1929-03-27"
    },
    {
        "col0": "J. Olin",
        "col1": "Kansas City, Kansas",
        "col2": "1904-07-14",
        "col3": "1886-03-15"
    },
    {
        "col0": "J. Carkeek",
        "col1": "Cuba",
        "col2": "1877-07-05",
        "col3": "1861-01-22"
    },
    {
        "col0": "H. Fuyuki",
        "col1": "Japan",
        "col2": "1980-05-04",
        "col3": "1960-05-11"
    },
    {
        "col0": "Hayabusa",
        "col1": "Tokyo",
        "col2": "1987-11-02",
        "col3": "1968-11-29"
    },
    {
        "col0": "H. Meyers",
        "col1": "Baltimore",
        "col2": "1990-10-19",
        "col3": "1973-12-07"
    },
    {
        "col0": "G. Guerrero",
        "col1": "United States",
        "col2": "1937-09-14",
        "col3": "1921-01-11"
    },
    {
        "col0": "G. Baba",
        "col1": "Tokyo",
        "col2": "1960-09-30",
        "col3": "1938-01-23"
    },
    {
        "col0": "G. Kiniski",
        "col1": "Blaine, Washington",
        "col2": "1952-02-13",
        "col3": "1928-11-23"
    },
    {
        "col0": "F. Segura",
        "col1": "Mexico",
        "col2": "1934-01-18",
        "col3": "1907-11-10"
    },
    {
        "col0": "E. III",
        "col1": "Mexico",
        "col2": "1962-11-13",
        "col3": "1940-02-11"
    },
    {
        "col0": "E. Kado",
        "col1": "Japan",
        "col2": "1999-02-18",
        "col3": "1976-01-28"
    },
    {
        "col0": "D. Funk",
        "col1": "Amarillo, Texas",
        "col2": "1943-06-16",
        "col3": "1919-05-04"
    },
    {
        "col0": "D. V. Erich",
        "col1": "Japan",
        "col2": "1977-06-11",
        "col3": "1958-07-22"
    },
    {
        "col0": "D. McShain",
        "col1": "Alvin, Texas",
        "col2": "1930-10-30",
        "col3": "1912-10-30"
    },
    {
        "col0": "D. Quirk",
        "col1": "Taunton, Massachusetts",
        "col2": "2002-07-21",
        "col3": "1982-07-19"
    },
    {
        "col0": "C. Kanyon",
        "col1": "Sunnyside, Queens",
        "col2": "1992-04-05",
        "col3": "1970-01-04"
    },
    {
        "col0": "C. Ca$h",
        "col1": "Glassboro, New Jersey",
        "col2": "2001-09-08",
        "col3": "1982-07-13"
    },
    {
        "col0": "A. Hara",
        "col1": "Isahaya, Nagasaki",
        "col2": "1978-06-23",
        "col3": "1947-01-08"
    },
    {
        "col0": "A. Barr",
        "col1": "Springfield, Oregon",
        "col2": "1987-04-02",
        "col3": "1966-10-08"
    },
    {
        "col0": "A. Gouldie",
        "col1": "Knoxville, Tennessee",
        "col2": "1962-11-02",
        "col3": "1936-11-22"
    },
    {
        "col0": "A. Coage",
        "col1": "Alberta",
        "col2": "1977-10-23",
        "col3": "1943-10-22"
    },
    {
        "col0": "A. Tomko",
        "col1": "Winnipeg",
        "col2": "1954-07-09",
        "col3": "1931-11-22"
    }
]