[
    {
        "col0": "Van Wagenen House",
        "col1": "Jersey City, New Jersey",
        "col2": "1750",
        "col3": "2023"
    },
    {
        "col0": "Upsala",
        "col1": "Cliveden",
        "col2": "1798",
        "col3": "4046"
    },
    {
        "col0": "University of Florida Campus Historic District",
        "col1": "University of Florida",
        "col2": "1906",
        "col3": "2630456"
    },
    {
        "col0": "University of Arkansas Chemistry Building",
        "col1": "University of Arkansas",
        "col2": "1935",
        "col3": "7284"
    },
    {
        "col0": "University of Arkansas Agriculture Building",
        "col1": "University of Arkansas",
        "col2": "1927",
        "col3": "7284"
    },
    {
        "col0": "United States Post Office-South Norwalk Main",
        "col1": "United States Postal Service",
        "col2": "1936",
        "col3": "5260"
    },
    {
        "col0": "United States Post Office-Lancaster Main",
        "col1": "United States Postal Service",
        "col2": "1935",
        "col3": "1618"
    },
    {
        "col0": "United States Post Office and Customhouse",
        "col1": "U.S. Postal Service",
        "col2": "1910",
        "col3": "4046"
    },
    {
        "col0": "United States Post Office and Courthouse",
        "col1": "General Services Administration",
        "col2": "1933",
        "col3": "5665"
    },
    {
        "col0": "United States Post Office and Courthouse",
        "col1": "United States Postal Service",
        "col2": "1933",
        "col3": "5665"
    },
    {
        "col0": "United States Post Office and Courthouse",
        "col1": "General Services Administration",
        "col2": "1896",
        "col3": "5260"
    },
    {
        "col0": "United States Post Office and Courthouse",
        "col1": "General Services Administration",
        "col2": "1930",
        "col3": "5260"
    },
    {
        "col0": "United States Post Office",
        "col1": "General Services Administration",
        "col2": "1913",
        "col3": "6070"
    },
    {
        "col0": "United States Post Office",
        "col1": "United States Postal Service",
        "col2": "1915",
        "col3": "2023"
    },
    {
        "col0": "United States Post Office, Courthouse, and Federal Office Building",
        "col1": "General Services Administration",
        "col2": "1912",
        "col3": "8093"
    },
    {
        "col0": "United States Post Office-South Norwalk Main",
        "col1": "United States Postal Service",
        "col2": "1936",
        "col3": "5260"
    },
    {
        "col0": "United States Post Office-Lancaster Main",
        "col1": "United States Postal Service",
        "col2": "1935",
        "col3": "1618"
    },
    {
        "col0": "United States Oval Historic District",
        "col1": "U.S. Air Force",
        "col2": "1893",
        "col3": "214483"
    },
    {
        "col0": "United States General Services Administration Building",
        "col1": "General Services Administration",
        "col2": "1917",
        "col3": "14568"
    },
    {
        "col0": "United States Customhouse and Post Office",
        "col1": "General Services Administration",
        "col2": "1858",
        "col3": "4046"
    },
    {
        "col0": "United States Customhouse",
        "col1": "General Services Administration",
        "col2": "1848",
        "col3": "0"
    },
    {
        "col0": "United States Customhouse",
        "col1": "General Services Administration",
        "col2": "1911",
        "col3": "6879"
    },
    {
        "col0": "United States Customhouse",
        "col1": "General Services Administration",
        "col2": "1907",
        "col3": "8093"
    },
    {
        "col0": "United States Customhouse",
        "col1": "General Services Administration",
        "col2": "1931",
        "col3": "9712"
    },
    {
        "col0": "United States Custom House",
        "col1": "General Services Administration",
        "col2": "1848",
        "col3": "9307"
    },
    {
        "col0": "United States Custom House",
        "col1": "General Services Administration",
        "col2": "1903",
        "col3": "4046"
    },
    {
        "col0": "Union Civil War Fortification",
        "col1": "United States Army Corps of Engineers",
        "col2": "1861",
        "col3": "16592"
    },
    {
        "col0": "US General Accounting Office Building",
        "col1": "Comptroller General of the United States",
        "col2": "1951",
        "col3": "20234"
    },
    {
        "col0": "Tyson McCarter Place",
        "col1": "National Park Service",
        "col2": "1876",
        "col3": "4046"
    },
    {
        "col0": "Trinity Cathedral",
        "col1": "Episcopal Church",
        "col2": "1901",
        "col3": "4046"
    },
    {
        "col0": "Trapps Mountain Hamlet Historic District",
        "col1": "Mohonk Preserve",
        "col2": "1790",
        "col3": "1752288"
    },
    {
        "col0": "Tousley-Church House",
        "col1": "Daughters of the American Revolution",
        "col2": "1840",
        "col3": "3237"
    },
    {
        "col0": "Torrens Bridge",
        "col1": "Puerto Rico Department of Transportation and Public Works",
        "col2": "1878",
        "col3": "100"
    },
    {
        "col0": "Tioga Pass Entrance Station",
        "col1": "National Park Service",
        "col2": "1931",
        "col3": "809"
    },
    {
        "col0": "Thornden Park",
        "col1": "Syracuse, New York",
        "col2": "1875",
        "col3": "307561"
    },
    {
        "col0": "Thomas Edison National Historical Park",
        "col1": "National Park Service",
        "col2": "1887",
        "col3": "85995"
    },
    {
        "col0": "Theodore Roosevelt Birthplace National Historic Site",
        "col1": "National Park Service",
        "col2": "1848",
        "col3": "445"
    },
    {
        "col0": "The Caverns Historic District",
        "col1": "National Park Service",
        "col2": "1927",
        "col3": "52609"
    },
    {
        "col0": "Thaddeus Kosciuszko National Memorial",
        "col1": "National Park Service",
        "col2": "1775",
        "col3": "80"
    },
    {
        "col0": "Texas Technological College Historic District",
        "col1": "Texas Tech University",
        "col2": "1924",
        "col3": "445154"
    },
    {
        "col0": "Teatro Yaguez",
        "col1": "Mayaguez, Puerto Rico",
        "col2": "1909",
        "col3": "809"
    },
    {
        "col0": "Taliesin West",
        "col1": "Frank Lloyd Wright Foundation",
        "col2": "1937",
        "col3": "2509050"
    },
    {
        "col0": "Tabor-Wing House",
        "col1": "Dover, New York",
        "col2": "1810",
        "col3": "2023"
    },
    {
        "col0": "Sylvanus Wade House",
        "col1": "Wisconsin Historical Society",
        "col2": "1849",
        "col3": "1618"
    },
    {
        "col0": "Sunnyside",
        "col1": "Historic Hudson Valley",
        "col2": "1835",
        "col3": "40468"
    },
    {
        "col0": "Sumpter Valley Gold Dredge",
        "col1": "Oregon Parks and Recreation Department",
        "col2": "1935",
        "col3": "20234"
    },
    {
        "col0": "Storm King Highway",
        "col1": "New York State Department of Transportation",
        "col2": "1916",
        "col3": "72843"
    },
    {
        "col0": "Stony Kill Farm",
        "col1": "New York State Department of Environmental Conservation",
        "col2": "18",
        "col3": "3059423"
    },
    {
        "col0": "Stewart Indian School",
        "col1": "Nevada",
        "col2": "1890",
        "col3": "441107"
    },
    {
        "col0": "Stenton",
        "col1": "Colonial Dames of Pennsylvania",
        "col2": "1723",
        "col3": "12140"
    },
    {
        "col0": "Steepletop",
        "col1": "Millay Colony for the Arts",
        "col2": "1870",
        "col3": "2023428"
    },
    {
        "col0": "St. Mary's Church",
        "col1": "Roman Catholic Church",
        "col2": "1848",
        "col3": "3237"
    },
    {
        "col0": "St. Mary's Church",
        "col1": "Roman Catholic Diocese of Arlington",
        "col2": "1858",
        "col3": "9307"
    },
    {
        "col0": "St. Mark's Episcopal Church",
        "col1": "Episcopal Diocese of South Carolina",
        "col2": "1855",
        "col3": "8093"
    },
    {
        "col0": "St. Mark's Episcopal Church",
        "col1": "Episcopal Diocese of New Hampshire",
        "col2": "1899",
        "col3": "3237"
    },
    {
        "col0": "St. Joseph's on the Brandywine",
        "col1": "Catholic Church",
        "col2": "1841",
        "col3": "8093"
    },
    {
        "col0": "St. Joseph's Church",
        "col1": "Roman Catholic Church",
        "col2": "1883",
        "col3": "2023"
    },
    {
        "col0": "St. Croix Boom Site",
        "col1": "Minnesota Department of Natural Resources",
        "col2": "1856",
        "col3": "105622"
    },
    {
        "col0": "St. Anselm's Catholic Church, Rectory and Parish Hall",
        "col1": "Roman Catholic Diocese of Grand Island",
        "col2": "1905",
        "col3": "29542"
    },
    {
        "col0": "St. Andrew's Episcopal Church",
        "col1": "Episcopal Diocese of Alabama",
        "col2": "1853",
        "col3": "12140"
    },
    {
        "col0": "Springfield National Cemetery",
        "col1": "U.S. Department of Veterans Affairs",
        "col2": "1867",
        "col3": "73248"
    },
    {
        "col0": "Springfield Mill",
        "col1": "Morris Arboretum",
        "col2": "1845",
        "col3": "20234"
    },
    {
        "col0": "Snow Hill",
        "col1": "Maryland-National Capital Park and Planning Commission",
        "col2": "1800",
        "col3": "40468"
    },
    {
        "col0": "Smithfield",
        "col1": "Preservation Virginia",
        "col2": "1773",
        "col3": "18210"
    },
    {
        "col0": "Smith Clove Meetinghouse",
        "col1": "Cornwall Friends Meeting House",
        "col2": "1803",
        "col3": "8093"
    },
    {
        "col0": "Sloat's Dam and Mill Pond",
        "col1": "Rockland County, New York",
        "col2": "1792",
        "col3": "60702"
    },
    {
        "col0": "Slabsides",
        "col1": "John Burroughs Association",
        "col2": "1895",
        "col3": "687965"
    },
    {
        "col0": "Simler Hall",
        "col1": "United States Air Force",
        "col2": "1927",
        "col3": "5665"
    },
    {
        "col0": "Shortridge High School",
        "col1": "Indianapolis Public Schools",
        "col2": "1927",
        "col3": "44110"
    },
    {
        "col0": "Sherman Hall",
        "col1": "Western Illinois University",
        "col2": "1900",
        "col3": "25090"
    },
    {
        "col0": "Seven Pines",
        "col1": "U.S. Department of Veterans Affairs",
        "col2": "1866",
        "col3": "7689"
    },
    {
        "col0": "Sellwood Branch YMCA",
        "col1": "Portland Parks & Recreation",
        "col2": "1910",
        "col3": "930"
    },
    {
        "col0": "Scotchtown",
        "col1": "Preservation Virginia",
        "col2": "1717",
        "col3": "165921"
    },
    {
        "col0": "Schenectady Armory",
        "col1": "New York Division of Military and Naval Affairs",
        "col2": "1936",
        "col3": "7689"
    },
    {
        "col0": "Schellsburg Historic District",
        "col1": "Federal architecture",
        "col2": "1808",
        "col3": "186155"
    },
    {
        "col0": "Saratoga Gas, Electric Light and Power Company Complex",
        "col1": "Niagara Mohawk",
        "col2": "1873",
        "col3": "28327"
    },
    {
        "col0": "Santiago E. Campos United States Courthouse",
        "col1": "General Services Administration",
        "col2": "1889",
        "col3": "12140"
    },
    {
        "col0": "Santa Fe Railway Shops",
        "col1": "Albuquerque, New Mexico",
        "col2": "1915",
        "col3": "109265"
    },
    {
        "col0": "Sandusky House",
        "col1": "Lynchburg College",
        "col2": "1808",
        "col3": "15378"
    },
    {
        "col0": "San Jacinto Battleground State Historic Site",
        "col1": "Texas Parks and Wildlife Department",
        "col2": "1836",
        "col3": "4856227"
    },
    {
        "col0": "San Francisco Bay Discovery Site",
        "col1": "National Park Service",
        "col2": "1769",
        "col3": "73652"
    },
    {
        "col0": "Saltsburg Historic District",
        "col1": "Federal architecture",
        "col2": "1829",
        "col3": "194249"
    },
    {
        "col0": "Salinas Pueblo Missions National Monument",
        "col1": "National Park Service",
        "col2": "1629",
        "col3": "4358059"
    },
    {
        "col0": "Saint Paul's Church National Historic Site",
        "col1": "National Park Service",
        "col2": "1765",
        "col3": "24281"
    },
    {
        "col0": "Saint-Gaudens National Historic Site",
        "col1": "National Park Service",
        "col2": "1817",
        "col3": "708199"
    },
    {
        "col0": "Sagamore Hill",
        "col1": "National Park Service",
        "col2": "1884",
        "col3": "335970"
    },
    {
        "col0": "Rutherfurd Hall",
        "col1": "Allamuchy Township School District",
        "col2": "1902",
        "col3": "139211"
    },
    {
        "col0": "Royal Blockhouse",
        "col1": "Archaeological Conservancy",
        "col2": "1758",
        "col3": "48562"
    },
    {
        "col0": "Rosecliff",
        "col1": "Preservation Society of Newport County",
        "col2": "1898",
        "col3": "26304"
    },
    {
        "col0": "Rockefeller Center",
        "col1": "Tishman Speyer Properties",
        "col2": "1930",
        "col3": "89030"
    },
    {
        "col0": "Rock House-Custodian's Residence",
        "col1": "National Park Service",
        "col2": "1937",
        "col3": "4046"
    },
    {
        "col0": "Robie House",
        "col1": "University of Chicago",
        "col2": "1909",
        "col3": "1214"
    },
    {
        "col0": "Robert C. McEwen United States Custom House",
        "col1": "General Services Administration",
        "col2": "1809",
        "col3": "8093"
    },
    {
        "col0": "Rim Village Historic District",
        "col1": "National Park Service",
        "col2": "1909",
        "col3": "153780"
    },
    {
        "col0": "Richmond National Cemetery",
        "col1": "U.S. Department of Veterans Affairs",
        "col2": "1866",
        "col3": "39254"
    },
    {
        "col0": "Richards Medical Research Laboratories",
        "col1": "University of Pennsylvania",
        "col2": "1965",
        "col3": "11331"
    },
    {
        "col0": "Richard H. Chambers United States Court of Appeals",
        "col1": "General Services Administration",
        "col2": "1920",
        "col3": "52609"
    },
    {
        "col0": "Rhea County Courthouse",
        "col1": "Rhea County, Tennessee",
        "col2": "1891",
        "col3": "14973"
    },
    {
        "col0": "Redstone Coke Oven Historic District",
        "col1": "Pitkin County, Colorado",
        "col2": "1899",
        "col3": "16187"
    },
    {
        "col0": "Randall Junior High School",
        "col1": "Corcoran Gallery of Art",
        "col2": "1906",
        "col3": "10926"
    },
    {
        "col0": "Rabideau CCC Camp",
        "col1": "U.S. Forest Service",
        "col2": "1935",
        "col3": "76080"
    },
    {
        "col0": "Puunene School",
        "col1": "Hawai'i Department of Education",
        "col2": "1922",
        "col3": "44110"
    },
    {
        "col0": "Putnam County Courthouse",
        "col1": "Putnam County, New York",
        "col2": "1814",
        "col3": "2023"
    },
    {
        "col0": "Provo Tabernacle",
        "col1": "The Church of Jesus Christ of Latter-day Saints",
        "col2": "1883",
        "col3": "4046"
    },
    {
        "col0": "Proprietary House",
        "col1": "New Jersey",
        "col2": "1762",
        "col3": "2428"
    },
    {
        "col0": "Pressmen's Home, Tennessee",
        "col1": "Hawkins County, Tennessee",
        "col2": "1910",
        "col3": "263045"
    },
    {
        "col0": "Pollepel Island",
        "col1": "Sullivan Act",
        "col2": "1901",
        "col3": "54227"
    },
    {
        "col0": "Plaza Ferdinand VII",
        "col1": "Historic Pensacola Village",
        "col2": "1815",
        "col3": "8093"
    },
    {
        "col0": "Playland",
        "col1": "Westchester County, New York",
        "col2": "1928",
        "col3": "1133119"
    },
    {
        "col0": "Pevely Dairy Company Plant",
        "col1": "Saint Louis University",
        "col2": "1915",
        "col3": "32374"
    },
    {
        "col0": "Petersen House",
        "col1": "National Park Service",
        "col2": "1849",
        "col3": "1173"
    },
    {
        "col0": "Pete French Round Barn",
        "col1": "Oregon Parks and Recreation Department",
        "col2": "1875",
        "col3": "20234"
    },
    {
        "col0": "Perry Point Mansion House and Mill",
        "col1": "United States Department of Veterans Affairs",
        "col2": "1750",
        "col3": "72843"
    },
    {
        "col0": "Peoria City Hall",
        "col1": "Peoria, Illinois",
        "col2": "1897",
        "col3": "3237"
    },
    {
        "col0": "Pengra Bridge",
        "col1": "Lane County, Oregon",
        "col2": "1938",
        "col3": "780"
    },
    {
        "col0": "Patowmack Canal",
        "col1": "National Park Service",
        "col2": "1786",
        "col3": "101171"
    },
    {
        "col0": "Palm Circle",
        "col1": "United States Army",
        "col2": "1907",
        "col3": "129499"
    },
    {
        "col0": "Owen B. Pickett United States Custom House",
        "col1": "U.S. Department of the Treasury",
        "col2": "1852",
        "col3": "40063"
    },
    {
        "col0": "Orleans County Courthouse Historic District",
        "col1": "Orleans County, New York",
        "col2": "1830",
        "col3": "60702"
    },
    {
        "col0": "Oregon Trail, Wells Springs Segment",
        "col1": "Naval Air Station Whidbey Island",
        "col2": "19",
        "col3": "1577059"
    },
    {
        "col0": "Oregon Caves Historic District",
        "col1": "National Park Service",
        "col2": "1926",
        "col3": "44515"
    },
    {
        "col0": "Orange Mill Historic District",
        "col1": "Orange County, New York",
        "col2": "19",
        "col3": "809371"
    },
    {
        "col0": "Operation Crossbow Site",
        "col1": "United States Air Force",
        "col2": "1944",
        "col3": "56655"
    },
    {
        "col0": "Old Town San Diego State Historic Park",
        "col1": "California State Parks",
        "col2": "1825",
        "col3": "117682"
    },
    {
        "col0": "Old Stone House",
        "col1": "National Park Service",
        "col2": "1765",
        "col3": "1618"
    },
    {
        "col0": "Old Idaho State Penitentiary",
        "col1": "Idaho",
        "col2": "1870",
        "col3": "2063896"
    },
    {
        "col0": "Old First Presbyterian Church",
        "col1": "The National Society of the Colonial Dames of America",
        "col2": "1740",
        "col3": "4046"
    },
    {
        "col0": "Old Economy Village",
        "col1": "Pennsylvania Historical and Museum Commission",
        "col2": "1824",
        "col3": "20234"
    },
    {
        "col0": "Old Chief Joseph Gravesite",
        "col1": "National Park Service",
        "col2": "1877",
        "col3": "20234"
    },
    {
        "col0": "Old Albany Academy Building",
        "col1": "Albany City School District",
        "col2": "1815",
        "col3": "4046"
    },
    {
        "col0": "Olana State Historic Site",
        "col1": "New York State Office of Parks, Recreation and Historic Preservation",
        "col2": "1872",
        "col3": "1012523"
    },
    {
        "col0": "Olallie Lake Guard Station",
        "col1": "United States Forest Service",
        "col2": "1939",
        "col3": "3723"
    },
    {
        "col0": "Oklahoma City National Memorial",
        "col1": "National Park Service",
        "col2": "1997",
        "col3": "12626"
    },
    {
        "col0": "Ohio and Erie Canal",
        "col1": "National Park Service",
        "col2": "1825",
        "col3": "99147"
    },
    {
        "col0": "Oblong Friends Meeting House",
        "col1": "Pawling",
        "col2": "1763",
        "col3": "4046"
    },
    {
        "col0": "Oatlands Plantation",
        "col1": "National Trust for Historic Preservation",
        "col2": "1804",
        "col3": "1679445"
    },
    {
        "col0": "North Manitou Island Lifesaving Station",
        "col1": "National Park Service",
        "col2": "1854",
        "col3": "12140"
    },
    {
        "col0": "North Main Street School",
        "col1": "Rockland Community College",
        "col2": "1916",
        "col3": "10117"
    },
    {
        "col0": "Nightingale-Brown House",
        "col1": "Brown University",
        "col2": "1792",
        "col3": "4046"
    },
    {
        "col0": "Nicholas Marnach House",
        "col1": "Minnesota Department of Natural Resources",
        "col2": "1857",
        "col3": "4046"
    },
    {
        "col0": "Nicholas Jarrot Mansion",
        "col1": "Illinois Historic Preservation Agency",
        "col2": "1799",
        "col3": "4046"
    },
    {
        "col0": "New York State Canal System",
        "col1": "New York State Canal Corporation",
        "col2": "1905",
        "col3": "95052563"
    },
    {
        "col0": "New Windsor Cantonment State Historic Site",
        "col1": "Palisades Interstate Park Commission",
        "col2": "1782",
        "col3": "9206598"
    },
    {
        "col0": "New Bern National Cemetery",
        "col1": "U. S. Department of Veterans Affairs",
        "col2": "1867",
        "col3": "31160"
    },
    {
        "col0": "New Bedford Whaling National Historical Park",
        "col1": "National Park Service",
        "col2": "1790",
        "col3": "137593"
    },
    {
        "col0": "New Bedford Historic District",
        "col1": "National Park Service",
        "col2": "1790",
        "col3": "79318"
    },
    {
        "col0": "Mystic Valley Parkway",
        "col1": "Department of Conservation and Recreation",
        "col2": "1936",
        "col3": "89030"
    },
    {
        "col0": "Munson Valley Historic District",
        "col1": "National Park Service",
        "col2": "1926",
        "col3": "24281"
    },
    {
        "col0": "Morrow Plots",
        "col1": "UIUC College of Agriculture, Consumer, and Environmental Sciences",
        "col2": "1876",
        "col3": "3237"
    },
    {
        "col0": "Morristown National Historical Park",
        "col1": "National Park Service",
        "col2": "1744",
        "col3": "6924171"
    },
    {
        "col0": "Moore's Crossing Historic District",
        "col1": "Travis County, Texas",
        "col2": "1871",
        "col3": "1234291"
    },
    {
        "col0": "Montpelier Mansion",
        "col1": "Maryland-National Capital Park and Planning Commission",
        "col2": "1748",
        "col3": "445154"
    },
    {
        "col0": "Montgomery Place",
        "col1": "Historic Hudson Valley",
        "col2": "1803",
        "col3": "1756335"
    },
    {
        "col0": "Milton Railroad Station",
        "col1": "Marlborough, New York",
        "col2": "1883",
        "col3": "2468"
    },
    {
        "col0": "Milton Historic District",
        "col1": "Federal architecture",
        "col2": "1852",
        "col3": "408732"
    },
    {
        "col0": "Millville, Illinois",
        "col1": "Illinois Department of Natural Resources",
        "col2": "1835",
        "col3": "101171"
    },
    {
        "col0": "Mercersburg Historic District",
        "col1": "Federal architecture",
        "col2": "1759",
        "col3": "145686"
    },
    {
        "col0": "Memorial Gymnasium",
        "col1": "University of Idaho",
        "col2": "28",
        "col3": "1214"
    },
    {
        "col0": "Melrose",
        "col1": "National Park Service",
        "col2": "1848",
        "col3": "1393"
    },
    {
        "col0": "McLean House",
        "col1": "National Park Service",
        "col2": "1848",
        "col3": "7284341"
    },
    {
        "col0": "McGolrick Park",
        "col1": "New York City Parks Department",
        "col2": "1910",
        "col3": "36826"
    },
    {
        "col0": "Mayslake Peabody Estate",
        "col1": "Forest Preserve District of DuPage County",
        "col2": "1919",
        "col3": "352076"
    },
    {
        "col0": "Maxwell Air Force Base Senior Officers' Quarters Historic District",
        "col1": "United States Air Force",
        "col2": "1932",
        "col3": "327795"
    },
    {
        "col0": "Martinsville Historic District",
        "col1": "Federal architecture",
        "col2": "1883",
        "col3": "184131"
    },
    {
        "col0": "Martin Van Buren National Historic Site",
        "col1": "National Park Service",
        "col2": "1841",
        "col3": "505857"
    },
    {
        "col0": "Martin Luther King Jr. National Historic Site",
        "col1": "National Park Service",
        "col2": "1929",
        "col3": "52771"
    },
    {
        "col0": "Marion Steam Shovel",
        "col1": "Le Roy",
        "col2": "1911",
        "col3": "404"
    },
    {
        "col0": "Marine Mill",
        "col1": "Minnesota Historical Society",
        "col2": "1839",
        "col3": "28327"
    },
    {
        "col0": "Marietta National Cemetery",
        "col1": "U.S. Department of Veterans Affairs",
        "col2": "1866",
        "col3": "93887"
    },
    {
        "col0": "Marietta",
        "col1": "Maryland-National Capital Park and Planning Commission",
        "col2": "1812",
        "col3": "97124"
    },
    {
        "col0": "Mariah Wright House",
        "col1": "National Park Service",
        "col2": "1823",
        "col3": "7284341"
    },
    {
        "col0": "Manzanar",
        "col1": "National Park Service",
        "col2": "1942",
        "col3": "3294141"
    },
    {
        "col0": "Manship House",
        "col1": "Mississippi Department of Archives and History",
        "col2": "1857",
        "col3": "16187"
    },
    {
        "col0": "Manitou Camp",
        "col1": "National Park Service",
        "col2": "1890",
        "col3": "11735"
    },
    {
        "col0": "Malad Second Ward Tabernacle",
        "col1": "The Church of Jesus Christ of Latter-day Saints",
        "col2": "1914",
        "col3": "4046"
    },
    {
        "col0": "Main Street Historic District",
        "col1": "Marbletown, New York",
        "col2": "1750",
        "col3": "283279"
    },
    {
        "col0": "Main Interior Building",
        "col1": "General Services Administration",
        "col2": "1936",
        "col3": "20234"
    },
    {
        "col0": "Mahonia Hall",
        "col1": "Government of Oregon",
        "col2": "1924",
        "col3": "3277"
    },
    {
        "col0": "M. Lloyd Frank Estate",
        "col1": "Lewis & Clark College",
        "col2": "1924",
        "col3": "34398"
    },
    {
        "col0": "Lyndhurst",
        "col1": "National Trust for Historic Preservation",
        "col2": "1838",
        "col3": "271139"
    },
    {
        "col0": "Lyceum-The Circle Historic District",
        "col1": "Mississippi",
        "col2": "1848",
        "col3": "40468"
    },
    {
        "col0": "Lummis House",
        "col1": "City of Los Angeles",
        "col2": "1897",
        "col3": "12140"
    },
    {
        "col0": "Longwood House",
        "col1": "Longwood University",
        "col2": "1815",
        "col3": "16187"
    },
    {
        "col0": "Long Valley Farm",
        "col1": "North Carolina Division of Parks and Recreation",
        "col2": "1937",
        "col3": "5665598"
    },
    {
        "col0": "Logan Utah Temple",
        "col1": "The Church of Jesus Christ of Latter-day Saints",
        "col2": "1884",
        "col3": "32374"
    },
    {
        "col0": "Logan Tabernacle",
        "col1": "The Church of Jesus Christ of Latter-day Saints",
        "col2": "1891",
        "col3": "32374"
    },
    {
        "col0": "Logan/Esterly Upper Ditch",
        "col1": "Bureau of Land Management",
        "col2": "1854",
        "col3": "422107"
    },
    {
        "col0": "Little Rock National Cemetery",
        "col1": "United States Department of Veterans Affairs",
        "col2": "1868",
        "col3": "124238"
    },
    {
        "col0": "Little Red Schoolhouse",
        "col1": "Brunswick",
        "col2": "1830",
        "col3": "4046"
    },
    {
        "col0": "Lithia Park",
        "col1": "Ashland, Oregon",
        "col2": "1892",
        "col3": "376357"
    },
    {
        "col0": "Lincoln Memorial",
        "col1": "National Park Service",
        "col2": "1914",
        "col3": "2539"
    },
    {
        "col0": "Lincoln Boyhood National Memorial",
        "col1": "National Park Service",
        "col2": "1816",
        "col3": "809371"
    },
    {
        "col0": "Lebanon National Cemetery",
        "col1": "U.S. Department of Veterans Affairs",
        "col2": "1863",
        "col3": "11331"
    },
    {
        "col0": "Laredo United States Post Office, Court House and Custom House",
        "col1": "General Services Administration",
        "col2": "1907",
        "col3": "4046"
    },
    {
        "col0": "Landsford Canal",
        "col1": "South Carolina",
        "col2": "1820",
        "col3": "2670925"
    },
    {
        "col0": "Landmark Inn State Historic Site",
        "col1": "Texas Historical Commission",
        "col2": "1849",
        "col3": "20234"
    }
]