[
    {
        "col0": "W. A. Clark",
        "col1": "Copper King Mansion",
        "col2": "William Andrews Clark, Jr.",
        "col3": "Woodlawn Cemetery",
        "col4": "Connellsville, Pennsylvania",
        "col5": "1839-01-08"
    },
    {
        "col0": "J. E. Howard",
        "col1": "Maryland",
        "col2": "B. C. Howard",
        "col3": "Baltimore, Maryland",
        "col4": "Baltimore County, Maryland",
        "col5": "1752-06-04"
    },
    {
        "col0": "J. G. Fair",
        "col1": "San Francisco",
        "col2": "V. F. Vanderbilt",
        "col3": "Holy Cross Cemetery, Colma",
        "col4": "Clogher",
        "col5": "1831-12-03"
    },
    {
        "col0": "H. Marshall",
        "col1": "Glen Willis",
        "col2": "T. A. Marshall",
        "col3": "Glen Willis",
        "col4": "Orlean, Virginia",
        "col5": "1760-6-7"
    },
    {
        "col0": "E. Boardman",
        "col1": "Litchfield, Connecticut",
        "col2": "W. W. Boardman",
        "col3": "Connecticut",
        "col4": "Connecticut Colony",
        "col5": "1760-03-07"
    },
    {
        "col0": "C. C. Ridgely",
        "col1": "Maryland",
        "col2": "E. Ridgely",
        "col3": "Hampton National Historic Site",
        "col4": "Baltimore County, Maryland",
        "col5": "1760-12-06"
    }
]