[
    {
        "col0": "Siege of Arai",
        "col1": "Sagami Province",
        "col2": "Sengoku period",
        "col3": "Hojo victory",
        "col4": "6,000"
    },
    {
        "col0": "Siege of Aracillum",
        "col1": "Cantabria",
        "col2": "Cantabrian Wars",
        "col3": "Roman victory",
        "col4": "15,000-25,000 warriors"
    },
    {
        "col0": "Siege of Apia",
        "col1": "Pacific Ocean",
        "col2": "Second Samoan Civil War",
        "col3": "Allied victory",
        "col4": "1corvette"
    },
    {
        "col0": "Siege of Antwerp",
        "col1": "Antwerp",
        "col2": "Western Front",
        "col3": "* Belgian army withdraws toYser river",
        "col4": "63,000 garrison troops"
    },
    {
        "col0": "Siege of Antwerp",
        "col1": "Belgium",
        "col2": "Belgian Revolution",
        "col3": "French victory",
        "col4": "4,500"
    },
    {
        "col0": "Siege of Antioch",
        "col1": "Antioch",
        "col2": "Roman-Persian wars",
        "col3": "Sassanidvictory",
        "col4": "unknown"
    },
    {
        "col0": "Siege of Annapolis Royal",
        "col1": "Annapolis Royal, Nova Scotia",
        "col2": "King George's War",
        "col3": "British victory",
        "col4": "250?"
    },
    {
        "col0": "Siege of Annapolis Royal",
        "col1": "Annapolis Royal, Nova Scotia",
        "col2": "King George's War",
        "col3": "British victory",
        "col4": "100 (first siege)"
    },
    {
        "col0": "Siege of Angers",
        "col1": "Angers",
        "col2": "War in the Vendee",
        "col3": "Republican victory",
        "col4": "15 000 to 20 000 men"
    },
    {
        "col0": "Siege of Ancona",
        "col1": "Ancona",
        "col2": "Neapolitan War",
        "col3": "Anglo-Austrian victory",
        "col4": "1,500"
    },
    {
        "col0": "Siege of Amirli",
        "col1": "Amirli",
        "col2": "Military intervention against ISIL",
        "col3": "(Allies break the siege)",
        "col4": "Badr Brigades: 4,000"
    },
    {
        "col0": "Siege of Amiens",
        "col1": "Kingdom of France",
        "col2": "Franco-Spanish War",
        "col3": "*Peace of Vervins",
        "col4": "* (4,200 English)"
    },
    {
        "col0": "Siege of Amida",
        "col1": "Mesopotamia",
        "col2": "Roman-Persian Wars",
        "col3": "DecisiveSassanidvictory",
        "col4": "Albani"
    },
    {
        "col0": "Siege of Almeida",
        "col1": "Almeida, Portugal",
        "col2": "Peninsular War",
        "col3": "French victory",
        "col4": "16,000 men, 100 cannons"
    },
    {
        "col0": "Siege of Allenstein",
        "col1": "Prince-Bishopric of Warmia",
        "col2": "Polish-Teutonic War",
        "col3": "Polish victory, siege lifted",
        "col4": "200 infantry, several hundred dismounted cavalry"
    },
    {
        "col0": "Siege of Alkmaar",
        "col1": "Alkmaar",
        "col2": "Eighty Years' War",
        "col3": "Decisive Dutch victory",
        "col4": "6,500 to 16,000 troops"
    },
    {
        "col0": "Siege of Alexandria",
        "col1": "Alexandria",
        "col2": "Ptolemy XIII Theos Philopator",
        "col3": "Roman victory",
        "col4": "1 legion (Legio VI Ferrata)"
    },
    {
        "col0": "Siege of Alexandria",
        "col1": "Alexandria",
        "col2": "French Revolutionary Wars",
        "col3": "*Capitulation of Alexandria",
        "col4": "13,000"
    },
    {
        "col0": "Siege of Aleppo",
        "col1": "Syria",
        "col2": "Muslim conquest of Syria",
        "col3": "Decisive victoryby theMuslims",
        "col4": "17,000"
    },
    {
        "col0": "Siege of Aleppo",
        "col1": "Aleppo",
        "col2": "Islamist uprising in Syria",
        "col3": "*Syrian Muslim Brotherhood outlawed",
        "col4": "30,000"
    },
    {
        "col0": "Siege of Al-Karak",
        "col1": "Kerak Castle",
        "col2": "Crusade",
        "col3": "Strategic Crusader victory",
        "col4": "22,000 men"
    },
    {
        "col0": "Siege of Akasaka",
        "col1": "Osaka",
        "col2": "Genko War",
        "col3": "Hojovictory,Prince Moriyoshiand Masashige escape",
        "col4": "10,000"
    },
    {
        "col0": "Siege of Aintab",
        "col1": "Ottoman Empire",
        "col2": "Franco-Turkish War",
        "col3": "French victory",
        "col4": "1,500 Armenian soldiers,"
    },
    {
        "col0": "Siege of Ahmednagar",
        "col1": "India",
        "col2": "Second Anglo-Maratha War",
        "col3": "British victory",
        "col4": "24,000"
    },
    {
        "col0": "Siege of Adrianople",
        "col1": "Adrianople",
        "col2": "Byzantine-Bulgarian Wars",
        "col3": "Bulgarian victory",
        "col4": "Unknown"
    },
    {
        "col0": "Siege of Adrianople",
        "col1": "Ottoman Empire",
        "col2": "First Balkan War",
        "col3": "Decisive Bulgarian-Serbian Victory",
        "col4": "106,425 Bulgarians (424 guns);"
    },
    {
        "col0": "Siege of Acre",
        "col1": "Acre, Israel",
        "col2": "French invasion of Egypt",
        "col3": "Anglo-Ottoman victory",
        "col4": "12,000 reinforcement (7 May)"
    },
    {
        "col0": "Siege of Acre",
        "col1": "Acre, Israel",
        "col2": "Crusades",
        "col3": "Mamlukvictory",
        "col4": "1,100 cavalry"
    },
    {
        "col0": "Siege of Acre",
        "col1": "Acre, Israel",
        "col2": "Third Crusade",
        "col3": "Crusader Victory",
        "col4": "*Garrison: 6,000"
    },
    {
        "col0": "Siege of Abu al-Duhur Airbase",
        "col1": "Syria",
        "col2": "Syrian Civil War",
        "col3": "* Rebels capture three villages and the airbase",
        "col4": "1,000+ fighters"
    },
    {
        "col0": "Siege of Abadan",
        "col1": "Iran",
        "col2": "Iran-Iraq War",
        "col3": "*Iraqi siege of the city fails",
        "col4": "15,000 men"
    },
    {
        "col0": "Siege of Aachen",
        "col1": "Aachen",
        "col2": "War of the Julich Succession",
        "col3": "Spanish victory",
        "col4": "15,000"
    },
    {
        "col0": "Siege of 's-Hertogenbosch",
        "col1": "Netherlands",
        "col2": "Anglo-Spanish War",
        "col3": "Spanish victory",
        "col4": "12,000-15,000"
    },
    {
        "col0": "Siege of 's-Hertogenbosch",
        "col1": "'s-Hertogenbosch",
        "col2": "Eighty Years' War",
        "col3": "Dutch victory",
        "col4": "116 cannons"
    },
    {
        "col0": "Siege of Dong Quan",
        "col1": "Hanoi",
        "col2": "Lam SAE!n uprising",
        "col3": "Vietnamese victory",
        "col4": "unknown"
    },
    {
        "col0": "Siege of Ersekujvar",
        "col1": "Kingdom of Hungary",
        "col2": "Austro-Turkish War",
        "col3": "Decisive Ottoman victory",
        "col4": "15,500"
    },
    {
        "col0": "Sicilian revolution of 1848",
        "col1": "Sicily",
        "col2": "Revolutions of 1848 in the Italian states",
        "col3": "Revolution suppressed; more powers to the Sicilian local administration",
        "col4": "Ca. 20,000"
    },
    {
        "col0": "Sicilian revolt",
        "col1": "Sicily",
        "col2": "Roman civil wars",
        "col3": "Roman Republic victory",
        "col4": "More than 200,000"
    },
    {
        "col0": "Sicilian Expedition",
        "col1": "Sicily",
        "col2": "Peloponesian War",
        "col3": "Decisive Athenian defeat, complete destruction of the Athenian expeditionary force",
        "col4": "134triremes"
    },
    {
        "col0": "Sichuan invasion",
        "col1": "Sichuan",
        "col2": "World War II",
        "col3": "Chinese victory",
        "col4": "140,000 troops, 300 tanks, 500 planes"
    },
    {
        "col0": "Siberian Intervention",
        "col1": "Mongolia",
        "col2": "Allied intervention in the Russian Civil War",
        "col3": "Allied withdrawal",
        "col4": "1,500 Britons"
    },
    {
        "col0": "Siachen conflict",
        "col1": "Kashmir",
        "col2": "Kashmir conflict",
        "col3": "Ceasefire since 2003.",
        "col4": "3,000"
    },
    {
        "col0": "Shuangduiji Campaign",
        "col1": "China",
        "col2": "Chinese Civil War",
        "col3": "Communistvictory",
        "col4": "120,000"
    },
    {
        "col0": "Short Hills raid",
        "col1": "Pelham, Ontario",
        "col2": "Upper Canada Rebellion",
        "col3": "Government victory",
        "col4": "13 Queen's Lancers"
    },
    {
        "col0": "ShinpA<<ren Rebellion",
        "col1": "Kumamoto Prefecture",
        "col2": "Meiji period",
        "col3": "Government victory; rebellion crushed",
        "col4": "174"
    },
    {
        "col0": "Shin'yo Maru incident",
        "col1": "Philippines",
        "col2": "Pacific War",
        "col3": "Major loss of life among American POWs",
        "col4": "1submarine"
    },
    {
        "col0": "Shimabara Rebellion",
        "col1": "Nagasaki Prefecture",
        "col2": "Edo period",
        "col3": "Tokugawavictory;Christianityin Japan driven underground",
        "col4": "Between 27,000 and 37,000"
    },
    {
        "col0": "Sherman's March to the Sea",
        "col1": "Georgia",
        "col2": "American Civil War",
        "col3": "Unionvictory",
        "col4": "12,466"
    },
    {
        "col0": "Shelling of Johnston and Palmyra",
        "col1": "Johnston Atoll",
        "col2": "Pacific Ocean theater of World War II",
        "col3": "*Minor damage to U.S. installations, both islands heavily strengthened",
        "col4": "Marine 5-inch coastal guns"
    },
    {
        "col0": "Shell House massacre",
        "col1": "Johannesburg",
        "col2": "South African general election, 1994",
        "col3": "Amnesty granted to 11 people",
        "col4": "20,000-50,000"
    },
    {
        "col0": "Sheksna uprising",
        "col1": "Russian SFSR",
        "col2": "Russian Civil War",
        "col3": "Soviet (Bolshevik) victory",
        "col4": "approx. 300"
    },
    {
        "col0": "Sheikh Said rebellion",
        "col1": "Diyarbakir",
        "col2": "Kurdish rebellions in Turkey",
        "col3": "Decisive Turkish victory. Revolt suppressed;Mosulprovince is assigned toMandatory Iraq",
        "col4": "15,000 men"
    },
    {
        "col0": "Sheikh Khazal rebellion",
        "col1": "Sublime State of Persia",
        "col2": "Arab separatism in Khuzestan",
        "col3": "* Bakhtiaris defeated",
        "col4": "274 soldiers (1922)"
    },
    {
        "col0": "Sheemore ambush",
        "col1": "County Leitrim",
        "col2": "Irish War of Independence",
        "col3": "IRA victory",
        "col4": "30-40 (although many RIC fled the scene)"
    },
    {
        "col0": "Shatoy ambush",
        "col1": "Chechnya",
        "col2": "First Chechen War",
        "col3": "Decisive separatist victory",
        "col4": "43"
    },
    {
        "col0": "Shanghai massacre of 1927",
        "col1": "Shanghai",
        "col2": "Chinese Civil War",
        "col3": "Beginning of theChinese Civil War",
        "col4": "approx. 5,000 soldiers of the 2nd Division of the 26th Army & members of various gangs"
    },
    {
        "col0": "Shanghai Campaign",
        "col1": "Shanghai",
        "col2": "Chinese Civil War",
        "col3": "Communistvictory",
        "col4": "210,000"
    },
    {
        "col0": "Shangani Patrol",
        "col1": "Matabeleland",
        "col2": "First Matabele War",
        "col3": "Matabelevictory",
        "col4": "37 (3 broke out)"
    },
    {
        "col0": "Shah Wali Kot Offensive",
        "col1": "Afghanistan",
        "col2": "War in Afghanistan",
        "col3": "Coalition victory",
        "col4": "~100+ men"
    },
    {
        "col0": "Shabin-Karahisar uprising",
        "col1": "Sebinkarahisar",
        "col2": "Armenian Resistance",
        "col3": "Suppression of the Resistance and massacre of the rest of the Armenians.",
        "col4": "1,000?"
    },
    {
        "col0": "Shaba I",
        "col1": "Zaire",
        "col2": "Cold War",
        "col3": "*FNLC expelled from Shaba",
        "col4": "1,600-3,000 FNLC fighters"
    },
    {
        "col0": "Seymour Expedition",
        "col1": "China",
        "col2": "Boxer Rebellion",
        "col3": "Chinese victory",
        "col4": "112"
    },
    {
        "col0": "Seventh Crusade",
        "col1": "Egypt",
        "col2": "Crusades",
        "col3": "Decisive Muslim victory",
        "col4": "*2,400-2,800 knights"
    },
    {
        "col0": "Seventh Battle of the Isonzo",
        "col1": "Italy",
        "col2": "Italian Front",
        "col3": "Inconclusive",
        "col4": "150 battalions, 770 artillery pieces"
    },
    {
        "col0": "Seven Days Battles",
        "col1": "Hanover County, Virginia",
        "col2": "American Civil War",
        "col3": "Confederatevictory",
        "col4": "* 105,445 (Army of the Potomac without Dix's Division);"
    },
    {
        "col0": "Serbian-Ottoman War",
        "col1": "Principality of Serbia",
        "col2": "Great Eastern Crisis",
        "col3": "Ottoman victory in the first stage (1876-28 February 1877);",
        "col4": "ca. 63,000"
    },
    {
        "col0": "Serbian nobility conflict",
        "col1": "Kosovo",
        "col2": "Fall of the Serbian Empire",
        "col3": "New Nobility victory",
        "col4": "High"
    },
    {
        "col0": "Serbian Campaign of World War I",
        "col1": "Principality of Albania",
        "col2": "Balkans Campaign",
        "col3": "Central Powersvictory in 1915",
        "col4": "1914:"
    },
    {
        "col0": "Serbian-Ottoman War",
        "col1": "Principality of Serbia",
        "col2": "Great Eastern Crisis",
        "col3": "Ottoman victory in the first stage (1876-28 February 1877);",
        "col4": "ca. 63,000"
    },
    {
        "col0": "Serb Uprising of 1848-49",
        "col1": "Serbia",
        "col2": "Revolutions of 1848 in the Austrian Empire",
        "col3": "Serbian autonomy",
        "col4": "104 artillery guns"
    },
    {
        "col0": "September 2012 Beytussebap attack",
        "col1": "Turkey",
        "col2": "Turkey-PKK conflict",
        "col3": "Turkish Victory, Attack repulsed.",
        "col4": "5000"
    },
    {
        "col0": "September 1982 Renteria attack",
        "col1": "Spain",
        "col2": "Basque conflict",
        "col3": "ETA victory",
        "col4": "5"
    },
    {
        "col0": "Senussi Campaign",
        "col1": "Egypt",
        "col2": "North African theatre",
        "col3": "British-Italian victory",
        "col4": "At least 5,000 soldiers"
    },
    {
        "col0": "Selton Hill ambush",
        "col1": "County Leitrim",
        "col2": "Irish War of Independence",
        "col3": "RIC victory",
        "col4": "unknown"
    },
    {
        "col0": "Segovia Offensive",
        "col1": "Spain",
        "col2": "Spanish Civil War",
        "col3": "Nationalist victory",
        "col4": "3 divisions"
    },
    {
        "col0": "Sectarian violence in Iraq",
        "col1": "Baghdad",
        "col2": "Iraq War",
        "col3": "* Eventual improvements in public security",
        "col4": "----"
    },
    {
        "col0": "Second conflict in the Goryeo-Khitan War",
        "col1": "Korean Peninsula",
        "col2": "Goryeo-Khitan Wars",
        "col3": "Liao dynasty victory.",
        "col4": "400,000"
    },
    {
        "col0": "Second Zhili-Fengtian War",
        "col1": "North China",
        "col2": "Warlord era",
        "col3": "Fengtianvictory",
        "col4": "200,000"
    },
    {
        "col0": "Second War of Scottish Independence",
        "col1": "Scotland",
        "col2": "Wars of Scottish Independence",
        "col3": "English strategic victory, Scottish practical victory.David IIretained the throne and independence in exchange for payment.",
        "col4": "Up to 13,000"
    },
    {
        "col0": "Second Transjordan attack on Shunet Nimrin and Es Salt",
        "col1": "Jisr ed Damieh",
        "col2": "Middle Eastern theatre of World War I",
        "col3": "Ottoman victory",
        "col4": "7,000 troops"
    },
    {
        "col0": "Second Taranaki War",
        "col1": "Taranaki",
        "col2": "New Zealand wars",
        "col3": "Indecisive",
        "col4": "1500 (including women and children)"
    },
    {
        "col0": "Second Sumatran expedition",
        "col1": "Aceh Sultanate",
        "col2": "Sumatran expeditions",
        "col3": "* Malays cease attacks on American vessels",
        "col4": "2frigates"
    },
    {
        "col0": "Second Sino-Japanese War",
        "col1": "Mainland China",
        "col2": "Pacific War",
        "col3": "* China was one of theBig Four of Alliesand becomes a permanent member of theU.N. Security Council",
        "col4": "(ExcludingBurma campaignand Manchuria)"
    },
    {
        "col0": "Second Siege of Zaragoza",
        "col1": "Spain",
        "col2": "Peninsular War",
        "col3": "French victory",
        "col4": "1,400 cavalry"
    },
    {
        "col0": "Second Siege of Wadi Deif",
        "col1": "Syria",
        "col2": "Syrian Civil War",
        "col3": "* Al-Nusra Front and allies capture the Wadi Deif and Hamadiyah bases, a string of villages and 14 checkpoints around the two bases",
        "col4": "(December 2014)"
    },
    {
        "col0": "Second Siege of Missolonghi",
        "col1": "Missolonghi",
        "col2": "Greek War of Independence",
        "col3": "Greek victory",
        "col4": "13,000 troops"
    },
    {
        "col0": "Second Siege of Gerona",
        "col1": "Spain",
        "col2": "Peninsular War",
        "col3": "Spanish victory",
        "col4": "13,000"
    },
    {
        "col0": "Second Siege of Diu",
        "col1": "Diu, India",
        "col2": "Ottoman-Portuguese conflicts",
        "col3": "Portuguese victory",
        "col4": "10,000 men"
    },
    {
        "col0": "Second Siege of Badajoz",
        "col1": "Spain",
        "col2": "Peninsular War",
        "col3": "French victory",
        "col4": "1st phase: 20,700"
    },
    {
        "col0": "Second Schleswig War",
        "col1": "Jutland",
        "col2": "Unification of Germany",
        "col3": "*Treaty of Vienna (1864)",
        "col4": "100+ guns"
    },
    {
        "col0": "Second Raid on Schweinfurt",
        "col1": "Schweinfurt",
        "col2": "Operation Pointblank",
        "col3": "German victory",
        "col4": "291 B-17 Flying Fortresses"
    },
    {
        "col0": "Second Punic War",
        "col1": "Africa",
        "col2": "Punic Wars",
        "col3": "Romanvictory, Rome gains absolute domination of the western Mediterranean",
        "col4": "*273,300 Reserves"
    },
    {
        "col0": "Second Persian invasion of Greece",
        "col1": "Greece",
        "col2": "Greco-Persian Wars",
        "col3": "Decisive Greek victory",
        "col4": "1,000Phocians"
    },
    {
        "col0": "Second Mongol invasion of Hungary",
        "col1": "Kingdom of Hungary",
        "col2": "Mongol invasion of Europe",
        "col3": "Decisive Hungarian victory; Mongol invasion repulsed",
        "col4": "30,000-200,000"
    },
    {
        "col0": "Second Mongol invasion of Burma",
        "col1": "Burma",
        "col2": "Mongol conquests",
        "col3": "Burmese victory",
        "col4": "12,000"
    },
    {
        "col0": "Second Manchu invasion of Korea",
        "col1": "Korean Peninsula",
        "col2": "Qing conquest of the Ming",
        "col3": "Qing victory",
        "col4": "140,000"
    },
    {
        "col0": "Second Madagascar expedition",
        "col1": "Madagascar",
        "col2": "Franco-Hova Wars",
        "col3": "French victory",
        "col4": "15,000 men"
    },
    {
        "col0": "Second Italo-Ethiopian War",
        "col1": "Ethiopia",
        "col2": "Interwar period",
        "col3": "Decisive Italian victory",
        "col4": "13 aircraft"
    },
    {
        "col0": "Second Italian War of Independence",
        "col1": "Kingdom of Lombardy-Venetia",
        "col2": "Italian Unification",
        "col3": "Allied victory",
        "col4": "170,000 infantry"
    },
    {
        "col0": "Second Invasion of Onitsha",
        "col1": "Onitsha",
        "col2": "Nigerian Civil War",
        "col3": "Nigerian victory",
        "col4": "unknown"
    },
    {
        "col0": "Second Gulf of Sidra offensive",
        "col1": "Libyan Coastal Highway",
        "col2": "2011 Libyan Civil War",
        "col3": "*Anti-Gaddafi forces captureRa's Lanuf,Bin JawadandNofaliyain late August",
        "col4": "1,000-5,000 fighters"
    },
    {
        "col0": "Second Guangxi Campaign",
        "col1": "Republic of China",
        "col2": "Second Sino-Japanese War",
        "col3": "Decisive Chinese victory",
        "col4": "600,000"
    },
    {
        "col0": "Second Franco-Dahomean War",
        "col1": "Oueme Department",
        "col2": "Scramble for Africa",
        "col3": "Dahomeyconquered and incorporated as a French protectorate",
        "col4": "1,200Dahomey Amazons"
    },
    {
        "col0": "Second Fiji Expedition",
        "col1": "Fiji",
        "col2": "Fiji Expeditions",
        "col3": "American victory",
        "col4": "10marines"
    },
    {
        "col0": "Second Encirclement Campaign against the Shaanxi-Gansu Soviet",
        "col1": "China",
        "col2": "Chinese Civil War",
        "col3": "Communistvictory",
        "col4": "14,000"
    },
    {
        "col0": "Second Encirclement Campaign against the Hubei-Henan-Anhui Soviet",
        "col1": "Hubei",
        "col2": "Chinese Civil War",
        "col3": "Communistvictory",
        "col4": "100,000+"
    },
    {
        "col0": "Second Encirclement Campaign against the Honghu Soviet",
        "col1": "China",
        "col2": "Chinese Civil War",
        "col3": "communistvictory",
        "col4": "5,000"
    },
    {
        "col0": "Second Encirclement Campaign against Jiangxi Soviet",
        "col1": "Jiangxi",
        "col2": "Chinese Civil War",
        "col3": "Red Army victory",
        "col4": "200,000"
    },
    {
        "col0": "Second Encirclement Campaign against Hubei-Henan-Shaanxi Soviet",
        "col1": "Hubei",
        "col2": "Chinese Civil War",
        "col3": "Communistvictory",
        "col4": "3,000"
    },
    {
        "col0": "Second Dranesville",
        "col1": "Loudoun County, Virginia",
        "col2": "American Civil War",
        "col3": "Confederate Victory",
        "col4": "160"
    },
    {
        "col0": "Second Desmond Rebellion",
        "col1": "Provinces of Ireland",
        "col2": "Desmond Rebellions",
        "col3": "English victory",
        "col4": "Unknown"
    },
    {
        "col0": "Second Crusade",
        "col1": "Egypt",
        "col2": "Crusades",
        "col3": "* Beginning ofcrusader advances into Egypt",
        "col4": "French: 15,000 men"
    },
    {
        "col0": "Second Congo War",
        "col1": "Democratic Republic of the Congo",
        "col2": "Rwandan Genocide",
        "col3": "* Continuation of theIturi conflict.",
        "col4": "----Interahamwe: 20,000+"
    },
    {
        "col0": "Second Chechen War",
        "col1": "Ingushetia",
        "col2": "Chechen-Russian conflict",
        "col3": "* Establishment of a pro-RussianChechen government",
        "col4": "(in 1999)"
    },
    {
        "col0": "Second Carlist War",
        "col1": "History of Spain",
        "col2": "Carlist Wars",
        "col3": "Liberal victory",
        "col4": "Carlists: 10,000"
    },
    {
        "col0": "Second Boer War",
        "col1": "Swaziland",
        "col2": "Boer Wars",
        "col3": "British Empire victory",
        "col4": "103,000-153,000"
    },
    {
        "col0": "Second Battle of Inonu",
        "col1": "Turkey",
        "col2": "Greco-Turkish War",
        "col3": "Decisive Turkish victory",
        "col4": "15,000"
    },
    {
        "col0": "Second Battle of the Stronghold",
        "col1": "California",
        "col2": "Modoc War",
        "col3": "tactical U.S. victory; Modoc escape",
        "col4": "53"
    },
    {
        "col0": "Second Battle of the Somme",
        "col1": "France",
        "col2": "Western Front",
        "col3": "Allied victory",
        "col4": "Australian Corps"
    },
    {
        "col0": "Second Battle of the Piave River",
        "col1": "Italy",
        "col2": "Italian Front",
        "col3": "Decisive Italian victory",
        "col4": "5 British divisions"
    },
    {
        "col0": "Second Battle of the Odon",
        "col1": "Normandy",
        "col2": "Battle for Caen",
        "col3": "Operational Allied success",
        "col4": "1 heavy tank battalion"
    },
    {
        "col0": "Second Battle of the Masurian Lakes",
        "col1": "East Prussia",
        "col2": "Eastern Front",
        "col3": "German victory",
        "col4": "initially 100,000 men"
    },
    {
        "col0": "Second Battle of the Marne",
        "col1": "France",
        "col2": "Western Front",
        "col3": "Decisive Allied victory",
        "col4": "1,047 field batteries"
    },
    {
        "col0": "Second Battle of the Java Sea",
        "col1": "Java Sea",
        "col2": "Pacific War",
        "col3": "Japanese victory",
        "col4": "1 heavy cruiser"
    },
    {
        "col0": "Second Battle of the Isonzo",
        "col1": "Slovenia",
        "col2": "Italian Front",
        "col3": "Italian tactical victory",
        "col4": "250,000"
    },
    {
        "col0": "Second Battle of the Corunna Road",
        "col1": "Madrid",
        "col2": "Spanish Civil War",
        "col3": "Indecisive",
        "col4": "17,000 infantry and cavalry (13 Dec)"
    },
    {
        "col0": "Second Battle of the Aisne",
        "col1": "France",
        "col2": "Western Front",
        "col3": "German victory",
        "col4": "38 divisions"
    },
    {
        "col0": "Second Battle of al-Faw",
        "col1": "Al-Faw Peninsula",
        "col2": "Tawakalna ala Allah Operations",
        "col3": "Decisive Iraqi victory; Iranians expelled from the peninsula",
        "col4": "8,000-15,000 Basij militia"
    },
    {
        "col0": "Second Battle of Zurich",
        "col1": "Switzerland",
        "col2": "War of the Second Coalition",
        "col3": "Decisive French victory",
        "col4": "32,000 Austrians"
    },
    {
        "col0": "Second Battle of Zrinyiujvar",
        "col1": "Zrinyiujvar",
        "col2": "Austro-Turkish War",
        "col3": "Hungarian-Croatian victory",
        "col4": "16,000"
    },
    {
        "col0": "Second Battle of Zawiya",
        "col1": "Zawiya, Libya",
        "col2": "2011 Libyan rebel coastal offensive",
        "col3": "* Rebel forces capture the town andadvance on Tripoli",
        "col4": "1,000 conscripts"
    },
    {
        "col0": "Second Battle of Ypres",
        "col1": "Ypres",
        "col2": "Western Front",
        "col3": "See \"[[#Aftermath",
        "col4": "2 French and 6 British divisions"
    },
    {
        "col0": "Second Battle of Yeonpyeong",
        "col1": "Yellow Sea",
        "col2": "Korean conflict",
        "col3": "Indecisive",
        "col4": "2 patrol boats"
    },
    {
        "col0": "Second Battle of Wissembourg",
        "col1": "Bas-Rhin",
        "col2": "French Revolutionary Wars",
        "col3": "Strategic French victory",
        "col4": "35,000"
    },
    {
        "col0": "Second Battle of Winchester",
        "col1": "Winchester, Virginia",
        "col2": "American Civil War",
        "col3": "Confederatevictory",
        "col4": "12,500"
    },
    {
        "col0": "Second Battle of Villers-Bretonneux",
        "col1": "Villers-Bretonneux",
        "col2": "Western Front",
        "col3": "Allied victory",
        "col4": "13A7V tanks"
    },
    {
        "col0": "Second Battle of Vailele",
        "col1": "Samoa",
        "col2": "Second Samoan Civil War",
        "col3": "Mataafan/German victory",
        "col4": "136warriors"
    },
    {
        "col0": "Second Battle of Tuxpan",
        "col1": "Veracruz",
        "col2": "Mexican-American War",
        "col3": "United States victory",
        "col4": "'''Land:"
    },
    {
        "col0": "Second Battle of Tucson",
        "col1": "New Spain",
        "col2": "Apache-Mexico Wars",
        "col3": "Spanish victory",
        "col4": "10native scouts"
    },
    {
        "col0": "Second Battle of Tripoli Harbor",
        "col1": "Tripoli",
        "col2": "First Barbary War",
        "col3": "* Grounded USS Philadelphia, crew and captain captured",
        "col4": "1 brig,"
    },
    {
        "col0": "Second Battle of Topolobampo",
        "col1": "Sinaloa",
        "col2": "Mexican Revolution",
        "col3": "Constitutionalist tactical victory, Huertista strategic victory",
        "col4": "1gunboat"
    },
    {
        "col0": "Second Battle of Timbuktu",
        "col1": "Mali",
        "col2": "Northern Mali conflict",
        "col3": "Malian/French victory",
        "col4": "unclear"
    },
    {
        "col0": "Second Battle of Tikrit",
        "col1": "Saladin Governorate",
        "col2": "Iraqi Civil War",
        "col3": "* Allied forces are stalled 13-30 March",
        "col4": "(9,000 engaged)"
    },
    {
        "col0": "Second Battle of Tijuana",
        "col1": "Mexico",
        "col2": "Mexican Revolution",
        "col3": "Mexican victory, federal forces recapture Tijuana.",
        "col4": "155 infantry"
    },
    {
        "col0": "Second Battle of Tembien",
        "col1": "Ethiopia",
        "col2": "Second Italo-Abyssinian War",
        "col3": "*Destruction of the EthiopianArmy of the Centerin the north",
        "col4": "Approximately 40,000"
    },
    {
        "col0": "Second Battle of Tapae",
        "col1": "Romania",
        "col2": "Trajan's Dacian Wars",
        "col3": "Roman victory",
        "col4": "7 professional legions, 2-4 mixed legions"
    },
    {
        "col0": "Second Battle of Tabasco",
        "col1": "Villahermosa",
        "col2": "Mexican-American War",
        "col3": "United States victory",
        "col4": "1,050U.S. Marines"
    },
    {
        "col0": "Second Battle of Swat",
        "col1": "Swat, Pakistan",
        "col2": "War in North-West Pakistan",
        "col3": "*ManyTalibancommanders captured or killed",
        "col4": "15,000 - 45,000 Regular, Infantry, FC Corps and Airborne Forces"
    },
    {
        "col0": "Second Battle of St Albans",
        "col1": "England",
        "col2": "Wars of the Roses",
        "col3": "Lancastrian victory",
        "col4": "~10,000"
    },
    {
        "col0": "Second Battle of Springfield",
        "col1": "Springfield, Missouri",
        "col2": "American Civil War",
        "col3": "Unionvictory",
        "col4": "1,870"
    },
    {
        "col0": "Second Battle of Sirte",
        "col1": "Gulf of Sidra",
        "col2": "Battle of the Mediterranean",
        "col3": "SeeAsessmentssection",
        "col4": "1 anti-aircraft cruiser"
    },
    {
        "col0": "Second Battle of Simtokha Dzong",
        "col1": "Bhutan",
        "col2": "Political union",
        "col3": "* Barawa sect is driven from Bhutan",
        "col4": "Five Tibetan divisions"
    },
    {
        "col0": "Second Battle of Seoul",
        "col1": "Seoul",
        "col2": "Korean War",
        "col3": "DecisiveUnited Nationsvictory",
        "col4": "(unknown number of artillery, tanks and aircraft)"
    },
    {
        "col0": "Second Battle of San Juan",
        "col1": "San Juan, Puerto Rico",
        "col2": "Spanish-American War",
        "col3": "Blockade maintained",
        "col4": "1 unprotectedcruiser"
    },
    {
        "col0": "Second Battle of Salvador da Bahia",
        "col1": "Brazil",
        "col2": "Dutch-Portuguese War",
        "col3": "Portuguese-Spanish victory",
        "col4": "1,000 men"
    },
    {
        "col0": "Second Battle of Saltville",
        "col1": "Saltville, Virginia",
        "col2": "American Civil War",
        "col3": "Unionvictory",
        "col4": "2,800"
    },
    {
        "col0": "Second Battle of Sacket's Harbor",
        "col1": "Sackets Harbor, New York",
        "col2": "War of 1812",
        "col3": "American victory",
        "col4": "1schooner"
    },
    {
        "col0": "Second Battle of Sabine Pass",
        "col1": "Jefferson County, Texas",
        "col2": "American Civil War",
        "col3": "Confederatevictory",
        "col4": "18transports"
    },
    {
        "col0": "Second Battle of Rivas",
        "col1": "Rivas, Nicaragua",
        "col2": "Filibuster War",
        "col3": "In May 1857, William Walker was forced to surrender to the US Navy and leave the country.",
        "col4": "9,000 volunteers"
    },
    {
        "col0": "Second Battle of Rellano",
        "col1": "Rellano, Chihuahua",
        "col2": "Mexican Revolution",
        "col3": "Mexican Government victory",
        "col4": "7,000-8,000"
    },
    {
        "col0": "Second Battle of Ream's Station",
        "col1": "Dinwiddie County, Virginia",
        "col2": "American Civil War",
        "col3": "Confederatevictory",
        "col4": "8-10,000"
    },
    {
        "col0": "Second Battle of Rappahannock Station",
        "col1": "Culpeper County, Virginia",
        "col2": "American Civil War",
        "col3": "Unionvictory",
        "col4": "2,000"
    },
    {
        "col0": "Second Battle of Quang Tri",
        "col1": "Quang Tri Province",
        "col2": "Vietnam War",
        "col3": "South Vietnamese-American victory",
        "col4": "22px:Republic of Vietnam Marine Division"
    },
    {
        "col0": "Second Battle of Pyramid Lake",
        "col1": "Pyramid Lake",
        "col2": "Paiute War",
        "col3": "U.S.victory",
        "col4": "\"Washoe Regiment\""
    },
    {
        "col0": "Second Battle of Porto",
        "col1": "Portugal",
        "col2": "Peninsular War",
        "col3": "* French retreat into Spain",
        "col4": "11,200"
    },
    {
        "col0": "Second Battle of Polotsk",
        "col1": "Belarus",
        "col2": "French invasion of Russia",
        "col3": "Russian victory",
        "col4": "23,000-27,000"
    },
    {
        "col0": "Second Battle of Pocotaligo",
        "col1": "Yemassee, South Carolina",
        "col2": "American Civil War",
        "col3": "Confederatevictory",
        "col4": "2,000 With additional reinforcements from Charleston"
    },
    {
        "col0": "Second Battle of Petersburg",
        "col1": "Petersburg, Virginia",
        "col2": "American Civil War",
        "col3": "Confederatevictory; Union siege begins",
        "col4": "13,700-62,000 (reinforcements arrived over four days)"
    },
    {
        "col0": "Second Battle of Passchendaele",
        "col1": "Belgium",
        "col2": "World War I",
        "col3": "Allied Victory",
        "col4": "1 Australian division"
    },
    {
        "col0": "Second Battle of Oituz",
        "col1": "Bacau County",
        "col2": "Romanian Campaign",
        "col3": "Romanian victory",
        "col4": "Unknown"
    },
    {
        "col0": "Second Battle of Newbury",
        "col1": "Newbury, Berkshire",
        "col2": "English Civil War",
        "col3": "Indecisive",
        "col4": "12,000 infantry"
    },
    {
        "col0": "Second Battle of Nanawa",
        "col1": "Gran Chaco",
        "col2": "Chaco War",
        "col3": "Decisive Paraguayan victory",
        "col4": "4th and 9th Divisions"
    },
    {
        "col0": "Second Battle of Naktong Bulge",
        "col1": "Korea",
        "col2": "Battle of Pusan Perimeter",
        "col3": "United Nations victory",
        "col4": "21,788"
    },
    {
        "col0": "Second Battle of Mount Hermon",
        "col1": "Mount Hermon",
        "col2": "Yom Kippur War",
        "col3": "Syrian victory",
        "col4": "1 paratroop battalion (~400 soldiers), 1 commando battalion"
    },
    {
        "col0": "Second Battle of Mora",
        "col1": "New Mexico",
        "col2": "Mexican-American War",
        "col3": "United States victory",
        "col4": "~200"
    },
    {
        "col0": "Second Battle of Mesilla",
        "col1": "Mesilla, New Mexico",
        "col2": "American Civil War",
        "col3": "Union victory, Confederates minor loss.",
        "col4": "Company A,Herbert's Battalion of Arizona Cavalry"
    },
    {
        "col0": "Second Battle of Memphis",
        "col1": "Memphis, Tennessee",
        "col2": "American Civil War",
        "col3": "Confederatevictory",
        "col4": "400"
    },
    {
        "col0": "Second Battle of Manzanillo",
        "col1": "Manzanillo, Cuba",
        "col2": "Spanish-American War",
        "col3": "American withdrawal,",
        "col4": "1armed tug"
    },
    {
        "col0": "Second Battle of Maarat al-Nu'man",
        "col1": "Syria",
        "col2": "Inter-rebel conflict during the Syrian Civil War",
        "col3": "*Al-Nusra Frontfully captures Maarat al-Nu'man and Khan Shaykhun",
        "col4": "Entire Division: around 1,000 fighters"
    },
    {
        "col0": "Second Battle of Lexington",
        "col1": "Lexington, Missouri",
        "col2": "American Civil War",
        "col3": "Confederate victory",
        "col4": "2,000"
    },
    {
        "col0": "Second Battle of Kut",
        "col1": "Iraq",
        "col2": "Mesopotamian Campaign",
        "col3": "British and Indian victory",
        "col4": "17,000"
    },
    {
        "col0": "Second Battle of Krithia",
        "col1": "Adrianople Vilayet",
        "col2": "World War I",
        "col3": "Ottoman victory",
        "col4": "20,000"
    },
    {
        "col0": "Second Battle of Komarom",
        "col1": "Kingdom of Hungary",
        "col2": "Hungarian Revolution of 1848",
        "col3": "Undecided",
        "col4": "- 131 cannons"
    },
    {
        "col0": "Second Battle of Kharkov",
        "col1": "Soviet Union",
        "col2": "Eastern Front",
        "col3": "Axis victory",
        "col4": "1,000 tanks"
    },
    {
        "col0": "Second Battle of Kernstown",
        "col1": "Frederick County, Virginia",
        "col2": "American Civil War",
        "col3": "Confederatevictory",
        "col4": "13-14,000"
    }
]