[
    {
        "col0": "Z. Pike",
        "col1": "United States",
        "col2": "1813",
        "col3": "Zebulon Montgomery Pike"
    },
    {
        "col0": "W. T. Leighton",
        "col1": "Australia",
        "col2": "1990",
        "col3": "William Thomas Leighton"
    },
    {
        "col0": "W. G. Bennett",
        "col1": "Australia",
        "col2": "1977",
        "col3": "William Garnsworthy Bennett"
    },
    {
        "col0": "V. Cassar",
        "col1": "Maltese people",
        "col2": "1609",
        "col3": "Gio Vittorio Cassar"
    },
    {
        "col0": "V. D. Brenner",
        "col1": "Lithuanian Jews",
        "col2": "1924",
        "col3": "Viktoras Baranauskas"
    },
    {
        "col0": "R. L. Dabney",
        "col1": "Americans",
        "col2": "1898",
        "col3": "Robert Lewis Dabney"
    },
    {
        "col0": "R. T. Walker",
        "col1": "United States of America",
        "col2": "1973",
        "col3": "Ralph Thomas Walker"
    },
    {
        "col0": "R. Modjeski",
        "col1": "Poles",
        "col2": "1940",
        "col3": "Rudolf Modrzejewski"
    },
    {
        "col0": "P. Pascoe",
        "col1": "New Zealand",
        "col2": "1976",
        "col3": "Arnold Paul Pascoe"
    },
    {
        "col0": "M. M. Griffin",
        "col1": "American people",
        "col2": "1961",
        "col3": "Marion Mahony"
    },
    {
        "col0": "J. L. Archer",
        "col1": "Irish people",
        "col2": "1852",
        "col3": "John Lee Archer"
    },
    {
        "col0": "J. Barnet",
        "col1": "Scottish people",
        "col2": "1904",
        "col3": "James Johnstone Barnet"
    },
    {
        "col0": "I. Iwanoff",
        "col1": "Australia",
        "col2": "1986",
        "col3": "Iwan Nickolow Iwanow"
    },
    {
        "col0": "G. V. Whitney",
        "col1": "Americans",
        "col2": "1942",
        "col3": "Gertrude Vanderbilt"
    },
    {
        "col0": "G. Rietveld",
        "col1": "Netherlands",
        "col2": "1964",
        "col3": "Gerard Thomas Rietveld"
    },
    {
        "col0": "F. Blondel",
        "col1": "France",
        "col2": "1686",
        "col3": "Nicolas-Francois Blondel"
    },
    {
        "col0": "F. Ocampo",
        "col1": "Philippines",
        "col2": "1984",
        "col3": "Fernando Hizon Ocampo"
    },
    {
        "col0": "A. Haraszthy",
        "col1": "Hungarian people",
        "col2": "1869",
        "col3": "Haraszthy Agoston"
    }
]