[
    {
        "col0": "Cree Inc.",
        "col1": "Durham, North Carolina",
        "col2": "6387",
        "col3": "1650000000"
    },
    {
        "col0": "Creative Technology Limited",
        "col1": "Jurong East",
        "col2": "800",
        "col3": "116000000"
    },
    {
        "col0": "Crawford Composites",
        "col1": "Denver, North Carolina",
        "col2": "40",
        "col3": "7000000"
    },
    {
        "col0": "Craigslist",
        "col1": "San Francisco",
        "col2": "30",
        "col3": "900000"
    },
    {
        "col0": "Cracker Barrel",
        "col1": "Lebanon, Tennessee",
        "col2": "70000",
        "col3": "2580000000"
    },
    {
        "col0": "Credit Mutuel",
        "col1": "Strasbourg",
        "col2": "99012",
        "col3": "1465"
    },
    {
        "col0": "Credit Agricole Srbija",
        "col1": "Novi Sad",
        "col2": "968",
        "col3": "71260000"
    },
    {
        "col0": "Credit Agricole",
        "col1": "Montrouge",
        "col2": "150000",
        "col3": "31178000000"
    },
    {
        "col0": "CozyCot",
        "col1": "Shaw House and Centre",
        "col2": "38",
        "col3": "1160000"
    },
    {
        "col0": "Cox Enterprises",
        "col1": "Atlanta, Georgia",
        "col2": "60000",
        "col3": "18000000000"
    },
    {
        "col0": "Country Garden",
        "col1": "Guangdong",
        "col2": "70000",
        "col3": "20800000000"
    },
    {
        "col0": "Country Energy",
        "col1": "New South Wales",
        "col2": "4000",
        "col3": "2300000000"
    },
    {
        "col0": "Cott",
        "col1": "Mississauga, Ontario",
        "col2": "3960",
        "col3": "2250000000"
    },
    {
        "col0": "Costamare",
        "col1": "Athens",
        "col2": "3",
        "col3": "484000000"
    },
    {
        "col0": "Cortefiel",
        "col1": "Madrid",
        "col2": "10592",
        "col3": "1010000000"
    },
    {
        "col0": "Corsair Components",
        "col1": "Fremont, California",
        "col2": "800",
        "col3": "455200000"
    },
    {
        "col0": "Corficolombiana",
        "col1": "Bogota",
        "col2": "274",
        "col3": "330000000"
    },
    {
        "col0": "Coretronic",
        "col1": "Hsinchu Science and Industrial Park",
        "col2": "17427",
        "col3": "2076500000"
    },
    {
        "col0": "Corel",
        "col1": "Ontario",
        "col2": "500",
        "col3": "268200000"
    },
    {
        "col0": "Core Magazine",
        "col1": "Tokyo",
        "col2": "134",
        "col3": "5900000000"
    },
    {
        "col0": "Core-Mark",
        "col1": "South San Francisco, CA",
        "col2": "5933",
        "col3": "10280"
    },
    {
        "col0": "Coppenrath & Wiese",
        "col1": "Osnabruck",
        "col2": "2200",
        "col3": "370000000"
    },
    {
        "col0": "Copel",
        "col1": "Curitiba",
        "col2": "8560",
        "col3": "4100000000"
    },
    {
        "col0": "Copart",
        "col1": "Texas",
        "col2": "4179",
        "col3": "1163489"
    },
    {
        "col0": "Coop Norge",
        "col1": "Oslo",
        "col2": "2564",
        "col3": "30041000000"
    },
    {
        "col0": "Coop Norden",
        "col1": "Stockholm",
        "col2": "25000",
        "col3": "89500000000"
    },
    {
        "col0": "Coop Alleanza 3.0",
        "col1": "Castenaso",
        "col2": "22000",
        "col3": "5000000000"
    },
    {
        "col0": "Coop",
        "col1": "Casalecchio di Reno",
        "col2": "56682",
        "col3": "12898000000"
    },
    {
        "col0": "Cook Group",
        "col1": "Bloomington, Indiana",
        "col2": "12000",
        "col3": "2000000000"
    }
]