[
    {
        "col0": "L. Floyd",
        "col1": "Chicago Bears",
        "col2": "Chicago Bears",
        "col3": "1992-09-08",
        "col4": "9"
    },
    {
        "col0": "L. Hall",
        "col1": "Cincinnati Bengals",
        "col2": "New York Giants",
        "col3": "1984-12-09",
        "col4": "18"
    },
    {
        "col0": "L. Smith",
        "col1": "Buffalo Bills",
        "col2": "Oakland Raiders",
        "col3": "1987-11-21",
        "col4": "159"
    },
    {
        "col0": "L. Bell",
        "col1": "Pittsburgh Steelers",
        "col2": "Pittsburgh Steelers",
        "col3": "1992-02-18",
        "col4": "48"
    },
    {
        "col0": "L. Wilson",
        "col1": "Carolina Panthers",
        "col2": "Free agent",
        "col3": "1987-11-16",
        "col4": "166"
    },
    {
        "col0": "L. Timmons",
        "col1": "Pittsburgh Steelers",
        "col2": "Pittsburgh Steelers",
        "col3": "1986-05-14",
        "col4": "15"
    },
    {
        "col0": "L. David",
        "col1": "Tampa Bay Buccaneers",
        "col2": "Tampa Bay Buccaneers",
        "col3": "1990-01-23",
        "col4": "58"
    },
    {
        "col0": "L. Edwards",
        "col1": "Oakland Raiders",
        "col2": "Indianapolis Colts",
        "col3": "1990-04-29",
        "col4": "142"
    },
    {
        "col0": "L. Duvernay-Tardif",
        "col1": "Kansas City Chiefs",
        "col2": "Kansas City Chiefs",
        "col3": "1991-02-11",
        "col4": "200"
    },
    {
        "col0": "L. Murray",
        "col1": "Oakland Raiders",
        "col2": "Oakland Raiders",
        "col3": "1990-01-18",
        "col4": "181"
    },
    {
        "col0": "L. W. III",
        "col1": "Carolina Panthers",
        "col2": "Carolina Panthers",
        "col3": "1990-02-14",
        "col4": "136"
    },
    {
        "col0": "L. Warford",
        "col1": "Detroit Lions",
        "col2": "Detroit Lions",
        "col3": "1991-06-18",
        "col4": "65"
    },
    {
        "col0": "L. Fitzgerald",
        "col1": "Arizona Cardinals",
        "col2": "Arizona Cardinals",
        "col3": "1983-8-31",
        "col4": "3"
    },
    {
        "col0": "L. Webb",
        "col1": "Baltimore Ravens",
        "col2": "Baltimore Ravens",
        "col3": "1985-10-12",
        "col4": "88"
    },
    {
        "col0": "L. Treadwell",
        "col1": "Minnesota Vikings",
        "col2": "Minnesota Vikings",
        "col3": "1995-06-14",
        "col4": "23"
    },
    {
        "col0": "L. Johnson",
        "col1": "Philadelphia Eagles",
        "col2": "Philadelphia Eagles",
        "col3": "1990-5-8",
        "col4": "4"
    },
    {
        "col0": "L. Jones",
        "col1": "Pittsburgh Steelers",
        "col2": "Pittsburgh Steelers",
        "col3": "1989-04-04",
        "col4": "115"
    },
    {
        "col0": "L. Collins",
        "col1": "New York Giants",
        "col2": "New York Giants",
        "col3": "1993-1-1",
        "col4": "33"
    },
    {
        "col0": "L. Barrow",
        "col1": "Chicago Bears",
        "col2": "Chicago Bears",
        "col3": "1990-11-29",
        "col4": "156"
    },
    {
        "col0": "L. Joyner",
        "col1": "History of the St. Louis Rams",
        "col2": "Los Angeles Rams",
        "col3": "1990-11-27",
        "col4": "41"
    },
    {
        "col0": "L. Miller",
        "col1": "Houston Texans",
        "col2": "Houston Texans",
        "col3": "1991-04-25",
        "col4": "97"
    },
    {
        "col0": "L. Tomlinson",
        "col1": "Detroit Lions",
        "col2": "Detroit Lions",
        "col3": "1992-02-09",
        "col4": "28"
    },
    {
        "col0": "L. Edwards",
        "col1": "New York Jets",
        "col2": "New York Jets",
        "col3": "1992-04-27",
        "col4": "235"
    },
    {
        "col0": "K. Fackrell",
        "col1": "Green Bay Packers",
        "col2": "Green Bay Packers",
        "col3": "1991-11-25",
        "col4": "88"
    },
    {
        "col0": "K. Wilson",
        "col1": "New Orleans Saints",
        "col2": "New Orleans Saints",
        "col3": "1987-05-30",
        "col4": "29"
    },
    {
        "col0": "K. Williams",
        "col1": "Buffalo Bills",
        "col2": "Buffalo Bills",
        "col3": "1983-06-10",
        "col4": "134"
    },
    {
        "col0": "K. Wilber",
        "col1": "Dallas Cowboys",
        "col2": "Dallas Cowboys",
        "col3": "1989-04-26",
        "col4": "113"
    },
    {
        "col0": "K. V. Noy",
        "col1": "Detroit Lions",
        "col2": "Detroit Lions",
        "col3": "1991-03-26",
        "col4": "40"
    },
    {
        "col0": "K. Rudolph",
        "col1": "Minnesota Vikings",
        "col2": "Minnesota Vikings",
        "col3": "1989-11-09",
        "col4": "43"
    },
    {
        "col0": "K. Murphy",
        "col1": "Green Bay Packers",
        "col2": "Green Bay Packers",
        "col3": "1993-12-11",
        "col4": "200"
    },
    {
        "col0": "K. Long",
        "col1": "Chicago Bears",
        "col2": "Chicago Bears",
        "col3": "1988-12-05",
        "col4": "20"
    },
    {
        "col0": "K. Juszczyk",
        "col1": "Baltimore Ravens",
        "col2": "Baltimore Ravens",
        "col3": "1991-04-23",
        "col4": "130"
    },
    {
        "col0": "K. Fuller",
        "col1": "Chicago Bears",
        "col2": "Chicago Bears",
        "col3": "1992-02-16",
        "col4": "14"
    },
    {
        "col0": "K. Alexander",
        "col1": "Tampa Bay Buccaneers",
        "col2": "Tampa Bay Buccaneers",
        "col3": "1994-08-03",
        "col4": "124"
    },
    {
        "col0": "K. Sokoli",
        "col1": "Indianapolis Colts",
        "col2": "Indianapolis Colts",
        "col3": "1991-09-24",
        "col4": "214"
    },
    {
        "col0": "K. Kocurek",
        "col1": "Seattle Seahawks",
        "col2": "Detroit Lions",
        "col3": "1978-11-15",
        "col4": "237"
    },
    {
        "col0": "K. Urbik",
        "col1": "Buffalo Bills",
        "col2": "Miami Dolphins",
        "col3": "1985-09-23",
        "col4": "79"
    },
    {
        "col0": "K. Toomer",
        "col1": "Dallas Cowboys",
        "col2": "San Diego Chargers",
        "col3": "1988-12-09",
        "col4": "154"
    },
    {
        "col0": "K. Listenbee",
        "col1": "Buffalo Bills",
        "col2": "Buffalo Bills",
        "col3": "1994-1-25",
        "col4": "192"
    },
    {
        "col0": "K. Davis",
        "col1": "Green Bay Packers",
        "col2": "Green Bay Packers",
        "col3": "1991-10-5",
        "col4": "96"
    },
    {
        "col0": "K. Cousins",
        "col1": "Washington Redskins",
        "col2": "Washington Redskins",
        "col3": "1988-08-19",
        "col4": "102"
    },
    {
        "col0": "K. Alonso",
        "col1": "Buffalo Bills",
        "col2": "Miami Dolphins",
        "col3": "1990-08-14",
        "col4": "46"
    },
    {
        "col0": "K. Thornton",
        "col1": "Detroit Lions",
        "col2": "Detroit Lions",
        "col3": "1989-11-21",
        "col4": "85"
    },
    {
        "col0": "K. Mack",
        "col1": "Oakland Raiders",
        "col2": "Oakland Raiders",
        "col3": "1991-02-22",
        "col4": "5"
    },
    {
        "col0": "K. Seymour",
        "col1": "Buffalo Bills",
        "col2": "Buffalo Bills",
        "col3": "1993-11-30",
        "col4": "218"
    },
    {
        "col0": "K. Zeitler",
        "col1": "Cincinnati Bengals",
        "col2": "Cincinnati Bengals",
        "col3": "1990-03-08",
        "col4": "27"
    },
    {
        "col0": "K. White",
        "col1": "Chicago Bears",
        "col2": "Chicago Bears",
        "col3": "1992-06-25",
        "col4": "7"
    },
    {
        "col0": "K. Thomas",
        "col1": "Indianapolis Colts",
        "col2": "Free agent",
        "col3": "1986-09-20",
        "col4": "94"
    },
    {
        "col0": "K. Smith",
        "col1": "Detroit Lions",
        "col2": "Free agent",
        "col3": "1986-12-17",
        "col4": "64"
    },
    {
        "col0": "K. Pierre-Louis",
        "col1": "Seattle Seahawks",
        "col2": "Seattle Seahawks",
        "col3": "1991-10-07",
        "col4": "132"
    },
    {
        "col0": "K. Pamphile",
        "col1": "Tampa Bay Buccaneers",
        "col2": "Tampa Bay Buccaneers",
        "col3": "1990-11-27",
        "col4": "149"
    },
    {
        "col0": "K. Norwood",
        "col1": "Carolina Panthers",
        "col2": "San Diego Chargers",
        "col3": "1989-09-23",
        "col4": "123"
    },
    {
        "col0": "K. Minter",
        "col1": "Arizona Cardinals",
        "col2": "Arizona Cardinals",
        "col3": "1990-12-03",
        "col4": "45"
    },
    {
        "col0": "K. Johnson",
        "col1": "Houston Texans",
        "col2": "Houston Texans",
        "col3": "1992-08-05",
        "col4": "16"
    },
    {
        "col0": "K. Dodd",
        "col1": "Tennessee Titans",
        "col2": "Tennessee Titans",
        "col3": "1992-07-14",
        "col4": "33"
    },
    {
        "col0": "K. Byard",
        "col1": "Tennessee Titans",
        "col2": "Tennessee Titans",
        "col3": "1993-08-17",
        "col4": "64"
    },
    {
        "col0": "K. Martin",
        "col1": "Houston Texans",
        "col2": "San Francisco 49ers",
        "col3": "1990-03-15",
        "col4": "121"
    },
    {
        "col0": "K. Williams",
        "col1": "Arizona Cardinals",
        "col2": "Arizona Cardinals",
        "col3": "1991-6-9",
        "col4": "230"
    },
    {
        "col0": "K. Drake",
        "col1": "Miami Dolphins",
        "col2": "Miami Dolphins",
        "col3": "1994-01-26",
        "col4": "73"
    },
    {
        "col0": "K. Austin",
        "col1": "Saskatchewan Roughriders",
        "col2": "Hamilton Tiger-Cats",
        "col3": "1963-6-25",
        "col4": "312"
    },
    {
        "col0": "K. Vaccaro",
        "col1": "New Orleans Saints",
        "col2": "New Orleans Saints",
        "col3": "1991-02-15",
        "col4": "15"
    },
    {
        "col0": "K. Stills",
        "col1": "Miami Dolphins",
        "col2": "Miami Dolphins",
        "col3": "1992-04-22",
        "col4": "144"
    },
    {
        "col0": "K. Lawler",
        "col1": "Seattle Seahawks",
        "col2": "Seattle Seahawks",
        "col3": "1994-06-25",
        "col4": "243"
    },
    {
        "col0": "K. Clark",
        "col1": "Green Bay Packers",
        "col2": "Green Bay Packers",
        "col3": "1995-10-04",
        "col4": "27"
    },
    {
        "col0": "K. Bell",
        "col1": "Baltimore Ravens",
        "col2": "Baltimore Ravens",
        "col3": "1992-02-25",
        "col4": "162"
    },
    {
        "col0": "K. Dixon",
        "col1": "Baltimore Ravens",
        "col2": "Baltimore Ravens",
        "col3": "1994-01-21",
        "col4": "134"
    },
    {
        "col0": "K. Acker",
        "col1": "Kansas City Chiefs",
        "col2": "Kansas City Chiefs",
        "col3": "1992-02-06",
        "col4": "180"
    },
    {
        "col0": "K. Barner",
        "col1": "Carolina Panthers",
        "col2": "Philadelphia Eagles",
        "col3": "1989-4-28",
        "col4": "182"
    },
    {
        "col0": "K. Wright",
        "col1": "Tennessee Titans",
        "col2": "Tennessee Titans",
        "col3": "1989-11-12",
        "col4": "20"
    },
    {
        "col0": "K. Reyes",
        "col1": "Kansas City Chiefs",
        "col2": "Kansas City Chiefs",
        "col3": "1989-09-26",
        "col4": "49"
    },
    {
        "col0": "K. James",
        "col1": "Cleveland Browns",
        "col2": "Free agent",
        "col3": "1991-06-29",
        "col4": "184"
    },
    {
        "col0": "K. Fuller",
        "col1": "Washington Redskins",
        "col2": "Washington Redskins",
        "col3": "1995-02-13",
        "col4": "84"
    },
    {
        "col0": "K. Shackleford",
        "col1": "Kansas City Chiefs",
        "col2": "Free agent",
        "col3": "1985-02-02",
        "col4": "190"
    },
    {
        "col0": "K. Ishmael",
        "col1": "Atlanta Falcons",
        "col2": "Atlanta Falcons",
        "col3": "1991-05-06",
        "col4": "243"
    },
    {
        "col0": "K. Taylor",
        "col1": "San Francisco 49ers",
        "col2": "San Francisco 49ers",
        "col3": "1993-09-28",
        "col4": "211"
    },
    {
        "col0": "K. Sheppard",
        "col1": "Buffalo Bills",
        "col2": "New York Giants",
        "col3": "1988-01-02",
        "col4": "68"
    },
    {
        "col0": "K. Benjamin",
        "col1": "Carolina Panthers",
        "col2": "Carolina Panthers",
        "col3": "1991-02-05",
        "col4": "28"
    },
    {
        "col0": "K. Beachum",
        "col1": "Jacksonville Jaguars",
        "col2": "Jacksonville Jaguars",
        "col3": "1989-06-08",
        "col4": "248"
    },
    {
        "col0": "K. W. II",
        "col1": "Cleveland Browns",
        "col2": "Free agent",
        "col3": "1983-7-21",
        "col4": "6"
    },
    {
        "col0": "K. Osemele",
        "col1": "Baltimore Ravens",
        "col2": "Oakland Raiders",
        "col3": "1989-06-24",
        "col4": "60"
    },
    {
        "col0": "K. Tandy",
        "col1": "Tampa Bay Buccaneers",
        "col2": "Tampa Bay Buccaneers",
        "col3": "1989-02-12",
        "col4": "174"
    },
    {
        "col0": "K. Mumphery",
        "col1": "Houston Texans",
        "col2": "Houston Texans",
        "col3": "1992-06-05",
        "col4": "175"
    },
    {
        "col0": "K. McGill",
        "col1": "Oakland Raiders",
        "col2": "Oakland Raiders",
        "col3": "1989-03-09",
        "col4": "116"
    },
    {
        "col0": "K. Marshall",
        "col1": "Washington Redskins",
        "col2": "Washington Redskins",
        "col3": "1994-02-16",
        "col4": "242"
    },
    {
        "col0": "K. Russell",
        "col1": "Cincinnati Bengals",
        "col2": "Cincinnati Bengals",
        "col3": "1993-10-19",
        "col4": "74"
    },
    {
        "col0": "K. Allen",
        "col1": "San Diego Chargers",
        "col2": "San Diego Chargers",
        "col3": "1992-4-27",
        "col4": "76"
    },
    {
        "col0": "K. Neal",
        "col1": "Atlanta Falcons",
        "col2": "Atlanta Falcons",
        "col3": "1995-07-26",
        "col4": "17"
    },
    {
        "col0": "K. Webster",
        "col1": "Denver Broncos",
        "col2": "Denver Broncos",
        "col3": "1991-02-01",
        "col4": "90"
    },
    {
        "col0": "K. Short",
        "col1": "Carolina Panthers",
        "col2": "Carolina Panthers",
        "col3": "1989-2-2",
        "col4": "44"
    },
    {
        "col0": "K. Frazier",
        "col1": "Dallas Cowboys",
        "col2": "Dallas Cowboys",
        "col3": "1994-08-11",
        "col4": "212"
    },
    {
        "col0": "K. Williams",
        "col1": "Buffalo Bills",
        "col2": "Pittsburgh Steelers",
        "col3": "1993-05-04",
        "col4": "155"
    },
    {
        "col0": "K. Dansby",
        "col1": "Arizona Cardinals",
        "col2": "Cincinnati Bengals",
        "col3": "1981-11-03",
        "col4": "33"
    },
    {
        "col0": "K. Joseph",
        "col1": "Oakland Raiders",
        "col2": "Oakland Raiders",
        "col3": "1993-09-08",
        "col4": "14"
    },
    {
        "col0": "K. Martin",
        "col1": "Arizona Cardinals",
        "col2": "Arizona Cardinals",
        "col3": "1992-02-19",
        "col4": "84"
    },
    {
        "col0": "K. Lewis-Moore",
        "col1": "Baltimore Ravens",
        "col2": "Baltimore Ravens",
        "col3": "1990-01-24",
        "col4": "200"
    },
    {
        "col0": "K. Correa",
        "col1": "Baltimore Ravens",
        "col2": "Baltimore Ravens",
        "col3": "1994-04-27",
        "col4": "42"
    },
    {
        "col0": "K. Reed",
        "col1": "Tennessee Titans",
        "col2": "Tennessee Titans",
        "col3": "1993-12-29",
        "col4": "253"
    },
    {
        "col0": "K. Clay",
        "col1": "Tampa Bay Buccaneers",
        "col2": "Baltimore Ravens",
        "col3": "1992-01-03",
        "col4": "184"
    },
    {
        "col0": "K. Carey",
        "col1": "Chicago Bears",
        "col2": "Chicago Bears",
        "col3": "1992-10-30",
        "col4": "117"
    },
    {
        "col0": "K. J. Wright",
        "col1": "Seattle Seahawks",
        "col2": "Seattle Seahawks",
        "col3": "1989-07-23",
        "col4": "99"
    },
    {
        "col0": "K. J. Dillon",
        "col1": "Houston Texans",
        "col2": "Houston Texans",
        "col3": "1993-5-11",
        "col4": "159"
    },
    {
        "col0": "J. Burris",
        "col1": "New York Jets",
        "col2": "New York Jets",
        "col3": "1993-08-04",
        "col4": "118"
    },
    {
        "col0": "J. Simmons",
        "col1": "Denver Broncos",
        "col2": "Denver Broncos",
        "col3": "1993-11-19",
        "col4": "98"
    },
    {
        "col0": "J. Pugh",
        "col1": "New York Giants",
        "col2": "New York Giants",
        "col3": "1990-08-15",
        "col4": "19"
    },
    {
        "col0": "J. Hunter",
        "col1": "Buffalo Bills",
        "col2": "Buffalo Bills",
        "col3": "1991-05-20",
        "col4": "34"
    },
    {
        "col0": "J. Griffith",
        "col1": "Atlanta Falcons",
        "col2": "Oakland Raiders",
        "col3": "1980-07-21",
        "col4": "121"
    },
    {
        "col0": "J. Gilbert",
        "col1": "Cleveland Browns",
        "col2": "Pittsburgh Steelers",
        "col3": "1991-11-7",
        "col4": "8"
    },
    {
        "col0": "J. Ellis",
        "col1": "Oakland Raiders",
        "col2": "Oakland Raiders",
        "col3": "1990-12-27",
        "col4": "107"
    },
    {
        "col0": "J. Britt",
        "col1": "Seattle Seahawks",
        "col2": "Seattle Seahawks",
        "col3": "1985-10-12",
        "col4": "64"
    },
    {
        "col0": "J. Blackmon",
        "col1": "Jacksonville Jaguars",
        "col2": "Jacksonville Jaguars",
        "col3": "1990-01-09",
        "col4": "5"
    },
    {
        "col0": "J. Bethel",
        "col1": "Arizona Cardinals",
        "col2": "Arizona Cardinals",
        "col3": "1990-06-17",
        "col4": "177"
    },
    {
        "col0": "J. Bannan",
        "col1": "St. Louis Rams",
        "col2": "Free agent",
        "col3": "1979-04-18",
        "col4": "139"
    },
    {
        "col0": "J. Anderson",
        "col1": "Indianapolis Colts",
        "col2": "Free agent",
        "col3": "1988-04-15",
        "col4": "208"
    },
    {
        "col0": "J. Thomas",
        "col1": "Denver Broncos",
        "col2": "Jacksonville Jaguars",
        "col3": "1988-06-27",
        "col4": "129"
    },
    {
        "col0": "J. Garrett",
        "col1": "Buffalo Bills",
        "col2": "Dallas Cowboys",
        "col3": "1967-6-25",
        "col4": "328"
    },
    {
        "col0": "J. Perry",
        "col1": "San Diego Chargers",
        "col2": "San Diego Chargers",
        "col3": "1994-0-0",
        "col4": "102"
    },
    {
        "col0": "J. Garnett",
        "col1": "San Francisco 49ers",
        "col2": "San Francisco 49ers",
        "col3": "1994-02-21",
        "col4": "28"
    },
    {
        "col0": "J. Thomas",
        "col1": "Minnesota Vikings",
        "col2": "Dallas Cowboys",
        "col3": "1989-05-03",
        "col4": "143"
    },
    {
        "col0": "J. Sitton",
        "col1": "Chicago Bears",
        "col2": "Chicago Bears",
        "col3": "1986-06-16",
        "col4": "135"
    },
    {
        "col0": "J. Shaw",
        "col1": "Cincinnati Bengals",
        "col2": "Cincinnati Bengals",
        "col3": "1992-03-27",
        "col4": "120"
    },
    {
        "col0": "J. Scobee",
        "col1": "Jacksonville Jaguars",
        "col2": "New Orleans Saints",
        "col3": "1982-06-23",
        "col4": "137"
    },
    {
        "col0": "J. Robinson",
        "col1": "Indianapolis Colts",
        "col2": "Saskatchewan Roughriders",
        "col3": "1992-08-24",
        "col4": "205"
    },
    {
        "col0": "J. Robinson",
        "col1": "Tampa Bay Buccaneers",
        "col2": "Tampa Bay Buccaneers",
        "col3": "1991-01-08",
        "col4": "66"
    },
    {
        "col0": "J. Norman",
        "col1": "Carolina Panthers",
        "col2": "Washington Redskins",
        "col3": "1987-12-15",
        "col4": "143"
    },
    {
        "col0": "J. Kaddu",
        "col1": "Miami Dolphins",
        "col2": "Free agent",
        "col3": "1990-03-12",
        "col4": "155"
    },
    {
        "col0": "J. Huff",
        "col1": "Philadelphia Eagles",
        "col2": "Philadelphia Eagles",
        "col3": "1991-10-14",
        "col4": "86"
    },
    {
        "col0": "J. Doctson",
        "col1": "Washington Redskins",
        "col2": "Washington Redskins",
        "col3": "1992-12-03",
        "col4": "22"
    },
    {
        "col0": "J. Boyd",
        "col1": "Green Bay Packers",
        "col2": "Free agent",
        "col3": "1989-08-03",
        "col4": "167"
    },
    {
        "col0": "J. Boyce",
        "col1": "Cleveland Browns",
        "col2": "Cleveland Browns",
        "col3": "1990-1-22",
        "col4": "102"
    },
    {
        "col0": "J. Nelson",
        "col1": "Green Bay Packers",
        "col2": "Green Bay Packers",
        "col3": "1985-5-31",
        "col4": "36"
    },
    {
        "col0": "J. Tripp",
        "col1": "Seattle Seahawks",
        "col2": "Seattle Seahawks",
        "col3": "1991-04-03",
        "col4": "171"
    },
    {
        "col0": "J. Todman",
        "col1": "Carolina Panthers",
        "col2": "Indianapolis Colts",
        "col3": "1990-02-24",
        "col4": "183"
    },
    {
        "col0": "J. Richards",
        "col1": "New England Patriots",
        "col2": "New England Patriots",
        "col3": "1993-01-23",
        "col4": "64"
    },
    {
        "col0": "J. Reed",
        "col1": "Washington Redskins",
        "col2": "Washington Redskins",
        "col3": "1990-07-03",
        "col4": "85"
    },
    {
        "col0": "J. Poyer",
        "col1": "Cleveland Browns",
        "col2": "Cleveland Browns",
        "col3": "1991-4-25",
        "col4": "218"
    },
    {
        "col0": "J. Phillips",
        "col1": "Miami Dolphins",
        "col2": "Miami Dolphins",
        "col3": "1992-09-21",
        "col4": "52"
    },
    {
        "col0": "J. Payton",
        "col1": "Cleveland Browns",
        "col2": "Cleveland Browns",
        "col3": "1993-09-01",
        "col4": "154"
    },
    {
        "col0": "J. Mills",
        "col1": "Buffalo Bills",
        "col2": "Buffalo Bills",
        "col3": "1990-12-24",
        "col4": "163"
    },
    {
        "col0": "J. Matthews",
        "col1": "Philadelphia Eagles",
        "col2": "Philadelphia Eagles",
        "col3": "1992-07-16",
        "col4": "42"
    },
    {
        "col0": "J. Lucas",
        "col1": "Miami Dolphins",
        "col2": "Miami Dolphins",
        "col3": "1993-08-02",
        "col4": "204"
    },
    {
        "col0": "J. Jenkins",
        "col1": "New York Jets",
        "col2": "New York Jets",
        "col3": "1994-07-01",
        "col4": "83"
    },
    {
        "col0": "J. Howard",
        "col1": "Chicago Bears",
        "col2": "Chicago Bears",
        "col3": "1994-11-02",
        "col4": "150"
    },
    {
        "col0": "J. Hicks",
        "col1": "Philadelphia Eagles",
        "col2": "Philadelphia Eagles",
        "col3": "1992-06-27",
        "col4": "84"
    },
    {
        "col0": "J. Green",
        "col1": "Winnipeg Blue Bombers",
        "col2": "Winnipeg Blue Bombers",
        "col3": "1989-07-19",
        "col4": "196"
    },
    {
        "col0": "J. Williams",
        "col1": "Buffalo Bills",
        "col2": "Buffalo Bills",
        "col3": "1994-02-02",
        "col4": "156"
    },
    {
        "col0": "J. Stewart",
        "col1": "Carolina Panthers",
        "col2": "Carolina Panthers",
        "col3": "1987-03-21",
        "col4": "13"
    },
    {
        "col0": "J. Smith",
        "col1": "Buffalo Bills",
        "col2": "Free agent",
        "col3": "1981-11-28",
        "col4": "214"
    },
    {
        "col0": "J. Newsome",
        "col1": "Saskatchewan Roughriders",
        "col2": "Saskatchewan Roughriders",
        "col3": "1991-01-22",
        "col4": "166"
    },
    {
        "col0": "J. Dowling",
        "col1": "Buffalo Bills",
        "col2": "Buffalo Bills",
        "col3": "1991-12-08",
        "col4": "247"
    },
    {
        "col0": "J. Cooper",
        "col1": "Arizona Cardinals",
        "col2": "Cleveland Browns",
        "col3": "1990-01-19",
        "col4": "7"
    },
    {
        "col0": "J. Bullard",
        "col1": "Chicago Bears",
        "col2": "Chicago Bears",
        "col3": "1993-10-22",
        "col4": "72"
    },
    {
        "col0": "J. Babineaux",
        "col1": "Atlanta Falcons",
        "col2": "Atlanta Falcons",
        "col3": "1981-10-12",
        "col4": "59"
    },
    {
        "col0": "J. Halapio",
        "col1": "Arizona Cardinals",
        "col2": "New York Giants",
        "col3": "1991-06-23",
        "col4": "179"
    },
    {
        "col0": "J. Feliciano",
        "col1": "Oakland Raiders",
        "col2": "Oakland Raiders",
        "col3": "1992-02-10",
        "col4": "128"
    },
    {
        "col0": "J. Bostic",
        "col1": "Chicago Bears",
        "col2": "Detroit Lions",
        "col3": "1991-05-05",
        "col4": "50"
    },
    {
        "col0": "J. Banks",
        "col1": "Tampa Bay Buccaneers",
        "col2": "Tampa Bay Buccaneers",
        "col3": "1989-10-03",
        "col4": "43"
    },
    {
        "col0": "J. Holland",
        "col1": "Green Bay Packers",
        "col2": "Cleveland Browns",
        "col3": "1965-03-11",
        "col4": "41"
    },
    {
        "col0": "J. Hankins",
        "col1": "New York Giants",
        "col2": "New York Giants",
        "col3": "1992-03-29",
        "col4": "49"
    },
    {
        "col0": "J. Urschel",
        "col1": "Baltimore Ravens",
        "col2": "Baltimore Ravens",
        "col3": "1991-06-24",
        "col4": "175"
    },
    {
        "col0": "J. Theus",
        "col1": "San Francisco 49ers",
        "col2": "San Francisco 49ers",
        "col3": "1994-01-19",
        "col4": "145"
    },
    {
        "col0": "J. Simon",
        "col1": "Baltimore Ravens",
        "col2": "Houston Texans",
        "col3": "1990-10-14",
        "col4": "129"
    },
    {
        "col0": "J. Jenkins",
        "col1": "New Orleans Saints",
        "col2": "New Orleans Saints",
        "col3": "1989-07-11",
        "col4": "82"
    },
    {
        "col0": "J. Hufnagel",
        "col1": "Denver Broncos",
        "col2": "Calgary Stampeders",
        "col3": "1951-09-13",
        "col4": "348"
    },
    {
        "col0": "J. Elway",
        "col1": "Denver Broncos",
        "col2": "Denver Broncos",
        "col3": "1960-6-28",
        "col4": "1"
    },
    {
        "col0": "J. Brown",
        "col1": "Arizona Cardinals",
        "col2": "Arizona Cardinals",
        "col3": "1990-04-03",
        "col4": "91"
    },
    {
        "col0": "J. Boyett",
        "col1": "Denver Broncos",
        "col2": "Ottawa Redblacks",
        "col3": "1989-12-20",
        "col4": "192"
    },
    {
        "col0": "J. Hunt",
        "col1": "Seattle Seahawks",
        "col2": "Seattle Seahawks",
        "col3": "1994-02-22",
        "col4": "215"
    },
    {
        "col0": "J. Bosa",
        "col1": "San Diego Chargers",
        "col2": "San Diego Chargers",
        "col3": "1995-07-11",
        "col4": "3"
    },
    {
        "col0": "J. Bitonio",
        "col1": "Cleveland Browns",
        "col2": "Cleveland Browns",
        "col3": "1991-10-11",
        "col4": "35"
    },
    {
        "col0": "J. Webb",
        "col1": "Carolina Panthers",
        "col2": "Carolina Panthers",
        "col3": "1986-11-14",
        "col4": "199"
    },
    {
        "col0": "J. Walker",
        "col1": "Philadelphia Eagles",
        "col2": "Philadelphia Eagles",
        "col3": "1993-0-0",
        "col4": "251"
    }
]