[
    {
        "col0": "M. Mathews",
        "col1": "West Virginia",
        "col2": "Mathews",
        "col3": "1878-09-16"
    },
    {
        "col0": "M. Tarrero-Serrano",
        "col1": "Miami-Dade County",
        "col2": "C. Prio-Touzet",
        "col3": "2010-09-23"
    },
    {
        "col0": "Martin Miguel de Guemes",
        "col1": "Argentina",
        "col2": "M. Guemes",
        "col3": "1821-06-17"
    },
    {
        "col0": "M. D. Hardin",
        "col1": "Kentucky",
        "col2": "C. A. Wickliffe",
        "col3": "1823-10-08"
    },
    {
        "col0": "Martin Miguel de Guemes",
        "col1": "Argentina",
        "col2": "F. Guemes",
        "col3": "1821-06-17"
    },
    {
        "col0": "M. S. Bidwell",
        "col1": "New York",
        "col2": "B. Bidwell",
        "col3": "1872-10-24"
    },
    {
        "col0": "M. McDonald",
        "col1": "United States",
        "col2": "A. W. McDonald",
        "col3": "1895-09-01"
    },
    {
        "col0": "M. Partridge",
        "col1": "Zimbabwe",
        "col2": "B. Black",
        "col3": "2007-12-13"
    },
    {
        "col0": "M. E. Heath",
        "col1": "Bath, Somerset",
        "col2": "L. Bragg",
        "col3": "2005-09-28"
    },
    {
        "col0": "M. Dewar",
        "col1": "Ontario",
        "col2": "P. Dewar",
        "col3": "2008-09-15"
    },
    {
        "col0": "M. Olier",
        "col1": "Buenos Aires",
        "col2": "Godson",
        "col3": "1816-12-27"
    },
    {
        "col0": "M. Moreno",
        "col1": "International waters",
        "col2": "M. Moreno",
        "col3": "1811-03-04"
    },
    {
        "col0": "M. Wettenhall",
        "col1": "Australia",
        "col2": "H. Wettenhall",
        "col3": "1951-01-25"
    },
    {
        "col0": "M. Paz",
        "col1": "Buenos Aires",
        "col2": "Alejo Julio Argentino Roca",
        "col3": "1868-01-02"
    },
    {
        "col0": "Marcelo Torcuato de Alvear",
        "col1": "Buenos Aires",
        "col2": "T. d. Alvear",
        "col3": "1942-04-23"
    },
    {
        "col0": "M. Dun",
        "col1": "Beijing",
        "col2": "S. Zemin",
        "col3": "1981-03-27"
    },
    {
        "col0": "Manuel de Jesus Troncoso de la Concha",
        "col1": "Dominican Republic",
        "col2": "C. M. Troncoso",
        "col3": "1955-05-30"
    },
    {
        "col0": "M. L. Quezon",
        "col1": "Manila",
        "col2": "M. Quezon",
        "col3": "1944-08-01"
    },
    {
        "col0": "M. F. Iribarne",
        "col1": "Madrid",
        "col2": "C. F. Estevez",
        "col3": "2012-01-15"
    },
    {
        "col0": "M. al-Atrash",
        "col1": "Syria",
        "col2": "S. al-Atrash",
        "col3": "2006-11-14"
    },
    {
        "col0": "M. A. Sr.",
        "col1": "Texas",
        "col2": "N. Abraham",
        "col3": "1994-05-30"
    },
    {
        "col0": "M. R. Patterson",
        "col1": "Sarasota, Florida",
        "col2": "V. F. Durr",
        "col3": "1935-03-08"
    },
    {
        "col0": "M. McIntyre",
        "col1": "Australia",
        "col2": "D. McIntyre",
        "col3": "1969-08-12"
    },
    {
        "col0": "M. Lafargue",
        "col1": "Louisiana",
        "col2": "A. Lafargue",
        "col3": "1963-03-28"
    },
    {
        "col0": "M. Hebert",
        "col1": "Alexandria, Louisiana",
        "col2": "B. D. Ryland",
        "col3": "2006-09-23"
    },
    {
        "col0": "M. C. Cameron",
        "col1": "Ontario",
        "col2": "M. Cameron",
        "col3": "1898-09-26"
    },
    {
        "col0": "M. B. Jr.",
        "col1": "California",
        "col2": "L. Baldrige",
        "col3": "1987-07-25"
    },
    {
        "col0": "M. B. Daly",
        "col1": "City of Halifax",
        "col2": "D. Daly",
        "col3": "1920-04-26"
    },
    {
        "col0": "M. B. Khaing",
        "col1": "British Burma",
        "col2": "Mahn Win Khaing Than",
        "col3": "1947-07-19"
    },
    {
        "col0": "M. Nhu",
        "col1": "Italy",
        "col2": "N. D. Diem",
        "col3": "2011-04-24"
    },
    {
        "col0": "M. Abbott",
        "col1": "Scone, New South Wales",
        "col2": "J. Abbott",
        "col3": "1960-12-30"
    },
    {
        "col0": "M. Howard",
        "col1": "Christchurch",
        "col2": "T. Howard",
        "col3": "1972-06-23"
    },
    {
        "col0": "L. Wardlow",
        "col1": "Austin, Texas",
        "col2": "S. L. Gunn",
        "col3": "1970-08-01"
    },
    {
        "col0": "L. P. Blackburn",
        "col1": "Frankfort, Kentucky",
        "col2": "Joseph Clay Stiles Blackburn",
        "col3": "1887-09-14"
    },
    {
        "col0": "L. C. Galan",
        "col1": "Bogota",
        "col2": "A. V. Sarmiento",
        "col3": "1989-08-18"
    },
    {
        "col0": "L. B. Berres",
        "col1": "Montevideo",
        "col2": "Jose Batlle y Ordonez",
        "col3": "1964-07-15"
    },
    {
        "col0": "Luis Adolfo Siles Salinas",
        "col1": "Bolivia",
        "col2": "H. S. Zuazo",
        "col3": "2005-10-19"
    },
    {
        "col0": "L. Cannon",
        "col1": "Quebec",
        "col2": "L. Cannon",
        "col3": "1950-02-14"
    },
    {
        "col0": "L. Sylvestre",
        "col1": "Quebec",
        "col2": "A. Sylvestre",
        "col3": "1914-02-10"
    },
    {
        "col0": "L. O. Breithaupt",
        "col1": "Toronto",
        "col2": "L. J. Breithaupt",
        "col3": "1960-12-12"
    },
    {
        "col0": "L. Hope",
        "col1": "Geneva",
        "col2": "W. Dumaresq",
        "col3": "1894-08-15"
    },
    {
        "col0": "L. Hodgson",
        "col1": "Dysart et al, Ontario",
        "col2": "R. G. Hodgson",
        "col3": "2012-07-07"
    },
    {
        "col0": "L. H. Davies",
        "col1": "Ottawa",
        "col2": "B. Davies",
        "col3": "1924-05-01"
    },
    {
        "col0": "L. Hagey",
        "col1": "Brantford",
        "col2": "J. B. Hagey",
        "col3": "1967-03-12"
    },
    {
        "col0": "L. Beaubien",
        "col1": "Quebec",
        "col2": "P. Beaubien",
        "col3": "1915-07-19"
    },
    {
        "col0": "L. A. Olivier",
        "col1": "Quebec",
        "col2": "L. Olivier",
        "col3": "1881-09-18"
    },
    {
        "col0": "L. Masson",
        "col1": "Montreal",
        "col2": "J. Masson",
        "col3": "1903-11-08"
    },
    {
        "col0": "L. d. Grandpre",
        "col1": "Saint-Lambert, Quebec",
        "col2": "J. d. Grandpre",
        "col3": "2008-01-24"
    },
    {
        "col0": "L. Beaubien",
        "col1": "Ontario",
        "col2": "C. Beaubien",
        "col3": "1985-03-28"
    },
    {
        "col0": "L. Loranger",
        "col1": "Quebec",
        "col2": "T. Loranger",
        "col3": "1917-08-18"
    },
    {
        "col0": "L. Fortin",
        "col1": "Quebec",
        "col2": "J. Fortin",
        "col3": "1892-03-31"
    },
    {
        "col0": "L. Moll",
        "col1": "Quebec",
        "col2": "Joseph Bondy, dit Douaire",
        "col3": "1872-08-05"
    },
    {
        "col0": "L. d. Calliere",
        "col1": "Quebec City",
        "col2": "F. d. Callieres",
        "col3": "1703-05-26"
    },
    {
        "col0": "L. Giroux",
        "col1": "Brome Lake, Quebec",
        "col2": "J. Bertrand",
        "col3": "1945-06-16"
    },
    {
        "col0": "L. Tanada",
        "col1": "Manila",
        "col2": "L. T. III",
        "col3": "1992-05-28"
    },
    {
        "col0": "L. Chengzhi",
        "col1": "Beijing",
        "col2": "L. Zhongkai",
        "col3": "1983-06-10"
    },
    {
        "col0": "L. Tse-fong",
        "col1": "Nevada",
        "col2": "A. Li",
        "col3": "1953-9-5"
    },
    {
        "col0": "L. K. Rockefeller",
        "col1": "New York",
        "col2": "R. family",
        "col3": "1948-09-18"
    },
    {
        "col0": "L. Hotop",
        "col1": "New Zealand",
        "col2": "J. Hotop",
        "col3": "1922-9-29"
    },
    {
        "col0": "L. F. Allen",
        "col1": "Buffalo, New York",
        "col2": "G. Cleveland",
        "col3": "1890-05-02"
    },
    {
        "col0": "L. Wood",
        "col1": "Australia",
        "col2": "P. Wood",
        "col3": "1958-03-29"
    },
    {
        "col0": "L. Brizola",
        "col1": "Rio de Janeiro",
        "col2": "J. Goulart",
        "col3": "2004-06-21"
    },
    {
        "col0": "L. Wilcox",
        "col1": "Orford, New Hampshire",
        "col2": "S. Morey",
        "col3": "1850-06-18"
    },
    {
        "col0": "L. Isitt",
        "col1": "Christchurch",
        "col2": "F. Isitt",
        "col3": "1937-07-29"
    },
    {
        "col0": "L. H. Arnold",
        "col1": "Rhode Island",
        "col2": "I. P. Rodman",
        "col3": "1852-06-27"
    },
    {
        "col0": "L. McCarthy",
        "col1": "Ontario",
        "col2": "D. McCarthy",
        "col3": "1952-10-03"
    },
    {
        "col0": "Lawrence Arthur Dumoulin Cannon",
        "col1": "Ontario",
        "col2": "L. Cannon",
        "col3": "1939-12-25"
    },
    {
        "col0": "L. David",
        "col1": "Montreal",
        "col2": "P. David",
        "col3": "1926-08-24"
    },
    {
        "col0": "L. Grossman",
        "col1": "Ontario",
        "col2": "A. Grossman",
        "col3": "1997-06-22"
    },
    {
        "col0": "L. C. Haynes",
        "col1": "Memphis, Tennessee",
        "col2": "N. G. Taylor",
        "col3": "1875-02-17"
    },
    {
        "col0": "L. M. Pasha",
        "col1": "Constantinople",
        "col2": "S. M. Pasha",
        "col3": "1580-08-07"
    },
    {
        "col0": "K. Kido",
        "col1": "Tokyo",
        "col2": "K. Takayoshi",
        "col3": "1977-04-06"
    },
    {
        "col0": "Kopruluzade Fazil Ahmed Pasha",
        "col1": "Constantinople",
        "col2": "Koprulu Fazil Mustafa Pasha",
        "col3": "1676-11-03"
    },
    {
        "col0": "K. M. Pasha",
        "col1": "Ottoman Empire",
        "col2": "Koprulu Fazil Mustafa Pasha",
        "col3": "1661-10-31"
    },
    {
        "col0": "Koprulu Fazil Mustafa Pasha",
        "col1": "Sanjak of Syrmia",
        "col2": "K. M. Pasha",
        "col3": "1691-08-19"
    },
    {
        "col0": "K. Tisza",
        "col1": "Budapest",
        "col2": "I. Tisza",
        "col3": "1902-03-23"
    },
    {
        "col0": "K. Stewart",
        "col1": "Canterbury, New South Wales",
        "col2": "F. Stewart",
        "col3": "2006-08-22"
    },
    {
        "col0": "K. Lyons",
        "col1": "Australia",
        "col2": "J. Lyons",
        "col3": "2000-05-24"
    },
    {
        "col0": "K. O'Donnell",
        "col1": "Boston",
        "col2": "C. O'Donnell",
        "col3": "1977-09-09"
    },
    {
        "col0": "K. M. Landis",
        "col1": "Chicago",
        "col2": "C. B. Landis",
        "col3": "1944-11-25"
    },
    {
        "col0": "K. Sebelius",
        "col1": "Kansas",
        "col2": "K. Sebelius",
        "col3": "1982-08-05"
    },
    {
        "col0": "K. Holyoake",
        "col1": "Wellington",
        "col2": "K. Comber",
        "col3": "1983-12-08"
    },
    {
        "col0": "K. Clark",
        "col1": "Eldon, Prince Edward Island",
        "col2": "R. C. Clark",
        "col3": "2010-11-28"
    },
    {
        "col0": "K. M. Pasha",
        "col1": "Belgrade",
        "col2": "Koprulu Fazil Mustafa Pasha",
        "col3": "1683-12-25"
    },
    {
        "col0": "K. Mara",
        "col1": "Fiji",
        "col2": "K. Nailatikau",
        "col3": "2004-04-18"
    },
    {
        "col0": "K. Kido",
        "col1": "Tokyo",
        "col2": "K. Takayoshi",
        "col3": "1977-04-06"
    },
    {
        "col0": "Kopruluzade Fazil Ahmed Pasha",
        "col1": "Ottoman Empire",
        "col2": "Koprulu Fazil Mustafa Pasha",
        "col3": "1676-11-03"
    }
]