[
    {
        "col0": "Wiqu",
        "col1": "Andes",
        "col2": "Peru",
        "col3": "5200"
    },
    {
        "col0": "Winterstock",
        "col1": "Urner Alps",
        "col2": "Canton of Uri",
        "col3": "3203"
    },
    {
        "col0": "Winterstein",
        "col1": "Elbe Sandstone Mountains",
        "col2": "Saxony",
        "col3": "390"
    },
    {
        "col0": "Wintersberg",
        "col1": "Spessart",
        "col2": "Germany",
        "col3": "434"
    },
    {
        "col0": "Wintanani",
        "col1": "Andes",
        "col2": "La Paz Department",
        "col3": "5428"
    },
    {
        "col0": "Winsu",
        "col1": "Andes",
        "col2": "Peru",
        "col3": "5000"
    },
    {
        "col0": "Wini Wini",
        "col1": "Andes",
        "col2": "Peru",
        "col3": "4800"
    },
    {
        "col0": "Winfield Peak",
        "col1": "Sawatch Range",
        "col2": "Colorado",
        "col3": "3988"
    },
    {
        "col0": "Windy Peak",
        "col1": "Front Range",
        "col2": "Colorado",
        "col3": "3648"
    },
    {
        "col0": "Windy Hill",
        "col1": "Pennines",
        "col2": "England",
        "col3": "389"
    },
    {
        "col0": "Window Peak",
        "col1": "Teton Range",
        "col2": "United States",
        "col3": "3202"
    },
    {
        "col0": "Windom Peak",
        "col1": "San Juan Mountains",
        "col2": "Colorado",
        "col3": "4295"
    },
    {
        "col0": "Windham High Peak",
        "col1": "Catskill Mountains",
        "col2": "New York",
        "col3": "1074"
    },
    {
        "col0": "Windberg",
        "col1": "Dohlen Basin",
        "col2": "Germany",
        "col3": "353"
    },
    {
        "col0": "Wind River Peak",
        "col1": "Wind River Range",
        "col2": "Wyoming",
        "col3": "4022"
    },
    {
        "col0": "Winchus Hirka",
        "col1": "Andes",
        "col2": "Peru",
        "col3": "4200"
    },
    {
        "col0": "Winchus",
        "col1": "Andes",
        "col2": "Peru",
        "col3": "4200"
    },
    {
        "col0": "Winchu Q'asa",
        "col1": "Andes",
        "col2": "Peru",
        "col3": "5000"
    },
    {
        "col0": "Win Green Down",
        "col1": "North Wessex Downs",
        "col2": "Wiltshire",
        "col3": "277"
    },
    {
        "col0": "Wiluyu Janq'u Uma",
        "col1": "Andes",
        "col2": "Bolivia",
        "col3": "5540"
    },
    {
        "col0": "Wiluyu",
        "col1": "Andes",
        "col2": "Peru",
        "col3": "4600"
    },
    {
        "col0": "Wiluyu",
        "col1": "Andes",
        "col2": "Peru",
        "col3": "5200"
    },
    {
        "col0": "Wiluyu",
        "col1": "Andes",
        "col2": "Peru",
        "col3": "4800"
    },
    {
        "col0": "Wiluyu",
        "col1": "Andes",
        "col2": "Peru",
        "col3": "5000"
    },
    {
        "col0": "Wiluyu",
        "col1": "Andes",
        "col2": "Peru",
        "col3": "4800"
    },
    {
        "col0": "Wiluqu",
        "col1": "Andes",
        "col2": "Bolivia",
        "col3": "4700"
    },
    {
        "col0": "Wilson Peak",
        "col1": "San Miguel Mountains",
        "col2": "Colorado",
        "col3": "4274"
    },
    {
        "col0": "Wilson Hills, Gujarat",
        "col1": "Western Ghats",
        "col2": "India",
        "col3": "870"
    },
    {
        "col0": "Willulluni",
        "col1": "Andes",
        "col2": "Peru",
        "col3": "5000"
    },
    {
        "col0": "Willu Punchu",
        "col1": "Andes",
        "col2": "Peru",
        "col3": "5100"
    },
    {
        "col0": "Wills Mountain",
        "col1": "Allegheny Mountains",
        "col2": "United States",
        "col3": "850"
    },
    {
        "col0": "Willkarana",
        "col1": "Wansu mountain range",
        "col2": "Peru",
        "col3": "5300"
    },
    {
        "col0": "Willkani",
        "col1": "Andes",
        "col2": "Peru",
        "col3": "5200"
    },
    {
        "col0": "Willk'i",
        "col1": "Andes",
        "col2": "Bolivia",
        "col3": "4974"
    },
    {
        "col0": "Williamson Mountain",
        "col1": "Cascade Range",
        "col2": "Oregon",
        "col3": "1921"
    },
    {
        "col0": "Williamsburg Mountain",
        "col1": "Appalachian Mountains",
        "col2": "Pennsylvania",
        "col3": "716"
    },
    {
        "col0": "Williams Peak",
        "col1": "Sawtooth Range",
        "col2": "United States",
        "col3": "3241"
    },
    {
        "col0": "Williams Peak",
        "col1": "Front Range",
        "col2": "Colorado",
        "col3": "3541"
    },
    {
        "col0": "William Rust Summit",
        "col1": "Berkeley Hills",
        "col2": "California",
        "col3": "306"
    },
    {
        "col0": "Wilkie Sugar Loaf",
        "col1": "Cape Breton Highlands",
        "col2": "Nova Scotia",
        "col3": "411"
    },
    {
        "col0": "Wilkethochi",
        "col1": "Appenzell Alps",
        "col2": "Canton of St. Gallen",
        "col3": "1172"
    },
    {
        "col0": "Wilerhorn",
        "col1": "Emmental Alps",
        "col2": "Canton of Bern",
        "col3": "2005"
    },
    {
        "col0": "Wilerhorn",
        "col1": "Bernese Alps",
        "col2": "Switzerland",
        "col3": "3307"
    },
    {
        "col0": "Wildstrubel",
        "col1": "Bernese Alps",
        "col2": "Canton of Bern",
        "col3": "3244"
    },
    {
        "col0": "Wildspitze",
        "col1": "Otztal Alps",
        "col2": "Austria",
        "col3": "3770"
    },
    {
        "col0": "Wildspitz",
        "col1": "Schwyzer Alps",
        "col2": "Canton of Schwyz",
        "col3": "1580"
    },
    {
        "col0": "Wildseeloder",
        "col1": "Kitzbuhel Alps",
        "col2": "Austria",
        "col3": "2119"
    },
    {
        "col0": "Wildnorderer",
        "col1": "Otztal Alps",
        "col2": "Austria",
        "col3": "3015"
    },
    {
        "col0": "Wildkogel",
        "col1": "Kitzbuhel Alps",
        "col2": "Austria",
        "col3": "2224"
    },
    {
        "col0": "Wildkarspitze",
        "col1": "Zillertal Alps",
        "col2": "Austria",
        "col3": "3073"
    },
    {
        "col0": "Wildkarspitze",
        "col1": "Kitzbuhel Alps",
        "col2": "Austria",
        "col3": "1961"
    },
    {
        "col0": "Wildi Frau",
        "col1": "Bernese Alps",
        "col2": "Canton of Bern",
        "col3": "3274"
    },
    {
        "col0": "Wildhuser Schafberg",
        "col1": "Appenzell Alps",
        "col2": "Canton of St. Gallen",
        "col3": "2373"
    },
    {
        "col0": "Wildhorn",
        "col1": "Bernese Alps",
        "col2": "Canton of Bern",
        "col3": "3248"
    },
    {
        "col0": "Wildgarst",
        "col1": "Bernese Alps",
        "col2": "Canton of Bern",
        "col3": "2891"
    },
    {
        "col0": "Wildgrat",
        "col1": "Otztal Alps",
        "col2": "Austria",
        "col3": "2971"
    },
    {
        "col0": "Wildgall",
        "col1": "Rieserferner Group",
        "col2": "Italy",
        "col3": "3273"
    },
    {
        "col0": "Wildgarst",
        "col1": "Bernese Alps",
        "col2": "Canton of Bern",
        "col3": "2891"
    },
    {
        "col0": "Wilder Pfaff",
        "col1": "Stubai Alps",
        "col2": "Austria",
        "col3": "3458"
    },
    {
        "col0": "Wilder Freiger",
        "col1": "Stubai Alps",
        "col2": "Austria",
        "col3": "3418"
    },
    {
        "col0": "Wildenburger Kopf",
        "col1": "Hunsruck",
        "col2": "Germany",
        "col3": "664"
    },
    {
        "col0": "Wilde Leck",
        "col1": "Stubai Alps",
        "col2": "Austria",
        "col3": "3361"
    },
    {
        "col0": "Wilde Kreuzspitze",
        "col1": "Zillertal Alps",
        "col2": "Italy",
        "col3": "3134"
    },
    {
        "col0": "Wildcat Mountain",
        "col1": "Carter-Moriah Range",
        "col2": "New Hampshire",
        "col3": "1238"
    }
]