[
    {
        "col0": "M. Oliver",
        "col1": "Minnesota",
        "col2": "Boston Bruins",
        "col3": "2014-11-23"
    },
    {
        "col0": "M. Murdoch",
        "col1": "South Carolina",
        "col2": "New York Rangers",
        "col3": "2001-05-17"
    },
    {
        "col0": "M. Henderson",
        "col1": "Canada",
        "col2": "Boston Bruins",
        "col3": "2013-01-04"
    },
    {
        "col0": "M. Davison",
        "col1": "Colorado",
        "col2": "Boston Bruins",
        "col3": "2000-01-13"
    },
    {
        "col0": "M. Armstrong",
        "col1": "Florida",
        "col2": "Detroit Red Wings",
        "col3": "2010-12-08"
    },
    {
        "col0": "M. Bruneteau",
        "col1": "Houston",
        "col2": "Detroit Red Wings",
        "col3": "1982-04-15"
    },
    {
        "col0": "M. Bruce",
        "col1": "Canada",
        "col2": "Ottawa Senators",
        "col3": "1959-11-25"
    },
    {
        "col0": "M. Johnson",
        "col1": "British Columbia",
        "col2": "Montreal Hockey Club",
        "col3": "1963-03-25"
    },
    {
        "col0": "M. Goheen",
        "col1": "Minnesota",
        "col2": "Buffalo Majors",
        "col3": "1979-11-13"
    },
    {
        "col0": "M. White",
        "col1": "Canada",
        "col2": "Montreal Canadiens",
        "col3": "2003-02-15"
    },
    {
        "col0": "M. M. Sr.",
        "col1": "Canada",
        "col2": "Quebec Aces",
        "col3": "2015-09-18"
    },
    {
        "col0": "M. Galand",
        "col1": "Canada",
        "col2": "Oshawa Generals",
        "col3": "2007-07-24"
    },
    {
        "col0": "M. Hlinka",
        "col1": "Slovakia",
        "col2": "Jokerit",
        "col3": "2014-09-14"
    },
    {
        "col0": "M. Dvorak",
        "col1": "Ceske Budejovice",
        "col2": "HC Ceske Budejovice",
        "col3": "2008-06-12"
    },
    {
        "col0": "M. Marcetta",
        "col1": "British Columbia",
        "col2": "Toronto Maple Leafs",
        "col3": "2014-09-18"
    },
    {
        "col0": "M. Kajkl",
        "col1": "Czech Republic",
        "col2": "HC Dukla Jihlava",
        "col3": "2014-01-18"
    },
    {
        "col0": "M. Balandin",
        "col1": "Russia",
        "col2": "Kontinental Hockey League",
        "col3": "2011-09-07"
    },
    {
        "col0": "M. M. Jr.",
        "col1": "United States",
        "col2": "National Hockey League",
        "col3": "2013-04-29"
    },
    {
        "col0": "M. Karakas",
        "col1": "Minnesota",
        "col2": "Chicago Blackhawks",
        "col3": "1992-05-02"
    },
    {
        "col0": "M. Grant",
        "col1": "Canada",
        "col2": "Montreal Victorias",
        "col3": "1955-08-20"
    },
    {
        "col0": "M. Colman",
        "col1": "Kansas City, Missouri",
        "col2": "Ferris State University",
        "col3": "1994-04-05"
    },
    {
        "col0": "M. Byers",
        "col1": "United States",
        "col2": "Buffalo Sabres",
        "col3": "2010-09-16"
    },
    {
        "col0": "M. Roach",
        "col1": "Canada",
        "col2": "Hamilton Tigers",
        "col3": "1977-04-01"
    },
    {
        "col0": "M. O'Leary",
        "col1": "Canada",
        "col2": "Toronto Blueshirts",
        "col3": "1954-09-12"
    },
    {
        "col0": "M. McGuire",
        "col1": "Canada",
        "col2": "Cleveland Indians",
        "col3": "1968-05-23"
    },
    {
        "col0": "M. MacKay",
        "col1": "British Columbia",
        "col2": "Boston Bruins",
        "col3": "1940-05-30"
    },
    {
        "col0": "M. Turler",
        "col1": "Switzerland",
        "col2": "EHC Biel",
        "col3": "2010-04-08"
    },
    {
        "col0": "M. Plasse",
        "col1": "Canada",
        "col2": "Pittsburgh Penguins",
        "col3": "2006-12-30"
    },
    {
        "col0": "M. Mongeau",
        "col1": "Canada",
        "col2": "St. Louis Blues",
        "col3": "2010-05-22"
    },
    {
        "col0": "M. Larocque",
        "col1": "Canada",
        "col2": "Philadelphia Flyers",
        "col3": "1992-07-29"
    },
    {
        "col0": "M. Labadie",
        "col1": "Quebec City",
        "col2": "New York Rangers",
        "col3": "1990-4-17"
    },
    {
        "col0": "M. Briere",
        "col1": "Canada",
        "col2": "Pittsburgh Penguins",
        "col3": "1971-04-13"
    },
    {
        "col0": "M. Breistroff",
        "col1": "United States",
        "col2": "Ducs d'Angers",
        "col3": "1996-07-17"
    },
    {
        "col0": "M. Prystai",
        "col1": "Canada",
        "col2": "Chicago Blackhawks",
        "col3": "2013-10-08"
    },
    {
        "col0": "M. Pearson",
        "col1": "Canada",
        "col2": "Pittsburgh Penguins",
        "col3": "1999-01-09"
    },
    {
        "col0": "M. Hill",
        "col1": "Canada",
        "col2": "Boston Bruins",
        "col3": "1996-04-11"
    },
    {
        "col0": "M. Shuvalov",
        "col1": "Russia",
        "col2": "Lokomotiv Yaroslavl",
        "col3": "2011-09-07"
    },
    {
        "col0": "M. Sutherland",
        "col1": "Alberta",
        "col2": "Boston Bruins",
        "col3": "1984-02-11"
    },
    {
        "col0": "M. McNab",
        "col1": "Las Vegas",
        "col2": "Detroit Red Wings",
        "col3": "2007-09-02"
    },
    {
        "col0": "M. Bentley",
        "col1": "Canada",
        "col2": "Chicago Blackhawks",
        "col3": "1984-01-19"
    },
    {
        "col0": "M. Richard",
        "col1": "Montreal",
        "col2": "Montreal Canadiens",
        "col3": "2000-05-27"
    },
    {
        "col0": "M. Courteau",
        "col1": "Canada",
        "col2": "Boston Bruins",
        "col3": "1985-11-20"
    },
    {
        "col0": "M. Benoit",
        "col1": "Dayton, Ohio",
        "col2": "Omaha Knights",
        "col3": "2013-12-10"
    },
    {
        "col0": "M. Wasama",
        "col1": "Finland",
        "col2": "SM-liiga",
        "col3": "1970-07-10"
    },
    {
        "col0": "M. Hagman",
        "col1": "Espoo",
        "col2": "National Hockey League",
        "col3": "2016-10-11"
    },
    {
        "col0": "M. Barry",
        "col1": "Canada",
        "col2": "Boston Bruins",
        "col3": "1969-08-20"
    },
    {
        "col0": "M. Cech",
        "col1": "Czech Republic",
        "col2": "Metallurg Magnitogorsk",
        "col3": "2007-09-06"
    },
    {
        "col0": "M. Zoborosky",
        "col1": "Arizona",
        "col2": "Chicago Blackhawks",
        "col3": "1989-06-01"
    },
    {
        "col0": "M. Cech",
        "col1": "Czech Republic",
        "col2": "HC Sibir Novosibirsk",
        "col3": "2007-09-06"
    },
    {
        "col0": "M. Darling",
        "col1": "Alberta",
        "col2": "Edmonton Mercurys",
        "col3": "2009-10-27"
    },
    {
        "col0": "M. Reeds",
        "col1": "Canada",
        "col2": "St. Louis Blues",
        "col3": "2015-04-14"
    },
    {
        "col0": "M. Marquess",
        "col1": "United States",
        "col2": "Boston Bruins",
        "col3": "2015-01-19"
    },
    {
        "col0": "M. Green",
        "col1": "New York",
        "col2": "South Carolina Stingrays",
        "col3": "2004-10-05"
    },
    {
        "col0": "M. Bavis",
        "col1": "New York",
        "col2": "Providence Bruins",
        "col3": "2001-09-11"
    },
    {
        "col0": "M. Pronovost",
        "col1": "Canada",
        "col2": "Detroit Red Wings",
        "col3": "2015-04-26"
    },
    {
        "col0": "M. Potvin",
        "col1": "Michigan",
        "col2": "Boston Bruins",
        "col3": "2006-01-13"
    },
    {
        "col0": "M. Dufour",
        "col1": "Canada",
        "col2": "American Hockey League",
        "col3": "2015-01-23"
    },
    {
        "col0": "M. Kalimulin",
        "col1": "Russia",
        "col2": "Lokomotiv Yaroslavl",
        "col3": "2011-09-07"
    },
    {
        "col0": "M. Hughes",
        "col1": "Alberta",
        "col2": "Lethbridge Maple Leafs",
        "col3": "1995-03-18"
    },
    {
        "col0": "M. Goodman",
        "col1": "Florida",
        "col2": "Winnipeg Falcons",
        "col3": "1991-07-18"
    },
    {
        "col0": "M. Colville",
        "col1": "Alberta",
        "col2": "New York Rangers",
        "col3": "2003-05-27"
    },
    {
        "col0": "L. Patrick",
        "col1": "Missouri",
        "col2": "New York Rangers",
        "col3": "1980-01-26"
    },
    {
        "col0": "L. Cajka",
        "col1": "Czechoslovakia",
        "col2": "HC Dukla Jihlava",
        "col3": "1990-02-14"
    },
    {
        "col0": "L. Check",
        "col1": "Canada",
        "col2": "Chicago Blackhawks",
        "col3": "2009-05-11"
    },
    {
        "col0": "L. Cajka",
        "col1": "Czechoslovakia",
        "col2": "HC Dukla Jihlava",
        "col3": "1990-02-14"
    },
    {
        "col0": "L. Bourdon",
        "col1": "Lameque, New Brunswick",
        "col2": "Vancouver Canucks",
        "col3": "2008-05-29"
    },
    {
        "col0": "L. Holmes",
        "col1": "Alberta",
        "col2": "Chicago Blackhawks",
        "col3": "2010-03-11"
    },
    {
        "col0": "L. Berlinguette",
        "col1": "Quebec",
        "col2": "National Hockey League",
        "col3": "1959-06-01"
    },
    {
        "col0": "L. Jankowski",
        "col1": "Florida",
        "col2": "Chicago Blackhawks",
        "col3": "2010-03-21"
    },
    {
        "col0": "L. Fontinato",
        "col1": "Guelph",
        "col2": "Montreal Canadiens",
        "col3": "2016-07-03"
    },
    {
        "col0": "L. Bates",
        "col1": "England",
        "col2": "Wembley Lions",
        "col3": "1987-07-30"
    },
    {
        "col0": "L. Kremershof",
        "col1": "Tonisvorst",
        "col2": "Krefeld Pinguine",
        "col3": "2003-12-01"
    },
    {
        "col0": "L. Davis",
        "col1": "Canada",
        "col2": "Boston Bruins",
        "col3": "2007-12-20"
    },
    {
        "col0": "L. Chabot",
        "col1": "Canada",
        "col2": "Chicago Blackhawks",
        "col3": "1946-10-10"
    },
    {
        "col0": "L. Carr",
        "col1": "Alberta",
        "col2": "New York Rangers",
        "col3": "2007-06-09"
    },
    {
        "col0": "L. Campbell",
        "col1": "Pennsylvania",
        "col2": "Montreal Hockey Club",
        "col3": "1957-05-06"
    },
    {
        "col0": "L. Hinchberger",
        "col1": "Canada",
        "col2": "Nashville Dixie Flyers",
        "col3": "2015-10-03"
    },
    {
        "col0": "L. Cook",
        "col1": "Alberta",
        "col2": "Boston Bruins",
        "col3": "1964-10-09"
    },
    {
        "col0": "L. Andrews",
        "col1": "Detroit",
        "col2": "Toronto St. Pats",
        "col3": "1974-11-17"
    },
    {
        "col0": "L. Ailsby",
        "col1": "Canada",
        "col2": "New York Rangers",
        "col3": "2007-05-08"
    },
    {
        "col0": "L. Hitchman",
        "col1": "New York",
        "col2": "Boston Bruins",
        "col3": "1969-01-12"
    },
    {
        "col0": "L. Heinrich",
        "col1": "British Columbia",
        "col2": "Boston Bruins",
        "col3": "2014-04-21"
    },
    {
        "col0": "L. Patrick",
        "col1": "British Columbia",
        "col2": "New York Rangers",
        "col3": "1960-06-01"
    },
    {
        "col0": "L. Hunt",
        "col1": "Canada",
        "col2": "San Diego Gulls",
        "col3": "2013-11-06"
    },
    {
        "col0": "L. Cunningham",
        "col1": "Calgary",
        "col2": "New York Americans",
        "col3": "1993-04-09"
    },
    {
        "col0": "L. Costello",
        "col1": "Canada",
        "col2": "Toronto Maple Leafs",
        "col3": "2002-12-10"
    },
    {
        "col0": "L. Colvin",
        "col1": "Canada",
        "col2": "Boston Bruins",
        "col3": "2006-09-07"
    },
    {
        "col0": "L. R. Jr.",
        "col1": "Canada",
        "col2": "Chicago Blackhawks",
        "col3": "2015-07-26"
    },
    {
        "col0": "L. Lucchini",
        "col1": "British Columbia",
        "col2": "Edmonton Mercurys",
        "col3": "1991-08-04"
    },
    {
        "col0": "L. Lamoureux",
        "col1": "Indiana",
        "col2": "Montreal Canadiens",
        "col3": "1961-01-11"
    },
    {
        "col0": "L. Lafrance",
        "col1": "Minnesota",
        "col2": "Chicago Blackhawks",
        "col3": "1993-04-07"
    },
    {
        "col0": "L. Gravelle",
        "col1": "Canada",
        "col2": "Detroit Red Wings",
        "col3": "2013-10-30"
    },
    {
        "col0": "L. Cook",
        "col1": "British Columbia",
        "col2": "Vancouver Millionaires",
        "col3": "1964-12-03"
    },
    {
        "col0": "L. Carbol",
        "col1": "Missouri",
        "col2": "Chicago Blackhawks",
        "col3": "1991-11-13"
    },
    {
        "col0": "L. Svedberg",
        "col1": "Sweden",
        "col2": "Mora IK",
        "col3": "1972-07-29"
    },
    {
        "col0": "L. Ronson",
        "col1": "Oregon",
        "col2": "New York Rangers",
        "col3": "2014-09-29"
    },
    {
        "col0": "L. Lunde",
        "col1": "Alberta",
        "col2": "National Hockey League",
        "col3": "2010-11-22"
    },
    {
        "col0": "L. F. Sr.",
        "col1": "Thunder Bay",
        "col2": "Chicago Blackhawks",
        "col3": "2000-11-29"
    },
    {
        "col0": "L. McCormick",
        "col1": "Massachusetts",
        "col2": "Pittsburgh Yellow Jackets",
        "col3": "1961-12-30"
    },
    {
        "col0": "L. Sjoberg",
        "col1": "Sweden",
        "col2": "Frolunda HC",
        "col3": "1987-10-20"
    },
    {
        "col0": "L. Zeidel",
        "col1": "Pennsylvania",
        "col2": "Chicago Blackhawks",
        "col3": "2014-06-17"
    },
    {
        "col0": "L. Wilson",
        "col1": "New York",
        "col2": "Chicago Blackhawks",
        "col3": "1979-08-16"
    },
    {
        "col0": "L. Thibeault",
        "col1": "Canada",
        "col2": "National Hockey League",
        "col3": "1977-04-02"
    },
    {
        "col0": "L. Regan",
        "col1": "Canada",
        "col2": "Boston Bruins",
        "col3": "2009-03-09"
    },
    {
        "col0": "L. Molyneaux",
        "col1": "Canada",
        "col2": "New York Rangers",
        "col3": "1966-05-24"
    },
    {
        "col0": "L. Gilmour",
        "col1": "Canada",
        "col2": "Montreal Wanderers",
        "col3": "1922-04-15"
    },
    {
        "col0": "L. Cahan",
        "col1": "Fort William, Ontario",
        "col2": "National Hockey League",
        "col3": "1992-06-25"
    },
    {
        "col0": "L. Aurie",
        "col1": "Detroit",
        "col2": "Detroit Red Wings",
        "col3": "1952-12-11"
    },
    {
        "col0": "L. Archambeault",
        "col1": "United States",
        "col2": "Baltimore Orioles",
        "col3": "1981-05-06"
    },
    {
        "col0": "L. Neumaier",
        "col1": "Austria",
        "col2": "Wiener EV",
        "col3": "1986-7-0"
    },
    {
        "col0": "L. S. Dukowski",
        "col1": "British Columbia",
        "col2": "Chicago Blackhawks",
        "col3": "1976-09-26"
    },
    {
        "col0": "K. Skrastins",
        "col1": "Russia",
        "col2": "Colorado Avalanche",
        "col3": "2011-09-07"
    },
    {
        "col0": "K. PelA!s",
        "col1": "Latvia",
        "col2": "Oklahoma City Barons",
        "col3": "2013-06-11"
    },
    {
        "col0": "K. Johannesson",
        "col1": "Canada",
        "col2": "Winnipeg Falcons",
        "col3": "1968-10-25"
    },
    {
        "col0": "K. Vajarov",
        "col1": "Bulgaria",
        "col2": "HC Slavia Sofia",
        "col3": "2009-04-18"
    },
    {
        "col0": "K. Clancy",
        "col1": "Ontario",
        "col2": "Toronto Maple Leafs",
        "col3": "1986-11-10"
    },
    {
        "col0": "K. MacDonald",
        "col1": "Florida",
        "col2": "New York Rangers",
        "col3": "1986-05-11"
    },
    {
        "col0": "K. O'Shea",
        "col1": "Canada",
        "col2": "Buffalo Sabres",
        "col3": "2010-01-18"
    },
    {
        "col0": "K. Douglas",
        "col1": "Canada",
        "col2": "Detroit Red Wings",
        "col3": "2009-04-12"
    },
    {
        "col0": "K. Thompson",
        "col1": "Milwaukee",
        "col2": "Montreal Wanderers",
        "col3": "1933-11-25"
    },
    {
        "col0": "K. Stewart",
        "col1": "British Columbia",
        "col2": "Chicago Blackhawks",
        "col3": "2002-04-04"
    },
    {
        "col0": "K. Reardon",
        "col1": "Canada",
        "col2": "Montreal Canadiens",
        "col3": "2008-03-15"
    }
]