[
    {
        "col0": "Lakehurst Hangar No. 1",
        "col1": "United States Navy",
        "col2": "1921",
        "col3": "19642"
    },
    {
        "col0": "Kykuit",
        "col1": "National Trust for Historic Preservation",
        "col2": "1913",
        "col3": "13759311"
    },
    {
        "col0": "Kreidersville Covered Bridge",
        "col1": "Allen Township, Northampton County, Pennsylvania",
        "col2": "1840",
        "col3": "404"
    },
    {
        "col0": "Kingsley Plantation",
        "col1": "National Park Service",
        "col2": "1797",
        "col3": "242811"
    },
    {
        "col0": "King David Kalakaua Building",
        "col1": "Hawaii",
        "col2": "1922",
        "col3": "11331"
    },
    {
        "col0": "Keokuk National Cemetery",
        "col1": "United States Department of Veterans Affairs",
        "col2": "1862",
        "col3": "87816"
    },
    {
        "col0": "Kennett Square Historic District",
        "col1": "Federal architecture",
        "col2": "1855",
        "col3": "554419"
    },
    {
        "col0": "Kennecott, Alaska",
        "col1": "National Park Service",
        "col2": "1911",
        "col3": "31160794"
    },
    {
        "col0": "Kemper Hall",
        "col1": "Kenosha County, Wisconsin",
        "col2": "1911",
        "col3": "28327"
    },
    {
        "col0": "Kelsey Museum of Archaeology",
        "col1": "University of Michigan",
        "col2": "1888",
        "col3": "4046"
    },
    {
        "col0": "Kellogg's Grove",
        "col1": "Stephenson County, Illinois",
        "col2": "1827",
        "col3": "226623"
    },
    {
        "col0": "Kalaupapa Leprosy Settlement and National Historical Park",
        "col1": "National Park Service",
        "col2": "1866",
        "col3": "43621065"
    },
    {
        "col0": "Judge Joseph Barker House",
        "col1": "United States Army Corps of Engineers",
        "col2": "1832",
        "col3": "4046"
    },
    {
        "col0": "Joseph Priestley House",
        "col1": "Pennsylvania Historical and Museum Commission",
        "col2": "1894",
        "col3": "4046"
    },
    {
        "col0": "Jose V. Toledo Federal Building and United States Courthouse",
        "col1": "General Services Administration",
        "col2": "1914",
        "col3": "4046"
    },
    {
        "col0": "John W. Cook Hall",
        "col1": "Illinois State University",
        "col2": "1896",
        "col3": "4046"
    }
]