[
    {
        "col0": "W. Polk",
        "col1": "J. K. Polk",
        "col2": "Mecklenburg County, North Carolina",
        "col3": "Raleigh, North Carolina",
        "col4": "Raleigh, North Carolina",
        "col5": "William Polk Col Sig.jpg"
    },
    {
        "col0": "V. Sargsyan",
        "col1": "A. Sargsyan",
        "col2": "Ararat",
        "col3": "Yerablur",
        "col4": "Yerevan",
        "col5": "Vazgen Sargsyan signature.svg"
    },
    {
        "col0": "T. Roosevelt",
        "col1": "R. family",
        "col2": "New York",
        "col3": "New York",
        "col4": "Oyster Bay, New York",
        "col5": "Theodore Roosevelt Signature-2.svg"
    },
    {
        "col0": "T. Kennedy",
        "col1": "K. family",
        "col2": "Boston",
        "col3": "Arlington County, Virginia",
        "col4": "Hyannis Port, Massachusetts",
        "col5": "Ted Kennedy Signature 2.svg"
    },
    {
        "col0": "J. Breckinridge",
        "col1": "B. family",
        "col2": "Colony of Virginia",
        "col3": "Lexington Cemetery",
        "col4": "Lexington, Kentucky",
        "col5": "John Breckinridge Signature.svg"
    },
    {
        "col0": "C. Scott",
        "col1": "F. P. Blair",
        "col2": "Goochland County, Virginia",
        "col3": "Frankfort Cemetery",
        "col4": "Clark County, Kentucky",
        "col5": "Governor Charles Scott signature.svg"
    }
]