[
    {
        "col0": "J. L. White",
        "col1": "1893-01-12",
        "col2": "1949-12-10",
        "col3": "14-27 (basketball)"
    },
    {
        "col0": "J. L. Malone",
        "col1": "1908-03-14",
        "col2": "1979-4-1",
        "col3": "12-15"
    },
    {
        "col0": "J. L. Dutcher",
        "col1": "1918-05-10",
        "col2": "1992-12-14",
        "col3": "52-28-5"
    },
    {
        "col0": "J. Knight",
        "col1": "1875-11-16",
        "col2": "1969-03-29",
        "col3": "15-4-1"
    },
    {
        "col0": "J. Kitts",
        "col1": "1900-06-14",
        "col2": "1952-12-13",
        "col3": "21-12 (college baseball)"
    },
    {
        "col0": "J. J. Cline",
        "col1": "1899-03-02",
        "col2": "1969-07-19",
        "col3": "2-10-3"
    },
    {
        "col0": "J. Irick",
        "col1": "1923-07-30",
        "col2": "1993-02-18",
        "col3": "50-63-4 ()"
    },
    {
        "col0": "J. Hopper",
        "col1": "1876-07-23",
        "col2": "1956-08-28",
        "col3": "10-3-2"
    },
    {
        "col0": "J. Halligan",
        "col1": "1879-02-11",
        "col2": "1965-1-1",
        "col3": "20-10-3"
    },
    {
        "col0": "J. H. Wilson",
        "col1": "1940-03-06",
        "col2": "2013-03-27",
        "col3": "13-20"
    },
    {
        "col0": "J. H. Horne",
        "col1": "1874-07-24",
        "col2": "1959-04-13",
        "col3": "10-8 (baseball)"
    },
    {
        "col0": "J. Goff",
        "col1": "1912-05-13",
        "col2": "1980-02-28",
        "col3": "2-3-2"
    },
    {
        "col0": "J. G. Driver",
        "col1": "1889-08-10",
        "col2": "1975-10-1",
        "col3": "11-13-1 (football)"
    },
    {
        "col0": "J. Fullerton",
        "col1": "1909-04-09",
        "col2": "1991-03-03",
        "col3": "176-168-9 ()"
    },
    {
        "col0": "J. Farragher",
        "col1": "1873-09-10",
        "col2": "1949-02-22",
        "col3": "14-2-2"
    },
    {
        "col0": "J. F. Duffy",
        "col1": "1892-06-03",
        "col2": "1961-02-23",
        "col3": "43-12-1"
    },
    {
        "col0": "J. Dwyer",
        "col1": "1884-08-30",
        "col2": "1939-03-29",
        "col3": "28-22-2"
    },
    {
        "col0": "J. DePree",
        "col1": "1879-03-14",
        "col2": "1972-07-01",
        "col3": "4-11-3 (football)"
    },
    {
        "col0": "J. DeHart",
        "col1": "1893-08-25",
        "col2": "1935-03-04",
        "col3": "51-50-6"
    },
    {
        "col0": "J. Coombs",
        "col1": "1869-06-06",
        "col2": "1935-02-22",
        "col3": "1-4"
    },
    {
        "col0": "J. Cameron",
        "col1": "1938-09-11",
        "col2": "1995-04-01",
        "col3": "34-27-4 (college)"
    },
    {
        "col0": "J. C. Donnelly",
        "col1": "1881-12-09",
        "col2": "1952-03-24",
        "col3": "22-32-4 (college)"
    },
    {
        "col0": "J. B. Wilson",
        "col1": "1896-07-08",
        "col2": "1986-9-1",
        "col3": "40-30-7"
    },
    {
        "col0": "J. B. Modesitt",
        "col1": "1875-11-24",
        "col2": "1946-09-13",
        "col3": "3-5-2"
    },
    {
        "col0": "J. B. Craig",
        "col1": "1893-3-1",
        "col2": "1990-1-1",
        "col3": "3-4"
    },
    {
        "col0": "J. A. Brown",
        "col1": "1900-07-31",
        "col2": "1965-06-23",
        "col3": "134-127  () - basketball"
    },
    {
        "col0": "J. A. Baldwin",
        "col1": "1886-05-26",
        "col2": "1964-08-02",
        "col3": "32-25-1 (college baseball)"
    },
    {
        "col0": "J. Lawlor",
        "col1": "1907-07-27",
        "col2": "1980-07-11",
        "col3": "204-156 (basketball)"
    },
    {
        "col0": "J. Gaither",
        "col1": "1903-04-11",
        "col2": "1994-02-18",
        "col3": "204-36-4"
    },
    {
        "col0": "J. Christiansen",
        "col1": "1900-02-02",
        "col2": "1992-01-21",
        "col3": "15-8 (baseball)"
    },
    {
        "col0": "J. Cannell",
        "col1": "1896-05-30",
        "col2": "1965-3-1",
        "col3": "39-19-4"
    },
    {
        "col0": "J. Wright",
        "col1": "1871-10-30",
        "col2": "1931-10-27",
        "col3": "10-4"
    },
    {
        "col0": "J. Swartz",
        "col1": "1930-03-31",
        "col2": "1997-07-11",
        "col3": "41-30 ()"
    },
    {
        "col0": "J. Swarthout",
        "col1": "1920-02-23",
        "col2": "2005-10-01",
        "col3": "51-41-1 (college)"
    },
    {
        "col0": "J. Sisco",
        "col1": "1904-11-02",
        "col2": "1983-12-18",
        "col3": "15-27 (basketball)"
    },
    {
        "col0": "J. Scott",
        "col1": "1928-12-20",
        "col2": "2014-12-03",
        "col3": "94-52-5 (college football)"
    },
    {
        "col0": "J. Ramsay",
        "col1": "1925-02-21",
        "col2": "2014-04-28",
        "col3": "NBA: 864-783 (.525)"
    },
    {
        "col0": "J. Pardee",
        "col1": "1936-04-19",
        "col2": "2013-04-01",
        "col3": "22-11-1 (college)"
    },
    {
        "col0": "J. Owsley",
        "col1": "1883-03-17",
        "col2": "1953-07-14",
        "col3": "15-2-1"
    },
    {
        "col0": "J. Null",
        "col1": "1925-0-0",
        "col2": "2003-05-08",
        "col3": "12-58"
    },
    {
        "col0": "J. Nagle",
        "col1": "1917-1-1",
        "col2": "1991-1-1",
        "col3": "69-55 ()"
    },
    {
        "col0": "J. Mollenkopf",
        "col1": "1905-11-24",
        "col2": "1975-12-04",
        "col3": "84-39-9"
    },
    {
        "col0": "J. Mitchell",
        "col1": "1923-12-03",
        "col2": "2009-07-05",
        "col3": "74-59-7 (college)"
    },
    {
        "col0": "J. Meagher",
        "col1": "1894-07-05",
        "col2": "1968-12-07",
        "col3": "108-85-14 (college football)"
    },
    {
        "col0": "J. McDonald",
        "col1": "1908-03-06",
        "col2": "1989-10-25",
        "col3": "21-17-1 (football)"
    },
    {
        "col0": "J. Leavenworth",
        "col1": "1881-07-20",
        "col2": "1961-08-08",
        "col3": "6-4"
    },
    {
        "col0": "J. Leaman",
        "col1": "1932-12-22",
        "col2": "2004-03-06",
        "col3": "14-12 (Women's)"
    },
    {
        "col0": "J. Johnson",
        "col1": "1892-01-07",
        "col2": "1927-0-0",
        "col3": "1-2 (football)"
    },
    {
        "col0": "J. Hubbard",
        "col1": "1886-02-06",
        "col2": "1978-04-04",
        "col3": "9-20-4"
    },
    {
        "col0": "J. Hollenback",
        "col1": "1884-08-10",
        "col2": "1959-1-1",
        "col3": "21-11-3"
    },
    {
        "col0": "J. Heron",
        "col1": "1926-07-28",
        "col2": "2012-01-10",
        "col3": "196-258 (.432)"
    },
    {
        "col0": "J. Hartman",
        "col1": "1925-10-07",
        "col2": "1998-11-06",
        "col3": "589-279 (.679) (men)"
    },
    {
        "col0": "J. Harding",
        "col1": "1898-01-04",
        "col2": "1963-02-24",
        "col3": "103-69-12 (football)"
    }
]