[
    {
        "col0": "C. Johnson",
        "col1": "Maryland",
        "col2": "New York Rangers",
        "col3": "1979-06-16"
    },
    {
        "col0": "C. Maki",
        "col1": "Ontario",
        "col2": "Chicago Blackhawks",
        "col3": "2015-08-24"
    },
    {
        "col0": "C. Zamick",
        "col1": "London",
        "col2": "Cleveland Barons",
        "col3": "2007-10-08"
    },
    {
        "col0": "C. Kirby",
        "col1": "Ottawa",
        "col2": "Ottawa Hockey Club",
        "col3": "1950-10-23"
    },
    {
        "col0": "C. Uksila",
        "col1": "California",
        "col2": "Vancouver Millionaires",
        "col3": "1964-03-04"
    },
    {
        "col0": "C. Liffiton",
        "col1": "Montreal",
        "col2": "National Hockey Association",
        "col3": "1941-08-11"
    },
    {
        "col0": "C. Langlois",
        "col1": "Greater Sudbury",
        "col2": "National Hockey League",
        "col3": "1965-08-31"
    },
    {
        "col0": "C. Hodge",
        "col1": "British Columbia",
        "col2": "Montreal Canadiens",
        "col3": "2016-04-16"
    },
    {
        "col0": "C. Gardiner",
        "col1": "Canada",
        "col2": "Chicago Blackhawks",
        "col3": "1934-06-13"
    },
    {
        "col0": "C. Cotch",
        "col1": "Detroit, Michigan",
        "col2": "Toronto St. Patricks",
        "col3": "1932-11-14"
    },
    {
        "col0": "C. Conacher",
        "col1": "Canada",
        "col2": "Detroit Red Wings",
        "col3": "1967-12-30"
    },
    {
        "col0": "C. Tobin",
        "col1": "Oregon",
        "col2": "Victoria Cougars",
        "col3": "1924-05-30"
    },
    {
        "col0": "C. Spittal",
        "col1": "Canada",
        "col2": "Ottawa Senators",
        "col3": "1931-01-29"
    },
    {
        "col0": "C. Pletsch",
        "col1": "Canada",
        "col2": "Hamilton Tigers",
        "col3": "1950-07-24"
    },
    {
        "col0": "C. Masson",
        "col1": "Canada",
        "col2": "Ottawa Victorias",
        "col3": "1954-10-17"
    },
    {
        "col0": "C. Fraser",
        "col1": "Canada",
        "col2": "Hamilton Tigers",
        "col3": "1970-08-09"
    },
    {
        "col0": "C. Dillon",
        "col1": "Canada",
        "col2": "National Hockey League",
        "col3": "1969-11-13"
    },
    {
        "col0": "C. Blachford",
        "col1": "Montreal",
        "col2": "Montreal Hockey Club",
        "col3": "1965-05-10"
    },
    {
        "col0": "C. Vadnais",
        "col1": "Quebec",
        "col2": "Boston Bruins",
        "col3": "2014-08-31"
    },
    {
        "col0": "C. Voss",
        "col1": "Florida",
        "col2": "Chicago Blackhawks",
        "col3": "1993-09-13"
    },
    {
        "col0": "C. Sorokoski",
        "col1": "Alberta",
        "col2": "Lethbridge Maple Leafs",
        "col3": "1977-06-07"
    },
    {
        "col0": "C. Smith",
        "col1": "United States",
        "col2": "Detroit Red Wings",
        "col3": "1967-01-09"
    },
    {
        "col0": "C. Liscombe",
        "col1": "United States",
        "col2": "Detroit Red Wings",
        "col3": "2004-02-24"
    },
    {
        "col0": "C. Kendall",
        "col1": "British Columbia",
        "col2": "Ottawa Senators",
        "col3": "1975-09-20"
    },
    {
        "col0": "C. Brewer",
        "col1": "Canada",
        "col2": "National Hockey League",
        "col3": "2001-08-25"
    },
    {
        "col0": "C. Battell",
        "col1": "Canada",
        "col2": "Regina Capitals",
        "col3": "1988-01-31"
    },
    {
        "col0": "B. Boll",
        "col1": "Canada",
        "col2": "Boston Bruins",
        "col3": "1990-01-23"
    },
    {
        "col0": "B. Paul",
        "col1": "Memphis, Tennessee",
        "col2": "Detroit Red Wings",
        "col3": "1966-03-25"
    },
    {
        "col0": "B. McDonald",
        "col1": "British Columbia",
        "col2": "Chicago Blackhawks",
        "col3": "2006-01-08"
    },
    {
        "col0": "B. Jackson",
        "col1": "Toronto",
        "col2": "Toronto Maple Leafs",
        "col3": "1966-06-25"
    },
    {
        "col0": "B. Williams",
        "col1": "Minnesota",
        "col2": "Boston Bruins",
        "col3": "1981-02-09"
    },
    {
        "col0": "B. Cook",
        "col1": "Canada",
        "col2": "Boston Bruins",
        "col3": "1988-03-19"
    },
    {
        "col0": "B. J. Simpson",
        "col1": "Florida",
        "col2": "Winnipeg Victorias",
        "col3": "1973-12-25"
    },
    {
        "col0": "B. Poile",
        "col1": "Vancouver",
        "col2": "Boston Bruins",
        "col3": "2005-01-04"
    },
    {
        "col0": "B. Hextall",
        "col1": "Manitoba",
        "col2": "New York Rangers",
        "col3": "1984-07-25"
    },
    {
        "col0": "B. Fogarty",
        "col1": "South Carolina",
        "col2": "National Hockey League",
        "col3": "2002-03-06"
    },
    {
        "col0": "B. Stuart",
        "col1": "Canada",
        "col2": "Quebec Bulldogs",
        "col3": "1961-10-28"
    },
    {
        "col0": "B. Ridpath",
        "col1": "Canada",
        "col2": "Ottawa Senators",
        "col3": "1925-06-04"
    },
    {
        "col0": "B. Greig",
        "col1": "Alberta",
        "col2": "California Golden Seals",
        "col3": "2008-05-24"
    },
    {
        "col0": "B. Gamble",
        "col1": "Canada",
        "col2": "Boston Bruins",
        "col3": "1982-12-29"
    },
    {
        "col0": "B. Spencer",
        "col1": "Florida",
        "col2": "Buffalo Sabres",
        "col3": "1988-06-03"
    },
    {
        "col0": "B. Smith",
        "col1": "Ottawa",
        "col2": "Los Angeles Kings",
        "col3": "1995-08-02"
    },
    {
        "col0": "B. Glenwright",
        "col1": "Canada",
        "col2": "Kansas City Blues",
        "col3": "2006-8-5"
    },
    {
        "col0": "B. Cadle",
        "col1": "Alberta",
        "col2": "Winnipeg Jets",
        "col3": "2015-11-06"
    },
    {
        "col0": "B. McCrimmon",
        "col1": "Russia",
        "col2": "Boston Bruins",
        "col3": "2011-09-07"
    },
    {
        "col0": "B. Elik",
        "col1": "Canada",
        "col2": "Detroit Red Wings",
        "col3": "2013-05-02"
    },
    {
        "col0": "B. Alexandrov",
        "col1": "Russia",
        "col2": "HC CSKA Moscow",
        "col3": "2002-07-31"
    },
    {
        "col0": "B. Rowe",
        "col1": "Oregon",
        "col2": "Boston Bruins",
        "col3": "1948-09-21"
    },
    {
        "col0": "B. Genge",
        "col1": "British Columbia",
        "col2": "Victoria Aristocrats",
        "col3": "1937-09-20"
    },
    {
        "col0": "B. Connors",
        "col1": "Canada",
        "col2": "New York Americans",
        "col3": "1931-07-27"
    },
    {
        "col0": "B. Bauer",
        "col1": "Canada",
        "col2": "Boston Bruins",
        "col3": "1964-09-16"
    },
    {
        "col0": "B. Woytowich",
        "col1": "Winnipeg",
        "col2": "Boston Bruins",
        "col3": "1988-07-30"
    },
    {
        "col0": "B. Wood",
        "col1": "Alberta",
        "col2": "New York Rangers",
        "col3": "2007-11-11"
    },
    {
        "col0": "B. Watt",
        "col1": "Alberta",
        "col2": "Edmonton Mercurys",
        "col3": "2010-05-11"
    }
]