[
    {
        "col0": "Wivelsfield",
        "col1": "Lewes",
        "col2": "69",
        "col3": "59545"
    },
    {
        "col0": "Withyham",
        "col1": "Wealden",
        "col2": "72",
        "col3": "48280"
    },
    {
        "col0": "Willingdon and Jevington",
        "col1": "Wealden",
        "col2": "583",
        "col3": "82076"
    },
    {
        "col0": "Whatlington",
        "col1": "Rother",
        "col2": "66",
        "col3": "75639"
    },
    {
        "col0": "Westmeston",
        "col1": "Lewes",
        "col2": "36",
        "col3": "65983"
    },
    {
        "col0": "Westham",
        "col1": "Wealden",
        "col2": "411",
        "col3": "82076"
    },
    {
        "col0": "Westfield, East Sussex",
        "col1": "Rother",
        "col2": "137",
        "col3": "82076"
    },
    {
        "col0": "Wartling",
        "col1": "Wealden",
        "col2": "35",
        "col3": "78857"
    },
    {
        "col0": "Warbleton",
        "col1": "Wealden",
        "col2": "43",
        "col3": "67592"
    },
    {
        "col0": "Wadhurst",
        "col1": "Wealden",
        "col2": "120",
        "col3": "57936"
    },
    {
        "col0": "Udimore",
        "col1": "Rother",
        "col2": "31",
        "col3": "83685"
    },
    {
        "col0": "Uckfield",
        "col1": "Wealden",
        "col2": "1857",
        "col3": "61155"
    },
    {
        "col0": "Ticehurst",
        "col1": "Rother",
        "col2": "105",
        "col3": "62764"
    },
    {
        "col0": "Telscombe",
        "col1": "Lewes",
        "col2": "1493",
        "col3": "77248"
    },
    {
        "col0": "Tarring Neville",
        "col1": "Lewes",
        "col2": "8",
        "col3": "77248"
    },
    {
        "col0": "Streat",
        "col1": "Lewes",
        "col2": "34",
        "col3": "64373"
    },
    {
        "col0": "St John Without",
        "col1": "Lewes",
        "col2": "13",
        "col3": "65983"
    },
    {
        "col0": "St Ann Without",
        "col1": "Lewes",
        "col2": "16",
        "col3": "70811"
    },
    {
        "col0": "Southwick, West Sussex",
        "col1": "Adur",
        "col2": "1529",
        "col3": "74029"
    },
    {
        "col0": "Southease",
        "col1": "Lewes",
        "col2": "44",
        "col3": "75639"
    },
    {
        "col0": "South Heighton",
        "col1": "Lewes",
        "col2": "130",
        "col3": "78857"
    }
]