[
    {
        "col0": "Wasafiri",
        "col1": "Routledge",
        "col2": "1984",
        "col3": "67618880",
        "col4": "Quarterly"
    },
    {
        "col0": "War, Literature & the Arts",
        "col1": "United States Air Force Academy",
        "col2": "1989",
        "col3": "45894909",
        "col4": "Annually"
    },
    {
        "col0": "The Iowa Review",
        "col1": "University of Iowa",
        "col2": "1970",
        "col3": "1234380",
        "col4": "Triannual"
    },
    {
        "col0": "The Fourth River",
        "col1": "Chatham University",
        "col2": "2005",
        "col3": "62715594",
        "col4": "Annually"
    },
    {
        "col0": "Studia Albanica",
        "col1": "Academy of Sciences of Albania",
        "col2": "1964",
        "col3": "1996482",
        "col4": "Biannual"
    },
    {
        "col0": "Phi Delta Kappan",
        "col1": "SAGE Publications",
        "col2": "1915",
        "col3": "643852396",
        "col4": "8 times per year"
    },
    {
        "col0": "Nouvelle Revue Francaise",
        "col1": "Editions Gallimard",
        "col2": "1909",
        "col3": "1716860",
        "col4": "Quarterly"
    },
    {
        "col0": "New Letters",
        "col1": "University of Missouri-Kansas City",
        "col2": "1934",
        "col3": "1759882",
        "col4": "Quarterly"
    },
    {
        "col0": "Michigan Quarterly Review",
        "col1": "University of Michigan",
        "col2": "1962",
        "col3": "1757375",
        "col4": "Quarterly"
    },
    {
        "col0": "IEEE Power & Energy Magazine",
        "col1": "IEEE Power & Energy Society",
        "col2": "2003",
        "col3": "51775521",
        "col4": "Bimonthly"
    },
    {
        "col0": "IEEE Microwave Magazine",
        "col1": "IEEE Microwave Theory and Techniques Society",
        "col2": "2000",
        "col3": "424000866",
        "col4": "Bimonthly"
    },
    {
        "col0": "Foundation",
        "col1": "Science Fiction Foundation",
        "col2": "1972",
        "col3": "470148578",
        "col4": "Triannually"
    },
    {
        "col0": "Folio",
        "col1": "American University",
        "col2": "1984",
        "col3": "20236678",
        "col4": "Annual"
    },
    {
        "col0": "Finance & Development",
        "col1": "International Monetary Fund",
        "col2": "1964",
        "col3": "884610050",
        "col4": "Quarterly"
    },
    {
        "col0": "Confrontation",
        "col1": "Long Island University",
        "col2": "1968",
        "col3": "60637997",
        "col4": "Biannual"
    },
    {
        "col0": "Computer",
        "col1": "IEEE Computer Society",
        "col2": "1970",
        "col3": "2240099",
        "col4": "Monthly"
    },
    {
        "col0": "Communalism Combat",
        "col1": "Sabrang Communications",
        "col2": "1993",
        "col3": "36621054",
        "col4": "Monthly"
    },
    {
        "col0": "Chemical & Engineering News",
        "col1": "American Chemical Society",
        "col2": "1923",
        "col3": "567617114",
        "col4": "Weekly"
    },
    {
        "col0": "Berkeley Fiction Review",
        "col1": "University of California, Berkeley",
        "col2": "1981",
        "col3": "34383126",
        "col4": "Annual"
    }
]