[
    {
        "col0": "Techno",
        "col1": "Hi-NRG",
        "col2": "Alternative dance",
        "col3": "Ghettotech",
        "col4": "Hardcore techno"
    },
    {
        "col0": "Swing music",
        "col1": "Jazz",
        "col2": "New jack swing",
        "col3": "Electro swing",
        "col4": "Swing revival"
    },
    {
        "col0": "Soul music",
        "col1": "Gospel music",
        "col2": "Funk",
        "col3": "Soul jazz",
        "col4": "Smooth soul"
    },
    {
        "col0": "Rock music of West Bengal",
        "col1": "Rock and roll",
        "col2": "Rock music",
        "col3": "Rockabilly",
        "col4": "Alternative rock"
    },
    {
        "col0": "Rock music",
        "col1": "Blues",
        "col2": "New-age music",
        "col3": "Baroque pop",
        "col4": "Soft rock"
    },
    {
        "col0": "Rock and roll",
        "col1": "Boogie-woogie",
        "col2": "Rock music",
        "col3": "Death 'n' Roll",
        "col4": "Surf rock"
    },
    {
        "col0": "Rhythm and blues",
        "col1": "Jazz",
        "col2": "Disco",
        "col3": "Rock music",
        "col4": "Contemporary R&B"
    },
    {
        "col0": "Reggae",
        "col1": "Jazz",
        "col2": "Hip hop music",
        "col3": "Reggae fusion",
        "col4": "Roots reggae"
    },
    {
        "col0": "Punk rock",
        "col1": "Hard rock",
        "col2": "Alternative rock",
        "col3": "Ska punk",
        "col4": "Christian punk"
    },
    {
        "col0": "Progressive rock",
        "col1": "Classical music",
        "col2": "New-age music",
        "col3": "Progressive metal",
        "col4": "Rock in Opposition"
    },
    {
        "col0": "Post-punk",
        "col1": "Progressive music",
        "col2": "Synthpop",
        "col3": "Post-hardcore",
        "col4": "Dance-punk"
    },
    {
        "col0": "Post-hardcore",
        "col1": "Hardcore punk",
        "col2": "Blackgaze",
        "col3": "Electronicore",
        "col4": "Emo"
    },
    {
        "col0": "Outline of jazz",
        "col1": "Blues",
        "col2": "Reggae",
        "col3": "Humppa",
        "col4": "Bebop"
    },
    {
        "col0": "Kroncong",
        "col1": "Portuguese music",
        "col2": "Langgam Jawa",
        "col3": "Pop music",
        "col4": "Koes Plus"
    },
    {
        "col0": "Jazz",
        "col1": "Ragtime",
        "col2": "Ska",
        "col3": "Afrobeat",
        "col4": "Swing music"
    },
    {
        "col0": "Italo disco",
        "col1": "Disco",
        "col2": "Eurobeat",
        "col3": "Eurodance",
        "col4": "Spacesynth"
    },
    {
        "col0": "Indie rock",
        "col1": "Synthpop",
        "col2": "Neo-psychedelia",
        "col3": "Indie folk",
        "col4": "Chamber pop"
    },
    {
        "col0": "House music",
        "col1": "Disco",
        "col2": "Dance-pop",
        "col3": "Alternative dance",
        "col4": "Acid house"
    },
    {
        "col0": "Hip hop music",
        "col1": "Deejay",
        "col2": "Drum and bass",
        "col3": "Reggaeton",
        "col4": "Chicano rap"
    },
    {
        "col0": "Heavy metal music",
        "col1": "Blues rock",
        "col2": "Grunge",
        "col3": "Rap metal",
        "col4": "Black metal"
    },
    {
        "col0": "Hardcore punk",
        "col1": "New wave of British heavy metal",
        "col2": "Grunge",
        "col3": "Grindcore",
        "col4": "D-beat"
    },
    {
        "col0": "Happy hardcore",
        "col1": "Trance music",
        "col2": "4-beat",
        "col3": "Eurobeat",
        "col4": "UK hardcore"
    },
    {
        "col0": "Grime music",
        "col1": "Soca music",
        "col2": "Dubstep",
        "col3": "Grindie",
        "col4": "Dubstep"
    },
    {
        "col0": "Gospel music",
        "col1": "Hymn",
        "col2": "Country music",
        "col3": "Christian country music",
        "col4": "Southern gospel"
    },
    {
        "col0": "Gangsta rap",
        "col1": "Hip hop music",
        "col2": "Dirty rap",
        "col3": "G-funk",
        "col4": "Drill"
    },
    {
        "col0": "Funk",
        "col1": "Jazz",
        "col2": "Nu metal",
        "col3": "UK funky",
        "col4": "P-Funk"
    },
    {
        "col0": "Extreme metal",
        "col1": "Heavy metal music",
        "col2": "Power metal",
        "col3": "Drone metal",
        "col4": "Thrash metal"
    },
    {
        "col0": "Electronics in rock music",
        "col1": "Rock music",
        "col2": "Electronic dance music",
        "col3": "Alternative hip hop",
        "col4": "New wave music"
    },
    {
        "col0": "Electronica",
        "col1": "Synthpop",
        "col2": "Alternative dance",
        "col3": "Funktronica",
        "col4": "Indietronica"
    },
    {
        "col0": "Electro",
        "col1": "Boogie",
        "col2": "House music",
        "col3": "Electropop",
        "col4": "Skweee"
    },
    {
        "col0": "Dub music",
        "col1": "Reggae",
        "col2": "Electronic dance music",
        "col3": "Dubtronica",
        "col4": "Dub poetry"
    },
    {
        "col0": "Drum and bass",
        "col1": "Electronica",
        "col2": "Grime music",
        "col3": "Breakcore",
        "col4": "Darkstep"
    },
    {
        "col0": "Doom metal",
        "col1": "Heavy metal music",
        "col2": "Gothic metal",
        "col3": "Doom metal",
        "col4": "Doom metal"
    },
    {
        "col0": "Disco",
        "col1": "Psychedelic soul",
        "col2": "New wave music",
        "col3": "Dance-punk",
        "col4": "Space disco"
    },
    {
        "col0": "Death metal",
        "col1": "Hardcore punk",
        "col2": "Groove metal",
        "col3": "Blackened death metal",
        "col4": "Melodic death metal"
    },
    {
        "col0": "Dancehall",
        "col1": "Reggae",
        "col2": "Grime music",
        "col3": "Oldschool jungle",
        "col4": "Ragga"
    },
    {
        "col0": "Country music",
        "col1": "Blues",
        "col2": "Roots rock",
        "col3": "Musica sertaneja",
        "col4": "Bluegrass music"
    },
    {
        "col0": "Contemporary folk music",
        "col1": "Folk music",
        "col2": "Skiffle",
        "col3": "Folk metal",
        "col4": "Bluegrass music"
    },
    {
        "col0": "Contemporary Christian music",
        "col1": "Pop music",
        "col2": "Contemporary worship music",
        "col3": "CEDM",
        "col4": "Christian rock"
    },
    {
        "col0": "Breakbeat",
        "col1": "Post-disco",
        "col2": "Dubstep",
        "col3": "Breakstep",
        "col4": "Nu-funk"
    },
    {
        "col0": "Brazilian rock",
        "col1": "Blues",
        "col2": "Tropicalia",
        "col3": "Samba rock",
        "col4": "Brazilian thrash metal"
    },
    {
        "col0": "Boogie",
        "col1": "Synthpop",
        "col2": "Funktronica",
        "col3": "House music",
        "col4": "Electro"
    },
    {
        "col0": "Blues",
        "col1": "Work song",
        "col2": "Jazz",
        "col3": "Rhythm and blues",
        "col4": "Boogie-woogie"
    },
    {
        "col0": "Ambient music",
        "col1": "Drone music",
        "col2": "Trance music",
        "col3": "Dark ambient",
        "col4": "Dark ambient"
    },
    {
        "col0": "Alternative rock",
        "col1": "Hardcore punk",
        "col2": "Alternative country",
        "col3": "Nu metal",
        "col4": "Grunge"
    },
    {
        "col0": "2-step garage",
        "col1": "Contemporary R&B",
        "col2": "Grime music",
        "col3": "Hardstep",
        "col4": "Dubstep"
    }
]