[
    {
        "col0": "H. Manchen",
        "col1": "Bremen",
        "col2": "1978-3-20",
        "col3": "1931-5-2",
        "col4": "1931-5-2"
    },
    {
        "col0": "H. Kaufmann",
        "col1": "Berlin",
        "col2": "1997-8-31",
        "col3": "1913-9-20",
        "col4": "1913-9-20"
    },
    {
        "col0": "H. Matthiae",
        "col1": "Bernburg",
        "col2": "2000-1-1",
        "col3": "1884-12-22",
        "col4": "1884-12-22"
    },
    {
        "col0": "H. Maier",
        "col1": "Mannheim",
        "col2": "1943-3-6",
        "col3": "1909-7-13",
        "col4": "1909-7-13"
    },
    {
        "col0": "H. Eller",
        "col1": "Gdansk",
        "col2": "1943-4-4",
        "col3": "1910-8-14",
        "col4": "1910-8-14"
    },
    {
        "col0": "G. Schafer",
        "col1": "Johanngeorgenstadt",
        "col2": "1991-12-12",
        "col3": "1906-9-22",
        "col4": "1906-9-22"
    },
    {
        "col0": "G. Gossler",
        "col1": "Hamburg",
        "col2": "1940-4-4",
        "col3": "1879-4-4",
        "col4": "1879-4-4"
    },
    {
        "col0": "G. Gustmann",
        "col1": "Bonn",
        "col2": "1992-3-30",
        "col3": "1910-8-13",
        "col4": "1910-8-13"
    },
    {
        "col0": "G. Boetzelen",
        "col1": "Bernburg",
        "col2": "1995-2-27",
        "col3": "1906-1-7",
        "col4": "1906-1-7"
    },
    {
        "col0": "F. Bauer",
        "col1": "Wroclaw",
        "col2": "1992-9-19",
        "col3": "1906-6-23",
        "col4": "1906-6-23"
    },
    {
        "col0": "F. Bartholomae",
        "col1": "Krefeld",
        "col2": "1915-9-12",
        "col3": "1886-10-29",
        "col4": "1886-10-29"
    },
    {
        "col0": "F. Forberger",
        "col1": "Meissen",
        "col2": "1998-9-30",
        "col3": "1943-3-5",
        "col4": "1943-3-5"
    },
    {
        "col0": "E. Gaber",
        "col1": "Mannheim",
        "col2": "1975-8-13",
        "col3": "1907-6-6",
        "col4": "1907-6-6"
    },
    {
        "col0": "D. Wiedenmann",
        "col1": "Ulm",
        "col2": "1994-11-11",
        "col3": "1957-4-23",
        "col4": "1957-4-23"
    },
    {
        "col0": "C. Neumann",
        "col1": "Berlin",
        "col2": "1983-5-19",
        "col3": "1905-11-27",
        "col4": "1905-11-27"
    },
    {
        "col0": "C. Gossler",
        "col1": "Hamburg",
        "col2": "1914-9-9",
        "col3": "1885-4-17",
        "col4": "1885-4-17"
    },
    {
        "col0": "B. v. Gaza",
        "col1": "Usedom",
        "col2": "1917-9-25",
        "col3": "1881-5-6",
        "col4": "1881-5-6"
    },
    {
        "col0": "B. Knubel",
        "col1": "Merzig",
        "col2": "1973-2-23",
        "col3": "1938-3-2",
        "col4": "1938-3-2"
    },
    {
        "col0": "B. Rabe",
        "col1": "Hamburg",
        "col2": "2001-08-05",
        "col3": "1963-08-07",
        "col4": "1963-08-07"
    },
    {
        "col0": "A. Arnheiter",
        "col1": "Ludwigshafen",
        "col2": "1945-4-26",
        "col3": "1890-7-20",
        "col4": "1890-7-20"
    },
    {
        "col0": "A. Hill",
        "col1": "Berlin",
        "col2": "2015-08-04",
        "col3": "1935-04-01",
        "col4": "1935-04-01"
    }
]