[
    {
        "col0": "Trevinca",
        "col1": "Galician Massif",
        "col2": "Galicia",
        "col3": "2127"
    },
    {
        "col0": "Tretzevents",
        "col1": "Pyrenees",
        "col2": "Catalonia",
        "col3": "2731"
    },
    {
        "col0": "Trettachspitze",
        "col1": "Allgau Alps",
        "col2": "Bavaria",
        "col3": "2595"
    },
    {
        "col0": "Tres Picachos",
        "col1": "Cordillera Central, Puerto Rico",
        "col2": "Puerto Rico",
        "col3": "1205"
    },
    {
        "col0": "Tremuzo",
        "col1": "Galician Massif",
        "col2": "Spain",
        "col3": "531"
    },
    {
        "col0": "Treffauer",
        "col1": "Kaisergebirge",
        "col2": "Tyrol",
        "col3": "2304"
    },
    {
        "col0": "Trebevic",
        "col1": "Dinaric Alps",
        "col2": "Bosnia and Herzegovina",
        "col3": "1627"
    },
    {
        "col0": "Treasure Mountain",
        "col1": "Elk Mountains",
        "col2": "Colorado",
        "col3": "4125"
    },
    {
        "col0": "Treadmill Ridge",
        "col1": "Victoria Cross Ranges",
        "col2": "Alberta",
        "col3": "2944"
    },
    {
        "col0": "Tre Cime di Lavaredo",
        "col1": "Alps",
        "col2": "Italy",
        "col3": "2999"
    },
    {
        "col0": "Tray Mountain",
        "col1": "Blue Ridge Mountains",
        "col2": "Georgia",
        "col3": "1350"
    },
    {
        "col0": "Traverse Peak",
        "col1": "Teton Range",
        "col2": "Wyoming",
        "col3": "3368"
    },
    {
        "col0": "Traunstein",
        "col1": "Upper Austrian Prealps",
        "col2": "Austria",
        "col3": "1691"
    },
    {
        "col0": "Trask Mountain",
        "col1": "Northern Oregon Coast Range",
        "col2": "Oregon",
        "col3": "1044"
    },
    {
        "col0": "Trapper Peak",
        "col1": "Bitterroot Mountains",
        "col2": "United States",
        "col3": "3095"
    },
    {
        "col0": "Trapper Peak",
        "col1": "Waputik Mountains",
        "col2": "Alberta",
        "col3": "2988"
    },
    {
        "col0": "Trango Towers",
        "col1": "Karakoram",
        "col2": "Pakistan",
        "col3": "6286"
    },
    {
        "col0": "Tralcan",
        "col1": "Andes",
        "col2": "Chile",
        "col3": "1024"
    },
    {
        "col0": "Trakta",
        "col1": "Lofoten",
        "col2": "Nordland",
        "col3": "980"
    },
    {
        "col0": "Trafoier Eiswand",
        "col1": "Ortler Alps",
        "col2": "South Tyrol",
        "col3": "3565"
    },
    {
        "col0": "Trabuco Peak",
        "col1": "Santa Ana Mountains",
        "col2": "California",
        "col3": "1404"
    },
    {
        "col0": "Trebna",
        "col1": "Krzeszowskie Wzgorza",
        "col2": "Poland",
        "col3": "590"
    },
    {
        "col0": "Trelod",
        "col1": "Bauges",
        "col2": "France",
        "col3": "2181"
    },
    {
        "col0": "Tower Mountain",
        "col1": "Taconic Mountains",
        "col2": "Berkshire County, Massachusetts",
        "col3": "668"
    },
    {
        "col0": "Tower Mountain",
        "col1": "San Juan Mountains",
        "col2": "Colorado",
        "col3": "4132"
    },
    {
        "col0": "Tousside",
        "col1": "Tibesti Mountains",
        "col2": "Chad",
        "col3": "3315"
    },
    {
        "col0": "Tournelon Blanc",
        "col1": "Pennine Alps",
        "col2": "Switzerland",
        "col3": "3700"
    },
    {
        "col0": "Tour de Mayen",
        "col1": "Swiss Prealps",
        "col2": "Switzerland",
        "col3": "2326"
    },
    {
        "col0": "Tour de Famelon",
        "col1": "Swiss Prealps",
        "col2": "Switzerland",
        "col3": "2138"
    },
    {
        "col0": "Tour de Don",
        "col1": "Chablais Alps",
        "col2": "France",
        "col3": "1998"
    },
    {
        "col0": "Tour de Boussine",
        "col1": "Pennine Alps",
        "col2": "Switzerland",
        "col3": "3833"
    },
    {
        "col0": "Tour d'Ai",
        "col1": "Bernese Alps",
        "col2": "Switzerland",
        "col3": "2331"
    },
    {
        "col0": "Tour Salliere",
        "col1": "Chablais Alps",
        "col2": "Switzerland",
        "col3": "3220"
    },
    {
        "col0": "Tour Noir",
        "col1": "Mont Blanc Massif",
        "col2": "France",
        "col3": "3836"
    },
    {
        "col0": "Toubkal",
        "col1": "Atlas Mountains",
        "col2": "Morocco",
        "col3": "4167"
    },
    {
        "col0": "Totoket Mountain",
        "col1": "Metacomet Ridge",
        "col2": "Guilford, Connecticut",
        "col3": "219"
    },
    {
        "col0": "Totnansberg",
        "col1": "Rhon",
        "col2": "Bavaria",
        "col3": "839"
    },
    {
        "col0": "Toter Mann",
        "col1": "Black Forest",
        "col2": "Baden-Wurttemberg",
        "col3": "1320"
    },
    {
        "col0": "Totenkopf",
        "col1": "Kaiserstuhl",
        "col2": "Baden-Wurttemberg",
        "col3": "557"
    },
    {
        "col0": "Totenkopf",
        "col1": "Diemel",
        "col2": "Hochsauerlandkreis",
        "col3": "502"
    },
    {
        "col0": "Totenkirchl",
        "col1": "Kaisergebirge",
        "col2": "Austria",
        "col3": "2190"
    },
    {
        "col0": "Totenberg",
        "col1": "Weser Uplands",
        "col2": "Germany",
        "col3": "408"
    },
    {
        "col0": "Tossal dels Tres Reis",
        "col1": "Ports de Tortosa-Beseit",
        "col2": "Baix Ebre",
        "col3": "1350"
    },
    {
        "col0": "Tossal de la Baltasana",
        "col1": "Prades Mountains",
        "col2": "Catalonia",
        "col3": "1203"
    },
    {
        "col0": "Tossal d'en Cervera",
        "col1": "Ports de Tortosa-Beseit",
        "col2": "Catalonia",
        "col3": "1347"
    },
    {
        "col0": "Tossal d'Orenga",
        "col1": "Sistema Iberico",
        "col2": "Valencian Community",
        "col3": "1144"
    },
    {
        "col0": "Tossal Gros de Vallbona",
        "col1": "Serra del Tallat",
        "col2": "Catalonia",
        "col3": "802"
    },
    {
        "col0": "Tossal Gros",
        "col1": "Catalan Pre-Coastal Range",
        "col2": "Catalonia",
        "col3": "867"
    },
    {
        "col0": "Tossa Plana de Lles",
        "col1": "Pyrenees",
        "col2": "Catalonia",
        "col3": "2903"
    },
    {
        "col0": "Tosc",
        "col1": "Julian Alps",
        "col2": "Slovenia",
        "col3": "2275"
    },
    {
        "col0": "Torsaule",
        "col1": "Berchtesgaden Alps",
        "col2": "Austria",
        "col3": "2588"
    },
    {
        "col0": "Torrone di Nav",
        "col1": "Lepontine Alps",
        "col2": "Switzerland",
        "col3": "2832"
    },
    {
        "col0": "Torreys Peak",
        "col1": "Front Range",
        "col2": "Colorado",
        "col3": "4350"
    },
    {
        "col0": "Torrey Peak",
        "col1": "Wind River Range",
        "col2": "Fremont County, Wyoming",
        "col3": "3712"
    },
    {
        "col0": "Torrenthorn",
        "col1": "Bernese Alps",
        "col2": "Switzerland",
        "col3": "2998"
    },
    {
        "col0": "Torreneules",
        "col1": "Pyrenees",
        "col2": "Ripolles",
        "col3": "2713"
    },
    {
        "col0": "Torre di Lavina",
        "col1": "Graian Alps",
        "col2": "Aosta Valley",
        "col3": "3308"
    },
    {
        "col0": "Torre del Gran San Pietro",
        "col1": "Graian Alps",
        "col2": "Aosta Valley",
        "col3": "3692"
    },
    {
        "col0": "Torre de Cerredo",
        "col1": "Cantabrian Mountains",
        "col2": "Asturias",
        "col3": "2650"
    },
    {
        "col0": "Torre Egger",
        "col1": "Andes",
        "col2": "Argentina",
        "col3": "2685"
    },
    {
        "col0": "Torre",
        "col1": "Serra da Estrela",
        "col2": "Portugal",
        "col3": "1993"
    },
    {
        "col0": "Toro Peak",
        "col1": "Santa Rosa Mountains",
        "col2": "California",
        "col3": "2656"
    },
    {
        "col0": "Torngarsoak Mountain",
        "col1": "Selamiut Range",
        "col2": "Canada",
        "col3": "1595"
    },
    {
        "col0": "Tornado Mountain",
        "col1": "High Rock Range",
        "col2": "Alberta",
        "col3": "3099"
    },
    {
        "col0": "Torna Fort",
        "col1": "Sahyadri",
        "col2": "India",
        "col3": "1403"
    },
    {
        "col0": "Torkofel",
        "col1": "Gailtal Alps",
        "col2": "Austria",
        "col3": "2276"
    },
    {
        "col0": "Torhelm",
        "col1": "Kitzbuhel Alps",
        "col2": "Austria",
        "col3": "2494"
    },
    {
        "col0": "Torfinnstindene",
        "col1": "Jotunheimen",
        "col2": "Norway",
        "col3": "2120"
    },
    {
        "col0": "Torent Alto",
        "col1": "Lepontine Alps",
        "col2": "Switzerland",
        "col3": "2952"
    },
    {
        "col0": "Tordsnose",
        "col1": "Tafjordfjella",
        "col2": "Norway",
        "col3": "1975"
    },
    {
        "col0": "Tordoki Yani",
        "col1": "Sikhote-Alin",
        "col2": "Khabarovsk Krai",
        "col3": "2090"
    },
    {
        "col0": "Torc Mountain",
        "col1": "Mountains of East Kerry",
        "col2": "Ireland",
        "col3": "535"
    },
    {
        "col0": "Topog Peak",
        "col1": "West Humboldt Range",
        "col2": "Nevada",
        "col3": "1686"
    },
    {
        "col0": "Topaz Mountain",
        "col1": "Thomas Range",
        "col2": "United States",
        "col3": "2149"
    },
    {
        "col0": "Top o'Selside",
        "col1": "Lake District",
        "col2": "Cumbria",
        "col3": "335"
    },
    {
        "col0": "Toozaza Peak",
        "col1": "Stikine Ranges",
        "col2": "British Columbia",
        "col3": "2182"
    },
    {
        "col0": "Tooth of Time",
        "col1": "Sangre de Cristo Mountains",
        "col2": "New Mexico",
        "col3": "2744"
    },
    {
        "col0": "Toolbrunup",
        "col1": "Stirling Range",
        "col2": "Great Southern region of Western Australia",
        "col3": "1052"
    },
    {
        "col0": "Tonoloway Ridge",
        "col1": "Ridge-and-valley Appalachians",
        "col2": "Maryland",
        "col3": "393"
    },
    {
        "col0": "Tongshanjiabu",
        "col1": "Himalayas",
        "col2": "Bhutan",
        "col3": "7207"
    },
    {
        "col0": "Tonelagee",
        "col1": "Wicklow Mountains",
        "col2": "Ireland",
        "col3": "817"
    }
]