[
    {
        "col0": "J. Collins",
        "col1": "London",
        "col2": "http://dbpedia.org/resource/Breast_cancer",
        "col3": "1937-10-04"
    },
    {
        "col0": "J. Burroughs",
        "col1": "Lancashire",
        "col2": "http://dbpedia.org/resource/Stomach_Cancer",
        "col3": "1939-02-02"
    },
    {
        "col0": "J. Wild",
        "col1": "England",
        "col2": "http://dbpedia.org/resource/Oral_cancer",
        "col3": "1952-09-30"
    },
    {
        "col0": "J. Starrett",
        "col1": "Refugio, Texas",
        "col2": "http://dbpedia.org/resource/Renal_failure",
        "col3": "1936-11-02"
    },
    {
        "col0": "J. Riley",
        "col1": "Cleveland",
        "col2": "http://dbpedia.org/resource/Pneumonia",
        "col3": "1935-12-30"
    },
    {
        "col0": "J. Pickford",
        "col1": "Canada",
        "col2": "http://dbpedia.org/resource/Polyneuropathy",
        "col3": "1896-08-18"
    },
    {
        "col0": "J. Narz",
        "col1": "Louisville, Kentucky",
        "col2": "http://dbpedia.org/resource/Stroke",
        "col3": "1922-11-13"
    },
    {
        "col0": "J. Mercer",
        "col1": "New York City",
        "col2": "http://dbpedia.org/resource/Stomach_cancer",
        "col3": "1910-01-13"
    },
    {
        "col0": "J. Lord",
        "col1": "Brooklyn",
        "col2": "http://dbpedia.org/resource/Congestive_heart_failure",
        "col3": "1920-12-30"
    },
    {
        "col0": "J. Lipson",
        "col1": "Colorado",
        "col2": "http://dbpedia.org/resource/Myocardial_infarction",
        "col3": "1901-01-17"
    },
    {
        "col0": "J. Lemmon",
        "col1": "Newton, Massachusetts",
        "col2": "http://dbpedia.org/resource/Bladder_cancer",
        "col3": "1925-02-08"
    },
    {
        "col0": "J. Lawrence",
        "col1": "Brooklyn",
        "col2": "http://dbpedia.org/resource/Accidental_fall",
        "col3": "1912-04-07"
    },
    {
        "col0": "J. Klugman",
        "col1": "Pennsylvania",
        "col2": "http://dbpedia.org/resource/Prostate_cancer",
        "col3": "1922-04-27"
    },
    {
        "col0": "J. Kevorkian",
        "col1": "Pontiac, Michigan",
        "col2": "http://dbpedia.org/resource/Thrombosis",
        "col3": "1928-05-26"
    },
    {
        "col0": "J. Kelly",
        "col1": "New York City",
        "col2": "http://dbpedia.org/resource/Stroke",
        "col3": "1927-09-16"
    },
    {
        "col0": "J. Haley",
        "col1": "Boston",
        "col2": "http://dbpedia.org/resource/Heart_attack",
        "col3": "1897-08-10"
    },
    {
        "col0": "J. Gilford",
        "col1": "New York City",
        "col2": "http://dbpedia.org/resource/Stomach_cancer",
        "col3": "1907-07-25"
    },
    {
        "col0": "J. Carter",
        "col1": "New York City, New York",
        "col2": "http://dbpedia.org/resource/Respiratory_failure",
        "col3": "1922-06-24"
    },
    {
        "col0": "J. Carson",
        "col1": "Carman, Manitoba",
        "col2": "http://dbpedia.org/resource/Stomach_cancer",
        "col3": "1910-10-27"
    },
    {
        "col0": "J. Benny",
        "col1": "Chicago",
        "col2": "http://dbpedia.org/resource/Pancreatic_cancer",
        "col3": "1894-02-14"
    },
    {
        "col0": "J. Barry",
        "col1": "Lindenhurst, New York",
        "col2": "http://dbpedia.org/resource/Cardiac_arrest",
        "col3": "1918-03-20"
    },
    {
        "col0": "J. Albertson",
        "col1": "Malden, Massachusetts",
        "col2": "http://dbpedia.org/resource/Colorectal_cancer",
        "col3": "1907-06-16"
    },
    {
        "col0": "J. T. Walsh",
        "col1": "San Francisco",
        "col2": "http://dbpedia.org/resource/Heart_attack",
        "col3": "1943-09-28"
    },
    {
        "col0": "J. P. O'Malley",
        "col1": "England",
        "col2": "http://dbpedia.org/resource/Cardiovascular_disease",
        "col3": "1904-03-15"
    },
    {
        "col0": "J. F. MacDonald",
        "col1": "Waterbury, Connecticut",
        "col2": "http://dbpedia.org/resource/Natural_Causes",
        "col3": "1875-06-06"
    },
    {
        "col0": "J. E. Bromberg",
        "col1": "Austria-Hungary",
        "col2": "http://dbpedia.org/resource/Myocardial_infarction",
        "col3": "1903-12-25"
    },
    {
        "col0": "J. D. Clark",
        "col1": "London",
        "col2": "http://dbpedia.org/resource/Pneumonia",
        "col3": "1916-04-10"
    },
    {
        "col0": "J. C. Naish",
        "col1": "New York City",
        "col2": "http://dbpedia.org/resource/Emphysema",
        "col3": "1896-01-21"
    },
    {
        "col0": "I. Pilus",
        "col1": "Malacca",
        "col2": "http://dbpedia.org/resource/Leptospirosis",
        "col3": "1979-11-24"
    },
    {
        "col0": "I. Savvina",
        "col1": "Russian Soviet Federative Socialist Republic",
        "col2": "http://dbpedia.org/resource/Skin_cancer",
        "col3": "1936-03-02"
    },
    {
        "col0": "I. Haglund",
        "col1": "Seattle",
        "col2": "http://dbpedia.org/resource/Myocardial_infarction",
        "col3": "1905-03-21"
    },
    {
        "col0": "I. Kimura",
        "col1": "Hiroshima",
        "col2": "http://dbpedia.org/resource/Esophageal_cancer",
        "col3": "1923-07-22"
    },
    {
        "col0": "I. Eory",
        "col1": "Iran under Pahlavi dynasty",
        "col2": "http://dbpedia.org/resource/Embolism",
        "col3": "1937-10-21"
    },
    {
        "col0": "I. Keyes",
        "col1": "New York",
        "col2": "http://dbpedia.org/resource/Acromegaly",
        "col3": "1952-03-16"
    },
    {
        "col0": "I. Kershner",
        "col1": "Pennsylvania",
        "col2": "http://dbpedia.org/resource/Lung_cancer",
        "col3": "1923-04-29"
    },
    {
        "col0": "I. Tedrow",
        "col1": "Denver",
        "col2": "http://dbpedia.org/resource/Stroke",
        "col3": "1907-08-03"
    },
    {
        "col0": "I. Ryan",
        "col1": "El Paso, Texas",
        "col2": "http://dbpedia.org/resource/Glioblastoma",
        "col3": "1902-10-17"
    },
    {
        "col0": "I. Hervey",
        "col1": "California",
        "col2": "http://dbpedia.org/resource/Cardiovascular_disease",
        "col3": "1909-07-11"
    },
    {
        "col0": "I. Fenwick",
        "col1": "Chicago",
        "col2": "http://dbpedia.org/resource/Anorexia_nervosa",
        "col3": "1887-09-05"
    },
    {
        "col0": "I. Eory",
        "col1": "Tehran",
        "col2": "http://dbpedia.org/resource/Embolism",
        "col3": "1937-10-21"
    },
    {
        "col0": "I. Bergman",
        "col1": "Stockholm",
        "col2": "http://dbpedia.org/resource/Breast_cancer",
        "col3": "1915-08-29"
    },
    {
        "col0": "I. Balin",
        "col1": "Brooklyn",
        "col2": "http://dbpedia.org/resource/Coronary_heart_disease",
        "col3": "1937-11-12"
    }
]