[
    {
        "col0": "Zaman",
        "col1": "Amal Hijazi",
        "col2": "Einak",
        "col3": "251"
    },
    {
        "col0": "Zaman",
        "col1": "Amal Hijazi",
        "col2": "Akher Gharam",
        "col3": "2913"
    },
    {
        "col0": "Zaireeka",
        "col1": "The Flaming Lips",
        "col2": "Clouds Taste Metallic",
        "col3": "2732"
    },
    {
        "col0": "Zagora",
        "col1": "Loose Ends",
        "col2": "So Where Are You?",
        "col3": "3029"
    },
    {
        "col0": "Zaebos: Book of Angels Volume 11",
        "col1": "Medeski Martin & Wood",
        "col2": "Lucifer: Book of Angels Volume 10",
        "col3": "3260"
    },
    {
        "col0": "Zaddy",
        "col1": "Ty Dolla Sign",
        "col2": "Bacon",
        "col3": "223"
    },
    {
        "col0": "Zabagabee: The Best of Barnes & Barnes",
        "col1": "Barnes & Barnes",
        "col2": "Sicks",
        "col3": "2971"
    },
    {
        "col0": "ZaRa",
        "col1": "Merzbow",
        "col2": "Merzbient",
        "col3": "1855"
    },
    {
        "col0": "Za7ie",
        "col1": "Zazie",
        "col2": "Za7ie",
        "col3": "1433"
    },
    {
        "col0": "Za-Za",
        "col1": "BulletBoys",
        "col2": "Freakshow",
        "col3": "2200"
    },
    {
        "col0": "Z rozmyslan przy sniadaniu",
        "col1": "Myslovitz",
        "col2": "Sun Machine",
        "col3": "3626"
    },
    {
        "col0": "Z",
        "col1": "My Morning Jacket",
        "col2": "Acoustic Citsuoca",
        "col3": "2820"
    },
    {
        "col0": "Z",
        "col1": "SZA",
        "col2": "S",
        "col3": "2441"
    },
    {
        "col0": "Z",
        "col1": "Aion",
        "col2": "Aion",
        "col3": "2950"
    },
    {
        "col0": "ZT's Blues",
        "col1": "Stanley Turrentine",
        "col2": "Dearly Beloved",
        "col3": "2413"
    },
    {
        "col0": "Zlodzieje zapalniczek",
        "col1": "Pidzama Porno",
        "col2": "Zamiast burzy",
        "col3": "3028"
    },
    {
        "col0": "Zucker",
        "col1": "Fastbacks",
        "col2": "Very, Very Powerful Motor",
        "col3": "1982"
    },
    {
        "col0": "Ze Ramalho ao Vivo",
        "col1": "Ze Ramalho",
        "col2": "Estacao Brasil",
        "col3": "4568"
    },
    {
        "col0": "Ze Ramalho Canta Raul Seixas",
        "col1": "Ze Ramalho",
        "col2": "Nacao Nordestina",
        "col3": "4878"
    },
    {
        "col0": "Ze Ramalho Canta Luiz Gonzaga",
        "col1": "Ze Ramalho",
        "col2": "Ze Ramalho Canta Bob Dylan - Ta Tudo Mudando",
        "col3": "2408"
    },
    {
        "col0": "Ze Ramalho Canta Jackson do Pandeiro",
        "col1": "Ze Ramalho",
        "col2": "Ze Ramalho Canta Luiz Gonzaga",
        "col3": "2289"
    },
    {
        "col0": "Ze Ramalho Canta Bob Dylan - Ta Tudo Mudando",
        "col1": "Ze Ramalho",
        "col2": "Ze Ramalho da Paraiba",
        "col3": "3432"
    },
    {
        "col0": "Ze Ramalho Canta Beatles",
        "col1": "Ze Ramalho",
        "col2": "Ze Ramalho Canta Jackson do Pandeiro",
        "col3": "3814"
    },
    {
        "col0": "Ze Ramalho",
        "col1": "Ze Ramalho",
        "col2": "Paebiru",
        "col3": "2257"
    },
    {
        "col0": "Zahradna kaviaren",
        "col1": "Marika Gombitova",
        "col2": "Srdcia dievcat",
        "col3": "243"
    },
    {
        "col0": "Zahradna kaviaren",
        "col1": "Modus",
        "col2": "99 zapaliek",
        "col3": "2384"
    },
    {
        "col0": "Z2",
        "col1": "Devin Townsend",
        "col2": "Casualties of Cool",
        "col3": "7020"
    },
    {
        "col0": "YA<<shinron",
        "col1": "Radwimps",
        "col2": "Futarigoto",
        "col3": "250"
    },
    {
        "col0": "YA<<nagi Loop",
        "col1": "Maaya Sakamoto",
        "col2": "Shonen Alice",
        "col3": "3341"
    },
    {
        "col0": "YA<<hi o Miteiru ka?",
        "col1": "AKB48",
        "col2": "Boku no Taiyo",
        "col3": "298"
    },
    {
        "col0": "YA<<gure",
        "col1": "The Blue Hearts",
        "col2": "Party",
        "col3": "11"
    },
    {
        "col0": "Yushima no Shiraume",
        "col1": "MAZK",
        "col2": "Sound Pressure Level",
        "col3": "2161"
    },
    {
        "col0": "Yusef Lateef's Detroit",
        "col1": "Yusef Lateef",
        "col2": "The Blue Yusef Lateef",
        "col3": "1862"
    },
    {
        "col0": "Yuruginai Mono Hitotsu",
        "col1": "B'z",
        "col2": "Shoudou",
        "col3": "470"
    },
    {
        "col0": "Yuridia Remixes",
        "col1": "Yuridia",
        "col2": "Entre Mariposas",
        "col3": "2936"
    },
    {
        "col0": "Yureru Omoi",
        "col1": "Zard",
        "col2": "Hold Me",
        "col3": "2575"
    },
    {
        "col0": "Yurameki",
        "col1": "Dir En Grey",
        "col2": "Akuro no Oka",
        "col3": "660"
    },
    {
        "col0": "Yura Yura",
        "col1": "Fayray",
        "col2": "Taiyou no Gravity",
        "col3": "645"
    },
    {
        "col0": "Yup",
        "col1": "Easton Corbin",
        "col2": "Baby Be My Love Song",
        "col3": "201"
    },
    {
        "col0": "Yung Rich Nation",
        "col1": "Migos",
        "col2": "Rich Nigga Timeline",
        "col3": "3390"
    },
    {
        "col0": "Yung Rapunxel",
        "col1": "Azealia Banks",
        "col2": "Liquorice",
        "col3": "225"
    },
    {
        "col0": "Yummy Yummy",
        "col1": "The Wiggles",
        "col2": "Stories and Songs: The Adventures of Captain Feathersword the Friendly Pirate",
        "col3": "1686"
    },
    {
        "col0": "Yummy",
        "col1": "KC and the Sunshine Band",
        "col2": "In a Mellow Mood",
        "col3": "3089"
    },
    {
        "col0": "Yummy",
        "col1": "Gwen Stefani",
        "col2": "4 in the Morning",
        "col3": "297"
    },
    {
        "col0": "Yummy",
        "col1": "Chelo",
        "col2": "Cha Cha",
        "col3": "222"
    },
    {
        "col0": "Yumemiru Tsubasa",
        "col1": "Scandal",
        "col2": "Shojo S",
        "col3": "227"
    },
    {
        "col0": "Yume no Ukiyo ni Saite Mi na",
        "col1": "Momoiro Clover Z",
        "col2": "Moon Pride",
        "col3": "282"
    },
    {
        "col0": "Yume no Hajima Ring Ring",
        "col1": "Kyary Pamyu Pamyu",
        "col2": "Mottai Night Land",
        "col3": "202"
    },
    {
        "col0": "Yume no Chikara",
        "col1": "Aya Ueto",
        "col2": "Usotsuki",
        "col3": "297"
    },
    {
        "col0": "Yume ga Chikara",
        "col1": "Kokia",
        "col2": "So Much Love for You",
        "col3": "251"
    },
    {
        "col0": "Yume de Aetara",
        "col1": "Dragon Ash",
        "col2": "Few Lights Till Night",
        "col3": "1088"
    },
    {
        "col0": "Yume Monogatari",
        "col1": "Tackey & Tsubasa",
        "col2": "To Be, to Be, Ten Made to Be",
        "col3": "1320"
    },
    {
        "col0": "Yume Miru Uchuu",
        "col1": "Buck-Tick",
        "col2": "Catalogue Ariola 00-10",
        "col3": "2866"
    },
    {
        "col0": "Yume Biyori",
        "col1": "Hitomi Shimatani",
        "col2": "Perseus",
        "col3": "1010"
    },
    {
        "col0": "Yume Bitsu",
        "col1": "Yume Bitsu",
        "col2": "Giant Surface Music Falling to Earth Like Jewels from the Sky",
        "col3": "3827"
    },
    {
        "col0": "Yume",
        "col1": "The Blue Hearts",
        "col2": "Too Much Pain",
        "col3": "32"
    },
    {
        "col0": "Yume!",
        "col1": "Yeti",
        "col2": "One Eye on the Banquet",
        "col3": "2359"
    },
    {
        "col0": "Yuki no Iro",
        "col1": "Porno Graffitti",
        "col2": "One More Time",
        "col3": "911"
    },
    {
        "col0": "Yuki no Hikari",
        "col1": "Miho Fukuhara",
        "col2": "Love: Winter Song",
        "col3": "274"
    },
    {
        "col0": "Yuganda Taiyo",
        "col1": "Ua",
        "col2": "Milk Tea",
        "col3": "920"
    },
    {
        "col0": "Yubiwa",
        "col1": "Maaya Sakamoto",
        "col2": "Platinum",
        "col3": "1085"
    },
    {
        "col0": "Ysbeidiau Heulog",
        "col1": "Super Furry Animals",
        "col2": "Do or Die",
        "col3": "171"
    },
    {
        "col0": "Ys",
        "col1": "Joanna Newsom",
        "col2": "The Milk-Eyed Mender",
        "col3": "3338"
    },
    {
        "col0": "Yr",
        "col1": "Steve Tibbetts",
        "col2": "Steve Tibbetts",
        "col3": "2288"
    },
    {
        "col0": "Youthquake",
        "col1": "Dead or Alive",
        "col2": "Sophisticated Boom Boom",
        "col3": "2210"
    },
    {
        "col0": "Youthless",
        "col1": "Beck",
        "col2": "Gamma Ray",
        "col3": "179"
    },
    {
        "col0": "Youthanasia",
        "col1": "Megadeth",
        "col2": "Countdown to Extinction",
        "col3": "2997"
    },
    {
        "col0": "Youth of the Nation",
        "col1": "P.O.D.",
        "col2": "Alive",
        "col3": "257"
    },
    {
        "col0": "Youth of China",
        "col1": "Li Yuchun",
        "col2": "Mine",
        "col3": "1604"
    },
    {
        "col0": "Youth of America",
        "col1": "Birdbrain",
        "col2": "Glue/Jet",
        "col3": "183"
    },
    {
        "col0": "Youth of America",
        "col1": "Wipers",
        "col2": "Alien Boy",
        "col3": "1840"
    },
    {
        "col0": "Youth Society",
        "col1": "S.H.E",
        "col2": "Girl's Dorm",
        "col3": "2390"
    },
    {
        "col0": "Youth Revival",
        "col1": "Hillsong Young & Free",
        "col2": "We Are Young & Free",
        "col3": "3541"
    },
    {
        "col0": "Youth Gone Wild",
        "col1": "Skid Row",
        "col2": "In a Darkened Room",
        "col3": "201"
    },
    {
        "col0": "Youth Dub",
        "col1": "Matisyahu",
        "col2": "Live at Stubb's",
        "col3": "3010"
    },
    {
        "col0": "Youth Authority",
        "col1": "Good Charlotte",
        "col2": "Cardiology",
        "col3": "2564"
    },
    {
        "col0": "Youth",
        "col1": "Troye Sivan",
        "col2": "Wild",
        "col3": "185"
    },
    {
        "col0": "Youth",
        "col1": "Matisyahu",
        "col2": "Live at Stubb's",
        "col3": "2815"
    },
    {
        "col0": "Youth",
        "col1": "Foxes",
        "col2": "Right Here",
        "col3": "261"
    },
    {
        "col0": "Youth",
        "col1": "Collective Soul",
        "col2": "Seven Year Itch",
        "col3": "2271"
    },
    {
        "col0": "Youth",
        "col1": "BTS",
        "col2": "Wake Up",
        "col3": "2956"
    },
    {
        "col0": "Youth & Young Manhood",
        "col1": "Kings of Leon",
        "col2": "What I Saw",
        "col3": "2761"
    },
    {
        "col0": "Yours as Fast as Mine",
        "col1": "The Main Drag",
        "col2": "Simmer In Your Hotseat",
        "col3": "2696"
    },
    {
        "col0": "Yours Truly",
        "col1": "Sick of It All",
        "col2": "Call to Arms",
        "col3": "2298"
    },
    {
        "col0": "Yours Truly, Angry Mob",
        "col1": "Kaiser Chiefs",
        "col2": "Employment",
        "col3": "2684"
    },
    {
        "col0": "Yours Forever",
        "col1": "Atlantic Starr",
        "col2": "Brilliance",
        "col3": "2435"
    },
    {
        "col0": "Yours Fatally",
        "col1": "Big Brovaz",
        "col2": "We Wanna Thank You",
        "col3": "210"
    },
    {
        "col0": "Yours Faithfully",
        "col1": "Rebbie Jackson",
        "col2": "The Rebbie Jackson Collection",
        "col3": "3042"
    },
    {
        "col0": "Yours Always",
        "col1": "Willie Nelson",
        "col2": "Love Songs",
        "col3": "1971"
    },
    {
        "col0": "Yours",
        "col1": "Steven Curtis Chapman",
        "col2": "Cinderella",
        "col3": "399"
    },
    {
        "col0": "Yours",
        "col1": "Ella Henderson",
        "col2": "Glow",
        "col3": "168"
    },
    {
        "col0": "Yours, Svoy: The Best of 2005-2012",
        "col1": "Svoy",
        "col2": "Solved EP",
        "col3": "2713"
    },
    {
        "col0": "Yours, Mine & Ours",
        "col1": "Pernice Brothers",
        "col2": "The World Won't End",
        "col3": "2203"
    },
    {
        "col0": "Your World on Fire",
        "col1": "In Fear and Faith",
        "col2": "Voyage",
        "col3": "2112"
    },
    {
        "col0": "Your World Is Burning",
        "col1": "Panzer AG",
        "col2": "This Is My Battlefield",
        "col3": "3099"
    },
    {
        "col0": "Your Woman",
        "col1": "White Town",
        "col2": "Abort, Retry, Fail?",
        "col3": "225"
    },
    {
        "col0": "Your Wilderness",
        "col1": "The Pineapple Thief",
        "col2": "Magnolia",
        "col3": "2490"
    },
    {
        "col0": "Your Weight on the Moon",
        "col1": "Man or Astro-man?",
        "col2": "Destroy All Astromen!",
        "col3": "1568"
    },
    {
        "col0": "Your Weapon",
        "col1": "Legal Weapon",
        "col2": "Death of Innocence",
        "col3": "2044"
    },
    {
        "col0": "Your Vandal",
        "col1": "Duke Special",
        "col2": "My Villain Heart",
        "col3": "1093"
    },
    {
        "col0": "Your Used to Be",
        "col1": "Brenda Lee",
        "col2": "All Alone Am I",
        "col3": "130"
    },
    {
        "col0": "Your Unchanging Love",
        "col1": "Marvin Gaye",
        "col2": "Tammi Terrell",
        "col3": "157"
    },
    {
        "col0": "Your Type",
        "col1": "Carly Rae Jepsen",
        "col2": "Run Away with Me",
        "col3": "200"
    },
    {
        "col0": "Your Turn to Fall",
        "col1": "Jandek",
        "col2": "Staring at the Cellophane",
        "col3": "2381"
    },
    {
        "col0": "Your Turn",
        "col1": "Marc Ribot",
        "col2": "Silent Movies",
        "col3": "3116"
    },
    {
        "col0": "Your Town",
        "col1": "Deacon Blue",
        "col2": "Cover from the Sky",
        "col3": "7"
    },
    {
        "col0": "Your Touch",
        "col1": "The Black Keys",
        "col2": "'Till I Get My Way/Girl Is On My Mind",
        "col3": "164"
    },
    {
        "col0": "Your Tomorrow Parts 1 & 2",
        "col1": "Corrosion of Conformity",
        "col2": "In the Arms of God",
        "col3": "481"
    },
    {
        "col0": "Your Time Will Come",
        "col1": "Amy Macdonald",
        "col2": "Love Love",
        "col3": "272"
    },
    {
        "col0": "Your Time Has Come",
        "col1": "Audioslave",
        "col2": "Be Yourself",
        "col3": "255"
    },
    {
        "col0": "Your Tender Loving Care",
        "col1": "Buck Owens",
        "col2": "Sam's Place",
        "col3": "165"
    },
    {
        "col0": "Your Tender Loving Care",
        "col1": "Buck Owens",
        "col2": "In Japan!",
        "col3": "1740"
    },
    {
        "col0": "Your Swaying Arms",
        "col1": "Deacon Blue",
        "col2": "Four Bacharach & David Songs",
        "col3": "7"
    },
    {
        "col0": "Your Surrender",
        "col1": "Neon Trees",
        "col2": "1983",
        "col3": "220"
    },
    {
        "col0": "Your Sugar Sits Untouched",
        "col1": "Emilie Autumn",
        "col2": "Enchant",
        "col3": "4500"
    },
    {
        "col0": "Your Style",
        "col1": "J.Williams",
        "col2": "Stand With You",
        "col3": "208"
    },
    {
        "col0": "Your Squaw Is on the Warpath",
        "col1": "Loretta Lynn",
        "col2": "You've Just Stepped In",
        "col3": "122"
    },
    {
        "col0": "Your Sparkling Death Cometh",
        "col1": "Falling Up",
        "col2": "Fangs",
        "col3": "3388"
    },
    {
        "col0": "Your Song",
        "col1": "Ellie Goulding",
        "col2": "People Get Ready",
        "col3": "190"
    },
    {
        "col0": "Your Soft Eyes",
        "col1": "Kenny Drew",
        "col2": "Havin' Myself a Time",
        "col3": "2405"
    },
    {
        "col0": "Your Smiling Face",
        "col1": "James Taylor",
        "col2": "Handy Man",
        "col3": "150"
    },
    {
        "col0": "Your Side of the Bed",
        "col1": "Little Big Town",
        "col2": "Tornado",
        "col3": "221"
    },
    {
        "col0": "Your Secret Love",
        "col1": "Luther Vandross",
        "col2": "Every Year, Every Christmas",
        "col3": "241"
    },
    {
        "col0": "Your Scream Is Music",
        "col1": "Sexepil",
        "col2": "Sugar for the Soul",
        "col3": "3101"
    },
    {
        "col0": "Your Saving Grace",
        "col1": "Steve Miller Band",
        "col2": "Brave New World",
        "col3": "2251"
    },
    {
        "col0": "Your Precious Love",
        "col1": "Marvin Gaye",
        "col2": "Ain't No Mountain High Enough",
        "col3": "187"
    },
    {
        "col0": "Your Past Comes Back to Haunt You",
        "col1": "I Killed the Prom Queen",
        "col2": "When Goodbye Means Forever...",
        "col3": "1432"
    },
    {
        "col0": "Your Past Comes Back To Haunt You: The Fonotone Years 1958-1965",
        "col1": "John Fahey",
        "col2": "Twilight on Prince Georges Avenue: Essential Recordings",
        "col3": "20416"
    },
    {
        "col0": "Your Own Little Corner of My Heart",
        "col1": "Blackhawk",
        "col2": "There You Have It",
        "col3": "205"
    },
    {
        "col0": "Your Number Please",
        "col1": "Julie London",
        "col2": "Swing Me an Old Song",
        "col3": "2345"
    },
    {
        "col0": "Your New Favourite Band",
        "col1": "The Hives",
        "col2": "Veni Vidi Vicious",
        "col3": "1688"
    },
    {
        "col0": "Your Murder Mixtape",
        "col1": "The Banner",
        "col2": "Posthumous",
        "col3": "3043"
    },
    {
        "col0": "Your Move",
        "col1": "America",
        "col2": "The Last Unicorn",
        "col3": "2467"
    },
    {
        "col0": "Your Mother's Got a Penis",
        "col1": "Goldie Lookin' Chain",
        "col2": "Guns Don't Kill People Rappers Do",
        "col3": "219"
    },
    {
        "col0": "Your Mom's Favorite DJ",
        "col1": "Kid Koala",
        "col2": "Live from the Short Attention Span Audio Theater Tour!!",
        "col3": "2017"
    },
    {
        "col0": "Your Mind Is on Vacation",
        "col1": "Mose Allison",
        "col2": "Mose in Your Ear",
        "col3": "2207"
    },
    {
        "col0": "Your Memory Ain't What It Used to Be",
        "col1": "Mickey Gilley",
        "col2": "You've Got Something on Your Mind",
        "col3": "201"
    },
    {
        "col0": "Your Man Loves You Honey",
        "col1": "Tom T. Hall",
        "col2": "Fox on the Run",
        "col3": "136"
    },
    {
        "col0": "Your Man",
        "col1": "Josh Turner",
        "col2": "What It Ain't",
        "col3": "211"
    },
    {
        "col0": "Your Man",
        "col1": "Down with Webster",
        "col2": "Rich Girl$",
        "col3": "169"
    },
    {
        "col0": "Your Man",
        "col1": "Josh Turner",
        "col2": "Long Black Train",
        "col3": "2376"
    },
    {
        "col0": "Your Mamma Won't Like Me",
        "col1": "Suzi Quatro",
        "col2": "Quatro",
        "col3": "2040"
    },
    {
        "col0": "Your Mama Don't Dance",
        "col1": "Poison",
        "col2": "Every Rose Has Its Thorn",
        "col3": "168"
    },
    {
        "col0": "Your Majesty",
        "col1": "The Anniversary",
        "col2": "Designing a Nervous Breakdown",
        "col3": "2806"
    },
    {
        "col0": "Your Ma Said You Cried in Your Sleep Last Night",
        "col1": "Robert Plant",
        "col2": "Hurting Kind",
        "col3": "276"
    },
    {
        "col0": "Your Lucky Day in Hell",
        "col1": "Eels",
        "col2": "Susan's House",
        "col3": "265"
    },
    {
        "col0": "Your Love Takes Me Higher",
        "col1": "The Beloved",
        "col2": "Hello",
        "col3": "220"
    },
    {
        "col0": "Your Love Shines Through",
        "col1": "Mickey Gilley",
        "col2": "Fool for Your Love",
        "col3": "187"
    },
    {
        "col0": "Your Love Is a Song",
        "col1": "Switchfoot",
        "col2": "The Sound",
        "col3": "203"
    },
    {
        "col0": "Your Love Is a Miracle",
        "col1": "Mark Chesnutt",
        "col2": "Blame It on Texas",
        "col3": "169"
    },
    {
        "col0": "Your Love Is a Lie",
        "col1": "Simple Plan",
        "col2": "When I'm Gone",
        "col3": "221"
    },
    {
        "col0": "Your Love Is Strong",
        "col1": "Jon Foreman",
        "col2": "The Cure for Pain",
        "col3": "309"
    },
    {
        "col0": "Your Love Is Driving Me Crazy",
        "col1": "Sammy Hagar",
        "col2": "Piece of My Heart",
        "col3": "210"
    },
    {
        "col0": "Your Love Amazes Me",
        "col1": "John Berry",
        "col2": "Kiss Me in the Car",
        "col3": "233"
    },
    {
        "col0": "Your Love",
        "col1": "Nicole Scherzinger",
        "col2": "Fino all'estasi",
        "col3": "245"
    },
    {
        "col0": "Your Love",
        "col1": "Nicki Minaj",
        "col2": "Woohoo",
        "col3": "244"
    },
    {
        "col0": "Your Love",
        "col1": "Diddy - Dirty Money",
        "col2": "Coming Home",
        "col3": "241"
    },
    {
        "col0": "Your Love",
        "col1": "Brandon Heath",
        "col2": "Love Never Fails",
        "col3": "217"
    },
    {
        "col0": "Your Love's on the Line",
        "col1": "Earl Thomas Conley",
        "col2": "I Have Loved You Girl",
        "col3": "207"
    },
    {
        "col0": "Your Little Secret",
        "col1": "Melissa Etheridge",
        "col2": "If I Wanted To",
        "col3": "259"
    },
    {
        "col0": "Your Little Secret",
        "col1": "Melissa Etheridge",
        "col2": "Yes I Am",
        "col3": "3174"
    },
    {
        "col0": "Your Life Is a Lie",
        "col1": "MGMT",
        "col2": "Alien Days",
        "col3": "124"
    },
    {
        "col0": "Your Letter",
        "col1": "112",
        "col2": "Love You Like I Did",
        "col3": "323"
    },
    {
        "col0": "Your Latest Trick",
        "col1": "Dire Straits",
        "col2": "Walk of Life",
        "col3": "393"
    },
    {
        "col0": "Your Kisses Will",
        "col1": "Crystal Gayle",
        "col2": "When I Dream",
        "col3": "125"
    },
    {
        "col0": "Your Joy Is My Low",
        "col1": "IAMX",
        "col2": "Kiss and Swallow",
        "col3": "318"
    },
    {
        "col0": "Your Itinerary",
        "col1": "Evan Brewer",
        "col2": "Alone",
        "col3": "2136"
    },
    {
        "col0": "Your History Is Mine: 2002-2009",
        "col1": "Funeral for a Friend",
        "col2": "Memory and Humanity",
        "col3": "8012"
    },
    {
        "col0": "Your Heart Turned Left",
        "col1": "George Jones",
        "col2": "You Comb Her Hair",
        "col3": "136"
    },
    {
        "col0": "Your Heart Belongs to Me",
        "col1": "The Supremes",
        "col2": "Buttered Popcorn",
        "col3": "157"
    },
    {
        "col0": "Your Guardian Angel",
        "col1": "The Red Jumpsuit Apparatus",
        "col2": "False Pretense",
        "col3": "229"
    },
    {
        "col0": "Your Grace Finds Me",
        "col1": "Matt Redman",
        "col2": "10,000 Reasons",
        "col3": "3915"
    },
    {
        "col0": "Your Gods, My Enemies",
        "col1": "Eternal Gray",
        "col2": "Kindless",
        "col3": "2265"
    },
    {
        "col0": "Your Game...Live at the 9:30 Club",
        "col1": "Chuck Brown",
        "col2": "The Spirit of Christmas",
        "col3": "3989"
    },
    {
        "col0": "Your Game",
        "col1": "Will Young",
        "col2": "Leave Right Now",
        "col3": "240"
    },
    {
        "col0": "Your Future Our Clutter",
        "col1": "The Fall",
        "col2": "Last Night at The Palais",
        "col3": "2891"
    },
    {
        "col0": "Your Funeral... My Trial",
        "col1": "Nick Cave and the Bad Seeds",
        "col2": "Kicking Against the Pricks",
        "col3": "2567"
    },
    {
        "col0": "Your Filthy Little Mouth",
        "col1": "David Lee Roth",
        "col2": "A Little Ain't Enough",
        "col3": "3355"
    },
    {
        "col0": "Your Face or Mine?",
        "col1": "Nantucket",
        "col2": "Nantucket",
        "col3": "2157"
    },
    {
        "col0": "Your Eyes",
        "col1": "Kate Ryan",
        "col2": "I Surrender",
        "col3": "209"
    },
    {
        "col0": "Your Eyes",
        "col1": "Kult",
        "col2": "45-89",
        "col3": "3599"
    },
    {
        "col0": "Your Ex-Lover Is Dead",
        "col1": "Stars",
        "col2": "Ageless Beauty",
        "col3": "256"
    },
    {
        "col0": "Your Everything",
        "col1": "Keith Urban",
        "col2": "It's a Love Thing",
        "col3": "250"
    },
    {
        "col0": "Your Drums, Your Love",
        "col1": "AlunaGeorge",
        "col2": "After Light",
        "col3": "217"
    },
    {
        "col0": "Your Disco Needs You",
        "col1": "Kylie Minogue",
        "col2": "Please Stay",
        "col3": "213"
    },
    {
        "col0": "Your Decision",
        "col1": "Alice in Chains",
        "col2": "Check My Brain",
        "col3": "283"
    },
    {
        "col0": "Your Crown",
        "col1": "Infernal",
        "col2": "Voodoo Cowboy",
        "col3": "249"
    },
    {
        "col0": "Your Choice Live Series Vol.12",
        "col1": "The Melvins",
        "col2": "Ozma",
        "col3": "1819"
    }
]