[
    {
        "col0": "1981 Canadian Grand Prix",
        "col1": "Team McLaren",
        "col2": "Team McLaren",
        "col3": "J. Watson",
        "col4": "J. Laffite",
        "col5": "Canada",
        "col6": "63",
        "col7": "4409"
    },
    {
        "col0": "1979 Brazilian Grand Prix",
        "col1": "Equipe Ligier",
        "col2": "Equipe Ligier",
        "col3": "J. Laffite",
        "col4": "J. Laffite",
        "col5": "1979 Argentine Grand Prix",
        "col6": "40",
        "col7": "7612"
    },
    {
        "col0": "1978 Swedish Grand Prix",
        "col1": "Brabham",
        "col2": "Arrows Grand Prix International",
        "col3": "N. Lauda",
        "col4": "N. Lauda",
        "col5": "Sweden",
        "col6": "70",
        "col7": "4031"
    },
    {
        "col0": "1977 Argentine Grand Prix",
        "col1": "McLaren",
        "col2": "Brabham",
        "col3": "J. Hunt",
        "col4": "J. Scheckter",
        "col5": "Argentina",
        "col6": "53",
        "col7": "5809"
    },
    {
        "col0": "1976 British Grand Prix",
        "col1": "Scuderia Ferrari",
        "col2": "Tyrrell Racing",
        "col3": "N. Lauda",
        "col4": "N. Lauda",
        "col5": "United Kingdom",
        "col6": "76",
        "col7": "4205"
    },
    {
        "col0": "1975 New Zealand Grand Prix",
        "col1": "Chevrolet",
        "col2": "Chevrolet",
        "col3": "C. Amon",
        "col4": "W. Brown",
        "col5": "New Zealand",
        "col6": "58",
        "col7": "2820"
    },
    {
        "col0": "1975 Italian Grand Prix",
        "col1": "Scuderia Ferrari",
        "col2": "McLaren",
        "col3": "C. Regazzoni",
        "col4": "C. Regazzoni",
        "col5": "Austria",
        "col6": "52",
        "col7": "5777"
    },
    {
        "col0": "1973 Race of Champions",
        "col1": "BRM",
        "col2": "McLaren",
        "col3": "J. Beltoise",
        "col4": "P. Gethin",
        "col5": "UK",
        "col6": "40",
        "col7": "4264"
    },
    {
        "col0": "1971 Race of Champions",
        "col1": "Brabham",
        "col2": "Tyrrell Racing",
        "col3": "G. Hill",
        "col4": "C. Regazzoni",
        "col5": "UK",
        "col6": "50",
        "col7": "4264"
    },
    {
        "col0": "1968 Belgian Grand Prix",
        "col1": "Honda Racing F1",
        "col2": "British Racing Motors",
        "col3": "J. Surtees",
        "col4": "B. McLaren",
        "col5": "Belgium",
        "col6": "28",
        "col7": "14099"
    },
    {
        "col0": "1968 BRDC International Trophy",
        "col1": "Scuderia Ferrari",
        "col2": "McLaren",
        "col3": "C. Amon",
        "col4": "D. Hulme",
        "col5": "New Zealand",
        "col6": "52",
        "col7": "4710"
    },
    {
        "col0": "1967 Mexican Grand Prix",
        "col1": "Team Lotus",
        "col2": "Brabham",
        "col3": "J. Clark",
        "col4": "J. Clark",
        "col5": "New Zealand",
        "col6": "65",
        "col7": "5000"
    },
    {
        "col0": "1967 Australian Grand Prix",
        "col1": "British Racing Motors",
        "col2": "Lotus Cars",
        "col3": "J. Stewart",
        "col4": "J. Stewart",
        "col5": "Australia",
        "col6": "45",
        "col7": "3621"
    },
    {
        "col0": "1966 New Zealand Grand Prix",
        "col1": "British Racing Motors",
        "col2": "British Racing Motors",
        "col3": "G. Hill",
        "col4": "G. Hill",
        "col5": "New Zealand",
        "col6": "40",
        "col7": "2820"
    },
    {
        "col0": "1964 Australian Grand Prix",
        "col1": "Brabham",
        "col2": "Brabham",
        "col3": "J. Brabham",
        "col4": "J. Brabham",
        "col5": "Australia",
        "col6": "63",
        "col7": "3089"
    },
    {
        "col0": "1963 Rand Grand Prix",
        "col1": "Scuderia Ferrari",
        "col2": "Scuderia Ferrari",
        "col3": "J. Surtees",
        "col4": "J. Surtees",
        "col5": "South Africa",
        "col6": "25",
        "col7": "4095"
    },
    {
        "col0": "1963 New Zealand Grand Prix",
        "col1": "Cooper T62",
        "col2": "Cooper T53",
        "col3": "B. McLaren",
        "col4": "J. Surtees",
        "col5": "New Zealand",
        "col6": "75",
        "col7": "2820"
    },
    {
        "col0": "1962 New Zealand Grand Prix",
        "col1": "Lotus 21",
        "col2": "Cooper T53",
        "col3": "S. Moss",
        "col4": "S. Moss",
        "col5": "New Zealand",
        "col6": "50",
        "col7": "3200"
    },
    {
        "col0": "1962 Kanonloppet",
        "col1": "Team Lotus",
        "col2": "Lola Cars",
        "col3": "I. Ireland",
        "col4": "M. Gregory",
        "col5": "Sweden",
        "col6": "30",
        "col7": "2998"
    },
    {
        "col0": "1960 Belgian Grand Prix",
        "col1": "Scuderia Ferrari",
        "col2": "Cooper Car Company",
        "col3": "J. Brabham",
        "col4": "J. Brabham",
        "col5": "Belgium",
        "col6": "36",
        "col7": "14120"
    },
    {
        "col0": "1959 New Zealand Grand Prix",
        "col1": "Cooper T45",
        "col2": "Cooper T45",
        "col3": "S. Moss",
        "col4": "S. Moss",
        "col5": "New Zealand",
        "col6": "75",
        "col7": "3200"
    },
    {
        "col0": "1958 New Zealand Grand Prix",
        "col1": "Cooper T43",
        "col2": "Maserati 250F",
        "col3": "J. Brabham",
        "col4": "J. Brabham",
        "col5": "New Zealand",
        "col6": "75",
        "col7": "3200"
    },
    {
        "col0": "1956 French Grand Prix",
        "col1": "Scuderia Ferrari",
        "col2": "Scuderia Ferrari",
        "col3": "J. M. Fangio",
        "col4": "P. Collins",
        "col5": "France",
        "col6": "61",
        "col7": "8302"
    },
    {
        "col0": "1955 Italian Grand Prix",
        "col1": "Mercedes-Benz in Formula One",
        "col2": "Mercedes-Benz in Formula One",
        "col3": "S. Moss",
        "col4": "J. M. Fangio",
        "col5": "Italy",
        "col6": "50",
        "col7": "10000"
    },
    {
        "col0": "1954 Italian Grand Prix",
        "col1": "Scuderia Ferrari",
        "col2": "Scuderia Ferrari",
        "col3": "J. F. Gonzalez",
        "col4": "J. M. Fangio",
        "col5": "Italy",
        "col6": "80",
        "col7": "6300"
    },
    {
        "col0": "1954 French Grand Prix",
        "col1": "Mercedes-Benz in Formula One",
        "col2": "Mercedes-Benz in Formula One",
        "col3": "H. Herrmann",
        "col4": "J. M. Fangio",
        "col5": "France",
        "col6": "61",
        "col7": "8302"
    },
    {
        "col0": "1954 Argentine Grand Prix",
        "col1": "Scuderia Ferrari",
        "col2": "Scuderia Ferrari",
        "col3": "J. F. Gonzalez",
        "col4": "J. M. Fangio",
        "col5": "Argentina",
        "col6": "87",
        "col7": "3912"
    },
    {
        "col0": "1953 Italian Grand Prix",
        "col1": "Maserati in motorsport",
        "col2": "Scuderia Ferrari",
        "col3": "J. M. Fangio",
        "col4": "J. M. Fangio",
        "col5": "Italy",
        "col6": "80",
        "col7": "6300"
    },
    {
        "col0": "1953 Argentine Grand Prix",
        "col1": "Scuderia Ferrari",
        "col2": "Scuderia Ferrari",
        "col3": "A. Ascari",
        "col4": "A. Ascari",
        "col5": "Argentina",
        "col6": "97",
        "col7": "3912"
    },
    {
        "col0": "1952 Italian Grand Prix",
        "col1": "Scuderia Ferrari",
        "col2": "Maserati in motorsport",
        "col3": "A. Ascari",
        "col4": "A. Ascari",
        "col5": "Italy",
        "col6": "80",
        "col7": "6300"
    },
    {
        "col0": "1951 Italian Grand Prix",
        "col1": "Alfa Romeo in Formula One",
        "col2": "Scuderia Ferrari",
        "col3": "G. Farina",
        "col4": "A. Ascari",
        "col5": "Italy",
        "col6": "80",
        "col7": "6300"
    },
    {
        "col0": "1951 Buenos Aires Grand Prix",
        "col1": "Allard J2",
        "col2": "Allard J2",
        "col3": "J. Fitch",
        "col4": "J. Fitch",
        "col5": "Argentina",
        "col6": "40",
        "col7": "3492"
    },
    {
        "col0": "1951 Buenos Aires Grand Prix",
        "col1": "Mercedes-Benz W154",
        "col2": "Mercedes-Benz W154",
        "col3": "J. M. Fangio",
        "col4": "J. F. Gonzalez",
        "col5": "Argentina",
        "col6": "45",
        "col7": "3492"
    },
    {
        "col0": "1950 Pau Grand Prix",
        "col1": "Maserati in motorsport",
        "col2": "Scuderia Ferrari",
        "col3": "J. M. Fangio",
        "col4": "J. M. Fangio",
        "col5": "France",
        "col6": "110",
        "col7": "2768"
    }
]