[
    {
        "col0": "F. P. Ramsey",
        "col1": "London",
        "col2": "1903-02-22",
        "col3": "1903-02-22",
        "col4": "1930"
    },
    {
        "col0": "F. Servois",
        "col1": "France",
        "col2": "1767-07-18",
        "col3": "1767-07-18",
        "col4": "1847"
    },
    {
        "col0": "Franciscus van den Enden",
        "col1": "Paris",
        "col2": "1602-02-05",
        "col3": "1602-02-05",
        "col4": "1674"
    },
    {
        "col0": "F. Patricius",
        "col1": "Papal States",
        "col2": "1529-04-25",
        "col3": "1529-04-25",
        "col4": "1597"
    },
    {
        "col0": "F. Suarez",
        "col1": "Lisbon",
        "col2": "1548-01-05",
        "col3": "1548-01-05",
        "col4": "1617"
    },
    {
        "col0": "F. Sanches",
        "col1": "Toulouse",
        "col2": "1550-1-1",
        "col3": "1550-1-1",
        "col4": "1623"
    },
    {
        "col0": "F. P. Yockey",
        "col1": "California",
        "col2": "1917-09-18",
        "col3": "1917-09-18",
        "col4": "1960"
    },
    {
        "col0": "F. Hutcheson",
        "col1": "Dublin",
        "col2": "1694-08-08",
        "col3": "1694-08-08",
        "col4": "1746"
    },
    {
        "col0": "F. E. Abbot",
        "col1": "Beverly, Massachusetts",
        "col2": "1836-11-06",
        "col3": "1836-11-06",
        "col4": "1903"
    },
    {
        "col0": "F. Bacon",
        "col1": "Highgate",
        "col2": "1561-01-22",
        "col3": "1561-01-22",
        "col4": "1626"
    },
    {
        "col0": "F. Babeuf",
        "col1": "Kingdom of France",
        "col2": "1760-11-23",
        "col3": "1760-11-23",
        "col4": "1797"
    },
    {
        "col0": "F. Gonzalez",
        "col1": "Colombia",
        "col2": "1895-04-24",
        "col3": "1895-04-24",
        "col4": "1964"
    },
    {
        "col0": "F. d. Saussure",
        "col1": "Vaud",
        "col2": "1857-11-26",
        "col3": "1857-11-26",
        "col4": "1913"
    },
    {
        "col0": "F. Riu",
        "col1": "Caracas",
        "col2": "1925-05-14",
        "col3": "1925-05-14",
        "col4": "1985"
    },
    {
        "col0": "F. H. Amini",
        "col1": "Dhaka",
        "col2": "1943-1-1",
        "col3": "1943-1-1",
        "col4": "2012"
    },
    {
        "col0": "F. A. Qureshi",
        "col1": "Punjab",
        "col2": "1853-1-1",
        "col3": "1853-1-1",
        "col4": "1935"
    },
    {
        "col0": "F. H. Bradley",
        "col1": "England",
        "col2": "1846-01-30",
        "col3": "1846-01-30",
        "col4": "1924"
    },
    {
        "col0": "F. C. S. Schiller",
        "col1": "Los Angeles",
        "col2": "1864-08-16",
        "col3": "1864-08-16",
        "col4": "1937"
    },
    {
        "col0": "F. Ravaisson-Mollien",
        "col1": "French Third Republic",
        "col2": "1813-10-23",
        "col3": "1813-10-23",
        "col4": "1900"
    },
    {
        "col0": "F. Guattari",
        "col1": "Paris",
        "col2": "1930-04-30",
        "col3": "1930-04-30",
        "col4": "1992"
    },
    {
        "col0": "E. Ilyenkov",
        "col1": "Moscow",
        "col2": "1924-02-18",
        "col3": "1924-02-18",
        "col4": "1979"
    },
    {
        "col0": "E. t. Athonite",
        "col1": "Mount Athos",
        "col2": "955-0-0",
        "col3": "955-0-0",
        "col4": "1024"
    },
    {
        "col0": "E. Tavares",
        "col1": "Vila Nova Sintra",
        "col2": "1867-10-18",
        "col3": "1867-10-18",
        "col4": "1930"
    },
    {
        "col0": "E. Zuleta",
        "col1": "Colombia",
        "col2": "1935-02-03",
        "col3": "1935-02-03",
        "col4": "1990"
    },
    {
        "col0": "E. Platner",
        "col1": "Leipzig",
        "col2": "1744-06-11",
        "col3": "1744-06-11",
        "col4": "1818"
    },
    {
        "col0": "E. Mally",
        "col1": "Schwanberg, Styria",
        "col2": "1879-1-1",
        "col3": "1879-1-1",
        "col4": "1944"
    },
    {
        "col0": "E. Lohmeyer",
        "col1": "Hanshagen",
        "col2": "1890-08-07",
        "col3": "1890-08-07",
        "col4": "1946"
    },
    {
        "col0": "Ernst Christian Gottlieb Reinhold",
        "col1": "Jena",
        "col2": "1793-10-18",
        "col3": "1793-10-18",
        "col4": "1855"
    },
    {
        "col0": "E. Cassirer",
        "col1": "New York",
        "col2": "1874-07-28",
        "col3": "1874-07-28",
        "col4": "1945"
    },
    {
        "col0": "E. Bloch",
        "col1": "West Germany",
        "col2": "1885-07-08",
        "col3": "1885-07-08",
        "col4": "1977"
    },
    {
        "col0": "E. Laclau",
        "col1": "Seville",
        "col2": "1935-10-06",
        "col3": "1935-10-06",
        "col4": "2014"
    },
    {
        "col0": "E. Renan",
        "col1": "France",
        "col2": "1823-02-28",
        "col3": "1823-02-28",
        "col4": "1892"
    },
    {
        "col0": "E. Nagel",
        "col1": "New York City",
        "col2": "1901-11-16",
        "col3": "1901-11-16",
        "col4": "1985"
    },
    {
        "col0": "E. Gellner",
        "col1": "Prague",
        "col2": "1925-12-09",
        "col3": "1925-12-09",
        "col4": "1995"
    },
    {
        "col0": "E. Callenbach",
        "col1": "Berkeley, California",
        "col2": "1929-04-03",
        "col3": "1929-04-03",
        "col4": "2012"
    },
    {
        "col0": "E. Fromm",
        "col1": "Switzerland",
        "col2": "1900-03-23",
        "col3": "1900-03-23",
        "col4": "1980"
    },
    {
        "col0": "E. Voegelin",
        "col1": "California",
        "col2": "1901-01-03",
        "col3": "1901-01-03",
        "col4": "1985"
    },
    {
        "col0": "Erasmus",
        "col1": "Basel",
        "col2": "1466-0-0",
        "col3": "1466-0-0",
        "col4": "1536"
    },
    {
        "col0": "Epicurus",
        "col1": "Athens",
        "col2": "-340-1-1",
        "col3": "-340-1-1",
        "col4": "-270"
    },
    {
        "col0": "Empedocles",
        "col1": "Sicily",
        "col2": "-490-0-0",
        "col3": "-490-0-0",
        "col4": "-430"
    },
    {
        "col0": "E. Mounier",
        "col1": "Chatenay-Malabry",
        "col2": "1905-05-01",
        "col3": "1905-05-01",
        "col4": "1950"
    },
    {
        "col0": "E. Levinas",
        "col1": "France",
        "col2": "1906-01-12",
        "col3": "1906-01-12",
        "col4": "1995"
    },
    {
        "col0": "E. Goldman",
        "col1": "Toronto",
        "col2": "1869-06-27",
        "col3": "1869-06-27",
        "col4": "1940"
    },
    {
        "col0": "E. Lask",
        "col1": "Austria-Hungary",
        "col2": "1875-09-25",
        "col3": "1875-09-25",
        "col4": "1915"
    },
    {
        "col0": "E. Fackenheim",
        "col1": "Israel",
        "col2": "1916-06-22",
        "col3": "1916-06-22",
        "col4": "2003"
    },
    {
        "col0": "E. Cioran",
        "col1": "Paris",
        "col2": "1911-04-08",
        "col3": "1911-04-08",
        "col4": "1995"
    },
    {
        "col0": "E. d. Vattel",
        "col1": "Neuchatel",
        "col2": "1714-04-25",
        "col3": "1714-04-25",
        "col4": "1767"
    },
    {
        "col0": "E. Anscombe",
        "col1": "Cambridge",
        "col2": "1919-03-18",
        "col3": "1919-03-18",
        "col4": "2001"
    },
    {
        "col0": "E. Petropoulos",
        "col1": "Paris",
        "col2": "1928-1-1",
        "col3": "1928-1-1",
        "col4": "2003"
    },
    {
        "col0": "E. Oznobkina",
        "col1": "Moscow",
        "col2": "1959-04-25",
        "col3": "1959-04-25",
        "col4": "1925"
    },
    {
        "col0": "E. C. Piscopia",
        "col1": "Padua",
        "col2": "1646-06-05",
        "col3": "1646-06-05",
        "col4": "1684"
    },
    {
        "col0": "E. A. Burtt",
        "col1": "Ithaca, New York",
        "col2": "1892-10-11",
        "col3": "1892-10-11",
        "col4": "1989"
    },
    {
        "col0": "E. Shils",
        "col1": "Chicago",
        "col2": "1910-07-01",
        "col3": "1910-07-01",
        "col4": "1995"
    },
    {
        "col0": "E. Said",
        "col1": "New York City",
        "col2": "1935-11-01",
        "col3": "1935-11-01",
        "col4": "2003"
    },
    {
        "col0": "E. Abramowski",
        "col1": "Poland",
        "col2": "1868-08-17",
        "col3": "1868-08-17",
        "col4": "1918"
    },
    {
        "col0": "E. Rabossi",
        "col1": "Peru",
        "col2": "1930-03-20",
        "col3": "1930-03-20",
        "col4": "2005"
    },
    {
        "col0": "E. Husserl",
        "col1": "Freiburg",
        "col2": "1859-04-08",
        "col3": "1859-04-08",
        "col4": "1938"
    },
    {
        "col0": "E. Burke",
        "col1": "Kingdom of Great Britain",
        "col2": "1729-01-12",
        "col3": "1729-01-12",
        "col4": "1797"
    },
    {
        "col0": "E. Stein",
        "col1": "Auschwitz concentration camp",
        "col2": "1891-10-12",
        "col3": "1891-10-12",
        "col4": "1942"
    },
    {
        "col0": "E. Penrose",
        "col1": "England",
        "col2": "1914-11-15",
        "col3": "1914-11-15",
        "col4": "1996"
    },
    {
        "col0": "D. Scotus",
        "col1": "Cologne",
        "col2": "1265-0-0",
        "col3": "1265-0-0",
        "col4": "1308"
    },
    {
        "col0": "D. Davidson",
        "col1": "Berkeley, California",
        "col2": "1917-03-06",
        "col3": "1917-03-06",
        "col4": "2003"
    },
    {
        "col0": "D. Janicaud",
        "col1": "Eze",
        "col2": "1937-11-14",
        "col3": "1937-11-14",
        "col4": "2002"
    },
    {
        "col0": "D. o. Flanders",
        "col1": "Florence",
        "col2": "1425",
        "col3": "1425",
        "col4": "1479"
    },
    {
        "col0": "D. o. Sinope",
        "col1": "Ancient Corinth",
        "col2": "-404-1-1",
        "col3": "-404-1-1",
        "col4": "-323"
    },
    {
        "col0": "D. Liantinis",
        "col1": "Greece",
        "col2": "1942-07-23",
        "col3": "1942-07-23",
        "col4": "1998"
    },
    {
        "col0": "D. v. Hildebrand",
        "col1": "New Rochelle",
        "col2": "1889-10-12",
        "col3": "1889-10-12",
        "col4": "1977"
    },
    {
        "col0": "D. Z. Phillips",
        "col1": "Wales",
        "col2": "1934-11-24",
        "col3": "1934-11-24",
        "col4": "2006"
    },
    {
        "col0": "D. Diderot",
        "col1": "Paris",
        "col2": "1713-10-05",
        "col3": "1713-10-05",
        "col4": "1784"
    },
    {
        "col0": "D. Santos",
        "col1": "Portugal",
        "col2": "1907-11-06",
        "col3": "1907-11-06",
        "col4": "1966"
    },
    {
        "col0": "D. Chattopadhyaya",
        "col1": "Kolkata",
        "col2": "1918-11-19",
        "col3": "1918-11-19",
        "col4": "1993"
    },
    {
        "col0": "D. Stove",
        "col1": "Mulgoa, New South Wales",
        "col2": "1927-09-15",
        "col3": "1927-09-15",
        "col4": "1994"
    },
    {
        "col0": "D. Ruhnken",
        "col1": "Leiden",
        "col2": "1723-01-02",
        "col3": "1723-01-02",
        "col4": "1798"
    },
    {
        "col0": "D. M. Armstrong",
        "col1": "Australia",
        "col2": "1926-07-08",
        "col3": "1926-07-08",
        "col4": "2014"
    },
    {
        "col0": "D. Lewis",
        "col1": "New Jersey",
        "col2": "1941-09-28",
        "col3": "1941-09-28",
        "col4": "2001"
    },
    {
        "col0": "D. Hume",
        "col1": "Edinburgh",
        "col2": "1711-4-26",
        "col3": "1711-4-26",
        "col4": "1776"
    },
    {
        "col0": "D. Hartley",
        "col1": "Bath, Somerset",
        "col2": "1705-08-30",
        "col3": "1705-08-30",
        "col4": "1757"
    },
    {
        "col0": "D. B. Zilberman",
        "col1": "Boston",
        "col2": "1938-05-25",
        "col3": "1938-05-25",
        "col4": "1977"
    },
    {
        "col0": "D. Bensaid",
        "col1": "Paris",
        "col2": "1946-03-25",
        "col3": "1946-03-25",
        "col4": "2010"
    },
    {
        "col0": "D. C. Masham",
        "col1": "London",
        "col2": "1659-01-18",
        "col3": "1659-01-18",
        "col4": "1708"
    },
    {
        "col0": "D. Willard",
        "col1": "Pasadena, California",
        "col2": "1935-09-04",
        "col3": "1935-09-04",
        "col4": "2013"
    },
    {
        "col0": "C. o. Thebes",
        "col1": "Boeotia",
        "col2": "-365-0-0",
        "col3": "-365-0-0",
        "col4": "-285"
    },
    {
        "col0": "C. Preve",
        "col1": "Italy",
        "col2": "1943-04-14",
        "col3": "1943-04-14",
        "col4": "2013"
    },
    {
        "col0": "C. Castoriadis",
        "col1": "France",
        "col2": "1922-03-11",
        "col3": "1922-03-11",
        "col4": "1997"
    },
    {
        "col0": "C. Brunner",
        "col1": "Netherlands",
        "col2": "1862-08-27",
        "col3": "1862-08-27",
        "col4": "1937"
    },
    {
        "col0": "Confucius",
        "col1": "Lu",
        "col2": "-0551-09-28",
        "col3": "-0551-09-28",
        "col4": "-479"
    },
    {
        "col0": "C. M. Turbayne",
        "col1": "Queensland",
        "col2": "1916-02-07",
        "col3": "1916-02-07",
        "col4": "2006"
    },
    {
        "col0": "Cleanthes",
        "col1": "Athens",
        "col2": "-330-1-1",
        "col3": "-330-1-1",
        "col4": "-230"
    },
    {
        "col0": "C. Card",
        "col1": "Fitchburg, Wisconsin",
        "col2": "1940-09-30",
        "col3": "1940-09-30",
        "col4": "2015"
    },
    {
        "col0": "C. Levi-Strauss",
        "col1": "Paris",
        "col2": "1908-11-28",
        "col3": "1908-11-28",
        "col4": "2009"
    },
    {
        "col0": "Claude Henri de Rouvroy, comte de Saint-Simon",
        "col1": "Bourbon Restoration",
        "col2": "1760-10-17",
        "col3": "1760-10-17",
        "col4": "1825"
    },
    {
        "col0": "C. A. Helvetius",
        "col1": "France",
        "col2": "1715-01-26",
        "col3": "1715-01-26",
        "col4": "1771"
    },
    {
        "col0": "Chrysippus",
        "col1": "Athens",
        "col2": "-281-1-1",
        "col3": "-281-1-1",
        "col4": "-206"
    },
    {
        "col0": "C. Hitchens",
        "col1": "Houston",
        "col2": "1949-04-13",
        "col3": "1949-04-13",
        "col4": "2011"
    },
    {
        "col0": "C. v. Sigwart",
        "col1": "Tubingen",
        "col2": "1830-03-28",
        "col3": "1830-03-28",
        "col4": "1904"
    },
    {
        "col0": "C. v. Ehrenfels",
        "col1": "Republic of Austria",
        "col2": "1859-06-20",
        "col3": "1859-06-20",
        "col4": "1932"
    },
    {
        "col0": "C. Wolff",
        "col1": "Halle",
        "col2": "1679-01-24",
        "col3": "1679-01-24",
        "col4": "1754"
    },
    {
        "col0": "C. J. Kraus",
        "col1": "East Prussia",
        "col2": "1753-07-27",
        "col3": "1753-07-27",
        "col4": "1807"
    },
    {
        "col0": "C. Garve",
        "col1": "Breslau",
        "col2": "1742-01-07",
        "col3": "1742-01-07",
        "col4": "1798"
    },
    {
        "col0": "C. Harman",
        "col1": "Cairo",
        "col2": "1942-11-08",
        "col3": "1942-11-08",
        "col4": "2009"
    },
    {
        "col0": "C. Perelman",
        "col1": "Brussels",
        "col2": "1912-05-20",
        "col3": "1912-05-20",
        "col4": "1984"
    },
    {
        "col0": "C. Stevenson",
        "col1": "Bennington, Vermont",
        "col2": "1908-06-27",
        "col3": "1908-06-27",
        "col4": "1979"
    }
]