[
    {
        "col0": "M. McIntosh",
        "col1": "Salter Point, Western Australia",
        "col2": "Subiaco, Western Australia",
        "col3": "1922-11-25",
        "col4": "2010-5-3",
        "col5": "1922-11-25"
    },
    {
        "col0": "M. Brooks",
        "col1": "Moonee Ponds, Victoria",
        "col2": "Ariah Park",
        "col3": "1919-1-19",
        "col4": "2011-8-19",
        "col5": "1919-1-19"
    },
    {
        "col0": "M. Rioli",
        "col1": "Darwin, Northern Territory",
        "col2": "Melville Island",
        "col3": "1957-9-1",
        "col4": "2010-12-25",
        "col5": "1957-9-1"
    },
    {
        "col0": "M. McDonnell",
        "col1": "Perth",
        "col2": "New Zealand",
        "col3": "1920-12-28",
        "col4": "2005-12-22",
        "col5": "1920-12-28"
    },
    {
        "col0": "M. Ratz",
        "col1": "St Kilda, Victoria",
        "col2": "Collingwood, Victoria",
        "col3": "1887-10-14",
        "col4": "1943-8-8",
        "col5": "1887-10-14"
    },
    {
        "col0": "M. Kennedy",
        "col1": "Belgium",
        "col2": "Kew, Victoria",
        "col3": "1892-10-23",
        "col4": "1918-1-2",
        "col5": "1892-10-23"
    },
    {
        "col0": "M. Williams",
        "col1": "Battle of the Somme",
        "col2": "Castlemaine, Victoria",
        "col3": "1886-9-9",
        "col4": "1917-5-2",
        "col5": "1886-9-9"
    },
    {
        "col0": "L. Waye",
        "col1": "Frewville, South Australia",
        "col2": "Willunga, South Australia",
        "col3": "1885-1-14",
        "col4": "1951-6-10",
        "col5": "1885-1-14"
    },
    {
        "col0": "L. Kelly",
        "col1": "Brighton, Victoria",
        "col2": "Moonta, South Australia",
        "col3": "1892-2-14",
        "col4": "1958-1-6",
        "col5": "1892-2-14"
    },
    {
        "col0": "L. Marks",
        "col1": "Bendigo",
        "col2": "Bendigo",
        "col3": "1892-12-14",
        "col4": "1919-8-28",
        "col5": "1892-12-14"
    },
    {
        "col0": "L. Primrose",
        "col1": "Battle of the Somme",
        "col2": "Ballarat",
        "col3": "1890-5-14",
        "col4": "1918-6-4",
        "col5": "1890-5-14"
    },
    {
        "col0": "L. Millis",
        "col1": "Carlton, Victoria",
        "col2": "Fitzroy, Victoria",
        "col3": "1881-6-18",
        "col4": "1950-4-7",
        "col5": "1881-6-18"
    },
    {
        "col0": "L. Seward",
        "col1": "Perth",
        "col2": "Ballarat",
        "col3": "1885-11-3",
        "col4": "1941-4-1",
        "col5": "1885-11-3"
    },
    {
        "col0": "L. Little",
        "col1": "Melbourne",
        "col2": "Bacchus Marsh",
        "col3": "1892-2-22",
        "col4": "1956-11-19",
        "col5": "1892-2-22"
    },
    {
        "col0": "L. Gale",
        "col1": "Fitzroy, Victoria",
        "col2": "Hawthorn, Victoria",
        "col3": "1897-4-18",
        "col4": "1948-6-25",
        "col5": "1897-4-18"
    },
    {
        "col0": "L. Dockett",
        "col1": "Melbourne",
        "col2": "Carlton, Victoria",
        "col3": "1920-3-5",
        "col4": "2008-1-1",
        "col5": "1920-3-5"
    },
    {
        "col0": "L. Crane",
        "col1": "Sunshine Coast, Queensland",
        "col2": "South Melbourne, Victoria",
        "col3": "1928-2-7",
        "col4": "2006-5-1",
        "col5": "1928-2-7"
    },
    {
        "col0": "L. Schache",
        "col1": "Adelaide",
        "col2": "Hopetoun, Victoria",
        "col3": "1967-10-17",
        "col4": "2002-10-5",
        "col5": "1967-10-17"
    },
    {
        "col0": "L. Sleeman",
        "col1": "Hawthorn, Victoria",
        "col2": "Tylden, Victoria",
        "col3": "1885-3-21",
        "col4": "1968-12-20",
        "col5": "1885-3-21"
    },
    {
        "col0": "K. MacLeod",
        "col1": "HMS Glowworm",
        "col2": "Warrnambool",
        "col3": "1890-8-18",
        "col4": "1940-4-8",
        "col5": "1890-8-18"
    },
    {
        "col0": "K. Kendall",
        "col1": "Hawthorn, Victoria",
        "col2": "Bendigo",
        "col3": "1884-3-6",
        "col4": "1969-3-27",
        "col5": "1884-3-6"
    },
    {
        "col0": "K. Farmer",
        "col1": "Adelaide",
        "col2": "Adelaide",
        "col3": "1910-7-25",
        "col4": "1982-3-5",
        "col5": "1910-7-25"
    },
    {
        "col0": "K. Millar",
        "col1": "Melbourne",
        "col2": "Richmond, Victoria",
        "col3": "1906-8-15",
        "col4": "1971-7-13",
        "col5": "1906-8-15"
    },
    {
        "col0": "K. Doig",
        "col1": "Lorne, Victoria",
        "col2": "Nathalia, Victoria",
        "col3": "1891-12-11",
        "col4": "1949-1-3",
        "col5": "1891-12-11"
    },
    {
        "col0": "J. Robinson",
        "col1": "Melbourne",
        "col2": "St Kilda, Victoria",
        "col3": "1891-12-28",
        "col4": "1966-2-25",
        "col5": "1891-12-28"
    },
    {
        "col0": "J. McCarthy",
        "col1": "Las Vegas",
        "col2": "Victoria",
        "col3": "1989-11-19",
        "col4": "2012-9-9",
        "col5": "1989-11-19"
    },
    {
        "col0": "J. Leahy",
        "col1": "North Melbourne, Victoria",
        "col2": "Geelong",
        "col3": "1941-3-7",
        "col4": "1980-11-23",
        "col5": "1941-3-7"
    },
    {
        "col0": "J. Laing",
        "col1": "Malvern, Victoria",
        "col2": "Golden Square, Victoria",
        "col3": "1884-7-5",
        "col4": "1944-10-29",
        "col5": "1884-7-5"
    },
    {
        "col0": "J. Gray",
        "col1": "Toorak, Victoria",
        "col2": "Scotland",
        "col3": "1888-7-12",
        "col4": "1947-6-28",
        "col5": "1888-7-12"
    },
    {
        "col0": "J. Coleman",
        "col1": "Dromana, Victoria",
        "col2": "Port Fairy",
        "col3": "1928-11-23",
        "col4": "1973-4-5",
        "col5": "1928-11-23"
    },
    {
        "col0": "J. Shelley",
        "col1": "Melbourne",
        "col2": "Caulfield, Victoria",
        "col3": "1892-9-8",
        "col4": "1966-6-23",
        "col5": "1892-9-8"
    },
    {
        "col0": "J. Sellwood",
        "col1": "Belmont, Victoria",
        "col2": "New Zealand",
        "col3": "1911-1-24",
        "col4": "2007-10-18",
        "col5": "1911-1-24"
    },
    {
        "col0": "J. Pearce",
        "col1": "Gallipoli",
        "col2": "Bendigo",
        "col3": "1885-1-28",
        "col4": "1915-4-25",
        "col5": "1885-1-28"
    },
    {
        "col0": "J. Kinnear",
        "col1": "City of Moreland",
        "col2": "Brunswick West, Victoria",
        "col3": "1912-2-12",
        "col4": "1981-12-14",
        "col5": "1912-2-12"
    },
    {
        "col0": "J. Fogarty",
        "col1": "Armadale, Victoria",
        "col2": "North Melbourne, Victoria",
        "col3": "1887-12-24",
        "col4": "1954-6-28",
        "col5": "1887-12-24"
    },
    {
        "col0": "J. Melbourne",
        "col1": "South Melbourne, Victoria",
        "col2": "York, Western Australia",
        "col3": "1876-1-1",
        "col4": "1937-12-13",
        "col5": "1876-1-1"
    },
    {
        "col0": "J. Stynes",
        "col1": "St Kilda, Victoria",
        "col2": "Dublin",
        "col3": "1966-4-23",
        "col4": "2012-3-20",
        "col5": "1966-4-23"
    },
    {
        "col0": "J. Piper",
        "col1": "Geelong West, Victoria",
        "col2": "Geelong West, Victoria",
        "col3": "1884-4-30",
        "col4": "1949-5-25",
        "col5": "1884-4-30"
    },
    {
        "col0": "J. Park",
        "col1": "Wau, Papua New Guinea",
        "col2": "Bendigo",
        "col3": "1910-2-14",
        "col4": "1943-2-9",
        "col5": "1910-2-14"
    },
    {
        "col0": "J. Nicholas",
        "col1": "Battle of the Menin Road Ridge",
        "col2": "Moama",
        "col3": "1890-11-17",
        "col4": "1917-9-20",
        "col5": "1890-11-17"
    },
    {
        "col0": "J. Houghton",
        "col1": "Yan Yean, Victoria",
        "col2": "Harrietville, Victoria",
        "col3": "1891-9-20",
        "col4": "1973-6-20",
        "col5": "1891-9-20"
    },
    {
        "col0": "J. Flynn",
        "col1": "Wangaratta",
        "col2": "Benalla",
        "col3": "1871-3-21",
        "col4": "1955-8-21",
        "col5": "1871-3-21"
    },
    {
        "col0": "J. Farnan",
        "col1": "France",
        "col2": "South Melbourne, Victoria",
        "col3": "1875-7-12",
        "col4": "1916-8-9",
        "col5": "1875-7-12"
    },
    {
        "col0": "J. Everett",
        "col1": "Nedlands, Western Australia",
        "col2": "Toodyay, Western Australia",
        "col3": "1884-7-20",
        "col4": "1968-6-19",
        "col5": "1884-7-20"
    },
    {
        "col0": "J. Ditchburn",
        "col1": "Perth",
        "col2": "Boulder, Western Australia",
        "col3": "1908-8-24",
        "col4": "1964-3-7",
        "col5": "1908-8-24"
    },
    {
        "col0": "J. Craig",
        "col1": "Embleton, Western Australia",
        "col2": "Kalgoorlie",
        "col3": "1910-10-15",
        "col4": "1978-11-23",
        "col5": "1910-10-15"
    },
    {
        "col0": "J. Conway",
        "col1": "Perth",
        "col2": "North Fremantle, Western Australia",
        "col3": "1925-6-14",
        "col4": "2003-12-28",
        "col5": "1925-6-14"
    },
    {
        "col0": "J. Bonella",
        "col1": "France",
        "col2": "Maldon, Victoria",
        "col3": "1884-12-17",
        "col4": "1918-5-24",
        "col5": "1884-12-17"
    },
    {
        "col0": "J. Baird",
        "col1": "Sandringham, Victoria",
        "col2": "Parkville, Victoria",
        "col3": "1920-11-9",
        "col4": "2003-11-4",
        "col5": "1920-11-9"
    },
    {
        "col0": "J. Atkinson",
        "col1": "Beaconsfield, Tasmania",
        "col2": "Fitzroy North, Victoria",
        "col3": "1896-4-4",
        "col4": "1956-6-11",
        "col5": "1896-4-4"
    },
    {
        "col0": "J. Fehring",
        "col1": "Hay, New South Wales",
        "col2": "Leitchville, Victoria",
        "col3": "1956-4-21",
        "col4": "2008-7-25",
        "col5": "1956-4-21"
    },
    {
        "col0": "J. Tierney",
        "col1": "Melbourne",
        "col2": "Gawler, South Australia",
        "col3": "1878-1-1",
        "col4": "1959-1-1",
        "col5": "1878-1-1"
    },
    {
        "col0": "J. Worrall",
        "col1": "Fairfield, Victoria",
        "col2": "Maryborough, Victoria",
        "col3": "1861-6-21",
        "col4": "1937-11-17",
        "col5": "1861-6-21"
    },
    {
        "col0": "J. West",
        "col1": "South Yarra, Victoria",
        "col2": "Mooroopna",
        "col3": "1889-2-17",
        "col4": "1960-3-30",
        "col5": "1889-2-17"
    },
    {
        "col0": "J. Wells",
        "col1": "Fitzroy, Victoria",
        "col2": "Stawell, Victoria",
        "col3": "1883-1-4",
        "col4": "1966-12-17",
        "col5": "1883-1-4"
    },
    {
        "col0": "J. Shelton",
        "col1": "Libya",
        "col2": "Avenel, Victoria",
        "col3": "1905-1-24",
        "col4": "1941-5-1",
        "col5": "1905-1-24"
    },
    {
        "col0": "J. Sexton",
        "col1": "Adelaide",
        "col2": "Adelaide",
        "col3": "1900-2-27",
        "col4": "1935-10-26",
        "col5": "1900-2-27"
    },
    {
        "col0": "J. Oatey",
        "col1": "Adelaide",
        "col2": "Adelaide",
        "col3": "1920-8-29",
        "col4": "1994-2-26",
        "col5": "1920-8-29"
    },
    {
        "col0": "J. Nicholson",
        "col1": "Midland, Western Australia",
        "col2": "Geelong",
        "col3": "1892-6-24",
        "col4": "1967-9-27",
        "col5": "1892-6-24"
    },
    {
        "col0": "J. McDiarmid",
        "col1": "Perth",
        "col2": "Perth",
        "col3": "1903-10-3",
        "col4": "1974-8-10",
        "col5": "1903-10-3"
    },
    {
        "col0": "J. Jones",
        "col1": "Melbourne",
        "col2": "Lilydale, Victoria",
        "col3": "1888-3-5",
        "col4": "1960-6-18",
        "col5": "1888-3-5"
    },
    {
        "col0": "J. Gervasoni",
        "col1": "Kew, Victoria",
        "col2": "Daylesford, Victoria",
        "col3": "1929-9-29",
        "col4": "1992-2-9",
        "col5": "1929-9-29"
    },
    {
        "col0": "J. Dyer",
        "col1": "Box Hill, Victoria",
        "col2": "Oakleigh, Victoria",
        "col3": "1913-11-15",
        "col4": "2003-8-23",
        "col5": "1913-11-15"
    },
    {
        "col0": "J. Doubleday",
        "col1": "Indian Ocean",
        "col2": "Prahran, Victoria",
        "col3": "1890-5-28",
        "col4": "1918-8-13",
        "col5": "1890-5-28"
    },
    {
        "col0": "J. Cooper",
        "col1": "Battle of Passchendaele",
        "col2": "Fitzroy North, Victoria",
        "col3": "1889-2-21",
        "col4": "1917-9-20",
        "col5": "1889-2-21"
    },
    {
        "col0": "J. Chamberlain",
        "col1": "Leabrook, South Australia",
        "col2": "Glanville, South Australia",
        "col3": "1884-8-29",
        "col4": "1941-4-1",
        "col5": "1884-8-29"
    },
    {
        "col0": "J. Brake",
        "col1": "Castlemaine, Victoria",
        "col2": "Horsham, Victoria",
        "col3": "1890-11-11",
        "col4": "1970-5-16",
        "col5": "1890-11-11"
    },
    {
        "col0": "J. Barnes",
        "col1": "Williamstown, Victoria",
        "col2": "Williamstown, Victoria",
        "col3": "1905-5-20",
        "col4": "1999-10-6",
        "col5": "1905-5-20"
    },
    {
        "col0": "I. Clay",
        "col1": "Essendon, Victoria",
        "col2": "Bendigo",
        "col3": "1915-5-7",
        "col4": "1958-8-12",
        "col5": "1915-5-7"
    },
    {
        "col0": "H. Gavin",
        "col1": "Melbourne",
        "col2": "Stawell, Victoria",
        "col3": "1878-10-25",
        "col4": "1940-11-13",
        "col5": "1878-10-25"
    },
    {
        "col0": "H. Boyd",
        "col1": "Sandringham, Victoria",
        "col2": "Bendigo",
        "col3": "1886-4-24",
        "col4": "1960-8-8",
        "col5": "1886-4-24"
    },
    {
        "col0": "H. Stafford",
        "col1": "Myanmar",
        "col2": "Wedderburn, Victoria",
        "col3": "1893-3-24",
        "col4": "1942-1-7",
        "col5": "1893-3-24"
    },
    {
        "col0": "H. Screaigh",
        "col1": "Nedlands, Western Australia",
        "col2": "York, Western Australia",
        "col3": "1911-5-12",
        "col4": "2002-7-7",
        "col5": "1911-5-12"
    },
    {
        "col0": "H. Hurrey",
        "col1": "Chatswood, New South Wales",
        "col2": "Herberton, Queensland",
        "col3": "1888-2-27",
        "col4": "1961-12-16",
        "col5": "1888-2-27"
    },
    {
        "col0": "H. Bowden",
        "col1": "Heidelberg, Victoria",
        "col2": "Collingwood, Victoria",
        "col3": "1888-3-31",
        "col4": "1978-6-3",
        "col5": "1888-3-31"
    },
    {
        "col0": "H. Hunter",
        "col1": "Gallipoli",
        "col2": "Bendigo",
        "col3": "1881-11-18",
        "col4": "1915-5-8",
        "col5": "1881-11-18"
    },
    {
        "col0": "H. Edmondson",
        "col1": "South Perth, Western Australia",
        "col2": "Hobart",
        "col3": "1872-11-25",
        "col4": "1946-8-18",
        "col5": "1872-11-25"
    },
    {
        "col0": "H. Schrader",
        "col1": "Kew, Victoria",
        "col2": "Prahran, Victoria",
        "col3": "1893-12-5",
        "col4": "1980-6-10",
        "col5": "1893-12-5"
    },
    {
        "col0": "H. B. Sr.",
        "col1": "Adelaide",
        "col2": "Albury",
        "col3": "1911-7-5",
        "col4": "1955-9-5",
        "col5": "1911-7-5"
    },
    {
        "col0": "H. Kelly",
        "col1": "Croydon, Victoria",
        "col2": "St Kilda, Victoria",
        "col3": "1883-3-24",
        "col4": "1944-7-30",
        "col5": "1883-3-24"
    },
    {
        "col0": "H. Wright",
        "col1": "West Melbourne, Victoria",
        "col2": "Ballarat",
        "col3": "1870-4-4",
        "col4": "1950-3-19",
        "col5": "1870-4-4"
    },
    {
        "col0": "H. Morgan",
        "col1": "Northam, Western Australia",
        "col2": "Western Australia",
        "col3": "1889-9-16",
        "col4": "1956-12-10",
        "col5": "1889-9-16"
    },
    {
        "col0": "H. Dowdall",
        "col1": "Collingwood, Victoria",
        "col2": "South Melbourne, Victoria",
        "col3": "1872-6-29",
        "col4": "1912-5-9",
        "col5": "1872-6-29"
    },
    {
        "col0": "H. Daniel",
        "col1": "Amiens",
        "col2": "Ballarat",
        "col3": "1879-6-19",
        "col4": "1918-8-10",
        "col5": "1879-6-19"
    },
    {
        "col0": "H. Cordner",
        "col1": "Hobart",
        "col2": "Bendigo",
        "col3": "1885-6-17",
        "col4": "1943-11-14",
        "col5": "1885-6-17"
    },
    {
        "col0": "H. Parker",
        "col1": "France",
        "col2": "Elsternwick, Victoria",
        "col3": "1892-9-26",
        "col4": "1917-1-30",
        "col5": "1892-9-26"
    },
    {
        "col0": "H. Bennett",
        "col1": "Fitzroy, Victoria",
        "col2": "Heathcote, Victoria",
        "col3": "1891-6-9",
        "col4": "1964-7-9",
        "col5": "1891-6-9"
    },
    {
        "col0": "G. Brehaut",
        "col1": "Carine, Western Australia",
        "col2": "Carlisle, Western Australia",
        "col3": "1946-8-1",
        "col4": "1993-2-19",
        "col5": "1946-8-1"
    },
    {
        "col0": "G. Morrissey",
        "col1": "Ingham, Queensland",
        "col2": "Alphington, Victoria",
        "col3": "1894-7-8",
        "col4": "1970-3-8",
        "col5": "1894-7-8"
    },
    {
        "col0": "G. Gurr",
        "col1": "Loxton, South Australia",
        "col2": "Adelaide",
        "col3": "1881-12-22",
        "col4": "1960-8-11",
        "col5": "1881-12-22"
    },
    {
        "col0": "G. Coventry",
        "col1": "Diamond Creek, Victoria",
        "col2": "Diamond Creek, Victoria",
        "col3": "1901-9-25",
        "col4": "1968-11-7",
        "col5": "1901-9-25"
    },
    {
        "col0": "G. Barker",
        "col1": "Perth",
        "col2": "South Melbourne, Victoria",
        "col3": "1882-7-30",
        "col4": "1952-9-6",
        "col5": "1882-7-30"
    },
    {
        "col0": "G. Topping",
        "col1": "Brunswick, Victoria",
        "col2": "Fitzroy, Victoria",
        "col3": "1881-8-27",
        "col4": "1958-11-17",
        "col5": "1881-8-27"
    },
    {
        "col0": "G. Stuckey",
        "col1": "North Melbourne, Victoria",
        "col2": "Walhalla, Victoria",
        "col3": "1871-7-6",
        "col4": "1932-3-15",
        "col5": "1871-7-6"
    },
    {
        "col0": "G. Shaw",
        "col1": "Melbourne",
        "col2": "Sydney",
        "col3": "1886-4-1",
        "col4": "1971-4-30",
        "col5": "1886-4-1"
    },
    {
        "col0": "G. P. Anderson",
        "col1": "Wagga Wagga",
        "col2": "Windsor, Victoria",
        "col3": "1885-6-3",
        "col4": "1958-6-10",
        "col5": "1885-6-3"
    },
    {
        "col0": "G. Owens",
        "col1": "Mount Lawley, Western Australia",
        "col2": "Kalgoorlie",
        "col3": "1900-8-20",
        "col4": "1986-10-7",
        "col5": "1900-8-20"
    },
    {
        "col0": "G. Moysey",
        "col1": "Canterbury, Victoria",
        "col2": "Battery Point, Tasmania",
        "col3": "1874-5-14",
        "col4": "1932-5-18",
        "col5": "1874-5-14"
    },
    {
        "col0": "G. Krepp",
        "col1": "Mandurah",
        "col2": "Nannine, Western Australia",
        "col3": "1912-7-21",
        "col4": "1973-8-16",
        "col5": "1912-7-21"
    },
    {
        "col0": "G. Elliott",
        "col1": "Ypres",
        "col2": "Charlton, Victoria",
        "col3": "1885-6-1",
        "col4": "1917-9-25",
        "col5": "1885-6-1"
    },
    {
        "col0": "G. Doig",
        "col1": "Bicton, Western Australia",
        "col2": "Fremantle",
        "col3": "1913-5-25",
        "col4": "2006-11-27",
        "col5": "1913-5-25"
    },
    {
        "col0": "G. Coulthard",
        "col1": "Victoria",
        "col2": "Victoria",
        "col3": "1856-08-01",
        "col4": "1883-10-22",
        "col5": "1856-08-01"
    },
    {
        "col0": "G. Blake",
        "col1": "Victoria",
        "col2": "St Kilda, Victoria",
        "col3": "1878-9-4",
        "col4": "1946-2-6",
        "col5": "1878-9-4"
    },
    {
        "col0": "G. Anderson",
        "col1": "Kew, Victoria",
        "col2": "Melbourne",
        "col3": "1886-11-24",
        "col4": "1976-6-12",
        "col5": "1886-11-24"
    },
    {
        "col0": "G. Dhurrkay",
        "col1": "Arnhem Land",
        "col2": "Northern Territory",
        "col3": "1974-3-4",
        "col4": "2005-8-21",
        "col5": "1974-3-4"
    },
    {
        "col0": "F. Scott",
        "col1": "Ferntree Gully, Victoria",
        "col2": "Ulster",
        "col3": "1874-4-11",
        "col4": "1969-7-8",
        "col5": "1874-4-11"
    },
    {
        "col0": "F. McIntosh",
        "col1": "Polygon Wood, Zonnebeke",
        "col2": "Fitzroy, Victoria",
        "col3": "1893-7-23",
        "col4": "1917-9-28",
        "col5": "1893-7-23"
    },
    {
        "col0": "F. Elliott",
        "col1": "Mount Gambier, South Australia",
        "col2": "Carlton, Victoria",
        "col3": "1879-4-7",
        "col4": "1960-8-3",
        "col5": "1879-4-7"
    },
    {
        "col0": "F. Pyke",
        "col1": "Perth",
        "col2": "Perth",
        "col3": "1941-12-1",
        "col4": "2011-11-22",
        "col5": "1941-12-1"
    },
    {
        "col0": "F. Macky",
        "col1": "Auckland",
        "col2": "Auckland",
        "col3": "1891-12-19",
        "col4": "1975-12-29",
        "col5": "1891-12-19"
    },
    {
        "col0": "F. Lugton",
        "col1": "Villers-Bretonneux",
        "col2": "Northcote, Victoria",
        "col3": "1893-11-4",
        "col4": "1916-7-29",
        "col5": "1893-11-4"
    },
    {
        "col0": "F. Kirby",
        "col1": "Camberwell, Victoria",
        "col2": "Fitzroy, Victoria",
        "col3": "1885-9-22",
        "col4": "1963-3-20",
        "col5": "1885-9-22"
    },
    {
        "col0": "F. Kerr",
        "col1": "Kew, Victoria",
        "col2": "Hawthorn, Victoria",
        "col3": "1889-4-5",
        "col4": "1977-5-3",
        "col5": "1889-4-5"
    },
    {
        "col0": "F. Dossetor",
        "col1": "Bromham, Wiltshire",
        "col2": "Hobart",
        "col3": "1885-12-11",
        "col4": "1950-11-8",
        "col5": "1885-12-11"
    },
    {
        "col0": "F. Crawford",
        "col1": "Richmond, Victoria",
        "col2": "St Kilda, Victoria",
        "col3": "1887-6-7",
        "col4": "1943-7-3",
        "col5": "1887-6-7"
    },
    {
        "col0": "F. Cameron",
        "col1": "Shepparton",
        "col2": "Orbost",
        "col3": "1892-4-17",
        "col4": "1986-2-6",
        "col5": "1892-4-17"
    },
    {
        "col0": "F. Boynton",
        "col1": "Northam, Western Australia",
        "col2": "Prahran, Victoria",
        "col3": "1887-1-1",
        "col4": "1946-3-3",
        "col5": "1887-1-1"
    },
    {
        "col0": "F. McDonald",
        "col1": "Gallipoli",
        "col2": "Nagambie",
        "col3": "1891-5-25",
        "col4": "1915-4-25",
        "col5": "1891-5-25"
    },
    {
        "col0": "E. Dornau",
        "col1": "Melbourne",
        "col2": "Brisbane",
        "col3": "1926-3-22",
        "col4": "2008-9-23",
        "col5": "1926-3-22"
    },
    {
        "col0": "E. Atkins",
        "col1": "Hawthorn, Victoria",
        "col2": "South Melbourne, Victoria",
        "col3": "1890-4-26",
        "col4": "1972-9-14",
        "col5": "1890-4-26"
    },
    {
        "col0": "E. McIntyre",
        "col1": "Melbourne",
        "col2": "Albert Park, Victoria",
        "col3": "1921-4-19",
        "col4": "2003-4-10",
        "col5": "1921-4-19"
    },
    {
        "col0": "E. Woods",
        "col1": "Melbourne",
        "col2": "Albury",
        "col3": "1892-12-12",
        "col4": "1936-8-12",
        "col5": "1892-12-12"
    },
    {
        "col0": "E. Johnson",
        "col1": "Adelaide",
        "col2": "Norwood, South Australia",
        "col3": "1902-7-17",
        "col4": "1976-1-10",
        "col5": "1902-7-17"
    },
    {
        "col0": "E. Glass",
        "col1": "Ashwood, Victoria",
        "col2": "Northam, Western Australia",
        "col3": "1910-2-22",
        "col4": "1985-7-29",
        "col5": "1910-2-22"
    },
    {
        "col0": "E. G. Jr.",
        "col1": "Ararat, Victoria",
        "col2": "Warragul",
        "col3": "1903-11-1",
        "col4": "1963-4-15",
        "col5": "1903-11-1"
    },
    {
        "col0": "E. Cordner",
        "col1": "Greensborough, Victoria",
        "col2": "Bendigo",
        "col3": "1887-6-18",
        "col4": "1963-7-21",
        "col5": "1887-6-18"
    },
    {
        "col0": "E. Kneen",
        "col1": "Mont Albert, Victoria",
        "col2": "Fitzroy, Victoria",
        "col3": "1882-9-9",
        "col4": "1962-4-24",
        "col5": "1882-9-9"
    },
    {
        "col0": "D. Anderson",
        "col1": "Murdoch, Western Australia",
        "col2": "Witchcliffe, Western Australia",
        "col3": "1924-9-21",
        "col4": "2012-12-7",
        "col5": "1924-9-21"
    },
    {
        "col0": "D. Fraser",
        "col1": "Yarraville, Victoria",
        "col2": "Brunswick, Victoria",
        "col3": "1886-12-7",
        "col4": "1919-2-24",
        "col5": "1886-12-7"
    },
    {
        "col0": "D. Roach",
        "col1": "Sydney",
        "col2": "Melbourne",
        "col3": "1940-7-31",
        "col4": "2011-7-3",
        "col5": "1940-7-31"
    },
    {
        "col0": "D. M. Sr.",
        "col1": "Fremantle",
        "col2": "Boulder, Western Australia",
        "col3": "1907-8-27",
        "col4": "1967-5-4",
        "col5": "1907-8-27"
    },
    {
        "col0": "D. Heinrichs",
        "col1": "Adelaide",
        "col2": "Germany",
        "col3": "1883-4-28",
        "col4": "1967-6-24",
        "col5": "1883-4-28"
    },
    {
        "col0": "D. Wearmouth",
        "col1": "Terang",
        "col2": "Rupanyup",
        "col3": "1926-5-12",
        "col4": "2012-4-5",
        "col5": "1926-5-12"
    },
    {
        "col0": "D. Gibbs",
        "col1": "Fleurbaix",
        "col2": "Colac, Victoria",
        "col3": "1892-2-4",
        "col4": "1915-7-19",
        "col5": "1892-2-4"
    },
    {
        "col0": "D. Healey",
        "col1": "Melbourne",
        "col2": "Victoria",
        "col3": "1927-9-5",
        "col4": "2009-3-18",
        "col5": "1927-9-5"
    },
    {
        "col0": "D. Cumming",
        "col1": "Villers-Bretonneux",
        "col2": "Millicent, South Australia",
        "col3": "1891-9-29",
        "col4": "1918-5-3",
        "col5": "1891-9-29"
    },
    {
        "col0": "D. Collins",
        "col1": "Hyden, Western Australia",
        "col2": "Braybrook, Victoria",
        "col3": "1953-5-17",
        "col4": "2011-8-31",
        "col5": "1953-5-17"
    },
    {
        "col0": "D. Browning",
        "col1": "Burwood, New South Wales",
        "col2": "Carlton, Victoria",
        "col3": "1884-6-21",
        "col4": "1942-12-20",
        "col5": "1884-6-21"
    },
    {
        "col0": "D. Smith",
        "col1": "Hawthorn, Victoria",
        "col2": "Richmond, Victoria",
        "col3": "1884-9-14",
        "col4": "1963-7-29",
        "col5": "1884-9-14"
    },
    {
        "col0": "D. McNamara",
        "col1": "Caulfield, Victoria",
        "col2": "Yarrawonga, Victoria",
        "col3": "1887-1-22",
        "col4": "1967-8-15",
        "col5": "1887-1-22"
    },
    {
        "col0": "D. Greenham",
        "col1": "Richmond, Victoria",
        "col2": "Dartmoor, Victoria",
        "col3": "1889-2-14",
        "col4": "1945-1-4",
        "col5": "1889-2-14"
    },
    {
        "col0": "D. Baldock",
        "col1": "Latrobe, Tasmania",
        "col2": "Devonport, Tasmania",
        "col3": "1938-9-29",
        "col4": "2011-2-2",
        "col5": "1938-9-29"
    },
    {
        "col0": "C. Steele",
        "col1": "Werribee River",
        "col2": "Auburn, Victoria",
        "col3": "1891-6-11",
        "col4": "1939-1-18",
        "col5": "1891-6-11"
    },
    {
        "col0": "C. Seelenmeyer",
        "col1": "Fouilloy, Somme",
        "col2": "Melbourne",
        "col3": "1892-4-29",
        "col4": "1918-8-8",
        "col5": "1892-4-29"
    },
    {
        "col0": "C. Gardner",
        "col1": "Melbourne",
        "col2": "Melbourne",
        "col3": "1879-3-12",
        "col4": "1960-8-6",
        "col5": "1879-3-12"
    },
    {
        "col0": "C. Campbell",
        "col1": "Winlaton",
        "col2": "Cressy, Tasmania",
        "col3": "1872-8-13",
        "col4": "1907-4-3",
        "col5": "1872-8-13"
    },
    {
        "col0": "C. Lewington",
        "col1": "Subiaco, Western Australia",
        "col2": "South Fremantle, Western Australia",
        "col3": "1920-2-28",
        "col4": "1989-10-23",
        "col5": "1920-2-28"
    },
    {
        "col0": "C. Tucker",
        "col1": "Queensland",
        "col2": "Balwyn, Victoria",
        "col3": "1888-3-21",
        "col4": "1973-9-3",
        "col5": "1888-3-21"
    },
    {
        "col0": "C. Thomas",
        "col1": "Beaumont-Hamel",
        "col2": "Gisborne, Victoria",
        "col3": "1891-4-15",
        "col4": "1918-7-5",
        "col5": "1891-4-15"
    },
    {
        "col0": "C. Crowl",
        "col1": "Gallipoli",
        "col2": "Stratford, Victoria",
        "col3": "1892-12-26",
        "col4": "1915-4-25",
        "col5": "1892-12-26"
    },
    {
        "col0": "C. Clough",
        "col1": "St Kilda, Victoria",
        "col2": "St Kilda, Victoria",
        "col3": "1884-10-8",
        "col4": "1922-2-22",
        "col5": "1884-10-8"
    },
    {
        "col0": "C. Bryan",
        "col1": "Longford, Tasmania",
        "col2": "Hobart",
        "col3": "1892-12-23",
        "col4": "1960-3-10",
        "col5": "1892-12-23"
    },
    {
        "col0": "C. Mainwaring",
        "col1": "Nedlands, Western Australia",
        "col2": "Geraldton",
        "col3": "1965-12-27",
        "col4": "2007-10-1",
        "col5": "1965-12-27"
    },
    {
        "col0": "C. Fogarty",
        "col1": "Gallipoli",
        "col2": "North Melbourne, Victoria",
        "col3": "1884-1-28",
        "col4": "1915-11-29",
        "col5": "1884-1-28"
    },
    {
        "col0": "C. Oliver",
        "col1": "Melbourne",
        "col2": "Sofala, New South Wales",
        "col3": "1874-9-9",
        "col4": "1917-12-29",
        "col5": "1874-9-9"
    },
    {
        "col0": "C. Norris",
        "col1": "Fitzroy North, Victoria",
        "col2": "Heathcote, Victoria",
        "col3": "1881-7-23",
        "col4": "1940-2-16",
        "col5": "1881-7-23"
    },
    {
        "col0": "C. McSwain",
        "col1": "Mildura",
        "col2": "St Arnaud, Victoria",
        "col3": "1901-10-12",
        "col4": "1976-10-12",
        "col5": "1901-10-12"
    },
    {
        "col0": "C. H. Pannam",
        "col1": "Abbotsford, Victoria",
        "col2": "Greece",
        "col3": "1874-10-2",
        "col4": "1952-10-29",
        "col5": "1874-10-2"
    },
    {
        "col0": "C. Fincher",
        "col1": "Gallipoli",
        "col2": "Footscray, Victoria",
        "col3": "1892-1-23",
        "col4": "1915-4-25",
        "col5": "1892-1-23"
    },
    {
        "col0": "C. Salvana",
        "col1": "Mitcham, Victoria",
        "col2": "Camberwell, Victoria",
        "col3": "1897-1-20",
        "col4": "1974-12-8",
        "col5": "1897-1-20"
    },
    {
        "col0": "C. D. Sr.",
        "col1": "Bicton, Western Australia",
        "col2": "Royal Park, South Australia",
        "col3": "1883-4-27",
        "col4": "1944-10-31",
        "col5": "1883-4-27"
    },
    {
        "col0": "C. Willis",
        "col1": "Berrigan, New South Wales",
        "col2": "Daylesford, Victoria",
        "col3": "1893-3-23",
        "col4": "1930-5-12",
        "col5": "1893-3-23"
    },
    {
        "col0": "B. Sloss",
        "col1": "Armentieres",
        "col2": "Malvern East, Victoria",
        "col3": "1889-1-21",
        "col4": "1917-1-4",
        "col5": "1889-1-21"
    },
    {
        "col0": "B. Schultz",
        "col1": "Modbury, South Australia",
        "col2": "Royston Park, South Australia",
        "col3": "1913-3-13",
        "col4": "1980-1-11",
        "col5": "1913-3-13"
    },
    {
        "col0": "B. McGregor",
        "col1": "South Australia",
        "col2": "Broken Hill",
        "col3": "1903-1-7",
        "col4": "1990-3-21",
        "col5": "1903-1-7"
    },
    {
        "col0": "B. Lang",
        "col1": "New South Wales",
        "col2": "Malvern, Victoria",
        "col3": "1889-4-10",
        "col4": "1974-7-22",
        "col5": "1889-4-10"
    },
    {
        "col0": "B. Green",
        "col1": "Gold Coast, Queensland",
        "col2": "Southport, Queensland",
        "col3": "1976-3-29",
        "col4": "2009-11-30",
        "col5": "1976-3-29"
    },
    {
        "col0": "B. Rose",
        "col1": "Melbourne",
        "col2": "Victoria",
        "col3": "1928-8-7",
        "col4": "2003-7-7",
        "col5": "1928-8-7"
    },
    {
        "col0": "B. Quinn",
        "col1": "Adelaide",
        "col2": "Birkenhead, South Australia",
        "col3": "1915-4-9",
        "col4": "2008-9-12",
        "col5": "1915-4-9"
    },
    {
        "col0": "B. McLean",
        "col1": "Adelaide",
        "col2": "Mile End, South Australia",
        "col3": "1914-2-1",
        "col4": "1989-11-9",
        "col5": "1914-2-1"
    },
    {
        "col0": "B. Lee",
        "col1": "Adelaide",
        "col2": "Hindmarsh, South Australia",
        "col3": "1927-1-31",
        "col4": "2001-6-10",
        "col5": "1927-1-31"
    },
    {
        "col0": "B. Heatley",
        "col1": "Kew, Victoria",
        "col2": "Carlton, Victoria",
        "col3": "1895-7-6",
        "col4": "1973-2-22",
        "col5": "1895-7-6"
    },
    {
        "col0": "B. Davis",
        "col1": "Geelong",
        "col2": "Golden Point, Victoria",
        "col3": "1928-6-12",
        "col4": "2011-5-16",
        "col5": "1928-6-12"
    },
    {
        "col0": "B. Thomas",
        "col1": "South Perth, Western Australia",
        "col2": "North Fremantle, Western Australia",
        "col3": "1902-2-20",
        "col4": "1968-4-28",
        "col5": "1902-2-20"
    },
    {
        "col0": "B. Newing",
        "col1": "Kew, Victoria",
        "col2": "Essendon, Victoria",
        "col3": "1892-8-1",
        "col4": "1970-3-7",
        "col5": "1892-8-1"
    },
    {
        "col0": "B. Harvey",
        "col1": "Belgium",
        "col2": "Canterbury, Victoria",
        "col3": "1892-10-25",
        "col4": "1917-9-14",
        "col5": "1892-10-25"
    },
    {
        "col0": "B. McIlroy",
        "col1": "Middle Park, Victoria",
        "col2": "Ballarat East, Victoria",
        "col3": "1883-11-24",
        "col4": "1960-8-18",
        "col5": "1883-11-24"
    },
    {
        "col0": "B. Lyon",
        "col1": "Mildura",
        "col2": "Apsley, Victoria",
        "col3": "1886-1-19",
        "col4": "1962-1-13",
        "col5": "1886-1-19"
    },
    {
        "col0": "B. J. Walker",
        "col1": "Caulfield, Victoria",
        "col2": "Castlemaine, Victoria",
        "col3": "1883-5-25",
        "col4": "1971-7-17",
        "col5": "1883-5-25"
    },
    {
        "col0": "Bill J. V. Walker",
        "col1": "Caulfield, Victoria",
        "col2": "Castlemaine, Victoria",
        "col3": "1886-8-4",
        "col4": "1949-4-20",
        "col5": "1886-8-4"
    },
    {
        "col0": "B. Hinman",
        "col1": "Hobart",
        "col2": "Launceston, Tasmania",
        "col3": "1892-7-1",
        "col4": "1964-6-1",
        "col5": "1892-7-1"
    },
    {
        "col0": "B. Fischer",
        "col1": "France",
        "col2": "Kilmore, Victoria",
        "col3": "1883-10-3",
        "col4": "1917-10-15",
        "col5": "1883-10-3"
    },
    {
        "col0": "B. Denehy",
        "col1": "Melbourne",
        "col2": "Brunswick, Victoria",
        "col3": "1889-5-29",
        "col4": "1960-11-24",
        "col5": "1889-5-29"
    },
    {
        "col0": "B. Cahill",
        "col1": "Launceston, Tasmania",
        "col2": "Hobart",
        "col3": "1911-12-3",
        "col4": "1966-3-7",
        "col5": "1911-12-3"
    },
    {
        "col0": "B. Harrold",
        "col1": "Nedlands, Western Australia",
        "col2": "East Perth, Western Australia",
        "col3": "1898-3-9",
        "col4": "1968-4-14",
        "col5": "1898-3-9"
    },
    {
        "col0": "B. Allen",
        "col1": "Bentleigh, Victoria",
        "col2": "Fitzroy, Victoria",
        "col3": "1887-5-7",
        "col4": "1975-6-4",
        "col5": "1887-5-7"
    },
    {
        "col0": "A. Tymms",
        "col1": "Armadale, Victoria",
        "col2": "Essendon, Victoria",
        "col3": "1886-2-21",
        "col4": "1949-11-21",
        "col5": "1886-2-21"
    },
    {
        "col0": "A. Milne",
        "col1": "Caulfield, Victoria",
        "col2": "Hawthorn, Victoria",
        "col3": "1889-12-10",
        "col4": "1946-9-19",
        "col5": "1889-12-10"
    },
    {
        "col0": "A. Vines",
        "col1": "Canterbury, Victoria",
        "col2": "Kew, Victoria",
        "col3": "1891-1-16",
        "col4": "1977-8-10",
        "col5": "1891-1-16"
    }
]