[
    {
        "col0": "Yellow-billed pintail",
        "col1": "Anatidae",
        "col2": "LC",
        "col3": "IUCN3.1"
    },
    {
        "col0": "Yellow-billed oxpecker",
        "col1": "Sturnidae",
        "col2": "LC",
        "col3": "IUCN3.1"
    },
    {
        "col0": "Yellow-billed nuthatch",
        "col1": "Sittidae",
        "col2": "NT",
        "col3": "IUCN3.1"
    },
    {
        "col0": "Yellow-billed nunbird",
        "col1": "Bucconidae",
        "col2": "LC",
        "col3": "IUCN3.1"
    },
    {
        "col0": "Yellow-billed malkoha",
        "col1": "Cuculidae",
        "col2": "LC",
        "col3": "IUCN3.1"
    },
    {
        "col0": "Yellow-billed magpie",
        "col1": "Corvidae",
        "col2": "NT",
        "col3": "IUCN3.1"
    },
    {
        "col0": "Yellow-billed lorikeet",
        "col1": "True parrots",
        "col2": "LC",
        "col3": "IUCN3.1"
    },
    {
        "col0": "Yellow-billed loon",
        "col1": "Gaviidae",
        "col2": "NT",
        "col3": "IUCN3.1"
    },
    {
        "col0": "Yellow-billed kingfisher",
        "col1": "Alcedinidae",
        "col2": "LC",
        "col3": "IUCN3.1"
    },
    {
        "col0": "Yellow-billed jacamar",
        "col1": "Galbulidae",
        "col2": "LC",
        "col3": "IUCN3.1"
    },
    {
        "col0": "Yellow-billed duck",
        "col1": "Anatidae",
        "col2": "LC",
        "col3": "IUCN3.1"
    },
    {
        "col0": "Yellow-billed cuckoo",
        "col1": "Cuculidae",
        "col2": "LC",
        "col3": "IUCN3.1"
    },
    {
        "col0": "Yellow-billed cotinga",
        "col1": "Cotingidae",
        "col2": "EN",
        "col3": "IUCN3.1"
    },
    {
        "col0": "Yellow-billed cardinal",
        "col1": "Thraupidae",
        "col2": "LC",
        "col3": "IUCN3.1"
    },
    {
        "col0": "Yellow-billed cacique",
        "col1": "Icteridae",
        "col2": "LC",
        "col3": "IUCN3.1"
    },
    {
        "col0": "Yellow-billed blue magpie",
        "col1": "Corvidae",
        "col2": "LC",
        "col3": "IUCN3.1"
    },
    {
        "col0": "Yellow-billed barbet",
        "col1": "Lybiidae",
        "col2": "LC",
        "col3": "IUCN3.1"
    },
    {
        "col0": "Yellow-billed babbler",
        "col1": "Leiothrichidae",
        "col2": "LC",
        "col3": "IUCN3.1"
    },
    {
        "col0": "Yellow-billed amazon",
        "col1": "Neotropical parrot",
        "col2": "VU",
        "col3": "IUCN3.1"
    },
    {
        "col0": "Yellow-bibbed lory",
        "col1": "True parrots",
        "col2": "LC",
        "col3": "IUCN3.1"
    },
    {
        "col0": "Yellow-bibbed fruit dove",
        "col1": "Columbidae",
        "col2": "LC",
        "col3": "IUCN3.1"
    },
    {
        "col0": "Yellow-bellied whistler",
        "col1": "Pachycephalidae",
        "col2": "LC",
        "col3": "IUCN3.1"
    },
    {
        "col0": "Yellow-bellied weasel",
        "col1": "Mustelidae",
        "col2": "LC",
        "col3": "IUCN3.1"
    },
    {
        "col0": "Yellow-bellied waxbill",
        "col1": "Estrildidae",
        "col2": "NR",
        "col3": "IUCN3.1"
    },
    {
        "col0": "Yellow-bellied wattle-eye",
        "col1": "Platysteiridae",
        "col2": "LC",
        "col3": "IUCN3.1"
    },
    {
        "col0": "Yellow-bellied warbler",
        "col1": "Cettiidae",
        "col2": "LC",
        "col3": "IUCN3.1"
    },
    {
        "col0": "Yellow-bellied tyrannulet",
        "col1": "Tyrannidae",
        "col2": "LC",
        "col3": "IUCN3.1"
    },
    {
        "col0": "Yellow-bellied toad",
        "col1": "Bombinatoridae",
        "col2": "LC",
        "col3": "IUCN3.1"
    },
    {
        "col0": "Yellow-bellied tit",
        "col1": "Paridae",
        "col2": "LC",
        "col3": "IUCN3.1"
    },
    {
        "col0": "Yellow-bellied tanager",
        "col1": "Thraupidae",
        "col2": "LC",
        "col3": "IUCN3.1"
    },
    {
        "col0": "Yellow-bellied sunbird-asity",
        "col1": "Asity",
        "col2": "VU",
        "col3": "IUCN3.1"
    },
    {
        "col0": "Yellow-bellied slider",
        "col1": "Emydidae",
        "col2": "LC",
        "col3": "iucn2.3"
    },
    {
        "col0": "Yellow-bellied siskin",
        "col1": "Fringillidae",
        "col2": "LC",
        "col3": "IUCN3.1"
    },
    {
        "col0": "Yellow-bellied sheath-tailed bat",
        "col1": "Emballonuridae",
        "col2": "LR/lc",
        "col3": "iucn2.3"
    },
    {
        "col0": "Yellow-bellied seedeater",
        "col1": "Thraupidae",
        "col2": "LC",
        "col3": "IUCN3.1"
    },
    {
        "col0": "Yellow-bellied sapsucker",
        "col1": "Picidae",
        "col2": "LC",
        "col3": "IUCN3.1"
    },
    {
        "col0": "Yellow-bellied prinia",
        "col1": "Cisticolidae",
        "col2": "LC",
        "col3": "IUCN3.1"
    },
    {
        "col0": "Yellow-bellied mud turtle",
        "col1": "Pelomedusidae",
        "col2": "LC",
        "col3": "IUCN2.3"
    },
    {
        "col0": "Yellow-bellied marmot",
        "col1": "Marmotini",
        "col2": "LC",
        "col3": "iucn3.1"
    },
    {
        "col0": "Yellow-bellied longbill",
        "col1": "Melanocharitidae",
        "col2": "LC",
        "col3": "IUCN3.1"
    },
    {
        "col0": "Yellow-bellied hyliota",
        "col1": "Hyliotidae",
        "col2": "LC",
        "col3": "IUCN3.1"
    },
    {
        "col0": "Yellow-bellied house snake",
        "col1": "Boodontinae",
        "col2": "LR/nt",
        "col3": "IUCN2.3"
    },
    {
        "col0": "Yellow-bellied greenbul",
        "col1": "Pycnonotidae",
        "col2": "LC",
        "col3": "IUCN3.1"
    },
    {
        "col0": "Yellow-bellied glider",
        "col1": "Petauridae",
        "col2": "LC",
        "col3": "iucn3.1"
    },
    {
        "col0": "Yellow-bellied gerygone",
        "col1": "Acanthizidae",
        "col2": "LC",
        "col3": "IUCN3.1"
    },
    {
        "col0": "Yellow-bellied flyrobin",
        "col1": "Petroicidae",
        "col2": "LC",
        "col3": "IUCN3.1"
    },
    {
        "col0": "Yellow-bellied flycatcher",
        "col1": "Tyrant flycatcher",
        "col2": "LC",
        "col3": "IUCN3.1"
    },
    {
        "col0": "Yellow-bellied flowerpecker",
        "col1": "Dicaeidae",
        "col2": "LC",
        "col3": "IUCN3.1"
    },
    {
        "col0": "Yellow-bellied fantail",
        "col1": "Stenostiridae",
        "col2": "LC",
        "col3": "IUCN3.1"
    },
    {
        "col0": "Yellow-bellied eremomela",
        "col1": "Cisticolidae",
        "col2": "LC",
        "col3": "IUCN3.1"
    },
    {
        "col0": "Yellow-bellied elaenia",
        "col1": "Tyrannidae",
        "col2": "LC",
        "col3": "IUCN3.1"
    },
    {
        "col0": "Yellow-bellied dacnis",
        "col1": "Thraupidae",
        "col2": "LC",
        "col3": "IUCN3.1"
    },
    {
        "col0": "Yellow-bellied climbing mouse",
        "col1": "Cricetidae",
        "col2": "DD",
        "col3": "IUCN3.1"
    },
    {
        "col0": "Yellow-bellied chat-tyrant",
        "col1": "Tyrannidae",
        "col2": "LC",
        "col3": "IUCN3.1"
    },
    {
        "col0": "Yellow-bellied bush warbler",
        "col1": "Sylviidae",
        "col2": "LC",
        "col3": "IUCN3.1"
    },
    {
        "col0": "Yellow-bellied bulbul",
        "col1": "Pycnonotidae",
        "col2": "LC",
        "col3": "IUCN3.1"
    },
    {
        "col0": "Yellow-bellied brush-furred rat",
        "col1": "Muridae",
        "col2": "LC",
        "col3": "IUCN3.1"
    },
    {
        "col0": "Yellow-bearded greenbul",
        "col1": "Pycnonotidae",
        "col2": "VU",
        "col3": "IUCN3.1"
    },
    {
        "col0": "Yellow-banded snapper",
        "col1": "Lutjanidae",
        "col2": "NE",
        "col3": "iucn3.1"
    }
]