[
    {
        "col0": "Disengage the Simulator",
        "col1": "Deron Miller",
        "col2": "Volume 2",
        "col3": "1445"
    },
    {
        "col0": "Death Letter",
        "col1": "Alexisonfire",
        "col2": "Dog's Blood",
        "col3": "1558"
    },
    {
        "col0": "D Fun Pak",
        "col1": "Dust Brothers",
        "col2": "Tenacious D",
        "col3": "619"
    },
    {
        "col0": "Cuddle",
        "col1": "Andy Ernst",
        "col2": "Turn It Around!",
        "col3": "849"
    },
    {
        "col0": "Computer Controlled Acoustic Instruments pt2",
        "col1": "Aphex Twin",
        "col2": "Syro",
        "col3": "1676"
    },
    {
        "col0": "Chemicals",
        "col1": "Jasen Rauch",
        "col2": "Save Me From Myself",
        "col3": "1138"
    },
    {
        "col0": "Black Cocaine",
        "col1": "Havoc",
        "col2": "The Safe Is Cracked",
        "col3": "1167"
    },
    {
        "col0": "Apocalypse Soon",
        "col1": "Diplo",
        "col2": "Free the Universe",
        "col3": "1049"
    },
    {
        "col0": "Ammunition",
        "col1": "The Beat Bullies",
        "col2": "Ultimate Victory",
        "col3": "2101"
    },
    {
        "col0": "All Hallow's E.P.",
        "col1": "AFI",
        "col2": "Black Sails in the Sunset",
        "col3": "779"
    },
    {
        "col0": "A Profound Hatred of Man",
        "col1": "Shai Hulud",
        "col2": "A Comprehensive Retrospective: Or How I Learned to Stop Worrying and Release Bad and Useless Recordings",
        "col3": "523"
    },
    {
        "col0": "4: The Remix",
        "col1": "Beyonce Knowles",
        "col2": "4",
        "col3": "2211"
    }
]