[
    {
        "col0": "Siege of Hull",
        "col1": "Hull, England",
        "col2": "First English Civil War",
        "col3": "Parliamentarian victory",
        "col4": "1,000 cavalry"
    },
    {
        "col0": "Siege of Huajuapan de Leon",
        "col1": "Mexico",
        "col2": "Mexican War of Independence",
        "col3": "Mexican rebel victory",
        "col4": "1,500"
    },
    {
        "col0": "Siege of Homs",
        "col1": "Syria",
        "col2": "Syrian Civil War",
        "col3": "Syrian Army victory",
        "col4": "200-300 tanks"
    },
    {
        "col0": "Siege of Hlukhiv",
        "col1": "Ukraine",
        "col2": "Russo-Polish War",
        "col3": "Russo-Cossacks victory",
        "col4": "45,000"
    },
    {
        "col0": "Siege of Hippo Regius",
        "col1": "Africa",
        "col2": "Germanic Wars",
        "col3": "Roman victory",
        "col4": "Unknown"
    },
    {
        "col0": "Siege of Hijiyama",
        "col1": "Japan",
        "col2": "Sengoku period",
        "col3": "Oda victory; castle destroyed",
        "col4": "1,000+"
    },
    {
        "col0": "Siege of Heidelberg",
        "col1": "Electorate of the Palatinate",
        "col2": "Thirty Years' War",
        "col3": "Decisive Imperial-Spanish victory",
        "col4": "Approx: 15,000-21,000"
    },
    {
        "col0": "Siege of Hataya",
        "col1": "Japan",
        "col2": "Sengoku period",
        "col3": "Siege succeeds; castle falls to Western Army",
        "col4": "20,000"
    },
    {
        "col0": "Siege of Hasedo",
        "col1": "Yamagata, Yamagata",
        "col2": "Sengoku period",
        "col3": "Tokugawavictory",
        "col4": "25,000-30,000"
    },
    {
        "col0": "Siege of Harfleur",
        "col1": "France",
        "col2": "Hundred Years' War",
        "col3": "English victory",
        "col4": "200 bowmen"
    },
    {
        "col0": "Siege of Hameln",
        "col1": "Hanover",
        "col2": "Fourth Coalition",
        "col3": "*surrender of the Prussian garrison",
        "col4": "10,000, 175 cannons"
    },
    {
        "col0": "Siege of Hainburg",
        "col1": "Lower Austria",
        "col2": "Austrian-Hungarian War",
        "col3": "Holy Roman Victory, Hungarians regroup atPressburg",
        "col4": "1000 cavalry"
    },
    {
        "col0": "Siege of Haddington",
        "col1": "Haddington, East Lothian",
        "col2": "Anglo-Scottish Wars",
        "col3": "Scottish victory; Scotland claimed back Haddington",
        "col4": "5000-6000"
    },
    {
        "col0": "Siege of Hachigata",
        "col1": "Japan",
        "col2": "Sengoku period",
        "col3": "Toyotomivictory",
        "col4": "35,000"
    },
    {
        "col0": "Siege of Hachigata",
        "col1": "Musashi province",
        "col2": "Sengoku period",
        "col3": "Hojo victory",
        "col4": "6000"
    },
    {
        "col0": "Siege of Haarlem",
        "col1": "Haarlem",
        "col2": "Eighty Years' War",
        "col3": "Spanish victory",
        "col4": "(William the Silent)"
    },
    {
        "col0": "Siege of Huningen",
        "col1": "Alsace",
        "col2": "French Revolutionary Wars",
        "col3": "Austrian victory",
        "col4": "10,000"
    },
    {
        "col0": "Siege of Guns",
        "col1": "Kingdom of Hungary",
        "col2": "Little War in Hungary",
        "col3": "Nominal victory, but a practical defeat for the Ottomans",
        "col4": "120,000-200,000"
    },
    {
        "col0": "Siege of Gvozdansko",
        "col1": "Gvozdansko Castle",
        "col2": "Croatian-Ottoman Wars",
        "col3": "Ottoman victory",
        "col4": "*(30 men by the end of the siege)"
    },
    {
        "col0": "Siege of Gundishapur",
        "col1": "Khuzestan Province",
        "col2": "Muslim conquest of Khuzestan",
        "col3": "Muslim victory",
        "col4": "Unknown"
    },
    {
        "col0": "Siege of Groningen",
        "col1": "Groningen",
        "col2": "Franco-Dutch War",
        "col3": "Dutch victory",
        "col4": "24,000"
    },
    {
        "col0": "Siege of Groenlo",
        "col1": "Gelderland",
        "col2": "Franco-Dutch War",
        "col3": "Surrender of Groenlo",
        "col4": "100,000"
    },
    {
        "col0": "Siege of Groenlo",
        "col1": "Netherlands",
        "col2": "Eighty Years' War",
        "col3": "Dutch victory",
        "col4": "1,200 infantry (Grol)"
    },
    {
        "col0": "Siege of Groenlo",
        "col1": "Netherlands",
        "col2": "Dutch Revolt",
        "col3": "1st Siege: Spanish victory",
        "col4": "1,300-1,400"
    },
    {
        "col0": "Siege of Groenlo",
        "col1": "Netherlands",
        "col2": "Eighty Years' War",
        "col3": "Dutch-English victory",
        "col4": "1,400 cavalry"
    },
    {
        "col0": "Siege of Groenlo",
        "col1": "Netherlands",
        "col2": "Eighty Years' War",
        "col3": "Spanish victory",
        "col4": "(In Groenlo)"
    },
    {
        "col0": "Siege of Grave",
        "col1": "Netherlands",
        "col2": "Eighty Years' War",
        "col3": "Anglo-Dutch victory",
        "col4": "1,500 (Grave),"
    },
    {
        "col0": "Siege of Grand Pre",
        "col1": "Nova Scotia",
        "col2": "Father Le Loutre's War",
        "col3": "British victory",
        "col4": "300 Mi'kmaq, Maliseet, and Acadians"
    },
    {
        "col0": "Siege of Golubac",
        "col1": "Golubac",
        "col2": "Ottoman-Hungarian Wars",
        "col3": "*Ottomans invade Bosnia",
        "col4": "15-20,000"
    },
    {
        "col0": "Siege of Godesberg",
        "col1": "Electorate of Cologne",
        "col2": "Cologne War",
        "col3": "Catholic victory",
        "col4": "\"... a strong force of Dutch\" mercenaries (approx. 180 troops from the Netherlands)"
    },
    {
        "col0": "Siege of Gloucester",
        "col1": "Gloucester",
        "col2": "First English Civil War",
        "col3": "Decisive Parliamentarian victory",
        "col4": "1,500 regular troops"
    },
    {
        "col0": "Siege of Glatz",
        "col1": "Klodzko",
        "col2": "Seven Years' War",
        "col3": "Austrian victory",
        "col4": "3,200"
    },
    {
        "col0": "Siege of Gingee",
        "col1": "Gingee",
        "col2": "Imperial Maratha Conquests",
        "col3": "Mughal Victory.",
        "col4": "Unknown"
    },
    {
        "col0": "Siege of Gijon",
        "col1": "Asturias",
        "col2": "Spanish Civil War",
        "col3": "Republican victory",
        "col4": "1 battleship"
    },
    {
        "col0": "Siege of Giarabub",
        "col1": "Libya",
        "col2": "Western Desert Campaign",
        "col3": "British victory",
        "col4": "1 augmented infantry battalion"
    },
    {
        "col0": "Siege of Genoa",
        "col1": "Genoa",
        "col2": "Second Coalition",
        "col3": "Austrian tactical victory",
        "col4": "18,000"
    },
    {
        "col0": "Siege of Gaza",
        "col1": "Gaza City",
        "col2": "Wars of Alexander the Great",
        "col3": "Macedonian victory.",
        "col4": "15,000"
    },
    {
        "col0": "Siege of Ganja",
        "col1": "Ganja, Azerbaijan",
        "col2": "Nader's Campaigns",
        "col3": "Persian victory",
        "col4": "14,000"
    },
    {
        "col0": "Siege of Gandesa",
        "col1": "Catalonia",
        "col2": "Spanish Civil War",
        "col3": "Francoist victory",
        "col4": "50th Division"
    },
    {
        "col0": "Siege of Galway",
        "col1": "Galway",
        "col2": "Irish Confederate Wars",
        "col3": "English Parliamentarians take Galway after a nine-month siege",
        "col4": "2000 soldiers and civilian population, 3000 more soldiers nearby"
    },
    {
        "col0": "Siege of Gaeta",
        "col1": "Gaeta",
        "col2": "Expedition of the Thousand",
        "col3": "Sardinian victory",
        "col4": "10 ships"
    }
]