[
    {
        "col0": "W. Petter",
        "col1": "United Kingdom",
        "col2": "E. W. Petter",
        "col3": "1908-08-08",
        "col4": "1968-05-01",
        "col5": "1908-08-08"
    },
    {
        "col0": "S. D. Holden",
        "col1": "UK",
        "col2": "J. Holden",
        "col3": "1870-08-23",
        "col4": "1918-07-07",
        "col5": "1870-08-23"
    },
    {
        "col0": "R. Freeman",
        "col1": "United Kingdom",
        "col2": "S. R. Freeman",
        "col3": "1911-02-03",
        "col4": "1998-08-24",
        "col5": "1911-02-03"
    },
    {
        "col0": "J. Hornblower",
        "col1": "England",
        "col2": "J. Hornblower",
        "col3": "1717-10-30",
        "col4": "1780-12-07",
        "col5": "1717-10-30"
    },
    {
        "col0": "I. M. Campbell",
        "col1": "United Kingdom",
        "col2": "Institution of Civil Engineers",
        "col3": "1922-07-13",
        "col4": "1994-04-01",
        "col5": "1922-07-13"
    },
    {
        "col0": "F. M. Leavitt",
        "col1": "United States",
        "col2": "J. M. Leavitt",
        "col3": "1856-03-03",
        "col4": "1928-08-06",
        "col5": "1856-03-03"
    }
]