[
    {
        "col0": "Seixal",
        "col1": "Porto Moniz",
        "col2": "0",
        "col3": "(+351) 291 XXX XXX"
    },
    {
        "col0": "Sarilhos Pequenos",
        "col1": "Setubal",
        "col2": "0",
        "col3": "(+351) 212 89 33 81"
    },
    {
        "col0": "Saratoga Springs, New York",
        "col1": "Saratoga County, New York",
        "col2": "0",
        "col3": "518"
    },
    {
        "col0": "Santo Isidoro",
        "col1": "Porto District",
        "col2": "51",
        "col3": "(+351) 255 XX XX XX"
    },
    {
        "col0": "Santo Espirito",
        "col1": "Santa Maria Island",
        "col2": "0",
        "col3": "(+351) 292 XX XX XX"
    },
    {
        "col0": "Santo Antonio",
        "col1": "Pico Island",
        "col2": "0",
        "col3": "(+351) 292 XXX-XXXX"
    },
    {
        "col0": "Santo Antao",
        "col1": "Sao Jorge Island",
        "col2": "0",
        "col3": "(+351) 292 XXX-XXXX"
    },
    {
        "col0": "Santo Antonio",
        "col1": "Pico Island",
        "col2": "0",
        "col3": "(+351) 292 XXX-XXXX"
    },
    {
        "col0": "Santo Antao",
        "col1": "Sao Jorge Island",
        "col2": "0",
        "col3": "(+351) 292 XXX-XXXX"
    },
    {
        "col0": "Santo Amaro",
        "col1": "Sao Jorge Island",
        "col2": "0",
        "col3": "(+351) 292 XXX-XXXX"
    },
    {
        "col0": "Santo Amaro",
        "col1": "Pico Island",
        "col2": "0",
        "col3": "(+351) 292 XXX-XXXX"
    },
    {
        "col0": "Santo Aleixo da Restauracao",
        "col1": "Beja",
        "col2": "164",
        "col3": "(+351) 285 XX XX XX"
    },
    {
        "col0": "Santa Maria Maior",
        "col1": "Funchal",
        "col2": "0",
        "col3": "(+351) 291 XXX XXX"
    },
    {
        "col0": "Santa Luzia",
        "col1": "Pico Island",
        "col2": "0",
        "col3": "(+351) 292 XXX-XXXX"
    },
    {
        "col0": "Santa Luzia",
        "col1": "Terceira Island",
        "col2": "38",
        "col3": "(+351) 292 XXX-XXXX"
    },
    {
        "col0": "Santa Cruz das Flores",
        "col1": "Flores Island",
        "col2": "0",
        "col3": "(+351) 292 XXX-XXXX"
    },
    {
        "col0": "Santa Cruz das Flores",
        "col1": "Flores Island",
        "col2": "0",
        "col3": "(+351) 292 XXX-XXXX"
    },
    {
        "col0": "Santa Cruz da Graciosa",
        "col1": "Graciosa Island",
        "col2": "0",
        "col3": "(+351) 292 XXX-XXXX"
    },
    {
        "col0": "Santa Cruz da Graciosa",
        "col1": "Graciosa Island",
        "col2": "0",
        "col3": "(+351) 292 XXX XXX"
    },
    {
        "col0": "Santa Cruz",
        "col1": "Terceira Island",
        "col2": "0",
        "col3": "(+351) 295 XX XX XX"
    },
    {
        "col0": "Santa Cruz",
        "col1": "Sao Miguel Island",
        "col2": "0",
        "col3": "(+351) 292 XXX-XXXX"
    },
    {
        "col0": "Santa Clara",
        "col1": "Sao Miguel Island",
        "col2": "0",
        "col3": "(+351) 292 XX XX XX"
    },
    {
        "col0": "Santa Catarina",
        "col1": "Lisbon District",
        "col2": "0",
        "col3": "(+351) 213 XXX XXX"
    },
    {
        "col0": "Santa Barbara",
        "col1": "Santa Maria Island",
        "col2": "0",
        "col3": "(+351) 292 XX XX XX"
    },
    {
        "col0": "Sant'Anna Arresi",
        "col1": "Province of South Sardinia",
        "col2": "0",
        "col3": "781"
    },
    {
        "col0": "San Zeno Naviglio",
        "col1": "Province of Brescia",
        "col2": "50",
        "col3": "30"
    },
    {
        "col0": "San Cesario sul Panaro",
        "col1": "Province of Modena",
        "col2": "33",
        "col3": "59"
    },
    {
        "col0": "Salao",
        "col1": "Faial Island",
        "col2": "0",
        "col3": "(+351) 292 XXX-XXXX"
    },
    {
        "col0": "Se",
        "col1": "Funchal",
        "col2": "0",
        "col3": "(+351) 291 XXX XXX"
    },
    {
        "col0": "Sao Roque do Pico",
        "col1": "Pico Island",
        "col2": "0",
        "col3": "(+351) 292 XX XX XX"
    },
    {
        "col0": "Sao Roque do Pico",
        "col1": "Pico Island",
        "col2": "0",
        "col3": "(+351) 292 XX XX XX"
    },
    {
        "col0": "Sao Roque",
        "col1": "Funchal",
        "col2": "140",
        "col3": "(+351) 291 XXX XXX"
    },
    {
        "col0": "Sao Pedro",
        "col1": "Santa Maria Island",
        "col2": "0",
        "col3": "(+351) 292 XXX-XXXX"
    },
    {
        "col0": "Sao Mateus",
        "col1": "Pico Island",
        "col2": "0",
        "col3": "(+351) 292 XX XX XX"
    },
    {
        "col0": "Sao Joao",
        "col1": "Pico Island",
        "col2": "0",
        "col3": "(+351) 292 XX XX XX"
    },
    {
        "col0": "Sao Caetano",
        "col1": "Pico Island",
        "col2": "0",
        "col3": "(+351) 292 XX XX XX"
    },
    {
        "col0": "Sao Bras",
        "col1": "Terceira Island",
        "col2": "67",
        "col3": "(+351) 292 XXX XXX"
    },
    {
        "col0": "Rosais",
        "col1": "Sao Jorge Island",
        "col2": "0",
        "col3": "(+351) 292 XX XX XX"
    },
    {
        "col0": "Rocca d'Evandro",
        "col1": "Province of Caserta",
        "col2": "12",
        "col3": "823"
    },
    {
        "col0": "Ribeirinha",
        "col1": "Pico Island",
        "col2": "0",
        "col3": "(+351) 292 XXX-XXXX"
    },
    {
        "col0": "Ribeirinha",
        "col1": "Faial Island",
        "col2": "0",
        "col3": "(+351) 292 XX XX XX"
    },
    {
        "col0": "Ribeiras",
        "col1": "Pico Island",
        "col2": "0",
        "col3": "(+351) 292 XXX-XXXX"
    },
    {
        "col0": "Ribeira da Janela",
        "col1": "Porto Moniz",
        "col2": "0",
        "col3": "(+351) 291 XXX XXX"
    },
    {
        "col0": "Ribeira Seca",
        "col1": "Sao Jorge Island",
        "col2": "0",
        "col3": "(+351) 292 XXX-XXXX"
    },
    {
        "col0": "Ribeira Quente",
        "col1": "Sao Miguel Island",
        "col2": "0",
        "col3": "(+351) 292 XX XX XX"
    },
    {
        "col0": "Ribeira Grande, Azores",
        "col1": "Sao Miguel Island",
        "col2": "0",
        "col3": "(+351) 292 XXX-XXXX"
    },
    {
        "col0": "Ribeira Cha",
        "col1": "Sao Miguel Island",
        "col2": "0",
        "col3": "(+351) 292 XXX-XXXX"
    },
    {
        "col0": "Rensselaer, New York",
        "col1": "Rensselaer County, New York",
        "col2": "0",
        "col3": "518"
    },
    {
        "col0": "Quinta Grande",
        "col1": "Camara de Lobos",
        "col2": "0",
        "col3": "(+351) 291 XXX XXX"
    },
    {
        "col0": "Quatro Ribeiras",
        "col1": "Terceira Island",
        "col2": "0",
        "col3": "(+351) 292 XXX-XXXX"
    },
    {
        "col0": "Prince of Wales Island",
        "col1": "Prince of Wales-Hyder Census Area, Alaska",
        "col2": "0",
        "col3": "+1 907"
    },
    {
        "col0": "Prazeres, Madeira",
        "col1": "Calheta, Madeira",
        "col2": "0",
        "col3": "(+351) 291 XXX XXX"
    },
    {
        "col0": "Prata di Pordenone",
        "col1": "Province of Pordenone",
        "col2": "17",
        "col3": "434"
    }
]