[
    {
        "col0": "You Can't Take It with You",
        "col1": "M. Hart",
        "col2": "English language",
        "col3": "Alice Sycamore"
    },
    {
        "col0": "Yellow Fever",
        "col1": "R. Shiomi",
        "col2": "English language",
        "col3": "Sam Shikaze"
    },
    {
        "col0": "Women of Trachis",
        "col1": "Sophocles",
        "col2": "Ancient Greek",
        "col3": "Deianeira"
    },
    {
        "col0": "Wit",
        "col1": "M. Edson",
        "col2": "English language",
        "col3": "Dr Bearing's Students"
    },
    {
        "col0": "Usha Parinayam",
        "col1": "V. V. Sastry",
        "col2": "Telugu language",
        "col3": "Anirudha"
    },
    {
        "col0": "Two Small Bodies",
        "col1": "N. Bell",
        "col2": "English language",
        "col3": "Eileen Maloney"
    },
    {
        "col0": "Twelve Dreams",
        "col1": "J. Lapine",
        "col2": "English language",
        "col3": "Charles Hatrick"
    },
    {
        "col0": "Torch Song Trilogy",
        "col1": "H. Fierstein",
        "col2": "English language",
        "col3": "Alan"
    },
    {
        "col0": "Tonight We Improvise",
        "col1": "L. Pirandello",
        "col2": "Italian language",
        "col3": "Character Actress/Signora Ignazia"
    },
    {
        "col0": "Thunder Rock",
        "col1": "R. Ardrey",
        "col2": "English",
        "col3": "Charleston, Streeter,  Nonny, Inspector Flanning, Captain Joshua, Briggs, Dr. Stephan Kurtz, Melanie, Anne Marie, Miss Kirby, Chang"
    },
    {
        "col0": "Three Tall Women",
        "col1": "E. Albee",
        "col2": "English language",
        "col3": "The Boy"
    },
    {
        "col0": "Theristai",
        "col1": "Euripides",
        "col2": "Ancient Greek",
        "col3": "Satyrs"
    },
    {
        "col0": "The Woods",
        "col1": "D. Mamet",
        "col2": "English language",
        "col3": "Nick"
    },
    {
        "col0": "The Wild Duck",
        "col1": "H. Ibsen",
        "col2": "Norwegian language",
        "col3": "Gina Ekdal"
    },
    {
        "col0": "The White Liars",
        "col1": "P. Shaffer",
        "col2": "English language",
        "col3": "Frank"
    },
    {
        "col0": "The Walworth Farce",
        "col1": "E. Walsh",
        "col2": "English language",
        "col3": "Blake"
    },
    {
        "col0": "The Trojan Women",
        "col1": "Euripides",
        "col2": "Ancient Greek",
        "col3": "Andromache"
    },
    {
        "col0": "The Trial of God",
        "col1": "E. Wiesel",
        "col2": "French Language",
        "col3": "Avremel"
    },
    {
        "col0": "The Tooth of Crime",
        "col1": "S. Shepard",
        "col2": "English language",
        "col3": "Becky Lou"
    },
    {
        "col0": "The Teahouse of the August Moon",
        "col1": "J. Patrick",
        "col2": "English language",
        "col3": "Ancient Man"
    },
    {
        "col0": "The Suppliants",
        "col1": "Euripides",
        "col2": "Ancient Greek",
        "col3": "Adrastus"
    },
    {
        "col0": "The Sunset Limited",
        "col1": "C. McCarthy",
        "col2": "English language",
        "col3": "Black"
    },
    {
        "col0": "The Subject Was Roses",
        "col1": "F. D. Gilroy",
        "col2": "English language",
        "col3": "John Cleary"
    },
    {
        "col0": "The Star Without a Name",
        "col1": "M. Sebastian",
        "col2": "Romanian language",
        "col3": "*  Elevi"
    },
    {
        "col0": "The Squaw Man",
        "col1": "E. M. Royle",
        "col2": "English language",
        "col3": "Capt. James Wynnegate aka Jim Carson"
    },
    {
        "col0": "The Son",
        "col1": "W. Hasenclever",
        "col2": "German language",
        "col3": "Adrienne"
    },
    {
        "col0": "The Skin of Our Teeth",
        "col1": "T. Wilder",
        "col2": "English language",
        "col3": "Chair Pusher"
    },
    {
        "col0": "The Shrike",
        "col1": "J. Kramm",
        "col2": "English language",
        "col3": "Ann Downs"
    },
    {
        "col0": "The Shadow of the Hummingbird",
        "col1": "A. Fugard",
        "col2": "English language",
        "col3": "Boba"
    },
    {
        "col0": "The Shadow Box",
        "col1": "M. Cristofer",
        "col2": "English language",
        "col3": "Agnes"
    },
    {
        "col0": "The Seafarer",
        "col1": "C. McPherson",
        "col2": "English language",
        "col3": "Ivan"
    },
    {
        "col0": "The Rose Tattoo",
        "col1": "T. Williams",
        "col2": "English language",
        "col3": "Alvaro Mangiacavallo"
    },
    {
        "col0": "The Revengers' Comedies",
        "col1": "A. Ayckbourn",
        "col2": "English language",
        "col3": "Henry Bell"
    },
    {
        "col0": "The Retreat from Moscow",
        "col1": "W. Nicholson",
        "col2": "English language",
        "col3": "Alice"
    },
    {
        "col0": "The Public",
        "col1": "F. G. Lorca",
        "col2": "Spanish language",
        "col3": "Ballerina Costume"
    },
    {
        "col0": "The Post Office",
        "col1": "R. Tagore",
        "col2": "Bengali language",
        "col3": "Amal, his adopted child"
    },
    {
        "col0": "The Plough and the Stars",
        "col1": "S. O'Casey",
        "col2": "English language",
        "col3": "Cpl. Stoddart"
    },
    {
        "col0": "The Phoney Civilization",
        "col1": "D. Voynikov",
        "col2": "Bulgaria",
        "col3": "Anka"
    },
    {
        "col0": "The Phoenician Women",
        "col1": "Euripides",
        "col2": "Ancient Greek",
        "col3": "Antigone"
    },
    {
        "col0": "The Persians",
        "col1": "Aeschylus",
        "col2": "Ancient Greek",
        "col3": "Atossa"
    },
    {
        "col0": "The Motherfucker with the Hat",
        "col1": "S. A. Guirgis",
        "col2": "English language",
        "col3": "Cousin Julio"
    },
    {
        "col0": "The Morality of Mrs. Dulska",
        "col1": "G. Zapolska",
        "col2": "Polish language",
        "col3": "*Aniela Dulska"
    },
    {
        "col0": "The Miser",
        "col1": "Moliere",
        "col2": "French language",
        "col3": "* A clerk"
    },
    {
        "col0": "The Miracle Worker",
        "col1": "W. Gibson",
        "col2": "English language",
        "col3": "Anagnos"
    },
    {
        "col0": "The Lesson",
        "col1": "E. Ionesco",
        "col2": "French language",
        "col3": "Professor * Pupil * Maid"
    },
    {
        "col0": "The Lady from the Sea",
        "col1": "H. Ibsen",
        "col2": "Norwegian language",
        "col3": "Arnholm"
    },
    {
        "col0": "The House of Bernarda Alba",
        "col1": "F. G. Lorca",
        "col2": "Spanish language",
        "col3": "Adela (20)"
    },
    {
        "col0": "The Hook",
        "col1": "A. Miller",
        "col2": "English language",
        "col3": "Marty Ferarra, Therese Ferrara, Irene Ferrara, Mama, Barney, Rocky"
    },
    {
        "col0": "The Heidi Chronicles",
        "col1": "W. Wasserstein",
        "col2": "English language",
        "col3": "Fran"
    },
    {
        "col0": "The Great White Hope",
        "col1": "H. Sackler",
        "col2": "English language",
        "col3": "Al Cameron"
    },
    {
        "col0": "The Good Fairy",
        "col1": "F. Molnar",
        "col2": "Hungarian language",
        "col3": "Dr. Sporum"
    },
    {
        "col0": "The Goat, or Who Is Sylvia?",
        "col1": "E. Albee",
        "col2": "English language",
        "col3": "Billy"
    },
    {
        "col0": "The Gin Game",
        "col1": "D. L. Coburn",
        "col2": "English language",
        "col3": "Fonsia Dorsey"
    },
    {
        "col0": "The Gas Heart",
        "col1": "T. Tzara",
        "col2": "French language",
        "col3": "Ear"
    },
    {
        "col0": "The Freedom of the City",
        "col1": "B. Friel",
        "col2": "English language",
        "col3": "\"Skinner\" Fitzgerald"
    },
    {
        "col0": "The Field",
        "col1": "J. B. Keane",
        "col2": "English language",
        "col3": "\"Bird\" O'Donnell"
    },
    {
        "col0": "The Female of the Species",
        "col1": "J. Murray-Smith",
        "col2": "English language",
        "col3": "Bryan Thornton"
    },
    {
        "col0": "The Elephant Man",
        "col1": "B. Pomerance",
        "col2": "English language",
        "col3": "Carr Gomm"
    },
    {
        "col0": "The Diary of Anne Frank",
        "col1": "A. Hackett",
        "col2": "English language",
        "col3": "1st Man"
    },
    {
        "col0": "The Devil",
        "col1": "H. Javid",
        "col2": "Azerbaijani language",
        "col3": "Arif"
    },
    {
        "col0": "The Desperate Hours",
        "col1": "J. Hayes",
        "col2": "English language",
        "col3": "Chuck Wright"
    },
    {
        "col0": "The Condemned of Altona",
        "col1": "J. Sartre",
        "col2": "French language",
        "col3": "Father"
    },
    {
        "col0": "The Colleen Bawn",
        "col1": "D. Boucicault",
        "col2": "English language",
        "col3": "Anne Chute"
    },
    {
        "col0": "The Cocktail Party",
        "col1": "T. S. Eliot",
        "col2": "English language",
        "col3": "Alexander MacColgie Gibbs"
    },
    {
        "col0": "The Chickencoop Chinaman",
        "col1": "F. Chin",
        "col2": "English",
        "col3": "Charley Popcorn"
    },
    {
        "col0": "The Chalk Circle",
        "col1": "L. Qianfu",
        "col2": "China",
        "col3": "Bao Zheng"
    },
    {
        "col0": "The Bald Soprano",
        "col1": "E. Ionesco",
        "col2": "French language",
        "col3": "*Mary, the maid"
    },
    {
        "col0": "The Bacchae",
        "col1": "Euripides",
        "col2": "Ancient Greek",
        "col3": "Agave"
    },
    {
        "col0": "That Championship Season",
        "col1": "J. Miller",
        "col2": "English language",
        "col3": "George Sitkowski"
    },
    {
        "col0": "Tereus",
        "col1": "Sophocles",
        "col2": "Ancient Greek",
        "col3": "Possibly maidens fromThrace"
    },
    {
        "col0": "Sunrise at Campobello",
        "col1": "D. Schary",
        "col2": "English language",
        "col3": "Eleanor Roosevelt"
    },
    {
        "col0": "Suicide in B Flat",
        "col1": "S. Shepard",
        "col2": "English language",
        "col3": "Laureen"
    },
    {
        "col0": "Street Scene",
        "col1": "E. Rice",
        "col2": "English language",
        "col3": "* Anna Maurrant"
    },
    {
        "col0": "Strawhead",
        "col1": "N. Mailer",
        "col2": "English language",
        "col3": "Arthur Miller"
    },
    {
        "col0": "Strange Interlude",
        "col1": "E. O'Neill",
        "col2": "English language",
        "col3": "Charles Marsden"
    },
    {
        "col0": "State of the Union",
        "col1": "R. Crouse",
        "col2": "English language",
        "col3": "Bill Nolard Hardy"
    },
    {
        "col0": "Star Spangled",
        "col1": "R. Ardrey",
        "col2": "English",
        "col3": "Mrs. Mary Dzieszienewski, Gregory, Stan, Vincent, Anna, Professor Niebieski, Czysko, Steve, Masters"
    },
    {
        "col0": "Sri Krishna Rayabaram",
        "col1": "T. V. Kavulu",
        "col2": "Telugu language",
        "col3": "Arjuna"
    },
    {
        "col0": "Sleep No More",
        "col1": "M. Doyle",
        "col2": "English language",
        "col3": "Annie Darcy,"
    },
    {
        "col0": "Slavs!",
        "col1": "T. Kushner",
        "col2": "English language",
        "col3": "Kathrerina Serafima Gleb"
    },
    {
        "col0": "Sive",
        "col1": "J. B. Keane",
        "col2": "English language",
        "col3": "Carthalawn"
    },
    {
        "col0": "Sing Me No Lullaby",
        "col1": "R. Ardrey",
        "col2": "English",
        "col3": "Mike Hertzog, Christine Collinger, Ben Collinger, Clay Dixon, Abe Levene, Maddy Hertzog, Fanny Collinger, Johnny Colton Smith, Parrish"
    },
    {
        "col0": "Silence",
        "col1": "H. Pinter",
        "col2": "English language",
        "col3": "Bates"
    },
    {
        "col0": "Side Man",
        "col1": "W. Leight",
        "col2": "English language",
        "col3": "Al"
    },
    {
        "col0": "Sheikh Sanan",
        "col1": "H. Javid",
        "col2": "Azerbaijani language",
        "col3": "Khumar"
    },
    {
        "col0": "Seven Deadly Sins Four Deadly Sinners",
        "col1": "M. Sinden",
        "col2": "English language",
        "col3": "Four well-known actresses"
    },
    {
        "col0": "Seascape",
        "col1": "E. Albee",
        "col2": "English language",
        "col3": "Charlie"
    },
    {
        "col0": "Scapin the Schemer",
        "col1": "Moliere",
        "col2": "France",
        "col3": "; Argante"
    },
    {
        "col0": "Sarangadhara",
        "col1": "G. Apparao",
        "col2": "Telugu language",
        "col3": "Chitrangi"
    },
    {
        "col0": "Sangeet Sharada",
        "col1": "G. B. Deval",
        "col2": "Marathi language",
        "col3": "*Bhadreshwar Dixit"
    },
    {
        "col0": "Sanctuary",
        "col1": "D. Williamson",
        "col2": "English language",
        "col3": "Bob King"
    },
    {
        "col0": "Rough for Theatre II",
        "col1": "S. Beckett",
        "col2": "French language",
        "col3": "A (Bertrand)"
    }
]