[
    {
        "col0": "620 Drakonia",
        "col1": "11",
        "col2": "1906-10-26",
        "col3": "413638112485",
        "col4": "315097995055"
    },
    {
        "col0": "61 Danae",
        "col1": "7",
        "col2": "1860-09-09",
        "col3": "520969000000",
        "col4": "371280000000"
    },
    {
        "col0": "619 Triberga",
        "col1": "9",
        "col2": "1906-10-22",
        "col3": "405170873003",
        "col4": "349191349787"
    },
    {
        "col0": "618 Elfriede",
        "col1": "8",
        "col2": "1906-10-17",
        "col3": "511968792896",
        "col4": "442076667705"
    },
    {
        "col0": "6189 Volk",
        "col1": "13",
        "col2": "1989-03-02",
        "col3": "391437788473",
        "col4": "297879280137"
    },
    {
        "col0": "6181 Bobweber",
        "col1": "13",
        "col2": "1986-09-06",
        "col3": "450364389742",
        "col4": "276726141220"
    },
    {
        "col0": "617 Patroclus",
        "col1": "8",
        "col2": "1906-10-17",
        "col3": "888611516515",
        "col4": "672408410240"
    },
    {
        "col0": "6170 Levasseur",
        "col1": "13",
        "col2": "1981-04-05",
        "col3": "464136638995",
        "col4": "239659678406"
    },
    {
        "col0": "616 Elly",
        "col1": "10",
        "col2": "1906-10-17",
        "col3": "404587441308",
        "col4": "359423844143"
    },
    {
        "col0": "615 Roswitha",
        "col1": "10",
        "col2": "1906-10-11",
        "col3": "436631305212",
        "col4": "350807006791"
    },
    {
        "col0": "614 Pia",
        "col1": "11",
        "col2": "1906-10-11",
        "col3": "447746427005",
        "col4": "358167222029"
    },
    {
        "col0": "6144 Kondojiro",
        "col1": "11",
        "col2": "1994-03-14",
        "col3": "968414336082",
        "col4": "453613655493"
    },
    {
        "col0": "6141 Durda",
        "col1": "14",
        "col2": "1992-12-26",
        "col3": "310862909255",
        "col4": "233018206137"
    },
    {
        "col0": "613 Ginevra",
        "col1": "9",
        "col2": "1906-10-11",
        "col3": "462721173862",
        "col4": "411139828044"
    },
    {
        "col0": "612 Veronika",
        "col1": "10",
        "col2": "1906-10-08",
        "col3": "594337380504",
        "col4": "350283414244"
    },
    {
        "col0": "611 Valeria",
        "col1": "9",
        "col2": "1906-09-24",
        "col3": "499612008776",
        "col4": "392589692078"
    },
    {
        "col0": "610 Valeska",
        "col1": "12",
        "col2": "1906-09-26",
        "col3": "580858612353",
        "col4": "343132636024"
    },
    {
        "col0": "6102 Visby",
        "col1": "13",
        "col2": "1993-03-21",
        "col3": "452713076312",
        "col4": "324776977289"
    },
    {
        "col0": "60 Echo",
        "col1": "8",
        "col2": "1860-09-14",
        "col3": "423339000000",
        "col4": "292951000000"
    },
    {
        "col0": "609 Fulvia",
        "col1": "10",
        "col2": "1906-09-24",
        "col3": "480642998772",
        "col4": "442256185150"
    },
    {
        "col0": "608 Adolfine",
        "col1": "10",
        "col2": "1906-09-18",
        "col3": "508423323361",
        "col4": "395761166936"
    },
    {
        "col0": "6084 Bascom",
        "col1": "12",
        "col2": "1985-02-12",
        "col3": "427386156802",
        "col4": "264638633268"
    },
    {
        "col0": "607 Jenny",
        "col1": "10",
        "col2": "1906-09-18",
        "col3": "458203318167",
        "col4": "395461971195"
    },
    {
        "col0": "606 Brangane",
        "col1": "10",
        "col2": "1906-09-18",
        "col3": "472325357161",
        "col4": "302352256471"
    },
    {
        "col0": "6063 Jason",
        "col1": "15",
        "col2": "1984-05-27",
        "col3": "584703277630",
        "col4": "77307691641"
    },
    {
        "col0": "605 Juvisia",
        "col1": "10",
        "col2": "1906-08-27",
        "col3": "511086165459",
        "col4": "386097144489"
    },
    {
        "col0": "60558 Echeclus",
        "col1": "9",
        "col2": "2000-03-03",
        "col3": "2325349302160",
        "col4": "870180894287"
    },
    {
        "col0": "604 Tekmessa",
        "col1": "9",
        "col2": "1906-02-16",
        "col3": "564612283595",
        "col4": "377240950544"
    },
    {
        "col0": "603 Timandra",
        "col1": "11",
        "col2": "1906-02-16",
        "col3": "445936292769",
        "col4": "313362659755"
    },
    {
        "col0": "602 Marianna",
        "col1": "8",
        "col2": "1906-02-16",
        "col3": "576475394742",
        "col4": "346274191309"
    },
    {
        "col0": "6025 Naotosato",
        "col1": "11",
        "col2": "1992-12-30",
        "col3": "483634956186",
        "col4": "420370016667"
    },
    {
        "col0": "601 Nerthus",
        "col1": "9",
        "col2": "1906-06-21",
        "col3": "517204718371",
        "col4": "420579453685"
    },
    {
        "col0": "600 Musa",
        "col1": "10",
        "col2": "1906-06-14",
        "col3": "420070820925",
        "col4": "375700092475"
    },
    {
        "col0": "5 Astraea",
        "col1": "6",
        "col2": "1845-12-08",
        "col3": "458630457786",
        "col4": "311442237481"
    },
    {
        "col0": "59 Elpis",
        "col1": "7",
        "col2": "1860-09-12",
        "col3": "453624000000",
        "col4": "358808000000"
    },
    {
        "col0": "599 Luisa",
        "col1": "8",
        "col2": "1906-04-25",
        "col3": "536443004543",
        "col4": "294348770389"
    },
    {
        "col0": "598 Octavia",
        "col1": "9",
        "col2": "1906-04-13",
        "col3": "516307131146",
        "col4": "310984053611"
    },
    {
        "col0": "597 Bandusia",
        "col1": "9",
        "col2": "1906-04-16",
        "col3": "457530127748",
        "col4": "341756335614"
    },
    {
        "col0": "596 Scheila",
        "col1": "8",
        "col2": "1906-02-21",
        "col3": "510233457596",
        "col4": "366290386408"
    },
    {
        "col0": "595 Polyxena",
        "col1": "7",
        "col2": "1906-03-27",
        "col3": "509904342280",
        "col4": "450035274426"
    },
    {
        "col0": "5951 Alicemonet",
        "col1": "13",
        "col2": "1986-10-07",
        "col3": "400503419438",
        "col4": "256784745056"
    },
    {
        "col0": "594 Mireille",
        "col1": "12",
        "col2": "1906-03-27",
        "col3": "531895229273",
        "col4": "254136862745"
    }
]