[
    {
        "col0": "Zamia boliviana",
        "col1": "Zamiaceae",
        "col2": "NT",
        "col3": "IUCN3.1"
    },
    {
        "col0": "Zamia angustifolia",
        "col1": "Zamiaceae",
        "col2": "DD",
        "col3": "IUCN3.1"
    },
    {
        "col0": "Zamia amplifolia",
        "col1": "Zamiaceae",
        "col2": "CR",
        "col3": "IUCN3.1"
    },
    {
        "col0": "Zamia amazonum",
        "col1": "Zamiaceae",
        "col2": "NT",
        "col3": "IUCN3.1"
    },
    {
        "col0": "Zamia acuminata",
        "col1": "Zamiaceae",
        "col2": "VU",
        "col3": "IUCN3.1"
    },
    {
        "col0": "Zamboanga bulbul",
        "col1": "Pycnonotidae",
        "col2": "NT",
        "col3": "IUCN3.1"
    },
    {
        "col0": "Zambezi indigobird",
        "col1": "Viduidae",
        "col2": "LC",
        "col3": "IUCN3.1"
    },
    {
        "col0": "Zambezi flapshell turtle",
        "col1": "Trionychidae",
        "col2": "LR/nt",
        "col3": "IUCN2.3"
    },
    {
        "col0": "Zaisan mole vole",
        "col1": "Cricetidae",
        "col2": "LC",
        "col3": "IUCN3.1"
    },
    {
        "col0": "Zaireichthys zonatus",
        "col1": "Amphiliidae",
        "col2": "DD",
        "col3": "iucn3.1"
    },
    {
        "col0": "Zaireichthys wamiensis",
        "col1": "Amphiliidae",
        "col2": "VU",
        "col3": "iucn3.1"
    },
    {
        "col0": "Zaireichthys rotundiceps",
        "col1": "Amphiliidae",
        "col2": "LC",
        "col3": "iucn3.1"
    },
    {
        "col0": "Zaireichthys mandevillei",
        "col1": "Amphiliidae",
        "col2": "DD",
        "col3": "iucn3.1"
    },
    {
        "col0": "Zaireichthys heterurus",
        "col1": "Amphiliidae",
        "col2": "LC",
        "col3": "iucn3.1"
    },
    {
        "col0": "Zaireichthys flavomaculatus",
        "col1": "Amphiliidae",
        "col2": "DD",
        "col3": "iucn3.1"
    },
    {
        "col0": "Zaireichthys dorae",
        "col1": "Amphiliidae",
        "col2": "DD",
        "col3": "iucn3.1"
    },
    {
        "col0": "Zaireichthys camerunensis",
        "col1": "Amphiliidae",
        "col2": "DD",
        "col3": "iucn3.1"
    },
    {
        "col0": "Zaireichthys brevis",
        "col1": "Amphiliidae",
        "col2": "LC",
        "col3": "iucn3.1"
    },
    {
        "col0": "Zagros Mountains mouse-like hamster",
        "col1": "Muroidea",
        "col2": "LR/lc",
        "col3": "IUCN2.3"
    },
    {
        "col0": "Zacatecas shrew",
        "col1": "Soricidae",
        "col2": "LR/lc",
        "col3": "IUCN2.3"
    },
    {
        "col0": "Zacatecas harvest mouse",
        "col1": "Cricetidae",
        "col2": "LR/nt",
        "col3": "IUCN2.3"
    },
    {
        "col0": "Zacatecan deer mouse",
        "col1": "Cricetidae",
        "col2": "LC",
        "col3": "IUCN3.1"
    },
    {
        "col0": "Zabulon skipper",
        "col1": "Hesperiidae",
        "col2": "NE",
        "col3": "IUCN3.1"
    },
    {
        "col0": "Zabalius ophthalmicus",
        "col1": "Tettigoniidae",
        "col2": "LC",
        "col3": "IUCN3.1"
    }
]