[
    {
        "col0": "The Compassionate Friends",
        "col1": "230000",
        "col2": "1969-01-28",
        "col3": "6"
    },
    {
        "col0": "Stroke Association",
        "col1": "32125000",
        "col2": "1992-01-01",
        "col3": "622"
    },
    {
        "col0": "Society for Conservation Biology",
        "col1": "2786389",
        "col2": "1985-05-08",
        "col3": "14"
    },
    {
        "col0": "SERV",
        "col1": "105178",
        "col2": "1981-07-11",
        "col3": "0"
    },
    {
        "col0": "People's Solidarity",
        "col1": "500000000",
        "col2": "1945-10-17",
        "col3": "17500"
    },
    {
        "col0": "Pennies",
        "col1": "2000000",
        "col2": "2007-11-06",
        "col3": "11"
    },
    {
        "col0": "Marie Curie",
        "col1": "634810000",
        "col2": "1948-02-04",
        "col3": "3964"
    },
    {
        "col0": "Epilepsy Outlook",
        "col1": "1067",
        "col2": "1987-07-01",
        "col3": "1"
    },
    {
        "col0": "Editors' Association of Canada",
        "col1": "546606",
        "col2": "1979-05-20",
        "col3": "6"
    },
    {
        "col0": "Design Council",
        "col1": "8855000",
        "col2": "1944-12-19",
        "col3": "59"
    },
    {
        "col0": "Combat Stress",
        "col1": "14960000",
        "col2": "1919-05-12",
        "col3": "285"
    },
    {
        "col0": "Cancer Research UK",
        "col1": "634810000",
        "col2": "2002-02-04",
        "col3": "3964"
    },
    {
        "col0": "Back to God Ministries International",
        "col1": "9506199",
        "col2": "1939-12-17",
        "col3": "29"
    },
    {
        "col0": "Allsorts Youth Project",
        "col1": "170300",
        "col2": "1999-10-01",
        "col3": "10"
    },
    {
        "col0": "Action for Boston Community Development",
        "col1": "132326374",
        "col2": "1962-07-24",
        "col3": "1000"
    }
]