[
    {
        "col0": "W. Brownfield",
        "col1": "Austin, Texas",
        "col2": "K. Kenney",
        "col3": "1952-1-1"
    },
    {
        "col0": "W. Adams",
        "col1": "Columbia, South Carolina",
        "col2": "E. N. Adams",
        "col3": "1938-09-16"
    },
    {
        "col0": "W. Annenberg",
        "col1": "Milwaukee",
        "col2": "L. Annenberg",
        "col3": "1908-03-13"
    },
    {
        "col0": "V. Nuland",
        "col1": "Louisiana",
        "col2": "R. Kagan",
        "col3": "1961-1-1"
    },
    {
        "col0": "S. C. Davis",
        "col1": "Peoria, Illinois",
        "col2": "K. W. Davis",
        "col3": "1909-04-01"
    },
    {
        "col0": "S. Shelton-Colby",
        "col1": "Texas",
        "col2": "W. Colby",
        "col3": "1944-08-29"
    },
    {
        "col0": "R. C. Duke",
        "col1": "Baltimore",
        "col2": "J. Lynn",
        "col3": "1923-10-13"
    },
    {
        "col0": "R. Klimova",
        "col1": "Romania",
        "col2": "Z. Mlynar",
        "col3": "1931-12-10"
    },
    {
        "col0": "Prince Gottfried von Hohenlohe-Schillingsfurst",
        "col1": "Austria-Hungary",
        "col2": "Archduchess Maria Henrietta of Austria",
        "col3": "1867-11-08"
    },
    {
        "col0": "P. P. Korth",
        "col1": "Hattiesburg, Mississippi",
        "col2": "A. Peacock",
        "col3": "1942-11-03"
    }
]