[
    {
        "col0": "KFVS-TV",
        "col1": "FiVe States",
        "col2": "DT",
        "col3": "12.1CBS"
    },
    {
        "col0": "KEYC-TV",
        "col1": "KEY City (city slogan",
        "col2": "DT",
        "col3": "12.1CBS"
    },
    {
        "col0": "KESQ-TV",
        "col1": "(former owner)",
        "col2": "DT",
        "col3": "15.1(42.7)Telemundo"
    },
    {
        "col0": "KDYS-LD",
        "col1": "DaYStar",
        "col2": "Translator",
        "col3": "32.1/.2Daystar"
    },
    {
        "col0": "KBVO-CD",
        "col1": "BeVO (Name of Univ. of Texas mascot)",
        "col2": "Digital Class A",
        "col3": "14.1MyNetworkTV"
    },
    {
        "col0": "KBOI-TV",
        "col1": "BOIse",
        "col2": "DT",
        "col3": "2.1CBS"
    },
    {
        "col0": "KBNZ-LD",
        "col1": "K BeNd Z",
        "col2": "LD",
        "col3": "7.1CBS"
    },
    {
        "col0": "KBJO-LD",
        "col1": "WB St. JOseph",
        "col2": "LPTV",
        "col3": "21.1The CW"
    },
    {
        "col0": "KABE-CD",
        "col1": "Aqui en Bakersfield Estamos",
        "col2": "A",
        "col3": "39.1Univision"
    },
    {
        "col0": "KAAL",
        "col1": "Austin/Albert Lea",
        "col2": "DT",
        "col3": "6.1ABC"
    },
    {
        "col0": "K46DY",
        "col1": "(translator calls randomly assigned by the FCC)",
        "col2": "TX",
        "col3": "(not on air yet)"
    }
]