[
    {
        "col0": "That's the Way Love Is",
        "col1": "B. Brown",
        "col2": "Something in Common",
        "col3": "Virginia Beach, Virginia"
    },
    {
        "col0": "That's the Way Love Goes",
        "col1": "J. Brown",
        "col2": "If",
        "col3": "Minnesota"
    },
    {
        "col0": "That's Where It's At",
        "col1": "S. Cooke",
        "col2": "Shake",
        "col3": "Los Angeles, California"
    },
    {
        "col0": "That's What Love Is Made Of",
        "col1": "S. Robinson",
        "col2": "Come On Do The Jerk",
        "col3": "Hitsville U.S.A."
    },
    {
        "col0": "That's What I Think",
        "col1": "C. Lauper",
        "col2": "Sally's Pigeons",
        "col3": "1993 in music"
    },
    {
        "col0": "That's Not Me",
        "col1": "B. Wilson",
        "col2": "Don't Talk",
        "col3": "United Western Recorders"
    },
    {
        "col0": "That's My Goal",
        "col1": "J. Elofsson",
        "col2": "No Promises",
        "col3": "The X Factor"
    },
    {
        "col0": "That's How You Know",
        "col1": "A. Menken",
        "col2": "So Close",
        "col3": "2007 in film"
    },
    {
        "col0": "That's All Right",
        "col1": "A. Crudup",
        "col2": "Good Rockin' Tonight",
        "col3": "Memphis, Tennessee"
    },
    {
        "col0": "That'll Be the Day",
        "col1": "J. Allison",
        "col2": "Oh, Boy!",
        "col3": "Clovis, New Mexico"
    },
    {
        "col0": "Thank You Girl",
        "col1": "Lennon-McCartney",
        "col2": "She Loves You",
        "col3": "Abbey Road Studios"
    },
    {
        "col0": "Thank You For Loving Me",
        "col1": "D. Warren",
        "col2": "One Wild Night",
        "col3": "1999 in music"
    },
    {
        "col0": "Thank You",
        "col1": "C. Lowery",
        "col2": "Death Dance",
        "col3": "Butler, New Jersey"
    },
    {
        "col0": "Thank You",
        "col1": "C. Gray",
        "col2": "Hell of a Time",
        "col3": "2007 in music"
    },
    {
        "col0": "Testify",
        "col1": "K. West",
        "col2": "Faithful",
        "col3": "California"
    },
    {
        "col0": "Tesla Girls",
        "col1": "Orchestral Manoeuvres in the Dark",
        "col2": "Never Turn Away",
        "col3": "Montserrat"
    },
    {
        "col0": "Territory",
        "col1": "A. Kisser",
        "col2": "Slave New World",
        "col3": "Wales"
    },
    {
        "col0": "Terraplane Blues",
        "col1": "R. Johnson",
        "col2": "32-20 Blues",
        "col3": "Texas"
    },
    {
        "col0": "Terminal Frost",
        "col1": "D. Gilmour",
        "col2": "On the Turning Away",
        "col3": "1987 in music"
    },
    {
        "col0": "Tere Bina",
        "col1": "A. R. Rahman",
        "col2": "Ek Lo Ek Muft",
        "col3": "Panchathan Record Inn"
    },
    {
        "col0": "Tennis Court",
        "col1": "Lorde",
        "col2": "Team",
        "col3": "Golden Age Studios"
    },
    {
        "col0": "Tennessee River",
        "col1": "R. Owen",
        "col2": "Why Lady Why",
        "col3": "1980 in country music"
    },
    {
        "col0": "Ten Commandments",
        "col1": "L. Kim",
        "col2": "Can't Let You Go",
        "col3": "New York, New York"
    },
    {
        "col0": "Temptations",
        "col1": "R. Troutman",
        "col2": "California Love",
        "col3": "Unique Recording Studios"
    },
    {
        "col0": "Temptation",
        "col1": "T. T. Party",
        "col2": "Babylon",
        "col3": "Montreal"
    },
    {
        "col0": "Tellin' Everybody",
        "col1": "A. Tierney",
        "col2": "Wishes",
        "col3": "Australia"
    },
    {
        "col0": "Tell Me Where It Hurts",
        "col1": "Garbage",
        "col2": "Blood for Poppies",
        "col3": "Los Angeles"
    },
    {
        "col0": "Tell Me What We're Gonna Do Now",
        "col1": "J. Stone",
        "col2": "L-O-V-E",
        "col3": "Compass Point Studios"
    },
    {
        "col0": "Tell Me Something Good",
        "col1": "S. Wonder",
        "col2": "You Got the Love",
        "col3": "1974 in music"
    },
    {
        "col0": "Tell Me Baby",
        "col1": "Flea",
        "col2": "Snow",
        "col3": "Los Angeles"
    },
    {
        "col0": "Tell Me 'bout It",
        "col1": "J. Stone",
        "col2": "Tell Me What We're Gonna Do Now",
        "col3": "Compass Point Studios"
    },
    {
        "col0": "Tell It Like It T-I-Is",
        "col1": "T. B-52's",
        "col2": "Revolution Earth",
        "col3": "New York"
    },
    {
        "col0": "Telephone Line",
        "col1": "J. Lynne",
        "col2": "Turn to Stone",
        "col3": "Munich"
    },
    {
        "col0": "Telephone",
        "col1": "Beyonce",
        "col2": "Alejandro",
        "col3": "Los Angeles"
    },
    {
        "col0": "Telegraph",
        "col1": "A. McCluskey",
        "col2": "Locomotion",
        "col3": "England"
    },
    {
        "col0": "Teenage Wildlife",
        "col1": "D. Bowie",
        "col2": "Scream Like a Baby",
        "col3": "London"
    },
    {
        "col0": "Teenage Whore",
        "col1": "C. Love",
        "col2": "Beautiful Son",
        "col3": "Los Angeles, California"
    },
    {
        "col0": "Teenage Love Affair",
        "col1": "A. Keys",
        "col2": "Superwoman",
        "col3": "Los Angeles"
    },
    {
        "col0": "Teen Age Riot",
        "col1": "K. Gordon",
        "col2": "Silver Rocket",
        "col3": "New York City"
    },
    {
        "col0": "Teddy Picker",
        "col1": "A. Turner",
        "col2": "Crying Lightning",
        "col3": "Miloco Studios"
    },
    {
        "col0": "Tears Are Falling",
        "col1": "P. Stanley",
        "col2": "Crazy Crazy Nights",
        "col3": "New York City"
    },
    {
        "col0": "Tearin' Up My Heart",
        "col1": "K. Lundin",
        "col2": "Here We Go",
        "col3": "Stockholm"
    },
    {
        "col0": "Tear Drop City",
        "col1": "B. a. Hart",
        "col2": "Listen to the Band",
        "col3": "Hollywood"
    },
    {
        "col0": "Team",
        "col1": "Lorde",
        "col2": "No Better",
        "col3": "Golden Age Studios"
    },
    {
        "col0": "Te llevare al cielo",
        "col1": "F. Olvera",
        "col2": "Baila morena",
        "col3": "Los Angeles"
    },
    {
        "col0": "Te Solte La Rienda",
        "col1": "J. A. Jimenez",
        "col2": "Cachito",
        "col3": "Florida"
    },
    {
        "col0": "Te Quiero",
        "col1": "Stromae",
        "col2": "House'llelujah",
        "col3": "2010 in music"
    },
    {
        "col0": "Te He Querido, Te He Llorado",
        "col1": "I. Queen",
        "col2": "She Wolf",
        "col3": "Carolina, Puerto Rico"
    },
    {
        "col0": "Te Amo Corazon",
        "col1": "Prince",
        "col2": "Black Sweat",
        "col3": "Paisley Park Studios"
    },
    {
        "col0": "Taxi Ride",
        "col1": "T. Amos",
        "col2": "Don't Make Me Come to Vegas",
        "col3": "Cornwall"
    },
    {
        "col0": "Tattoo",
        "col1": "P. Townshend",
        "col2": "Our Love Was",
        "col3": "IBC Studios"
    },
    {
        "col0": "Tangled Up in Blue",
        "col1": "B. Dylan",
        "col2": "Hurricane",
        "col3": "Minneapolis, Minnesota"
    },
    {
        "col0": "Talking to the Moon",
        "col1": "J. Bhasker",
        "col2": "Liquor Store Blues",
        "col3": "Hollywood"
    },
    {
        "col0": "Talkin' Loud and Sayin' Nothing",
        "col1": "B. Byrd",
        "col2": "King Heroin",
        "col3": "Macon, Georgia"
    },
    {
        "col0": "Talkin' About",
        "col1": "R. Harrison",
        "col2": "I Don't Care",
        "col3": "Los Angeles, California"
    },
    {
        "col0": "Talk to Me",
        "col1": "A. Frehley",
        "col2": "Tomorrow",
        "col3": "New York City"
    },
    {
        "col0": "Talk Talk",
        "col1": "S. Bonniwell",
        "col2": "The People in Me",
        "col3": "Los Angeles"
    },
    {
        "col0": "Talk Dirty",
        "col1": "J. Entwistle",
        "col2": "Music from Van-Pires",
        "col3": "England"
    },
    {
        "col0": "Tales of Brave Ulysses",
        "col1": "E. Clapton",
        "col2": "Spoonful",
        "col3": "Atlantic Studios"
    },
    {
        "col0": "Taking the Veil",
        "col1": "D. Sylvian",
        "col2": "Silver Moon",
        "col3": "Oxfordshire"
    },
    {
        "col0": "Taking Chances",
        "col1": "K. DioGuardi",
        "col2": "Eyes on Me",
        "col3": "Los Angeles, California"
    },
    {
        "col0": "Takes a Little Time",
        "col1": "A. Grant",
        "col2": "Somewhere Down the Road",
        "col3": "Tennessee"
    },
    {
        "col0": "Taken by a Stranger",
        "col1": "N. Morier",
        "col2": "Whatta Man",
        "col3": "Germany in the Eurovision Song Contest 2011"
    },
    {
        "col0": "Take the Long Way Home",
        "col1": "R. Davies",
        "col2": "Dreamer",
        "col3": "Los Angeles, California"
    },
    {
        "col0": "Take a Message to Mary",
        "col1": "F. Bryant",
        "col2": "(Till) I Kissed You",
        "col3": "1958 in music"
    },
    {
        "col0": "Take a Giant Step",
        "col1": "C. King",
        "col2": "I'm a Believer",
        "col3": "Hollywood"
    },
    {
        "col0": "Take a Bow",
        "col1": "Madonna",
        "col2": "Bedtime Story",
        "col3": "The Hit Factory"
    },
    {
        "col0": "Take You Down",
        "col1": "C. Brown",
        "col2": "Forever",
        "col3": "California"
    },
    {
        "col0": "Take This Ring",
        "col1": "R. Harrison",
        "col2": "Suddenly",
        "col3": "California"
    },
    {
        "col0": "Take This Heart of Mine",
        "col1": "M. Tarplin",
        "col2": "Little Darling",
        "col3": "Hitsville USA"
    },
    {
        "col0": "Take These Chains from My Heart",
        "col1": "F. Rose",
        "col2": "The Power of Love",
        "col3": "Nashville"
    },
    {
        "col0": "Take Stuff from Work",
        "col1": "J. S. Hall",
        "col2": "The Box",
        "col3": "1987 in music"
    }
]