[
    {
        "col0": "E. Kelly",
        "col1": "Mount Sion GAA",
        "col2": "1982-9-24",
        "col3": "1982-9-24"
    },
    {
        "col0": "E. Foley",
        "col1": "Patrickswell GAA",
        "col2": "1981-1-1",
        "col3": "1981-1-1"
    },
    {
        "col0": "E. Dunphy",
        "col1": "De La Salle GAA",
        "col2": "1972-1-1",
        "col3": "1972-1-1"
    },
    {
        "col0": "E. Gavin",
        "col1": "Clann na nGael GAA",
        "col2": "1971-1-1",
        "col3": "1971-1-1"
    },
    {
        "col0": "E. McNulty",
        "col1": "Na Fianna GAA",
        "col2": "1977-1-1",
        "col3": "1977-1-1"
    },
    {
        "col0": "E. McGinley",
        "col1": "Errigal Ciaran GAC",
        "col2": "1981-1-1",
        "col3": "1981-1-1"
    },
    {
        "col0": "E. Gormley",
        "col1": "Glen GAC",
        "col2": "1966-3-8",
        "col3": "1966-3-8"
    },
    {
        "col0": "E. Bolton",
        "col1": "Eadestown GAA",
        "col2": "1985-11-30",
        "col3": "1985-11-30"
    },
    {
        "col0": "E. O'Keeffe",
        "col1": "Moyne-Templetuohy GAA",
        "col2": "1886-1-1",
        "col3": "1886-1-1"
    },
    {
        "col0": "D. O'Sullivan",
        "col1": "Spa GAA",
        "col2": "1940-1-1",
        "col3": "1940-1-1"
    },
    {
        "col0": "D. Kavanagh",
        "col1": "Dr. Crokes",
        "col2": "1950-1-1",
        "col3": "1950-1-1"
    },
    {
        "col0": "D. Brennan",
        "col1": "Arles/Killeen GAA",
        "col2": "1986-1-1",
        "col3": "1986-1-1"
    },
    {
        "col0": "D. Lanigan",
        "col1": "Granagh-Ballingarry GAA",
        "col2": "1892-1-1",
        "col3": "1892-1-1"
    },
    {
        "col0": "D. Kidney",
        "col1": "Blackrock GAA",
        "col2": "1882-1-1",
        "col3": "1882-1-1"
    },
    {
        "col0": "D. Allen",
        "col1": "Nemo Rangers",
        "col2": "1952-8-9",
        "col3": "1952-8-9"
    },
    {
        "col0": "D. O'Sullivan",
        "col1": "Cloyne GAA",
        "col2": "1978-7-27",
        "col3": "1978-7-27"
    },
    {
        "col0": "D. Murphy",
        "col1": "Dingle GAA",
        "col2": "1975-8-22",
        "col3": "1975-8-22"
    },
    {
        "col0": "D. Foley",
        "col1": "St Vincents GAA",
        "col2": "1940-9-12",
        "col3": "1940-9-12"
    },
    {
        "col0": "D. Dillon",
        "col1": "Birr GAA",
        "col2": "1926-1-1",
        "col3": "1926-1-1"
    },
    {
        "col0": "D. McNicholl",
        "col1": "Glenullin GAC",
        "col2": "1965-11-6",
        "col3": "1965-11-6"
    },
    {
        "col0": "D. Heaney",
        "col1": "Castledawson GAC",
        "col2": "1971-7-27",
        "col3": "1971-7-27"
    },
    {
        "col0": "D. McGrath",
        "col1": "De La Salle GAA",
        "col2": "1976-1-1",
        "col3": "1976-1-1"
    },
    {
        "col0": "D. Lyng",
        "col1": "Emeralds GAA",
        "col2": "1978-7-4",
        "col3": "1978-7-4"
    },
    {
        "col0": "D. Murphy",
        "col1": "St. Finbarr's GAA",
        "col2": "1939-1-1",
        "col3": "1939-1-1"
    },
    {
        "col0": "D. Coffey",
        "col1": "Sliabh gCua-Saint Marys GAA",
        "col2": "1983-1-1",
        "col3": "1983-1-1"
    },
    {
        "col0": "D. Browne",
        "col1": "Moyle Rovers GAA",
        "col2": "1978-6-16",
        "col3": "1978-6-16"
    },
    {
        "col0": "D. Tierney",
        "col1": "St Grellan's GFC",
        "col2": "1979-10-21",
        "col3": "1979-10-21"
    },
    {
        "col0": "D. Rooney",
        "col1": "St. John's GAA",
        "col2": "1990-1-1",
        "col3": "1990-1-1"
    },
    {
        "col0": "D. Redmond",
        "col1": "Oulart the Ballagh GAA",
        "col2": "1987-9-19",
        "col3": "1987-9-19"
    },
    {
        "col0": "D. O'Sullivan",
        "col1": "Ballygunner GAA",
        "col2": "1988-11-5",
        "col3": "1988-11-5"
    },
    {
        "col0": "D. Murphy",
        "col1": "Portarlington GAA",
        "col2": "1985-5-29",
        "col3": "1985-5-29"
    },
    {
        "col0": "D. Kilcoyne",
        "col1": "Ringtown",
        "col2": "1962-1-1",
        "col3": "1962-1-1"
    },
    {
        "col0": "D. Harte",
        "col1": "Errigal Ciaran GAC",
        "col2": "1981-12-23",
        "col3": "1981-12-23"
    },
    {
        "col0": "D. Geaney",
        "col1": "Dingle GAA",
        "col2": "1985-1-1",
        "col3": "1985-1-1"
    },
    {
        "col0": "D. Collins",
        "col1": "Liam Mellows GAA",
        "col2": "1984-3-17",
        "col3": "1984-3-17"
    },
    {
        "col0": "D. Clarke",
        "col1": "Ballina Stephenites GAA",
        "col2": "1983-11-27",
        "col3": "1983-11-27"
    },
    {
        "col0": "D. Bennett",
        "col1": "Lismore GAA",
        "col2": "1976-1-1",
        "col3": "1976-1-1"
    },
    {
        "col0": "D. Fay",
        "col1": "Trim, County Meath",
        "col2": "1976-4-11",
        "col3": "1976-4-11"
    },
    {
        "col0": "D. Crowley",
        "col1": "Bandon GAA",
        "col2": "1987-1-1",
        "col3": "1987-1-1"
    },
    {
        "col0": "D. O. Se",
        "col1": "An Ghaeltacht GAA",
        "col2": "1975-4-1",
        "col3": "1975-4-1"
    },
    {
        "col0": "D. Coen",
        "col1": "Clarinbridge GAA",
        "col2": "1975-0-0",
        "col3": "1975-0-0"
    },
    {
        "col0": "D. O. Se",
        "col1": "An Ghaeltacht GAA",
        "col2": "1975-4-1",
        "col3": "1975-4-1"
    },
    {
        "col0": "D. Fitzgerald",
        "col1": "Claughaun GAA",
        "col2": "1961-0-0",
        "col3": "1961-0-0"
    },
    {
        "col0": "D. McLaughlin",
        "col1": "C.L.G. Naomh Micheal",
        "col2": "1990-1-1",
        "col3": "1990-1-1"
    },
    {
        "col0": "D. Bohane",
        "col1": "Austin Stacks",
        "col2": "1983-1-1",
        "col3": "1983-1-1"
    },
    {
        "col0": "D. Shanahan",
        "col1": "Lismore GAA",
        "col2": "1977-1-4",
        "col3": "1977-1-4"
    },
    {
        "col0": "D. Murphy",
        "col1": "Ballincollig GAA",
        "col2": "1977-1-1",
        "col3": "1977-1-1"
    },
    {
        "col0": "D. Moylan",
        "col1": "Glen Rovers GAA",
        "col2": "1915-0-0",
        "col3": "1915-0-0"
    },
    {
        "col0": "D. Lane",
        "col1": "Aghabullogue GAA",
        "col2": "1861-1-1",
        "col3": "1861-1-1"
    },
    {
        "col0": "D. Kennedy",
        "col1": "Dicksboro GAA",
        "col2": "1926-1-1",
        "col3": "1926-1-1"
    },
    {
        "col0": "D. Drew",
        "col1": "Aghabullogue GAA",
        "col2": "1878-1-1",
        "col3": "1878-1-1"
    },
    {
        "col0": "D. O'Reilly",
        "col1": "Mullahoran GFC",
        "col2": "1967-1-1",
        "col3": "1967-1-1"
    },
    {
        "col0": "D. McCusker",
        "col1": "Glen GAC",
        "col2": "1966-10-21",
        "col3": "1966-10-21"
    },
    {
        "col0": "D. Martin",
        "col1": "St. Rynagh's GAA",
        "col2": "1946-10-2",
        "col3": "1946-10-2"
    },
    {
        "col0": "D. Delaney",
        "col1": "Stradbally GAA",
        "col2": "1973-1-1",
        "col3": "1973-1-1"
    },
    {
        "col0": "D. Cahalane",
        "col1": "St. Finbarr's GAA",
        "col2": "1992-8-10",
        "col3": "1992-8-10"
    },
    {
        "col0": "D. Cassidy",
        "col1": "Sarsfields GAA",
        "col2": "1965-7-22",
        "col3": "1965-7-22"
    },
    {
        "col0": "D. Carroll",
        "col1": "The Heath GAA",
        "col2": "1987-1-1",
        "col3": "1987-1-1"
    },
    {
        "col0": "C. Rogers",
        "col1": "Portlaoise GAA",
        "col2": "1986-5-9",
        "col3": "1986-5-9"
    },
    {
        "col0": "C. Leahy",
        "col1": "Sarsfield's GAA",
        "col2": "1989-9-1",
        "col3": "1989-9-1"
    },
    {
        "col0": "C. O'Sullivan",
        "col1": "Sarsfield's GAA",
        "col2": "1989-3-8",
        "col3": "1989-3-8"
    },
    {
        "col0": "C. Hayes",
        "col1": "Glen Rovers GAA",
        "col2": "1958-5-11",
        "col3": "1958-5-11"
    },
    {
        "col0": "C. Cooney",
        "col1": "O'Callaghan Mills GAA",
        "col2": "1987-6-16",
        "col3": "1987-6-16"
    },
    {
        "col0": "C. Buckley",
        "col1": "Glen Rovers GAA",
        "col2": "1915-11-24",
        "col3": "1915-11-24"
    },
    {
        "col0": "C. Cottrell",
        "col1": "Ballinhassig GAA",
        "col2": "1917-1-1",
        "col3": "1917-1-1"
    },
    {
        "col0": "C. Corless",
        "col1": "Kinvara GAA",
        "col2": "1922-0-0",
        "col3": "1922-0-0"
    },
    {
        "col0": "C. Parkinson",
        "col1": "Portlaoise GAA",
        "col2": "1978-1-1",
        "col3": "1978-1-1"
    },
    {
        "col0": "C. O'Rourke",
        "col1": "Skryne GFC",
        "col2": "1957-8-31",
        "col3": "1957-8-31"
    },
    {
        "col0": "C. McAlarney",
        "col1": "Castlewellan GAC",
        "col2": "1948-1-1",
        "col3": "1948-1-1"
    },
    {
        "col0": "C. Ryan",
        "col1": "Newmarket-on-Fergus GAA",
        "col2": "1988-9-2",
        "col3": "1988-9-2"
    },
    {
        "col0": "C. Devlin",
        "col1": "Ballinderry Shamrocks GAC",
        "col2": "1985-2-19",
        "col3": "1985-2-19"
    },
    {
        "col0": "C. Whelan",
        "col1": "Raheny GAA",
        "col2": "1976-8-28",
        "col3": "1976-8-28"
    },
    {
        "col0": "C. Slevin",
        "col1": "Kilcormac-Killoughey GAA",
        "col2": "1986-1-1",
        "col3": "1986-1-1"
    },
    {
        "col0": "C. Mullan",
        "col1": "Drumsurn GAC",
        "col2": "1984-3-22",
        "col3": "1984-3-22"
    },
    {
        "col0": "C. Clarke",
        "col1": "Ballycastle McQuillan GAC",
        "col2": "1993-0-0",
        "col3": "1993-0-0"
    },
    {
        "col0": "C. Carey",
        "col1": "Patrickswell GAA",
        "col2": "1970-1-16",
        "col3": "1970-1-16"
    },
    {
        "col0": "C. Whelan",
        "col1": "Raheny GAA",
        "col2": "1976-8-28",
        "col3": "1976-8-28"
    },
    {
        "col0": "C. Slevin",
        "col1": "Kilcormac-Killoughey GAA",
        "col2": "1986-1-1",
        "col3": "1986-1-1"
    },
    {
        "col0": "C. Mullan",
        "col1": "Drumsurn GAC",
        "col2": "1984-3-22",
        "col3": "1984-3-22"
    },
    {
        "col0": "C. Clarke",
        "col1": "Ballycastle McQuillan GAC",
        "col2": "1993-0-0",
        "col3": "1993-0-0"
    },
    {
        "col0": "C. Carey",
        "col1": "Patrickswell GAA",
        "col2": "1970-1-16",
        "col3": "1970-1-16"
    },
    {
        "col0": "C. Ring",
        "col1": "Glen Rovers GAA",
        "col2": "1920-10-12",
        "col3": "1920-10-12"
    },
    {
        "col0": "C. Keogh",
        "col1": "Shamrocks GAA",
        "col2": "1943-6-29",
        "col3": "1943-6-29"
    },
    {
        "col0": "C. Murphy",
        "col1": "Blackrock GAA",
        "col2": "1985-1-1",
        "col3": "1985-1-1"
    },
    {
        "col0": "C. O. Greene",
        "col1": "Park/Ratheniska GAA",
        "col2": "1987-1-1",
        "col3": "1987-1-1"
    },
    {
        "col0": "C. Ryan",
        "col1": "Portarlington GAA",
        "col2": "1985-10-16",
        "col3": "1985-10-16"
    },
    {
        "col0": "C. O. Greene",
        "col1": "Park/Ratheniska GAA",
        "col2": "1987-1-1",
        "col3": "1987-1-1"
    },
    {
        "col0": "B. Phelan",
        "col1": "De La Salle GAA",
        "col2": "1979-1-1",
        "col3": "1979-1-1"
    },
    {
        "col0": "B. O'Sullivan",
        "col1": "Kilmallock GAA",
        "col2": "1988-1-24",
        "col3": "1988-1-24"
    },
    {
        "col0": "B. Whelahan",
        "col1": "Birr GAA",
        "col2": "1971-8-1",
        "col3": "1971-8-1"
    },
    {
        "col0": "B. Stynes",
        "col1": "Ballyboden St Endas",
        "col2": "1971-9-29",
        "col3": "1971-9-29"
    },
    {
        "col0": "B. Stafford",
        "col1": "Kilmainhamwood",
        "col2": "1964-6-4",
        "col3": "1964-6-4"
    },
    {
        "col0": "B. O'Sullivan",
        "col1": "Ballygunner",
        "col2": "1992-1-1",
        "col3": "1992-1-1"
    },
    {
        "col0": "B. O'Halloran",
        "col1": "Clashmore-Kinsalebeg GAA",
        "col2": "1991-5-17",
        "col3": "1991-5-17"
    },
    {
        "col0": "B. O'Driscoll",
        "col1": "Avondhu GAA",
        "col2": "1976-1-1",
        "col3": "1976-1-1"
    },
    {
        "col0": "B. Murray",
        "col1": "Patrickswell GAA",
        "col2": "1984-9-6",
        "col3": "1984-9-6"
    },
    {
        "col0": "B. Murphy",
        "col1": "Nemo Rangers GAA",
        "col2": "1952-2-2",
        "col3": "1952-2-2"
    },
    {
        "col0": "B. Mullins",
        "col1": "Birr GAA",
        "col2": "1978-1-1",
        "col3": "1978-1-1"
    },
    {
        "col0": "B. Mullins",
        "col1": "St Vincents GAA",
        "col2": "1954-9-27",
        "col3": "1954-9-27"
    },
    {
        "col0": "B. McGuigan",
        "col1": "Ardboe O'Donnovan Rossa GAC",
        "col2": "1980-1-3",
        "col3": "1980-1-3"
    },
    {
        "col0": "B. McGilligan",
        "col1": "Dungiven GAC",
        "col2": "1963-12-19",
        "col3": "1963-12-19"
    },
    {
        "col0": "B. McDonald",
        "col1": "Arles/Killeen GAA",
        "col2": "1980-6-7",
        "col3": "1980-6-7"
    },
    {
        "col0": "B. Geary",
        "col1": "Monaleen GAA",
        "col2": "1980-1-1",
        "col3": "1980-1-1"
    },
    {
        "col0": "B. Flannery",
        "col1": "Mount Sion GAA",
        "col2": "1974-1-1",
        "col3": "1974-1-1"
    },
    {
        "col0": "B. Corcoran",
        "col1": "Erin's Own GAA",
        "col2": "1973-3-23",
        "col3": "1973-3-23"
    },
    {
        "col0": "B. Carroll",
        "col1": "Coolderry GAA",
        "col2": "1983-6-13",
        "col3": "1983-6-13"
    },
    {
        "col0": "B. Campion",
        "col1": "Rathdowney-Errill GAA",
        "col2": "1985-1-1",
        "col3": "1985-1-1"
    },
    {
        "col0": "B. Landers",
        "col1": "Lismore GAA",
        "col2": "1978-1-25",
        "col3": "1978-1-25"
    },
    {
        "col0": "B. Cummins",
        "col1": "Ardfinnan GAA",
        "col2": "1975-5-11",
        "col3": "1975-5-11"
    },
    {
        "col0": "B. Coulter",
        "col1": "Mayobridge",
        "col2": "1982-6-7",
        "col3": "1982-6-7"
    },
    {
        "col0": "B. Miller",
        "col1": "Timahoe GAA",
        "col2": "1950-3-18",
        "col3": "1950-3-18"
    },
    {
        "col0": "B. Dineen",
        "col1": "Midleton GAA",
        "col2": "1919-1-1",
        "col3": "1919-1-1"
    },
    {
        "col0": "B. Doherty",
        "col1": "Newmarket-on-Fergus GAA",
        "col2": "1891-1-1",
        "col3": "1891-1-1"
    },
    {
        "col0": "B. Sheehan",
        "col1": "Austin Stacks",
        "col2": "1983-12-18",
        "col3": "1983-12-18"
    },
    {
        "col0": "B. O'Shea",
        "col1": "Laune Rangers",
        "col2": "1975-1-1",
        "col3": "1975-1-1"
    },
    {
        "col0": "B. O'Neill",
        "col1": "Carrigtwohill GAA",
        "col2": "1929-1-1",
        "col3": "1929-1-1"
    },
    {
        "col0": "B. Dooley",
        "col1": "Seir Kieran GAA",
        "col2": "1969-1-1",
        "col3": "1969-1-1"
    },
    {
        "col0": "B. O. Murphy",
        "col1": "Sarsfield's GAA",
        "col2": "1954-10-16",
        "col3": "1954-10-16"
    },
    {
        "col0": "B. Murphy",
        "col1": "St. Finbarr's GAA",
        "col2": "1923-1-1",
        "col3": "1923-1-1"
    }
]