[
    {
        "col0": "Z. Whites",
        "col1": "Dutch people",
        "col2": "Dutch people",
        "col3": "1968-11-08"
    },
    {
        "col0": "W. Clark",
        "col1": "United States",
        "col2": "Caucasian race",
        "col3": "1968-03-09"
    },
    {
        "col0": "T. Hyde",
        "col1": "UK",
        "col2": "English people",
        "col3": "1977-09-07"
    },
    {
        "col0": "S. Leone",
        "col1": "Canadian Americans",
        "col2": "Punjabi people",
        "col3": "1981-05-13"
    },
    {
        "col0": "S. Dee",
        "col1": "Welsh people",
        "col2": "White people",
        "col3": "1984-01-17"
    },
    {
        "col0": "S. Baby",
        "col1": "Spanish people",
        "col2": "White people",
        "col3": "1981-1-1"
    },
    {
        "col0": "R. Malone",
        "col1": "Italian people",
        "col2": "Italian people",
        "col3": "1956-10-31"
    },
    {
        "col0": "R. Rotten",
        "col1": "United States",
        "col2": "Whites",
        "col3": "1981-1-1"
    },
    {
        "col0": "R. Hamasaki",
        "col1": "Japanese people",
        "col2": "Japanese people",
        "col3": "1988-06-11"
    },
    {
        "col0": "N. Jane",
        "col1": "United States",
        "col2": "Cherokee",
        "col3": "1977-03-27"
    },
    {
        "col0": "N. Benz",
        "col1": "Canadian",
        "col2": "Ukrainians",
        "col3": "1981-12-11"
    },
    {
        "col0": "N. Thorn",
        "col1": "United States",
        "col2": "Japanese American",
        "col3": "1984-06-13"
    },
    {
        "col0": "N. Zeta",
        "col1": "Spanish people",
        "col2": "White people",
        "col3": "1983-12-29"
    },
    {
        "col0": "M. Dawn",
        "col1": "Americans",
        "col2": "Caucasian race",
        "col3": "1986-02-11"
    },
    {
        "col0": "M. Leigh",
        "col1": "United States",
        "col2": "Caucasian race",
        "col3": "1964-03-02"
    },
    {
        "col0": "L. M. Abato",
        "col1": "United States",
        "col2": "Italian American",
        "col3": "1966-12-23"
    },
    {
        "col0": "L. Leeane",
        "col1": "People of United States",
        "col2": "African American",
        "col3": "1992-10-01"
    },
    {
        "col0": "K. Lockwood",
        "col1": "United States",
        "col2": "Whites",
        "col3": "1970-06-04"
    },
    {
        "col0": "K. North",
        "col1": "British people",
        "col2": "White people",
        "col3": "1971-12-27"
    },
    {
        "col0": "K. Lancaume",
        "col1": "French people",
        "col2": "Caucasian race",
        "col3": "1973-01-19"
    },
    {
        "col0": "J. Minx",
        "col1": "France",
        "col2": "Algeria",
        "col3": "1989-01-04"
    },
    {
        "col0": "H. Savage",
        "col1": "United States",
        "col2": "Jewish",
        "col3": "1952-11-25"
    }
]