[
    {
        "col0": "Leucyl aminopeptidase",
        "col1": "P28838",
        "col2": "LAP",
        "col3": "170250",
        "col4": "18449",
        "col5": "51056",
        "col6": "3.4.11.1"
    },
    {
        "col0": "Lanosterol 14 alpha-demethylase",
        "col1": "Q16850",
        "col2": "CYP51, P45014DM",
        "col3": "601637",
        "col4": "2649",
        "col5": "1595",
        "col6": "1.14.13.70"
    },
    {
        "col0": "Isopentenyl-diphosphate delta isomerase",
        "col1": "Q13907",
        "col2": "IDI1",
        "col3": "604055",
        "col4": "5387",
        "col5": "3422",
        "col6": "5.3.3.2"
    },
    {
        "col0": "Iron-responsive element-binding protein",
        "col1": "P21399",
        "col2": "ACO1",
        "col3": "100880",
        "col4": "117",
        "col5": "3658",
        "col6": "4.2.1.3"
    },
    {
        "col0": "Inositol monophosphatase",
        "col1": "O14732",
        "col2": "IMP; IMPA",
        "col3": "602064",
        "col4": "26019",
        "col5": "3612",
        "col6": "3.1.3.25"
    },
    {
        "col0": "Inorganic pyrophosphatase",
        "col1": "Q15181",
        "col2": "PP",
        "col3": "179030",
        "col4": "28883",
        "col5": "27068",
        "col6": "3.6.1.1"
    },
    {
        "col0": "ITCH",
        "col1": "Q96J02",
        "col2": "ITCH",
        "col3": "606409",
        "col4": "13890",
        "col5": "83737",
        "col6": "6.3.2.19"
    },
    {
        "col0": "Hydroxymethylglutaryl-CoA synthase",
        "col1": "P54868",
        "col2": "HMGCS",
        "col3": "142940",
        "col4": "5007",
        "col5": "3157",
        "col6": "2.3.3.10"
    },
    {
        "col0": "Holocarboxylase synthetase",
        "col1": "P50747",
        "col2": "HLCS",
        "col3": "609018",
        "col4": "4976",
        "col5": "3141",
        "col6": "6.3.4.10"
    },
    {
        "col0": "Hepatic fructokinase",
        "col1": "P50053",
        "col2": "KHK",
        "col3": "229800",
        "col4": "6315",
        "col5": "3795",
        "col6": "2.7.1.3"
    },
    {
        "col0": "Glyceronephosphate O-acyltransferase",
        "col1": "O15228",
        "col2": "GNPAT",
        "col3": "602744",
        "col4": "4416",
        "col5": "8443",
        "col6": "2.3.1.42"
    },
    {
        "col0": "Glutathione synthetase",
        "col1": "P48637",
        "col2": "GSH-S_ATP",
        "col3": "601002",
        "col4": "4624",
        "col5": "2937",
        "col6": "6.3.2.3"
    },
    {
        "col0": "Gastric lipase",
        "col1": "P07098",
        "col2": "LIPF",
        "col3": "601980",
        "col4": "6622",
        "col5": "8513",
        "col6": "3.1.1.3"
    },
    {
        "col0": "Gamma-glutamyl transpeptidase",
        "col1": "P19440",
        "col2": "GGT",
        "col3": "137181",
        "col4": "4250",
        "col5": "2678",
        "col6": "2.3.2.2"
    },
    {
        "col0": "Galactokinase",
        "col1": "P51570",
        "col2": "GALK",
        "col3": "137028",
        "col4": "4118",
        "col5": "2584",
        "col6": "2.7.1.6"
    },
    {
        "col0": "G protein-coupled receptor kinase 7",
        "col1": "Q8WTQ7",
        "col2": "GPRK7",
        "col3": "606987",
        "col4": "17031",
        "col5": "131890",
        "col6": "2.7.11.14"
    },
    {
        "col0": "GSK-3",
        "col1": "P49840",
        "col2": "GSK3A",
        "col3": "605004",
        "col4": "4616",
        "col5": "2931",
        "col6": "2.7.11.26"
    },
    {
        "col0": "GDP-fucose protein O-fucosyltransferase 1",
        "col1": "Q9H488",
        "col2": "POFUT1",
        "col3": "607491",
        "col4": "14988",
        "col5": "23509",
        "col6": "2.4.1.221"
    },
    {
        "col0": "Fructose 1,6-bisphosphatase",
        "col1": "P09467",
        "col2": "FBP",
        "col3": "229700",
        "col4": "3606",
        "col5": "2203",
        "col6": "3.1.3.11"
    },
    {
        "col0": "Formimidoyltransferase cyclodeaminase",
        "col1": "O95954",
        "col2": "FTCD",
        "col3": "606806",
        "col4": "3974",
        "col5": "10841",
        "col6": "4.3.1.4"
    },
    {
        "col0": "FUT4",
        "col1": "P22083",
        "col2": "CD15, FCT3A, ELFT, SSEA-1, LeX",
        "col3": "104230",
        "col4": "4015",
        "col5": "2526",
        "col6": "2.4.1.152"
    },
    {
        "col0": "FANCM",
        "col1": "Q8IYD8",
        "col2": "FANCM",
        "col3": "609644",
        "col4": "23168",
        "col5": "57697",
        "col6": "3.6.1.-"
    },
    {
        "col0": "Enoyl-CoA hydratase",
        "col1": "Q08426",
        "col2": "ECHD",
        "col3": "607037",
        "col4": "3247",
        "col5": "1962",
        "col6": "4.2.1.17"
    },
    {
        "col0": "Electron-transferring-flavoprotein dehydrogenase",
        "col1": "Q16134",
        "col2": "ETF-QO",
        "col3": "231675",
        "col4": "3483",
        "col5": "2110",
        "col6": "1.5.5.1"
    },
    {
        "col0": "EIF4A",
        "col1": "P38919",
        "col2": "DDX48",
        "col3": "601102",
        "col4": "18683",
        "col5": "1973",
        "col6": "3.6.1.1"
    },
    {
        "col0": "Doubletime",
        "col1": "P49674",
        "col2": "CSNK1E",
        "col3": "121695",
        "col4": "2453",
        "col5": "1454",
        "col6": "2.7.11.1"
    },
    {
        "col0": "Dipeptidase 2",
        "col1": "Q9H4A9",
        "col2": "DPEP2",
        "col3": "609925",
        "col4": "23028",
        "col5": "64174",
        "col6": "3.4.13.19"
    },
    {
        "col0": "Dihydroorotase",
        "col1": "P27708",
        "col2": "CAD",
        "col3": "114010",
        "col4": "1424",
        "col5": "790",
        "col6": "3.5.2.3"
    },
    {
        "col0": "Deoxyribonuclease II",
        "col1": "O00115",
        "col2": "DNASE2",
        "col3": "126350",
        "col4": "28875",
        "col5": "1777",
        "col6": "3.1.22.1"
    },
    {
        "col0": "DNA clamp",
        "col1": "P12004",
        "col2": "DNA_pol3_beta",
        "col3": "176740",
        "col4": "8729",
        "col5": "5111",
        "col6": "2.7.7.7"
    },
    {
        "col0": "Cyclophilin",
        "col1": "Q3KQW3",
        "col2": "PPIA",
        "col3": "123840",
        "col4": "9253",
        "col5": "5478",
        "col6": "5.2.1.8"
    },
    {
        "col0": "Complement component 1s",
        "col1": "P09871",
        "col2": "C1S",
        "col3": "120580",
        "col4": "1247",
        "col5": "716",
        "col6": "3.4.21.42"
    },
    {
        "col0": "Complement component 1R",
        "col1": "P00736",
        "col2": "C1R",
        "col3": "216950",
        "col4": "1246",
        "col5": "715",
        "col6": "3.4.21.41"
    },
    {
        "col0": "Collagenase",
        "col1": "P03956",
        "col2": "MMP1",
        "col3": "120353",
        "col4": "7155",
        "col5": "4312",
        "col6": "3.4.24.3 Chromosome = 11"
    },
    {
        "col0": "Chymase",
        "col1": "P23946",
        "col2": "CMA1",
        "col3": "118938",
        "col4": "2097",
        "col5": "1215",
        "col6": "3.4.21.39"
    },
    {
        "col0": "Cholinesterase",
        "col1": "P06276",
        "col2": "ACHE",
        "col3": "100740",
        "col4": "108",
        "col5": "43",
        "col6": "3.1.1.7"
    }
]