[
    {
        "col0": "Amachan",
        "col1": "O. Yoshihide",
        "col2": "N. Miyamoto",
        "col3": "900"
    },
    {
        "col0": "Alphas",
        "col1": "T. Morris",
        "col2": "D. Strathairn",
        "col3": "2580"
    },
    {
        "col0": "All of Me",
        "col1": "J. Legend",
        "col2": "A. Martinez",
        "col3": "-2700"
    },
    {
        "col0": "Alias Smith and Jones",
        "col1": "P. Rugolo",
        "col2": "R. Story",
        "col3": "2880"
    },
    {
        "col0": "Air Power",
        "col1": "N. D. Joio",
        "col2": "W. Cronkite",
        "col3": "1800"
    },
    {
        "col0": "Agent Anna",
        "col1": "B. King",
        "col2": "R. Malcolm",
        "col3": "-1380"
    },
    {
        "col0": "Afterworld",
        "col1": "S. Winans",
        "col2": "R. Critchlow",
        "col3": "180"
    },
    {
        "col0": "Africa",
        "col1": "S. Class",
        "col2": "D. Attenborough",
        "col3": "3600"
    },
    {
        "col0": "Adventures of Superman",
        "col1": "L. Klatzkin",
        "col2": "G. Reeves",
        "col3": "-1500"
    },
    {
        "col0": "A to Z",
        "col1": "C. Wedren",
        "col2": "K. Sagal",
        "col3": "1320"
    },
    {
        "col0": "A History of Scotland",
        "col1": "P. Leonard-Morgan",
        "col2": "N. Oliver",
        "col3": "3600"
    },
    {
        "col0": "A Boy Named Charlie Brown",
        "col1": "V. Guaraldi",
        "col2": "D. Sherwood",
        "col3": "1800"
    },
    {
        "col0": "ABC World News Tonight",
        "col1": "H. Zimmer",
        "col2": "M. Rowe",
        "col3": "900"
    },
    {
        "col0": "24 Oras",
        "col1": "Neocolours",
        "col2": "M. Enriquez",
        "col3": "1800"
    }
]