[
    {
        "col0": "L. Connolly",
        "col1": "Fethard GAA",
        "col2": "1936-1-1",
        "col3": "1936-1-1",
        "col4": "2007-1-1"
    },
    {
        "col0": "L. Stanley",
        "col1": "Caragh GAA",
        "col2": "1896-1-1",
        "col3": "1896-1-1",
        "col4": "1987-9-21"
    },
    {
        "col0": "L. Flaherty",
        "col1": "Blackrock GAA",
        "col2": "1882-5-1",
        "col3": "1882-5-1",
        "col4": "1979-1-1"
    },
    {
        "col0": "L. Foley",
        "col1": "St Vincents GAA",
        "col2": "1938-11-23",
        "col3": "1938-11-23",
        "col4": "2003-5-4"
    },
    {
        "col0": "K. Carey",
        "col1": "Roscrea GAA",
        "col2": "1933-1-1",
        "col3": "1933-1-1",
        "col4": "2007-1-1"
    },
    {
        "col0": "K. Heffernan",
        "col1": "St Vincents GAA",
        "col2": "1929-8-20",
        "col3": "1929-8-20",
        "col4": "2013-1-25"
    },
    {
        "col0": "K. Mills",
        "col1": "CIE Camogie Club",
        "col2": "1923-1-1",
        "col3": "1923-1-1",
        "col4": "1996-1-1"
    },
    {
        "col0": "J. Gallagher",
        "col1": "Gort GAA",
        "col2": "1923-1-1",
        "col3": "1923-1-1",
        "col4": "1998-1-1"
    },
    {
        "col0": "J. Lee",
        "col1": "Glen Rovers GAA",
        "col2": "1911-0-0",
        "col3": "1911-0-0",
        "col4": "1967-12-18"
    },
    {
        "col0": "J. Quirke",
        "col1": "Blackrock GAA",
        "col2": "1911-1-1",
        "col3": "1911-1-1",
        "col4": "1983-1-1"
    },
    {
        "col0": "J. O'Connor",
        "col1": "UCD GAA",
        "col2": "1928-0-0",
        "col3": "1928-0-0",
        "col4": "2010-10-31"
    },
    {
        "col0": "J. Leahy",
        "col1": "Boherlahan-Dualla GAA",
        "col2": "1890-1-1",
        "col3": "1890-1-1",
        "col4": "1949-11-1"
    },
    {
        "col0": "J. Egan",
        "col1": "Ballymun Kickhams GAA",
        "col2": "1939-0-0",
        "col3": "1939-0-0",
        "col4": "2015-12-14"
    },
    {
        "col0": "J. Dunne",
        "col1": "Dicksboro GAA",
        "col2": "1905-0-0",
        "col3": "1905-0-0",
        "col4": "1954-0-0"
    },
    {
        "col0": "J. Clifford",
        "col1": "Glen Rovers GAA",
        "col2": "1934-0-0",
        "col3": "1934-0-0",
        "col4": "2007-10-19"
    },
    {
        "col0": "J. T. Power",
        "col1": "Mooncoin GAA",
        "col2": "1883-1-1",
        "col3": "1883-1-1",
        "col4": "1982-2-1"
    },
    {
        "col0": "J. Ryan",
        "col1": "Killimordaly GAA",
        "col2": "1958-4-1",
        "col3": "1958-4-1",
        "col4": "2003-10-7"
    },
    {
        "col0": "J. Reidy",
        "col1": "Granagh-Ballingarry GAA",
        "col2": "1877-0-0",
        "col3": "1877-0-0",
        "col4": "1910-0-0"
    },
    {
        "col0": "J. O'Mahony",
        "col1": "Kanturk GAA",
        "col2": "1937-1-1",
        "col3": "1937-1-1",
        "col4": "2012-8-8"
    },
    {
        "col0": "J. O'Keeffe",
        "col1": "Carrigtwohill GAA",
        "col2": "1895-1-1",
        "col3": "1895-1-1",
        "col4": "1973-10-25"
    },
    {
        "col0": "J. O'Donovan",
        "col1": "Clonakilty GAA",
        "col2": "1889-1-1",
        "col3": "1889-1-1",
        "col4": "1920-1-1"
    },
    {
        "col0": "J. McAndrew",
        "col1": "John Mitchel's Hurling Club",
        "col2": "1927-7-8",
        "col3": "1927-7-8",
        "col4": "2013-1-3"
    },
    {
        "col0": "J. Mahony",
        "col1": "Ballyduff GAA",
        "col2": "1863-1-1",
        "col3": "1863-1-1",
        "col4": "1943-1-1"
    },
    {
        "col0": "J. Maher",
        "col1": "Thurles Sarsfields GAA",
        "col2": "1908-1-1",
        "col3": "1908-1-1",
        "col4": "1990-1-1"
    },
    {
        "col0": "J. Mackey",
        "col1": "Ahane GAA",
        "col2": "1914-1-1",
        "col3": "1914-1-1",
        "col4": "1989-1-1"
    },
    {
        "col0": "J. L. O'Sullivan",
        "col1": "Adrigole GFC",
        "col2": "1976-1-1",
        "col3": "1976-1-1",
        "col4": "2002-1-1"
    },
    {
        "col0": "J. Kiely",
        "col1": "Dungarvan GAA",
        "col2": "1927-1-1",
        "col3": "1927-1-1",
        "col4": "2004-1-1"
    },
    {
        "col0": "J. Kerins",
        "col1": "St. Finbarr's GAA",
        "col2": "1962-7-19",
        "col3": "1962-7-19",
        "col4": "2001-8-21"
    },
    {
        "col0": "J. Keane",
        "col1": "Mount Sion GAA",
        "col2": "1917-2-18",
        "col3": "1917-2-18",
        "col4": "1975-10-1"
    },
    {
        "col0": "J. J. Sheehy",
        "col1": "John Mitchels GAA",
        "col2": "1897-1-1",
        "col3": "1897-1-1",
        "col4": "1980-1-1"
    },
    {
        "col0": "J. J. O'Reilly",
        "col1": "Cornafean GAA",
        "col2": "1919-1-1",
        "col3": "1919-1-1",
        "col4": "1952-1-1"
    },
    {
        "col0": "J. J. Landers",
        "col1": "Austin Stacks",
        "col2": "1907-4-23",
        "col3": "1907-4-23",
        "col4": "2001-8-27"
    },
    {
        "col0": "J. J. Doyle",
        "col1": "Newmarket-on-Fergus GAA",
        "col2": "1906-1-1",
        "col3": "1906-1-1",
        "col4": "2000-1-1"
    },
    {
        "col0": "J. J. Callanan",
        "col1": "UCD GAA",
        "col2": "1894-0-0",
        "col3": "1894-0-0",
        "col4": "1970-12-19"
    },
    {
        "col0": "J. Horgan",
        "col1": "Blackrock GAA",
        "col2": "1950-5-25",
        "col3": "1950-5-25",
        "col4": "2016-6-10"
    },
    {
        "col0": "J. Holohan",
        "col1": "Tullaroan GAA",
        "col2": "1891-0-0",
        "col3": "1891-0-0",
        "col4": "1947-6-0"
    },
    {
        "col0": "J. Haugh",
        "col1": "Holycross-Ballycahill GAA",
        "col2": "1930-1-1",
        "col3": "1930-1-1",
        "col4": "1998-1-1"
    },
    {
        "col0": "J. Hannigan",
        "col1": "C.L.G. Naomh Adhamhnain",
        "col2": "1939-0-0",
        "col3": "1939-0-0",
        "col4": "2014-4-22"
    },
    {
        "col0": "J. Forde",
        "col1": "Ballina Stephenites GAA",
        "col2": "1920-1-1",
        "col3": "1920-1-1",
        "col4": "2010-1-1"
    },
    {
        "col0": "J. Egan",
        "col1": "Sneem GAA",
        "col2": "1952-6-13",
        "col3": "1952-6-13",
        "col4": "2012-4-8"
    },
    {
        "col0": "J. E. Mullan",
        "col1": "Glenullin GAC",
        "col2": "1923-4-27",
        "col3": "1923-4-27",
        "col4": "2008-12-14"
    },
    {
        "col0": "J. Doyle",
        "col1": "Holycross-Ballycahill GAA",
        "col2": "1930-2-12",
        "col3": "1930-2-12",
        "col4": "2010-12-29"
    },
    {
        "col0": "J. Dowling",
        "col1": "Kerins O'Rahilly's",
        "col2": "1930-1-1",
        "col3": "1930-1-1",
        "col4": "1998-1-1"
    },
    {
        "col0": "J. Coughlan",
        "col1": "Blackrock GAA",
        "col2": "1898-1-1",
        "col3": "1898-1-1",
        "col4": "1965-1-1"
    },
    {
        "col0": "J. Condon",
        "col1": "Cappamore GAA",
        "col2": "1872-10-6",
        "col3": "1872-10-6",
        "col4": "1944-8-17"
    },
    {
        "col0": "J. Barron",
        "col1": "De La Salle GAA",
        "col2": "1934-1-1",
        "col3": "1934-1-1",
        "col4": "2008-4-28"
    },
    {
        "col0": "J. Waldron",
        "col1": "Milltown",
        "col2": "1951-1-1",
        "col3": "1951-1-1",
        "col4": "2014-2-18"
    },
    {
        "col0": "J. Timmons",
        "col1": "St Marys",
        "col2": "1933-8-16",
        "col3": "1933-8-16",
        "col4": "2009-1-30"
    },
    {
        "col0": "J. McDonagh",
        "col1": "Barna GAC",
        "col2": "1953-1-1",
        "col3": "1953-1-1",
        "col4": "2016-5-20"
    },
    {
        "col0": "J. Keohane",
        "col1": "John Mitchels GAA",
        "col2": "1918-1-1",
        "col3": "1918-1-1",
        "col4": "1988-1-16"
    },
    {
        "col0": "J. Barrett",
        "col1": "Austin Stacks",
        "col2": "1902-7-17",
        "col3": "1902-7-17",
        "col4": "1952-6-2"
    },
    {
        "col0": "J. Walsh",
        "col1": "Carrickshock GAA",
        "col2": "1911-2-4",
        "col3": "1911-2-4",
        "col4": "1977-12-26"
    },
    {
        "col0": "J. Smyth",
        "col1": "Ruan GAA",
        "col2": "1931-1-1",
        "col3": "1931-1-1",
        "col4": "2013-2-9"
    },
    {
        "col0": "J. Phelan",
        "col1": "Mount Sion GAA",
        "col2": "1917-4-6",
        "col3": "1917-4-6",
        "col4": "2006-1-5"
    },
    {
        "col0": "J. Murray",
        "col1": "St. Dominics",
        "col2": "1917-5-5",
        "col3": "1917-5-5",
        "col4": "2007-1-23"
    },
    {
        "col0": "J. Kennedy",
        "col1": "UCD GAA",
        "col2": "1926-1-1",
        "col3": "1926-1-1",
        "col4": "2007-1-1"
    },
    {
        "col0": "J. Humphreys",
        "col1": "Claughaun GAA",
        "col2": "1894-2-10",
        "col3": "1894-2-10",
        "col4": "1956-12-23"
    },
    {
        "col0": "J. Coffey",
        "col1": "Ahane GAA",
        "col2": "1909-10-26",
        "col3": "1909-10-26",
        "col4": "2010-12-29"
    },
    {
        "col0": "J. Brohan",
        "col1": "Blackrock GAA",
        "col2": "1935-6-18",
        "col3": "1935-6-18",
        "col4": "2014-3-25"
    },
    {
        "col0": "J. Ware",
        "col1": "Erin's Own GAA",
        "col2": "1908-1-1",
        "col3": "1908-1-1",
        "col4": "1983-1-1"
    },
    {
        "col0": "J. Walsh",
        "col1": "Dunnamaggin GAA",
        "col2": "1932-1-1",
        "col3": "1932-1-1",
        "col4": "1995-1-1"
    },
    {
        "col0": "J. Walsh",
        "col1": "Mooncoin GAA",
        "col2": "1895-1-1",
        "col3": "1895-1-1",
        "col4": "1949-1-1"
    },
    {
        "col0": "J. Stapleton",
        "col1": "Thurles Sarsfields GAA",
        "col2": "1863-1-1",
        "col3": "1863-1-1",
        "col4": "1949-1-1"
    },
    {
        "col0": "J. Ronayne",
        "col1": "Dungourney GAA",
        "col2": "1878-1-1",
        "col3": "1878-1-1",
        "col4": "1956-8-0"
    },
    {
        "col0": "J. Prior",
        "col1": "Faughs",
        "col2": "1923-1-1",
        "col3": "1923-1-1",
        "col4": "1980-1-1"
    },
    {
        "col0": "J. Power",
        "col1": "Tynagh-Abbey/Duniry GAA",
        "col2": "1895-11-7",
        "col3": "1895-11-7",
        "col4": "1998-5-21"
    },
    {
        "col0": "J. O'Regan",
        "col1": "De La Salle GAA",
        "col2": "1901-1-1",
        "col3": "1901-1-1",
        "col4": "1982-10-1"
    },
    {
        "col0": "J. Houlihan",
        "col1": "Tulla GAA",
        "col2": "1898-1-1",
        "col3": "1898-1-1",
        "col4": "1967-1-1"
    },
    {
        "col0": "J. Hogan",
        "col1": "Tullaroan GAA",
        "col2": "1928-1-1",
        "col3": "1928-1-1",
        "col4": "2010-11-27"
    },
    {
        "col0": "J. Hassett",
        "col1": "UCC GAA",
        "col2": "1887-1-1",
        "col3": "1887-1-1",
        "col4": "1964-1-1"
    },
    {
        "col0": "J. Guerin",
        "col1": "Newmarket-on-Fergus GAA",
        "col2": "1894-1-1",
        "col3": "1894-1-1",
        "col4": "1918-12-1"
    },
    {
        "col0": "J. English",
        "col1": "Rathnure GAA",
        "col2": "1932-10-1",
        "col3": "1932-10-1",
        "col4": "2008-2-23"
    },
    {
        "col0": "J. Downing",
        "col1": "Beara GAA",
        "col2": "1946-1-1",
        "col3": "1946-1-1",
        "col4": "2012-4-28"
    },
    {
        "col0": "J. Brosnan",
        "col1": "Moyvane GAA",
        "col2": "1930-0-0",
        "col3": "1930-0-0",
        "col4": "2011-0-0"
    },
    {
        "col0": "J. Brophy",
        "col1": "Liam Mellows GAA",
        "col2": "1920-1-1",
        "col3": "1920-1-1",
        "col4": "1998-10-1"
    },
    {
        "col0": "J. Bennett",
        "col1": "Bennettsbridge GAA",
        "col2": "1944-1-1",
        "col3": "1944-1-1",
        "col4": "2014-12-31"
    },
    {
        "col0": "J. Doheny",
        "col1": "Tullaroan GAA",
        "col2": "1874-0-0",
        "col3": "1874-0-0",
        "col4": "1929-0-0"
    },
    {
        "col0": "J. Kelleher",
        "col1": "Dungourney GAA",
        "col2": "1878-1-1",
        "col3": "1878-1-1",
        "col4": "1943-1-10"
    },
    {
        "col0": "J. McNaughton",
        "col1": "Ruari Og GAC",
        "col2": "1963-0-0",
        "col3": "1963-0-0",
        "col4": "2014-2-17"
    },
    {
        "col0": "J. Keegan",
        "col1": "Redmonds GAA",
        "col2": "1869-1-1",
        "col3": "1869-1-1",
        "col4": "1892-1-1"
    },
    {
        "col0": "J. Power",
        "col1": "Ahane GAA",
        "col2": "1916-5-30",
        "col3": "1916-5-30",
        "col4": "1994-2-23"
    },
    {
        "col0": "J. O'Connell",
        "col1": "Croom GAA",
        "col2": "1912-0-0",
        "col3": "1912-0-0",
        "col4": "1997-10-16"
    },
    {
        "col0": "J. Gilroy",
        "col1": "St Vincents",
        "col2": "1942-1-1",
        "col3": "1942-1-1",
        "col4": "2007-1-1"
    },
    {
        "col0": "J. Mockler",
        "col1": "Thurles Sarsfields GAA",
        "col2": "1893-1-1",
        "col3": "1893-1-1",
        "col4": "1957-7-13"
    },
    {
        "col0": "J. Mangan",
        "col1": "Tuam Stars",
        "col2": "1927-5-6",
        "col3": "1927-5-6",
        "col4": "2013-9-17"
    },
    {
        "col0": "J. Mahon",
        "col1": "Dunmore McHales",
        "col2": "1933-1-1",
        "col3": "1933-1-1",
        "col4": "2005-1-1"
    },
    {
        "col0": "J. Keane",
        "col1": "Ahane GAA",
        "col2": "1895-1-1",
        "col3": "1895-1-1",
        "col4": "1978-4-24"
    },
    {
        "col0": "J. Higgins",
        "col1": "Naas GAA",
        "col2": "1903-0-0",
        "col3": "1903-0-0",
        "col4": "1955-10-23"
    },
    {
        "col0": "J. Gargan",
        "col1": "Faughs GAA",
        "col2": "1918-1-1",
        "col3": "1918-1-1",
        "col4": "1991-1-1"
    },
    {
        "col0": "J. Finlay",
        "col1": "Clough-Ballacolla",
        "col2": "1890-0-0",
        "col3": "1890-0-0",
        "col4": "1942-9-30"
    },
    {
        "col0": "J. Carroll",
        "col1": "Coolderry GAA",
        "col2": "1921-1-1",
        "col3": "1921-1-1",
        "col4": "1998-1-1"
    },
    {
        "col0": "J. Anthony",
        "col1": "Piltown GAA",
        "col2": "1885-0-0",
        "col3": "1885-0-0",
        "col4": "1964-11-6"
    },
    {
        "col0": "H. Kelleher",
        "col1": "Millstreet GAA",
        "col2": "1946-0-0",
        "col3": "1946-0-0",
        "col4": "2005-9-21"
    },
    {
        "col0": "H. Shelly",
        "col1": "Thurles Sarsfields GAA",
        "col2": "1882-1-1",
        "col3": "1882-1-1",
        "col4": "1957-5-11"
    },
    {
        "col0": "H. Meagher",
        "col1": "Tullaroan GAA",
        "col2": "1902-1-1",
        "col3": "1902-1-1",
        "col4": "1982-1-1"
    },
    {
        "col0": "H. Daly",
        "col1": "Clarecastle GAA",
        "col2": "1922-0-0",
        "col3": "1922-0-0",
        "col4": "1991-6-0"
    },
    {
        "col0": "H. Gray",
        "col1": "Faughs GAA",
        "col2": "1915-1-1",
        "col3": "1915-1-1",
        "col4": "1978-1-1"
    },
    {
        "col0": "G. Hughes",
        "col1": "St. Rynagh's GAA",
        "col2": "1939-11-17",
        "col3": "1939-11-17",
        "col4": "2014-5-15"
    },
    {
        "col0": "G. O'Malley",
        "col1": "St. Brigids",
        "col2": "1928-1-1",
        "col3": "1928-1-1",
        "col4": "2016-1-5"
    },
    {
        "col0": "G. Murphy",
        "col1": "Midleton GAA",
        "col2": "1928-1-1",
        "col3": "1928-1-1",
        "col4": "1978-1-1"
    },
    {
        "col0": "G. Loughnane",
        "col1": "Feakle GAA",
        "col2": "1953-1-1",
        "col3": "1953-1-1",
        "col4": "2011-7-27"
    },
    {
        "col0": "G. McMahon",
        "col1": "Listowel Emmets",
        "col2": "1937-8-31",
        "col3": "1937-8-31",
        "col4": "2008-3-5"
    },
    {
        "col0": "G. Howard",
        "col1": "Croom GAA",
        "col2": "1899-12-10",
        "col3": "1899-12-10",
        "col4": "1995-1-20"
    },
    {
        "col0": "F. Donnelly",
        "col1": "Carrickmore St. Colmcille's GFC",
        "col2": "1933-1-1",
        "col3": "1933-1-1",
        "col4": "2007-3-14"
    },
    {
        "col0": "F. White",
        "col1": "St Oliver Plunketts/Eoghan Ruadh GAA",
        "col2": "1913-1-1",
        "col3": "1913-1-1",
        "col4": "1984-1-1"
    },
    {
        "col0": "F. Stockwell",
        "col1": "Tuam Stars",
        "col2": "1928-12-7",
        "col3": "1928-12-7",
        "col4": "2009-3-9"
    },
    {
        "col0": "F. O'Keeffe",
        "col1": "John Mitchels GAA",
        "col2": "1923-0-0",
        "col3": "1923-0-0",
        "col4": "2014-3-25"
    },
    {
        "col0": "F. Malone",
        "col1": "Naas GAA",
        "col2": "1903-1-1",
        "col3": "1903-1-1",
        "col4": "1953-9-3"
    },
    {
        "col0": "F. Cummins",
        "col1": "UCD GAA",
        "col2": "1925-1-1",
        "col3": "1925-1-1",
        "col4": "1967-1-1"
    },
    {
        "col0": "F. Hayes",
        "col1": "Clonakilty GAA",
        "col2": "1944-1-1",
        "col3": "1944-1-1",
        "col4": "2014-7-10"
    },
    {
        "col0": "E. Coughlan",
        "col1": "Blackrock GAA",
        "col2": "1900-0-0",
        "col3": "1900-0-0",
        "col4": "1987-1-4"
    },
    {
        "col0": "E. Philpott",
        "col1": "St. Finbarr's GAA",
        "col2": "1947-1-1",
        "col3": "1947-1-1",
        "col4": "2015-12-25"
    },
    {
        "col0": "E. O'Connell",
        "col1": "Blackrock GAA",
        "col2": "1897-1-1",
        "col3": "1897-1-1",
        "col4": "1971-1-1"
    },
    {
        "col0": "E. Dunphy",
        "col1": "Mooncoin GAA",
        "col2": "1897-0-0",
        "col3": "1897-0-0",
        "col4": "2006-0-0"
    },
    {
        "col0": "E. Doyle",
        "col1": "Mooncoin GAA",
        "col2": "1897-1-1",
        "col3": "1897-1-1",
        "col4": "1948-1-1"
    },
    {
        "col0": "E. Connolly",
        "col1": "Loughmore-Castleiney GAA",
        "col2": "1985-10-29",
        "col3": "1985-10-29",
        "col4": "2015-9-17"
    },
    {
        "col0": "E. Byrne",
        "col1": "Dicksboro GAA",
        "col2": "1905-1-1",
        "col3": "1905-1-1",
        "col4": "1944-1-1"
    },
    {
        "col0": "D. O'Donovan",
        "col1": "St. Nicholas' GAA",
        "col2": "1926-1-31",
        "col3": "1926-1-31",
        "col4": "1999-5-29"
    },
    {
        "col0": "D. O'Sullivan",
        "col1": "Lees GAA",
        "col2": "1930-1-1",
        "col3": "1930-1-1",
        "col4": "2001-1-1"
    },
    {
        "col0": "D. O'Brien",
        "col1": "Knockavilla-Donaskeigh Kickhams GAA",
        "col2": "1940-7-6",
        "col3": "1940-7-6",
        "col4": "2012-4-17"
    },
    {
        "col0": "D. McCarthy",
        "col1": "UCC GAA",
        "col2": "1908-6-4",
        "col3": "1908-6-4",
        "col4": "1980-1-31"
    },
    {
        "col0": "D. Enright",
        "col1": "Abbeyside/Ballinacourty GAA",
        "col2": "1935-0-0",
        "col3": "1935-0-0",
        "col4": "2008-10-7"
    },
    {
        "col0": "D. Ryan",
        "col1": "Roscrea GAA",
        "col2": "1927-0-0",
        "col3": "1927-0-0",
        "col4": "2009-9-27"
    },
    {
        "col0": "D. Barry-Murphy",
        "col1": "Eire Og GAA",
        "col2": "1904-1-1",
        "col3": "1904-1-1",
        "col4": "1973-1-1"
    },
    {
        "col0": "D. J. Crowley",
        "col1": "Rathmore GAA",
        "col2": "1948-1-1",
        "col3": "1948-1-1",
        "col4": "2016-2-19"
    },
    {
        "col0": "D. J. Buckley",
        "col1": "Glen Rovers GAA",
        "col2": "1919-6-30",
        "col3": "1919-6-30",
        "col4": "2009-10-8"
    },
    {
        "col0": "D. Walsh",
        "col1": "Mooncoin GAA",
        "col2": "1878-1-1",
        "col3": "1878-1-1",
        "col4": "1958-7-28"
    },
    {
        "col0": "D. Tobin",
        "col1": "Emeralds GAA",
        "col2": "1895-1-1",
        "col3": "1895-1-1",
        "col4": "1952-1-1"
    },
    {
        "col0": "D. Stokes",
        "col1": "UCD GAA",
        "col2": "1920-3-12",
        "col3": "1920-3-12",
        "col4": "2005-11-17"
    },
    {
        "col0": "D. Roche",
        "col1": "Ferrybank GAA",
        "col2": "1935-1-1",
        "col3": "1935-1-1",
        "col4": "2014-5-12"
    },
    {
        "col0": "D. Grace",
        "col1": "Tullaroan GAA",
        "col2": "1890-1-1",
        "col3": "1890-1-1",
        "col4": "1974-1-1"
    },
    {
        "col0": "D. Fitzgerald",
        "col1": "Dr Crokes GAA",
        "col2": "1884-1-1",
        "col3": "1884-1-1",
        "col4": "1930-1-1"
    },
    {
        "col0": "D. Dunphy",
        "col1": "Mooncoin GAA",
        "col2": "1939-0-0",
        "col3": "1939-0-0",
        "col4": "2006-11-0"
    },
    {
        "col0": "D. Doyle",
        "col1": "Mooncoin GAA",
        "col2": "1888-1-1",
        "col3": "1888-1-1",
        "col4": "1959-1-1"
    },
    {
        "col0": "D. Foley",
        "col1": "St Vincents GAA",
        "col2": "1940-9-12",
        "col3": "1940-9-12",
        "col4": "1995-2-5"
    },
    {
        "col0": "D. Dillon",
        "col1": "Birr GAA",
        "col2": "1926-1-1",
        "col3": "1926-1-1",
        "col4": "1964-11-24"
    },
    {
        "col0": "D. Benson",
        "col1": "Killeshandra",
        "col2": "1921-1-1",
        "col3": "1921-1-1",
        "col4": "2007-1-1"
    },
    {
        "col0": "D. O'Brien",
        "col1": "St. Mary's GAA",
        "col2": "1932-10-23",
        "col3": "1932-10-23",
        "col4": "2007-5-22"
    },
    {
        "col0": "D. Walsh",
        "col1": "Boherlahan-Dualla GAA",
        "col2": "1877-1-1",
        "col3": "1877-1-1",
        "col4": "1952-12-22"
    },
    {
        "col0": "D. O'Gorman",
        "col1": "Holycross-Ballycahill GAA",
        "col2": "1914-8-28",
        "col3": "1914-8-28",
        "col4": "2005-5-1"
    },
    {
        "col0": "D. Kelleher",
        "col1": "Millstreet GAA",
        "col2": "1931-1-1",
        "col3": "1931-1-1",
        "col4": "2002-1-1"
    },
    {
        "col0": "D. Coughlan",
        "col1": "Blackrock GAA",
        "col2": "1872-1-1",
        "col3": "1872-1-1",
        "col4": "1903-1-1"
    },
    {
        "col0": "D. Connors",
        "col1": "Millstreet GAA",
        "col2": "1917-1-1",
        "col3": "1917-1-1",
        "col4": "2004-0-0"
    },
    {
        "col0": "D. Magnier",
        "col1": "Fermoy GAA",
        "col2": "1916-1-1",
        "col3": "1916-1-1",
        "col4": "1979-1-1"
    },
    {
        "col0": "D. Creedon",
        "col1": "Nemo Rangers GAA",
        "col2": "1919-9-1",
        "col3": "1919-9-1",
        "col4": "2007-3-11"
    }
]