[
    {
        "col0": "Trafalgar Campaign",
        "col1": "Batavian Republic",
        "col2": "Decisive British victory",
        "col3": "56 ships of the line"
    },
    {
        "col0": "Toyota War",
        "col1": "CDR",
        "col2": "Decisive Chadian victory",
        "col3": "CDR: 1,000"
    },
    {
        "col0": "Torstenson War",
        "col1": "Denmark-Norway",
        "col2": "Swedishvictory",
        "col3": "24,600Swedes"
    },
    {
        "col0": "Tooreen ambush",
        "col1": "(Essex Regiment)",
        "col2": "IRA victory",
        "col3": "15 soldiers"
    },
    {
        "col0": "Tonkin Campaign",
        "col1": "Black Flag Army",
        "col2": "French victory",
        "col3": "10,000 Vietnamese soldiers"
    },
    {
        "col0": "Tondern raid",
        "col1": "German Empire",
        "col2": "British victory",
        "col3": "1 captive balloon"
    },
    {
        "col0": "Toledo War",
        "col1": "Ohiomilitia",
        "col2": "Military stalemate",
        "col3": "1,000"
    },
    {
        "col0": "Togoland Campaign",
        "col1": "*French Dahomey",
        "col2": "Allied victory",
        "col3": "693-1,500 (including reservists)"
    },
    {
        "col0": "Tishrin Dam offensive",
        "col1": "'''Air support:",
        "col2": "Major SDF victory",
        "col3": "SDF: Several thousand fighters"
    },
    {
        "col0": "Tirah Campaign",
        "col1": "Afridis",
        "col2": "British Indian victory",
        "col3": "20,000 followers"
    },
    {
        "col0": "Timeline of the Spanish-American War",
        "col1": "*Captaincy General of Cuba",
        "col2": "* American victory",
        "col3": "(Cuban Republic:)"
    },
    {
        "col0": "Tibetan expedition by Islamic Bengal",
        "col1": "36pxBengal under the Delhi Sultanate",
        "col2": "Decisive Tibetan victory",
        "col3": "10,000 (approx.)"
    },
    {
        "col0": "Tianshui revolts",
        "col1": "Cao Wei",
        "col2": "Territorial losses to Shu were retaken by Wei later; Overall stalemate",
        "col3": ">50,000"
    },
    {
        "col0": "Tianjin-Pukou Railway Operation",
        "col1": "China,National Revolutionary Army",
        "col2": "Japanese victory",
        "col3": "?"
    },
    {
        "col0": "Tianjin Campaign",
        "col1": "60px|Flag of the National Revolutionary Army",
        "col2": "Communistvictory",
        "col3": "130,000"
    },
    {
        "col0": "Tianjin-Pukou Railway Operation",
        "col1": "China,National Revolutionary Army",
        "col2": "Japanese victory",
        "col3": "?"
    },
    {
        "col0": "Thornton Affair",
        "col1": "Mexico",
        "col2": "*Start of theMexican-American War",
        "col3": "1600 cavalry,sappers, lightinfantry"
    },
    {
        "col0": "Thirty Years' War",
        "col1": "(1625-30)",
        "col2": "* Decline of theCatholic Church",
        "col3": "135,000 Danes (1625)"
    },
    {
        "col0": "Thirteenth Siege of Gibraltar",
        "col1": "Spain",
        "col2": "*Called off by Spain",
        "col3": "1,500 (later increased to ~5,500)"
    },
    {
        "col0": "Third conflict in the Goryeo-Khitan War",
        "col1": "Goryeo Dynasty",
        "col2": "Goryeo Dynasty victory",
        "col3": "100,000"
    },
    {
        "col0": "Third Siege of Missolonghi",
        "col1": "Egypt",
        "col2": "Ottoman-Egyptian victory",
        "col3": "15,000 Ottoman auxiliaries"
    },
    {
        "col0": "Third Siege of Gerona",
        "col1": "French Empire",
        "col2": "*Its defense inspires resistance elsewhere in the Peninsula.",
        "col3": "35,000 regulars"
    },
    {
        "col0": "Third Servile War",
        "col1": "Army of escaped slaves",
        "col2": "Decisive Roman victory",
        "col3": "12,000 garrison troops, composition unknown."
    },
    {
        "col0": "Third Punic War",
        "col1": "12pxCarthage",
        "col2": "DecisiveRomanvictory",
        "col3": "80,000 men"
    },
    {
        "col0": "Third Mongol invasion of Poland",
        "col1": "20pxKingdom of Galicia-Volhynia",
        "col2": "Polish victory; Mongol invasion repulsed",
        "col3": "*10,000 in Nogai's column"
    },
    {
        "col0": "Third Italian War of Independence",
        "col1": "Austrian Empire",
        "col2": "Italian victory",
        "col3": "*1 Cavalry Division"
    },
    {
        "col0": "Third Encirclement Campaign against the Shaanxi-Gansu Soviet",
        "col1": "60px",
        "col2": "Communistvictory",
        "col3": "100,000+"
    },
    {
        "col0": "Third Encirclement Campaign against the Hubei-Henan-Anhui Soviet",
        "col1": "80px|Flag of the National Revolutionary Army",
        "col2": "Communistvictory",
        "col3": "100,000+"
    },
    {
        "col0": "Third Encirclement Campaign against the Honghu Soviet",
        "col1": "80px|Flag of the National Revolutionary Army",
        "col2": "Communistvictory",
        "col3": "15,000"
    },
    {
        "col0": "Third Encirclement Campaign against Jiangxi Soviet",
        "col1": "60px",
        "col2": "Red Army victory",
        "col3": "30,000+"
    },
    {
        "col0": "Third Crusade",
        "col1": "(Christian opponents:)",
        "col2": "* A truce of three years.",
        "col3": "(Medieval records of army numbers are unreliable)"
    },
    {
        "col0": "Third Battle of the Aisne",
        "col1": "German Empire",
        "col2": "German advance halted after initial gains",
        "col3": "French 6th Army, British IX Corps and later 2 American Divisionsref|The divisions of American Expeditionary Force were double the size of those of the British, French and Germans (with a full strength of around 20,000 each). Due to this fact, they were sometimes referred to as Grandes Divisions (Big Divisions).|group=Note"
    },
    {
        "col0": "Third Battle of Winchester",
        "col1": "CSA (Confederacy)",
        "col2": "Unionvictory",
        "col3": "10-12,000"
    },
    {
        "col0": "Third Battle of Tucson",
        "col1": "Apache",
        "col2": "Spanish victory",
        "col3": "1fort"
    },
    {
        "col0": "Third Battle of Topolobampo",
        "col1": "Constitutionalists",
        "col2": "Huertista victory",
        "col3": "1 gunboat"
    },
    {
        "col0": "Third Battle of Seoul",
        "col1": "*",
        "col2": "Chinese strategic failure",
        "col3": "Commonwealth: 12,269"
    },
    {
        "col0": "Third Battle of San Juan",
        "col1": "22pxSpanish Navy",
        "col2": "Successful Spanish resupply mission",
        "col3": "1auxiliary cruiser"
    },
    {
        "col0": "Third Battle of Puebla",
        "col1": "Mexican Empire",
        "col2": "Mexican republican victory",
        "col3": "~ 6,000 soldiers"
    },
    {
        "col0": "Third Battle of Petersburg",
        "col1": "Confederate States",
        "col2": "*End of theSiege of Petersburgand opening of theAppomattox Campaign",
        "col3": "114,335"
    },
    {
        "col0": "Third Battle of Panipat",
        "col1": "65px|borderDurrani Empire",
        "col2": "DecisiveAfghanvictory",
        "col3": "10,000 reserves"
    },
    {
        "col0": "Third Battle of Nanking",
        "col1": "Qing Dynasty",
        "col2": "Decisive Qing victory",
        "col3": "370,000 defenders + 30,000 hungry weakened troops"
    },
    {
        "col0": "Third Battle of Murfreesboro",
        "col1": "CSA (Confederacy)",
        "col2": "Unionvictory",
        "col3": "7,000"
    },
    {
        "col0": "Third Battle of Manzanillo",
        "col1": "Spain",
        "col2": "* Spanish squadron destroyed",
        "col3": "2 gunboats,"
    },
    {
        "col0": "Third Battle of Krithia",
        "col1": "*",
        "col2": "Ottoman victory",
        "col3": "18,600"
    },
    {
        "col0": "Third Battle of Gaza",
        "col1": "*",
        "col2": "* Ottoman garrison abandons Gaza on 7 November as a result of fighting during theBattle of Tel el Khuweilfeand theBattle of Hareira and Sheria",
        "col3": "10,000/35,913"
    },
    {
        "col0": "Third Battle of Gao",
        "col1": "MOJWA",
        "col2": "Franco-Malian Victory",
        "col3": "1200"
    },
    {
        "col0": "Third Battle of Brega",
        "col1": "*Libyan Army",
        "col2": "*Government forces repel seven rebel attacks on the town with the use of heavy artillery and advance on Ajdabiya",
        "col3": "1,000+ possibly"
    },
    {
        "col0": "Third Battle of Artois",
        "col1": "France",
        "col2": "German victory",
        "col3": "10 Divisions"
    },
    {
        "col0": "Third Anglo-Maratha War",
        "col1": "*23pxEast India Company",
        "col2": "Decisive British Victory",
        "col3": "Over 1,000"
    },
    {
        "col0": "Third Anglo-Dutch War",
        "col1": "Cologne",
        "col2": "*Treaty of Westminster(1674)",
        "col3": "120 warships"
    },
    {
        "col0": "Third Anglo-Afghan War",
        "col1": "*",
        "col2": "* Afghan independence with full sovereignty in foreign affairs.",
        "col3": "50,000-man standing army supported by up to 80,000 tribesmen"
    },
    {
        "col0": "Thermidorian Reaction",
        "col1": "* Sans-culottes",
        "col2": "* End of the \"Reign of Terror\"",
        "col3": "C. 3,000 loyalists"
    },
    {
        "col0": "The Mission of Amr bin Umayyah al-Damri",
        "col1": "MuslimsofMedina",
        "col2": "Failed assassination, but successful escape",
        "col3": "2"
    },
    {
        "col0": "The Hump",
        "col1": "British India",
        "col2": "Allied victory",
        "col3": "*27 aircraft; 1,100 men (May 1942)"
    },
    {
        "col0": "The Hill Fights",
        "col1": "22pxNorth Vietnam",
        "col2": "U.S. victory",
        "col3": "2nd Battalion 3rd Marines"
    },
    {
        "col0": "The Harmony Skirmish",
        "col1": "Confederate States of America",
        "col2": "Inconclusive",
        "col3": "1000"
    },
    {
        "col0": "The Fight at Waterford",
        "col1": "Confederate States of America",
        "col2": "Confederate Victory",
        "col3": "51"
    },
    {
        "col0": "The Burning Raid",
        "col1": "Confederate States of America",
        "col2": "Unionvictory",
        "col3": "3,000"
    },
    {
        "col0": "Tha Din Daeng campaign",
        "col1": "20px|borderBurmese Kingdom",
        "col2": "Siamese Victory",
        "col3": "30,000"
    },
    {
        "col0": "Texas Revolution",
        "col1": "Mexico",
        "col2": "Treaties of Velascoand the formation of theRepublic of Texas",
        "col3": "c. 2,000"
    },
    {
        "col0": "Texas Campaign",
        "col1": "Mexico",
        "col2": "American Victory",
        "col3": "2,400 (May)"
    },
    {
        "col0": "Tet Offensive",
        "col1": "North Vietnam",
        "col2": "Depletion of Viet Cong leading to the use of greater North Vietnamese manpower.",
        "col3": "Phase 1: ~80,000"
    },
    {
        "col0": "Terrorist incidents in Pakistan in 2015",
        "col1": "Pakistan",
        "col2": "Ongoing",
        "col3": "unknown"
    },
    {
        "col0": "Tensho Iga War",
        "col1": "Inhabitants of Iga",
        "col2": "Iga victory, independence maintained",
        "col3": "10,000 or less"
    },
    {
        "col0": "Tenentism",
        "col1": "* Armed civilians",
        "col2": "Loyalist victory, mutiny suppressed.",
        "col3": "1,500 inPrestes Column"
    },
    {
        "col0": "Ten Years' War",
        "col1": "Cuban rebels (Patriots)",
        "col2": "Ante BellumPact of Zanjon",
        "col3": "100,000"
    },
    {
        "col0": "Ten Great Campaigns",
        "col1": "Altishahri followers of theKhojabrothers",
        "col2": "Qing victory",
        "col3": "10,000Bannermen"
    },
    {
        "col0": "Ten Days of Brescia",
        "col1": "25pxAustrian Empire",
        "col2": "Capitulation of Brescia",
        "col3": "Austrian garrison:4 companies & 30 gunsNugent Brigade:2,300 infantry & cavalry4 guns 30-pound Morser-Batterie"
    },
    {
        "col0": "Ten Days' Campaign",
        "col1": "France",
        "col2": "*Dutch failure to suppress theBelgian Revolution",
        "col3": "50,000 men"
    },
    {
        "col0": "Ten-Day War",
        "col1": "*22pxSlovenian Territorial Defence",
        "col2": "*Brioni Accords",
        "col3": "10,000police"
    },
    {
        "col0": "Tell Abyad offensive",
        "col1": "CJTF-OIR",
        "col2": "Major YPG-led victory",
        "col3": "1,500+"
    },
    {
        "col0": "Tawakalna ala Allah Operations",
        "col1": "Iraq",
        "col2": "* Iranian defensive failures",
        "col3": "1,500,000 total soldiers"
    },
    {
        "col0": "Tauranga Campaign",
        "col1": "British army",
        "col2": "British victory",
        "col3": "1700"
    },
    {
        "col0": "Taungoo-Mrauk-U War",
        "col1": "20pxToungoo Dynasty",
        "col2": "Mrauk-U victory, Treaty of Mrauk-U (1547)",
        "col3": "* 20,000+ (Army)"
    },
    {
        "col0": "Taungoo-Hanthawaddy War",
        "col1": "20pxToungoo Kingdom",
        "col2": "Decisive Toungoo victory",
        "col3": "1534-1535 vs. Pegu: 4000"
    },
    {
        "col0": "Taungoo-Ava War",
        "col1": "20pxToungoo",
        "col2": "Decisive Toungoo victory, Treaty of Pegu (1545)",
        "col3": "* 12,000 (Arakan)"
    },
    {
        "col0": "Taungoo-Mrauk-U War",
        "col1": "20pxToungoo Dynasty",
        "col2": "Mrauk-U victory, Treaty of Mrauk-U (1547)",
        "col3": "* 20,000+ (Army)"
    },
    {
        "col0": "Taungoo-Hanthawaddy War",
        "col1": "20pxToungoo Kingdom",
        "col2": "Decisive Toungoo victory",
        "col3": "1534-1535 vs. Pegu: 4000"
    },
    {
        "col0": "Taungoo-Ava War",
        "col1": "20pxToungoo",
        "col2": "Decisive Toungoo victory, Treaty of Pegu (1545)",
        "col3": "* 12,000 (Arakan)"
    },
    {
        "col0": "Tartu Offensive",
        "col1": "*23pxEstonian conscript,",
        "col2": "Soviet victory",
        "col3": "272,800 personnel"
    },
    {
        "col0": "Tapani incident",
        "col1": "Han Taiwanese",
        "col2": "Japanese victory",
        "col3": "1,413"
    },
    {
        "col0": "Tang campaigns against Karasahr",
        "col1": "Karasahr",
        "col2": "*Indo-EuropeanTocharianinfluence in Central Asia declines",
        "col3": "3,000 infantry and cavalry"
    },
    {
        "col0": "Tang campaign against Kucha",
        "col1": "Kucha",
        "col2": "*Kucha captured",
        "col3": "100,000 Tiele horsemen"
    },
    {
        "col0": "Tampico Affair",
        "col1": "Mexico",
        "col2": "United States occupies Veracruz",
        "col3": "9sailors"
    },
    {
        "col0": "Tambov Rebellion",
        "col1": "Green armies",
        "col2": "Bolshevikvictory",
        "col3": "1,000 (September 1921)"
    },
    {
        "col0": "Tallinn Offensive",
        "col1": "*23pxEstonian conscripts,",
        "col2": "Soviet victory",
        "col3": "195,000 troops"
    },
    {
        "col0": "Tajikistani Civil War",
        "col1": "*Democratic reformists",
        "col2": "* \"Comprehensive Peace Agreement\" signed",
        "col3": "Estimated around 100,000-200,000"
    },
    {
        "col0": "Taiyuan Campaign",
        "col1": "60px|Flag of the National Revolutionary Army",
        "col2": "Communistvictory",
        "col3": "10,000 atDatong"
    },
    {
        "col0": "Taixing Campaign",
        "col1": "60px|Flag of the National Revolutionary Army",
        "col2": "Communistvictory",
        "col3": "6,500"
    },
    {
        "col0": "Taiping Rebellion",
        "col1": "*20pxQing dynasty",
        "col2": "*Diminished power of the central court over the provinces",
        "col3": "1,100,000+"
    },
    {
        "col0": "Tahmasp's campaign of 1731",
        "col1": "Ottoman Empire",
        "col2": "Ottoman victory",
        "col3": "18,000"
    },
    {
        "col0": "TA<<tokowaru's War",
        "col1": "*Maoriallies",
        "col2": "Ngati Ruanui withdrawal",
        "col3": "1250"
    },
    {
        "col0": "Son Tay Campaign",
        "col1": "23pxBlack Flag Army",
        "col2": "French victory",
        "col3": "2,000 Chinese soldiers"
    },
    {
        "col0": "Syzran-Samara Operation",
        "col1": "22pxCzechoslovaks",
        "col2": "Red Victory",
        "col3": "about 15,700"
    },
    {
        "col0": "Syria-Lebanon Campaign",
        "col1": "*",
        "col2": "British-Free French victory",
        "col3": "1landing ship"
    },
    {
        "col0": "Syrian Kurdish-Islamist conflict",
        "col1": "(Ras al-'Ayn area)",
        "col2": "* As of the end of 2015, the territory of Rojava increased by nearly three-fold as the result of offensives by the YPG and allies against ISIL.",
        "col3": "ISIL: Over 15,140"
    },
    {
        "col0": "Syria-Lebanon Campaign",
        "col1": "*",
        "col2": "British-Free French victory",
        "col3": "1landing ship"
    },
    {
        "col0": "Sword Beach",
        "col1": "*",
        "col2": "Allied victory",
        "col3": "124-127 tanks"
    },
    {
        "col0": "Swedish-Norwegian War",
        "col1": "Norway",
        "col2": "* Christian Frederik abandoned all claims to the Norwegian crown",
        "col3": "117 field batteries"
    },
    {
        "col0": "Swedish invasion of Russia",
        "col1": "20pxCossack Hetmanate",
        "col2": "*Decline of the Swedish Empire",
        "col3": "192,000"
    },
    {
        "col0": "Swedish intervention in the Thirty Years' War",
        "col1": "(1630-1631)",
        "col2": "** Decentralization of theHoly Roman Empire",
        "col3": "* 10,000 infantry"
    },
    {
        "col0": "Swedish War of Liberation",
        "col1": "Free City of Lubeck(from 1522)",
        "col2": "Treaty of Malmo: Regained Swedish independence, dissolution ofKalmar Union, Sweden renounced its claims toScaniaandBlekinge.",
        "col3": "12,000"
    },
    {
        "col0": "Swedish Intervention in the Winter War",
        "col1": "Hungary",
        "col2": "End of the Winter War with theMoscow Peace Treaty",
        "col3": "1,010"
    },
    {
        "col0": "Swedish-Norwegian War",
        "col1": "Norway",
        "col2": "* Christian Frederik abandoned all claims to the Norwegian crown",
        "col3": "117 field batteries"
    },
    {
        "col0": "Swatow Operation",
        "col1": "*",
        "col2": "Japanese victory; Japanese force occupiedShantouandChaozhou",
        "col3": "38,400"
    },
    {
        "col0": "Sviatoslav's invasion of Bulgaria",
        "col1": "Bulgaria",
        "col2": "Byzantinevictory over the Rus', formal annexation of Bulgaria, afifty years Byzantine-Bulgarian waruntil the fall of Bulgaria in 1018",
        "col3": "60,000+ men"
    },
    {
        "col0": "Sveaborg rebellion",
        "col1": "25pxDefense Corps",
        "col2": "Imperial Russian Army victory; uprising suppressed",
        "col3": "25px2000"
    },
    {
        "col0": "Suruga-Sagami Conflict",
        "col1": "forces ofHojo UjiyasuandUesugi Kenshin",
        "col2": "Imagawa/Takedavictory.",
        "col3": "15,000"
    },
    {
        "col0": "Surrender at Perevolochna",
        "col1": "23pxSwedish Empire",
        "col2": "No fighting, Swedish surrender",
        "col3": "12,000"
    },
    {
        "col0": "Summer Offensive of 1947 in Northeast China",
        "col1": "60px|Flag of the National Revolutionary Army",
        "col2": "Communistvictory",
        "col3": "460,000"
    },
    {
        "col0": "Summer 2011 Jabal al-Zawiya operation",
        "col1": "*Opposition protesters",
        "col2": "Protests suppressed",
        "col3": "3,000 fighters and protesters"
    },
    {
        "col0": "Sukhumi massacre",
        "col1": "22px|borderAbkhaz separatists",
        "col2": "Ethnic cleansing of the Georgian population",
        "col3": "one battalion"
    },
    {
        "col0": "Suiyuan Campaign",
        "col1": "22x20px|borderMongol Military Government",
        "col2": "Nationalist Chinese victory",
        "col3": "22x20px|border30 Japanese advisors"
    },
    {
        "col0": "Suez Crisis",
        "col1": "Egypt",
        "col2": "'s position as French Prime Minister heavily damaged",
        "col3": "175,000"
    },
    {
        "col0": "Sudan Air Campaign",
        "col1": "South Sudan",
        "col2": "Incumbent",
        "col3": "10 helicopters"
    },
    {
        "col0": "Suchan Valley Campaign",
        "col1": "Russian SFSR",
        "col2": "American victory",
        "col3": "3,520 troops"
    },
    {
        "col0": "Stratsin-Kumanovo operation",
        "col1": "22px|border|BulgariaBulgaria",
        "col2": "Allied victory",
        "col3": "21st SS Skanderbeg, parachute division, 100 guns and mortars, 35 - 40 tanks and others"
    },
    {
        "col0": "Storming of the Bastille",
        "col1": "Gardes francaises",
        "col2": "Bastillecaptured, rebellion begins",
        "col3": "114 soldiers, 30 artillery pieces"
    },
    {
        "col0": "Storming of Lankaran",
        "col1": "22pxPersian Empire",
        "col2": "Russian victory",
        "col3": "* 131 non-commissioned officers"
    },
    {
        "col0": "Storming of Freiburg",
        "col1": "2nd Division of the VIII Army Corps of the German Confederation with units from:",
        "col2": "Freiburg is occupied by federal troops",
        "col3": "1,200"
    },
    {
        "col0": "Storming of Derbent",
        "col1": "23pxPersian Empire",
        "col2": "Russian victory",
        "col3": "10,000 soldiers."
    },
    {
        "col0": "Storming of Bristol",
        "col1": "Parliamentarians",
        "col2": "Decisive Royalist victory",
        "col3": "1,500 foot"
    }
]