[
    {
        "col0": "Z. Lesniowska",
        "col1": "1943",
        "col2": "1943-7-4",
        "col3": "Poland"
    },
    {
        "col0": "Z. Peiyuan",
        "col1": "1934",
        "col2": "1934-1-1",
        "col3": "20px|Flag of the Republic of ChinaRepublic of China"
    },
    {
        "col0": "Z. Guoliang",
        "col1": "1849",
        "col2": "1860-4-1",
        "col3": "Qing Dynasty"
    },
    {
        "col0": "Z. Yoshida",
        "col1": "1945",
        "col2": "1966-11-14",
        "col3": "Empire of Japan"
    },
    {
        "col0": "Z. Fengnian",
        "col1": "1863",
        "col2": "1885-0-0",
        "col3": "25pxQing dynasty"
    },
    {
        "col0": "Z. Bliss",
        "col1": "1854",
        "col2": "1900-1-2",
        "col3": "Union"
    },
    {
        "col0": "Z. York",
        "col1": "1861",
        "col2": "1900-8-5",
        "col3": "*"
    },
    {
        "col0": "Z. B. Tower",
        "col1": "1883",
        "col2": "1900-3-20",
        "col3": "Union"
    },
    {
        "col0": "Z. D. Olsufiev",
        "col1": "1820",
        "col2": "1835-3-20",
        "col3": "Russian Empire"
    },
    {
        "col0": "Z. I. Abbasi",
        "col1": "1995",
        "col2": "2009-7-30",
        "col3": "Pakistan"
    },
    {
        "col0": "Z. Mudge",
        "col1": "1815",
        "col2": "1852-10-22",
        "col3": "Great Britain"
    },
    {
        "col0": "Z. Hickes",
        "col1": "1771",
        "col2": "1771-5-25",
        "col3": "Kingdom of Great Britain"
    },
    {
        "col0": "Z. T. Woodall",
        "col1": "1899",
        "col2": "1899-9-12",
        "col3": "United Statesof America"
    },
    {
        "col0": "Z. C. Neahr",
        "col1": "1865",
        "col2": "1903-7-21",
        "col3": "*"
    },
    {
        "col0": "Z. C. Deas",
        "col1": "1861",
        "col2": "1882-3-6",
        "col3": "Confederate States of America"
    },
    {
        "col0": "Z. Kaia",
        "col1": "1949",
        "col2": "1949-12-12",
        "col3": "Republic of the Union of Myanmar"
    },
    {
        "col0": "Y. Rudellat",
        "col1": "1945",
        "col2": "1945-4-23",
        "col3": "France"
    },
    {
        "col0": "Y. Godard",
        "col1": "1961",
        "col2": "1975-3-3",
        "col3": "France"
    },
    {
        "col0": "Y. F. Barbaza",
        "col1": "1918",
        "col2": "1971-2-26",
        "col3": "France"
    },
    {
        "col0": "Y. Hiraga",
        "col1": "1943",
        "col2": "1943-2-13",
        "col3": "Empire of Japan"
    },
    {
        "col0": "Y. Gilsher",
        "col1": "1917",
        "col2": "1917-7-20",
        "col3": "Russian Empire"
    },
    {
        "col0": "Y. Tyutyunnyk",
        "col1": "1921",
        "col2": "1930-10-20",
        "col3": "Russian Empire(1904-1917)"
    },
    {
        "col0": "Y. Budanov",
        "col1": "1987",
        "col2": "2011-6-10",
        "col3": "Russia"
    },
    {
        "col0": "Y. Nasu",
        "col1": "1942",
        "col2": "1942-10-26",
        "col3": "Empire of Japan"
    },
    {
        "col0": "Y. Okutsu",
        "col1": "1945",
        "col2": "2003-8-24",
        "col3": "United States of America"
    },
    {
        "col0": "Y. Kasahara",
        "col1": "1945",
        "col2": "1988-1-2",
        "col3": "Empire of Japan"
    },
    {
        "col0": "Y. Fei",
        "col1": "1142",
        "col2": "1142-1-27",
        "col3": "Song dynasty"
    },
    {
        "col0": "Y. R. Villegas",
        "col1": "1945",
        "col2": "1945-3-20",
        "col3": "United States of America"
    },
    {
        "col0": "Y. Kolahdouz",
        "col1": "1979",
        "col2": "1981-9-30",
        "col3": "Iran"
    },
    {
        "col0": "Y. Kawashima",
        "col1": "1936",
        "col2": "1945-9-8",
        "col3": "Empire of Japan"
    },
    {
        "col0": "Y. Tatekawa",
        "col1": "1945",
        "col2": "1945-9-9",
        "col3": "Empire of Japan"
    },
    {
        "col0": "Y. Tokugawa",
        "col1": "1945",
        "col2": "1963-4-17",
        "col3": "Empire of Japan"
    },
    {
        "col0": "Y. Nishida",
        "col1": "1944",
        "col2": "1944-2-21",
        "col3": "Empire of Japan"
    },
    {
        "col0": "Y. Minami",
        "col1": "1944",
        "col2": "1944-11-25",
        "col3": "Empire of Japan"
    },
    {
        "col0": "Y. Umezu",
        "col1": "1945",
        "col2": "1949-1-8",
        "col3": "Empire of Japan"
    },
    {
        "col0": "Y. Hayashi",
        "col1": "1945",
        "col2": "1978-2-5",
        "col3": "Empire of Japan"
    },
    {
        "col0": "Y. Beekman",
        "col1": "1944",
        "col2": "1944-9-13",
        "col3": "United Kingdom,France"
    },
    {
        "col0": "Y. Ekstrand",
        "col1": "1951",
        "col2": "1951-3-30",
        "col3": "Sweden"
    },
    {
        "col0": "Y. Amir",
        "col1": "1969",
        "col2": "2002-11-1",
        "col3": "Israel Defense Forces"
    },
    {
        "col0": "Y. Konovalets",
        "col1": "1915",
        "col2": "1938-5-23",
        "col3": "Ukrainian National Republic"
    },
    {
        "col0": "Y. Kruten",
        "col1": "1917",
        "col2": "1917-6-6",
        "col3": "Russian Empire"
    },
    {
        "col0": "Y. Shapovalov",
        "col1": "1955",
        "col2": "1977-11-8",
        "col3": "USSR"
    },
    {
        "col0": "Y. I. Markov",
        "col1": "1814",
        "col2": "1828-9-20",
        "col3": "Russia,"
    },
    {
        "col0": "Y. Khan",
        "col1": "1912",
        "col2": "1912-5-19",
        "col3": "22pxQajar dynasty"
    },
    {
        "col0": "Y. Adam",
        "col1": "1982",
        "col2": "1982-6-10",
        "col3": "Israel"
    },
    {
        "col0": "Y. Budanova",
        "col1": "1943",
        "col2": "1943-7-19",
        "col3": "Soviet Union"
    },
    {
        "col0": "Y. Kobashigawa",
        "col1": "1945",
        "col2": "2005-3-31",
        "col3": "United States of America"
    },
    {
        "col0": "Y. Zettler",
        "col1": "1948",
        "col2": "2009-0-0",
        "col3": "(1931-1933)"
    },
    {
        "col0": "Y. Trotsenko",
        "col1": "1965",
        "col2": "1972-1-25",
        "col3": "23pxSoviet Russia(1918-1922)"
    },
    {
        "col0": "Y. Okamura",
        "col1": "1945",
        "col2": "1966-9-2",
        "col3": "Empire of Japan"
    },
    {
        "col0": "Y. Rokuro",
        "col1": "1925",
        "col2": "1930-6-30",
        "col3": "Empire of Japan"
    },
    {
        "col0": "Y. Makriyannis",
        "col1": "1864",
        "col2": "1864-4-27",
        "col3": "Greece"
    },
    {
        "col0": "Y. Sinuhe",
        "col1": "1869",
        "col2": "1869-6-20",
        "col3": "Edo Shogunate"
    },
    {
        "col0": "Y. Tanin",
        "col1": "1922",
        "col2": "1940-9-10",
        "col3": "Empire of Japan"
    },
    {
        "col0": "Y. Gentaro",
        "col1": "1928",
        "col2": "1931-2-18",
        "col3": "Empire of Japan"
    },
    {
        "col0": "Y. Hanzo",
        "col1": "1927",
        "col2": "1944-7-2",
        "col3": "Empire of Japan"
    },
    {
        "col0": "Y. Motoharu",
        "col1": "1897",
        "col2": "1897-10-3",
        "col3": "Empire of Japan"
    },
    {
        "col0": "Y. Somko",
        "col1": "1664",
        "col2": "1663-9-28",
        "col3": "21pxZaporozhian Host(to 1660)"
    },
    {
        "col0": "Y. Smushkevich",
        "col1": "1941",
        "col2": "1941-10-28",
        "col3": "Red Army(1918--1941)"
    },
    {
        "col0": "Y. Kreizer",
        "col1": "1921",
        "col2": "1969-11-29",
        "col3": "Soviet Union"
    },
    {
        "col0": "Y. Dashevsky",
        "col1": "1965",
        "col2": "1972-2-8",
        "col3": "Soviet Union"
    },
    {
        "col0": "Y. Cherevichenko",
        "col1": "1917",
        "col2": "1976-7-4",
        "col3": "23pxSoviet Russia"
    },
    {
        "col0": "Y. Alksnis",
        "col1": "1938",
        "col2": "1938-7-28",
        "col3": "(1919-1938)"
    },
    {
        "col0": "Y. Agranov",
        "col1": "1938",
        "col2": "1938-8-1",
        "col3": "Soviet Union"
    },
    {
        "col0": "Y. Dori",
        "col1": "1949",
        "col2": "1973-1-22",
        "col3": "(British Army)"
    },
    {
        "col0": "X. Yongchang",
        "col1": "1959",
        "col2": "1959-1-1",
        "col3": "20px|Flag of the Republic of ChinaRepublic of China"
    },
    {
        "col0": "X. Rong",
        "col1": "1856",
        "col2": "1856-8-9",
        "col3": "Qing Dynasty"
    },
    {
        "col0": "X. Aranitasi",
        "col1": "19",
        "col2": "1961-3-13",
        "col3": "Royal Albanian Army"
    },
    {
        "col0": "X. Hasa",
        "col1": "1945",
        "col2": "1945-5-6",
        "col3": "Albania(under Fascist Italy & Nazi Germany)"
    },
    {
        "col0": "X. Stratigos",
        "col1": "1917",
        "col2": "1927-3-11",
        "col3": "Kingdom of Greece"
    }
]