[
    {
        "col0": "Agathis macrophylla",
        "col1": "Araucariaceae",
        "col2": "LR/nt",
        "col3": "IUCN2.3"
    },
    {
        "col0": "Agathis lenticula",
        "col1": "Araucariaceae",
        "col2": "VU",
        "col3": "IUCN3.1"
    },
    {
        "col0": "Agathis lanceolata",
        "col1": "Araucariaceae",
        "col2": "LR/cd",
        "col3": "IUCN2.3"
    },
    {
        "col0": "Agathis labillardieri",
        "col1": "Araucariaceae",
        "col2": "NT",
        "col3": "IUCN3.1"
    },
    {
        "col0": "Agathis kinabaluensis",
        "col1": "Araucariaceae",
        "col2": "EN",
        "col3": "IUCN3.1"
    },
    {
        "col0": "Agathis flavescens",
        "col1": "Araucariaceae",
        "col2": "VU",
        "col3": "IUCN3.1"
    },
    {
        "col0": "Agathis endertii",
        "col1": "Araucariaceae",
        "col2": "LR/nt",
        "col3": "IUCN2.3"
    },
    {
        "col0": "Agathis dammara",
        "col1": "Araucariaceae",
        "col2": "NE",
        "col3": "IUCN3.1"
    },
    {
        "col0": "Agathis corbassonii",
        "col1": "Araucariaceae",
        "col2": "VU",
        "col3": "IUCN2.3"
    },
    {
        "col0": "Agathis australis",
        "col1": "Araucariaceae",
        "col2": "LR/cd",
        "col3": "iucn2.3"
    },
    {
        "col0": "Agathis atropurpurea",
        "col1": "Araucariaceae",
        "col2": "LR/nt",
        "col3": "IUCN2.3"
    },
    {
        "col0": "Afrocarpus usambarensis",
        "col1": "Podocarpaceae",
        "col2": "VU",
        "col3": "IUCN3.1"
    },
    {
        "col0": "Afrocarpus mannii",
        "col1": "Podocarpaceae",
        "col2": "VU",
        "col3": "iucn2.3"
    },
    {
        "col0": "Afrocarpus gracilior",
        "col1": "Podocarpaceae",
        "col2": "LC",
        "col3": "iucn3.1"
    },
    {
        "col0": "Afrocarpus gaussenii",
        "col1": "Podocarpaceae",
        "col2": "DD",
        "col3": "IUCN2.3"
    },
    {
        "col0": "Afrocarpus falcatus",
        "col1": "Podocarpaceae",
        "col2": "LC",
        "col3": "iucn3.1"
    },
    {
        "col0": "Afrocarpus dawei",
        "col1": "Podocarpaceae",
        "col2": "NT",
        "col3": "iucn3.1"
    },
    {
        "col0": "Actinostrobus pyramidalis",
        "col1": "Cupressaceae",
        "col2": "LR/nt",
        "col3": "IUCN2.3"
    },
    {
        "col0": "Actinostrobus arenarius",
        "col1": "Cupressaceae",
        "col2": "LC",
        "col3": "iucn2.3"
    },
    {
        "col0": "Actinostrobus acuminatus",
        "col1": "Cupressaceae",
        "col2": "LC",
        "col3": "IUCN2.3"
    },
    {
        "col0": "Acmopyle sahniana",
        "col1": "Podocarpaceae",
        "col2": "CR",
        "col3": "IUCN3.1"
    },
    {
        "col0": "Acmopyle pancheri",
        "col1": "Podocarpaceae",
        "col2": "LR/nt",
        "col3": "IUCN2.3"
    },
    {
        "col0": "Abies ziyuanensis",
        "col1": "Pinaceae",
        "col2": "EN",
        "col3": "IUCN3.1"
    },
    {
        "col0": "Abies yuanbaoshanensis",
        "col1": "Pinaceae",
        "col2": "CR",
        "col3": "IUCN3.1"
    },
    {
        "col0": "Abies vejarii",
        "col1": "Pinaceae",
        "col2": "nt",
        "col3": "iucn3.1"
    },
    {
        "col0": "Abies veitchii",
        "col1": "Pinaceae",
        "col2": "lc",
        "col3": "iucn3.1"
    },
    {
        "col0": "Abies squamata",
        "col1": "Pinaceae",
        "col2": "VU",
        "col3": "IUCN2.3"
    },
    {
        "col0": "Abies spectabilis",
        "col1": "Pinaceae",
        "col2": "NT",
        "col3": "iucn3.1"
    },
    {
        "col0": "Abies sibirica",
        "col1": "Pinaceae",
        "col2": "lc",
        "col3": "iucn3.1"
    },
    {
        "col0": "Abies sachalinensis",
        "col1": "Pinaceae",
        "col2": "lc",
        "col3": "iucn3.1"
    },
    {
        "col0": "Abies religiosa",
        "col1": "Pinaceae",
        "col2": "lc",
        "col3": "iucn3.1"
    },
    {
        "col0": "Abies recurvata",
        "col1": "Pinaceae",
        "col2": "vu",
        "col3": "iucn3.1"
    },
    {
        "col0": "Abies procera",
        "col1": "Pinaceae",
        "col2": "lc",
        "col3": "IUCN3.1"
    },
    {
        "col0": "Abies pinsapo",
        "col1": "Pinaceae",
        "col2": "VU",
        "col3": "IUCN2.3"
    },
    {
        "col0": "Abies pindrow",
        "col1": "Pinaceae",
        "col2": "lc",
        "col3": "iucn3.1"
    },
    {
        "col0": "Abies numidica",
        "col1": "Pinaceae",
        "col2": "CR",
        "col3": "IUCN3.1"
    },
    {
        "col0": "Abies nordmanniana",
        "col1": "Pinaceae",
        "col2": "lc",
        "col3": "iucn3.1"
    },
    {
        "col0": "Abies nephrolepis",
        "col1": "Pinaceae",
        "col2": "lc",
        "col3": "iucn3.1"
    },
    {
        "col0": "Abies nebrodensis",
        "col1": "Pinaceae",
        "col2": "CR",
        "col3": "IUCN3.1"
    },
    {
        "col0": "Abies mariesii",
        "col1": "Pinaceae",
        "col2": "lc",
        "col3": "iucn3.1"
    },
    {
        "col0": "Abies magnifica",
        "col1": "Pinaceae",
        "col2": "lc",
        "col3": "IUCN3.1"
    },
    {
        "col0": "Abies lasiocarpa",
        "col1": "Pinaceae",
        "col2": "LC",
        "col3": "iucn3.1"
    },
    {
        "col0": "Abies koreana",
        "col1": "Pinaceae",
        "col2": "EN",
        "col3": "IUCN3.1"
    },
    {
        "col0": "Abies kawakamii",
        "col1": "Pinaceae",
        "col2": "LR/nt",
        "col3": "IUCN2.3"
    },
    {
        "col0": "Abies homolepis",
        "col1": "Pinaceae",
        "col2": "nt",
        "col3": "iucn3.1"
    },
    {
        "col0": "Abies holophylla",
        "col1": "Pinaceae",
        "col2": "nt",
        "col3": "IUCN3.1"
    },
    {
        "col0": "Abies hidalgensis",
        "col1": "Pinaceae",
        "col2": "VU",
        "col3": "iucn3.1"
    },
    {
        "col0": "Abies hickelii",
        "col1": "Pinaceae",
        "col2": "VU",
        "col3": "IUCN2.3"
    },
    {
        "col0": "Abies guatemalensis",
        "col1": "Pinaceae",
        "col2": "EN",
        "col3": "iucn3.1"
    },
    {
        "col0": "Abies grandis",
        "col1": "Pinaceae",
        "col2": "lc",
        "col3": "IUCN3.1"
    },
    {
        "col0": "Abies forrestii",
        "col1": "Pinaceae",
        "col2": "lc",
        "col3": "IUCN3.1"
    },
    {
        "col0": "Abies firma",
        "col1": "Pinaceae",
        "col2": "lc",
        "col3": "IUCN3.1"
    },
    {
        "col0": "Abies fargesii",
        "col1": "Pinaceae",
        "col2": "lc",
        "col3": "IUCN3.1"
    },
    {
        "col0": "Abies fanjingshanensis",
        "col1": "Pinaceae",
        "col2": "EN",
        "col3": "IUCN3.1"
    }
]