[
    {
        "col0": "Carrier Strike Group 3",
        "col1": "SH-60 Seahawk",
        "col2": "F/A-18 Hornet",
        "col3": "Grumman C-2 Greyhound",
        "col4": "Naval Base Kitsap"
    },
    {
        "col0": "Carrier Strike Group 2",
        "col1": "SH-60 Seahawk",
        "col2": "F/A-18 Hornet",
        "col3": "Grumman C-2 Greyhound",
        "col4": "Virginia"
    },
    {
        "col0": "Carrier Strike Group 12",
        "col1": "SH-60 Seahawk",
        "col2": "F/A-18 Hornet",
        "col3": "Grumman C-2 Greyhound",
        "col4": "Naval Station Norfolk"
    },
    {
        "col0": "Carrier Strike Group 11",
        "col1": "SH-60 Seahawk",
        "col2": "F/A-18 Hornet",
        "col3": "Grumman C-2 Greyhound",
        "col4": "Naval Station Everett"
    },
    {
        "col0": "Carrier Strike Group 10",
        "col1": "SH-60 Seahawk",
        "col2": "F/A-18 Hornet",
        "col3": "Grumman C-2 Greyhound",
        "col4": "Naval Station Norfolk"
    },
    {
        "col0": "Carrier Strike Group 1",
        "col1": "Sikorsky SH-60 Seahawk",
        "col2": "F/A-18 Hornet",
        "col3": "Grumman C-2 Greyhound",
        "col4": "Naval Air Station North Island"
    },
    {
        "col0": "California Air National Guard",
        "col1": "HH-60G Pave Hawk",
        "col2": "F-16C/D Fighting Falcon",
        "col3": "MC-130P Combat Shadow",
        "col4": "California Military Department"
    },
    {
        "col0": "Bangladesh Air Force",
        "col1": "Bell 206",
        "col2": "Mikoyan MiG-29",
        "col3": "Antonov An-32",
        "col4": "Dhaka Cantonment"
    },
    {
        "col0": "Air National Guard",
        "col1": "HH-60 Pave Hawk",
        "col2": "F-15 Eagle",
        "col3": "C-17 Globemaster III",
        "col4": "The Pentagon"
    },
    {
        "col0": "6th Air Army",
        "col1": "Mi-24",
        "col2": "Su-27",
        "col3": "Mil Mi-8",
        "col4": "Sankt-Peterburg"
    },
    {
        "col0": "1 Canadian Air Division",
        "col1": "CH-47 Chinook",
        "col2": "CF-188 Hornet",
        "col3": "De Havilland Canada DHC-5 Buffalo",
        "col4": "CFB Winnipeg"
    }
]