[
    {
        "col0": "Y. Snigir",
        "col1": "Russians",
        "col2": "1983-06-02",
        "col3": "1983-06-02",
        "col4": "2006-present"
    },
    {
        "col0": "Y. L. Bon",
        "col1": "United Kingdom",
        "col2": "1964-10-29",
        "col3": "1964-10-29",
        "col4": "1985-present"
    },
    {
        "col0": "V. Hessler",
        "col1": "Italian people",
        "col2": "1988-01-21",
        "col3": "1988-01-21",
        "col4": "2005-present"
    },
    {
        "col0": "V. Hegelmaier",
        "col1": "Germany",
        "col2": "1987-06-18",
        "col3": "1987-06-18",
        "col4": "2008-"
    },
    {
        "col0": "V. Kapoor",
        "col1": "Indian people",
        "col2": "1988-08-23",
        "col3": "1988-08-23",
        "col4": "2010-present"
    },
    {
        "col0": "T. Holliday",
        "col1": "United States",
        "col2": "1985-07-05",
        "col3": "1985-07-05",
        "col4": "2010-present"
    },
    {
        "col0": "S. Y. Ali",
        "col1": "United Kingdom",
        "col2": "1982-09-15",
        "col3": "1982-09-15",
        "col4": "2010-present"
    },
    {
        "col0": "S. Shaik",
        "col1": "Australians",
        "col2": "1991-02-11",
        "col3": "1991-02-11",
        "col4": "2008-present"
    },
    {
        "col0": "S. Sampaio",
        "col1": "Portuguese people",
        "col2": "1991-07-21",
        "col3": "1991-07-21",
        "col4": "2007-present"
    },
    {
        "col0": "R. Mercado",
        "col1": "United States",
        "col2": "1980-03-28",
        "col3": "1980-03-28",
        "col4": "2009-present"
    },
    {
        "col0": "R. Garise",
        "col1": "Zimbabwe",
        "col2": "1986-01-18",
        "col3": "1986-01-18",
        "col4": "2004-"
    },
    {
        "col0": "R. Vij",
        "col1": "India",
        "col2": "1998-12-14",
        "col3": "1998-12-14",
        "col4": "2013- Present"
    },
    {
        "col0": "Patricia van der Vliet",
        "col1": "Netherlands",
        "col2": "1989-07-14",
        "col3": "1989-07-14",
        "col4": "2008-"
    },
    {
        "col0": "P. Summers",
        "col1": "United States",
        "col2": "1976-07-21",
        "col3": "1976-07-21",
        "col4": "1994-2003"
    },
    {
        "col0": "N. Dunsdon",
        "col1": "Canadians",
        "col2": "1970-1-1",
        "col3": "1970-1-1",
        "col4": "1995-present"
    },
    {
        "col0": "N. McLean",
        "col1": "Scotland",
        "col2": "1984-04-21",
        "col3": "1984-04-21",
        "col4": "1999-present"
    },
    {
        "col0": "N. Zaim",
        "col1": "United States",
        "col2": "1978-02-19",
        "col3": "1978-02-19",
        "col4": "2005- present"
    },
    {
        "col0": "N. Preizler",
        "col1": "Argentine",
        "col2": "1991-10-12",
        "col3": "1991-10-12",
        "col4": "2006-present"
    },
    {
        "col0": "N. Hutagalung",
        "col1": "Indonesian Australian",
        "col2": "1974-07-28",
        "col3": "1974-07-28",
        "col4": "1995 - present"
    },
    {
        "col0": "M. S. Maria",
        "col1": "Filipinos",
        "col2": "1991-07-13",
        "col3": "1991-07-13",
        "col4": "2015-present"
    },
    {
        "col0": "M. Khanna",
        "col1": "India",
        "col2": "1986-08-07",
        "col3": "1986-08-07",
        "col4": "2010-present"
    },
    {
        "col0": "M. Bayon",
        "col1": "Mexican people",
        "col2": "1991-02-14",
        "col3": "1991-02-14",
        "col4": "2009-"
    },
    {
        "col0": "L. Lamers",
        "col1": "Netherlands",
        "col2": "1995-0-0",
        "col3": "1995-0-0",
        "col4": "2015-present"
    },
    {
        "col0": "L. Kennedy",
        "col1": "Japan",
        "col2": "1989-07-05",
        "col3": "1989-07-05",
        "col4": "2004-present"
    },
    {
        "col0": "K. Knox",
        "col1": "England",
        "col2": "1984-1-1",
        "col3": "1984-1-1",
        "col4": "2008-present"
    },
    {
        "col0": "K. L. Richards",
        "col1": "United Kingdom",
        "col2": "1994-10-26",
        "col3": "1994-10-26",
        "col4": "2012-present"
    },
    {
        "col0": "K. Singh",
        "col1": "India",
        "col2": "1988-11-20",
        "col3": "1988-11-20",
        "col4": "2010 - Present"
    },
    {
        "col0": "K. Seung-hyun",
        "col1": "Koreans",
        "col2": "1987-09-22",
        "col3": "1987-09-22",
        "col4": "2008-present"
    },
    {
        "col0": "J. Amornkuldilok",
        "col1": "Thai people",
        "col2": "1985-12-18",
        "col3": "1985-12-18",
        "col4": "2013-present"
    },
    {
        "col0": "J. S. Schaefer",
        "col1": "Turkey",
        "col2": "1984-02-09",
        "col3": "1984-02-09",
        "col4": "1999-present"
    },
    {
        "col0": "J. Miles",
        "col1": "Canadians",
        "col2": "1988-1-1",
        "col3": "1988-1-1",
        "col4": "2012-present"
    },
    {
        "col0": "I. Sharipova",
        "col1": "Russia",
        "col2": "1992-02-07",
        "col3": "1992-02-07",
        "col4": "2012-present"
    },
    {
        "col0": "I. Lamy",
        "col1": "Swedish people",
        "col2": "1947-8-5",
        "col3": "1947-8-5",
        "col4": "1968-"
    },
    {
        "col0": "H. Chan",
        "col1": "Hong Kong",
        "col2": "1989-07-06",
        "col3": "1989-07-06",
        "col4": "2012-present"
    },
    {
        "col0": "H. Sams",
        "col1": "England",
        "col2": "1986-03-21",
        "col3": "1986-03-21",
        "col4": "2008-2014"
    },
    {
        "col0": "H. Clauson",
        "col1": "United States",
        "col2": "1995-03-07",
        "col3": "1995-03-07",
        "col4": "2009-present"
    },
    {
        "col0": "E. Riccobono",
        "col1": "Italian people",
        "col2": "1983-02-07",
        "col3": "1983-02-07",
        "col4": "Actress (2005-present)"
    },
    {
        "col0": "E. Olumide",
        "col1": "United Kingdom",
        "col2": "1987-10-06",
        "col3": "1987-10-06",
        "col4": "2002-present"
    }
]