[
    {
        "col0": "Racine, Wisconsin",
        "col1": "195041",
        "col2": "48380000",
        "col3": "8287961",
        "col4": "-5"
    },
    {
        "col0": "Pittsburgh",
        "col1": "2360867",
        "col2": "150996306",
        "col3": "7251966",
        "col4": "-4"
    },
    {
        "col0": "Philadelphia",
        "col1": "6051170",
        "col2": "366742316",
        "col3": "19400000",
        "col4": "-4"
    },
    {
        "col0": "Oslo",
        "col1": "1717900",
        "col2": "480760000",
        "col3": "26680000",
        "col4": "1"
    },
    {
        "col0": "New Orleans",
        "col1": "1262888",
        "col2": "906495838",
        "col3": "468787847",
        "col4": "-5"
    },
    {
        "col0": "Minneapolis",
        "col1": "3524583",
        "col2": "151255305",
        "col3": "9064958",
        "col4": "-5"
    },
    {
        "col0": "Miami",
        "col1": "5564635",
        "col2": "143148642",
        "col3": "50737867",
        "col4": "-4"
    },
    {
        "col0": "Macon, Georgia",
        "col1": "231259",
        "col2": "660783666",
        "col3": "1294994",
        "col4": "-4"
    },
    {
        "col0": "Los Angeles",
        "col1": "13131431",
        "col2": "1302000000",
        "col3": "88000000",
        "col4": "-7"
    },
    {
        "col0": "Lake Charles, Louisiana",
        "col1": "194138",
        "col2": "116031467",
        "col3": "6992967",
        "col4": "-5"
    },
    {
        "col0": "Lagos",
        "col1": "21000000",
        "col2": "1171280000",
        "col3": "171680000",
        "col4": "1"
    },
    {
        "col0": "Lafayette, Louisiana",
        "col1": "490488",
        "col2": "127427415",
        "col3": "258998",
        "col4": "-5"
    },
    {
        "col0": "Houston",
        "col1": "6313158",
        "col2": "1625200000",
        "col3": "72260668",
        "col4": "-5"
    },
    {
        "col0": "Honolulu",
        "col1": "953207",
        "col2": "177200000",
        "col3": "20500000",
        "col4": "-10"
    },
    {
        "col0": "Grand Rapids, Michigan",
        "col1": "1038583",
        "col2": "117248761",
        "col3": "2250000",
        "col4": "-4"
    },
    {
        "col0": "Fort Lauderdale, Florida",
        "col1": "5762717",
        "col2": "99900000",
        "col3": "9900000",
        "col4": "-4"
    },
    {
        "col0": "Evansville, Indiana",
        "col1": "314280",
        "col2": "115565269",
        "col3": "1217294",
        "col4": "-5"
    },
    {
        "col0": "Eugene, Oregon",
        "col1": "362895",
        "col2": "113286079",
        "col3": "50000",
        "col4": "-7"
    },
    {
        "col0": "Denver",
        "col1": "2814330",
        "col2": "401448157",
        "col3": "4143980",
        "col4": "-06:00"
    },
    {
        "col0": "Denison, Texas",
        "col1": "120877",
        "col2": "59300000",
        "col3": "776996",
        "col4": "-5"
    },
    {
        "col0": "Delhi",
        "col1": "21753486",
        "col2": "1484000000",
        "col3": "17870917",
        "col4": "5"
    }
]