[
    {
        "col0": "Utica, New York",
        "col1": "United States Democratic Party",
        "col2": "1",
        "col3": "138"
    },
    {
        "col0": "Tampa, Florida",
        "col1": "B. Buckhorn",
        "col2": "1",
        "col3": "14"
    },
    {
        "col0": "St. Louis",
        "col1": "F. G. Slay",
        "col2": "1",
        "col3": "142"
    },
    {
        "col0": "San Juan, Puerto Rico",
        "col1": "C. Y. Cruz",
        "col2": "1",
        "col3": "7"
    },
    {
        "col0": "Rochester, New York",
        "col1": "L. Warren",
        "col2": "1",
        "col3": "153"
    },
    {
        "col0": "Racine, Wisconsin",
        "col1": "J. Dickert",
        "col2": "1",
        "col3": "188"
    },
    {
        "col0": "Ponce, Puerto Rico",
        "col1": "M. Melendez",
        "col2": "1",
        "col3": "15"
    },
    {
        "col0": "Philadelphia",
        "col1": "J. Kenney",
        "col2": "1",
        "col3": "11"
    },
    {
        "col0": "Penang",
        "col1": "L. G. Eng",
        "col2": "1",
        "col3": "735"
    },
    {
        "col0": "Penang",
        "col1": "L. G. Eng",
        "col2": "1",
        "col3": "735"
    },
    {
        "col0": "New Orleans",
        "col1": "M. Landrieu",
        "col2": "1",
        "col3": "-2"
    },
    {
        "col0": "Minneapolis",
        "col1": "B. Hodges",
        "col2": "1",
        "col3": "252"
    },
    {
        "col0": "Macon, Georgia",
        "col1": "R. Reichert",
        "col2": "1",
        "col3": "116"
    },
    {
        "col0": "Kuala Lumpur",
        "col1": "Mhd Amin Nordin Abdul Aziz",
        "col2": "1",
        "col3": "66"
    },
    {
        "col0": "Kolkata",
        "col1": "R. Mallik",
        "col2": "1",
        "col3": "9"
    },
    {
        "col0": "Karachi",
        "col1": "A. Vohra",
        "col2": "1",
        "col3": "8"
    }
]