[
    {
        "col0": "Halloweentown II: Kalabar's Revenge",
        "col1": "M. Mothersbaugh",
        "col2": "Halloweentown High",
        "col3": "Halloweentown"
    },
    {
        "col0": "Halloween with the New Addams Family",
        "col1": "V. Mizzy",
        "col2": "The Addams Family",
        "col3": "The Addams Family"
    },
    {
        "col0": "Halloween",
        "col1": "D. M. Band",
        "col2": "The Stone",
        "col3": "Stay"
    },
    {
        "col0": "Gunshi Kanbei",
        "col1": "Y. Kanno",
        "col2": "Hana Moyu",
        "col3": "Yae no Sakura"
    },
    {
        "col0": "Gul-e-Rana",
        "col1": "W. Ali",
        "col2": "Udaari",
        "col3": "Mol"
    },
    {
        "col0": "Guapas",
        "col1": "F. Bertotti",
        "col2": "Noche y dia",
        "col3": "Farsantes"
    },
    {
        "col0": "Graduados, historias que no se olvidan",
        "col1": "F. Paez",
        "col2": "Las 2 Carolinas",
        "col3": "La Sexologa"
    },
    {
        "col0": "Gochisosan",
        "col1": "Y. Kanno",
        "col2": "Hanako to Anne",
        "col3": "Amachan"
    },
    {
        "col0": "GoGo Sentai Boukenger",
        "col1": "K. Nakagawa",
        "col2": "Juken Sentai Gekiranger",
        "col3": "Mahou Sentai Magiranger"
    },
    {
        "col0": "Gidget Grows Up",
        "col1": "S. Rogers",
        "col2": "Gidget Gets Married",
        "col3": "Gidget"
    },
    {
        "col0": "Gidget Gets Married",
        "col1": "J. Keller",
        "col2": "Gidget's Summer Reunion",
        "col3": "Gidget Grows Up"
    },
    {
        "col0": "Gidget's Summer Reunion",
        "col1": "G. Tipton",
        "col2": "The New Gidget",
        "col3": "Gidget Gets Married"
    },
    {
        "col0": "George of the Jungle",
        "col1": "S. Allman",
        "col2": "George of the Jungle",
        "col3": "George of the Jungle"
    },
    {
        "col0": "Genseishin Justirisers",
        "col1": "Y. Takanashi",
        "col2": "Chousei Kantai Sazer-X",
        "col3": "Chouseishin Gransazer"
    },
    {
        "col0": "Gekisou Sentai Carranger",
        "col1": "T. Sahashi",
        "col2": "Denji Sentai Megaranger",
        "col3": "Choriki Sentai Ohranger"
    },
    {
        "col0": "Garfield on the Town",
        "col1": "L. Rawls",
        "col2": "Garfield in the Rough",
        "col3": "Here Comes Garfield"
    },
    {
        "col0": "Garfield in the Rough",
        "col1": "L. Music",
        "col2": "Garfield's Halloween Adventure",
        "col3": "Garfield on the Town"
    },
    {
        "col0": "Garfield in Paradise",
        "col1": "L. Music",
        "col2": "Garfield Goes Hollywood",
        "col3": "Garfield's Halloween Adventure"
    },
    {
        "col0": "Garfield Goes Hollywood",
        "col1": "L. Music",
        "col2": "A Garfield Christmas",
        "col3": "Garfield in Paradise"
    },
    {
        "col0": "Garfield's Thanksgiving",
        "col1": "L. Rawls",
        "col2": "Garfield's Feline Fantasies",
        "col3": "Garfield's Babes and Bullets"
    },
    {
        "col0": "Garfield's Halloween Adventure",
        "col1": "L. Rawls",
        "col2": "Garfield in Paradise",
        "col3": "Garfield in the Rough"
    },
    {
        "col0": "Garfield's Babes and Bullets",
        "col1": "L. Rawls",
        "col2": "Garfield's Thanksgiving",
        "col3": "Garfield: His 9 Lives"
    },
    {
        "col0": "Gangsta?",
        "col1": "K. D. III",
        "col2": "In My System",
        "col3": "Take the World"
    },
    {
        "col0": "Galaxy Goof-Ups",
        "col1": "H. Curtin",
        "col2": "Yogi's Treasure Hunt",
        "col3": "Yogi's Space Race"
    },
    {
        "col0": "Galactica 1980",
        "col1": "S. Phillips",
        "col2": "Battlestar Galactica",
        "col3": "Battlestar Galactica"
    },
    {
        "col0": "Gabriel y Gabriela",
        "col1": "B. Silvetti",
        "col2": "Cuando los hijos se van",
        "col3": "El derecho de nacer"
    },
    {
        "col0": "Fuego en la sangre",
        "col1": "V. Fernandez",
        "col2": "Manana es para siempre",
        "col3": "Pasion"
    },
    {
        "col0": "Frozen Planet",
        "col1": "G. Fenton",
        "col2": "Africa",
        "col3": "Planet Earth"
    },
    {
        "col0": "Friend of the Devil",
        "col1": "J. Garcia",
        "col2": "Sugar Magnolia",
        "col3": "Box of Rain"
    },
    {
        "col0": "Freddie Freeloader",
        "col1": "M. Davis",
        "col2": "Blue in Green",
        "col3": "So What"
    },
    {
        "col0": "Fred Flintstone and Friends",
        "col1": "H. Curtin",
        "col2": "The New Fred and Barney Show",
        "col3": "The Flintstone Comedy Hour"
    },
    {
        "col0": "Fireball XL5",
        "col1": "B. Gray",
        "col2": "Stingray",
        "col3": "Supercar"
    },
    {
        "col0": "Finding John Christmas",
        "col1": "P. Williams",
        "col2": "When Angels Come to Town",
        "col3": "A Town Without Christmas"
    },
    {
        "col0": "Farsantes",
        "col1": "Vicentico",
        "col2": "Guapas",
        "col3": "Sos mi hombre"
    },
    {
        "col0": "Famous",
        "col1": "K. D. III",
        "col2": "In My System",
        "col3": "Take the World"
    },
    {
        "col0": "Eva Luna",
        "col1": "J. Rivera",
        "col2": "Teresa",
        "col3": "Sacrificio de mujer"
    },
    {
        "col0": "Esperanca",
        "col1": "A. Sanz",
        "col2": "Mulheres Apaixonadas",
        "col3": "O Clone"
    },
    {
        "col0": "Esperanza mia",
        "col1": "L. Esposito",
        "col2": "Los ricos no piden permiso",
        "col3": "Guapas"
    },
    {
        "col0": "Esperanca",
        "col1": "L. Pausini",
        "col2": "Mulheres Apaixonadas",
        "col3": "O Clone"
    },
    {
        "col0": "Encadenados",
        "col1": "B. Silvetti",
        "col2": "Lo blanco y lo negro",
        "col3": "El pecado de Oyuki"
    },
    {
        "col0": "En nombre del amor",
        "col1": "L. Pausini",
        "col2": "Mi pecado",
        "col3": "Querida Enemiga"
    },
    {
        "col0": "Emperatriz",
        "col1": "J. A. Luhrs",
        "col2": "A Corazon Abierto",
        "col3": "Profugas del Destino"
    },
    {
        "col0": "Em Familia",
        "col1": "T. Jobim",
        "col2": "Imperio",
        "col3": "Amor A  Vida"
    },
    {
        "col0": "Elizabeth R: A Year in the Life of the Queen",
        "col1": "R. Portman",
        "col2": "Monarchy: The Royal Family at Work",
        "col3": "Royal Family"
    },
    {
        "col0": "El fantasma de Elena",
        "col1": "P. Manterola",
        "col2": "Los herederos del Monte",
        "col3": "Perro amor"
    },
    {
        "col0": "El Privilegio de Amar",
        "col1": "J. Avendano",
        "col2": "Rosalinda",
        "col3": "La usurpadora"
    },
    {
        "col0": "El Camino Secreto",
        "col1": "J. Gabriel",
        "col2": "El precio de la fama",
        "col3": "La gloria y el infierno"
    },
    {
        "col0": "Duelo de Pasiones",
        "col1": "A. Villarreal",
        "col2": "Amar Sin Limites",
        "col3": "Barrera de amor"
    }
]