[
    {
        "col0": "M. Hutton",
        "col1": "Kirkland, Washington",
        "col2": "Battle Creek, Michigan",
        "col3": "http://dbpedia.org/resource/Cancer"
    },
    {
        "col0": "M. Maxwell",
        "col1": "Beverly Hills, California",
        "col2": "Clarinda, Iowa",
        "col3": "http://dbpedia.org/resource/Heart_attack"
    },
    {
        "col0": "M. Aryan",
        "col1": "Belgium",
        "col2": "France",
        "col3": "http://dbpedia.org/resource/Cardiac_arrest"
    },
    {
        "col0": "M. Escobar",
        "col1": "Spain",
        "col2": "Spain",
        "col3": "http://dbpedia.org/resource/Colon_Cancer"
    },
    {
        "col0": "Mandoza",
        "col1": "South Africa",
        "col2": "South Africa",
        "col3": "http://dbpedia.org/resource/Head_and_neck_cancer"
    },
    {
        "col0": "M. Mohan",
        "col1": "India",
        "col2": "Baghdad",
        "col3": "http://dbpedia.org/resource/Cirrhosis"
    },
    {
        "col0": "M. S. Viswanathan",
        "col1": "Chennai",
        "col2": "British India",
        "col3": "http://dbpedia.org/resource/Kidney_cancer"
    },
    {
        "col0": "L. Brooks",
        "col1": "Rochester, New York",
        "col2": "Cherryvale, Kansas",
        "col3": "http://dbpedia.org/resource/Myocardial_infarction"
    },
    {
        "col0": "L. Armstrong",
        "col1": "New York",
        "col2": "Louisiana",
        "col3": "http://dbpedia.org/resource/Heart_attack"
    },
    {
        "col0": "L. Geller",
        "col1": "Los Angeles",
        "col2": "Oregon",
        "col3": "http://dbpedia.org/resource/Heart_failure"
    },
    {
        "col0": "L. Greene",
        "col1": "Santa Monica, California",
        "col2": "Ontario",
        "col3": "http://dbpedia.org/resource/Pneumonia"
    },
    {
        "col0": "L. Randolph",
        "col1": "Los Angeles",
        "col2": "Knoxville, Tennessee",
        "col3": "http://dbpedia.org/resource/Cancer"
    },
    {
        "col0": "L. Gore",
        "col1": "Manhattan",
        "col2": "Brooklyn",
        "col3": "http://dbpedia.org/resource/Lung_cancer"
    },
    {
        "col0": "L. Nimoy",
        "col1": "Bel Air, Los Angeles",
        "col2": "Boston",
        "col3": "http://dbpedia.org/resource/Chronic_obstructive_pulmonary_disease"
    },
    {
        "col0": "L. Horne",
        "col1": "New York",
        "col2": "Bedford-Stuyvesant, Brooklyn",
        "col3": "http://dbpedia.org/resource/Congestive_Heart_Failure"
    },
    {
        "col0": "L. Marvin",
        "col1": "Arizona",
        "col2": "New York",
        "col3": "http://dbpedia.org/resource/Myocardial_infarction"
    },
    {
        "col0": "L. Welk",
        "col1": "California",
        "col2": "North Dakota",
        "col3": "http://dbpedia.org/resource/Bronchopneumonia"
    },
    {
        "col0": "L. Hovis",
        "col1": "Austin, Texas",
        "col2": "United States",
        "col3": "http://dbpedia.org/resource/Esophageal_cancer"
    },
    {
        "col0": "L. R. Hubbard",
        "col1": "Creston, California",
        "col2": "Tilden, Nebraska",
        "col3": "http://dbpedia.org/resource/Stroke"
    },
    {
        "col0": "K. Ri-se",
        "col1": "Suwon",
        "col2": "Japan",
        "col3": "http://dbpedia.org/resource/Traffic_collision"
    },
    {
        "col0": "K. Cisyk",
        "col1": "Manhattan",
        "col2": "Queens",
        "col3": "http://dbpedia.org/resource/Breast_cancer"
    },
    {
        "col0": "K. Yamada",
        "col1": "Tokyo, Japan",
        "col2": "Tokyo, Japan",
        "col3": "http://dbpedia.org/resource/Heart_attack"
    },
    {
        "col0": "K. Carlisle",
        "col1": "Manhattan",
        "col2": "Louisiana",
        "col3": "http://dbpedia.org/resource/Congestive_heart_failure"
    },
    {
        "col0": "K. Baker",
        "col1": "United States",
        "col2": "United States",
        "col3": "http://dbpedia.org/resource/Heart_attack"
    },
    {
        "col0": "K. Lane",
        "col1": "United States",
        "col2": "Brooklyn",
        "col3": "http://dbpedia.org/resource/Emphysema"
    },
    {
        "col0": "K. Curtis",
        "col1": "Fresno, California",
        "col2": "Colorado",
        "col3": "http://dbpedia.org/resource/Heart_Attack"
    },
    {
        "col0": "K. Monteno",
        "col1": "Croatia",
        "col2": "Sarajevo",
        "col3": "http://dbpedia.org/resource/Pneumonia"
    },
    {
        "col0": "K. Black",
        "col1": "California",
        "col2": "Illinois",
        "col3": "http://dbpedia.org/resource/Ampullary_cancer"
    },
    {
        "col0": "J. Ichikawa",
        "col1": "Japan",
        "col2": "Japan",
        "col3": "http://dbpedia.org/resource/Cerebral_hemorrhage"
    },
    {
        "col0": "J. Vega",
        "col1": "Philippines",
        "col2": "Philippines",
        "col3": "http://dbpedia.org/resource/Pneumonia"
    },
    {
        "col0": "J. London",
        "col1": "Encino, Los Angeles",
        "col2": "Santa Rosa, California",
        "col3": "http://dbpedia.org/resource/Cardiac_arrest"
    },
    {
        "col0": "J. Holliday",
        "col1": "New York City",
        "col2": "New York City",
        "col3": "http://dbpedia.org/resource/Breast_cancer"
    },
    {
        "col0": "J. Garland",
        "col1": "Chelsea, London",
        "col2": "Minnesota",
        "col3": "http://dbpedia.org/resource/Barbiturate_overdose"
    },
    {
        "col0": "J. Baker",
        "col1": "Paris, France",
        "col2": "St. Louis, Missouri",
        "col3": "http://dbpedia.org/resource/Cerebral_hemorrhage"
    },
    {
        "col0": "J. Cash",
        "col1": "Nashville, Tennessee",
        "col2": "Kingsland, Arkansas",
        "col3": "http://dbpedia.org/resource/Diabetes"
    },
    {
        "col0": "J. Trudell",
        "col1": "Santa Clara, California",
        "col2": "Nebraska",
        "col3": "http://dbpedia.org/resource/Terminal_cancer"
    },
    {
        "col0": "J. Lennon",
        "col1": "Manhattan",
        "col2": "Liverpool",
        "col3": "http://dbpedia.org/resource/Death_of_John_Lennon"
    },
    {
        "col0": "J. Ford",
        "col1": "California",
        "col2": "Cape Elizabeth, Maine",
        "col3": "http://dbpedia.org/resource/Stomach_cancer"
    },
    {
        "col0": "J. Collins",
        "col1": "California",
        "col2": "Alabama",
        "col3": "http://dbpedia.org/resource/Cancer"
    },
    {
        "col0": "J. Heesters",
        "col1": "Starnberg",
        "col2": "Amersfoort",
        "col3": "http://dbpedia.org/resource/Stroke"
    },
    {
        "col0": "J. O'Neill",
        "col1": "West Hollywood, California",
        "col2": "Enid, Oklahoma",
        "col3": "http://dbpedia.org/resource/Diabetes"
    },
    {
        "col0": "J. Durante",
        "col1": "California",
        "col2": "Manhattan",
        "col3": "http://dbpedia.org/resource/Pneumonia"
    },
    {
        "col0": "J. Boyd",
        "col1": "Santa Monica, California",
        "col2": "McComb, Mississippi",
        "col3": "http://dbpedia.org/resource/Cancer"
    },
    {
        "col0": "J. Jones",
        "col1": "Guyana",
        "col2": "Indiana",
        "col3": "http://dbpedia.org/resource/Suicide"
    },
    {
        "col0": "J. Henson",
        "col1": "New York",
        "col2": "United States",
        "col3": "http://dbpedia.org/resource/Pneumonia"
    },
    {
        "col0": "J. Franco",
        "col1": "Malaga",
        "col2": "Madrid",
        "col3": "http://dbpedia.org/resource/Stroke"
    },
    {
        "col0": "J. Orbach",
        "col1": "New York City",
        "col2": "New York City",
        "col3": "http://dbpedia.org/resource/Prostate_cancer"
    },
    {
        "col0": "J. Rivera",
        "col1": "Monterrey",
        "col2": "Long Beach, California",
        "col3": "http://dbpedia.org/resource/Plane_crash"
    },
    {
        "col0": "J. Mansfield",
        "col1": "St. Tammany Parish, Louisiana",
        "col2": "Bryn Mawr, Pennsylvania",
        "col3": "http://dbpedia.org/resource/Car_crash"
    },
    {
        "col0": "J. Blair",
        "col1": "California",
        "col2": "Altoona, Pennsylvania",
        "col3": "http://dbpedia.org/resource/Pneumonia"
    },
    {
        "col0": "J. Brown",
        "col1": "Atlanta",
        "col2": "Barnwell, South Carolina",
        "col3": "http://dbpedia.org/resource/Pneumonia"
    },
    {
        "col0": "J. Brel",
        "col1": "Bobigny",
        "col2": "Belgium",
        "col3": "http://dbpedia.org/resource/Lung_cancer"
    },
    {
        "col0": "J. Gleason",
        "col1": "Fort Lauderdale, Florida",
        "col2": "Brooklyn",
        "col3": "http://dbpedia.org/resource/Colorectal_cancer"
    },
    {
        "col0": "J. Lemmon",
        "col1": "Los Angeles",
        "col2": "Newton, Massachusetts",
        "col3": "http://dbpedia.org/resource/Bladder_cancer"
    },
    {
        "col0": "J. Lawrence",
        "col1": "Redding, Connecticut",
        "col2": "Brooklyn",
        "col3": "http://dbpedia.org/resource/Accidental_fall"
    },
    {
        "col0": "J. Kevorkian",
        "col1": "Royal Oak, Michigan",
        "col2": "Pontiac, Michigan",
        "col3": "http://dbpedia.org/resource/Thrombosis"
    },
    {
        "col0": "J. Carson",
        "col1": "California",
        "col2": "Carman, Manitoba",
        "col3": "http://dbpedia.org/resource/Stomach_cancer"
    },
    {
        "col0": "J. Benny",
        "col1": "Los Angeles",
        "col2": "Chicago",
        "col3": "http://dbpedia.org/resource/Pancreatic_cancer"
    },
    {
        "col0": "J. P. O'Malley",
        "col1": "San Juan Capistrano, California",
        "col2": "England",
        "col3": "http://dbpedia.org/resource/Cardiovascular_disease"
    },
    {
        "col0": "I. Pilus",
        "col1": "Selangor",
        "col2": "Malacca",
        "col3": "http://dbpedia.org/resource/Leptospirosis"
    },
    {
        "col0": "I. Haglund",
        "col1": "Seattle",
        "col2": "Seattle",
        "col3": "http://dbpedia.org/resource/Myocardial_infarction"
    },
    {
        "col0": "H. Avendano",
        "col1": "Mexico",
        "col2": "Mexico",
        "col3": "http://dbpedia.org/resource/Pancreatic_cancer"
    },
    {
        "col0": "H. Ashman",
        "col1": "New York",
        "col2": "Baltimore",
        "col3": "http://dbpedia.org/resource/AIDS"
    },
    {
        "col0": "H. Stevens",
        "col1": "South Yarra, Victoria",
        "col2": "Prahran, Victoria",
        "col3": "http://dbpedia.org/resource/Coronary_occlusion"
    },
    {
        "col0": "H. Woodlawn",
        "col1": "Los Angeles",
        "col2": "Juana Diaz, Puerto Rico",
        "col3": "http://dbpedia.org/resource/Brain_cancer"
    },
    {
        "col0": "H. Greene",
        "col1": "New York City",
        "col2": "Brooklyn",
        "col3": "http://dbpedia.org/resource/Myocardial_infarction"
    },
    {
        "col0": "H. Caldera",
        "col1": "Sri Lanka",
        "col2": "Sri Lanka",
        "col3": "http://dbpedia.org/resource/Cancer"
    },
    {
        "col0": "H. Betti",
        "col1": "France",
        "col2": "France",
        "col3": "http://dbpedia.org/resource/Natural_causes"
    },
    {
        "col0": "H. Nelson",
        "col1": "Laguna Beach, California",
        "col2": "Des Moines, Iowa",
        "col3": "http://dbpedia.org/resource/Heart_failure"
    },
    {
        "col0": "G. Beart",
        "col1": "France",
        "col2": "Cairo",
        "col3": "http://dbpedia.org/resource/Myocardial_infarction"
    },
    {
        "col0": "G. Hines",
        "col1": "California",
        "col2": "New York",
        "col3": "http://dbpedia.org/resource/Hepatocellular_carcinoma"
    },
    {
        "col0": "G. MacRae",
        "col1": "Lincoln, Nebraska",
        "col2": "New Jersey",
        "col3": "http://dbpedia.org/resource/Oral_cancer"
    },
    {
        "col0": "G. Piserchio",
        "col1": "New York",
        "col2": "Orange, New Jersey",
        "col3": "http://dbpedia.org/resource/AIDS"
    },
    {
        "col0": "G. Carlin",
        "col1": "Santa Monica, California",
        "col2": "Manhattan",
        "col3": "http://dbpedia.org/resource/Heart_failure"
    },
    {
        "col0": "G. B. Shea",
        "col1": "Montreat, North Carolina",
        "col2": "Ontario",
        "col3": "http://dbpedia.org/resource/Stroke"
    },
    {
        "col0": "G. Workman",
        "col1": "Aurora, Colorado",
        "col2": "Liverpool",
        "col3": "http://dbpedia.org/resource/Liver_failure"
    },
    {
        "col0": "G. Crosby",
        "col1": "Burbank, California",
        "col2": "Los Angeles",
        "col3": "http://dbpedia.org/resource/Lung_cancer"
    },
    {
        "col0": "G. Moore",
        "col1": "United States",
        "col2": "Baltimore",
        "col3": "http://dbpedia.org/resource/Emphysema"
    },
    {
        "col0": "F. Mercury",
        "col1": "Kensington",
        "col2": "Sultanate of Zanzibar",
        "col3": "http://dbpedia.org/resource/Bronchopneumonia"
    },
    {
        "col0": "F. Randall",
        "col1": "Palm Springs, California",
        "col2": "Passaic, New Jersey",
        "col3": "http://dbpedia.org/resource/Lung_cancer"
    },
    {
        "col0": "F. Zappa",
        "col1": "Los Angeles",
        "col2": "Baltimore",
        "col3": "http://dbpedia.org/resource/Prostate_cancer"
    },
    {
        "col0": "F. Morgan",
        "col1": "Beverly Hills, California",
        "col2": "New York City",
        "col3": "http://dbpedia.org/resource/Myocardial_infarction"
    },
    {
        "col0": "Floyd Red Crow Westerman",
        "col1": "Los Angeles",
        "col2": "South Dakota",
        "col3": "http://dbpedia.org/resource/Leukemia"
    },
    {
        "col0": "F. Sutro",
        "col1": "New York",
        "col2": "England",
        "col3": "http://dbpedia.org/resource/Pleurisy"
    },
    {
        "col0": "E. Merman",
        "col1": "Manhattan",
        "col2": "New York City",
        "col3": "http://dbpedia.org/resource/Brain_cancer"
    },
    {
        "col0": "E. Gold",
        "col1": "Santa Monica, California",
        "col2": "Vienna",
        "col3": "http://dbpedia.org/resource/Stroke"
    },
    {
        "col0": "E. Kelly",
        "col1": "Sarasota, Florida",
        "col2": "Sedan, Kansas",
        "col3": "http://dbpedia.org/resource/Myocardial_infarction"
    },
    {
        "col0": "E. Fitzgerald",
        "col1": "Beverly Hills, California",
        "col2": "Newport News, Virginia",
        "col3": "http://dbpedia.org/resource/Diabetes_mellitus"
    },
    {
        "col0": "E. Grieg",
        "col1": "Bergen",
        "col2": "Bergen",
        "col3": "http://dbpedia.org/resource/Heart_failure"
    },
    {
        "col0": "E. Khil",
        "col1": "Russia",
        "col2": "Russian Soviet Federative Socialist Republic",
        "col3": "http://dbpedia.org/resource/Stroke"
    },
    {
        "col0": "E. Massey",
        "col1": "California",
        "col2": "New York",
        "col3": "http://dbpedia.org/resource/Diabetes"
    },
    {
        "col0": "E. Carroll",
        "col1": "United States",
        "col2": "Canada",
        "col3": "http://dbpedia.org/resource/Brain_tumor"
    },
    {
        "col0": "E. Nelson",
        "col1": "Greensboro, North Carolina",
        "col2": "Louisiana",
        "col3": "http://dbpedia.org/resource/Heart_failure"
    },
    {
        "col0": "D. Farnum",
        "col1": "New York City",
        "col2": "Hampton Beach, New Hampshire",
        "col3": "http://dbpedia.org/resource/Kidney_failure"
    },
    {
        "col0": "D. Mitchell",
        "col1": "California",
        "col2": "Farrell, Pennsylvania",
        "col3": "http://dbpedia.org/resource/Lung_cancer"
    },
    {
        "col0": "D. Moore",
        "col1": "Plainfield, New Jersey",
        "col2": "London",
        "col3": "http://dbpedia.org/resource/Pneumonia"
    },
    {
        "col0": "D. Provine",
        "col1": "Bremerton, Washington",
        "col2": "Deadwood, South Dakota",
        "col3": "http://dbpedia.org/resource/Emphysema"
    },
    {
        "col0": "D. Grady",
        "col1": "California",
        "col2": "California",
        "col3": "http://dbpedia.org/resource/Cancer"
    },
    {
        "col0": "Divine",
        "col1": "California",
        "col2": "Baltimore",
        "col3": "http://dbpedia.org/resource/Cardiomegaly"
    },
    {
        "col0": "D. Darrell",
        "col1": "Ohio",
        "col2": "Texas",
        "col3": "http://dbpedia.org/resource/Homicide"
    },
    {
        "col0": "D. Shawn",
        "col1": "San Diego",
        "col2": "Buffalo, New York",
        "col3": "http://dbpedia.org/resource/Myocardial_infarction"
    },
    {
        "col0": "D. Haymes",
        "col1": "Billboard Hot 100",
        "col2": "Argentina",
        "col3": "http://dbpedia.org/resource/Lung_cancer"
    },
    {
        "col0": "D. Griffey",
        "col1": "Los Angeles",
        "col2": "Nashville, Tennessee",
        "col3": "http://dbpedia.org/resource/Coronary_artery_bypass_surgery"
    },
    {
        "col0": "D. Day",
        "col1": "Los Angeles",
        "col2": "New York",
        "col3": "http://dbpedia.org/resource/Amyotrophic_lateral_sclerosis"
    },
    {
        "col0": "Death of Sean Rigg",
        "col1": "Brixton",
        "col2": "Birmingham",
        "col3": "http://dbpedia.org/resource/Asphyxia"
    },
    {
        "col0": "D. Martin",
        "col1": "Beverly Hills, California",
        "col2": "Steubenville, Ohio",
        "col3": "http://dbpedia.org/resource/Acute_respiratory_failure"
    },
    {
        "col0": "D. Elliott",
        "col1": "California",
        "col2": "Madison, Wisconsin",
        "col3": "http://dbpedia.org/resource/Alzheimer's_disease"
    },
    {
        "col0": "D. Tomlinson",
        "col1": "England",
        "col2": "England",
        "col3": "http://dbpedia.org/resource/Stroke"
    },
    {
        "col0": "D. Bowie",
        "col1": "Manhattan",
        "col2": "London",
        "col3": "http://dbpedia.org/resource/Liver_cancer"
    },
    {
        "col0": "Dalida",
        "col1": "Paris",
        "col2": "Cairo",
        "col3": "http://dbpedia.org/resource/Barbiturate_overdose"
    },
    {
        "col0": "Daisy and Violet Hilton",
        "col1": "Charlotte, North Carolina",
        "col2": "Sussex",
        "col3": "http://dbpedia.org/resource/Hong_Kong_flu"
    },
    {
        "col0": "C. Monteith",
        "col1": "Vancouver",
        "col2": "Calgary",
        "col3": "http://dbpedia.org/resource/Drug_overdose"
    },
    {
        "col0": "C. Haines",
        "col1": "Clearwater Beach, Florida",
        "col2": "Savannah, Georgia",
        "col3": "http://dbpedia.org/resource/Myasthenia_gravis"
    },
    {
        "col0": "C. Dunn",
        "col1": "Portugal",
        "col2": "England",
        "col3": "http://dbpedia.org/resource/Complication_(medicine)"
    },
    {
        "col0": "C. Edwards",
        "col1": "Hollywood",
        "col2": "Hannibal, Missouri",
        "col3": "http://dbpedia.org/resource/Arteriosclerosis"
    },
    {
        "col0": "C. Schumann",
        "col1": "Frankfurt",
        "col2": "Leipzig",
        "col3": "http://dbpedia.org/resource/Stroke"
    },
    {
        "col0": "C. Black",
        "col1": "Estepona",
        "col2": "England",
        "col3": "http://dbpedia.org/resource/Stroke"
    },
    {
        "col0": "Chyna",
        "col1": "Redondo Beach, California",
        "col2": "Rochester, New York",
        "col3": "http://dbpedia.org/resource/Drug_overdose"
    },
    {
        "col0": "Chrisye",
        "col1": "Dutch East Indies",
        "col2": "Dutch East Indies",
        "col3": "http://dbpedia.org/resource/Lung_cancer"
    },
    {
        "col0": "C. Grimmie",
        "col1": "Orlando, Florida",
        "col2": "Marlton, New Jersey",
        "col3": "http://dbpedia.org/resource/Gunshot_wounds"
    },
    {
        "col0": "C. Marx",
        "col1": "Hollywood",
        "col2": "New York City",
        "col3": "http://dbpedia.org/resource/Arteriosclerosis"
    },
    {
        "col0": "C. Chase",
        "col1": "Hollywood",
        "col2": "Baltimore",
        "col3": "http://dbpedia.org/resource/Myocardial_infarction"
    },
    {
        "col0": "C. Miranda",
        "col1": "Beverly Hills, California",
        "col2": "Kingdom of Portugal",
        "col3": "http://dbpedia.org/resource/Heart_Attack"
    },
    {
        "col0": "C. Anderson",
        "col1": "California",
        "col2": "Virginia",
        "col3": "http://dbpedia.org/resource/Leukemia"
    },
    {
        "col0": "B. Ives",
        "col1": "Anacortes, Washington",
        "col2": "Jasper County, Illinois",
        "col3": "http://dbpedia.org/resource/Oral_cancer"
    },
    {
        "col0": "B. Ebsen",
        "col1": "California",
        "col2": "Belleville, Illinois",
        "col3": "http://dbpedia.org/resource/Respiratory_failure"
    }
]