[
    {
        "col0": "W. Roettger",
        "col1": "St. Louis, Missouri",
        "col2": "1902-08-28",
        "col3": "1902-08-28",
        "col4": "1951-09-14"
    },
    {
        "col0": "T. Churchill",
        "col1": "Blair, Oklahoma",
        "col2": "1908-1-1",
        "col3": "1908-1-1",
        "col4": "1963-1-1"
    },
    {
        "col0": "S. Port",
        "col1": "Chicago, Illinois",
        "col2": "1911-03-07",
        "col3": "1911-03-07",
        "col4": "2007-06-11"
    },
    {
        "col0": "S. Polk",
        "col1": "Hanford, California",
        "col2": "1983-03-27",
        "col3": "1983-03-27",
        "col4": "2005-09-26"
    },
    {
        "col0": "R. Andrews",
        "col1": "Dallas, TX",
        "col2": "1923-03-01",
        "col3": "1923-03-01",
        "col4": "2008-01-21"
    },
    {
        "col0": "R. Edwards",
        "col1": "Weston, West Virginia",
        "col2": "1904-03-15",
        "col3": "1904-03-15",
        "col4": "1981-12-22"
    },
    {
        "col0": "P. Campbell",
        "col1": "Olney, Texas",
        "col2": "1926-03-11",
        "col3": "1926-03-11",
        "col4": "2005-02-10"
    },
    {
        "col0": "N. Reed",
        "col1": "Hot Springs, Arkansas",
        "col2": "1975-11-29",
        "col3": "1975-11-29",
        "col4": "2012-07-26"
    },
    {
        "col0": "M. Courey",
        "col1": "Watertown, South Dakota",
        "col2": "1959-08-11",
        "col3": "1959-08-11",
        "col4": "2007-12-11"
    },
    {
        "col0": "L. Witte",
        "col1": "Swanton, Nebraska",
        "col2": "1911-04-02",
        "col3": "1911-04-02",
        "col4": "1973-12-23"
    },
    {
        "col0": "J. Cunningham",
        "col1": "Buffalo, New York",
        "col2": "1935-1-1",
        "col3": "1935-1-1",
        "col4": "1991-12-17"
    },
    {
        "col0": "J. Brady",
        "col1": "Oklahoma",
        "col2": "1907-08-11",
        "col3": "1907-08-11",
        "col4": "1984-01-12"
    },
    {
        "col0": "J. Lambert",
        "col1": "Arkadelphia, Arkansas",
        "col2": "1971-05-29",
        "col3": "1971-05-29",
        "col4": "2007-08-11"
    },
    {
        "col0": "J. Street",
        "col1": "Longview, Texas",
        "col2": "1948-08-02",
        "col3": "1948-08-02",
        "col4": "2013-09-30"
    },
    {
        "col0": "J. Crain",
        "col1": "Nocona, Texas",
        "col2": "1920-01-07",
        "col3": "1920-01-07",
        "col4": "1994-10-22"
    },
    {
        "col0": "H. Benedict",
        "col1": "Netherlands",
        "col2": "1983-06-30",
        "col3": "1983-06-30",
        "col4": "2008-03-23"
    },
    {
        "col0": "H. Walker",
        "col1": "United States",
        "col2": "1914-08-08",
        "col3": "1914-08-08",
        "col4": "1990-12-18"
    },
    {
        "col0": "C. Applegran",
        "col1": "Chicago, Illinois",
        "col2": "1893-11-06",
        "col3": "1893-11-06",
        "col4": "1960-05-06"
    },
    {
        "col0": "C. Mullins",
        "col1": "Russellville, Alabama",
        "col2": "1969-07-08",
        "col3": "1969-07-08",
        "col4": "1991-05-06"
    },
    {
        "col0": "C. Carmichael",
        "col1": "Durham, North Carolina",
        "col2": "1902-12-05",
        "col3": "1902-12-05",
        "col4": "1960-12-12"
    },
    {
        "col0": "B. Kotsores",
        "col1": "New York City",
        "col2": "1924-09-18",
        "col3": "1924-09-18",
        "col4": "1971-6-1"
    },
    {
        "col0": "B. Cowden",
        "col1": "San Francisco, California",
        "col2": "1920-09-06",
        "col3": "1920-09-06",
        "col4": "2007-10-17"
    }
]