[
    {
        "col0": "United States at the 2016 Summer Olympics",
        "col1": "M. Phelps",
        "col2": "2016 Summer",
        "col3": "38",
        "col4": "555",
        "col5": "1",
        "col6": "37",
        "col7": "46"
    },
    {
        "col0": "United States at the 2014 Winter Olympics",
        "col1": "J. Chu",
        "col2": "2014 Winter",
        "col3": "12",
        "col4": "230",
        "col5": "4",
        "col6": "7",
        "col7": "9"
    },
    {
        "col0": "United States at the 2012 Summer Olympics",
        "col1": "M. Zagunis",
        "col2": "2012 Summer",
        "col3": "29",
        "col4": "530",
        "col5": "1",
        "col6": "28",
        "col7": "46"
    },
    {
        "col0": "United States at the 2010 Winter Olympics",
        "col1": "B. Demong",
        "col2": "2010 Winter",
        "col3": "13",
        "col4": "216",
        "col5": "3",
        "col6": "15",
        "col7": "9"
    },
    {
        "col0": "United States at the 2008 Summer Olympics",
        "col1": "L. Lomong",
        "col2": "2008 Summer",
        "col3": "36",
        "col4": "596",
        "col5": "2",
        "col6": "38",
        "col7": "36"
    },
    {
        "col0": "United States at the 2006 Winter Olympics",
        "col1": "J. Cheek",
        "col2": "2006 Winter",
        "col3": "7",
        "col4": "211",
        "col5": "2",
        "col6": "9",
        "col7": "9"
    },
    {
        "col0": "United States at the 2004 Summer Olympics",
        "col1": "M. Hamm",
        "col2": "2004 Summer",
        "col3": "26",
        "col4": "613",
        "col5": "1",
        "col6": "39",
        "col7": "36"
    },
    {
        "col0": "United States at the 2002 Winter Olympics",
        "col1": "B. Shimer",
        "col2": "2002 Winter",
        "col3": "11",
        "col4": "202",
        "col5": "3",
        "col6": "13",
        "col7": "10"
    },
    {
        "col0": "United States at the 2000 Summer Olympics",
        "col1": "R. Gardner",
        "col2": "2000 Summer",
        "col3": "32",
        "col4": "253",
        "col5": "1",
        "col6": "24",
        "col7": "37"
    },
    {
        "col0": "United States at the 1998 Winter Olympics",
        "col1": "C. Granato",
        "col2": "1998 Winter",
        "col3": "4",
        "col4": "186",
        "col5": "5",
        "col6": "3",
        "col7": "6"
    },
    {
        "col0": "United States at the 1996 Summer Olympics",
        "col1": "M. R. Matz",
        "col2": "1996 Summer",
        "col3": "25",
        "col4": "271",
        "col5": "1",
        "col6": "32",
        "col7": "44"
    },
    {
        "col0": "United States at the 1994 Winter Olympics",
        "col1": "C. Myler",
        "col2": "1994 Winter",
        "col3": "2",
        "col4": "147",
        "col5": "5",
        "col6": "5",
        "col7": "6"
    },
    {
        "col0": "United States at the 1992 Winter Olympics",
        "col1": "B. Koch",
        "col2": "1992 Winter",
        "col3": "2",
        "col4": "147",
        "col5": "5",
        "col6": "4",
        "col7": "5"
    },
    {
        "col0": "United States at the 1992 Summer Olympics",
        "col1": "P. Westbrook",
        "col2": "1992 Summer",
        "col3": "37",
        "col4": "545",
        "col5": "2",
        "col6": "34",
        "col7": "37"
    },
    {
        "col0": "United States at the 1988 Summer Olympics",
        "col1": "E. Ashford",
        "col2": "1988 Summer",
        "col3": "27",
        "col4": "195",
        "col5": "3",
        "col6": "31",
        "col7": "36"
    },
    {
        "col0": "United States at the 1984 Winter Olympics",
        "col1": "F. Masley",
        "col2": "1984 Winter",
        "col3": "0",
        "col4": "107",
        "col5": "3",
        "col6": "4",
        "col7": "4"
    },
    {
        "col0": "United States at the 1984 Summer Olympics",
        "col1": "E. Burke",
        "col2": "1984 Summer",
        "col3": "30",
        "col4": "183",
        "col5": "1",
        "col6": "61",
        "col7": "83"
    },
    {
        "col0": "United States at the 1980 Winter Olympics",
        "col1": "S. Hamilton",
        "col2": "1980 Winter",
        "col3": "2",
        "col4": "101",
        "col5": "3",
        "col6": "4",
        "col7": "6"
    },
    {
        "col0": "United States at the 1976 Winter Olympics",
        "col1": "C. Nelson",
        "col2": "1976 Winter",
        "col3": "4",
        "col4": "106",
        "col5": "3",
        "col6": "3",
        "col7": "3"
    },
    {
        "col0": "United States at the 1976 Summer Olympics",
        "col1": "G. H. Sr.",
        "col2": "1976 Summer",
        "col3": "25",
        "col4": "118",
        "col5": "3",
        "col6": "35",
        "col7": "34"
    },
    {
        "col0": "United States at the 1972 Winter Olympics",
        "col1": "D. Holum",
        "col2": "1972 Winter",
        "col3": "3",
        "col4": "103",
        "col5": "5",
        "col6": "2",
        "col7": "3"
    },
    {
        "col0": "United States at the 1972 Summer Olympics",
        "col1": "O. Connolly",
        "col2": "1972 Summer",
        "col3": "30",
        "col4": "84",
        "col5": "2",
        "col6": "31",
        "col7": "33"
    },
    {
        "col0": "United States at the 1968 Winter Olympics",
        "col1": "T. McDermott",
        "col2": "1968 Winter",
        "col3": "1",
        "col4": "95",
        "col5": "9",
        "col6": "5",
        "col7": "1"
    }
]