[
    {
        "col0": "T. Costa",
        "col1": "Italy",
        "col2": "1634-1-1",
        "col3": "1690",
        "col4": "1634-1-1"
    },
    {
        "col0": "S. S. Herford",
        "col1": "United Kingdom",
        "col2": "1818-0-0",
        "col3": "1870",
        "col4": "1818-0-0"
    },
    {
        "col0": "S. Isham",
        "col1": "United States",
        "col2": "1855-05-12",
        "col3": "1914",
        "col4": "1855-05-12"
    },
    {
        "col0": "R. M. Gutti",
        "col1": "Italy",
        "col2": "1851-0-0",
        "col3": "1943",
        "col4": "1851-0-0"
    },
    {
        "col0": "R. M. Emslie",
        "col1": "United Kingdom",
        "col2": "1854-0-0",
        "col3": "1932",
        "col4": "1854-0-0"
    },
    {
        "col0": "Ottmar Elliger the Younger",
        "col1": "Netherlands",
        "col2": "1666-1-1",
        "col3": "1735",
        "col4": "1666-1-1"
    },
    {
        "col0": "N. Bodenheim",
        "col1": "Netherlands",
        "col2": "1874-05-27",
        "col3": "1951",
        "col4": "1874-05-27"
    },
    {
        "col0": "M. Smythe",
        "col1": "United Kingdom",
        "col2": "1872-0-0",
        "col3": "1955",
        "col4": "1872-0-0"
    },
    {
        "col0": "M. Goodman",
        "col1": "United Kingdom",
        "col2": "1860-0-0",
        "col3": "1938",
        "col4": "1860-0-0"
    },
    {
        "col0": "M. L. Kirschner",
        "col1": "Germany",
        "col2": "1852-01-07",
        "col3": "1931",
        "col4": "1852-01-07"
    },
    {
        "col0": "M. Davids",
        "col1": "Germany",
        "col2": "1847-03-05",
        "col3": "1905",
        "col4": "1847-03-05"
    },
    {
        "col0": "M. D. Robinson",
        "col1": "United Kingdom",
        "col2": "1840-0-0",
        "col3": "1920",
        "col4": "1840-0-0"
    },
    {
        "col0": "M. Meen",
        "col1": "United Kingdom",
        "col2": "1750-0-0",
        "col3": "1824",
        "col4": "1750-0-0"
    },
    {
        "col0": "M. Marrable",
        "col1": "United Kingdom",
        "col2": "1833-1-17",
        "col3": "1916",
        "col4": "1833-1-17"
    },
    {
        "col0": "L. Starr",
        "col1": "United Kingdom",
        "col2": "1845-0-0",
        "col3": "1909",
        "col4": "1845-0-0"
    },
    {
        "col0": "L. Blatherwick",
        "col1": "United Kingdom",
        "col2": "1854-0-0",
        "col3": "1934",
        "col4": "1854-0-0"
    },
    {
        "col0": "Joseph Heintz the Younger",
        "col1": "Germany",
        "col2": "1600-1-1",
        "col3": "1678",
        "col4": "1600-1-1"
    },
    {
        "col0": "J. Simpson",
        "col1": "United Kingdom of Great Britain and Ireland",
        "col2": "1782-1-1",
        "col3": "1847",
        "col4": "1782-1-1"
    },
    {
        "col0": "J. Macgregor",
        "col1": "United Kingdom",
        "col2": "1847-0-0",
        "col3": "1919",
        "col4": "1847-0-0"
    },
    {
        "col0": "I. Heitland",
        "col1": "United Kingdom",
        "col2": "1875-0-0",
        "col3": "1895",
        "col4": "1875-0-0"
    },
    {
        "col0": "H. A. Darmesteter",
        "col1": "United Kingdom",
        "col2": "1854-0-0",
        "col3": "1923",
        "col4": "1854-0-0"
    },
    {
        "col0": "H. C. Angell",
        "col1": "United Kingdom",
        "col2": "1847-1-0",
        "col3": "1884",
        "col4": "1847-1-0"
    },
    {
        "col0": "H. Schaare",
        "col1": "United States",
        "col2": "1922-05-23",
        "col3": "2008",
        "col4": "1922-05-23"
    },
    {
        "col0": "H. Multscher",
        "col1": "German people",
        "col2": "1400-1-1",
        "col3": "1467",
        "col4": "1400-1-1"
    }
]