[
    {
        "col0": "U. Murayama",
        "col1": "Spain",
        "col2": "N. Murayama",
        "col3": "Ursula Murayama"
    },
    {
        "col0": "Eleuthere Irenee du Pont",
        "col1": "Greenville, Delaware",
        "col2": "D. P. family",
        "col3": "Eleuthere Irenee du Pont de Nemours"
    },
    {
        "col0": "Z. Heller",
        "col1": "New York",
        "col2": "B. Heller",
        "col3": "Zoe Kate Hinde Heller"
    },
    {
        "col0": "Y. Dzhugashvili",
        "col1": "Georgia",
        "col2": "J. Stalin",
        "col3": "Yevgeny Yakovlevich Golishev"
    },
    {
        "col0": "Y. Choudhury",
        "col1": "England",
        "col2": "N. Choudhury",
        "col3": "Yasmin Ara Choudhury"
    },
    {
        "col0": "Y. Jaswal",
        "col1": "Islamabad",
        "col2": "U. Jaswal",
        "col3": "Yasir Jaswal"
    },
    {
        "col0": "W. Johnson-Marquart",
        "col1": "Virginia Beach",
        "col2": "Herbert Fisk Johnson III",
        "col3": "Winnie Johnson"
    },
    {
        "col0": "W. H. Ackland",
        "col1": "Belmont Mansion",
        "col2": "J. H. Acklen",
        "col3": "William Hayes Acklen"
    },
    {
        "col0": "W. D. Orthwein",
        "col1": "St. Louis, Missouri",
        "col2": "C. F. Orthwein",
        "col3": "William David Orthwein"
    },
    {
        "col0": "W. K. Kellogg",
        "col1": "Battle Creek, Michigan",
        "col2": "J. H. Kellogg",
        "col3": "Will Keith Kellogg"
    },
    {
        "col0": "W. Anderson",
        "col1": "New York City",
        "col2": "E. C. Anderson",
        "col3": "Wesley Wales Anderson"
    },
    {
        "col0": "W. Weyl",
        "col1": "Woodstock, New York",
        "col2": "J. Stern",
        "col3": "Walter Edward Weyl"
    },
    {
        "col0": "V. Cha",
        "col1": "Korea",
        "col2": "K. Yuri",
        "col3": "Hyunjung Cha"
    },
    {
        "col0": "V. Astor",
        "col1": "New York",
        "col2": "A. family",
        "col3": "William Vincent Astor"
    },
    {
        "col0": "Vijayachander",
        "col1": "Telangana",
        "col2": "T. Suryakumari",
        "col3": "Vijayachander Telidevara"
    },
    {
        "col0": "Vijay",
        "col1": "Chennai",
        "col2": "List of South Indian film families",
        "col3": "Joseph Vijay Chandrasekhar"
    },
    {
        "col0": "V. Devgan",
        "col1": "India",
        "col2": "Kajol",
        "col3": "Veeru Devgan"
    },
    {
        "col0": "V. Saab",
        "col1": "Ecuador",
        "col2": "A. Gomez",
        "col3": "Valeska Alexandra Saab Gomez"
    },
    {
        "col0": "U. Jaswal",
        "col1": "Islamabad",
        "col2": "Y. Jaswal",
        "col3": "Uzair Jaswal"
    },
    {
        "col0": "Tulisa",
        "col1": "Friern Barnet",
        "col2": "Dappy",
        "col3": "Tula Paulina Contostavlos"
    },
    {
        "col0": "T. N. Cox",
        "col1": "Long Island, New York",
        "col2": "F. A. Nixon",
        "col3": "Patricia Nixon"
    },
    {
        "col0": "T. Wall",
        "col1": "Los Angeles, California",
        "col2": "D. Tidwell",
        "col3": "Travis Michael Wall"
    },
    {
        "col0": "T. Waterhouse",
        "col1": "Balmoral, New South Wales",
        "col2": "T. J. Smith",
        "col3": "Thomas Robert Waterhouse"
    },
    {
        "col0": "T. Fahn",
        "col1": "Los Angeles, California",
        "col2": "M. Fahn",
        "col3": "Thomas Fahn"
    },
    {
        "col0": "T. Fisher",
        "col1": "Las Vegas Valley",
        "col2": "C. Fisher",
        "col3": "Todd Emmanuel Fisher"
    },
    {
        "col0": "T. Legge-Bourke",
        "col1": "Crickhowell",
        "col2": "H. Legge-Bourke",
        "col3": "Alexandra Shan Legge-Bourke"
    },
    {
        "col0": "T. Mowry",
        "col1": "Agoura Hills, California",
        "col2": "A. Housley",
        "col3": "Tia Dashon Mowry"
    },
    {
        "col0": "Thomas F. Frist Jr.",
        "col1": "Belle Meade, Tennessee",
        "col2": "B. Frist",
        "col3": "Thomas Fearn Frist Jr."
    },
    {
        "col0": "T. v. Gogh",
        "col1": "Amsterdam",
        "col2": "V. v. Gogh",
        "col3": "Theodoor van Gogh"
    },
    {
        "col0": "T. Giannakopoulos",
        "col1": "Athens",
        "col2": "P. Giannakopoulos",
        "col3": "Thanasis Giannakopoulos"
    },
    {
        "col0": "T. Bergson",
        "col1": "Warsaw",
        "col2": "H. Bergson",
        "col3": "Tamar"
    },
    {
        "col0": "T. Sarandos",
        "col1": "California",
        "col2": "C. Avant",
        "col3": "Theodore Anthony Sarandos Jr."
    },
    {
        "col0": "T. Ahmed",
        "col1": "Bangladesh",
        "col2": "A. Hayat",
        "col3": "Tauquir Ahmed"
    },
    {
        "col0": "T. Mowry",
        "col1": "Napa Valley, California",
        "col2": "T. Mowry",
        "col3": "Tamera Darvette Mowry"
    },
    {
        "col0": "S. Sanchez",
        "col1": "Philippines",
        "col2": "A. Atayde",
        "col3": "Jossette Campo"
    },
    {
        "col0": "S. Stallone",
        "col1": "Beverly Hills, California",
        "col2": "F. Stallone",
        "col3": "Sylvester Gardenzio Stallone"
    },
    {
        "col0": "S. Dutt",
        "col1": "Hyderabad, India",
        "col2": "N. Ashwin",
        "col3": "Swapna Dutt Chalasani"
    },
    {
        "col0": "Sushanth",
        "col1": "Hyderabad",
        "col2": "A. N. Rao",
        "col3": "Anumolu Sushanth"
    },
    {
        "col0": "S. Klatten",
        "col1": "Bad Homburg",
        "col2": "S. Quandt",
        "col3": "Susanne Hanna Ursula Quandt"
    },
    {
        "col0": "Suriya",
        "col1": "Chennai",
        "col2": "Karthi",
        "col3": "Saravanan Sivakumar"
    },
    {
        "col0": "S. Deol",
        "col1": "India",
        "col2": "List of Hindi film clans",
        "col3": "Ajay Singh Deol"
    },
    {
        "col0": "S. Hartono",
        "col1": "Dutch East Indies",
        "col2": "D. Sastrowardoyo",
        "col3": "Carolina Felicita Gerardine Sunaryati Sastrowardoyo"
    },
    {
        "col0": "Sujitha",
        "col1": "Pollachi",
        "col2": "Actress",
        "col3": "Sujitha"
    },
    {
        "col0": "S. Maniratnam",
        "col1": "Chennai",
        "col2": "K. Haasan",
        "col3": "Suhasini Charuhasan"
    },
    {
        "col0": "S. Mohanlal",
        "col1": "Kerala",
        "col2": "S. Balaje",
        "col3": "Suchitra Balaji"
    },
    {
        "col0": "Stewart W. Bainum Sr.",
        "col1": "Chevy Chase, Maryland",
        "col2": "D. Bainum",
        "col3": "Stewart William Bainum"
    },
    {
        "col0": "S. R. McQueen",
        "col1": "Chicago",
        "col2": "E. Iglesias",
        "col3": "Steven Chadwick McQueen"
    },
    {
        "col0": "S. Cuozzo",
        "col1": "Upper East Side",
        "col2": "L. Hershey",
        "col3": "Steven D. Cuozzo"
    },
    {
        "col0": "S. Coogan",
        "col1": "East Sussex",
        "col2": "B. Coogan",
        "col3": "Stephen John Coogan"
    },
    {
        "col0": "S. M. Badger",
        "col1": "Santa Fe, New Mexico",
        "col2": "F. M. Sr.",
        "col3": "Stephen Mills Badger II"
    },
    {
        "col0": "S. Lokesh",
        "col1": "Bangalore",
        "col2": "S. Naidu",
        "col3": "Srujan Lokesh"
    },
    {
        "col0": "S. Lee",
        "col1": "New York",
        "col2": "C. Lee",
        "col3": "Shelton Jackson Lee"
    },
    {
        "col0": "S. List",
        "col1": "Los Angeles, California",
        "col2": "P. List",
        "col3": "Spencer List"
    },
    {
        "col0": "S. Seth",
        "col1": "India",
        "col2": "List of Hindi film clans",
        "col3": "Soumya Seth"
    },
    {
        "col0": "S. Nelisse",
        "col1": "Montreal",
        "col2": "I. Nelisse",
        "col3": "Marie-Sophie Nelisse"
    },
    {
        "col0": "S. Loren",
        "col1": "Geneva, Switzerland",
        "col2": "A. Mussolini",
        "col3": "Sofia Villani Scicolone"
    },
    {
        "col0": "S. Knowles",
        "col1": "Louisiana",
        "col2": "Beyonce",
        "col3": "Solange Piaget Knowles"
    },
    {
        "col0": "S. Allsopp",
        "col1": "Edinburgh",
        "col2": "K. Allsopp",
        "col3": "Helen Atherley Allsopp"
    },
    {
        "col0": "S. Rynkiewicz",
        "col1": "Stockholm",
        "col2": "W. Gryniewicz",
        "col3": "Slawomir Stanislaw Rynkiewicz Berg"
    },
    {
        "col0": "S. Cowell",
        "col1": "California",
        "col2": "N. Cowell",
        "col3": "Simon Phillip Cowell"
    },
    {
        "col0": "S. Pinal",
        "col1": "Mexico",
        "col2": "Miguel Hidalgo y Costilla",
        "col3": "Silvia Pinal Hidalgo"
    },
    {
        "col0": "S. Rausing",
        "col1": "London",
        "col2": "R. Rausing",
        "col3": "Sigrid Maria Elisabet Rausing"
    },
    {
        "col0": "S. Robertson",
        "col1": "West Monroe, Louisiana",
        "col2": "P. Robertson",
        "col3": "Silas Merritt Robertson"
    },
    {
        "col0": "S. Rajkumar",
        "col1": "Karnataka",
        "col2": "K. Bangarappa",
        "col3": "Putta Swamy"
    },
    {
        "col0": "S. D. Thacher",
        "col1": "Ojai, California",
        "col2": "R. Sherman",
        "col3": "Sherman Day Thacher"
    },
    {
        "col0": "S. S. Prakash",
        "col1": "Chennai",
        "col2": "B. S. Prakash",
        "col3": "Sheila Sri Prakash"
    },
    {
        "col0": "S. Rezayee",
        "col1": "Kabul",
        "col2": "F. Rezayee",
        "col3": "Shaima"
    },
    {
        "col0": "S. Ramphaul",
        "col1": "South Africa",
        "col2": "Father",
        "col3": "Shahrina Ramphaul"
    },
    {
        "col0": "S. H. Jafari",
        "col1": "Iran",
        "col2": "M. Zamani",
        "col3": "Hossein Jafari"
    },
    {
        "col0": "S. Kishimoto",
        "col1": "Tokyo",
        "col2": "M. Kishimoto",
        "col3": "Seishi Kishimoto"
    },
    {
        "col0": "S. Eastwood",
        "col1": "San Diego, California",
        "col2": "K. Eastwood",
        "col3": "Scott Clinton Reeves"
    },
    {
        "col0": "S. Bullock",
        "col1": "New Orleans, Louisiana",
        "col2": "G. Bullock-Prado",
        "col3": "Sandra Annette Bullock"
    },
    {
        "col0": "S. L. Flournoy",
        "col1": "West Virginia",
        "col2": "C. S. White",
        "col3": "Samuel Lightfoot Flournoy"
    },
    {
        "col0": "S. Womack",
        "col1": "Bedfordshire",
        "col2": "G. Best",
        "col3": "Samantha Zoe Janus"
    },
    {
        "col0": "S. Faiers",
        "col1": "England",
        "col2": "B. Faiers",
        "col3": "Samantha Elizabeth Faiers"
    },
    {
        "col0": "S. Khan",
        "col1": "India",
        "col2": "List of Hindi film clans",
        "col3": "Abdul Rashid Salim Salman Khan"
    },
    {
        "col0": "Sally Ward Lawrence Hunt Armstrong Downs",
        "col1": "Boston",
        "col2": "R. M. Johnson",
        "col3": "Sally Ward"
    },
    {
        "col0": "S. Hemings",
        "col1": "Monticello",
        "col2": "J. Hemings",
        "col3": "Sarah Hemings"
    },
    {
        "col0": "S. Ali",
        "col1": "Karachi",
        "col2": "S. Ali",
        "col3": "Sajal Ali"
    },
    {
        "col0": "S. Shankar",
        "col1": "Telangana",
        "col2": "P. Jagannadh",
        "col3": "Sairam Shankar Petla"
    },
    {
        "col0": "S. A. Khan",
        "col1": "India",
        "col2": "List of Hindi film clans",
        "col3": "Sajid Ali Khan"
    },
    {
        "col0": "S. Shivdasani",
        "col1": "India",
        "col2": "List of Hindi film clans",
        "col3": "Sadhana Shivdasani"
    },
    {
        "col0": "S. R. Walton",
        "col1": "Bentonville, Arkansas",
        "col2": "J. Walton",
        "col3": "Samuel Robson Walton"
    },
    {
        "col0": "S. N. Surendar",
        "col1": "Chennai",
        "col2": "Vijay",
        "col3": "S.N.Surendar"
    },
    {
        "col0": "R. Shaw",
        "col1": "Shanghai",
        "col2": "R. R. Shaw",
        "col3": "Shao Renjie"
    },
    {
        "col0": "R. E. Disney",
        "col1": "Los Angeles",
        "col2": "D. family",
        "col3": "Roy Edward Disney"
    },
    {
        "col0": "R. Roy",
        "col1": "India",
        "col2": "R. Roy",
        "col3": "Ronit Bose Roy"
    },
    {
        "col0": "R. Rudd",
        "col1": "Somerset",
        "col2": "A. Rudd",
        "col3": "Roland Dacre Rudd"
    },
    {
        "col0": "R. Sacks",
        "col1": "Laguna Beach",
        "col2": "Z. Bielski",
        "col3": "Rodney Cyril Sacks"
    },
    {
        "col0": "R. Humes",
        "col1": "London",
        "col2": "P. Ince",
        "col3": "Rochelle Eulah Eileen Wiseman"
    },
    {
        "col0": "R. d. Rothschild",
        "col1": "Chateau de Laversine",
        "col2": "James Mayer de Rothschild",
        "col3": "Robert Philippe de Rothschild"
    },
    {
        "col0": "Robert Ringen Hermann Jr.",
        "col1": "St. Louis, Missouri",
        "col2": "A. Busch",
        "col3": "Robert Ringen Hermann"
    },
    {
        "col0": "R. H. Ellsworth",
        "col1": "Upper East Side",
        "col2": "O. Ellsworth",
        "col3": "Robert Hatfield Ellsworth"
    },
    {
        "col0": "R. Kardashian",
        "col1": "Hidden Hills, California",
        "col2": "K. Kardashian",
        "col3": "Robert Arthur Kardashian"
    },
    {
        "col0": "R. Livingstone",
        "col1": "London",
        "col2": "I. Livingstone",
        "col3": "Richard John Livingstone"
    },
    {
        "col0": "R. Gutierrez",
        "col1": "Philippines",
        "col2": "R. Gutierrez",
        "col3": "Richard Kristian Gutierrez"
    },
    {
        "col0": "R. Dreyfuss",
        "col1": "Encinitas, California",
        "col2": "N. Dreyfuss",
        "col3": "Richard Stephen Dreyfus"
    },
    {
        "col0": "R. Branson",
        "col1": "British Virgin Islands",
        "col2": "High Court of Justice",
        "col3": "Richard Charles Nicholas Branson"
    },
    {
        "col0": "R. Rajaratnam",
        "col1": "Brazil",
        "col2": "R. Rajaratnam",
        "col3": "Rajarengan Rajaratnam"
    },
    {
        "col0": "R. Baker",
        "col1": "Kent",
        "col2": "E. producer",
        "col3": "Reginald Poynton Baker"
    },
    {
        "col0": "R. Belldegrun",
        "col1": "California",
        "col2": "P. Zabludowicz",
        "col3": "Rebecka Zabludowicz"
    },
    {
        "col0": "R. J. Harbert",
        "col1": "Mountain Brook, Alabama",
        "col2": "B. L. Harbert",
        "col3": "Raymond Jones Harbert"
    },
    {
        "col0": "Rawer",
        "col1": "Ancient Egypt",
        "col2": "Prince",
        "col3": "Rawer"
    },
    {
        "col0": "R. Daggubati",
        "col1": "India",
        "col2": "D. Ramanaidu",
        "col3": "Rana Daggubati"
    },
    {
        "col0": "R. Paul",
        "col1": "India",
        "col2": "R. Paul",
        "col3": "Rakesh Paul"
    },
    {
        "col0": "R. Laurel",
        "col1": "Makati City",
        "col2": "J. P. Laurel",
        "col3": "Raymund Joseph Teves Laurel"
    },
    {
        "col0": "Rajinikanth",
        "col1": "Chennai",
        "col2": "List of South Indian film families",
        "col3": "Shivaji Rao Gaekwad"
    },
    {
        "col0": "R. Khanna",
        "col1": "Maharashtra",
        "col2": "A. Kumar",
        "col3": "Jatin Khanna"
    },
    {
        "col0": "Rajesh",
        "col1": "Bangalore",
        "col2": "A. Sarja",
        "col3": "Vidyasagar"
    },
    {
        "col0": "R. S. Gupta",
        "col1": "Fatehpur, Uttar Pradesh",
        "col2": "Rama Agrahari Girls College",
        "col3": "Radhe Shyam Gupta"
    },
    {
        "col0": "Raamshankar",
        "col1": "Telangana",
        "col2": "P. Jagannadh",
        "col3": "Raam Shankar Petla"
    },
    {
        "col0": "P. Banerjee",
        "col1": "Allahabad",
        "col2": "A. A. Ali",
        "col3": "Purnima Ganguly"
    },
    {
        "col0": "P. Jagannadh",
        "col1": "Hyderabad",
        "col2": "S. Shankar",
        "col3": "Puri Jagannadh"
    },
    {
        "col0": "P. Jacob",
        "col1": "Goa",
        "col2": "Tiatrist",
        "col3": "Miguel Jacob Carmo Luis Fernandes"
    },
    {
        "col0": "P. Thackeray",
        "col1": "Mumbai",
        "col2": "R. Thackeray",
        "col3": "Keshav Thakre"
    },
    {
        "col0": "Prabhas",
        "col1": "India",
        "col2": "K. R. Uppalapati",
        "col3": "Venkata Satyanarayana Prabhas Raju Uppalapati"
    },
    {
        "col0": "P. Williams",
        "col1": "Atlanta",
        "col2": "H. Williams",
        "col3": "Porsha Dyanne Williams"
    },
    {
        "col0": "P. Zabludowicz",
        "col1": "England",
        "col2": "R. Belldegrun",
        "col3": "Chaim Zabludowicz"
    },
    {
        "col0": "P. Geldof",
        "col1": "London",
        "col2": "H. Green",
        "col3": "Little Pixie Geldof"
    },
    {
        "col0": "P. Lier",
        "col1": "Netherlands",
        "col2": "Beatrix of the Netherlands",
        "col3": "Albrecht Willem Lier"
    }
]