[
    {
        "col0": "List of Playboy Playmates of 2002",
        "col1": "1972-08-21",
        "col2": "0",
        "col3": "0"
    },
    {
        "col0": "List of Playboy Playmates of 2001",
        "col1": "1975-03-28",
        "col2": "0",
        "col3": "0"
    },
    {
        "col0": "List of Playboy Playmates of 2000",
        "col1": "1973-11-05",
        "col2": "0",
        "col3": "0"
    },
    {
        "col0": "List of Playboy Playmates of 1999",
        "col1": "1972-09-27",
        "col2": "0",
        "col3": "0"
    },
    {
        "col0": "List of Playboy Playmates of 1998",
        "col1": "1970-08-10",
        "col2": "0",
        "col3": "0"
    },
    {
        "col0": "List of Playboy Playmates of 1997",
        "col1": "1969-05-01",
        "col2": "0",
        "col3": "0"
    },
    {
        "col0": "List of Playboy Playmates of 1996",
        "col1": "1966-02-03",
        "col2": "0",
        "col3": "0"
    },
    {
        "col0": "List of Playboy Playmates of 1995",
        "col1": "1968-03-30",
        "col2": "0",
        "col3": "0"
    },
    {
        "col0": "List of Playboy Playmates of 1994",
        "col1": "1967-11-21",
        "col2": "0",
        "col3": "0"
    },
    {
        "col0": "List of Playboy Playmates of 1993",
        "col1": "1960-09-19",
        "col2": "0",
        "col3": "0"
    },
    {
        "col0": "List of Playboy Playmates of 1992",
        "col1": "1966-07-31",
        "col2": "0",
        "col3": "0"
    },
    {
        "col0": "List of Playboy Playmates of 1991",
        "col1": "1967-12-20",
        "col2": "0",
        "col3": "0"
    },
    {
        "col0": "List of Playboy Playmates of 1990",
        "col1": "1961-09-06",
        "col2": "0",
        "col3": "0"
    },
    {
        "col0": "List of Playboy Playmates of 1989",
        "col1": "1965-04-21",
        "col2": "0",
        "col3": "0"
    },
    {
        "col0": "List of Playboy Playmates of 1988",
        "col1": "1956-05-28",
        "col2": "0",
        "col3": "0"
    },
    {
        "col0": "List of Playboy Playmates of 1987",
        "col1": "1958-07-22",
        "col2": "0",
        "col3": "0"
    },
    {
        "col0": "List of Playboy Playmates of 1986",
        "col1": "1958-10-07",
        "col2": "0",
        "col3": "0"
    },
    {
        "col0": "List of Playboy Playmates of 1985",
        "col1": "1951-11-05",
        "col2": "0",
        "col3": "0"
    },
    {
        "col0": "List of Playboy Playmates of 1984",
        "col1": "1957-04-24",
        "col2": "0",
        "col3": "0"
    },
    {
        "col0": "List of Playboy Playmates of 1983",
        "col1": "1958-02-12",
        "col2": "0",
        "col3": "0"
    },
    {
        "col0": "List of Playboy Playmates of 1982",
        "col1": "1954-08-23",
        "col2": "0",
        "col3": "0"
    },
    {
        "col0": "List of Playboy Playmates of 1981",
        "col1": "1953-07-15",
        "col2": "0",
        "col3": "0"
    },
    {
        "col0": "List of Playboy Playmates of 1980",
        "col1": "1954-07-22",
        "col2": "0",
        "col3": "0"
    },
    {
        "col0": "List of Playboy Playmates of 1979",
        "col1": "1954-01-13",
        "col2": "0",
        "col3": "0"
    },
    {
        "col0": "List of Playboy Playmates of 1978",
        "col1": "1947-03-14",
        "col2": "0",
        "col3": "0"
    },
    {
        "col0": "List of Playboy Playmates of 1977",
        "col1": "1953-06-15",
        "col2": "0",
        "col3": "0"
    },
    {
        "col0": "List of Playboy Playmates of 1976",
        "col1": "1950-06-03",
        "col2": "0",
        "col3": "0"
    },
    {
        "col0": "List of Playboy Playmates of 1975",
        "col1": "1948-05-16",
        "col2": "0",
        "col3": "0"
    },
    {
        "col0": "List of Playboy Playmates of 1974",
        "col1": "1946-11-14",
        "col2": "0",
        "col3": "0"
    },
    {
        "col0": "List of Playboy Playmates of 1973",
        "col1": "1947-02-17",
        "col2": "0",
        "col3": "0"
    },
    {
        "col0": "List of Playboy Playmates of 1972",
        "col1": "1947-03-22",
        "col2": "0",
        "col3": "0"
    },
    {
        "col0": "List of Playboy Playmates of 1971",
        "col1": "1942-07-08",
        "col2": "0",
        "col3": "0"
    },
    {
        "col0": "List of Playboy Playmates of 1970",
        "col1": "1943-10-15",
        "col2": "0",
        "col3": "0"
    },
    {
        "col0": "List of Playboy Playmates of 1969",
        "col1": "1941-06-17",
        "col2": "0",
        "col3": "0"
    },
    {
        "col0": "List of Playboy Playmates of 1968",
        "col1": "1944-03-16",
        "col2": "0",
        "col3": "0"
    },
    {
        "col0": "List of Playboy Playmates of 1967",
        "col1": "1942-08-12",
        "col2": "0",
        "col3": "0"
    },
    {
        "col0": "List of Playboy Playmates of 1966",
        "col1": "1943-11-20",
        "col2": "0",
        "col3": "0"
    },
    {
        "col0": "List of Playboy Playmates of 1965",
        "col1": "1941-03-17",
        "col2": "0",
        "col3": "0"
    },
    {
        "col0": "List of Playboy Playmates of 1964",
        "col1": "1939-09-12",
        "col2": "0",
        "col3": "0"
    },
    {
        "col0": "List of Playboy Playmates of 1963",
        "col1": "1937-08-24",
        "col2": "0",
        "col3": "0"
    },
    {
        "col0": "List of Playboy Playmates of 1962",
        "col1": "1938-05-22",
        "col2": "0",
        "col3": "0"
    },
    {
        "col0": "List of Playboy Playmates of 1961",
        "col1": "1938-02-02",
        "col2": "0",
        "col3": "0"
    },
    {
        "col0": "List of Playboy Playmates of 1960",
        "col1": "1937-10-17",
        "col2": "0",
        "col3": "0"
    },
    {
        "col0": "List of Playboy Playmates of 1959",
        "col1": "1928-08-26",
        "col2": "0",
        "col3": "0"
    },
    {
        "col0": "List of Playboy Playmates of 1958",
        "col1": "1930-01-03",
        "col2": "0",
        "col3": "0"
    },
    {
        "col0": "List of Playboy Playmates of 1957",
        "col1": "1926-09-19",
        "col2": "0",
        "col3": "0"
    },
    {
        "col0": "List of Playboy Playmates of 1956",
        "col1": "1927-01-21",
        "col2": "0",
        "col3": "0"
    },
    {
        "col0": "List of Playboy Playmates of 1955",
        "col1": "1923-04-22",
        "col2": "0",
        "col3": "0"
    },
    {
        "col0": "List of Playboy Playmates of 1954",
        "col1": "1931-04-01",
        "col2": "0",
        "col3": "0"
    },
    {
        "col0": "L. Baker",
        "col1": "1944-03-19",
        "col2": "0",
        "col3": "0"
    },
    {
        "col0": "L. Muller",
        "col1": "1951-08-19",
        "col2": "0",
        "col3": "0"
    },
    {
        "col0": "L. Soderberg",
        "col1": "1951-03-31",
        "col2": "0",
        "col3": "0"
    },
    {
        "col0": "L. Lyons",
        "col1": "1954-10-22",
        "col2": "0",
        "col3": "0"
    },
    {
        "col0": "K. Burke",
        "col1": "1944-12-31",
        "col2": "0",
        "col3": "0"
    },
    {
        "col0": "K. Shower",
        "col1": "1953-03-08",
        "col2": "0",
        "col3": "0"
    },
    {
        "col0": "K. Souri",
        "col1": "1968-10-27",
        "col2": "0",
        "col3": "0"
    },
    {
        "col0": "K. Conway",
        "col1": "1946-07-05",
        "col2": "0",
        "col3": "0"
    },
    {
        "col0": "K. Taylor",
        "col1": "1971-11-28",
        "col2": "0",
        "col3": "0"
    },
    {
        "col0": "K. Kennell",
        "col1": "1964-06-21",
        "col2": "0",
        "col3": "0"
    },
    {
        "col0": "K. Witter",
        "col1": "1961-12-13",
        "col2": "0",
        "col3": "0"
    },
    {
        "col0": "K. McDougal",
        "col1": "1971-03-23",
        "col2": "0",
        "col3": "0"
    },
    {
        "col0": "J. Blair",
        "col1": "1933-10-20",
        "col2": "0",
        "col3": "0"
    },
    {
        "col0": "J. Frette",
        "col1": "1983-12-25",
        "col2": "0",
        "col3": "0"
    },
    {
        "col0": "J. Nizzari",
        "col1": "1940-05-20",
        "col2": "0",
        "col3": "0"
    },
    {
        "col0": "J. Staley",
        "col1": "1940-05-20",
        "col2": "0",
        "col3": "0"
    },
    {
        "col0": "J. Collins",
        "col1": "1945-08-05",
        "col2": "0",
        "col3": "0"
    },
    {
        "col0": "J. S. George",
        "col1": "1946-10-13",
        "col2": "0",
        "col3": "0"
    },
    {
        "col0": "J. Rovero",
        "col1": "1978-12-12",
        "col2": "0",
        "col3": "0"
    },
    {
        "col0": "J. L. Jackson",
        "col1": "1969-03-21",
        "col2": "0",
        "col3": "0"
    },
    {
        "col0": "J. Jackson",
        "col1": "1945-02-06",
        "col2": "0",
        "col3": "0"
    },
    {
        "col0": "J. Bell",
        "col1": "1944-11-23",
        "col2": "0",
        "col3": "0"
    },
    {
        "col0": "J. Mansfield",
        "col1": "1933-04-19",
        "col2": "1",
        "col3": "0"
    },
    {
        "col0": "J. Pennington",
        "col1": "1942-07-08",
        "col2": "0",
        "col3": "0"
    },
    {
        "col0": "I. Sorensen",
        "col1": "1948-05-16",
        "col2": "0",
        "col3": "0"
    },
    {
        "col0": "H. Michaelsen",
        "col1": "1968-11-02",
        "col2": "0",
        "col3": "0"
    },
    {
        "col0": "H. Kozar",
        "col1": "1976-05-04",
        "col2": "0",
        "col3": "0"
    },
    {
        "col0": "G. Root",
        "col1": "1948-05-28",
        "col2": "0",
        "col3": "0"
    },
    {
        "col0": "F. MacLaren",
        "col1": "1965-12-18",
        "col2": "0",
        "col3": "0"
    }
]