[
    {
        "col0": "Kashiwazaki-Kariwa Nuclear Power Plant",
        "col1": "1980",
        "col2": "119941200000000000000",
        "col3": "7965000000"
    },
    {
        "col0": "Emsland Nuclear Power Plant",
        "col1": "1982",
        "col2": "40132800000000000",
        "col3": "1363000000"
    },
    {
        "col0": "Brunsbuttel Nuclear Power Plant",
        "col1": "1969",
        "col2": "16297200000000000",
        "col3": "806000000"
    },
    {
        "col0": "Brokdorf Nuclear Power Plant",
        "col1": "1975",
        "col2": "41252400000000000",
        "col3": "1440000000"
    },
    {
        "col0": "Krummel Nuclear Power Plant",
        "col1": "1974",
        "col2": "36640800000000000",
        "col3": "1402000000"
    },
    {
        "col0": "Grafenrheinfeld nuclear power plant",
        "col1": "1975",
        "col2": "33930000000000000",
        "col3": "1345000000"
    },
    {
        "col0": "Gosgen Nuclear Power Plant",
        "col1": "1973",
        "col2": "29059200000000000",
        "col3": "970000000"
    },
    {
        "col0": "Olkiluoto Nuclear Power Plant",
        "col1": "1973",
        "col2": "51364800000000000",
        "col3": "1760000000"
    },
    {
        "col0": "Three Mile Island Nuclear Generating Station",
        "col1": "1968",
        "col2": "23922000000000000",
        "col3": "852000000"
    },
    {
        "col0": "Palo Verde Nuclear Generating Station",
        "col1": "1976",
        "col2": "105300000000000000",
        "col3": "3942000000"
    },
    {
        "col0": "Doel Nuclear Power Station",
        "col1": "1969",
        "col2": "78012000000000000",
        "col3": "2919000000"
    },
    {
        "col0": "Zhanghewan Pumped Storage Power Station",
        "col1": "2003",
        "col2": "5760000000000",
        "col3": "1000000000"
    },
    {
        "col0": "Yugadanavi Power Station",
        "col1": "2007",
        "col2": "6480000000000000",
        "col3": "300000000"
    },
    {
        "col0": "Yixing Pumped Storage Power Station",
        "col1": "2003",
        "col2": "5364000000000000",
        "col3": "1000000000"
    },
    {
        "col0": "Xilongchi Pumped Storage Power Station",
        "col1": "2001",
        "col2": "6480000000000000",
        "col3": "1200000000"
    },
    {
        "col0": "Xianyou Pumped Storage Power Station",
        "col1": "2009",
        "col2": "6840000000000000",
        "col3": "1200000000"
    },
    {
        "col0": "Xiangshuijian Pumped Storage Power Station",
        "col1": "2006",
        "col2": "6480000000000000",
        "col3": "1000000000"
    },
    {
        "col0": "Vao Power Plant",
        "col1": "2007",
        "col2": "648000000000000",
        "col3": "25000000"
    },
    {
        "col0": "Vianden Pumped Storage Plant",
        "col1": "1959",
        "col2": "5940000000000000",
        "col3": "220000000"
    },
    {
        "col0": "Velebit Pumped Storage Power Plant",
        "col1": "1978",
        "col2": "1683000000000000",
        "col3": "276000000"
    },
    {
        "col0": "Valle Solar Power Station",
        "col1": "2009",
        "col2": "1224000000000000",
        "col3": "100000000"
    },
    {
        "col0": "Vao Power Plant",
        "col1": "2007",
        "col2": "648000000000000",
        "col3": "25000000"
    },
    {
        "col0": "Uthuru Janani Power Station",
        "col1": "2012",
        "col2": "633600000000000",
        "col3": "24000000"
    },
    {
        "col0": "Uppudaluwa Wind Farm",
        "col1": "2010",
        "col2": "94608000000000",
        "col3": "10500000"
    },
    {
        "col0": "Tricastin Nuclear Power Plant",
        "col1": "1974",
        "col2": "90378000000000000",
        "col3": "3820000000"
    },
    {
        "col0": "Tongbai Pumped Storage Power Station",
        "col1": "2000",
        "col2": "10080000000000000",
        "col3": "1200000000"
    },
    {
        "col0": "Tihange Nuclear Power Station",
        "col1": "1970",
        "col2": "82800000000000000",
        "col3": "2985000000"
    },
    {
        "col0": "Three Mile Island Nuclear Generating Station",
        "col1": "1968",
        "col2": "23922000000000000",
        "col3": "852000000"
    },
    {
        "col0": "Te Apiti Wind Farm",
        "col1": "2003",
        "col2": "928800000000000",
        "col3": "90750000"
    },
    {
        "col0": "Tai'an Pumped Storage Power Station",
        "col1": "2000",
        "col2": "4680000000000000",
        "col3": "1000000000"
    },
    {
        "col0": "Tafila Wind Farm",
        "col1": "2013",
        "col2": "1440000000000000",
        "col3": "117000000"
    },
    {
        "col0": "THTR-300",
        "col1": "1971",
        "col2": "3898800000000000",
        "col3": "308000000"
    },
    {
        "col0": "Superphenix",
        "col1": "1976",
        "col2": "12211200000000000",
        "col3": "1242000000"
    },
    {
        "col0": "South Texas Nuclear Generating Station",
        "col1": "1975",
        "col2": "79844400000000000",
        "col3": "2760000000"
    },
    {
        "col0": "Somers Solar Center",
        "col1": "2012",
        "col2": "19440000000000",
        "col3": "5000000"
    },
    {
        "col0": "Soma Wind Farm",
        "col1": "2009",
        "col2": "1458000000000000",
        "col3": "140400000"
    },
    {
        "col0": "Solar Energy Generating Systems",
        "col1": "1983",
        "col2": "2383200000000000",
        "col3": "361000000"
    },
    {
        "col0": "Slieve Rushen Wind Farm",
        "col1": "2007",
        "col2": "486000000000000",
        "col3": "54000000"
    },
    {
        "col0": "Shisanling Pumped Storage Power Station",
        "col1": "1988",
        "col2": "4485600000000000",
        "col3": "800000000"
    },
    {
        "col0": "Shams Solar Power Station",
        "col1": "2010",
        "col2": "756000000000000",
        "col3": "100000000"
    },
    {
        "col0": "Seguwantivu and Vidatamunai Wind Farms",
        "col1": "2009",
        "col2": "189216000000000",
        "col3": "20000000"
    },
    {
        "col0": "Scout Moor Wind Farm",
        "col1": "2007",
        "col2": "554400000000000",
        "col3": "65000000"
    },
    {
        "col0": "Saint-Laurent Nuclear Power Plant",
        "col1": "1963",
        "col2": "46504800000000000",
        "col3": "1912000000"
    },
    {
        "col0": "Saint-Alban Nuclear Power Plant",
        "col1": "1979",
        "col2": "59277600000000000000",
        "col3": "2600000000"
    },
    {
        "col0": "Rio Grande Hydroelectric Complex",
        "col1": "1976",
        "col2": "3517200000000000",
        "col3": "750000000"
    },
    {
        "col0": "Qinghai Golmud Solar Park",
        "col1": "2011",
        "col2": "120240000000000",
        "col3": "20160000"
    },
    {
        "col0": "Pushihe Pumped Storage Power Station",
        "col1": "2006",
        "col2": "3600000000000000",
        "col3": "1200000000"
    },
    {
        "col0": "Project West Wind",
        "col1": "2007",
        "col2": "1980000000000000",
        "col3": "142600000"
    },
    {
        "col0": "Presenzano Hydroelectric Plant",
        "col1": "1979",
        "col2": "4593600000000000",
        "col3": "1000000000"
    },
    {
        "col0": "Penly Nuclear Power Plant",
        "col1": "1982",
        "col2": "69904800000000000",
        "col3": "2764000000"
    },
    {
        "col0": "Paluel Nuclear Power Plant",
        "col1": "1977",
        "col2": "123847200000000000",
        "col3": "5528000000"
    },
    {
        "col0": "Palo Verde Nuclear Generating Station",
        "col1": "1976",
        "col2": "105300000000000000",
        "col3": "3942000000"
    },
    {
        "col0": "Paks Nuclear Power Plant",
        "col1": "1967",
        "col2": "53344800000000000",
        "col3": "2000000000"
    },
    {
        "col0": "PS20 solar power plant",
        "col1": "2006",
        "col2": "172800000000000",
        "col3": "20000000"
    },
    {
        "col0": "PS10 solar power plant",
        "col1": "2004",
        "col2": "84240000000000",
        "col3": "11000000"
    },
    {
        "col0": "Ouarzazate Solar Power Station",
        "col1": "2013",
        "col2": "1332000000000000",
        "col3": "160000000"
    },
    {
        "col0": "Ormonde Wind Farm",
        "col1": "2010",
        "col2": "1800000000000000",
        "col3": "150000000"
    },
    {
        "col0": "Olkiluoto Nuclear Power Plant",
        "col1": "1973",
        "col2": "51364800000000000",
        "col3": "1760000000"
    },
    {
        "col0": "Nogent Nuclear Power Plant",
        "col1": "1981",
        "col2": "69591600000000000",
        "col3": "2726000000"
    },
    {
        "col0": "Nga Awa Purua Power Station",
        "col1": "2008",
        "col2": "3960000000000000",
        "col3": "140000000"
    },
    {
        "col0": "Neckarwestheim Nuclear Power Plant",
        "col1": "1971",
        "col2": "61416000000000000",
        "col3": "2235000000"
    },
    {
        "col0": "Nant de Drance Hydropower Plant",
        "col1": "2008",
        "col2": "9000000000000000",
        "col3": "900000000"
    },
    {
        "col0": "Mt Stuart Wind Farm",
        "col1": "2011",
        "col2": "92160000000000",
        "col3": "7700000"
    },
    {
        "col0": "Mojave Solar Project",
        "col1": "2011",
        "col2": "2221200000000000",
        "col3": "280000000"
    },
    {
        "col0": "Martin Next Generation Solar Energy Center",
        "col1": "2008",
        "col2": "558000000000000",
        "col3": "75000000"
    },
    {
        "col0": "Markersbach Pumped Storage Power Plant",
        "col1": "1970",
        "col2": "3528000000000000",
        "col3": "1045000000"
    },
    {
        "col0": "Loviisa Nuclear Power Plant",
        "col1": "1971",
        "col2": "29340000000000000",
        "col3": "1020000000"
    },
    {
        "col0": "Lopburi Solar Farm",
        "col1": "2010",
        "col2": "379843200000000",
        "col3": "84000000"
    },
    {
        "col0": "London Array",
        "col1": "2011",
        "col2": "9000000000000000",
        "col3": "630000000"
    },
    {
        "col0": "Liyang Pumped Storage Power Station",
        "col1": "2011",
        "col2": "7225200000000000",
        "col3": "1500000000"
    },
    {
        "col0": "Lillgrund Wind Farm",
        "col1": "2006",
        "col2": "1188000000000000",
        "col3": "110000000"
    },
    {
        "col0": "Leningrad Nuclear Power Plant",
        "col1": "1970",
        "col2": "76348800000000000",
        "col3": "4000000000"
    }
]