[
    {
        "col0": "Inorganic pyrophosphatase",
        "col1": "179030",
        "col2": "PP",
        "col3": "Q15181",
        "col4": "3.6.1.1"
    },
    {
        "col0": "Iduronidase",
        "col1": "252800",
        "col2": "IDUA",
        "col3": "P35475",
        "col4": "3.2.1.76"
    },
    {
        "col0": "ITCH",
        "col1": "606409",
        "col2": "ITCH",
        "col3": "Q96J02",
        "col4": "6.3.2.19"
    },
    {
        "col0": "Hydroxymethylglutaryl-CoA synthase",
        "col1": "142940",
        "col2": "HMGCS",
        "col3": "P54868",
        "col4": "2.3.3.10"
    },
    {
        "col0": "Hydrogen potassium ATPase",
        "col1": "137216",
        "col2": "ATP4A",
        "col3": "P20648",
        "col4": "3.6.3.10"
    },
    {
        "col0": "Holocarboxylase synthetase",
        "col1": "609018",
        "col2": "HLCS",
        "col3": "P50747",
        "col4": "6.3.4.10"
    },
    {
        "col0": "Hepatic fructokinase",
        "col1": "229800",
        "col2": "KHK",
        "col3": "P50053",
        "col4": "2.7.1.3"
    },
    {
        "col0": "HHAT",
        "col1": "605743",
        "col2": "FLJ10724, MART-2, MART2, GUP2",
        "col3": "Q5VTY9",
        "col4": "2.3.1.-"
    },
    {
        "col0": "Glyceronephosphate O-acyltransferase",
        "col1": "602744",
        "col2": "GNPAT",
        "col3": "O15228",
        "col4": "2.3.1.42"
    },
    {
        "col0": "Glutathione synthetase",
        "col1": "601002",
        "col2": "GSH-S_ATP",
        "col3": "P48637",
        "col4": "6.3.2.3"
    },
    {
        "col0": "Glutamyl aminopeptidase",
        "col1": "138297",
        "col2": "ENPEP",
        "col3": "Q07075",
        "col4": "3.4.11.7"
    },
    {
        "col0": "Gastric lipase",
        "col1": "601980",
        "col2": "LIPF",
        "col3": "P07098",
        "col4": "3.1.1.3"
    },
    {
        "col0": "Gamma-glutamyl transpeptidase",
        "col1": "137181",
        "col2": "GGT",
        "col3": "P19440",
        "col4": "2.3.2.2"
    },
    {
        "col0": "Galactokinase",
        "col1": "137028",
        "col2": "GALK",
        "col3": "P51570",
        "col4": "2.7.1.6"
    },
    {
        "col0": "G protein-coupled receptor kinase 7",
        "col1": "606987",
        "col2": "GPRK7",
        "col3": "Q8WTQ7",
        "col4": "2.7.11.14"
    },
    {
        "col0": "GSK-3",
        "col1": "605004",
        "col2": "GSK3A",
        "col3": "P49840",
        "col4": "2.7.11.26"
    },
    {
        "col0": "GPD1L",
        "col1": "611778",
        "col2": "GPD1L",
        "col3": "Q8N335",
        "col4": "1.1.1.8"
    },
    {
        "col0": "GMP reductase",
        "col1": "139265",
        "col2": "GMPR",
        "col3": "P36959",
        "col4": "1.7.1.7"
    },
    {
        "col0": "GDP-fucose protein O-fucosyltransferase 1",
        "col1": "607491",
        "col2": "POFUT1",
        "col3": "Q9H488",
        "col4": "2.4.1.221"
    },
    {
        "col0": "Fructose 1,6-bisphosphatase",
        "col1": "229700",
        "col2": "FBP",
        "col3": "P09467",
        "col4": "3.1.3.11"
    },
    {
        "col0": "Formimidoyltransferase cyclodeaminase",
        "col1": "606806",
        "col2": "FTCD",
        "col3": "O95954",
        "col4": "4.3.1.4"
    },
    {
        "col0": "FUT4",
        "col1": "104230",
        "col2": "CD15, FCT3A, ELFT, SSEA-1, LeX",
        "col3": "P22083",
        "col4": "2.4.1.152"
    },
    {
        "col0": "FANCM",
        "col1": "609644",
        "col2": "FANCM",
        "col3": "Q8IYD8",
        "col4": "3.6.1.-"
    },
    {
        "col0": "Enoyl-CoA hydratase",
        "col1": "607037",
        "col2": "ECHD",
        "col3": "Q08426",
        "col4": "4.2.1.17"
    },
    {
        "col0": "Electron-transferring-flavoprotein dehydrogenase",
        "col1": "231675",
        "col2": "ETF-QO",
        "col3": "Q16134",
        "col4": "1.5.5.1"
    },
    {
        "col0": "EIF4A",
        "col1": "601102",
        "col2": "DDX48",
        "col3": "P38919",
        "col4": "3.6.1.1"
    },
    {
        "col0": "Doubletime",
        "col1": "121695",
        "col2": "CSNK1E",
        "col3": "P49674",
        "col4": "2.7.11.1"
    },
    {
        "col0": "Dipeptidase 2",
        "col1": "609925",
        "col2": "DPEP2",
        "col3": "Q9H4A9",
        "col4": "3.4.13.19"
    },
    {
        "col0": "Dihydroorotase",
        "col1": "114010",
        "col2": "CAD",
        "col3": "P27708",
        "col4": "3.5.2.3"
    },
    {
        "col0": "Deoxyribonuclease II",
        "col1": "126350",
        "col2": "DNASE2",
        "col3": "O00115",
        "col4": "3.1.22.1"
    },
    {
        "col0": "DNA clamp",
        "col1": "176740",
        "col2": "DNA_pol3_beta",
        "col3": "P12004",
        "col4": "2.7.7.7"
    },
    {
        "col0": "Cyclophilin",
        "col1": "123840",
        "col2": "PPIA",
        "col3": "Q3KQW3",
        "col4": "5.2.1.8"
    },
    {
        "col0": "Complement component 1s",
        "col1": "120580",
        "col2": "C1S",
        "col3": "P09871",
        "col4": "3.4.21.42"
    },
    {
        "col0": "Complement component 1R",
        "col1": "216950",
        "col2": "C1R",
        "col3": "P00736",
        "col4": "3.4.21.41"
    },
    {
        "col0": "Collagenase",
        "col1": "120353",
        "col2": "MMP1",
        "col3": "P03956",
        "col4": "3.4.24.3 Chromosome = 11"
    },
    {
        "col0": "Chymase",
        "col1": "118938",
        "col2": "CMA1",
        "col3": "P23946",
        "col4": "3.4.21.39"
    },
    {
        "col0": "Cholinesterase",
        "col1": "100740",
        "col2": "ACHE",
        "col3": "P06276",
        "col4": "3.1.1.7"
    },
    {
        "col0": "Ceramide synthase 5",
        "col1": "615335",
        "col2": "CerS5",
        "col3": "Q8N5B7",
        "col4": "2.3.1.24"
    },
    {
        "col0": "Ceramide synthase 4",
        "col1": "615334",
        "col2": "CerS4",
        "col3": "Q9HA82",
        "col4": "2.3.1.24"
    },
    {
        "col0": "Caspase 5",
        "col1": "602665",
        "col2": "CASP5",
        "col3": "P51878",
        "col4": "3.4.22.58"
    },
    {
        "col0": "Caspase 4",
        "col1": "602664",
        "col2": "CASP4",
        "col3": "P49662",
        "col4": "3.4.22.57"
    },
    {
        "col0": "Casein kinase 2",
        "col1": "115440",
        "col2": "CSNK2A1",
        "col3": "P19784",
        "col4": "2.7.11.1"
    },
    {
        "col0": "Carboxypeptidase B",
        "col1": "114852",
        "col2": "CPB1",
        "col3": "P15086",
        "col4": "3.4.17.2"
    },
    {
        "col0": "Carbamoyl phosphate synthetase I",
        "col1": "608307",
        "col2": "CPS1",
        "col3": "P31327",
        "col4": "6.3.4.16"
    },
    {
        "col0": "Calcineurin",
        "col1": "114105",
        "col2": "CALN, CALNA",
        "col3": "P16298",
        "col4": "3.1.3.16"
    },
    {
        "col0": "CARM1",
        "col1": "603934",
        "col2": "CARM1",
        "col3": "Q5SZY8",
        "col4": "2.1.1.125"
    },
    {
        "col0": "CAD",
        "col1": "114010",
        "col2": "CAD",
        "col3": "P27708",
        "col4": "2.1.3.2"
    },
    {
        "col0": "C1GALT1",
        "col1": "610555",
        "col2": "C1GALT1",
        "col3": "Q9NS00",
        "col4": "2.4.1.122"
    },
    {
        "col0": "Branched chain aminotransferase",
        "col1": "113530",
        "col2": "BCAT",
        "col3": "O15382",
        "col4": "2.6.1.42"
    },
    {
        "col0": "Biotinidase",
        "col1": "609019",
        "col2": "BTD",
        "col3": "P43251",
        "col4": "3.5.1.12"
    },
    {
        "col0": "Beta-ketoacyl-ACP synthase",
        "col1": "610324",
        "col2": "Ketoacyl-synt_C",
        "col3": "Q9NWU1",
        "col4": "2.3.1.41"
    },
    {
        "col0": "Asparagine synthetase",
        "col1": "108370",
        "col2": "ASNS",
        "col3": "P08243",
        "col4": "6.3.5.4"
    },
    {
        "col0": "Arylsulfatase B",
        "col1": "253200",
        "col2": "ARSB",
        "col3": "P15848",
        "col4": "3.1.6.12"
    },
    {
        "col0": "Angiopoietin receptor",
        "col1": "600221",
        "col2": "TEK",
        "col3": "P35590",
        "col4": "2.7.1.112"
    },
    {
        "col0": "Alpha-N-acetylglucosaminidase",
        "col1": "609701",
        "col2": "NAGLU",
        "col3": "P54802",
        "col4": "3.2.1.50"
    },
    {
        "col0": "Alanine transaminase",
        "col1": "138200",
        "col2": "GPT",
        "col3": "P24298",
        "col4": "2.6.1.2"
    },
    {
        "col0": "Adenosylhomocysteinase",
        "col1": "180960",
        "col2": "AHCY",
        "col3": "P23526",
        "col4": "3.3.1.1"
    },
    {
        "col0": "Acyltransferase like 2",
        "col1": "610472",
        "col2": "AYTL2",
        "col3": "Q8NF37",
        "col4": "2.3.1.23"
    },
    {
        "col0": "ATP citrate lyase",
        "col1": "108728",
        "col2": "ACLY",
        "col3": "P53396",
        "col4": "2.3.3.8"
    },
    {
        "col0": "ATP2A2",
        "col1": "108740",
        "col2": "ATP2A2",
        "col3": "P16615",
        "col4": "3.6.3.8"
    },
    {
        "col0": "6-phosphogluconolactonase",
        "col1": "604951",
        "col2": "PGLS",
        "col3": "O95336",
        "col4": "3.1.1.31"
    },
    {
        "col0": "3-Hydroxyacyl ACP dehydrase",
        "col1": "607037",
        "col2": "ECHD",
        "col3": "Q08426",
        "col4": "4.2.1.17"
    },
    {
        "col0": "2,4 Dienoyl-CoA reductase",
        "col1": "222745",
        "col2": "DECR",
        "col3": "Q16698",
        "col4": "1.3.1.34"
    }
]