[
    {
        "col0": "XHRIO-TDT",
        "col1": "The CW",
        "col2": "1979-01-12",
        "col3": "26 (UHF)"
    },
    {
        "col0": "XHJUB-TDT",
        "col1": "Canal 5",
        "col2": "1991-11-18",
        "col3": "(5 after October 27, 2016)"
    },
    {
        "col0": "XHIJ-TDT",
        "col1": "Cadenatres",
        "col2": "1980-10-16",
        "col3": "45 (UHF)"
    },
    {
        "col0": "XHCJE-TDT",
        "col1": "Azteca Trece",
        "col2": "1980-12-23",
        "col3": "34 (UHF)"
    },
    {
        "col0": "XEJ-TDT",
        "col1": "Gala TV",
        "col2": "1954-05-17",
        "col3": "50 (UHF)"
    },
    {
        "col0": "WZZM",
        "col1": "American Broadcasting Company",
        "col2": "1962-11-01",
        "col3": "13 (VHF)"
    },
    {
        "col0": "WZPA-LD",
        "col1": "Home Shopping Network",
        "col2": "2011-07-22",
        "col3": "33 (UHF)"
    },
    {
        "col0": "WZNA-LD",
        "col1": "Religious broadcasting",
        "col2": "2014-04-01",
        "col3": "3 (VHF)"
    },
    {
        "col0": "WZAW-LD",
        "col1": "Fox Broadcasting Company",
        "col2": "2015-07-01",
        "col3": "33 (UHF) &"
    },
    {
        "col0": "WYTV-DT2",
        "col1": "MyNetworkTV",
        "col2": "2006-09-05",
        "col3": "Virtual: 33.2 (PSIP)"
    },
    {
        "col0": "WYLE",
        "col1": "Defunct",
        "col2": "1986-04-19",
        "col3": "(never built)"
    },
    {
        "col0": "WYIN",
        "col1": "PBS",
        "col2": "1987-11-15",
        "col3": "17 (UHF)"
    },
    {
        "col0": "WYFF",
        "col1": "NBC",
        "col2": "1953-12-26",
        "col3": "36 (UHF)"
    },
    {
        "col0": "WYCC",
        "col1": "PBS",
        "col2": "1983-02-02",
        "col3": "21 (UHF)"
    },
    {
        "col0": "WYBE",
        "col1": "Non-commercial educational",
        "col2": "1990-06-10",
        "col3": "35 (UHF)"
    },
    {
        "col0": "WXXV-DT3",
        "col1": "The CW Television Network",
        "col2": "1998-09-21",
        "col3": "Virtual: 25.3 (PSIP)"
    },
    {
        "col0": "WXOW",
        "col1": "American Broadcasting Company",
        "col2": "1970-03-07",
        "col3": "48 (UHF)"
    },
    {
        "col0": "WXMI",
        "col1": "Fox Broadcasting Company",
        "col2": "1982-03-18",
        "col3": "19 (UHF)"
    },
    {
        "col0": "WXEL-TV",
        "col1": "PBS",
        "col2": "1982-07-08",
        "col3": "27 (UHF)"
    },
    {
        "col0": "WWTI",
        "col1": "The CW Plus",
        "col2": "1985-02-01",
        "col3": "21 (UHF)"
    },
    {
        "col0": "WWPX-TV",
        "col1": "Owned-and-operated station",
        "col2": "1991-10-01",
        "col3": "12 (VHF)"
    },
    {
        "col0": "WWNY-TV",
        "col1": "CBS",
        "col2": "1954-10-22",
        "col3": "7 (VHF) &"
    },
    {
        "col0": "WWMT",
        "col1": "CBS",
        "col2": "1950-06-01",
        "col3": "8 (VHF)"
    },
    {
        "col0": "WWBK-LP",
        "col1": "Laff",
        "col2": "2002-06-09",
        "col3": "28"
    },
    {
        "col0": "WWAY-DT2",
        "col1": "CBS",
        "col2": "1998-09-21",
        "col3": "Virtual: 3.2 (PSIP)"
    },
    {
        "col0": "WVTT-CD",
        "col1": "Youtoo America",
        "col2": "1986-03-07",
        "col3": "34 (UHF)"
    },
    {
        "col0": "WVIR-DT3",
        "col1": "The CW",
        "col2": "1998-09-21",
        "col3": "Virtual: 29.3 (PSIP)"
    },
    {
        "col0": "WVII-TV",
        "col1": "American Broadcasting Company",
        "col2": "1965-10-15",
        "col3": "7 (VHF)"
    },
    {
        "col0": "WVCY-TV",
        "col1": "Religious broadcasting",
        "col2": "1983-01-11",
        "col3": "22 (UHF)"
    },
    {
        "col0": "WVBG-LP",
        "col1": "Independent station",
        "col2": "1998-08-27",
        "col3": "41 (UHF;CP)"
    },
    {
        "col0": "WUTR",
        "col1": "American Broadcasting Company",
        "col2": "1970-02-28",
        "col3": "30 (UHF)"
    },
    {
        "col0": "WUJA",
        "col1": "Religious broadcasting",
        "col2": "1985-10-27",
        "col3": "48 (UHF)"
    },
    {
        "col0": "WUDZ-LD",
        "col1": "Buzzr",
        "col2": "2015-12-08",
        "col3": "28 (UHF/PSIP)"
    },
    {
        "col0": "WTVE",
        "col1": "Independent station",
        "col2": "1980-05-04",
        "col3": "25 (UHF)"
    },
    {
        "col0": "WTJX-TV",
        "col1": "PBS",
        "col2": "1972-08-29",
        "col3": "44 (UHF)"
    },
    {
        "col0": "WTHI-TV",
        "col1": "CBS",
        "col2": "1954-07-22",
        "col3": "10 (VHF)"
    },
    {
        "col0": "WTHI-DT2",
        "col1": "Fox Broadcasting Company",
        "col2": "2010-10-25",
        "col3": "Virtual: 10.2 (PSIP)"
    },
    {
        "col0": "WTAE-TV",
        "col1": "American Broadcasting Company",
        "col2": "1958-09-14",
        "col3": "51 (UHF)"
    },
    {
        "col0": "WSVF-CD2",
        "col1": "CBS",
        "col2": "2012-10-03",
        "col3": "Virtual: 43.2 (PSIP)"
    },
    {
        "col0": "WSVF-CD",
        "col1": "Fox Broadcasting Company",
        "col2": "2006-10-26",
        "col3": "43 (UHF)"
    },
    {
        "col0": "WSTE-DT",
        "col1": "Hipodromo Camarero",
        "col2": "1958-02-02",
        "col3": "7 (VHF)"
    },
    {
        "col0": "WSST-TV",
        "col1": "Youtoo America",
        "col2": "1989-05-22",
        "col3": "51 (UHF)"
    },
    {
        "col0": "WSPA-TV",
        "col1": "CBS",
        "col2": "1956-04-29",
        "col3": "7 (VHF)"
    },
    {
        "col0": "WSNS-TV",
        "col1": "Telemundo",
        "col2": "1970-04-05",
        "col3": ")"
    },
    {
        "col0": "WSEE-TV",
        "col1": "CBS",
        "col2": "1954-04-24",
        "col3": "16 (UHF) &"
    },
    {
        "col0": "WRUA",
        "col1": "Independent station",
        "col2": "1997-03-07",
        "col3": "33 (UHF)"
    },
    {
        "col0": "WRGX-LD",
        "col1": "NBC",
        "col2": "2013-06-01",
        "col3": "23 (UHF) &"
    },
    {
        "col0": "WRDE-LD",
        "col1": "NBC",
        "col2": "2004-05-05",
        "col3": "31 (UHF)"
    },
    {
        "col0": "WQTV-LP",
        "col1": "MeTV",
        "col2": "1988-01-01",
        "col3": "12.2 (PSIP)"
    },
    {
        "col0": "WQPT-TV",
        "col1": "PBS",
        "col2": "1983-11-02",
        "col3": "23 (UHF)"
    },
    {
        "col0": "WQOW",
        "col1": "American Broadcasting Company",
        "col2": "1980-09-22",
        "col3": "15 (UHF)"
    },
    {
        "col0": "WQLN",
        "col1": "PBS",
        "col2": "1967-08-13",
        "col3": "50 (UHF)"
    },
    {
        "col0": "WQHA",
        "col1": "Religious broadcasting",
        "col2": "1993-04-19",
        "col3": "44 (UHF)"
    },
    {
        "col0": "WQAD-TV",
        "col1": "American Broadcasting Company",
        "col2": "1963-08-01",
        "col3": "38 (UHF)"
    },
    {
        "col0": "WPXJ-TV",
        "col1": "Owned-and-operated station",
        "col2": "1999-06-17",
        "col3": "23 (UHF)"
    },
    {
        "col0": "WPTV-TV",
        "col1": "NBC",
        "col2": "1954-08-22",
        "col3": "12 (VHF)"
    },
    {
        "col0": "WPNY-LP",
        "col1": "MyNetworkTV",
        "col2": "1988-01-01",
        "col3": "Virtual: 20.2 (PSIP)"
    },
    {
        "col0": "WPBF",
        "col1": "American Broadcasting Company",
        "col2": "1989-01-01",
        "col3": "16 (UHF)"
    },
    {
        "col0": "WOWT",
        "col1": "NBC",
        "col2": "1949-08-29",
        "col3": "22 (UHF)"
    },
    {
        "col0": "WOTV",
        "col1": "American Broadcasting Company",
        "col2": "1971-07-24",
        "col3": "20 (UHF)"
    },
    {
        "col0": "WOOD-TV",
        "col1": "NBC",
        "col2": "1949-08-15",
        "col3": "7 (VHF)"
    },
    {
        "col0": "WOIO",
        "col1": "CBS",
        "col2": "1985-05-19",
        "col3": "10 (VHF)"
    },
    {
        "col0": "WOCH-CD",
        "col1": "Comet",
        "col2": "1989-09-27",
        "col3": "49 (UHF)"
    },
    {
        "col0": "WNNE",
        "col1": "NBC",
        "col2": "1978-09-27",
        "col3": "25 (UHF)"
    },
    {
        "col0": "WNLO",
        "col1": "CBS",
        "col2": "1987-05-13",
        "col3": "32 (UHF)"
    },
    {
        "col0": "WNJX-TV",
        "col1": "WAPA-TV",
        "col2": "1986-04-27",
        "col3": "23 (UHF)"
    },
    {
        "col0": "WNEP-TV",
        "col1": "American Broadcasting Company",
        "col2": "1953-09-16",
        "col3": "50 (UHF)"
    },
    {
        "col0": "WNCT-TV",
        "col1": "CBS",
        "col2": "1953-12-22",
        "col3": "10 (VHF)"
    },
    {
        "col0": "WNAC-TV",
        "col1": "Fox Broadcasting Company",
        "col2": "1953-08-29",
        "col3": "12 (VHF)"
    },
    {
        "col0": "WMYA-TV",
        "col1": "MyNetworkTV",
        "col2": "1953-09-05",
        "col3": "14 (UHF)"
    },
    {
        "col0": "WMWC-TV",
        "col1": "Trinity Broadcasting Network",
        "col2": "2012-08-20",
        "col3": "8 (VHF)"
    },
    {
        "col0": "WMVT",
        "col1": "PBS",
        "col2": "1963-01-29",
        "col3": "35 (UHF)"
    },
    {
        "col0": "WMVS",
        "col1": "PBS",
        "col2": "1957-10-28",
        "col3": "8 (VHF)"
    },
    {
        "col0": "WMUR-TV",
        "col1": "American Broadcasting Company",
        "col2": "1954-03-28",
        "col3": "9 (VHF)"
    },
    {
        "col0": "WMUM-TV",
        "col1": "PBS",
        "col2": "1968-01-01",
        "col3": "7 (VHF)"
    },
    {
        "col0": "WMGT-TV",
        "col1": "NBC",
        "col2": "1968-09-30",
        "col3": "40 (UHF)"
    },
    {
        "col0": "WMGT-DT2",
        "col1": "MyNetworkTV",
        "col2": "2009-07-06",
        "col3": "Virtual: 41.2 (PSIP)"
    },
    {
        "col0": "WMEI",
        "col1": "AccuWeather Channel",
        "col2": "2007-03-20",
        "col3": "14 (UHF)"
    },
    {
        "col0": "WMAZ-DT2",
        "col1": "The CW",
        "col2": "1998-09-21",
        "col3": "Virtual: 13.2 (PSIP)"
    },
    {
        "col0": "WLTZ",
        "col1": "NBC",
        "col2": "1970-10-29",
        "col3": "35 (UHF)"
    },
    {
        "col0": "WLOS",
        "col1": "American Broadcasting Company",
        "col2": "1954-09-18",
        "col3": "13 (VHF)"
    },
    {
        "col0": "WLLA",
        "col1": "Independent station",
        "col2": "1987-06-30",
        "col3": "45 (UHF)"
    },
    {
        "col0": "WLEX-DT2",
        "col1": "MeTV",
        "col2": "2009-11-25",
        "col3": "Virtual: 18.2 (PSIP)"
    },
    {
        "col0": "WLEP-LD",
        "col1": "Sonlife Broadcasting Network",
        "col2": "2011-02-18",
        "col3": "43 (UHF)"
    },
    {
        "col0": "WLCF-LD",
        "col1": "Christian Television Network",
        "col2": "1991-12-05",
        "col3": "45 (UHF)"
    },
    {
        "col0": "WLAX",
        "col1": "Fox Broadcasting Company",
        "col2": "1986-11-10",
        "col3": "Virtual:"
    },
    {
        "col0": "WKTV",
        "col1": "CBS",
        "col2": "1949-12-01",
        "col3": "29 (UHF)"
    },
    {
        "col0": "WKDH",
        "col1": "Dark",
        "col2": "2001-06-18",
        "col3": "45 (UHF)"
    },
    {
        "col0": "WKBT-DT",
        "col1": "CBS",
        "col2": "1954-08-08",
        "col3": "8 (VHF)"
    },
    {
        "col0": "WJZY",
        "col1": "Fox Broadcasting Company",
        "col2": "1987-03-09",
        "col3": "47 (UHF)"
    },
    {
        "col0": "WJYS",
        "col1": "Independent station",
        "col2": "1991-03-02",
        "col3": "36 (UHF)"
    },
    {
        "col0": "WJTS-CD",
        "col1": "Youtoo TV",
        "col2": "1993-02-14",
        "col3": "18 (UHF)"
    },
    {
        "col0": "WJPX",
        "col1": "WFUN-LD",
        "col2": "1987-02-15",
        "col3": "21 (UHF)"
    },
    {
        "col0": "WIPR-TV",
        "col1": "Qubo",
        "col2": "1958-01-06",
        "col3": "43 (UHF)"
    },
    {
        "col0": "WINP-TV",
        "col1": "Owned-and-operated station",
        "col2": "1953-08-31",
        "col3": "38 (UHF)"
    },
    {
        "col0": "WIIH-CD",
        "col1": "The CW",
        "col2": "1988-01-29",
        "col3": "17 (VHF)"
    },
    {
        "col0": "WIBW-DT2",
        "col1": "MyNetworkTV",
        "col2": "2006-09-05",
        "col3": "Virtual: 13.2 (PSIP)"
    },
    {
        "col0": "WIAT",
        "col1": "CBS",
        "col2": "1965-10-17",
        "col3": "30 (UHF)"
    },
    {
        "col0": "WHSV-DT4",
        "col1": "MyNetworkTV",
        "col2": "2006-10-26",
        "col3": "Virtual: 3.4 (PSIP)"
    },
    {
        "col0": "WHNS",
        "col1": "Fox Broadcasting Company",
        "col2": "1984-04-01",
        "col3": "21 (UHF)"
    },
    {
        "col0": "WGVU-TV",
        "col1": "PBS",
        "col2": "1972-12-17",
        "col3": "35.1 (PSIP)"
    },
    {
        "col0": "WGTA",
        "col1": "Heroes & Icons",
        "col2": "1984-09-09",
        "col3": "24 (UHF)"
    },
    {
        "col0": "WGGS-TV",
        "col1": "Religious broadcasting",
        "col2": "1972-10-29",
        "col3": "16 (UHF)"
    },
    {
        "col0": "WGGD-LD",
        "col1": "Daystar",
        "col2": "2008-02-18",
        "col3": "23 (UHF)"
    },
    {
        "col0": "WGBY-TV",
        "col1": "PBS",
        "col2": "1971-09-26",
        "col3": "22 (UHF)"
    },
    {
        "col0": "WFXU",
        "col1": "Retro Television Network",
        "col2": "1998-06-15",
        "col3": "48 (UHF)"
    },
    {
        "col0": "WFXS-DT",
        "col1": "Dark",
        "col2": "1999-12-01",
        "col3": "31 (UHF)"
    },
    {
        "col0": "WFVX-LD",
        "col1": "American Broadcasting Company",
        "col2": "2003-04-13",
        "col3": "22 (UHF)"
    },
    {
        "col0": "WFTY-DT",
        "col1": "UniMas",
        "col2": "1973-11-18",
        "col3": "23 (UHF)"
    },
    {
        "col0": "WFQX-TV",
        "col1": "Fox Broadcasting Company",
        "col2": "1989-10-06",
        "col3": "WFQX: 32.1 (UHF)"
    },
    {
        "col0": "WFIE",
        "col1": "NBC",
        "col2": "1953-11-15",
        "col3": "46 (UHF)"
    },
    {
        "col0": "WEVV-DT2",
        "col1": "Fox Broadcasting Company",
        "col2": "2006-09-05",
        "col3": "Virtual: 44.2 (PSIP)"
    },
    {
        "col0": "WEAU",
        "col1": "NBC",
        "col2": "1953-12-17",
        "col3": "38 (UHF)"
    },
    {
        "col0": "WDTB-LP",
        "col1": "Daystar",
        "col2": "1989-05-31",
        "col3": "29 (UHF)"
    },
    {
        "col0": "WDNI-CD",
        "col1": "Telemundo",
        "col2": "1989-03-07",
        "col3": "19 (UHF)"
    },
    {
        "col0": "WCPX-TV",
        "col1": "Ion Television",
        "col2": "1976-05-31",
        "col3": ")"
    },
    {
        "col0": "WCNY-TV",
        "col1": "Public Broadcasting Service",
        "col2": "2011-10-27",
        "col3": "22 Utica (UHF)"
    },
    {
        "col0": "WCMZ-TV",
        "col1": "PBS",
        "col2": "1980-08-23",
        "col3": "28 (UHF)"
    },
    {
        "col0": "WCMU-TV",
        "col1": "Public Broadcasting Service",
        "col2": "1967-03-29",
        "col3": "17 (UHF) WCMV"
    },
    {
        "col0": "WCJB-DT2",
        "col1": "The CW",
        "col2": "2006-09-18",
        "col3": "Virtual: 20.1 (PSIP)"
    },
    {
        "col0": "WCIU-TV",
        "col1": "Independent station",
        "col2": "1964-02-06",
        "col3": ")"
    },
    {
        "col0": "WBQD-LP",
        "col1": "MyNetworkTV",
        "col2": "2002-06-01",
        "col3": "14 (UHF) (CP)"
    },
    {
        "col0": "WBKB-TV",
        "col1": "American Broadcasting Company",
        "col2": "1975-09-22",
        "col3": "11 (VHF)"
    },
    {
        "col0": "WAZE-TV",
        "col1": "Ion Television",
        "col2": "1983-10-15",
        "col3": "17 (UHF)"
    },
    {
        "col0": "WABI-TV",
        "col1": "CBS",
        "col2": "1953-01-25",
        "col3": "13 (VHF)"
    },
    {
        "col0": "W45DF-D",
        "col1": "Home Shopping Network",
        "col2": "2007-07-31",
        "col3": "45 (UHF)"
    },
    {
        "col0": "W14DG-D",
        "col1": "Dark",
        "col2": "2016-01-01",
        "col3": "14 (UHF)"
    },
    {
        "col0": "VTV",
        "col1": "Network Ten",
        "col2": "1961-12-23",
        "col3": "[[#Main transmitters"
    },
    {
        "col0": "TVW",
        "col1": "Seven Network",
        "col2": "1959-10-16",
        "col3": "6 (VHF-64-QAM)"
    },
    {
        "col0": "Setonaikai Broadcasting",
        "col1": "All-Nippon News Network",
        "col2": "1969-04-01",
        "col3": "30 (UHF -LCN5)"
    },
    {
        "col0": "RTQ",
        "col1": "Network Ten",
        "col2": "1963-09-07",
        "col3": "see table below"
    },
    {
        "col0": "QQQ",
        "col1": "Seven Network",
        "col2": "1971-09-11",
        "col3": "switch on digital, 2010-2013 various"
    },
    {
        "col0": "Pioneer Public TV",
        "col1": "Public Broadcasting Service",
        "col2": "1966-01-21",
        "col3": "Digital: KSMN: 15 (UHF)"
    },
    {
        "col0": "NEW",
        "col1": "Network Ten",
        "col2": "1988-05-20",
        "col3": "11 (VHF)"
    },
    {
        "col0": "MHz Networks",
        "col1": "Non-commercial educational",
        "col2": "1972-03-01",
        "col3": "WNVC: 24 (UHF)"
    },
    {
        "col0": "KZJO",
        "col1": "MyNetworkTV",
        "col2": "1985-06-22",
        "col3": "25 (UHF)"
    },
    {
        "col0": "KYUU-LD",
        "col1": "The CW",
        "col2": "1993-11-10",
        "col3": "28 (UHF)"
    },
    {
        "col0": "KYTX-DT2",
        "col1": "The CW",
        "col2": "2006-01-01",
        "col3": "KYTX-DT18.2 (UHF)"
    },
    {
        "col0": "KYTV",
        "col1": "NBC",
        "col2": "1953-10-01",
        "col3": "44 (UHF)"
    },
    {
        "col0": "KYCW-LD",
        "col1": "The CW",
        "col2": "1990-03-15",
        "col3": "15 (UHF)"
    },
    {
        "col0": "KXXV",
        "col1": "American Broadcasting Company",
        "col2": "1985-03-22",
        "col3": "26 (UHF)"
    },
    {
        "col0": "KXVO",
        "col1": "The CW",
        "col2": "1995-06-10",
        "col3": "38 (UHF)"
    },
    {
        "col0": "KXUN-LD",
        "col1": "Univision",
        "col2": "1995-09-14",
        "col3": "43 (UHF)"
    },
    {
        "col0": "KXTQ-CD",
        "col1": "Telemundo",
        "col2": "1989-08-21",
        "col3": "46 (UHF)"
    },
    {
        "col0": "KXLF-TV",
        "col1": "CBS",
        "col2": "1953-08-14",
        "col3": "KBZK: 13 (VHF)"
    },
    {
        "col0": "KXAP-LD",
        "col1": "Estrella TV",
        "col2": "2008-07-08",
        "col3": "51 (UHF)"
    },
    {
        "col0": "KWYB",
        "col1": "American Broadcasting Company",
        "col2": "1996-09-27",
        "col3": "19 (UHF)"
    },
    {
        "col0": "KWWF",
        "col1": "Dark",
        "col2": "2002-12-01",
        "col3": "22 (UHF)"
    },
    {
        "col0": "KWTX-TV",
        "col1": "CBS",
        "col2": "1955-04-03",
        "col3": "10 (VHF)"
    },
    {
        "col0": "KWQC-TV",
        "col1": "NBC",
        "col2": "1949-10-31",
        "col3": "36 (UHF)"
    },
    {
        "col0": "KWPX-TV",
        "col1": "Ion Television",
        "col2": "1989-05-17",
        "col3": "33 (UHF)"
    },
    {
        "col0": "KWKT-TV",
        "col1": "Fox Broadcasting Company",
        "col2": "1988-03-13",
        "col3": "44 (UHF)"
    },
    {
        "col0": "KWKB",
        "col1": "This TV",
        "col2": "1999-08-30",
        "col3": "25 (UHF)"
    },
    {
        "col0": "KWDK",
        "col1": "Daystar",
        "col2": "2000-09-06",
        "col3": "42 (UHF)"
    },
    {
        "col0": "KWBM",
        "col1": "Daystar",
        "col2": "2001-01-26",
        "col3": "31 (UHF)"
    },
    {
        "col0": "KVUE",
        "col1": "American Broadcasting Company",
        "col2": "1971-09-12",
        "col3": "33 (UHF)"
    },
    {
        "col0": "KVTV",
        "col1": "Dark",
        "col2": "1973-12-28",
        "col3": "13 (VHF)"
    },
    {
        "col0": "KVSN-DT",
        "col1": "Univision",
        "col2": "2009-03-02",
        "col3": "48 (UHF)"
    }
]