[
    {
        "col0": "Windows on the World",
        "col1": "M. Lomonaco",
        "col2": "1 World Trade Center, 107th Floor,Manhattan, New York City, NY, U.S.",
        "col3": "240"
    },
    {
        "col0": "Verre",
        "col1": "A. Hartnett",
        "col2": "Baniyas Street",
        "col3": "55"
    },
    {
        "col0": "Thornton's Restaurant",
        "col1": "K. Thornton",
        "col2": "128 St. Stephen's Green",
        "col3": "60"
    },
    {
        "col0": "The Man Behind The Curtain",
        "col1": "M. O'Hare",
        "col2": "68-78 Vicar Lane",
        "col3": "40"
    },
    {
        "col0": "The Kitchin",
        "col1": "T. Kitchin",
        "col2": "78 Commercial Quay",
        "col3": "60"
    },
    {
        "col0": "The French Laundry",
        "col1": "T. Keller",
        "col2": "6640 Washington St",
        "col3": "60"
    },
    {
        "col0": "Schwa",
        "col1": "M. Carlson",
        "col2": "1466 N. Ashland",
        "col3": "26"
    },
    {
        "col0": "Savelberg",
        "col1": "H. Savelberg",
        "col2": "Oosteinde 14",
        "col3": "70"
    },
    {
        "col0": "Ron Blaauw",
        "col1": "R. Blaauw",
        "col2": "Sophialaan 55",
        "col3": "60"
    },
    {
        "col0": "Restaurant Gordon Ramsay",
        "col1": "C. Smyth",
        "col2": "Royal Hospital Road",
        "col3": "45"
    },
    {
        "col0": "Porter House New York",
        "col1": "M. Lomonaco",
        "col2": "10 Columbus Circle inTime Warner Center",
        "col3": "250"
    },
    {
        "col0": "Peacock Alley",
        "col1": "C. Gallagher",
        "col2": "128 St. Stephen's Green",
        "col3": "60"
    },
    {
        "col0": "Lasan",
        "col1": "A. Islam",
        "col2": "3-4 Dakota Buildings, James Street,St Paul's Square",
        "col3": "64"
    },
    {
        "col0": "Lady Helen Restaurant",
        "col1": "C. Rowe",
        "col2": "Mount Juliet,Thomastown,County Kilkenny",
        "col3": "30"
    },
    {
        "col0": "Grossi Florentino",
        "col1": "G. Grossi",
        "col2": "80 Bourke Street",
        "col3": "210"
    },
    {
        "col0": "Faviken",
        "col1": "M. Nilsson",
        "col2": "Faviken Egindom",
        "col3": "16"
    },
    {
        "col0": "Eleven Madison Park",
        "col1": "D. Humm",
        "col2": "11Madison Avenue",
        "col3": "80"
    },
    {
        "col0": "El Celler de Can Roca",
        "col1": "J. Roca",
        "col2": "C/ de Can Sunyer, 48",
        "col3": "45"
    },
    {
        "col0": "Da Vinci",
        "col1": "M. Reuten",
        "col2": "Havenstraat 27",
        "col3": "60"
    },
    {
        "col0": "Aubergine",
        "col1": "G. Ramsay",
        "col2": "11 Park Walk",
        "col3": "45"
    },
    {
        "col0": "'t Brouwerskolkje",
        "col1": "M. Roth",
        "col2": "Brouwerskolkweg 5",
        "col3": "30"
    },
    {
        "col0": "&samhoud places",
        "col1": "M. Roth",
        "col2": "Oosterdokskade 5",
        "col3": "60"
    }
]