[
    {
        "col0": "Vermont Route 17",
        "col1": "Waitsfield, Vermont",
        "col2": "New York",
        "col3": "17"
    },
    {
        "col0": "Vermont Route 16",
        "col1": "Westmore, Vermont",
        "col2": "Hardwick, Vermont",
        "col3": "16"
    },
    {
        "col0": "Vermont Route 155",
        "col1": "Wallingford, Vermont",
        "col2": "Weston, Vermont",
        "col3": "155"
    },
    {
        "col0": "Vermont Route 153",
        "col1": "Pawlet, Vermont",
        "col2": "Salem",
        "col3": "153"
    },
    {
        "col0": "Vermont Route 15",
        "col1": "Danville, Vermont",
        "col2": "Winooski, Vermont",
        "col3": "15"
    },
    {
        "col0": "Vermont Route 144",
        "col1": "Sudbury, Vermont",
        "col2": "Benson, Vermont",
        "col3": "144"
    },
    {
        "col0": "Vermont Route 143",
        "col1": "Springfield, Vermont",
        "col2": "Springfield, Vermont",
        "col3": "143"
    },
    {
        "col0": "Vermont Route 142",
        "col1": "Brattleboro, Vermont",
        "col2": "Northfield, Massachusetts",
        "col3": "142"
    },
    {
        "col0": "Vermont Route 140",
        "col1": "Mount Holly, Vermont",
        "col2": "Poultney",
        "col3": "140"
    },
    {
        "col0": "Vermont Route 14",
        "col1": "Newport",
        "col2": "White River Junction, Vermont",
        "col3": "14"
    },
    {
        "col0": "Vermont Route 139",
        "col1": "Abercorn, Quebec",
        "col2": "Richford, Vermont",
        "col3": "139"
    },
    {
        "col0": "Vermont Route 133",
        "col1": "West Rutland, Vermont",
        "col2": "Pawlet, Vermont",
        "col3": "133"
    },
    {
        "col0": "Vermont Route 132",
        "col1": "Norwich, Vermont",
        "col2": "Sharon, Vermont",
        "col3": "132"
    },
    {
        "col0": "Vermont Route 131",
        "col1": "Weathersfield, Vermont",
        "col2": "Cavendish, Vermont",
        "col3": "131"
    },
    {
        "col0": "Vermont Route 129",
        "col1": "Alburgh, Vermont",
        "col2": "Isle La Motte, Vermont",
        "col3": "129"
    },
    {
        "col0": "Vermont Route 128",
        "col1": "Fairfax, Vermont",
        "col2": "Essex, Vermont",
        "col3": "128"
    },
    {
        "col0": "Vermont Route 127",
        "col1": "Colchester, Vermont",
        "col2": "Burlington, Vermont",
        "col3": "127"
    },
    {
        "col0": "Vermont Route 125",
        "col1": "Hancock, Vermont",
        "col2": "Addison, Vermont",
        "col3": "125"
    },
    {
        "col0": "Vermont Route 122",
        "col1": "Glover, Vermont",
        "col2": "Lyndon, Vermont",
        "col3": "122"
    },
    {
        "col0": "Vermont Route 121",
        "col1": "New Hampshire",
        "col2": "Londonderry, Vermont",
        "col3": "121"
    },
    {
        "col0": "Vermont Route 120",
        "col1": "Berkshire, Vermont",
        "col2": "Sheldon, Vermont",
        "col3": "120"
    },
    {
        "col0": "Vermont Route 12",
        "col1": "Morrisville, Vermont",
        "col2": "Weathersfield, Vermont",
        "col3": "12"
    },
    {
        "col0": "Vermont Route 118",
        "col1": "Berkshire, Vermont",
        "col2": "Eden, Vermont",
        "col3": "118"
    },
    {
        "col0": "Vermont Route 117",
        "col1": "Richmond, Vermont",
        "col2": "Essex, Vermont",
        "col3": "117"
    },
    {
        "col0": "Vermont Route 116",
        "col1": "South Burlington, Vermont",
        "col2": "Middlebury, Vermont",
        "col3": "116"
    },
    {
        "col0": "Vermont Route 114",
        "col1": "Stewartstown, New Hampshire",
        "col2": "Lyndon, Vermont",
        "col3": "114"
    },
    {
        "col0": "Vermont Route 113",
        "col1": "Lyme, New Hampshire",
        "col2": "Chelsea, Vermont",
        "col3": "113"
    },
    {
        "col0": "Vermont Route 112",
        "col1": "Jacksonville, Vermont",
        "col2": "Colrain, Massachusetts",
        "col3": "112"
    },
    {
        "col0": "Vermont Route 111",
        "col1": "Brighton, Vermont",
        "col2": "Derby, Vermont",
        "col3": "111"
    },
    {
        "col0": "Vermont Route 110",
        "col1": "Barre",
        "col2": "Royalton, Vermont",
        "col3": "110"
    },
    {
        "col0": "Vermont Route 11",
        "col1": "Charlestown, New Hampshire",
        "col2": "Manchester, Vermont",
        "col3": "11"
    },
    {
        "col0": "Vermont Route 109",
        "col1": "Belvidere, Vermont",
        "col2": "Cambridge, Vermont",
        "col3": "109"
    },
    {
        "col0": "Vermont Route 108",
        "col1": "Berkshire, Vermont",
        "col2": "Stowe, Vermont",
        "col3": "108"
    },
    {
        "col0": "Vermont Route 107",
        "col1": "Royalton, Vermont",
        "col2": "Stockbridge, Vermont",
        "col3": "107"
    },
    {
        "col0": "Vermont Route 106",
        "col1": "Woodstock, Vermont",
        "col2": "Springfield, Vermont",
        "col3": "106"
    },
    {
        "col0": "Vermont Route 105",
        "col1": "North Stratford, New Hampshire",
        "col2": "St. Albans",
        "col3": "105"
    },
    {
        "col0": "Vermont Route 104",
        "col1": "St. Albans",
        "col2": "Cambridge, Vermont",
        "col3": "104"
    },
    {
        "col0": "Vermont Route 103",
        "col1": "Clarendon, Vermont",
        "col2": "Rockingham, Vermont",
        "col3": "103"
    },
    {
        "col0": "Vermont Route 102",
        "col1": "Canaan, Vermont",
        "col2": "Guildhall, Vermont",
        "col3": "102"
    },
    {
        "col0": "Vermont Route 101",
        "col1": "Troy, Vermont",
        "col2": "Troy, Vermont",
        "col3": "101"
    },
    {
        "col0": "Vermont Route 100",
        "col1": "Newport",
        "col2": "Clarksburg, Massachusetts",
        "col3": "100"
    },
    {
        "col0": "Vermont Route 10",
        "col1": "Springfield, Vermont",
        "col2": "Chester, Vermont",
        "col3": "10"
    },
    {
        "col0": "Utah State Route 99",
        "col1": "Fillmore, Utah",
        "col2": "Fillmore, Utah",
        "col3": "99"
    },
    {
        "col0": "Utah State Route 98",
        "col1": "Roy, Utah",
        "col2": "Hooper, Utah",
        "col3": "98"
    },
    {
        "col0": "Utah State Route 97",
        "col1": "Hill Air Force Base",
        "col2": "Hooper, UT",
        "col3": "97"
    },
    {
        "col0": "Utah State Route 96",
        "col1": "Soldier Summit, Utah",
        "col2": "Clear Creek, Utah",
        "col3": "96"
    },
    {
        "col0": "Utah State Route 95",
        "col1": "Blanding, Utah",
        "col2": "Hanksville, Utah",
        "col3": "95"
    },
    {
        "col0": "Utah State Route 94",
        "col1": "Thompson Springs, Utah",
        "col2": "Thompson Springs, Utah",
        "col3": "94"
    },
    {
        "col0": "Utah State Route 93",
        "col1": "Woods Cross, Utah",
        "col2": "Woods Cross, Utah",
        "col3": "93"
    },
    {
        "col0": "Utah State Route 92",
        "col1": "Provo Canyon",
        "col2": "Lehi, Utah",
        "col3": "92"
    },
    {
        "col0": "Utah State Route 90",
        "col1": "Brigham City, Utah",
        "col2": "Brigham City, Utah",
        "col3": "90"
    },
    {
        "col0": "Utah State Route 9",
        "col1": "Mt. Carmel Junction, Utah",
        "col2": "Washington, UT",
        "col3": "9"
    },
    {
        "col0": "Utah State Route 88",
        "col1": "Fort Duchesne, UT",
        "col2": "Ouray, Utah",
        "col3": "88"
    },
    {
        "col0": "Utah State Route 87",
        "col1": "Roosevelt, Utah",
        "col2": "Duchesne, Utah",
        "col3": "87"
    },
    {
        "col0": "Utah State Route 86",
        "col1": "Henefer, Utah",
        "col2": "Henefer, Utah",
        "col3": "86"
    },
    {
        "col0": "Utah State Route 83",
        "col1": "Howell, Utah",
        "col2": "Corinne, Utah",
        "col3": "83"
    },
    {
        "col0": "Utah State Route 82",
        "col1": "Garland, UT",
        "col2": "Tremonton, UT",
        "col3": "82"
    },
    {
        "col0": "Utah State Route 81",
        "col1": "Fielding, UT",
        "col2": "Box Elder County, Utah",
        "col3": "81"
    },
    {
        "col0": "Utah State Route 8",
        "col1": "Saint George, Utah",
        "col2": "Saint George, Utah",
        "col3": "8"
    },
    {
        "col0": "Utah State Route 79",
        "col1": "Ogden, Utah",
        "col2": "Ogden, Utah",
        "col3": "79"
    },
    {
        "col0": "Utah State Route 78",
        "col1": "Levan, Utah",
        "col2": "Mills Junction, Utah",
        "col3": "78"
    },
    {
        "col0": "Utah State Route 77",
        "col1": "Springville, UT",
        "col2": "Benjamin, Utah",
        "col3": "77"
    },
    {
        "col0": "Utah State Route 75",
        "col1": "Springville, Utah",
        "col2": "Springville, Utah",
        "col3": "75"
    },
    {
        "col0": "Utah State Route 74",
        "col1": "Alpine, Utah",
        "col2": "American Fork, Utah",
        "col3": "74"
    },
    {
        "col0": "Utah State Route 73",
        "col1": "Lehi, UT",
        "col2": "Rush Valley, UT",
        "col3": "73"
    },
    {
        "col0": "Utah State Route 72",
        "col1": "Fremont Junction, Utah",
        "col2": "Loa, Utah",
        "col3": "72"
    },
    {
        "col0": "Utah State Route 71",
        "col1": "Salt Lake City",
        "col2": "Riverton, Utah",
        "col3": "71"
    },
    {
        "col0": "Utah State Route 7",
        "col1": "Hurricane, Utah",
        "col2": "St. George, Utah",
        "col3": "7"
    },
    {
        "col0": "Utah State Route 68",
        "col1": "Woods Cross, Utah",
        "col2": "Elberta, Utah",
        "col3": "68"
    },
    {
        "col0": "Utah State Route 66",
        "col1": "Morgan, Utah",
        "col2": "East Canyon State Park",
        "col3": "66"
    },
    {
        "col0": "Utah State Route 65",
        "col1": "Henefer, Utah",
        "col2": "Summit Park, Utah",
        "col3": "65"
    },
    {
        "col0": "Utah State Route 64",
        "col1": "Holden, Utah",
        "col2": "Holden, Utah",
        "col3": "64"
    },
    {
        "col0": "Utah State Route 63",
        "col1": "Tropic Junction, Utah",
        "col2": "Bryce Canyon National Park",
        "col3": "63"
    },
    {
        "col0": "Utah State Route 62",
        "col1": "Plateau Junction, Utah",
        "col2": "Junction, Utah",
        "col3": "62"
    },
    {
        "col0": "Utah State Route 61",
        "col1": "Richmond, Utah",
        "col2": "Cornish, Utah",
        "col3": "61"
    },
    {
        "col0": "Utah State Route 60",
        "col1": "South Weber, UT",
        "col2": "Riverdale, UT",
        "col3": "60"
    },
    {
        "col0": "Utah State Route 59",
        "col1": "Hurricane, Utah",
        "col2": "Colorado City, Arizona",
        "col3": "59"
    },
    {
        "col0": "Utah State Route 57",
        "col1": "Wilberg Mine",
        "col2": "Castle Dale, Utah",
        "col3": "57"
    },
    {
        "col0": "Utah State Route 56",
        "col1": "Cedar City, Utah",
        "col2": "Modena, Utah",
        "col3": "56"
    },
    {
        "col0": "Utah State Route 55",
        "col1": "Price, Utah",
        "col2": "Price, Utah",
        "col3": "55"
    },
    {
        "col0": "Utah State Route 54",
        "col1": "Mona, Utah",
        "col2": "Mona, Utah",
        "col3": "54"
    },
    {
        "col0": "Utah State Route 53",
        "col1": "Ogden, UT",
        "col2": "Ogden, UT",
        "col3": "53"
    },
    {
        "col0": "Utah State Route 52",
        "col1": "Orem, UT",
        "col2": "Orem, UT",
        "col3": "52"
    },
    {
        "col0": "Utah State Route 51",
        "col1": "Springville, Utah",
        "col2": "Spanish Fork, Utah",
        "col3": "51"
    },
    {
        "col0": "Utah State Route 48",
        "col1": "Midvale, UT",
        "col2": "Bingham Canyon Mine",
        "col3": "48"
    },
    {
        "col0": "Utah State Route 46",
        "col1": "Naturita, CO",
        "col2": "La Sal Junction, Utah",
        "col3": "46"
    },
    {
        "col0": "Utah State Route 45",
        "col1": "Naples, Utah",
        "col2": "Bonanza, Utah",
        "col3": "45"
    },
    {
        "col0": "Utah State Route 44",
        "col1": "Manila, Utah",
        "col2": "Greendale Junction, Utah",
        "col3": "44"
    },
    {
        "col0": "Utah State Route 43",
        "col1": "Wyoming",
        "col2": "Wyoming",
        "col3": "43"
    },
    {
        "col0": "Utah State Route 42",
        "col1": "List of named highway junctions in Utah",
        "col2": "Idaho",
        "col3": "42"
    },
    {
        "col0": "Utah State Route 39",
        "col1": "Woodruff, Utah",
        "col2": "Marriott-Slaterville, Utah",
        "col3": "39"
    },
    {
        "col0": "Utah State Route 38",
        "col1": "Collinston, Utah",
        "col2": "Brigham City, UT",
        "col3": "38"
    },
    {
        "col0": "Utah State Route 37",
        "col1": "Roy, UT",
        "col2": "Sunset, UT",
        "col3": "37"
    },
    {
        "col0": "Utah State Route 36",
        "col1": "Lake Point, Utah",
        "col2": "Eureka, Utah",
        "col3": "36"
    },
    {
        "col0": "Utah State Route 35",
        "col1": "Duchesne, Utah",
        "col2": "Francis, Utah",
        "col3": "35"
    },
    {
        "col0": "Utah State Route 34",
        "col1": "Saint George, Utah",
        "col2": "Saint George, Utah",
        "col3": "34"
    },
    {
        "col0": "Utah State Route 32",
        "col1": "Wanship, Utah",
        "col2": "Heber City, Utah",
        "col3": "32"
    },
    {
        "col0": "Utah State Route 313",
        "col1": "U.S. Route 191",
        "col2": "Dead Horse Point State Park",
        "col3": "313"
    },
    {
        "col0": "Utah State Route 31",
        "col1": "Huntington, Utah",
        "col2": "Fairview, Utah",
        "col3": "31"
    },
    {
        "col0": "Utah State Route 30",
        "col1": "Bear Lake",
        "col2": "Montello, Nevada",
        "col3": "30"
    },
    {
        "col0": "Utah State Route 29",
        "col1": "Castle Dale, Utah",
        "col2": "Emery County, Utah",
        "col3": "29"
    },
    {
        "col0": "Utah State Route 280",
        "col1": "Coalville, Utah",
        "col2": "Coalville, Utah",
        "col3": "280"
    },
    {
        "col0": "Utah State Route 28",
        "col1": "Nephi, Utah",
        "col2": "Gunnison, Utah",
        "col3": "28"
    },
    {
        "col0": "Utah State Route 276",
        "col1": "Hanksville, Utah",
        "col2": "Trachyte Junction, Utah",
        "col3": "276"
    },
    {
        "col0": "Utah State Route 274",
        "col1": "Parowan, Utah",
        "col2": "Parowan, Utah",
        "col3": "274"
    },
    {
        "col0": "Utah State Route 273",
        "col1": "Kaysville, Utah",
        "col2": "Farmington, Utah",
        "col3": "273"
    },
    {
        "col0": "Utah State Route 271",
        "col1": "Paragonah, Utah",
        "col2": "Parowan, Utah",
        "col3": "271"
    },
    {
        "col0": "Utah State Route 270",
        "col1": "Salt Lake City",
        "col2": "Salt Lake City",
        "col3": "270"
    },
    {
        "col0": "Utah State Route 269",
        "col1": "Salt Lake City, Utah",
        "col2": "Salt Lake City, Utah",
        "col3": "269"
    },
    {
        "col0": "Utah State Route 268",
        "col1": "Salt Lake City, Utah",
        "col2": "Salt Lake City, Utah",
        "col3": "268"
    },
    {
        "col0": "Utah State Route 266",
        "col1": "Holladay, Utah",
        "col2": "Taylorsville, Utah",
        "col3": "266"
    },
    {
        "col0": "Utah State Route 265",
        "col1": "Provo, Utah",
        "col2": "Orem, Utah",
        "col3": "265"
    },
    {
        "col0": "Utah State Route 264",
        "col1": "Scofield, Utah",
        "col2": "Fairview, Utah",
        "col3": "264"
    },
    {
        "col0": "Utah State Route 262",
        "col1": "Montezuma Creek, Utah",
        "col2": "Bluff, Utah",
        "col3": "262"
    },
    {
        "col0": "Utah State Route 261",
        "col1": "Utah State Route 95",
        "col2": "U.S. Route 163",
        "col3": "261"
    },
    {
        "col0": "Utah State Route 26",
        "col1": "Ogden, Utah",
        "col2": "Roy, Utah",
        "col3": "26"
    },
    {
        "col0": "Utah State Route 259",
        "col1": "Sigurd, Utah",
        "col2": "Sigurd, Utah",
        "col3": "259"
    },
    {
        "col0": "Utah State Route 258",
        "col1": "Elsinore, Utah",
        "col2": "Elsinore, Utah",
        "col3": "258"
    },
    {
        "col0": "Utah State Route 257",
        "col1": "Hinckley, Utah",
        "col2": "Milford, Utah",
        "col3": "257"
    },
    {
        "col0": "Utah State Route 256",
        "col1": "Axtell, Utah",
        "col2": "Salina, Utah",
        "col3": "256"
    },
    {
        "col0": "Utah State Route 252",
        "col1": "North Logan, UT",
        "col2": "Logan, Utah",
        "col3": "252"
    },
    {
        "col0": "Utah State Route 25",
        "col1": "Fish Lake, Utah",
        "col2": "Fish Lake Junction, Utah",
        "col3": "25"
    },
    {
        "col0": "Utah State Route 248",
        "col1": "Kamas, Utah",
        "col2": "Park City, Utah",
        "col3": "248"
    },
    {
        "col0": "Utah State Route 24",
        "col1": "Green River, Utah",
        "col2": "Salina, Utah",
        "col3": "24"
    },
    {
        "col0": "Utah State Route 235",
        "col1": "North Ogden, Utah",
        "col2": "Ogden, Utah",
        "col3": "235"
    },
    {
        "col0": "Utah State Route 232",
        "col1": "Hill Air Force Base",
        "col2": "Layton, Utah",
        "col3": "232"
    },
    {
        "col0": "Utah State Route 23",
        "col1": "Weston, ID",
        "col2": "Wellsville, Utah",
        "col3": "23"
    },
    {
        "col0": "Utah State Route 228",
        "col1": "Leeds, Utah",
        "col2": "Leeds, Utah",
        "col3": "228"
    },
    {
        "col0": "Utah State Route 227",
        "col1": "Farmington, Utah",
        "col2": "Farmington, Utah",
        "col3": "227"
    },
    {
        "col0": "Utah State Route 226",
        "col1": "Huntsville, UT",
        "col2": "Snowbasin",
        "col3": "226"
    },
    {
        "col0": "Utah State Route 225",
        "col1": "Farmington, Utah",
        "col2": "Farmington, Utah",
        "col3": "225"
    },
    {
        "col0": "Utah State Route 224",
        "col1": "Kimball Junction, Utah",
        "col2": "Summit County, Utah",
        "col3": "224"
    },
    {
        "col0": "Utah State Route 22",
        "col1": "Otter Creek Junction, Utah",
        "col2": "Antimony, Utah",
        "col3": "22"
    },
    {
        "col0": "Utah State Route 219",
        "col1": "Enterprise, Utah",
        "col2": "Enterprise, Utah",
        "col3": "219"
    },
    {
        "col0": "Utah State Route 218",
        "col1": "Smithfield, Utah",
        "col2": "Newton, Utah",
        "col3": "218"
    },
    {
        "col0": "Utah State Route 212",
        "col1": "Washington, Utah",
        "col2": "Washington, Utah",
        "col3": "212"
    },
    {
        "col0": "Utah State Route 210",
        "col1": "Alta, Utah",
        "col2": "Cottonwood Heights, Utah",
        "col3": "210"
    },
    {
        "col0": "Utah State Route 21",
        "col1": "Beaver, Utah",
        "col2": "Nevada",
        "col3": "21"
    },
    {
        "col0": "Utah State Route 209",
        "col1": "Little Cottonwood Canyon",
        "col2": "West Jordan, UT",
        "col3": "209"
    },
    {
        "col0": "Utah State Route 208",
        "col1": "Tabiona, Utah",
        "col2": "Fruitland, Utah",
        "col3": "208"
    },
    {
        "col0": "Utah State Route 204",
        "col1": "Harrisville, Utah",
        "col2": "South Ogden, Utah",
        "col3": "204"
    },
    {
        "col0": "Utah State Route 203",
        "col1": "Ogden, Utah",
        "col2": "South Ogden, Utah",
        "col3": "203"
    },
    {
        "col0": "Utah State Route 202",
        "col1": "Great Salt Lake",
        "col2": "Magna, Utah",
        "col3": "202"
    },
    {
        "col0": "Utah State Route 201",
        "col1": "Salt Lake City, Utah",
        "col2": "Magna, Utah",
        "col3": "201"
    },
    {
        "col0": "Utah State Route 200",
        "col1": "Idaho",
        "col2": "Lewiston, Utah",
        "col3": "200"
    },
    {
        "col0": "Utah State Route 20",
        "col1": "Panguitch, Utah",
        "col2": "Paragonah, Utah",
        "col3": "20"
    },
    {
        "col0": "Utah State Route 199",
        "col1": "Rush Valley, Utah",
        "col2": "Dugway, Utah",
        "col3": "199"
    },
    {
        "col0": "Utah State Route 198",
        "col1": "Spanish Fork, Utah",
        "col2": "Santaquin, Utah",
        "col3": "198"
    },
    {
        "col0": "Utah State Route 197",
        "col1": "Lehi, Utah",
        "col2": "Lehi, Utah",
        "col3": "197"
    },
    {
        "col0": "Utah State Route 196",
        "col1": "Rowley Junction, Utah",
        "col2": "Dugway, Utah",
        "col3": "196"
    },
    {
        "col0": "Utah State Route 195",
        "col1": "Salt Lake City",
        "col2": "Holladay, Utah",
        "col3": "195"
    },
    {
        "col0": "Utah State Route 193",
        "col1": "Layton, Utah",
        "col2": "Clearfield, Utah",
        "col3": "193"
    },
    {
        "col0": "Utah State Route 190",
        "col1": "Salt Lake County, Utah",
        "col2": "Holladay, Utah",
        "col3": "190"
    },
    {
        "col0": "Utah State Route 19",
        "col1": "Green River, Utah",
        "col2": "Green River, Utah",
        "col3": "19"
    },
    {
        "col0": "Utah State Route 186",
        "col1": "Salt Lake City, Utah",
        "col2": "Salt Lake City, Utah",
        "col3": "186"
    },
    {
        "col0": "Utah State Route 181",
        "col1": "Salt Lake City, Utah",
        "col2": "Holladay, Utah",
        "col3": "181"
    },
    {
        "col0": "Utah State Route 180",
        "col1": "American Fork, Utah",
        "col2": "American Fork, Utah",
        "col3": "180"
    },
    {
        "col0": "Utah State Route 18",
        "col1": "Beryl Junction, Utah",
        "col2": "Saint George, Utah",
        "col3": "18"
    },
    {
        "col0": "Utah State Route 178",
        "col1": "Payson, Utah",
        "col2": "Payson, Utah",
        "col3": "178"
    },
    {
        "col0": "Utah State Route 176",
        "col1": "Salt Lake City, Utah",
        "col2": "South Salt Lake, Utah",
        "col3": "176"
    },
    {
        "col0": "Utah State Route 175",
        "col1": "Sandy, Utah",
        "col2": "South Jordan, Utah",
        "col3": "175"
    },
    {
        "col0": "Utah State Route 174",
        "col1": "Lynndyl, Utah",
        "col2": "Intermountain Power Plant",
        "col3": "174"
    },
    {
        "col0": "Utah State Route 173",
        "col1": "Murray, Utah",
        "col2": "West Valley City, Utah",
        "col3": "173"
    },
    {
        "col0": "Utah State Route 172",
        "col1": "Salt Lake City, Utah",
        "col2": "Kearns, Utah",
        "col3": "172"
    },
    {
        "col0": "Utah State Route 171",
        "col1": "Salt Lake City, Utah",
        "col2": "Magna, Utah",
        "col3": "171"
    },
    {
        "col0": "Utah State Route 17",
        "col1": "Anderson Junction, Utah",
        "col2": "La Verkin, Utah",
        "col3": "17"
    },
    {
        "col0": "Utah State Route 168",
        "col1": "Riverdale, Utah",
        "col2": "Hill Air Force Base",
        "col3": "168"
    },
    {
        "col0": "Utah State Route 167",
        "col1": "Snowbasin",
        "col2": "Mountain Green, Utah",
        "col3": "167"
    },
    {
        "col0": "Utah State Route 165",
        "col1": "Logan, UT",
        "col2": "Paradise, Utah",
        "col3": "165"
    },
    {
        "col0": "Utah State Route 164",
        "col1": "Spanish Fork, Utah",
        "col2": "Utah County, Utah",
        "col3": "164"
    },
    {
        "col0": "Utah State Route 162",
        "col1": "Colorado",
        "col2": "Bluff, Utah",
        "col3": "162"
    },
    {
        "col0": "Utah State Route 160",
        "col1": "Beaver, Utah",
        "col2": "Beaver, Utah",
        "col3": "160"
    },
    {
        "col0": "Utah State Route 16",
        "col1": "Sage Creek Junction, Utah",
        "col2": "Woodruff, Utah",
        "col3": "16"
    },
    {
        "col0": "Utah State Route 159",
        "col1": "Border, Utah",
        "col2": "Garrison, Utah",
        "col3": "159"
    },
    {
        "col0": "Utah State Route 158",
        "col1": "Powder Mountain Ski Resort",
        "col2": "Eden Junction, Utah",
        "col3": "158"
    },
    {
        "col0": "Utah State Route 157",
        "col1": "Kenilworth, Utah",
        "col2": "Helper, Utah",
        "col3": "157"
    },
    {
        "col0": "Utah State Route 156",
        "col1": "Spanish Fork, Utah",
        "col2": "Spanish Fork, Utah",
        "col3": "156"
    },
    {
        "col0": "Utah State Route 154",
        "col1": "Salt Lake City International Airport",
        "col2": "Draper, Utah",
        "col3": "154"
    },
    {
        "col0": "Utah State Route 153",
        "col1": "Junction, Utah",
        "col2": "Beaver, Utah",
        "col3": "153"
    },
    {
        "col0": "Utah State Route 152",
        "col1": "Cottonwood Heights, Utah",
        "col2": "Murray, Utah",
        "col3": "152"
    },
    {
        "col0": "Utah State Route 151",
        "col1": "Sandy, Utah",
        "col2": "South Jordan, Utah",
        "col3": "151"
    },
    {
        "col0": "Utah State Route 150",
        "col1": "Evanston, Wyoming",
        "col2": "Kamas, Utah",
        "col3": "150"
    },
    {
        "col0": "Utah State Route 149",
        "col1": "Dinosaur National Monument",
        "col2": "Jensen, Utah",
        "col3": "149"
    },
    {
        "col0": "Utah State Route 148",
        "col1": "Cedar Breaks National Monument",
        "col2": "Iron County, Utah",
        "col3": "148"
    },
    {
        "col0": "Utah State Route 147",
        "col1": "Mapleton, Utah",
        "col2": "McBeth Corner, Utah",
        "col3": "147"
    },
    {
        "col0": "Utah State Route 146",
        "col1": "American Fork, Utah",
        "col2": "Pleasant Grove, Utah",
        "col3": "146"
    },
    {
        "col0": "Utah State Route 145",
        "col1": "American Fork, Utah",
        "col2": "Saratoga Springs, Utah",
        "col3": "145"
    },
    {
        "col0": "Utah State Route 143",
        "col1": "Panguitch, Utah",
        "col2": "Parowan, Utah",
        "col3": "143"
    },
    {
        "col0": "Utah State Route 142",
        "col1": "Richmond, Utah",
        "col2": "Newton, Utah",
        "col3": "142"
    },
    {
        "col0": "Utah State Route 141",
        "col1": "McBeth Corner, Utah",
        "col2": "Genola, Utah",
        "col3": "141"
    },
    {
        "col0": "Utah State Route 14",
        "col1": "Long Valley Junction, Utah",
        "col2": "Cedar City, Utah",
        "col3": "14"
    },
    {
        "col0": "Utah State Route 139",
        "col1": "Spring Glen, Utah",
        "col2": "Spring Glen, Utah",
        "col3": "139"
    },
    {
        "col0": "Utah State Route 138",
        "col1": "Mills Junction, Utah",
        "col2": "Grantsville, Utah",
        "col3": "138"
    },
    {
        "col0": "Utah State Route 137",
        "col1": "Mayfield, Utah",
        "col2": "Gunnison, Utah",
        "col3": "137"
    },
    {
        "col0": "Utah State Route 134",
        "col1": "North Ogden, Utah",
        "col2": "Kanesville, Utah",
        "col3": "134"
    },
    {
        "col0": "Utah State Route 133",
        "col1": "Meadow, Utah",
        "col2": "Kanosh, Utah",
        "col3": "133"
    },
    {
        "col0": "Utah State Route 132",
        "col1": "Pigeon Hollow Junction, Utah",
        "col2": "Lynndyl, Utah",
        "col3": "132"
    },
    {
        "col0": "Utah State Route 130",
        "col1": "Minersville, Utah",
        "col2": "Cedar City, Utah",
        "col3": "130"
    },
    {
        "col0": "Utah State Route 13",
        "col1": "Plymouth, Utah",
        "col2": "Brigham City, Utah",
        "col3": "13"
    },
    {
        "col0": "Utah State Route 128",
        "col1": "Cisco, Utah",
        "col2": "Moab, Utah",
        "col3": "128"
    }
]