[
    {
        "col0": "U.S. Route 159",
        "col1": "New Point, Missouri",
        "col2": "Nortonville, Kansas",
        "col3": "159"
    },
    {
        "col0": "U.S. Route 158",
        "col1": "Whalebone Junction, North Carolina",
        "col2": "Mocksville, North Carolina",
        "col3": "158"
    },
    {
        "col0": "U.S. Route 151",
        "col1": "Manitowoc County, Wisconsin",
        "col2": "Williamsburg, Iowa",
        "col3": "151"
    },
    {
        "col0": "U.S. Route 150",
        "col1": "Mt. Vernon, Kentucky",
        "col2": "Moline, Illinois",
        "col3": "150"
    },
    {
        "col0": "U.S. Route 15",
        "col1": "Lawrenceville, Pennsylvania",
        "col2": "Walterboro, South Carolina",
        "col3": "15"
    },
    {
        "col0": "U.S. Route 14 in Wyoming",
        "col1": "South Dakota",
        "col2": "Yellowstone National Park",
        "col3": "14"
    },
    {
        "col0": "U.S. Route 14 in Wisconsin",
        "col1": "Walworth, Wisconsin",
        "col2": "La Crosse, Wisconsin",
        "col3": "14"
    },
    {
        "col0": "U.S. Route 14 in Illinois",
        "col1": "Chicago",
        "col2": "Harvard, Illinois",
        "col3": "14"
    },
    {
        "col0": "U.S. Route 141",
        "col1": "Covington, Michigan",
        "col2": "Bellevue, Wisconsin",
        "col3": "141"
    },
    {
        "col0": "U.S. Route 140",
        "col1": "Gettysburg, Pennsylvania",
        "col2": "Baltimore",
        "col3": "140"
    },
    {
        "col0": "U.S. Route 14",
        "col1": "List of Illinois Routes",
        "col2": "Yellowstone National Park",
        "col3": "14"
    },
    {
        "col0": "U.S. Route 13 in Virginia",
        "col1": "Maryland",
        "col2": "North Carolina",
        "col3": "13"
    },
    {
        "col0": "U.S. Route 13 in Pennsylvania",
        "col1": "Falls Township, Bucks County, Pennsylvania",
        "col2": "Delaware",
        "col3": "13"
    },
    {
        "col0": "U.S. Route 13 in North Carolina",
        "col1": "Virginia",
        "col2": "Eastover, North Carolina",
        "col3": "13"
    },
    {
        "col0": "U.S. Route 13 in Maryland",
        "col1": "Delaware",
        "col2": "Virginia",
        "col3": "13"
    },
    {
        "col0": "U.S. Route 13 in Delaware",
        "col1": "Pennsylvania",
        "col2": "Maryland",
        "col3": "13"
    },
    {
        "col0": "U.S. Route 13 Business",
        "col1": "Claymont, Delaware",
        "col2": "Minquadale, Delaware",
        "col3": "13"
    },
    {
        "col0": "U.S. Route 13 Business",
        "col1": "Salisbury, Maryland",
        "col2": "Fruitland, Maryland",
        "col3": "13"
    },
    {
        "col0": "U.S. Route 138",
        "col1": "Big Springs, Nebraska",
        "col2": "Sterling, Colorado",
        "col3": "138"
    },
    {
        "col0": "U.S. Route 136 in Nebraska",
        "col1": "Missouri",
        "col2": "Edison, Nebraska",
        "col3": "136"
    },
    {
        "col0": "U.S. Route 136 in Iowa",
        "col1": "Keokuk, Iowa",
        "col2": "Keokuk, Iowa",
        "col3": "136"
    },
    {
        "col0": "U.S. Route 136 in Indiana",
        "col1": "Speedway, Indiana",
        "col2": "Foster, Indiana",
        "col3": "136"
    },
    {
        "col0": "U.S. Route 136",
        "col1": "Speedway, Indiana",
        "col2": "Edison, Nebraska",
        "col3": "136"
    },
    {
        "col0": "U.S. Route 131",
        "col1": "Petoskey, Michigan",
        "col2": "Middlebury, Indiana",
        "col3": "131"
    },
    {
        "col0": "U.S. Route 130",
        "col1": "North Brunswick Township, New Jersey",
        "col2": "Pennsville Township, New Jersey",
        "col3": "130"
    },
    {
        "col0": "U.S. Route 13",
        "col1": "Morrisville, Bucks County, Pennsylvania",
        "col2": "Fayetteville, North Carolina",
        "col3": "13"
    },
    {
        "col0": "U.S. Route 12 in Wisconsin",
        "col1": "Genoa City, Wisconsin",
        "col2": "Hudson, Wisconsin",
        "col3": "12"
    },
    {
        "col0": "U.S. Route 12 in Washington",
        "col1": "Lewiston, Idaho",
        "col2": "Aberdeen, Washington",
        "col3": "12"
    },
    {
        "col0": "U.S. Route 12 in Minnesota",
        "col1": "U.S. Route 12 in Wisconsin",
        "col2": "U.S. Route 12",
        "col3": "12"
    },
    {
        "col0": "U.S. Route 12 in Michigan",
        "col1": "Detroit",
        "col2": "New Buffalo, Michigan",
        "col3": "12"
    },
    {
        "col0": "U.S. Route 12 in Indiana",
        "col1": "Michiana Shores, Indiana",
        "col2": "Whiting, Indiana",
        "col3": "12"
    },
    {
        "col0": "U.S. Route 12 in Illinois",
        "col1": "Chicago",
        "col2": "Richmond, Illinois",
        "col3": "12"
    },
    {
        "col0": "U.S. Route 12 in Idaho",
        "col1": "Montana",
        "col2": "Washington",
        "col3": "12"
    },
    {
        "col0": "U.S. Route 129 in Tennessee",
        "col1": "Knoxville, Tennessee",
        "col2": "North Carolina",
        "col3": "129"
    },
    {
        "col0": "U.S. Route 129 in North Carolina",
        "col1": "Tennessee",
        "col2": "Georgia",
        "col3": "129"
    },
    {
        "col0": "U.S. Route 129 in Georgia",
        "col1": "North Carolina",
        "col2": "Georgia",
        "col3": "129"
    },
    {
        "col0": "U.S. Route 129 in Florida",
        "col1": "Statenville, GA",
        "col2": "Chiefland, Florida",
        "col3": "129"
    },
    {
        "col0": "U.S. Route 129",
        "col1": "Knoxville, TN",
        "col2": "Chiefland, Florida",
        "col3": "129"
    },
    {
        "col0": "U.S. Route 127 in Michigan",
        "col1": "Grayling, Michigan",
        "col2": "Waldron, Michigan",
        "col3": "127"
    },
    {
        "col0": "U.S. Route 127 in Kentucky",
        "col1": "Ohio",
        "col2": "Tennessee",
        "col3": "127"
    },
    {
        "col0": "U.S. Route 127",
        "col1": "Grayling, Michigan",
        "col2": "Chattanooga, Tennessee",
        "col3": "127"
    },
    {
        "col0": "U.S. Route 123",
        "col1": "Greenville, South Carolina",
        "col2": "Clarkesville, Georgia",
        "col3": "123"
    },
    {
        "col0": "U.S. Route 121",
        "col1": "Beckley, West Virginia",
        "col2": "Pound, Virginia",
        "col3": "121"
    },
    {
        "col0": "U.S. Route 12",
        "col1": "Detroit",
        "col2": "Aberdeen, Washington",
        "col3": "12"
    },
    {
        "col0": "U.S. Route 11 in West Virginia",
        "col1": "Maryland",
        "col2": "Virginia",
        "col3": "11"
    },
    {
        "col0": "U.S. Route 11 in Virginia",
        "col1": "Rest, Virginia",
        "col2": "Bristol, Virginia",
        "col3": "11"
    },
    {
        "col0": "U.S. Route 11 in Pennsylvania",
        "col1": "Great Bend Township, Pennsylvania",
        "col2": "Maryland",
        "col3": "11"
    },
    {
        "col0": "U.S. Route 11 in New York",
        "col1": "Canada-United States border",
        "col2": "New York-Pennsylvania border",
        "col3": "11"
    },
    {
        "col0": "U.S. Route 11 in Mississippi",
        "col1": "Cuba, Alabama",
        "col2": "Pearl River, LA",
        "col3": "11"
    },
    {
        "col0": "U.S. Route 11 in Maryland",
        "col1": "Pennsylvania",
        "col2": "West Virginia",
        "col3": "11"
    },
    {
        "col0": "U.S. Route 11 in Louisiana",
        "col1": "Mississippi",
        "col2": "New Orleans, Louisiana",
        "col3": "11"
    },
    {
        "col0": "U.S. Route 11W",
        "col1": "Bristol, Virginia",
        "col2": "Knoxville, Tennessee",
        "col3": "11W"
    },
    {
        "col0": "U.S. Route 11E",
        "col1": "Bristol, Virginia",
        "col2": "Knoxville, TN",
        "col3": "11E"
    },
    {
        "col0": "U.S. Route 119 in Pennsylvania",
        "col1": "Sandy Township, Pennsylvania",
        "col2": "Point Marion, Pennsylvania",
        "col3": "119"
    },
    {
        "col0": "U.S. Route 119",
        "col1": "Sandy Township, Pennsylvania",
        "col2": "Pineville, Kentucky",
        "col3": "119"
    },
    {
        "col0": "U.S. Route 117",
        "col1": "Wilson, North Carolina",
        "col2": "North Carolina State Ports Authority",
        "col3": "117"
    },
    {
        "col0": "U.S. Route 113",
        "col1": "Milford, Delaware",
        "col2": "Pocomoke City, Maryland",
        "col3": "113"
    },
    {
        "col0": "U.S. Route 111",
        "col1": "Lemoyne, Pennsylvania",
        "col2": "Baltimore, Maryland",
        "col3": "111"
    },
    {
        "col0": "U.S. Route 11",
        "col1": "Rouses Point, New York",
        "col2": "New Orleans, Louisiana",
        "col3": "11"
    },
    {
        "col0": "U.S. Route 10 in Wisconsin",
        "col1": "Manitowoc, Wisconsin",
        "col2": "Prescott, Wisconsin",
        "col3": "10"
    },
    {
        "col0": "U.S. Route 10 in Minnesota",
        "col1": "Prescott, Wisconsin",
        "col2": "Fargo, North Dakota",
        "col3": "10"
    },
    {
        "col0": "U.S. Route 10 in Michigan",
        "col1": "Bay City, Michigan",
        "col2": "SS Badger",
        "col3": "10"
    },
    {
        "col0": "U.S. Route 101 in Washington",
        "col1": "Olympia, Washington",
        "col2": "Oregon",
        "col3": "101"
    },
    {
        "col0": "U.S. Route 101 in Oregon",
        "col1": "Washington",
        "col2": "California",
        "col3": "101"
    },
    {
        "col0": "U.S. Route 101 in California",
        "col1": "Oregon",
        "col2": "Los Angeles",
        "col3": "101"
    },
    {
        "col0": "U.S. Route 101",
        "col1": "Olympia, Washington",
        "col2": "Los Angeles",
        "col3": "101"
    },
    {
        "col0": "U.S. Route 10",
        "col1": "Bay City, Michigan",
        "col2": "West Fargo, North Dakota",
        "col3": "10"
    },
    {
        "col0": "U.S. Route 1/9 Truck",
        "col1": "Jersey City, New Jersey",
        "col2": "Newark, New Jersey",
        "col3": "1-9"
    },
    {
        "col0": "U.S. Route 1/9",
        "col1": "Manhattan, New York",
        "col2": "Woodbridge Township, New Jersey",
        "col3": "1/9"
    },
    {
        "col0": "U.S. Route 1",
        "col1": "Clair, New Brunswick",
        "col2": "Key West, Florida",
        "col3": "1"
    },
    {
        "col0": "U.S. Bicycle Route 97",
        "col1": "Fairbanks, AK",
        "col2": "Seward, AK",
        "col3": "97"
    },
    {
        "col0": "U.S. Bicycle Route 95",
        "col1": "Delta Junction, Alaska",
        "col2": "Valdez, Alaska",
        "col3": "95"
    },
    {
        "col0": "U.S. Bicycle Route 87",
        "col1": "Canada-United States border",
        "col2": "California",
        "col3": "87"
    },
    {
        "col0": "U.S. Bicycle Route 8",
        "col1": "Canada-United States border",
        "col2": "Fairbanks, Alaska",
        "col3": "8"
    },
    {
        "col0": "U.S. Bicycle Route 76",
        "col1": "Yorktown, Virginia",
        "col2": "Missouri",
        "col3": "76"
    },
    {
        "col0": "U.S. Bicycle Route 20",
        "col1": "Marine City, Michigan",
        "col2": "Oregon Coast",
        "col3": "20"
    },
    {
        "col0": "Tomei Expressway",
        "col1": "Komaki, Aichi",
        "col2": "Setagaya",
        "col3": "Tomei"
    },
    {
        "col0": "Tokai-Hokuriku Expressway",
        "col1": "Tonami, Toyama",
        "col2": "Meishin Expressway",
        "col3": "Tokai-Hokuriku"
    },
    {
        "col0": "Tohoku Expressway",
        "col1": "Aomori, Aomori",
        "col2": "Shuto Expressway",
        "col3": "Tohoku"
    },
    {
        "col0": "Tohoku-Chuo Expressway",
        "col1": "Obanazawa, Yamagata",
        "col2": "Tohoku Expressway",
        "col3": "Tohoku-Chuo"
    },
    {
        "col0": "Turner Turnpike",
        "col1": "Sapulpa, Oklahoma",
        "col2": "Oklahoma City, Oklahoma",
        "col3": "Turner"
    },
    {
        "col0": "Tun Razak Highway",
        "col1": "Segamat",
        "col2": "Pahang",
        "col3": "12"
    },
    {
        "col0": "Tun Dr Lim Chong Eu Expressway",
        "col1": "Batu Maung",
        "col2": "George Town, Penang",
        "col3": "3113"
    },
    {
        "col0": "Tuen Mun Road",
        "col1": "Tsuen Wan",
        "col2": "Tuen Mun",
        "col3": "9"
    },
    {
        "col0": "Tsuen Wan Road",
        "col1": "Chai Wan Kok",
        "col2": "Kwai Tsing Container Terminals",
        "col3": "5"
    },
    {
        "col0": "Tsing Sha Highway",
        "col1": "Tsing Yi",
        "col2": "Sha Tin",
        "col3": "8"
    },
    {
        "col0": "Tsing Long Highway",
        "col1": "Kam Tin",
        "col2": "Tsing Yi",
        "col3": "3"
    },
    {
        "col0": "Tropicana Avenue",
        "col1": "Las Vegas Valley",
        "col2": "Las Vegas Valley",
        "col3": "593"
    },
    {
        "col0": "Transfagarasan",
        "col1": "Arpasu de Jos",
        "col2": "Pitesti",
        "col3": "7C"
    },
    {
        "col0": "Transalpina",
        "col1": "Sebes",
        "col2": "Novaci, Romania",
        "col3": "67C"
    },
    {
        "col0": "Trans Eastern Kedah Interland Highway",
        "col1": "Kupang",
        "col2": "Durian Burung",
        "col3": "--"
    },
    {
        "col0": "Trakia motorway",
        "col1": "Burgas",
        "col2": "Sofia",
        "col3": "1"
    },
    {
        "col0": "Trail Ridge Road",
        "col1": "Estes Park, Colorado",
        "col2": "Grand Lake, Colorado",
        "col3": "34"
    },
    {
        "col0": "Top of the World Highway",
        "col1": "West Dawson, Yukon",
        "col2": "Jack Wade, Alaska",
        "col3": "9"
    },
    {
        "col0": "Tolo Highway",
        "col1": "Tai Po",
        "col2": "Sha Tin",
        "col3": "9"
    },
    {
        "col0": "Tokyo Gaikan Expressway",
        "col1": "Higashi-Kanto Expressway",
        "col2": "Setagaya",
        "col3": "Tokyo-Gaikan"
    },
    {
        "col0": "Tipaimukh Road",
        "col1": "Kohima",
        "col2": "Seling",
        "col3": "150"
    },
    {
        "col0": "Tiorati Brook Road",
        "col1": "Harriman State Park",
        "col2": "Harriman State Park",
        "col3": "Tiorati Brook"
    },
    {
        "col0": "Timisoara-Moravita Motorway",
        "col1": "Moravita",
        "col2": "Timisoara",
        "col3": "9"
    },
    {
        "col0": "Tiburon Boulevard",
        "col1": "Tiburon, California",
        "col2": "Strawberry, Marin County, California",
        "col3": "131"
    },
    {
        "col0": "The Beltline",
        "col1": "U.S. Route 72 Alternate",
        "col2": "Decatur, Alabama",
        "col3": "67"
    },
    {
        "col0": "Thailand Route 44",
        "col1": "Trang Province",
        "col2": "Surat Thani Province",
        "col3": "44"
    },
    {
        "col0": "Thailand Route 41",
        "col1": "Phatthalung Province",
        "col2": "Chumphon Province",
        "col3": "403"
    },
    {
        "col0": "Thailand Route 351",
        "col1": "Bangkok",
        "col2": "Bangkok",
        "col3": "351"
    },
    {
        "col0": "Thailand Route 32",
        "col1": "Chainat Province",
        "col2": "Phra Nakhon Si Ayutthaya Province",
        "col3": "32"
    },
    {
        "col0": "Thailand Route 302",
        "col1": "Bangkok",
        "col2": "Nonthaburi Province",
        "col3": "302"
    },
    {
        "col0": "Thailand Route 11",
        "col1": "Chiang Mai",
        "col2": "Amphoe In Buri",
        "col3": "11"
    },
    {
        "col0": "Texas State Highway Spur 95",
        "col1": "Battle of Gonzales",
        "col2": "Cost, Texas",
        "col3": "95"
    },
    {
        "col0": "Texas State Highway Spur 86",
        "col1": "Hooks, Texas",
        "col2": "Red River Army Depot",
        "col3": "86"
    },
    {
        "col0": "Texas State Highway Spur 74",
        "col1": "Leary, Texas",
        "col2": "Lone Star Army Ammunition Plant",
        "col3": "74"
    },
    {
        "col0": "Texas State Highway Spur 69",
        "col1": "Austin, Texas",
        "col2": "Austin, Texas",
        "col3": "69"
    },
    {
        "col0": "Texas State Highway Spur 63",
        "col1": "Longview, Texas",
        "col2": "Longview, Texas",
        "col3": "63"
    },
    {
        "col0": "Texas State Highway Spur 601",
        "col1": "Texas State Highway Loop 375",
        "col2": "El Paso",
        "col3": "601"
    },
    {
        "col0": "Texas State Highway Spur 6",
        "col1": "Anthony, Texas",
        "col2": "Anthony, Texas",
        "col3": "6"
    },
    {
        "col0": "Texas State Highway Spur 588",
        "col1": "Odessa, Texas",
        "col2": "Odessa, Texas",
        "col3": "588"
    },
    {
        "col0": "Texas State Highway Spur 580",
        "col1": "Fort Worth, Texas",
        "col2": "Fort Worth, Texas",
        "col3": "580"
    },
    {
        "col0": "Texas State Highway Spur 57",
        "col1": "Monahans, Texas",
        "col2": "Pyote, Texas",
        "col3": "57"
    },
    {
        "col0": "Texas State Highway Spur 503",
        "col1": "Denison, Texas",
        "col2": "Denison, Texas",
        "col3": "503"
    },
    {
        "col0": "Texas State Highway Spur 502",
        "col1": "Judson, Texas",
        "col2": "Longview, Texas",
        "col3": "502"
    },
    {
        "col0": "Texas State Highway Spur 501",
        "col1": "La Porte, Texas",
        "col2": "La Porte, Texas",
        "col3": "501"
    },
    {
        "col0": "Texas State Highway Spur 482",
        "col1": "Dallas",
        "col2": "Irving, Texas",
        "col3": "482"
    },
    {
        "col0": "Texas State Highway Spur 421",
        "col1": "Leon Valley, Texas",
        "col2": "San Antonio, Texas",
        "col3": "421"
    },
    {
        "col0": "Texas State Highway Spur 400",
        "col1": "Laredo, Texas",
        "col2": "Laredo, Texas",
        "col3": "400"
    },
    {
        "col0": "Texas State Highway Spur 399",
        "col1": "McKinney, Texas",
        "col2": "Allen, Texas",
        "col3": "399"
    },
    {
        "col0": "Texas State Highway Spur 371",
        "col1": "San Antonio",
        "col2": "Kelly Field Annex",
        "col3": "371"
    },
    {
        "col0": "Texas State Highway Spur 37",
        "col1": "Vinton, Texas",
        "col2": "Vinton, Texas",
        "col3": "37"
    },
    {
        "col0": "Texas State Highway Spur 366",
        "col1": "Dallas",
        "col2": "Dallas",
        "col3": "366"
    },
    {
        "col0": "Texas State Highway Spur 364",
        "col1": "Tyler, Texas",
        "col2": "Tyler, Texas",
        "col3": "364"
    },
    {
        "col0": "Texas State Highway Spur 345",
        "col1": "San Antonio",
        "col2": "Balcones Heights, Texas",
        "col3": "345"
    },
    {
        "col0": "Texas State Highway Spur 342",
        "col1": "Galveston, Texas",
        "col2": "Galveston, Texas",
        "col3": "342"
    },
    {
        "col0": "Texas State Highway Spur 341",
        "col1": "Lockheed Martin",
        "col2": "White Settlement, Texas",
        "col3": "341"
    },
    {
        "col0": "Texas State Highway Spur 330",
        "col1": "Baytown, Texas",
        "col2": "Lynchburg, Texas",
        "col3": "330"
    },
    {
        "col0": "Texas State Highway Spur 327",
        "col1": "Lubbock, Texas",
        "col2": "Lubbock, Texas",
        "col3": "327"
    },
    {
        "col0": "Texas State Highway Spur 326",
        "col1": "Lubbock, Texas",
        "col2": "Lubbock, Texas",
        "col3": "326"
    },
    {
        "col0": "Texas State Highway Spur 325",
        "col1": "Sheppard Air Force Base",
        "col2": "Wichita Falls, Texas",
        "col3": "325"
    },
    {
        "col0": "Texas State Highway Spur 309",
        "col1": "Reese Center, Texas",
        "col2": "Lubbock, Texas",
        "col3": "309"
    }
]