[
    {
        "col0": "Margaret Stewart, Dauphine of France",
        "col1": "Perth, Scotland",
        "col2": "France",
        "col3": "1445-08-16"
    },
    {
        "col0": "M. Leijonhufvud",
        "col1": "Grafsnas",
        "col2": "Uppsala Cathedral",
        "col3": "1551-08-26"
    },
    {
        "col0": "Margaret I of Denmark",
        "col1": "Vordingborg Castle",
        "col2": "Roskilde Cathedral",
        "col3": "1412-10-28"
    },
    {
        "col0": "Margaret, Maid of Norway",
        "col1": "Bergen",
        "col2": "Bergen",
        "col3": "1290-09-26"
    },
    {
        "col0": "Maria Isabella of Spain",
        "col1": "Madrid",
        "col2": "Naples",
        "col3": "1848-09-13"
    },
    {
        "col0": "M. Barzanji",
        "col1": "Sulaymaniyah",
        "col2": "Iraqi Kurdistan",
        "col3": "1956-10-09"
    },
    {
        "col0": "M. Gulbahar",
        "col1": "Bosphorus",
        "col2": "Bursa",
        "col3": "1581-02-03"
    },
    {
        "col0": "M. H. Sultan",
        "col1": "Rumelia",
        "col2": "Constantinople",
        "col3": "1620-1-1"
    },
    {
        "col0": "M. Begum",
        "col1": "Greater Khorasan",
        "col2": "Mughal Empire",
        "col3": "1534-03-28"
    },
    {
        "col0": "M. t. Good",
        "col1": "Norway",
        "col2": "Nidaros Cathedral",
        "col3": "1047-10-25"
    },
    {
        "col0": "Magnus V of Norway",
        "col1": "Norway",
        "col2": "Bergen",
        "col3": "1184-6-15"
    },
    {
        "col0": "Magnus VI of Norway",
        "col1": "Norway",
        "col2": "Bergen Cathedral",
        "col3": "1280-05-09"
    },
    {
        "col0": "Magnus I, Duke of Saxe-Lauenburg",
        "col1": "Ratzeburg",
        "col2": "Ratzeburg",
        "col3": "1543-08-01"
    },
    {
        "col0": "Magnus, Duke of Ostergotland",
        "col1": "Stockholm",
        "col2": "Vadstena Abbey",
        "col3": "1595-06-26"
    },
    {
        "col0": "M. o. Valois",
        "col1": "Kingdom of France",
        "col2": "Edinburgh",
        "col3": "1537-07-07"
    },
    {
        "col0": "Mecia Lopes de Haro",
        "col1": "Biscay",
        "col2": "Santa Maria la Real of Najera",
        "col3": "1270-1-1"
    },
    {
        "col0": "L. C. Thong",
        "col1": "Vietnam",
        "col2": "Vietnam",
        "col3": "1793-1-1"
    },
    {
        "col0": "Leopold Clement, Hereditary Prince of Lorraine",
        "col1": "Luneville",
        "col2": "Nancy, France",
        "col3": "1723-06-04"
    },
    {
        "col0": "Lysimachus",
        "col1": "Crannon",
        "col2": "Thrace",
        "col3": "-281-1-1"
    },
    {
        "col0": "Lunalilo",
        "col1": "Honolulu",
        "col2": "KawaiahaE>>o Church",
        "col3": "1874-02-03"
    },
    {
        "col0": "Lulach",
        "col1": "Moray",
        "col2": "Iona",
        "col3": "1058-03-17"
    },
    {
        "col0": "Luitpold, Prince Regent of Bavaria",
        "col1": "Wurzburg",
        "col2": "Bavaria",
        "col3": "1912-12-12"
    },
    {
        "col0": "L. v. Erlichshausen",
        "col1": "Swabia",
        "col2": "Konigsberg Cathedral",
        "col3": "1467-04-04"
    },
    {
        "col0": "Ludwig I of Bavaria",
        "col1": "Kingdom of France",
        "col2": "St. Boniface's Abbey, Munich",
        "col3": "1868-02-29"
    },
    {
        "col0": "Ludwig II of Bavaria",
        "col1": "Kingdom of Bavaria",
        "col2": "Munich",
        "col3": "1886-06-13"
    },
    {
        "col0": "Ludwig III of Bavaria",
        "col1": "Munich",
        "col2": "Munich",
        "col3": "1921-10-18"
    },
    {
        "col0": "L. o. Bohemia",
        "col1": "Bohemia",
        "col2": "Landshut",
        "col3": "1240-08-14"
    },
    {
        "col0": "Louise Elisabeth of France",
        "col1": "France",
        "col2": "Basilica of St Denis",
        "col3": "1759-12-06"
    },
    {
        "col0": "Louise Elisabeth de Bourbon",
        "col1": "Palace of Versailles",
        "col2": "Eglise Saint-Sulpice, Paris",
        "col3": "1775-05-27"
    },
    {
        "col0": "L. E. d'Orleans",
        "col1": "Palace of Versailles",
        "col2": "Eglise Saint-Sulpice, Paris",
        "col3": "1742-06-16"
    },
    {
        "col0": "L. o. Sweden",
        "col1": "Stockholm Palace",
        "col2": "Roskilde Cathedral",
        "col3": "1926-03-20"
    },
    {
        "col0": "L. o. Mecklenburg-Strelitz",
        "col1": "Electorate of Brunswick-Luneburg",
        "col2": "Charlottenburg",
        "col3": "1810-07-19"
    },
    {
        "col0": "L. o. Lorraine",
        "col1": "Nomeny",
        "col2": "Saint Denis Basilica",
        "col3": "1601-01-29"
    },
    {
        "col0": "Louise of Great Britain",
        "col1": "England",
        "col2": "Roskilde Cathedral",
        "col3": "1751-12-19"
    },
    {
        "col0": "L. d'Aumont",
        "col1": "Paris",
        "col2": "Saint Nicholas Cathedral, Monaco",
        "col3": "1826-12-13"
    },
    {
        "col0": "L. Mountbatten",
        "col1": "Seeheim-Jugenheim",
        "col2": "Solna Municipality",
        "col3": "1965-03-07"
    },
    {
        "col0": "L. M. d'Orleans",
        "col1": "Palais Royal",
        "col2": "Val-de-Grace",
        "col3": "1728-05-14"
    },
    {
        "col0": "Louise Marie Adelaide de Bourbon, Duchess of Orleans",
        "col1": "Paris",
        "col2": "Dreux",
        "col3": "1821-06-23"
    },
    {
        "col0": "Louise Marguerite of Lorraine",
        "col1": "France",
        "col2": "France",
        "col3": "1631-04-30"
    },
    {
        "col0": "Louise Hippolyte, Princess of Monaco",
        "col1": "Monaco",
        "col2": "Saint Nicholas Cathedral, Monaco",
        "col3": "1731-12-29"
    },
    {
        "col0": "Louise Henriette de Bourbon",
        "col1": "Paris",
        "col2": "Val-de-Grace",
        "col3": "1759-02-09"
    },
    {
        "col0": "L. D. d'Orleans",
        "col1": "Paris",
        "col2": "Paris",
        "col3": "1736-09-26"
    },
    {
        "col0": "Louise Benedicte de Bourbon",
        "col1": "Hotel de Conde",
        "col2": "Sceaux, Hauts-de-Seine",
        "col3": "1753-01-23"
    },
    {
        "col0": "Louise Adelaide de Bourbon",
        "col1": "Chateau de Chantilly",
        "col2": "France",
        "col3": "1824-03-10"
    },
    {
        "col0": "Louise Elisabeth of France",
        "col1": "France",
        "col2": "Basilica of St Denis",
        "col3": "1759-12-06"
    },
    {
        "col0": "Louise Elisabeth de Bourbon",
        "col1": "Palace of Versailles",
        "col2": "Eglise Saint-Sulpice, Paris",
        "col3": "1775-05-27"
    },
    {
        "col0": "L. E. d'Orleans",
        "col1": "Palace of Versailles",
        "col2": "Eglise Saint-Sulpice, Paris",
        "col3": "1742-06-16"
    },
    {
        "col0": "L. P. Royal",
        "col1": "London",
        "col2": "Windsor, Berkshire",
        "col3": "1931-01-04"
    },
    {
        "col0": "Louisa Ulrika of Prussia",
        "col1": "Berlin",
        "col2": "Stockholm",
        "col3": "1782-07-16"
    },
    {
        "col0": "L. M. Stuart",
        "col1": "Chateau",
        "col2": "Paris",
        "col3": "1712-04-18"
    },
    {
        "col0": "L. t. Pious",
        "col1": "Chasseneuil-du-Poitou",
        "col2": "Abbey of Saint-Arnould",
        "col3": "840-6-20"
    },
    {
        "col0": "L. t. Child",
        "col1": "Altotting",
        "col2": "Regensburg",
        "col3": "0911-09-24"
    },
    {
        "col0": "Louis d'Orleans, Duke of Orleans",
        "col1": "Palace of Versailles",
        "col2": "Val-de-Grace",
        "col3": "1752-02-04"
    },
    {
        "col0": "Louis XV of France",
        "col1": "Palace of Versailles",
        "col2": "Basilica of St Denis",
        "col3": "1774-05-10"
    },
    {
        "col0": "Louis XVI of France",
        "col1": "Kingdom of France",
        "col2": "Basilica of St Denis",
        "col3": "1793-01-21"
    },
    {
        "col0": "Louis XVIII of France",
        "col1": "Palace of Versailles",
        "col2": "List of French monarchs",
        "col3": "1824-09-16"
    },
    {
        "col0": "Louis XI of France",
        "col1": "Bourges",
        "col2": "Orleans",
        "col3": "1483-08-30"
    },
    {
        "col0": "Louis XIV of France",
        "col1": "Saint-Germain-en-Laye",
        "col2": "Saint Denis Basilica",
        "col3": "1715-09-01"
    },
    {
        "col0": "Louis XIII of France",
        "col1": "Fontainebleau",
        "col2": "Saint Denis Basilica",
        "col3": "1643-05-14"
    },
    {
        "col0": "Louis VI of France",
        "col1": "Paris",
        "col2": "Paris",
        "col3": "1137-08-01"
    },
    {
        "col0": "Louis Philippe II, Duke of Orleans",
        "col1": "Chateau de Saint Cloud",
        "col2": "Madeleine Cemetery",
        "col3": "1793-11-06"
    },
    {
        "col0": "Louis Philippe I, Duke of Orleans",
        "col1": "Palace of Versailles",
        "col2": "Val-de-Grace",
        "col3": "1785-11-18"
    },
    {
        "col0": "Louis Philippe, Crown Prince of Belgium",
        "col1": "Belgium",
        "col2": "Belgium",
        "col3": "1834-05-16"
    },
    {
        "col0": "Louis Marie, Duke of Rambouillet",
        "col1": "France",
        "col2": "France",
        "col3": "1749-11-13"
    },
    {
        "col0": "Louis Joseph, Prince of Conde",
        "col1": "Paris",
        "col2": "Basilica of St Denis",
        "col3": "1818-05-13"
    },
    {
        "col0": "Louis Joseph, Duke of Vendome",
        "col1": "Paris",
        "col2": "El Escorial",
        "col3": "1712-06-11"
    },
    {
        "col0": "Louis Jean Marie de Bourbon, Duke of Penthievre",
        "col1": "Chateau de Rambouillet",
        "col2": "Chapelle royale de Dreux",
        "col3": "1793-03-04"
    },
    {
        "col0": "Louis I of Spain",
        "col1": "Madrid",
        "col2": "El Escorial",
        "col3": "1724-08-31"
    },
    {
        "col0": "Louis I of Naples",
        "col1": "Kingdom of Naples",
        "col2": "Territorial Abbey of Montevergine",
        "col3": "1362-05-26"
    },
    {
        "col0": "Louis IV of France",
        "col1": "Laon",
        "col2": "Reims",
        "col3": "0954-09-10"
    },
    {
        "col0": "Louis IV, Holy Roman Emperor",
        "col1": "Munich",
        "col2": "Munich",
        "col3": "1347-10-11"
    },
    {
        "col0": "Louis III, Grand Duke of Hesse",
        "col1": "Darmstadt",
        "col2": "Darmstadt",
        "col3": "1877-06-13"
    },
    {
        "col0": "Louis II, Prince of Monaco",
        "col1": "Grand Duchy of Baden",
        "col2": "Saint Nicholas Cathedral, Monaco",
        "col3": "1949-05-09"
    },
    {
        "col0": "Louis I, Prince of Monaco",
        "col1": "Prince's Palace of Monaco",
        "col2": "Saint Nicholas Cathedral, Monaco",
        "col3": "1701-01-03"
    },
    {
        "col0": "Louis I, Duke of Orleans",
        "col1": "Paris",
        "col2": "Saint Denis Basilica",
        "col3": "1407-11-23"
    },
    {
        "col0": "Louis Henri, Prince of Conde",
        "col1": "France",
        "col2": "Basilica of St Denis",
        "col3": "1830-08-30"
    },
    {
        "col0": "Louis Francois Joseph, Prince of Conti",
        "col1": "Paris",
        "col2": "Chapelle royale de Dreux",
        "col3": "1814-03-13"
    },
    {
        "col0": "Louis Ferdinand, Prince of Prussia",
        "col1": "Marmorpalais",
        "col2": "Hohenzollern Castle",
        "col3": "1994-09-26"
    },
    {
        "col0": "Louis Cesar, Count of Vexin",
        "col1": "Bussy-Saint-Georges",
        "col2": "Abbey of Saint-Germain-des-Pres",
        "col3": "1683-01-10"
    },
    {
        "col0": "Louis Charles, Count of Eu",
        "col1": "France",
        "col2": "France",
        "col3": "1775-07-13"
    },
    {
        "col0": "Louis Charles, Count of Beaujolais",
        "col1": "France",
        "col2": "Malta Protectorate",
        "col3": "1808-05-30"
    },
    {
        "col0": "Louis Cesar, Count of Vexin",
        "col1": "Bussy-Saint-Georges",
        "col2": "Abbey of Saint-Germain-des-Pres",
        "col3": "1683-01-10"
    },
    {
        "col0": "L. Bonaparte",
        "col1": "Ajaccio",
        "col2": "Saint-Leu-la-Foret",
        "col3": "1846-07-25"
    },
    {
        "col0": "Louis Auguste, Prince of Dombes",
        "col1": "France",
        "col2": "France",
        "col3": "1755-10-01"
    },
    {
        "col0": "Louis Auguste, Duke of Maine",
        "col1": "Chateau de Saint-Germain-en-Laye",
        "col2": "Kingdom of France",
        "col3": "1736-05-14"
    },
    {
        "col0": "Louis Antoine, Duke of Angouleme",
        "col1": "Kingdom of France",
        "col2": "Kostanjevica Monastery",
        "col3": "1844-06-03"
    },
    {
        "col0": "Louis Alexandre, Count of Toulouse",
        "col1": "France",
        "col2": "Chapelle royale de Dreux",
        "col3": "1737-12-01"
    },
    {
        "col0": "L. G. Dauphin",
        "col1": "Fontainebleau",
        "col2": "France",
        "col3": "1711-04-14"
    },
    {
        "col0": "L. G. Conde",
        "col1": "France",
        "col2": "France",
        "col3": "1686-12-11"
    },
    {
        "col0": "Louis, Duke of Rohan",
        "col1": "France",
        "col2": "Chateau de Blain",
        "col3": "1727-08-17"
    },
    {
        "col0": "Louis, Duke of Burgundy",
        "col1": "France",
        "col2": "France",
        "col3": "1712-02-18"
    },
    {
        "col0": "Louis, Count of Vermandois",
        "col1": "Saint-Germain-en-Laye",
        "col2": "Arras",
        "col3": "1683-11-18"
    },
    {
        "col0": "Lothair II, Holy Roman Emperor",
        "col1": "Duchy of Saxony",
        "col2": "Konigslutter",
        "col3": "1137-12-4"
    },
    {
        "col0": "L. Emperor",
        "col1": "Beijing",
        "col2": "China",
        "col3": "1572-07-05"
    },
    {
        "col0": "L. t. Great",
        "col1": "Dolwyddelan",
        "col2": "Wales",
        "col3": "1240-04-11"
    },
    {
        "col0": "L. Vukomanovic",
        "col1": "Srezojevci",
        "col2": "Vojvodina",
        "col3": "1843-05-26"
    },
    {
        "col0": "Livia",
        "col1": "Rome",
        "col2": "Mausoleum of Augustus",
        "col3": "0029-09-28"
    },
    {
        "col0": "L. Bei",
        "col1": "Hebei",
        "col2": "Sichuan",
        "col3": "0223-06-10"
    },
    {
        "col0": "Lionel of Antwerp, 1st Duke of Clarence",
        "col1": "Antwerp",
        "col2": "Clare Priory",
        "col3": "1368-10-07"
    },
    {
        "col0": "Liliuokalani",
        "col1": "Honolulu",
        "col2": "Royal Mausoleum of Hawaii",
        "col3": "1917-11-11"
    },
    {
        "col0": "Lilian, Princess of Rethy",
        "col1": "London",
        "col2": "Church of Our Lady of Laeken",
        "col3": "2002-06-07"
    },
    {
        "col0": "Likelike",
        "col1": "Honolulu",
        "col2": "Royal Mausoleum of Hawaii",
        "col3": "1887-02-02"
    },
    {
        "col0": "L. Achba",
        "col1": "Constantinople",
        "col2": "Sivas",
        "col3": "1931-11-06"
    },
    {
        "col0": "Leszek II the Black",
        "col1": "Brzesc Kujawski",
        "col2": "Krakow",
        "col3": "1288-09-30"
    },
    {
        "col0": "L. d. Medici",
        "col1": "Florence",
        "col2": "Basilica of San Lorenzo, Florence",
        "col3": "1675-11-10"
    },
    {
        "col0": "L. v. Sternberg",
        "col1": "Habsburg Monarchy",
        "col2": "Brno",
        "col3": "1809-03-01"
    },
    {
        "col0": "Leopold III of Belgium",
        "col1": "Brussels",
        "col2": "Church of Our Lady of Laeken",
        "col3": "1983-09-25"
    },
    {
        "col0": "Leopold II, Holy Roman Emperor",
        "col1": "Vienna",
        "col2": "Imperial Crypt",
        "col3": "1792-03-01"
    },
    {
        "col0": "Leopold I, Holy Roman Emperor",
        "col1": "Archduchy of Austria",
        "col2": "Vienna",
        "col3": "1705-05-05"
    },
    {
        "col0": "Leopold, Prince of Salerno",
        "col1": "Naples",
        "col2": "Naples",
        "col3": "1851-03-10"
    },
    {
        "col0": "Leopold, Duke of Lorraine",
        "col1": "Austria",
        "col2": "France",
        "col3": "1729-03-27"
    },
    {
        "col0": "Leonor de Castro Mello y Meneses",
        "col1": "Portugal",
        "col2": "Gandia",
        "col3": "1546-3-27"
    },
    {
        "col0": "Leo V, King of Armenia",
        "col1": "Armenian Kingdom of Cilicia",
        "col2": "Saint Denis Basilica",
        "col3": "1393-11-29"
    },
    {
        "col0": "L. Lowenstein",
        "col1": "Frankfurt",
        "col2": "Germany",
        "col3": "2010-04-24"
    },
    {
        "col0": "L. II",
        "col1": "Honolulu",
        "col2": "Royal Mausoleum of Hawaii",
        "col3": "1877-04-09"
    },
    {
        "col0": "Leka I, Crown Prince of Albania",
        "col1": "Kingdom of Albania",
        "col2": "Albania",
        "col3": "2011-11-30"
    },
    {
        "col0": "L. Pahlavi",
        "col1": "Iran",
        "col2": "France",
        "col3": "2001-06-10"
    },
    {
        "col0": "L. Martinozzi",
        "col1": "Papal State",
        "col2": "Modena",
        "col3": "1687-07-19"
    },
    {
        "col0": "L. Cereta",
        "col1": "Brescia",
        "col2": "Brescia, Italy",
        "col3": "1499-1-1"
    },
    {
        "col0": "Landgravine Josepha of Furstenberg-Weitra",
        "col1": "Habsburg Monarchy",
        "col2": "Brno",
        "col3": "1848-02-23"
    },
    {
        "col0": "Landgravine Elisabeth Amalie of Hesse-Darmstadt",
        "col1": "Giessen",
        "col2": "Germany",
        "col3": "1709-08-04"
    },
    {
        "col0": "Landgravine Christine of Hesse-Rotenburg",
        "col1": "Rotenburg an der Fulda",
        "col2": "Turin",
        "col3": "1778-09-01"
    },
    {
        "col0": "Landgravine Caroline of Hesse-Rotenburg",
        "col1": "Rotenburg an der Fulda",
        "col2": "France",
        "col3": "1741-06-14"
    },
    {
        "col0": "Landgravine Auguste of Hesse-Homburg",
        "col1": "Holy Roman Empire",
        "col2": "Ludwigslust",
        "col3": "1871-04-01"
    },
    {
        "col0": "L. Saigo",
        "col1": "Japan",
        "col2": "Shizuoka, Shizuoka",
        "col3": "1589-07-01"
    },
    {
        "col0": "L. J. Grey",
        "col1": "Leicestershire",
        "col2": "Church of St Peter ad Vincula",
        "col3": "1554-02-12"
    },
    {
        "col0": "L. t. Posthumous",
        "col1": "Komarno",
        "col2": "Prague",
        "col3": "1457-11-23"
    },
    {
        "col0": "L. o. Naples",
        "col1": "Naples",
        "col2": "San Giovanni a Carbonara",
        "col3": "1414-08-06"
    },
    {
        "col0": "Ladislaus I of Hungary",
        "col1": "Kingdom of Poland",
        "col2": "Romania",
        "col3": "1095-7-29"
    },
    {
        "col0": "Ladislaus II of Hungary",
        "col1": "Szekesfehervar",
        "col2": "Szekesfehervar Cathedral",
        "col3": "1163-1-14"
    },
    {
        "col0": "L. C. Thong",
        "col1": "Vietnam",
        "col2": "Vietnam",
        "col3": "1793-1-1"
    },
    {
        "col0": "Leopold Clement, Hereditary Prince of Lorraine",
        "col1": "Lorraine",
        "col2": "Nancy, France",
        "col3": "1723-06-04"
    },
    {
        "col0": "KA<<naE>>u",
        "col1": "Waikiki",
        "col2": "Royal Mausoleum of Hawaii",
        "col3": "1839-04-04"
    },
    {
        "col0": "Kyawswa II of Pinya",
        "col1": "Pinle",
        "col2": "Pinya",
        "col3": "1359-03-19"
    },
    {
        "col0": "K. o. Hohenstaufen",
        "col1": "Germany",
        "col2": "Prague",
        "col3": "1248-9-13"
    },
    {
        "col0": "K. o. Bohemia",
        "col1": "Prague",
        "col2": "Prague",
        "col3": "1321-11-27"
    },
    {
        "col0": "K. o. Halych",
        "col1": "Kiev",
        "col2": "Prague",
        "col3": "1285-09-09"
    },
    {
        "col0": "K. Khan",
        "col1": "Mongol Empire",
        "col2": "Burkhan Khaldun",
        "col3": "1294-2-18"
    },
    {
        "col0": "K. Phuc",
        "col1": "Hue",
        "col2": "Khiem Lang",
        "col3": "1884-07-31"
    },
    {
        "col0": "Kirill Vladimirovich, Grand Duke of Russia",
        "col1": "Russian Empire",
        "col2": "Russian Federation",
        "col3": "1938-10-12"
    },
    {
        "col0": "K. P. Takamatsu",
        "col1": "Japan",
        "col2": "Bunkyo, Tokyo",
        "col3": "2004-12-18"
    },
    {
        "col0": "K. Phuc",
        "col1": "Hue",
        "col2": "Khiem Lang",
        "col3": "1884-07-31"
    },
    {
        "col0": "K. Dinh",
        "col1": "Hue",
        "col2": "Tomb of Khai Dinh",
        "col3": "1925-11-06"
    },
    {
        "col0": "K. Alimullah",
        "col1": "British Raj",
        "col2": "Dhaka",
        "col3": "1854-08-24"
    },
    {
        "col0": "K. Ahsanullah",
        "col1": "British Raj",
        "col2": "Begum Bazaar",
        "col3": "1901-12-16"
    },
    {
        "col0": "K. A. Ghani",
        "col1": "British Raj",
        "col2": "Dhaka",
        "col3": "1896-08-24"
    },
    {
        "col0": "K. Jahanbani",
        "col1": "Tehran",
        "col2": "Geneva",
        "col3": "2014-04-16"
    },
    {
        "col0": "K. Begum",
        "col1": "Uzbekistan",
        "col2": "Gardens of Babur",
        "col3": "1545-0-0"
    }
]