[
    {
        "NO-HEADER0": "",
        "Member": "John Williams",
        "Electoral district": "Arthur",
        "Party[5]": "Liberal"
    },
    {
        "NO-HEADER0": "",
        "Member": "John Thomas Haig",
        "Electoral district": "Assiniboia",
        "Party[5]": "Conservative"
    },
    {
        "NO-HEADER0": "",
        "Member": "James H. Howden",
        "Electoral district": "Beautiful Plains",
        "Party[5]": "Conservative"
    },
    {
        "NO-HEADER0": "",
        "Member": "George Malcolm",
        "Electoral district": "Birtle",
        "Party[5]": "Liberal"
    },
    {
        "NO-HEADER0": "",
        "Member": "George R. Coldwell",
        "Electoral district": "Brandon City",
        "Party[5]": "Conservative"
    },
    {
        "NO-HEADER0": "",
        "Member": "Thomas B. Molloy",
        "Electoral district": "Carillon",
        "Party[5]": "Liberal"
    },
    {
        "NO-HEADER0": "",
        "Member": "George R. Ray",
        "Electoral district": "Churchill[nb 1][6]",
        "Party[5]": "Conservative"
    },
    {
        "NO-HEADER0": "",
        "Member": "George Steel",
        "Electoral district": "Cypress",
        "Party[5]": "Conservative"
    },
    {
        "NO-HEADER0": "",
        "Member": "William Buchanan",
        "Electoral district": "Dauphin",
        "Party[5]": "Conservative"
    },
    {
        "NO-HEADER0": "",
        "Member": "Robert Stirton Thornton",
        "Electoral district": "Deloraine",
        "Party[5]": "Liberal"
    },
    {
        "NO-HEADER0": "",
        "Member": "Rodmond Roblin",
        "Electoral district": "Dufferin",
        "Party[5]": "Conservative"
    },
    {
        "NO-HEADER0": "",
        "Member": "Harry Mewhirter",
        "Electoral district": "Elmwood",
        "Party[5]": "Conservative"
    },
    {
        "NO-HEADER0": "",
        "Member": "David Henry McFadden",
        "Electoral district": "Emerson",
        "Party[5]": "Conservative"
    },
    {
        "NO-HEADER0": "",
        "Member": "Samuel Hughes",
        "Electoral district": "Gilbert Plains",
        "Party[5]": "Conservative"
    },
    {
        "NO-HEADER0": "",
        "Member": "Sveinn Thorvaldson",
        "Electoral district": "Gimli",
        "Party[5]": "Conservative"
    },
    {
        "NO-HEADER0": "",
        "Member": "James William Armstrong",
        "Electoral district": "Gladstone",
        "Party[5]": "Liberal"
    },
    {
        "NO-HEADER0": "",
        "Member": "James Breakey",
        "Electoral district": "Glenwood",
        "Party[5]": "Liberal"
    },
    {
        "NO-HEADER0": "",
        "Member": "Hugh Armstrong",
        "Electoral district": "Grand Rapids",
        "Party[5]": "Conservative"
    },
    {
        "NO-HEADER0": "",
        "Member": "John Henry McConnell",
        "Electoral district": "Hamiota",
        "Party[5]": "Liberal"
    },
    {
        "NO-HEADER0": "",
        "Member": "Aime Benard",
        "Electoral district": "Iberville",
        "Party[5]": "Conservative"
    },
    {
        "NO-HEADER0": "",
        "Member": "Walter Humphries Montague",
        "Electoral district": "Kildonan and St. Andrews",
        "Party[5]": "Conservative"
    },
    {
        "NO-HEADER0": "",
        "Member": "George Lawrence",
        "Electoral district": "Killarney",
        "Party[5]": "Conservative"
    },
    {
        "NO-HEADER0": "",
        "Member": "John J. Garland",
        "Electoral district": "Lakeside",
        "Party[5]": "Conservative"
    },
    {
        "NO-HEADER0": "",
        "Member": "Tobias Norris",
        "Electoral district": "Lansdowne",
        "Party[5]": "Liberal"
    },
    {
        "NO-HEADER0": "",
        "Member": "Jean-Baptiste Lauzon",
        "Electoral district": "La Verendrye",
        "Party[5]": "Conservative"
    },
    {
        "NO-HEADER0": "",
        "Member": "James Morrow",
        "Electoral district": "Manitou",
        "Party[5]": "Conservative"
    },
    {
        "NO-HEADER0": "",
        "Member": "George Grierson",
        "Electoral district": "Minnedosa",
        "Party[5]": "Liberal"
    },
    {
        "NO-HEADER0": "",
        "Member": "Valentine Winkler",
        "Electoral district": "Morden and Rhineland",
        "Party[5]": "Liberal"
    },
    {
        "NO-HEADER0": "",
        "Member": "Jacques Parent",
        "Electoral district": "Morris",
        "Party[5]": "Conservative"
    },
    {
        "NO-HEADER0": "",
        "Member": "James Bryson Baird",
        "Electoral district": "Mountain",
        "Party[5]": "Liberal"
    },
    {
        "NO-HEADER0": "",
        "Member": "John Graham",
        "Electoral district": "Norfolk",
        "Party[5]": "Liberal"
    },
    {
        "NO-HEADER0": "",
        "Member": "Ewan McPherson",
        "Electoral district": "Portage la Prairie",
        "Party[5]": "Liberal"
    },
    {
        "NO-HEADER0": "",
        "Member": "Frederic Newton",
        "Electoral district": "Roblin",
        "Party[5]": "Conservative"
    },
    {
        "NO-HEADER0": "",
        "Member": "Isaac Riley",
        "Electoral district": "Rockwood",
        "Party[5]": "Conservative"
    },
    {
        "NO-HEADER0": "",
        "Member": "Donald Cromwell McDonald",
        "Electoral district": "Russell",
        "Party[5]": "Liberal"
    },
    {
        "NO-HEADER0": "",
        "Member": "Joseph Bernier",
        "Electoral district": "St. Boniface",
        "Party[5]": "Conservative"
    },
    {
        "NO-HEADER0": "",
        "Member": "Donald A. Ross",
        "Electoral district": "St. Clements",
        "Party[5]": "Liberal"
    },
    {
        "NO-HEADER0": "",
        "Member": "Edmund L. Taylor",
        "Electoral district": "St. George",
        "Party[5]": "Conservative"
    },
    {
        "NO-HEADER0": "",
        "Member": "Joseph Hamelin",
        "Electoral district": "Ste. Rose",
        "Party[5]": "Conservative"
    },
    {
        "NO-HEADER0": "",
        "Member": "William Henry Sims",
        "Electoral district": "Swan River",
        "Party[5]": "Liberal"
    },
    {
        "NO-HEADER0": "",
        "Member": "Robert Orok",
        "Electoral district": "The Pas",
        "Party[5]": "Conservative"
    },
    {
        "NO-HEADER0": "",
        "Member": "James Johnson",
        "Electoral district": "Turtle Mountain",
        "Party[5]": "Conservative"
    },
    {
        "NO-HEADER0": "",
        "Member": "George Clingan",
        "Electoral district": "Virden",
        "Party[5]": "Liberal"
    },
    {
        "NO-HEADER0": "",
        "Member": "Thomas Herman Johnson",
        "Electoral district": "Winnipeg Centre A",
        "Party[5]": "Liberal"
    },
    {
        "NO-HEADER0": "",
        "Member": "F. J. Dixon",
        "Electoral district": "Winnipeg Centre B",
        "Party[5]": "Independent"
    },
    {
        "NO-HEADER0": "",
        "Member": "Joseph P. Foley",
        "Electoral district": "Winnipeg North A",
        "Party[5]": "Conservative"
    },
    {
        "NO-HEADER0": "",
        "Member": "Daniel McLean",
        "Electoral district": "Winnipeg North B",
        "Party[5]": "Conservative"
    },
    {
        "NO-HEADER0": "",
        "Member": "Albert Hudson",
        "Electoral district": "Winnipeg South A",
        "Party[5]": "Liberal"
    },
    {
        "NO-HEADER0": "",
        "Member": "William Parrish",
        "Electoral district": "Winnipeg South B",
        "Party[5]": "Liberal"
    }
]