[
    {
        "Date seat became vacant": "July 1, 2013",
        "District": "100",
        "Previous": "Brian W. Thomas",
        "Reason for change": "Resigned",
        "Subsequent": "Dewey McClain",
        "Date of successor's taking office": "December 5, 2013"
    },
    {
        "Date seat became vacant": "August 27, 2013",
        "District": "104",
        "Previous": "Donna Sheldon",
        "Reason for change": "Resigned",
        "Subsequent": "Chuck Efstration",
        "Date of successor's taking office": "December 13, 2013"
    },
    {
        "Date seat became vacant": "October 30, 2013",
        "District": "22",
        "Previous": "Calvin Hill",
        "Reason for change": "Deceased",
        "Subsequent": "Sam Moore",
        "Date of successor's taking office": "February 11, 2014 [4]"
    }
]