[
    {
        "col0": "LuLu International Shopping Mall",
        "col1": "Atkins",
        "col2": "Edapally, Kochi - 682024",
        "col3": "157935"
    },
    {
        "col0": "Laguna Hills Mall",
        "col1": "E. Killingsworth",
        "col2": "24155 Laguna Hills Mall",
        "col3": "80546"
    },
    {
        "col0": "Jacksonville Landing",
        "col1": "B. C. Thompson",
        "col2": "2 W Independent Drive",
        "col3": "11705"
    },
    {
        "col0": "Highcross Leicester",
        "col1": "F. O. Architects",
        "col2": "5 Shires Lane, Leicester, LE1 4AN",
        "col3": "110000"
    },
    {
        "col0": "Haymarket Shopping Centre",
        "col1": "B. D. Partnership",
        "col2": "1 Kildare Walk, City Centre, Leicester, LE1 3YH",
        "col3": "23225"
    },
    {
        "col0": "Foorum",
        "col1": "H. Grossschmidt",
        "col2": "Narva mnt 5",
        "col3": "2500"
    },
    {
        "col0": "Fallbrook Center",
        "col1": "M. Starkman",
        "col2": "6633 Fallbrook Avenue, West Hills, California 91307",
        "col3": "81754"
    },
    {
        "col0": "Emporia",
        "col1": "G. Wingardh",
        "col2": "215 32 Malmo",
        "col3": "65000"
    },
    {
        "col0": "Dundrum Town Centre",
        "col1": "Dublin",
        "col2": "Dublin 16",
        "col3": "140000"
    },
    {
        "col0": "Drake Circus Shopping Centre",
        "col1": "C. Taylor",
        "col2": "1 Charles Street,",
        "col3": "39483"
    },
    {
        "col0": "Dragon Centre",
        "col1": "Wong Tung & Partners",
        "col2": "37K Yen Chow St, Sham Shui Po, Kowloon, Hong Kong",
        "col3": "45000"
    },
    {
        "col0": "Copley Place",
        "col1": "T. A. Collaborative",
        "col2": "02116-6506",
        "col3": "38445"
    },
    {
        "col0": "Columbus Shopping Center",
        "col1": "C. C. Design",
        "col2": "140 Varshavskoye highway",
        "col3": "140000"
    },
    {
        "col0": "CocoWalk",
        "col1": "D. International",
        "col2": "3015 Grand Avenue",
        "col3": "18580"
    },
    {
        "col0": "CityPlace",
        "col1": "E. Architects",
        "col2": "700 South Rosemary Avenue",
        "col3": "55741"
    },
    {
        "col0": "Bugis+",
        "col1": "WOHA",
        "col2": "201 Victoria Street",
        "col3": "18051"
    },
    {
        "col0": "Bayside Marketplace",
        "col1": "B. C. Thompson",
        "col2": "401Biscayne Boulevard",
        "col3": "21367"
    },
    {
        "col0": "Anaheim GardenWalk",
        "col1": "Wimberly Allison Tong & Goo",
        "col2": "400 West Disney Way",
        "col3": "42735"
    },
    {
        "col0": "Ampang Park",
        "col1": "D. Architects",
        "col2": "Ampang Park Shopping Centre, Jalan Ampang, 50450 Kuala Lumpur",
        "col3": "31587"
    }
]