[
    {
        "col0": "Disco King",
        "col1": "Ben Glatzer",
        "col2": "Spencer Tracy",
        "col3": "Spencer Tracy",
        "col4": "Ocean",
        "col5": "\"Disco King\""
    },
    {
        "col0": "Dig for Fire",
        "col1": "Gil Norton",
        "col2": "Pixies",
        "col3": "Pixies",
        "col4": "Planet of Sound",
        "col5": "\"Dig for Fire\""
    },
    {
        "col0": "Dig a Hole / I Hope You Die",
        "col1": "Vaden Todd Lewis",
        "col2": "Toadies",
        "col3": "Toadies",
        "col4": "Mister Love",
        "col5": "Dig a Hole"
    },
    {
        "col0": "Differently",
        "col1": "Printz Board",
        "col2": "Cassie Davis",
        "col3": "Cassie Davis",
        "col4": "Do It Again",
        "col5": "\"Differently\""
    },
    {
        "col0": "Die Tonight Live Forever",
        "col1": "Innerpartysystem",
        "col2": "Innerpartysystem",
        "col3": "Innerpartysystem",
        "col4": "Heart of Fire",
        "col5": "Die Tonight Live Forever"
    },
    {
        "col0": "Did Ye Get Healed?",
        "col1": "Van Morrison",
        "col2": "Van Morrison",
        "col3": "Van Morrison",
        "col4": "Someone Like You",
        "col5": "\"Did Ye Get Healed?\""
    },
    {
        "col0": "Devoted to You",
        "col1": "Arif Mardin",
        "col2": "Brian Wilson",
        "col3": "Brian Wilson",
        "col4": "Problems",
        "col5": "\"Bird Dog\""
    },
    {
        "col0": "Det ar over nu",
        "col1": "Per Gessle",
        "col2": "Gyllene Tider",
        "col3": "Gyllene Tider",
        "col4": "Kung av sand",
        "col5": "\"Det ar over nu\""
    },
    {
        "col0": "Denomination Blues",
        "col1": "Frank Buckley Walker",
        "col2": "Sister Rosetta Tharpe",
        "col3": "Sister Rosetta Tharpe",
        "col4": "Paul and Silas in Jail",
        "col5": "\"My Man and I\""
    },
    {
        "col0": "Deliver Your Children",
        "col1": "Paul McCartney",
        "col2": "Wings",
        "col3": "Wings",
        "col4": "London Town",
        "col5": "\"I've Had Enough\""
    },
    {
        "col0": "Deirdre",
        "col1": "The Beach Boys",
        "col2": "The Beach Boys",
        "col3": "The Beach Boys",
        "col4": "Surf's Up",
        "col5": "\"Long Promised Road\""
    },
    {
        "col0": "Deep River Woman",
        "col1": "Lionel Richie",
        "col2": "Lionel Richie",
        "col3": "Lionel Richie",
        "col4": "Se La",
        "col5": "\"Ballerina Girl\""
    },
    {
        "col0": "Deep Blue",
        "col1": "George Harrison",
        "col2": "George Harrison",
        "col3": "George Harrison",
        "col4": "Give Me Love",
        "col5": "\"Bangla Desh\""
    },
    {
        "col0": "Debaser",
        "col1": "Gil Norton",
        "col2": "Pixies",
        "col3": "Pixies",
        "col4": "Bam Thwok",
        "col5": "\"Debaser\""
    },
    {
        "col0": "Death Disco",
        "col1": "Public Image Ltd",
        "col2": "Public Image Ltd",
        "col3": "Public Image Ltd",
        "col4": "Memories",
        "col5": "12\" - \" 1/2  Mix\""
    },
    {
        "col0": "Dead Shrimp Blues",
        "col1": "Don Law",
        "col2": "Robert Johnson",
        "col3": "Robert Johnson",
        "col4": "Cross Road Blues",
        "col5": "I Believe I'll Dust My Broom"
    },
    {
        "col0": "Days Like This",
        "col1": "Van Morrison",
        "col2": "Van Morrison",
        "col3": "Van Morrison",
        "col4": "Perfect Fit",
        "col5": "\"Days Like This\""
    },
    {
        "col0": "Days",
        "col1": "Steve Lillywhite",
        "col2": "The Kinks",
        "col3": "The Kinks",
        "col4": "Innocence",
        "col5": "Days"
    },
    {
        "col0": "Day Tripper",
        "col1": "George Martin",
        "col2": "The Beatles",
        "col3": "The Beatles",
        "col4": "Paperback Writer",
        "col5": "\"We Can Work It Out\""
    },
    {
        "col0": "David Watts",
        "col1": "Vic Coppersmith-Heaven",
        "col2": "The Kinks",
        "col3": "The Kinks",
        "col4": "Dave Davies",
        "col5": "\"Autumn Almanac\" (US/Europe)"
    },
    {
        "col0": "Darling It Hurts",
        "col1": "Paul Kelly",
        "col2": "Paul Kelly",
        "col3": "Paul Kelly",
        "col4": "Leaps and Bounds",
        "col5": "\"Darling It Hurts\""
    },
    {
        "col0": "Dare to Be Stupid",
        "col1": "Rick Derringer",
        "col2": "\"Weird Al\" Yankovic",
        "col3": "\"Weird Al\" Yankovic",
        "col4": "Living with a Hernia",
        "col5": "Dare to Be Stupid"
    },
    {
        "col0": "Dancing in the Street",
        "col1": "Tom Dowd",
        "col2": "Mick Jagger",
        "col3": "Black Oak Arkansas",
        "col4": "Absolute Beginners",
        "col5": "\"Dancing In the Streets\""
    },
    {
        "col0": "Dancing Days",
        "col1": "Jimmy Page",
        "col2": "Led Zeppelin",
        "col3": "Led Zeppelin",
        "col4": "D'yer Mak'er",
        "col5": "\"Over the Hills and Far Away\""
    },
    {
        "col0": "Dance the Night Away",
        "col1": "Ted Templeman",
        "col2": "Van Halen",
        "col3": "Van Halen",
        "col4": "Beautiful Girls",
        "col5": "\"Dance the Night Away\""
    },
    {
        "col0": "Daddy's Gonna Make You a Star",
        "col1": "Simon Hussey",
        "col2": "Company of Strangers",
        "col3": "Company of Strangers",
        "col4": "Baby You're a Rich Man",
        "col5": "\"Daddy's Gonna Make You a Star!\""
    },
    {
        "col0": "Deshabillez-moi",
        "col1": "Laurent Boutonnat",
        "col2": "Mylene Farmer",
        "col3": "Mylene Farmer",
        "col4": "Degeneration",
        "col5": "\"Sans contrefacon\" (1987 release)"
    },
    {
        "col0": "Cut Your Hair",
        "col1": "Pavement",
        "col2": "Pavement",
        "col3": "Pavement",
        "col4": "Gold Soundz",
        "col5": "\"Cut Your Hair\""
    },
    {
        "col0": "Cut Across Shorty",
        "col1": "Snuff Garrett",
        "col2": "Eddie Cochran",
        "col3": "Eddie Cochran",
        "col4": "Lonely",
        "col5": "\"Three Steps to Heaven\""
    },
    {
        "col0": "Cul de Sac",
        "col1": "Van Morrison",
        "col2": "Van Morrison",
        "col3": "Van Morrison",
        "col4": "Caldonia",
        "col5": "\"Bulbs\""
    },
    {
        "col0": "Cuddle Up",
        "col1": "The Beach Boys",
        "col2": "The Beach Boys",
        "col3": "The Beach Boys",
        "col4": "Marcella",
        "col5": "\"You Need a Mess of Help to Stand Alone\""
    },
    {
        "col0": "Cry! Cry! Cry!",
        "col1": "Sam Phillips",
        "col2": "Johnny Cash",
        "col3": "Johnny Cash",
        "col4": "So Doggone Lonesome",
        "col5": "\"Hey, Porter\""
    },
    {
        "col0": "Cruiser",
        "col1": "Roy Thomas Baker",
        "col2": "The Cars",
        "col3": "The Cars",
        "col4": "Since You're Gone",
        "col5": "\"Shake It Up\""
    },
    {
        "col0": "Criminology",
        "col1": "RZA",
        "col2": "Raekwon",
        "col3": "Raekwon",
        "col4": "Ice Cream",
        "col5": "\"Criminology\""
    },
    {
        "col0": "Creator",
        "col1": "Freq Nasty",
        "col2": "Santigold",
        "col3": "Santigold",
        "col4": "L.E.S. Artistes",
        "col5": "L.E.S. Artistes"
    },
    {
        "col0": "Crazy Love",
        "col1": "Van Morrison",
        "col2": "Van Morrison",
        "col3": "Van Morrison",
        "col4": "Domino",
        "col5": "\"Crazy Love\""
    },
    {
        "col0": "Crazy Heart",
        "col1": "Fred Rose",
        "col2": "Hank Williams",
        "col3": "Hank Williams",
        "col4": "Baby, We're Really in Love",
        "col5": "\"(I Heard That) Lonesome Whistle\""
    },
    {
        "col0": "Crazy",
        "col1": "Owen Bradley",
        "col2": "LeAnn Rimes",
        "col3": "LeAnn Rimes",
        "col4": "She's Got You",
        "col5": "\"Crazy\""
    },
    {
        "col0": "County Fair",
        "col1": "Nik Venet",
        "col2": "The Beach Boys",
        "col3": "The Beach Boys",
        "col4": "Surfin' U.S.A.",
        "col5": "\"Ten Little Indians\""
    },
    {
        "col0": "Country Dreamer",
        "col1": "Paul McCartney",
        "col2": "Wings",
        "col3": "Wings",
        "col4": "Mrs Vandebilt",
        "col5": "\"Helen Wheels\""
    },
    {
        "col0": "Costumbres",
        "col1": "Juan Gabriel",
        "col2": "Selena",
        "col3": "Selena",
        "col4": "A Boy Like That",
        "col5": "Jamas Te Prometi un Jardin de Rosas"
    },
    {
        "col0": "Cosmik Debris",
        "col1": "Frank Zappa",
        "col2": "Frank Zappa",
        "col3": "Frank Zappa",
        "col4": "Don't Eat the Yellow Snow Suite",
        "col5": "Don't Eat the Yellow Snow"
    },
    {
        "col0": "Cool Jerk",
        "col1": "David Z",
        "col2": "The Capitols",
        "col3": "The Capitols",
        "col4": "The Whole World Lost Its Head",
        "col5": "\"Cool Jerk\""
    },
    {
        "col0": "Consuela Biaz",
        "col1": "Frank Farian",
        "col2": "Boney M.",
        "col3": "Boney M.",
        "col4": "We Kill the World / Boonoonoonoos",
        "col5": "\"Malaika\""
    },
    {
        "col0": "Confusion",
        "col1": "Jeff Lynne",
        "col2": "Electric Light Orchestra",
        "col3": "Electric Light Orchestra",
        "col4": "I'm Alive",
        "col5": "\"Last Train to London\"( (UK)"
    },
    {
        "col0": "Coney Island",
        "col1": "Van Morrison",
        "col2": "Van Morrison",
        "col3": "Van Morrison",
        "col4": "Gloria",
        "col5": "\"Coney Island\""
    },
    {
        "col0": "Communication Breakdown",
        "col1": "Jimmy Page",
        "col2": "Led Zeppelin",
        "col3": "Led Zeppelin",
        "col4": "Whole Lotta Love",
        "col5": "\"Good Times Bad Times\""
    },
    {
        "col0": "Come to Daddy",
        "col1": "Aphex Twin",
        "col2": "Aphex Twin",
        "col3": "Aphex Twin",
        "col4": "Windowlicker",
        "col5": "\"Flim\""
    },
    {
        "col0": "Come Together",
        "col1": "George Martin",
        "col2": "The Beatles",
        "col3": "The Beatles",
        "col4": "Let It Be",
        "col5": "\"Something\""
    },
    {
        "col0": "Come Running",
        "col1": "Van Morrison",
        "col2": "Van Morrison",
        "col3": "Van Morrison",
        "col4": "Crazy Love",
        "col5": "\"Come Running\""
    },
    {
        "col0": "Come On",
        "col1": "Andrew Loog Oldham",
        "col2": "The Rolling Stones",
        "col3": "The Rolling Stones",
        "col4": "I Wanna Be Your Man",
        "col5": "\"Go Go Go\""
    },
    {
        "col0": "Come Monday",
        "col1": "Don Gant",
        "col2": "Jimmy Buffett",
        "col3": "Jimmy Buffett",
        "col4": "Pencil Thin Moustache",
        "col5": "\"Come Monday\""
    },
    {
        "col0": "Come Clarity",
        "col1": "Anders Friden",
        "col2": "In Flames",
        "col3": "In Flames",
        "col4": "The Mirror's Truth",
        "col5": "\"Come Clarity\""
    },
    {
        "col0": "Come Back to Me",
        "col1": "Rob Cavallo",
        "col2": "David Cook",
        "col3": "David Cook",
        "col4": "Permanent",
        "col5": "\"[[#Come Back to Me"
    },
    {
        "col0": "Come Anytime",
        "col1": "Hoodoo Gurus",
        "col2": "Hoodoo Gurus",
        "col3": "Hoodoo Gurus",
        "col4": "Axegrinder",
        "col5": "\"Come Anytime\""
    },
    {
        "col0": "Colour My World",
        "col1": "James William Guercio",
        "col2": "Chicago",
        "col3": "Chicago",
        "col4": "25 or 6 to 4",
        "col5": "\"Beginnings\" (1971)"
    },
    {
        "col0": "Coldblooded",
        "col1": "James Brown",
        "col2": "James Brown",
        "col3": "James Brown",
        "col4": "Reality",
        "col5": "\"Funky President (People It's Bad)\""
    },
    {
        "col0": "Cocaine",
        "col1": "Glyn Johns",
        "col2": "Eric Clapton",
        "col3": "Eric Clapton",
        "col4": "Wonderful Tonight",
        "col5": "\"Lay Down Sally\""
    },
    {
        "col0": "Cleaning Windows",
        "col1": "Van Morrison",
        "col2": "Van Morrison",
        "col3": "Van Morrison",
        "col4": "Scandinavia",
        "col5": "\"Cleaning Windows\""
    },
    {
        "col0": "Clap Back",
        "col1": "Scott Storch",
        "col2": "Ja Rule",
        "col3": "Ja Rule",
        "col4": "Wonderful",
        "col5": "Clap Back"
    },
    {
        "col0": "Civil War",
        "col1": "Guns N' Roses",
        "col2": "Guns N' Roses",
        "col3": "Guns N' Roses",
        "col4": "Ain't It Fun",
        "col5": "\"Civil War\" (LP Version)"
    },
    {
        "col0": "City Lights",
        "col1": "Eddie Kilroy",
        "col2": "Ray Price",
        "col3": "Ray Price",
        "col4": "Window Up Above",
        "col5": "\"City Lights\""
    },
    {
        "col0": "Chug-a-Lug",
        "col1": "Jerry Kennedy",
        "col2": "Roger Miller",
        "col3": "Roger Miller",
        "col4": "Do-Wacka-Do",
        "col5": "Chug-a-Lug"
    },
    {
        "col0": "Christmas Time",
        "col1": "George Martin",
        "col2": "The Beatles",
        "col3": "The Beatles",
        "col4": "Real Love",
        "col5": "\"Free as a Bird\""
    },
    {
        "col0": "Christmas Time",
        "col1": "Bryan Adams",
        "col2": "Bryan Adams",
        "col3": "Bryan Adams",
        "col4": "Heat of the Night",
        "col5": "\"Christmas Time\""
    },
    {
        "col0": "Choto Mate Kudasai!",
        "col1": "Tsunku",
        "col2": "Angerme",
        "col3": "Angerme",
        "col4": "Dot Bikini",
        "col5": "\"Choto Mate Kudasai!\""
    },
    {
        "col0": "Choosey Beggar",
        "col1": "Smokey Robinson",
        "col2": "The Miracles",
        "col3": "The Miracles",
        "col4": "Whole Lot Of Shakin' In My Heart",
        "col5": "\"Going to a Go-Go\""
    },
    {
        "col0": "Cherchez La Femme",
        "col1": "Emilio Estefan, Jr.",
        "col2": "Gloria Estefan",
        "col3": "Gloria Estefan",
        "col4": "Abriendo Puertas",
        "col5": "Whispering/Cherchez La Femme/Se Si Bon"
    },
    {
        "col0": "Charlotte Sometimes",
        "col1": "The Cure",
        "col2": "The Cure",
        "col3": "The Cure",
        "col4": "A Single",
        "col5": "\"Charlotte Sometimes\""
    },
    {
        "col0": "Chapel of Love",
        "col1": "Jeff Barry",
        "col2": "The Dixie Cups",
        "col3": "The Dixie Cups",
        "col4": "People Say",
        "col5": "\"Chapel Of Love\""
    },
    {
        "col0": "Changes in Latitudes, Changes in Attitudes",
        "col1": "Norbert Putnam",
        "col2": "Jimmy Buffett",
        "col3": "Jimmy Buffett",
        "col4": "Cheeseburger in Paradise",
        "col5": "\"Changes in Latitudes, Changes in Attitudes\""
    },
    {
        "col0": "Cathedral Song",
        "col1": "Rod Argent",
        "col2": "Tanita Tikaram",
        "col3": "Tanita Tikaram",
        "col4": "World Outside Your Window",
        "col5": "Cathedral Song"
    },
    {
        "col0": "Catch Us If You Can",
        "col1": "Dave Clark",
        "col2": "The Dave Clark Five",
        "col3": "The Dave Clark Five",
        "col4": "Over and Over",
        "col5": "\"Catch Us If You Can\""
    },
    {
        "col0": "Careful with That Axe, Eugene",
        "col1": "Norman Smith",
        "col2": "Pink Floyd",
        "col3": "Pink Floyd",
        "col4": "The Nile Song",
        "col5": "\"Point Me at the Sky\""
    },
    {
        "col0": "Captain Nemo",
        "col1": "Frank Peterson",
        "col2": "Sarah Brightman",
        "col3": "Sarah Brightman",
        "col4": "The Second Element",
        "col5": "\"Captain Nemo\""
    },
    {
        "col0": "Candy",
        "col1": "Paolo Nutini",
        "col2": "Paolo Nutini",
        "col3": "Paolo Nutini",
        "col4": "Coming Up Easy",
        "col5": "Candy"
    },
    {
        "col0": "Candy",
        "col1": "The Neptunes",
        "col2": "Foxy Brown",
        "col3": "Foxy Brown",
        "col4": "Stylin'",
        "col5": "\"Candy\""
    },
    {
        "col0": "Candle in the Wind 1997",
        "col1": "George Martin",
        "col2": "Elton John",
        "col3": "Elton John",
        "col4": "Recover Your Soul",
        "col5": "\""
    },
    {
        "col0": "Can't Shake It",
        "col1": "Mickey Petralia",
        "col2": "Kate Miller-Heidke",
        "col3": "Kate Miller-Heidke",
        "col4": "Caught in the Crowd",
        "col5": "\"Can't Shake It\""
    },
    {
        "col0": "Calypso",
        "col1": "Milt Okun",
        "col2": "John Denver",
        "col3": "John Denver",
        "col4": "Fly Away",
        "col5": "\"I'm Sorry\""
    },
    {
        "col0": "Calling You",
        "col1": "Fred Rose",
        "col2": "Hank Williams",
        "col3": "Hank Williams",
        "col4": "Wealth Won't Save Your Soul",
        "col5": "\"Never Again (Will I Knock on Your Door)\""
    },
    {
        "col0": "Calling Occupants of Interplanetary Craft",
        "col1": "Richard Carpenter",
        "col2": "The Carpenters",
        "col3": "The Carpenters",
        "col4": "The Christmas Song",
        "col5": "\"Sub-Rosa Subway\""
    },
    {
        "col0": "Call Me Up in Dreamland",
        "col1": "Van Morrison",
        "col2": "Van Morrison",
        "col3": "Van Morrison",
        "col4": "Wild Night",
        "col5": "\"Call Me Up in Dreamland\""
    },
    {
        "col0": "Call Me",
        "col1": "Gregg Diamond",
        "col2": "Andrea True",
        "col3": "Andrea True",
        "col4": "Keep It Up Longer",
        "col5": "\"Party Line\""
    },
    {
        "col0": "California Love",
        "col1": "Dr. Dre",
        "col2": "Roger Troutman",
        "col3": "Roger Troutman",
        "col4": "2 of Amerikaz Most Wanted",
        "col5": "\"How Do U Want It\""
    },
    {
        "col0": "C Moon",
        "col1": "Paul McCartney",
        "col2": "Wings",
        "col3": "Wings",
        "col4": "My Love",
        "col5": "\"Hi, Hi, Hi\""
    },
    {
        "col0": "But I Love You",
        "col1": "LeMel Humes",
        "col2": "Miki Howard",
        "col3": "Miki Howard",
        "col4": "Something I've Never Had",
        "col5": "\"Shining Through\""
    },
    {
        "col0": "But I Do Love You",
        "col1": "Trevor Horn",
        "col2": "LeAnn Rimes",
        "col3": "LeAnn Rimes",
        "col4": "God Bless America",
        "col5": "Can't Fight the Moonlight"
    },
    {
        "col0": "Burnt Out Car",
        "col1": "Xenomania",
        "col2": "Saint Etienne",
        "col3": "Saint Etienne",
        "col4": "Method of Modern Love",
        "col5": "\"Burnt Our Car\", \"Angel\""
    },
    {
        "col0": "Burning Feeling",
        "col1": "Mark Opitz",
        "col2": "Noiseworks",
        "col3": "Noiseworks",
        "col4": "Touch",
        "col5": "Burning Feeling"
    },
    {
        "col0": "Buried Treasure",
        "col1": "Gibb-Galuten-Richardson",
        "col2": "Kenny Rogers",
        "col3": "Kenny Rogers",
        "col4": "Eyes That See in the Dark",
        "col5": "\"This Woman\""
    },
    {
        "col0": "Bulbs",
        "col1": "Van Morrison",
        "col2": "Van Morrison",
        "col3": "Van Morrison",
        "col4": "Caldonia",
        "col5": "\"Bulbs\""
    },
    {
        "col0": "Brown Girl in the Ring",
        "col1": "Frank Farian",
        "col2": "Boney M.",
        "col3": "Boney M.",
        "col4": "Ma Baker",
        "col5": "\"Rivers of Babylon\""
    },
    {
        "col0": "Brown Eyed Handsome Man",
        "col1": "Norman Petty",
        "col2": "Chuck Berry",
        "col3": "Chuck Berry",
        "col4": "Bo Diddley",
        "col5": "\"Too Much Monkey Business\""
    },
    {
        "col0": "Broken Heart",
        "col1": "Richie Zito",
        "col2": "White Lion",
        "col3": "White Lion",
        "col4": "Wait",
        "col5": "\"Broken Heart\" (1985/1991)"
    },
    {
        "col0": "Bring the Noise",
        "col1": "The Bomb Squad",
        "col2": "Public Enemy",
        "col3": "Public Enemy",
        "col4": "Don't Believe the Hype",
        "col5": "\"Are You My Woman?\" (by The Black Flames) (US single)"
    },
    {
        "col0": "Bring It On Home to Me",
        "col1": "Mickie Most",
        "col2": "Sam Cooke",
        "col3": "Sam Cooke",
        "col4": "Lawdy Miss Clawdy",
        "col5": "\"Having a Party\""
    },
    {
        "col0": "Bright Side of the Road",
        "col1": "Van Morrison",
        "col2": "Van Morrison",
        "col3": "Van Morrison",
        "col4": "Full Force Gale",
        "col5": "\"Bright Side of the Road\""
    },
    {
        "col0": "Break My Stride",
        "col1": "Matthew Wilder",
        "col2": "Matthew Wilder",
        "col3": "Matthew Wilder",
        "col4": "Do You Really Want to Hurt Me",
        "col5": "\"Break My Stride\""
    },
    {
        "col0": "Boy Oh Boy",
        "col1": "Mickie Most",
        "col2": "Racey",
        "col3": "Racey",
        "col4": "Such a Night",
        "col5": "Boy oh Boy"
    },
    {
        "col0": "Born in '69",
        "col1": "John Reis",
        "col2": "Rocket from the Crypt",
        "col3": "Rocket from the Crypt",
        "col4": "Young Livers",
        "col5": "\"Born in '69\""
    },
    {
        "col0": "Books from Boxes",
        "col1": "Gil Norton",
        "col2": "Maximo Park",
        "col3": "Maximo Park",
        "col4": "Girls Who Play Guitars",
        "col5": "\"Books from Boxes\""
    },
    {
        "col0": "Boll Weevil",
        "col1": "Eddie Cochran",
        "col2": "Brook Benton",
        "col3": "Brook Benton",
        "col4": "Hallelujah, I Love Her So",
        "col5": "\"Somethin' Else\""
    },
    {
        "col0": "Bokutachi wa Tatakawanai",
        "col1": "Yasushi Akimoto",
        "col2": "AKB48",
        "col3": "AKB48",
        "col4": "Halloween Night",
        "col5": "\"Bokutachi wa Tatakawanai\""
    },
    {
        "col0": "Bluebird",
        "col1": "Paul McCartney",
        "col2": "Paul McCartney",
        "col3": "Paul McCartney",
        "col4": "Jet",
        "col5": "\"Mrs Vandebilt\""
    },
    {
        "col0": "Blue Money",
        "col1": "Van Morrison",
        "col2": "Van Morrison",
        "col3": "Van Morrison",
        "col4": "Call Me Up in Dreamland",
        "col5": "\"Blue Money\""
    },
    {
        "col0": "Blue Jeans",
        "col1": "Emile Haynie",
        "col2": "Lana Del Rey",
        "col3": "Lana Del Rey",
        "col4": "Summertime Sadness",
        "col5": "\"Video Games\""
    },
    {
        "col0": "Blue Hearts Theme",
        "col1": "The Blue Hearts",
        "col2": "The Blue Hearts",
        "col3": "The Blue Hearts",
        "col4": "Train-Train",
        "col5": "Blue Hearts Theme"
    },
    {
        "col0": "Blue Christmas",
        "col1": "Brian Wilson",
        "col2": "Elvis Presley",
        "col3": "Elvis Presley",
        "col4": "Do the Clam",
        "col5": "\"The Man with All the Toys\""
    },
    {
        "col0": "Blind",
        "col1": "Jonas Quant",
        "col2": "Hurts",
        "col3": "Hurts",
        "col4": "Somebody to Die For",
        "col5": "Wonderwall"
    },
    {
        "col0": "Blackfella/Whitefella",
        "col1": "Warumpi Band",
        "col2": "Warumpi Band",
        "col3": "Warumpi Band",
        "col4": "My Island Home",
        "col5": "\"Blackfella/Whitefella\""
    },
    {
        "col0": "Black Water",
        "col1": "Ted Templeman",
        "col2": "The Doobie Brothers",
        "col3": "The Doobie Brothers",
        "col4": "Take Me in Your Arms",
        "col5": "\"Another Park, Another Sunday\""
    },
    {
        "col0": "Black Steel in the Hour of Chaos",
        "col1": "The Bomb Squad",
        "col2": "Public Enemy",
        "col3": "Public Enemy",
        "col4": "Fight the Power",
        "col5": "\"Black Steel in the Hour of Chaos\""
    },
    {
        "col0": "Black Rain",
        "col1": "Soundgarden",
        "col2": "Soundgarden",
        "col3": "Soundgarden",
        "col4": "The Telephantasm",
        "col5": "\"Black Rain\" (Radio edit)"
    },
    {
        "col0": "Black Country Woman",
        "col1": "Jimmy Page",
        "col2": "Led Zeppelin",
        "col3": "Led Zeppelin",
        "col4": "Candy Store Rock",
        "col5": "\"Trampled Under Foot\""
    },
    {
        "col0": "Birth in Reverse",
        "col1": "John Congleton",
        "col2": "St. Vincent",
        "col3": "St. Vincent",
        "col4": "Digital Witness",
        "col5": "\"Digital Witness\""
    },
    {
        "col0": "Big in Japan",
        "col1": "Michael Cretu",
        "col2": "Alphaville",
        "col3": "Alphaville",
        "col4": "Sounds Like a Melody",
        "col5": "Big in Japan 1992 A.D."
    },
    {
        "col0": "Big Black Smoke",
        "col1": "Shel Talmy",
        "col2": "The Kinks",
        "col3": "The Kinks",
        "col4": "Waterloo Sunset",
        "col5": "\"Dead End Street\""
    },
    {
        "col0": "Bicycle Race",
        "col1": "Queen",
        "col2": "Queen",
        "col3": "Queen",
        "col4": "Don't Stop Me Now",
        "col5": "\"Fat Bottomed Girls\""
    },
    {
        "col0": "Beyond Here Lies Nothin'",
        "col1": "Bob Dylan",
        "col2": "Bob Dylan",
        "col3": "Bob Dylan",
        "col4": "I Feel a Change Comin' on",
        "col5": "Beyond Here Lies Nothin'"
    },
    {
        "col0": "Beware My Love",
        "col1": "Paul McCartney",
        "col2": "Wings",
        "col3": "Wings",
        "col4": "Maybe I'm Amazed",
        "col5": "\"Let 'Em In\""
    },
    {
        "col0": "Better the Devil You Know",
        "col1": "Stock Aitken Waterman",
        "col2": "Kylie Minogue",
        "col3": "Kylie Minogue",
        "col4": "Step Back in Time",
        "col5": "\"Say You'll Be Mine\""
    },
    {
        "col0": "Better in Time",
        "col1": "J. R. Rotem",
        "col2": "Leona Lewis",
        "col3": "Leona Lewis",
        "col4": "Forgive Me",
        "col5": "\"Footprints in the Sand\""
    },
    {
        "col0": "Best I Ever Had",
        "col1": "Boi-1da",
        "col2": "Drake",
        "col3": "Drake",
        "col4": "Successful",
        "col5": "\"Fancy\""
    },
    {
        "col0": "Berkeley Mews",
        "col1": "Ray Davies",
        "col2": "The Kinks",
        "col3": "The Kinks",
        "col4": "Apeman",
        "col5": "\"Lola\""
    },
    {
        "col0": "Before Too Long",
        "col1": "Paul Kelly",
        "col2": "Paul Kelly",
        "col3": "Paul Kelly",
        "col4": "Darling It Hurts",
        "col5": "\"Before Too Long\""
    },
    {
        "col0": "Bedroom Eyes",
        "col1": "Nick Launay",
        "col2": "Kate Ceberano",
        "col3": "Kate Ceberano",
        "col4": "Love Dimension",
        "col5": "Bedroom Eyes"
    },
    {
        "col0": "Beautiful Waste",
        "col1": "The Triffids",
        "col2": "The Triffids",
        "col3": "The Triffids",
        "col4": "You Don't Miss Your Water",
        "col5": "\"Beautiful Waste\""
    },
    {
        "col0": "Beautiful People",
        "col1": "David Briggs",
        "col2": "Australian Crawl",
        "col3": "Australian Crawl",
        "col4": "The Boys Light Up",
        "col5": "\"Beautiful People\""
    },
    {
        "col0": "Beautiful Girls",
        "col1": "Ted Templeman",
        "col2": "Van Halen",
        "col3": "Van Halen",
        "col4": "And the Cradle Will Rock...",
        "col5": "\"Beautiful Girls\""
    },
    {
        "col0": "Be with You",
        "col1": "Davitt Sigerson",
        "col2": "The Bangles",
        "col3": "The Bangles",
        "col4": "I'll Set You Free",
        "col5": "\"Be With You\""
    },
    {
        "col0": "Be True",
        "col1": "Bruce Springsteen",
        "col2": "Bruce Springsteen",
        "col3": "Bruce Springsteen",
        "col4": "Pink Cadillac",
        "col5": "\"Fade Away\""
    },
    {
        "col0": "Be There With You",
        "col1": "Paul Begaud",
        "col2": "Human Nature",
        "col3": "Human Nature",
        "col4": "He Don't Love You",
        "col5": "\"Be There With You\""
    },
    {
        "col0": "Battle in Me",
        "col1": "Garbage",
        "col2": "Garbage",
        "col3": "Garbage",
        "col4": "Big Bright World",
        "col5": "\"Blood for Poppies\""
    },
    {
        "col0": "Bats!",
        "col1": "Beau Burchell",
        "col2": "The Bronx",
        "col3": "The Bronx",
        "col4": "They Will Kill Us All",
        "col5": "\"Bats!\""
    },
    {
        "col0": "Barabajagal",
        "col1": "Mickie Most",
        "col2": "Donovan",
        "col3": "Donovan",
        "col4": "Riki Tiki Tavi",
        "col5": "\"Goo Goo Barabajagal (Love Is Hot)\" (full title)"
    },
    {
        "col0": "Banquet",
        "col1": "Paul Epworth",
        "col2": "Bloc Party",
        "col3": "Bloc Party",
        "col4": "Pioneers",
        "col5": "\"Banquet\" (7\")"
    },
    {
        "col0": "Bang Bang",
        "col1": "Boyce and Hart",
        "col2": "David Bowie",
        "col3": "David Bowie",
        "col4": "Fame '90",
        "col5": "Bang Bang"
    },
    {
        "col0": "Bad Luck",
        "col1": "Gamble and Huff",
        "col2": "Harold Melvin & the Blue Notes",
        "col3": "Harold Melvin & the Blue Notes",
        "col4": "Hope That We Can Be Together Soon",
        "col5": "\"Bad Luck (Part 1)\""
    },
    {
        "col0": "Back in Black",
        "col1": "Robert John \"Mutt\" Lange",
        "col2": "AC/DC",
        "col3": "AC/DC",
        "col4": "Rock and Roll Ain't Noise Pollution",
        "col5": "\"What Do You Do for Money Honey\""
    },
    {
        "col0": "Back Door Man",
        "col1": "Willie Dixon",
        "col2": "Howlin' Wolf",
        "col3": "Howlin' Wolf",
        "col4": "Hey Lawdy Mama",
        "col5": "\"Wang Dang Doodle\""
    },
    {
        "col0": "Bachelor Boy",
        "col1": "Norrie Paramor",
        "col2": "Cliff Richard",
        "col3": "Cliff Richard",
        "col4": "Summer Holiday",
        "col5": "\"The Next Time\" (double A-side)"
    },
    {
        "col0": "Baby I'm Burning",
        "col1": "Gary Klein",
        "col2": "Dolly Parton",
        "col3": "Dolly Parton",
        "col4": "You're the Only One",
        "col5": "\"Baby I'm Burning\""
    },
    {
        "col0": "Baby Don't You Do It",
        "col1": "Glyn Johns",
        "col2": "Marvin Gaye",
        "col3": "Marvin Gaye",
        "col4": "What Good Am I Without You",
        "col5": "\"Join Together\""
    },
    {
        "col0": "Baby, You're a Rich Man",
        "col1": "George Martin",
        "col2": "The Beatles",
        "col3": "The Beatles",
        "col4": "Hello, Goodbye",
        "col5": "\"All You Need Is Love\""
    },
    {
        "col0": "Baby, Baby I Need You",
        "col1": "Smokey Robinson",
        "col2": "The Temptations",
        "col3": "The Temptations",
        "col4": "My Girl",
        "col5": "\"Girl (Why You Wanna Make Me Blue)\""
    },
    {
        "col0": "Atmosphere",
        "col1": "Martin Hannett",
        "col2": "Joy Division",
        "col3": "Joy Division",
        "col4": "Komakino",
        "col5": "\"Atmosphere\""
    },
    {
        "col0": "Atlantis",
        "col1": "Donovan",
        "col2": "Donovan",
        "col3": "Donovan",
        "col4": "Barabajagal",
        "col5": "\"When the Angels Sing\""
    },
    {
        "col0": "At the End of the Day / Backbone",
        "col1": "Ed Stasium",
        "col2": "Baby Animals",
        "col3": "Baby Animals",
        "col4": "Lights Out at Eleven",
        "col5": "\"At the End of the Day\" / \"Backbone\""
    },
    {
        "col0": "Ask Me Why",
        "col1": "George Martin",
        "col2": "The Beatles",
        "col3": "The Beatles",
        "col4": "From Me to You",
        "col5": "\"Please Please Me\""
    },
    {
        "col0": "As Tears Go By",
        "col1": "Andrew Loog Oldham",
        "col2": "The Rolling Stones",
        "col3": "The Rolling Stones",
        "col4": "19th Nervous Breakdown",
        "col5": "\"19th Nervous Breakdown\" (UK)"
    },
    {
        "col0": "Arthur's Theme",
        "col1": "Michael Omartian",
        "col2": "Christopher Cross",
        "col3": "Christopher Cross",
        "col4": "All Right",
        "col5": "\"Arthur's Theme (Best That You Can Do)\""
    },
    {
        "col0": "Appears",
        "col1": "Max Matsuura",
        "col2": "Ayumi Hamasaki",
        "col3": "Ayumi Hamasaki",
        "col4": "Kanariya",
        "col5": "\"Immature\""
    },
    {
        "col0": "Aozora",
        "col1": "The Blue Hearts",
        "col2": "The Blue Hearts",
        "col3": "The Blue Hearts",
        "col4": "Jonetsu no Bara",
        "col5": "\"Aozora\""
    },
    {
        "col0": "Anything for You",
        "col1": "Emilio Estefan",
        "col2": "Gloria Estefan",
        "col3": "Gloria Estefan",
        "col4": "1-2-3",
        "col5": "\"Anything for You\" (English version)"
    },
    {
        "col0": "Anything Is Possible",
        "col1": "Lamont Dozier",
        "col2": "Deborah Gibson",
        "col3": "Deborah Gibson",
        "col4": "This So-Called Miracle",
        "col5": "\"Anything Is Possible\""
    },
    {
        "col0": "Any Colour You Like",
        "col1": "Pink Floyd",
        "col2": "Pink Floyd",
        "col3": "Pink Floyd",
        "col4": "Time",
        "col5": "\"Money\""
    },
    {
        "col0": "Another State of Mind",
        "col1": "Social Distortion",
        "col2": "Social Distortion",
        "col3": "Social Distortion",
        "col4": "Prison Bound",
        "col5": "\"Another State of Mind\""
    },
    {
        "col0": "Ano Ko ni Touch",
        "col1": "The Blue Hearts",
        "col2": "The Blue Hearts",
        "col3": "The Blue Hearts",
        "col4": "Too Much Pain",
        "col5": "Ano Ko ni Touch"
    },
    {
        "col0": "Animal Farm",
        "col1": "Ray Davies",
        "col2": "The Kinks",
        "col3": "The Kinks",
        "col4": "The Village Green Preservation Society",
        "col5": "\"Village Green\""
    },
    {
        "col0": "Animal",
        "col1": "Mark Trombino",
        "col2": "Jebediah",
        "col3": "Jebediah",
        "col4": "Feet Touch the Ground",
        "col5": "\"Animal\""
    },
    {
        "col0": "Animal",
        "col1": "Mike Varney",
        "col2": "W.A.S.P.",
        "col3": "W.A.S.P.",
        "col4": "I Wanna Be Somebody",
        "col5": "\"Animal (F**k Like a Beast)\""
    },
    {
        "col0": "And I Think of You - E penso a te",
        "col1": "Rapino brothers",
        "col2": "Tanita Tikaram",
        "col3": "Tanita Tikaram",
        "col4": "Stop Listening",
        "col5": "And I Think Of You (E penso a te)"
    },
    {
        "col0": "America",
        "col1": "Geordie Walker",
        "col2": "Killing Joke",
        "col3": "Killing Joke",
        "col4": "My Love of this Land",
        "col5": "\"America\""
    },
    {
        "col0": "Amaze Me",
        "col1": "Boogieman",
        "col2": "No Angels",
        "col3": "No Angels",
        "col4": "Disappear",
        "col5": "\"Teardrops\""
    },
    {
        "col0": "Amanda",
        "col1": "Waylon Jennings",
        "col2": "Waylon Jennings",
        "col3": "Waylon Jennings",
        "col4": "Come with Me",
        "col5": "\"Come Early Morning\""
    },
    {
        "col0": "Amagami Hime",
        "col1": "Yasushi Akimoto",
        "col2": "NMB48",
        "col3": "NMB48",
        "col4": "Boku wa Inai",
        "col5": "\"Amagami Hime\""
    },
    {
        "col0": "Am I Blue?",
        "col1": "Sonny Bono",
        "col2": "Cher",
        "col3": "Cher",
        "col4": "Half-Breed",
        "col5": "\"Drive In Show\""
    },
    {
        "col0": "Always Be With You",
        "col1": "Andrew Tierney",
        "col2": "Human Nature",
        "col3": "Human Nature",
        "col4": "When You Say You Love Me",
        "col5": "\"Always Be With You\""
    },
    {
        "col0": "Alright",
        "col1": "Sam Williams",
        "col2": "Supergrass",
        "col3": "Supergrass",
        "col4": "Going Out",
        "col5": "\"Time\""
    },
    {
        "col0": "Alright",
        "col1": "Jimmy Jam and Terry Lewis",
        "col2": "Janet Jackson",
        "col3": "Janet Jackson",
        "col4": "Come Back to Me",
        "col5": "\"Come Back to Me\""
    },
    {
        "col0": "All the Things She Said",
        "col1": "Jimmy Iovine",
        "col2": "Simple Minds",
        "col3": "Simple Minds",
        "col4": "Ghost Dancing",
        "col5": "\"All the Things She Said\""
    },
    {
        "col0": "All This Time",
        "col1": "Steve Mac",
        "col2": "Michelle McManus",
        "col3": "Michelle McManus",
        "col4": "The Meaning of Love",
        "col5": "\"All This Time\""
    },
    {
        "col0": "All Mine",
        "col1": "Portishead",
        "col2": "Portishead",
        "col3": "Portishead",
        "col4": "Over",
        "col5": "\"All Mine\""
    },
    {
        "col0": "All I Do Is Think of You",
        "col1": "Hal Davis",
        "col2": "The Jackson 5",
        "col3": "The Jackson 5",
        "col4": "Enjoy Yourself",
        "col5": "Forever Came Today"
    },
    {
        "col0": "All Apologies",
        "col1": "Steve Albini",
        "col2": "Nirvana",
        "col3": "Nirvana",
        "col4": "Pennyroyal Tea",
        "col5": "\"Rape Me\""
    },
    {
        "col0": "Alfie",
        "col1": "Greg Kurstin",
        "col2": "Lily Allen",
        "col3": "Lily Allen",
        "col4": "Oh My God",
        "col5": "\"Shame for You\""
    },
    {
        "col0": "Alec Eiffel",
        "col1": "Gil Norton",
        "col2": "Pixies",
        "col3": "Pixies",
        "col4": "Letter to Memphis",
        "col5": "\"Alec Eiffel\""
    },
    {
        "col0": "Albert Flasher",
        "col1": "Jack Richardson",
        "col2": "The Guess Who",
        "col3": "The Guess Who",
        "col4": "Rain Dance",
        "col5": "\"Broken\""
    },
    {
        "col0": "Aitai RiyA<</Dream After Dream",
        "col1": "Tetsuya Komuro",
        "col2": "AAA",
        "col3": "AAA",
        "col4": "Makenai Kokoro",
        "col5": "\"Aitai RiyA<<\""
    },
    {
        "col0": "Ain't No Way",
        "col1": "Jerry Wexler",
        "col2": "Aretha Franklin",
        "col3": "Aretha Franklin",
        "col4": "Think",
        "col5": "\"(Sweet Sweet Baby) Since You've Been Gone\""
    },
    {
        "col0": "Ain't Misbehavin'",
        "col1": "Jimmy Bowen",
        "col2": "Fats Waller",
        "col3": "Fats Waller",
        "col4": "Country State of Mind",
        "col5": "\"Ain't Misbehavin'\""
    },
    {
        "col0": "Ain't Gonna Get",
        "col1": "Mike Chapman",
        "col2": "Baby Animals",
        "col3": "Baby Animals",
        "col4": "Impossible to Fly",
        "col5": "\"Ain't Gonna Get\""
    },
    {
        "col0": "Again and Again",
        "col1": "Rob Cavallo",
        "col2": "Jewel",
        "col3": "Jewel",
        "col4": "Good Day",
        "col5": "Again and Again"
    },
    {
        "col0": "Afrika Shox",
        "col1": "Leftfield",
        "col2": "Leftfield",
        "col3": "Leftfield",
        "col4": "Dusted",
        "col5": "Shox remix"
    },
    {
        "col0": "Adorations",
        "col1": "Chris Kimsey",
        "col2": "Killing Joke",
        "col3": "Killing Joke",
        "col4": "Sanity",
        "col5": "\"Adorations (The Extended Mix)\""
    },
    {
        "col0": "Absolutely No Decorum",
        "col1": "The Ark",
        "col2": "The Ark",
        "col3": "The Ark",
        "col4": "The Worrying Kind",
        "col5": "\"Absolutely No Decorum\""
    },
    {
        "col0": "Absolutely Curtains",
        "col1": "Pink Floyd",
        "col2": "Pink Floyd",
        "col3": "Pink Floyd",
        "col4": "Money",
        "col5": "\"Free Four\""
    },
    {
        "col0": "A Woman in Love",
        "col1": "Jimmy Iovine",
        "col2": "Tom Petty and the Heartbreakers",
        "col3": "Tom Petty and the Heartbreakers",
        "col4": "You Got Lucky",
        "col5": "A Woman in Love (It's Not Me)"
    },
    {
        "col0": "A Simple Game",
        "col1": "Tony Clarke",
        "col2": "Four Tops",
        "col3": "Four Tops",
        "col4": "You Gotta Have Love in Your Heart",
        "col5": "\"Ride My See-Saw\""
    },
    {
        "col0": "A Red Letter Day",
        "col1": "Pet Shop Boys",
        "col2": "Pet Shop Boys",
        "col3": "Pet Shop Boys",
        "col4": "Somewhere",
        "col5": "\"Somewhere\" (US)"
    },
    {
        "col0": "A New Day",
        "col1": "Killing Joke",
        "col2": "Killing Joke",
        "col3": "Killing Joke",
        "col4": "Love Like Blood",
        "col5": "\"A New Day (Dub Mix)\""
    },
    {
        "col0": "A Moment Like This",
        "col1": "Steve Mac",
        "col2": "Kelly Clarkson",
        "col3": "Kelly Clarkson",
        "col4": "Miss Independent",
        "col5": "\"Before Your Love\""
    },
    {
        "col0": "A Mess of Blues",
        "col1": "Status Quo",
        "col2": "Status Quo",
        "col3": "Elvis Presley",
        "col4": "Marguerita Time",
        "col5": "It's Now or Never"
    },
    {
        "col0": "A Love Like Yours",
        "col1": "Phil Spector",
        "col2": "Harry Nilsson",
        "col3": "Harry Nilsson",
        "col4": "Quicksand",
        "col5": "\"Heat Wave\""
    }
]