[
    {
        "col0": "A Little Less Conversation",
        "col1": "Elvis Presley",
        "col2": "Elvis Presley",
        "col3": "Elvis Presley",
        "col4": "If I Can Dream",
        "col5": "\"Almost in Love\""
    },
    {
        "col0": "A Line in the Dirt",
        "col1": "Mark Oliver Everett",
        "col2": "Eels",
        "col3": "Eels",
        "col4": "Looking Up",
        "col5": "A Line in the Dirt"
    },
    {
        "col0": "A House Without Love",
        "col1": "Fred Rose",
        "col2": "Hank Williams",
        "col3": "Hank Williams",
        "col4": "Why Should We Try Anymore",
        "col5": "\"Why Don't You Love Me\""
    },
    {
        "col0": "A Good Thing",
        "col1": "Ian Catt",
        "col2": "Saint Etienne",
        "col3": "Saint Etienne",
        "col4": "Stars Above Us",
        "col5": "\"A Good Thing\""
    },
    {
        "col0": "A Fork in the Road",
        "col1": "Smokey Robinson",
        "col2": "The Miracles",
        "col3": "The Miracles",
        "col4": "Reaction",
        "col5": "\"The Tracks of My Tears\""
    },
    {
        "col0": "A Different Kind of Love Song",
        "col1": "Johan Aberg",
        "col2": "Cher",
        "col3": "Cher",
        "col4": "When the Money's Gone",
        "col5": "\"The Music's No Good Without You\""
    },
    {
        "col0": "A Certain Slant of Light",
        "col1": "Jeff Martin",
        "col2": "The Tea Party",
        "col3": "The Tea Party",
        "col4": "In This Time",
        "col5": "\"A Certain Slant of Light (edit)\", \"Winter Solstice\", \"Save Me\""
    },
    {
        "col0": "6 in the Mornin'",
        "col1": "The Unknown DJ",
        "col2": "Ice-T",
        "col3": "Ice-T",
        "col4": "Colors",
        "col5": "\"Dog 'N The Wax (Ya Don't Quit-Part II)\""
    },
    {
        "col0": "409",
        "col1": "Murry Wilson",
        "col2": "The Beach Boys",
        "col3": "The Beach Boys",
        "col4": "Ten Little Indians",
        "col5": "\"Surfin' Safari\""
    },
    {
        "col0": "2:00PM Time for Change",
        "col1": "Park Jin Young",
        "col2": "2PM",
        "col3": "2PM",
        "col4": "Heartbeat",
        "col5": "\"Again & Again\""
    },
    {
        "col0": "21st Century Schizoid Man",
        "col1": "King Crimson",
        "col2": "King Crimson",
        "col3": "King Crimson",
        "col4": "Matte Kudasai",
        "col5": "\"Epitaph\""
    },
    {
        "col0": "1963",
        "col1": "New Order",
        "col2": "New Order",
        "col3": "New Order",
        "col4": "Blue Monday",
        "col5": "\"True Faith\""
    },
    {
        "col0": "12 Byo",
        "col1": "Yasushi Akimoto",
        "col2": "HKT48",
        "col3": "HKT48",
        "col4": "Shekarashika!",
        "col5": "\"12 Byo\""
    },
    {
        "col0": "1000 no Violin",
        "col1": "The Blue Hearts",
        "col2": "The Blue Hearts",
        "col3": "The Blue Hearts",
        "col4": "Party",
        "col5": "1000 no Violin"
    },
    {
        "col0": "(You Can) Depend on Me",
        "col1": "Berry Gordy, Jr.",
        "col2": "The Miracles",
        "col3": "The Miracles",
        "col4": "Shop Around",
        "col5": "\"The Feeling Is So Fine\" (withdrawn)"
    },
    {
        "col0": "(Theme from) Valley of the Dolls",
        "col1": "Burt Bacharach",
        "col2": "Dionne Warwick",
        "col3": "Dionne Warwick",
        "col4": "Do You Know the Way to San Jose",
        "col5": "\"I Say a Little Prayer\""
    },
    {
        "col0": "(Last Night) I Heard You Crying in Your Sleep",
        "col1": "Fred Rose",
        "col2": "Hank Williams",
        "col3": "Hank Williams",
        "col4": "On the Banks of the Old Ponchartrain",
        "col5": "\"Move It on Over\""
    },
    {
        "col0": "(I Know) I'm Losing You",
        "col1": "Rod Stewart",
        "col2": "The Temptations",
        "col3": "Uptown Girls",
        "col4": "All I Need",
        "col5": "(I Know) I'm Losing You"
    },
    {
        "col0": "'Ullo John! Gotta New Motor?",
        "col1": "Clive Langer",
        "col2": "Alexei Sayle",
        "col3": "Alexei Sayle",
        "col4": "Didn't You Kill My Brother?",
        "col5": "'Ullo John! Gotta New Motor?"
    },
    {
        "col0": "'Tis a Pity She Was a Whore",
        "col1": "David Bowie",
        "col2": "David Bowie",
        "col3": "David Bowie",
        "col4": "Sue",
        "col5": "\"Sue (Or in a Season of Crime)\""
    },
    {
        "col0": "'Til I Die",
        "col1": "The Beach Boys",
        "col2": "The Beach Boys",
        "col3": "The Beach Boys",
        "col4": "Surf's Up",
        "col5": "\"Long Promised Road\""
    }
]