[
    {
        "col0": "K. Konrad",
        "col1": "Austria-Hungary",
        "col2": "1896-05-23",
        "col3": "1980-05-10"
    },
    {
        "col0": "J. Gilis",
        "col1": "Soviet Union",
        "col2": "1943-04-27",
        "col3": "2000-09-13"
    },
    {
        "col0": "J. Korostelev",
        "col1": "Martin, Slovakia",
        "col2": "1923-06-19",
        "col3": "2006-10-18"
    },
    {
        "col0": "J. Mazzei",
        "col1": "Brazil",
        "col2": "1930-08-27",
        "col3": "2009-05-10"
    },
    {
        "col0": "J. Juve",
        "col1": "Norway",
        "col2": "1906-11-22",
        "col3": "1983-04-12"
    },
    {
        "col0": "J. Berger",
        "col1": "Poland",
        "col2": "1944-10-13",
        "col3": "2010-06-23"
    },
    {
        "col0": "J. Zilisy",
        "col1": "Austria-Hungary",
        "col2": "1899-02-21",
        "col3": "1982-03-02"
    },
    {
        "col0": "J. Zakarias",
        "col1": "Budapest",
        "col2": "1924-03-25",
        "col3": "1971-11-22"
    },
    {
        "col0": "J. Viola",
        "col1": "Komarno",
        "col2": "1896-06-10",
        "col3": "1949-08-18"
    },
    {
        "col0": "J. Verebes",
        "col1": "Budapest",
        "col2": "1941-03-23",
        "col3": "2016-03-13"
    },
    {
        "col0": "J. Szabo",
        "col1": "Austria-Hungary",
        "col2": "1896-05-11",
        "col3": "1973-03-17"
    },
    {
        "col0": "J. Nagy",
        "col1": "Budapest",
        "col2": "1892-10-15",
        "col3": "1963-1-22"
    },
    {
        "col0": "J. Meszaros",
        "col1": "Hungary",
        "col2": "1923-01-16",
        "col3": "1997-04-21"
    },
    {
        "col0": "J. Kunsztler",
        "col1": "Austria-Hungary",
        "col2": "1897-0-0",
        "col3": "1977-0-0"
    },
    {
        "col0": "J. Hada",
        "col1": "Budapest",
        "col2": "1911-03-02",
        "col3": "1994-01-11"
    },
    {
        "col0": "J. Ember",
        "col1": "Hungary",
        "col2": "1903-1-1",
        "col3": "1974-1-1"
    },
    {
        "col0": "J. Eisenhoffer",
        "col1": "Budapest",
        "col2": "1900-11-08",
        "col3": "1945-11-13"
    },
    {
        "col0": "J. Braun",
        "col1": "Austria-Hungary",
        "col2": "1901-02-26",
        "col3": "1943-02-20"
    },
    {
        "col0": "J. Bozsik",
        "col1": "Hungary",
        "col2": "1925-11-28",
        "col3": "1978-05-31"
    },
    {
        "col0": "J. Kaluza",
        "col1": "Przemysl",
        "col2": "1896-02-11",
        "col3": "1944-10-11"
    },
    {
        "col0": "J. Hrotko",
        "col1": "Hungary",
        "col2": "1922-03-30",
        "col3": "2005-03-23"
    },
    {
        "col0": "J. Gyarmati",
        "col1": "Austria-Hungary",
        "col2": "1910-02-08",
        "col3": "1974-08-29"
    },
    {
        "col0": "J. Bedl",
        "col1": "Hungary",
        "col2": "1929-09-10",
        "col3": "1987-12-09"
    },
    {
        "col0": "J. Biri",
        "col1": "Austria-Hungary",
        "col2": "1901-07-21",
        "col3": "1974-02-20"
    },
    {
        "col0": "J. Szikora",
        "col1": "Czechoslovakia",
        "col2": "1947-03-02",
        "col3": "2005-12-12"
    },
    {
        "col0": "J. Derwall",
        "col1": "Wurselen",
        "col2": "1927-03-10",
        "col3": "2007-06-26"
    },
    {
        "col0": "J. Byung-tak",
        "col1": "Korea",
        "col2": "1942-1-1",
        "col3": "2016-2-11"
    },
    {
        "col0": "J. Hjulian",
        "col1": "Sweden",
        "col2": "1903-03-15",
        "col3": "1974-2-1"
    },
    {
        "col0": "J. Dorpmuller",
        "col1": "Prussia",
        "col2": "1869-07-24",
        "col3": "1945-07-05"
    },
    {
        "col0": "J. Marigil",
        "col1": "Spain",
        "col2": "1936-08-24",
        "col3": "2013-08-24"
    },
    {
        "col0": "J. Libonatti",
        "col1": "Rosario",
        "col2": "1901-07-05",
        "col3": "1981-10-09"
    },
    {
        "col0": "J. Darui",
        "col1": "Luxembourg",
        "col2": "1916-02-16",
        "col3": "1987-12-13"
    },
    {
        "col0": "J. Vandooren",
        "col1": "France national football team",
        "col2": "1908-12-30",
        "col3": "1985-01-07"
    },
    {
        "col0": "J. Limbeck",
        "col1": "Romania",
        "col2": "1903-1-1",
        "col3": "1955-1-1"
    },
    {
        "col0": "J. Henriet",
        "col1": "Belgium",
        "col2": "1918-02-13",
        "col3": "1997-11-27"
    },
    {
        "col0": "J. Gersie",
        "col1": "Paramaribo",
        "col2": "1917-10-13",
        "col3": "2005-09-23"
    },
    {
        "col0": "J. Dewaquez",
        "col1": "Paris",
        "col2": "1899-03-09",
        "col3": "1971-06-12"
    },
    {
        "col0": "J. Bocande",
        "col1": "Senegal",
        "col2": "1958-11-25",
        "col3": "2012-05-07"
    },
    {
        "col0": "J. Bigot",
        "col1": "France national football team",
        "col2": "1915-10-22",
        "col3": "2007-10-24"
    },
    {
        "col0": "Juca",
        "col1": "Maputo",
        "col2": "1929-01-13",
        "col3": "2007-10-11"
    },
    {
        "col0": "J. Enriquez",
        "col1": "Madrid",
        "col2": "1950-11-04",
        "col3": "2015-08-10"
    },
    {
        "col0": "Juanito",
        "col1": "Spain",
        "col2": "1954-11-10",
        "col3": "1992-04-02"
    },
    {
        "col0": "Juan de Dios Castillo",
        "col1": "Mexico City",
        "col2": "1951-01-31",
        "col3": "2014-05-01"
    },
    {
        "col0": "J. Z. Velasco",
        "col1": "Spain",
        "col2": "1921-11-21",
        "col3": "2004-01-21"
    },
    {
        "col0": "J. Valdivieso",
        "col1": "Lima",
        "col2": "1910-05-06",
        "col3": "2007-05-02"
    },
    {
        "col0": "J. Schwanner",
        "col1": "Hungary",
        "col2": "1921-02-05",
        "col3": "2015-05-08"
    },
    {
        "col0": "J. Quarterone",
        "col1": "Argentina",
        "col2": "1935-05-28",
        "col3": "2015-11-23"
    },
    {
        "col0": "J. Marquez",
        "col1": "Madrid",
        "col2": "1565-0-0",
        "col3": "1621-1-1"
    },
    {
        "col0": "J. Mujica",
        "col1": "Uruguay",
        "col2": "1943-12-22",
        "col3": "2016-02-11"
    },
    {
        "col0": "J. Marquez",
        "col1": "Madrid",
        "col2": "1565-0-0",
        "col3": "1621-1-1"
    }
]