[
    {
        "col0": "J. Sobotka",
        "col1": "Austria-Hungary",
        "col2": "1911-06-06",
        "col3": "1994-05-20"
    },
    {
        "col0": "J. Rubas",
        "col1": "Czechoslovakia",
        "col2": "1922-02-05",
        "col3": "2005-05-16"
    },
    {
        "col0": "J. PeA!ek",
        "col1": "Czechoslovakia",
        "col2": "1927-06-04",
        "col3": "2011-05-20"
    },
    {
        "col0": "J. Hanke",
        "col1": "Czechoslovakia",
        "col2": "1924-12-12",
        "col3": "2006-12-11"
    },
    {
        "col0": "J. Williams",
        "col1": "Catawba, Ohio",
        "col2": "1847-01-04",
        "col3": "1918-10-23"
    },
    {
        "col0": "J. Townley",
        "col1": "England",
        "col2": "1902-05-02",
        "col3": "1983-1-1"
    },
    {
        "col0": "J. Torrance",
        "col1": "Scotland",
        "col2": "1889-7-0",
        "col3": "1949-07-02"
    },
    {
        "col0": "J. Smith",
        "col1": "Old Kilpatrick",
        "col2": "1902-06-20",
        "col3": "1975-1-1"
    },
    {
        "col0": "J. Sirrel",
        "col1": "Scotland",
        "col2": "1922-02-02",
        "col3": "2008-09-25"
    },
    {
        "col0": "J. Simpson",
        "col1": "Scotland",
        "col2": "1908-10-29",
        "col3": "1972-03-15"
    },
    {
        "col0": "J. Seed",
        "col1": "England national football team",
        "col2": "1895-03-25",
        "col3": "1966-07-16"
    },
    {
        "col0": "J. Scoular",
        "col1": "Scotland",
        "col2": "1925-01-11",
        "col3": "1998-03-19"
    },
    {
        "col0": "J. Rogers",
        "col1": "Wednesbury",
        "col2": "1929-12-31",
        "col3": "1996-12-1"
    },
    {
        "col0": "J. Neighbour",
        "col1": "Chingford",
        "col2": "1950-11-15",
        "col3": "2009-04-11"
    },
    {
        "col0": "J. Murphy",
        "col1": "Rhondda",
        "col2": "1910-08-08",
        "col3": "1989-11-14"
    },
    {
        "col0": "J. Mitchell",
        "col1": "Glasgow",
        "col2": "1924-10-22",
        "col3": "2004-0-0"
    },
    {
        "col0": "J. Milne",
        "col1": "Scotland",
        "col2": "1911-01-24",
        "col3": "1997-12-13"
    },
    {
        "col0": "J. Mills",
        "col1": "Scotland",
        "col2": "1894-07-01",
        "col3": "1990-10-08"
    },
    {
        "col0": "J. Methven",
        "col1": "Scotland",
        "col2": "1868-12-07",
        "col3": "1953-03-25"
    },
    {
        "col0": "J. Meadows",
        "col1": "England",
        "col2": "1931-07-21",
        "col3": "1994-01-03"
    },
    {
        "col0": "J. McStay",
        "col1": "Scotland",
        "col2": "1893-09-12",
        "col3": "1973-12-31"
    },
    {
        "col0": "J. McMullan",
        "col1": "Scotland national football team",
        "col2": "1895-03-26",
        "col3": "1964-11-28"
    },
    {
        "col0": "J. McMenemy",
        "col1": "Scotland national football team",
        "col2": "1880-10-11",
        "col3": "1963-1-1"
    },
    {
        "col0": "J. McKinnell",
        "col1": "Scotland",
        "col2": "1893-03-27",
        "col3": "1972-1-1"
    },
    {
        "col0": "J. McIntyre",
        "col1": "Wednesbury",
        "col2": "1881-1-1",
        "col3": "1954-1-1"
    },
    {
        "col0": "J. McIntosh",
        "col1": "Dumfries",
        "col2": "1918-04-05",
        "col3": "2000-0-0"
    },
    {
        "col0": "J. McGuigan",
        "col1": "Addiewell",
        "col2": "1924-03-01",
        "col3": "1988-1-1"
    },
    {
        "col0": "J. McGrory",
        "col1": "Glasgow",
        "col2": "1904-04-26",
        "col3": "1982-10-20"
    },
    {
        "col0": "J. McCormick",
        "col1": "England",
        "col2": "1912-09-26",
        "col3": "1968-01-03"
    },
    {
        "col0": "J. McColl",
        "col1": "Scotland",
        "col2": "1892-12-14",
        "col3": "1978-1-1"
    },
    {
        "col0": "J. McAlinden",
        "col1": "Belfast",
        "col2": "1917-12-27",
        "col3": "1993-11-15"
    },
    {
        "col0": "J. Logie",
        "col1": "Scotland",
        "col2": "1919-11-23",
        "col3": "1984-04-30"
    },
    {
        "col0": "J. Littlejohn",
        "col1": "Scotland",
        "col2": "1910-07-08",
        "col3": "1989-08-24"
    },
    {
        "col0": "J. Leaver",
        "col1": "England",
        "col2": "1898-12-26",
        "col3": "1959-1-1"
    },
    {
        "col0": "J. Leadbetter",
        "col1": "Edinburgh",
        "col2": "1928-07-15",
        "col3": "2006-07-18"
    },
    {
        "col0": "J. Kelly",
        "col1": "Morpeth, Northumberland",
        "col2": "1931-11-11",
        "col3": "2003-08-10"
    },
    {
        "col0": "J. Hogan",
        "col1": "Nelson, Lancashire",
        "col2": "1882-10-16",
        "col3": "1974-01-30"
    },
    {
        "col0": "J. Hodson",
        "col1": "Football in England",
        "col2": "1880-09-05",
        "col3": "1938-0-0"
    },
    {
        "col0": "J. Hindmarsh",
        "col1": "Whitburn, South Tyneside",
        "col2": "1885-1-1",
        "col3": "1959-03-16"
    },
    {
        "col0": "J. Hill",
        "col1": "London",
        "col2": "1928-07-22",
        "col3": "2015-12-19"
    },
    {
        "col0": "J. Hay",
        "col1": "Tarbolton",
        "col2": "1881-02-09",
        "col3": "1940-04-04"
    },
    {
        "col0": "J. Harrower",
        "col1": "Dunfermline",
        "col2": "1924-06-19",
        "col3": "1992-2-1"
    },
    {
        "col0": "J. Hagan",
        "col1": "England national football team",
        "col2": "1918-01-21",
        "col3": "1998-02-26"
    },
    {
        "col0": "J. Greenhalgh",
        "col1": "England",
        "col2": "1923-08-27",
        "col3": "2013-08-31"
    },
    {
        "col0": "J. Gordon",
        "col1": "Scotland",
        "col2": "1915-10-23",
        "col3": "1996-08-29"
    },
    {
        "col0": "J. Frizzell",
        "col1": "Scotland",
        "col2": "1937-02-16",
        "col3": "2016-07-03"
    },
    {
        "col0": "J. Forsyth",
        "col1": "Armadale, West Lothian",
        "col2": "1904-10-18",
        "col3": "1982-1-1"
    },
    {
        "col0": "J. Dunne",
        "col1": "Dublin",
        "col2": "1905-09-03",
        "col3": "1949-11-14"
    },
    {
        "col0": "J. Dickinson",
        "col1": "Alton, Hampshire",
        "col2": "1925-04-25",
        "col3": "1982-11-08"
    },
    {
        "col0": "J. Delaney",
        "col1": "Scotland",
        "col2": "1914-09-03",
        "col3": "1989-09-26"
    },
    {
        "col0": "J. Dailey",
        "col1": "Glenboig",
        "col2": "1927-09-08",
        "col3": "2002-1-0"
    },
    {
        "col0": "J. Carabine",
        "col1": "Scotland national football team",
        "col2": "1911-11-23",
        "col3": "1987-1-1"
    },
    {
        "col0": "J. Campbell",
        "col1": "Scotland",
        "col2": "1921-1-1",
        "col3": "2004-10-1"
    },
    {
        "col0": "J. Brownlie",
        "col1": "Scotland",
        "col2": "1885-05-15",
        "col3": "1973-12-29"
    },
    {
        "col0": "J. Broad",
        "col1": "Stalybridge",
        "col2": "1891-11-10",
        "col3": "1963-08-22"
    },
    {
        "col0": "J. Brain",
        "col1": "Bristol",
        "col2": "1900-09-11",
        "col3": "1971-1-1"
    },
    {
        "col0": "J. Boswell",
        "col1": "England",
        "col2": "1922-03-13",
        "col3": "2010-05-25"
    },
    {
        "col0": "J. Bonthrone",
        "col1": "Scotland",
        "col2": "1929-06-16",
        "col3": "2008-06-07"
    },
    {
        "col0": "J. Bloomfield",
        "col1": "Notting Hill",
        "col2": "1934-02-15",
        "col3": "1983-04-03"
    },
    {
        "col0": "J. Blair",
        "col1": "Scotland",
        "col2": "1918-01-06",
        "col3": "1983-0-0"
    },
    {
        "col0": "J. Baldwin",
        "col1": "England",
        "col2": "1922-01-12",
        "col3": "1985-0-0"
    },
    {
        "col0": "J. Bain",
        "col1": "Rutherglen",
        "col2": "1899-02-06",
        "col3": "1969-09-22"
    },
    {
        "col0": "J. Andrews",
        "col1": "Scotland",
        "col2": "1927-02-01",
        "col3": "2012-09-12"
    },
    {
        "col0": "J. Allen",
        "col1": "England national football team",
        "col2": "1909-1-1",
        "col3": "1995-02-05"
    },
    {
        "col0": "J. Allan",
        "col1": "Scotland",
        "col2": "1897-2-20",
        "col3": "1982-9-12"
    },
    {
        "col0": "J. Adamson",
        "col1": "Ashington",
        "col2": "1929-04-04",
        "col3": "2011-11-08"
    },
    {
        "col0": "J. Turney",
        "col1": "Cramlington",
        "col2": "1922-07-08",
        "col3": "1995-0-0"
    },
    {
        "col0": "J. Storrie",
        "col1": "Kirkintilloch",
        "col2": "1940-03-31",
        "col3": "2014-11-11"
    },
    {
        "col0": "J. Rowan",
        "col1": "Glasgow",
        "col2": "1934-6-29",
        "col3": "2015-06-21"
    },
    {
        "col0": "J. Reed",
        "col1": "United States",
        "col2": "1903-0-0",
        "col3": "1994-04-01"
    },
    {
        "col0": "J. Langley",
        "col1": "London",
        "col2": "1929-02-07",
        "col3": "2007-12-09"
    },
    {
        "col0": "J. Hart",
        "col1": "Fairview Township, Erie County, Pennsylvania",
        "col2": "1855-07-10",
        "col3": "1919-07-18"
    },
    {
        "col0": "J. Gifford",
        "col1": "Warren, New York",
        "col2": "1845-10-18",
        "col3": "1901-12-19"
    },
    {
        "col0": "J. Clunie",
        "col1": "Scotland",
        "col2": "1933-09-04",
        "col3": "2003-05-12"
    },
    {
        "col0": "J. Bullions",
        "col1": "Dennyloanhead",
        "col2": "1924-03-12",
        "col3": "2014-6-1"
    },
    {
        "col0": "J. Brown",
        "col1": "Scotland national football team",
        "col2": "1908-12-31",
        "col3": "1994-11-09"
    },
    {
        "col0": "J. Benedek",
        "col1": "Hungary",
        "col2": "1941-06-09",
        "col3": "2009-03-30"
    },
    {
        "col0": "J. Bellamy",
        "col1": "England",
        "col2": "1881-09-11",
        "col3": "1969-03-30"
    },
    {
        "col0": "J. Zastera",
        "col1": "Austria-Hungary",
        "col2": "1913-11-09",
        "col3": "1983-08-15"
    },
    {
        "col0": "J. Sobotka",
        "col1": "Austria-Hungary",
        "col2": "1911-06-06",
        "col3": "1994-05-20"
    },
    {
        "col0": "J. Rubas",
        "col1": "Czechoslovakia",
        "col2": "1922-02-05",
        "col3": "2005-05-16"
    },
    {
        "col0": "J. PeA!ek",
        "col1": "Czechoslovakia",
        "col2": "1927-06-04",
        "col3": "2011-05-20"
    },
    {
        "col0": "J. Hanke",
        "col1": "Czechoslovakia",
        "col2": "1924-12-12",
        "col3": "2006-12-11"
    },
    {
        "col0": "J. M. Pereda",
        "col1": "Burgos",
        "col2": "1938-06-15",
        "col3": "2011-09-27"
    },
    {
        "col0": "J. Garay",
        "col1": "Spain",
        "col2": "1930-09-10",
        "col3": "1995-02-10"
    },
    {
        "col0": "J. Aranguren",
        "col1": "Portugalete",
        "col2": "1944-12-26",
        "col3": "2011-03-21"
    },
    {
        "col0": "J. Poszony",
        "col1": "Budapest",
        "col2": "1880-12-12",
        "col3": "1932-5-9"
    },
    {
        "col0": "J. Whatley",
        "col1": "England",
        "col2": "1895-01-20",
        "col3": "1982-03-19"
    },
    {
        "col0": "J. Pye",
        "col1": "England",
        "col2": "1919-12-22",
        "col3": "1984-02-19"
    },
    {
        "col0": "J. Carver",
        "col1": "England",
        "col2": "1911-07-07",
        "col3": "2003-11-29"
    },
    {
        "col0": "J. Willard",
        "col1": "Chichester",
        "col2": "1924-01-16",
        "col3": "2005-05-06"
    },
    {
        "col0": "J. M. Pereda",
        "col1": "Burgos",
        "col2": "1938-06-15",
        "col3": "2011-09-27"
    },
    {
        "col0": "J. Garay",
        "col1": "Spain",
        "col2": "1930-09-10",
        "col3": "1995-02-10"
    },
    {
        "col0": "J. Aranguren",
        "col1": "Portugalete",
        "col2": "1944-12-26",
        "col3": "2011-03-21"
    },
    {
        "col0": "J. Wyrobek",
        "col1": "Poland",
        "col2": "1949-12-17",
        "col3": "2013-03-26"
    },
    {
        "col0": "J. Kerr",
        "col1": "Armadale, West Lothian",
        "col2": "1912-06-01",
        "col3": "1999-11-8"
    },
    {
        "col0": "J. Heller",
        "col1": "Cleveland",
        "col2": "1940-10-06",
        "col3": "2016-09-02"
    },
    {
        "col0": "J. Dawson",
        "col1": "Scotland",
        "col2": "1909-10-30",
        "col3": "1977-01-19"
    },
    {
        "col0": "J. B. haLevi",
        "col1": "Congress Poland",
        "col2": "1912-11-14",
        "col3": "1997-02-03"
    },
    {
        "col0": "J. Vincze",
        "col1": "VrA!ac",
        "col2": "1908-11-20",
        "col3": "1988-1-1"
    },
    {
        "col0": "J. Karoly",
        "col1": "Budapest",
        "col2": "1886-01-15",
        "col3": "1926-07-28"
    },
    {
        "col0": "J. Konrad",
        "col1": "Austria-Hungary",
        "col2": "1894-08-13",
        "col3": "1978-07-15"
    },
    {
        "col0": "J. Kalmar",
        "col1": "Hungary",
        "col2": "1908-03-21",
        "col3": "1990-01-13"
    },
    {
        "col0": "J. Dalnoki",
        "col1": "Budapest",
        "col2": "1932-12-12",
        "col3": "2006-02-04"
    },
    {
        "col0": "J. Csaknady",
        "col1": "Hungary",
        "col2": "1924-09-20",
        "col3": "2001-01-07"
    },
    {
        "col0": "J. Buzanszky",
        "col1": "Kingdom of Hungary",
        "col2": "1925-05-04",
        "col3": "2015-01-11"
    },
    {
        "col0": "J. Petersen",
        "col1": "Denmark national football team",
        "col2": "1941-12-22",
        "col3": "2012-03-08"
    },
    {
        "col0": "J. Vincze",
        "col1": "Austria-Hungary",
        "col2": "1908-11-20",
        "col3": "1988-1-1"
    },
    {
        "col0": "J. Konrad",
        "col1": "Austria-Hungary",
        "col2": "1894-08-13",
        "col3": "1978-07-15"
    },
    {
        "col0": "J. Kalmar",
        "col1": "Hungary",
        "col2": "1908-03-21",
        "col3": "1990-01-13"
    },
    {
        "col0": "J. Karoly",
        "col1": "Budapest",
        "col2": "1886-01-15",
        "col3": "1926-07-28"
    },
    {
        "col0": "J. Dalnoki",
        "col1": "Budapest",
        "col2": "1932-12-12",
        "col3": "2006-02-04"
    },
    {
        "col0": "J. Csaknady",
        "col1": "Hungary",
        "col2": "1924-09-20",
        "col3": "2001-01-07"
    },
    {
        "col0": "J. Buzanszky",
        "col1": "Kingdom of Hungary",
        "col2": "1925-05-04",
        "col3": "2015-01-11"
    },
    {
        "col0": "J. Barker",
        "col1": "England",
        "col2": "1915-10-16",
        "col3": "1985-1-1"
    },
    {
        "col0": "J. d. Gribaldy",
        "col1": "Besancon",
        "col2": "1922-07-18",
        "col3": "1987-01-02"
    },
    {
        "col0": "J. Vincent",
        "col1": "Labeuvriere",
        "col2": "1930-11-29",
        "col3": "2013-08-13"
    },
    {
        "col0": "J. Snella",
        "col1": "German Empire",
        "col2": "1914-12-09",
        "col3": "1979-11-20"
    },
    {
        "col0": "J. Ryff",
        "col1": "Basel",
        "col2": "1870-01-12",
        "col3": "1944-09-10"
    },
    {
        "col0": "J. Robin",
        "col1": "France",
        "col2": "1921-07-25",
        "col3": "2004-10-08"
    },
    {
        "col0": "J. Prouff",
        "col1": "France",
        "col2": "1919-09-12",
        "col3": "2008-02-12"
    },
    {
        "col0": "J. Loring",
        "col1": "Cologne",
        "col2": "1934-08-16",
        "col3": "2005-03-06"
    },
    {
        "col0": "J. Luciano",
        "col1": "France national football team",
        "col2": "1921-01-02",
        "col3": "1997-07-07"
    },
    {
        "col0": "J. Lechantre",
        "col1": "Belgium",
        "col2": "1922-02-13",
        "col3": "2015-02-12"
    },
    {
        "col0": "J. Loring",
        "col1": "Cologne",
        "col2": "1934-08-16",
        "col3": "2005-03-06"
    },
    {
        "col0": "J. Dockx",
        "col1": "Belgium",
        "col2": "1941-05-24",
        "col3": "2002-01-15"
    },
    {
        "col0": "J. D. Clercq",
        "col1": "Antwerp",
        "col2": "1905-05-17",
        "col3": "1984-03-20"
    },
    {
        "col0": "J. Batmale",
        "col1": "Pau, Pyrenees-Atlantiques",
        "col2": "1895-09-18",
        "col3": "1973-06-03"
    },
    {
        "col0": "J. Bastien",
        "col1": "French Algeria",
        "col2": "1915-06-21",
        "col3": "1969-08-07"
    },
    {
        "col0": "J. Baratte",
        "col1": "France national football team",
        "col2": "1923-06-07",
        "col3": "1986-07-01"
    },
    {
        "col0": "J. Dogliani",
        "col1": "Marseille",
        "col2": "1942-10-17",
        "col3": "2003-04-17"
    },
    {
        "col0": "J. Destrumelle",
        "col1": "France",
        "col2": "1941-01-02",
        "col3": "2002-04-19"
    },
    {
        "col0": "J. Brucato",
        "col1": "Creil",
        "col2": "1944-04-07",
        "col3": "1998-3-22"
    },
    {
        "col0": "J. Rey",
        "col1": "Sierre",
        "col2": "1949-12-23",
        "col3": "2016-1-16"
    },
    {
        "col0": "J. Lagadec",
        "col1": "Le Havre",
        "col2": "1933-05-23",
        "col3": "2012-10-06"
    },
    {
        "col0": "J. Lavaud",
        "col1": "Orleans",
        "col2": "1938-05-18",
        "col3": "2011-3-6"
    },
    {
        "col0": "J. Vejvoda",
        "col1": "Czechoslovakia",
        "col2": "1920-07-01",
        "col3": "1996-07-29"
    },
    {
        "col0": "J. JareA!",
        "col1": "Prague",
        "col2": "1930-03-21",
        "col3": "2016-09-05"
    },
    {
        "col0": "J. Alatensio",
        "col1": "Finland",
        "col2": "1963-11-09",
        "col3": "2003-04-23"
    },
    {
        "col0": "J. PiA!ek",
        "col1": "Austria-Hungary",
        "col2": "1911-0-0",
        "col3": "1991-0-0"
    },
    {
        "col0": "J. Zwartkruis",
        "col1": "Netherlands",
        "col2": "1926-02-18",
        "col3": "2013-03-07"
    },
    {
        "col0": "J. Studnicka",
        "col1": "Austria",
        "col2": "1883-10-12",
        "col3": "1967-10-18"
    },
    {
        "col0": "J. Remmers",
        "col1": "Netherlands",
        "col2": "1922-09-30",
        "col3": "2013-04-03"
    },
    {
        "col0": "J. Bens",
        "col1": "Rotterdam",
        "col2": "1921-04-15",
        "col3": "2012-05-12"
    },
    {
        "col0": "J. Dolan",
        "col1": "Salsburgh",
        "col2": "1969-02-22",
        "col3": "2008-08-31"
    },
    {
        "col0": "J. West",
        "col1": "England",
        "col2": "1900-1-1",
        "col3": "2000-1-1"
    },
    {
        "col0": "J. W. Conant",
        "col1": "Ohio",
        "col2": "1862-08-10",
        "col3": "1906-03-14"
    },
    {
        "col0": "J. Wall",
        "col1": "North Carolina",
        "col2": "1917-12-12",
        "col3": "2010-10-27"
    },
    {
        "col0": "J. Sullivan",
        "col1": "Somerville, Massachusetts",
        "col2": "1925-12-11",
        "col3": "2012-09-26"
    },
    {
        "col0": "J. Stewart",
        "col1": "England national football team",
        "col2": "1883-0-0",
        "col3": "1957-05-23"
    },
    {
        "col0": "J. Siang'a",
        "col1": "Kenya",
        "col2": "1949-0-0",
        "col3": "2016-9-9"
    },
    {
        "col0": "J. R. Spensley",
        "col1": "London",
        "col2": "1867-05-17",
        "col3": "1915-11-10"
    },
    {
        "col0": "J. Richardson",
        "col1": "Scotland",
        "col2": "1885-1-1",
        "col3": "1951-8-1"
    },
    {
        "col0": "J. Moore",
        "col1": "Felling, Tyne and Wear",
        "col2": "1891-09-01",
        "col3": "1972-0-0"
    },
    {
        "col0": "J. McEwen",
        "col1": "Bootle",
        "col2": "1872-10-16",
        "col3": "1942-1-1"
    },
    {
        "col0": "J. McCrae",
        "col1": "Scotland",
        "col2": "1894-09-02",
        "col3": "1974-09-03"
    },
    {
        "col0": "J. Logan",
        "col1": "Scotland",
        "col2": "1885-08-08",
        "col3": "1958-8-8"
    },
    {
        "col0": "J. Howie",
        "col1": "Scotland",
        "col2": "1878-03-19",
        "col3": "1963-1-1"
    },
    {
        "col0": "J. H. Deese",
        "col1": "Graceville, Florida",
        "col2": "1914-09-23",
        "col3": "2001-08-11"
    },
    {
        "col0": "J. Gentle",
        "col1": "Brookline, Massachusetts",
        "col2": "1904-07-21",
        "col3": "1986-05-22"
    },
    {
        "col0": "J. Cowan",
        "col1": "Scotland",
        "col2": "1868-10-17",
        "col3": "1918-12-12"
    },
    {
        "col0": "J. Streitle",
        "col1": "Germany",
        "col2": "1916-12-11",
        "col3": "1982-06-24"
    },
    {
        "col0": "J. Madden",
        "col1": "Dumbarton",
        "col2": "1865-06-11",
        "col3": "1948-04-17"
    },
    {
        "col0": "Jair da Rosa Pinto",
        "col1": "Brazil",
        "col2": "1921-03-21",
        "col3": "2005-07-28"
    },
    {
        "col0": "J. Sarlanga",
        "col1": "Argentina",
        "col2": "1916-02-24",
        "col3": "1966-08-24"
    },
    {
        "col0": "J. Yameogo",
        "col1": "Bobo-Dioulasso",
        "col2": "1943-07-24",
        "col3": "2010-06-20"
    },
    {
        "col0": "J. Stockman",
        "col1": "Belgium",
        "col2": "1938-10-08",
        "col3": "2013-05-04"
    },
    {
        "col0": "J. Favre",
        "col1": "France",
        "col2": "1921-05-06",
        "col3": "2008-05-08"
    },
    {
        "col0": "J. Whitehouse",
        "col1": "Smethwick",
        "col2": "1897-03-04",
        "col3": "1948-01-03"
    },
    {
        "col0": "J. Vernon",
        "col1": "Belfast",
        "col2": "1918-09-26",
        "col3": "1981-08-24"
    },
    {
        "col0": "J. Robinson",
        "col1": "England national football team",
        "col2": "1917-08-10",
        "col3": "1972-07-30"
    }
]