[
    {
        "col0": "Yellow-bellied hyliota",
        "col1": "Hyliotidae",
        "col2": "IUCN3.1",
        "col3": "LC"
    },
    {
        "col0": "Yellow-bellied house snake",
        "col1": "Colubrid",
        "col2": "IUCN2.3",
        "col3": "LR/nt"
    },
    {
        "col0": "Yellow-bellied greenbul",
        "col1": "Pycnonotidae",
        "col2": "IUCN3.1",
        "col3": "LC"
    },
    {
        "col0": "Yellow-bellied glider",
        "col1": "Petauridae",
        "col2": "iucn3.1",
        "col3": "LC"
    },
    {
        "col0": "Yellow-bellied gerygone",
        "col1": "Acanthizidae",
        "col2": "IUCN3.1",
        "col3": "LC"
    },
    {
        "col0": "Yellow-bellied flyrobin",
        "col1": "Petroicidae",
        "col2": "IUCN3.1",
        "col3": "LC"
    },
    {
        "col0": "Yellow-bellied flycatcher",
        "col1": "Tyrant flycatcher",
        "col2": "IUCN3.1",
        "col3": "LC"
    },
    {
        "col0": "Yellow-bellied flowerpecker",
        "col1": "Dicaeidae",
        "col2": "IUCN3.1",
        "col3": "LC"
    },
    {
        "col0": "Yellow-bellied fantail",
        "col1": "Stenostiridae",
        "col2": "IUCN3.1",
        "col3": "LC"
    },
    {
        "col0": "Yellow-bellied eremomela",
        "col1": "Cisticolidae",
        "col2": "IUCN3.1",
        "col3": "LC"
    },
    {
        "col0": "Yellow-bellied elaenia",
        "col1": "Tyrannidae",
        "col2": "IUCN3.1",
        "col3": "LC"
    },
    {
        "col0": "Yellow-bellied dacnis",
        "col1": "Thraupidae",
        "col2": "IUCN3.1",
        "col3": "LC"
    },
    {
        "col0": "Yellow-bellied climbing mouse",
        "col1": "Cricetidae",
        "col2": "IUCN3.1",
        "col3": "DD"
    },
    {
        "col0": "Yellow-bellied chat-tyrant",
        "col1": "Tyrannidae",
        "col2": "IUCN3.1",
        "col3": "LC"
    },
    {
        "col0": "Yellow-bellied bush warbler",
        "col1": "Sylviidae",
        "col2": "IUCN3.1",
        "col3": "LC"
    },
    {
        "col0": "Yellow-bellied bulbul",
        "col1": "Pycnonotidae",
        "col2": "IUCN3.1",
        "col3": "LC"
    },
    {
        "col0": "Yellow-bellied brush-furred rat",
        "col1": "Muridae",
        "col2": "IUCN3.1",
        "col3": "LC"
    },
    {
        "col0": "Yellow-bearded greenbul",
        "col1": "Pycnonotidae",
        "col2": "IUCN3.1",
        "col3": "VU"
    },
    {
        "col0": "Yellow-banded snapper",
        "col1": "Lutjanidae",
        "col2": "iucn3.1",
        "col3": "NE"
    },
    {
        "col0": "Yellow-banded poison dart frog",
        "col1": "Dendrobatidae",
        "col2": "IUCN3.1",
        "col3": "LC"
    },
    {
        "col0": "Yellow-backed tanager",
        "col1": "Thraupidae",
        "col2": "IUCN3.1",
        "col3": "LC"
    },
    {
        "col0": "Yellow-backed oriole",
        "col1": "Icteridae",
        "col2": "IUCN3.1",
        "col3": "LC"
    },
    {
        "col0": "Yelkouan shearwater",
        "col1": "Procellariidae",
        "col2": "IUCN3.1",
        "col3": "VU"
    },
    {
        "col0": "Yazoo darter",
        "col1": "Percidae",
        "col2": "IUCN3.1",
        "col3": "NT"
    },
    {
        "col0": "Yatabe blenny",
        "col1": "Blenniidae",
        "col2": "IUCN3.1",
        "col3": "LC"
    },
    {
        "col0": "Yasuni antwren",
        "col1": "Thamnophilidae",
        "col2": "IUCN3.1",
        "col3": "LC"
    },
    {
        "col0": "Yasuhikotakia modesta",
        "col1": "Botiidae",
        "col2": "IUCN3.1",
        "col3": "LC"
    },
    {
        "col0": "Yarumal climbing salamander",
        "col1": "Plethodontidae",
        "col2": "IUCN3.1",
        "col3": "LC"
    },
    {
        "col0": "Yarra pygmy perch",
        "col1": "Percichthyidae",
        "col2": "IUCN2.3",
        "col3": "VU"
    },
    {
        "col0": "Yarkand hare",
        "col1": "Leporidae",
        "col2": "IUCN2.3",
        "col3": "LR/nt"
    },
    {
        "col0": "Yaqui sucker",
        "col1": "Catostomidae",
        "col2": "IUCN3.1",
        "col3": "DD"
    },
    {
        "col0": "Yaqui slider",
        "col1": "Emydidae",
        "col2": "iucn2.3",
        "col3": "VU"
    },
    {
        "col0": "Yaqui chub",
        "col1": "Cyprinidae",
        "col2": "IUCN2.3",
        "col3": "EN"
    },
    {
        "col0": "Yapacana antbird",
        "col1": "Thamnophilidae",
        "col2": "IUCN3.1",
        "col3": "LC"
    },
    {
        "col0": "Yap monarch",
        "col1": "Monarchidae",
        "col2": "IUCN3.1",
        "col3": "NT"
    },
    {
        "col0": "Yap flying fox",
        "col1": "Pteropodidae",
        "col2": "IUCN3.1",
        "col3": "EN"
    },
    {
        "col0": "Yaoshania pachychilus",
        "col1": "Gastromyzontidae",
        "col2": "iucn3.1",
        "col3": "NE"
    },
    {
        "col0": "Yantai stingray",
        "col1": "Dasyatidae",
        "col2": "IUCN3.1",
        "col3": "NT"
    },
    {
        "col0": "Yankari shrew",
        "col1": "Soricidae",
        "col2": "IUCN3.1",
        "col3": "LC"
    },
    {
        "col0": "Yangtze giant softshell turtle",
        "col1": "Trionychidae",
        "col2": "iucn2.3",
        "col3": "CR"
    },
    {
        "col0": "Yanbaru whiskered bat",
        "col1": "Vesper bat",
        "col2": "IUCN3.1",
        "col3": "CR"
    },
    {
        "col0": "Yamur Lake grunter",
        "col1": "Terapontidae",
        "col2": "IUCN2.3",
        "col3": "VU"
    },
    {
        "col0": "Yamdena mosaic-tailed rat",
        "col1": "Muridae",
        "col2": "iucn3.1",
        "col3": "DD"
    },
    {
        "col0": "Yalden's rat",
        "col1": "Muridae",
        "col2": "IUCN3.1",
        "col3": "EN"
    },
    {
        "col0": "Yakati rainbowfish",
        "col1": "Melanotaeniidae",
        "col2": "IUCN2.3",
        "col3": "DD"
    },
    {
        "col0": "Yacare caiman",
        "col1": "Alligatoridae",
        "col2": "IUCN2.3",
        "col3": "LR/lc"
    },
    {
        "col0": "Y-bar shrimp goby",
        "col1": "Gobiinae",
        "col2": "iucn3.1",
        "col3": "NE"
    },
    {
        "col0": "Xyris tennesseensis",
        "col1": "Xyridaceae",
        "col2": "TNC",
        "col3": "G2"
    },
    {
        "col0": "Xyris andina",
        "col1": "Xyridaceae",
        "col2": "IUCN3.1",
        "col3": "CR"
    },
    {
        "col0": "Xyrichtys virens",
        "col1": "Labridae",
        "col2": "IUCN2.3",
        "col3": "VU"
    },
    {
        "col0": "Xylotoles costatus",
        "col1": "Cerambycidae",
        "col2": "IUCN3.1",
        "col3": "EN"
    },
    {
        "col0": "Xylosma tuberculatum",
        "col1": "Salicaceae",
        "col2": "IUCN2.3",
        "col3": "VU"
    },
    {
        "col0": "Xylosma terrae-reginae",
        "col1": "Salicaceae",
        "col2": "EPBC",
        "col3": "EN"
    },
    {
        "col0": "Xylosma serrata",
        "col1": "Salicaceae",
        "col2": "IUCN3.1",
        "col3": "CR"
    },
    {
        "col0": "Xylosma serpentinum",
        "col1": "Salicaceae",
        "col2": "IUCN2.3",
        "col3": "VU"
    },
    {
        "col0": "Xylosma ruizianum",
        "col1": "Salicaceae",
        "col2": "IUCN2.3",
        "col3": "DD"
    },
    {
        "col0": "Xylosma proctorii",
        "col1": "Salicaceae",
        "col2": "IUCN2.3",
        "col3": "VU"
    },
    {
        "col0": "Xylosma pininsulare",
        "col1": "Salicaceae",
        "col2": "IUCN2.3",
        "col3": "CR"
    },
    {
        "col0": "Xylosma peltatum",
        "col1": "Salicaceae",
        "col2": "IUCN2.3",
        "col3": "CR"
    },
    {
        "col0": "Xylosma palawanense",
        "col1": "Salicaceae",
        "col2": "IUCN2.3",
        "col3": "VU"
    },
    {
        "col0": "Xylosma pachyphyllum",
        "col1": "Salicaceae",
        "col2": "IUCN2.3",
        "col3": "CR"
    },
    {
        "col0": "Xylosma obovatum",
        "col1": "Salicaceae",
        "col2": "IUCN2.3",
        "col3": "EN"
    },
    {
        "col0": "Xylosma molestum",
        "col1": "Salicaceae",
        "col2": "IUCN2.3",
        "col3": "VU"
    },
    {
        "col0": "Xylosma latifolium",
        "col1": "Salicaceae",
        "col2": "IUCN2.3",
        "col3": "EN"
    },
    {
        "col0": "Xylosma kaalense",
        "col1": "Salicaceae",
        "col2": "IUCN2.3",
        "col3": "VU"
    },
    {
        "col0": "Xylosma inaequinervium",
        "col1": "Salicaceae",
        "col2": "IUCN2.3",
        "col3": "EN"
    },
    {
        "col0": "Xylosma grossecrenatum",
        "col1": "Salicaceae",
        "col2": "IUCN3.1",
        "col3": "EN"
    },
    {
        "col0": "Xylosma glaberrimum",
        "col1": "Salicaceae",
        "col2": "IUCN2.3",
        "col3": "DD"
    },
    {
        "col0": "Xylosma flexuosa",
        "col1": "Salicaceae",
        "col2": "TNC",
        "col3": "G5"
    },
    {
        "col0": "Xylosma fawcettii",
        "col1": "Salicaceae",
        "col2": "IUCN2.3",
        "col3": "LR/nt"
    },
    {
        "col0": "Xylosma crenata",
        "col1": "Salicaceae",
        "col2": "IUCN2.3",
        "col3": "CR"
    },
    {
        "col0": "Xylosma capillipes",
        "col1": "Salicaceae",
        "col2": "IUCN2.3",
        "col3": "CR"
    },
    {
        "col0": "Xylosma boulindae",
        "col1": "Salicaceae",
        "col2": "IUCN2.3",
        "col3": "VU"
    },
    {
        "col0": "Xylorhiza cognata",
        "col1": "Asteraceae",
        "col2": "TNC",
        "col3": "G2"
    },
    {
        "col0": "Xylopia talbotii",
        "col1": "Annonaceae",
        "col2": "IUCN2.3",
        "col3": "VU"
    },
    {
        "col0": "Xylopia richardii",
        "col1": "Annonaceae",
        "col2": "IUCN2.3",
        "col3": "VU"
    },
    {
        "col0": "Xylopia pierrei",
        "col1": "Annonaceae",
        "col2": "IUCN2.3",
        "col3": "VU"
    },
    {
        "col0": "Xylopia magna",
        "col1": "Annonaceae",
        "col2": "IUCN2.3",
        "col3": "LR/lc"
    },
    {
        "col0": "Xylopia longifolia",
        "col1": "Annonaceae",
        "col2": "IUCN2.3",
        "col3": "EN"
    },
    {
        "col0": "Xylopia latipetala",
        "col1": "Annonaceae",
        "col2": "IUCN2.3",
        "col3": "EN"
    },
    {
        "col0": "Xylopia lamarckii",
        "col1": "Annonaceae",
        "col2": "IUCN2.3",
        "col3": "CR"
    },
    {
        "col0": "Xylopia hastarum",
        "col1": "Annonaceae",
        "col2": "IUCN2.3",
        "col3": "LR/nt"
    },
    {
        "col0": "Xylopia elliptica",
        "col1": "Annonaceae",
        "col2": "IUCN2.3",
        "col3": "LR/lc"
    },
    {
        "col0": "Xylopia elliotii",
        "col1": "Annonaceae",
        "col2": "IUCN2.3",
        "col3": "VU"
    },
    {
        "col0": "Xylopia ekmanii",
        "col1": "Annonaceae",
        "col2": "IUCN2.3",
        "col3": "VU"
    },
    {
        "col0": "Xylopia championii",
        "col1": "Annonaceae",
        "col2": "IUCN2.3",
        "col3": "VU"
    },
    {
        "col0": "Xylopia amplexicaulis",
        "col1": "Annonaceae",
        "col2": "IUCN2.3",
        "col3": "CR"
    },
    {
        "col0": "Xylopia africana",
        "col1": "Annonaceae",
        "col2": "IUCN3.1",
        "col3": "VU"
    },
    {
        "col0": "Xylophis stenorhynchus",
        "col1": "Colubridae",
        "col2": "IUCN3.1",
        "col3": "DD"
    },
    {
        "col0": "Xylophis perroteti",
        "col1": "Xenodermatidae",
        "col2": "IUCN3.1",
        "col3": "LC"
    },
    {
        "col0": "Xylophanes tersa",
        "col1": "Sphingidae",
        "col2": "IUCN3.1",
        "col3": "NE"
    },
    {
        "col0": "Xylophanes pluto",
        "col1": "Sphingidae",
        "col2": "TNC",
        "col3": "G4"
    },
    {
        "col0": "Xylocarpus moluccensis",
        "col1": "Meliaceae",
        "col2": "IUCN2.3",
        "col3": "LC"
    },
    {
        "col0": "Xylocalyx asper",
        "col1": "Orobanchaceae",
        "col2": "IUCN3.1",
        "col3": "LC"
    },
    {
        "col0": "Xylocalyx aculeolatus",
        "col1": "Orobanchaceae",
        "col2": "IUCN3.1",
        "col3": "LC"
    },
    {
        "col0": "Xyliphius melanopterus",
        "col1": "Aspredinidae",
        "col2": "iucn3.1",
        "col3": "NE"
    },
    {
        "col0": "Xyliphius magdalenae",
        "col1": "Aspredinidae",
        "col2": "iucn3.1",
        "col3": "NE"
    },
    {
        "col0": "Xyliphius lombarderoi",
        "col1": "Aspredinidae",
        "col2": "iucn3.1",
        "col3": "NE"
    },
    {
        "col0": "Xyliphius lepturus",
        "col1": "Aspredinidae",
        "col2": "iucn3.1",
        "col3": "NE"
    },
    {
        "col0": "Xyliphius kryptos",
        "col1": "Aspredinidae",
        "col2": "iucn3.1",
        "col3": "NE"
    },
    {
        "col0": "Xyliphius barbatus",
        "col1": "Aspredinidae",
        "col2": "iucn3.1",
        "col3": "NE"
    },
    {
        "col0": "Xylia mendoncae",
        "col1": "Fabaceae",
        "col2": "IUCN2.3",
        "col3": "DD"
    },
    {
        "col0": "Xyelacyba myersi",
        "col1": "Ophidiidae",
        "col2": "iucn3.1",
        "col3": "NE"
    },
    {
        "col0": "Xolocotzia",
        "col1": "Verbenaceae",
        "col2": "IUCN2.3",
        "col3": "EN"
    },
    {
        "col0": "Xiurenbagrus xiurenensis",
        "col1": "Amblycipitidae",
        "col2": "IUCN3.1",
        "col3": "DD"
    },
    {
        "col0": "Xiphophorus montezumae",
        "col1": "Poeciliidae",
        "col2": "iucn3.1",
        "col3": "LC"
    },
    {
        "col0": "Xiphasia setifer",
        "col1": "Blenniidae",
        "col2": "IUCN3.1",
        "col3": "LC"
    },
    {
        "col0": "Xiphasia matsubarai",
        "col1": "Blenniidae",
        "col2": "IUCN3.1",
        "col3": "LC"
    },
    {
        "col0": "Xingu corydoras",
        "col1": "Callichthyidae",
        "col2": "iucn3.1",
        "col3": "NE"
    },
    {
        "col0": "Xingu antbird",
        "col1": "Thamnophilidae",
        "col2": "IUCN3.1",
        "col3": "LC"
    },
    {
        "col0": "Xingu River ray",
        "col1": "Potamotrygonidae",
        "col2": "IUCN2.3",
        "col3": "DD"
    },
    {
        "col0": "Ximenia roigii",
        "col1": "Olacaceae",
        "col2": "IUCN2.3",
        "col3": "VU"
    },
    {
        "col0": "Xerus erythropus",
        "col1": "Sciuridae",
        "col2": "iucn3.1",
        "col3": "LC"
    },
    {
        "col0": "Xerotricha zujarensis",
        "col1": "Helicoidea",
        "col2": "IUCN2.3",
        "col3": "LR/nt"
    },
    {
        "col0": "Xerotricha zaratei",
        "col1": "Helicoidea",
        "col2": "IUCN2.3",
        "col3": "LR/nt"
    },
    {
        "col0": "Xerotricha mariae",
        "col1": "Helicoidea",
        "col2": "IUCN2.3",
        "col3": "VU"
    },
    {
        "col0": "Xerotricha gasulli",
        "col1": "Helicoidea",
        "col2": "IUCN2.3",
        "col3": "LR/nt"
    },
    {
        "col0": "Xerotricha bierzona",
        "col1": "Helicoidea",
        "col2": "IUCN2.3",
        "col3": "VU"
    },
    {
        "col0": "Xerosecta giustii",
        "col1": "Helicoidea",
        "col2": "IUCN3.1",
        "col3": "CR"
    },
    {
        "col0": "Xerosecta cespitum",
        "col1": "Helicoidea",
        "col2": "iucn3.1",
        "col3": "LC"
    },
    {
        "col0": "Xerosecta adolfi",
        "col1": "Helicoidea",
        "col2": "IUCN3.1",
        "col3": "EN"
    },
    {
        "col0": "Xerophyllum asphodeloides",
        "col1": "Melanthiaceae",
        "col2": "TNC",
        "col3": "G4"
    },
    {
        "col0": "Xerocrassa zaharensis",
        "col1": "Helicoidea",
        "col2": "iucn3.1",
        "col3": "VU"
    },
    {
        "col0": "Xerocrassa turolensis",
        "col1": "Helicoidea",
        "col2": "iucn3.1",
        "col3": "NT"
    },
    {
        "col0": "Xerocrassa subvariegata",
        "col1": "Helicoidea",
        "col2": "iucn3.1",
        "col3": "LC"
    },
    {
        "col0": "Xerocrassa subrogata",
        "col1": "Helicoidea",
        "col2": "iucn3.1",
        "col3": "LC"
    },
    {
        "col0": "Xerocrassa siphnica",
        "col1": "Helicoidea",
        "col2": "iucn3.1",
        "col3": "LC"
    },
    {
        "col0": "Xerocrassa siderensis",
        "col1": "Helicoidea",
        "col2": "iucn3.1",
        "col3": "LC"
    },
    {
        "col0": "Xerocrassa roblesi",
        "col1": "Helicoidea",
        "col2": "iucn3.1",
        "col3": "VU"
    },
    {
        "col0": "Xerocrassa ripacurcica",
        "col1": "Hygromiidae",
        "col2": "iucn3.1",
        "col3": "LC"
    },
    {
        "col0": "Xerocrassa rhithymna",
        "col1": "Helicoidea",
        "col2": "iucn3.1",
        "col3": "LC"
    },
    {
        "col0": "Xerocrassa prietoi",
        "col1": "Helicoidea",
        "col2": "iucn3.1",
        "col3": "NT"
    },
    {
        "col0": "Xerocrassa poecilodoma",
        "col1": "Helicoidea",
        "col2": "iucn3.1",
        "col3": "LC"
    },
    {
        "col0": "Xerocrassa penchinati",
        "col1": "Helicoidea",
        "col2": "iucn3.1",
        "col3": "LC"
    },
    {
        "col0": "Xerocrassa nyeli",
        "col1": "Helicoidea",
        "col2": "iucn3.1",
        "col3": "NT"
    },
    {
        "col0": "Xerocrassa nicosiana",
        "col1": "Helicoidea",
        "col2": "iucn3.1",
        "col3": "LC"
    },
    {
        "col0": "Xerocrassa moraguesi",
        "col1": "Helicoidea",
        "col2": "iucn3.1",
        "col3": "EN"
    },
    {
        "col0": "Xerocrassa montserratensis",
        "col1": "Helicoidea",
        "col2": "iucn3.1",
        "col3": "EN"
    },
    {
        "col0": "Xerocrassa molinae",
        "col1": "Helicoidea",
        "col2": "iucn3.1",
        "col3": "NT"
    },
    {
        "col0": "Xerocrassa mesostena",
        "col1": "Helicoidea",
        "col2": "iucn3.1",
        "col3": "LC"
    },
    {
        "col0": "Xerocrassa meda",
        "col1": "Helicoidea",
        "col2": "iucn3.1",
        "col3": "LC"
    },
    {
        "col0": "Xerocrassa lasithiensis",
        "col1": "Helicoidea",
        "col2": "iucn3.1",
        "col3": "LC"
    },
    {
        "col0": "Xerocrassa kydonia",
        "col1": "Helicoidea",
        "col2": "iucn3.1",
        "col3": "LC"
    },
    {
        "col0": "Xerocrassa jimenensis",
        "col1": "Helicoidea",
        "col2": "iucn3.1",
        "col3": "NT"
    },
    {
        "col0": "Xerocrassa homeyeri",
        "col1": "Helicoidea",
        "col2": "iucn3.1",
        "col3": "LC"
    },
    {
        "col0": "Xerocrassa heraklea",
        "col1": "Helicoidea",
        "col2": "iucn3.1",
        "col3": "LC"
    },
    {
        "col0": "Xerocrassa grata",
        "col1": "Helicoidea",
        "col2": "iucn3.1",
        "col3": "DD"
    },
    {
        "col0": "Xerocrassa grabusana",
        "col1": "Helicoidea",
        "col2": "iucn3.1",
        "col3": "LC"
    },
    {
        "col0": "Xerocrassa gharlapsi",
        "col1": "Helicoidea",
        "col2": "iucn2.3",
        "col3": "VU"
    },
    {
        "col0": "Xerocrassa geyeri",
        "col1": "Helicoidea",
        "col2": "iucn3.1",
        "col3": "DD"
    },
    {
        "col0": "Xerocrassa frater",
        "col1": "Helicoidea",
        "col2": "iucn3.1",
        "col3": "LC"
    },
    {
        "col0": "Xerocrassa franciscoi",
        "col1": "Helicoidea",
        "col2": "iucn3.1",
        "col3": "LC"
    },
    {
        "col0": "Xerocrassa ferreri",
        "col1": "Helicoidea",
        "col2": "iucn3.1",
        "col3": "NT"
    },
    {
        "col0": "Xerocrassa edmundi",
        "col1": "Helicoidea",
        "col2": "iucn3.1",
        "col3": "EN"
    },
    {
        "col0": "Xerocrassa ebusitana",
        "col1": "Helicoidea",
        "col2": "iucn3.1",
        "col3": "NT"
    },
    {
        "col0": "Xerocrassa derogata",
        "col1": "Helicoidea",
        "col2": "iucn3.1",
        "col3": "LC"
    },
    {
        "col0": "Xerocrassa cretica",
        "col1": "Helicoidea",
        "col2": "iucn3.1",
        "col3": "LC"
    },
    {
        "col0": "Xerocrassa cobosi",
        "col1": "Helicoidea",
        "col2": "iucn3.1",
        "col3": "DD"
    }
]