[
    {
        "col0": "T. Pages",
        "col1": "France",
        "col2": "France",
        "col3": "1985-03-25"
    },
    {
        "col0": "T. Higashino",
        "col1": "Japanese people",
        "col2": "Japan",
        "col3": "1985-03-13"
    },
    {
        "col0": "S. Cranmer",
        "col1": "United States of America",
        "col2": "Jackson Township, New Jersey",
        "col3": "1987-01-16"
    },
    {
        "col0": "R. Nyquist",
        "col1": "United States",
        "col2": "Los Gatos, California",
        "col3": "1979-3-6"
    },
    {
        "col0": "N. Wilson",
        "col1": "United Kingdom",
        "col2": "County Durham",
        "col3": "1976-10-1"
    },
    {
        "col0": "L. Sherwood",
        "col1": "New Zealand",
        "col2": "New Zealand",
        "col3": "1991-10-22"
    },
    {
        "col0": "Juan Manuel Munoz Diaz",
        "col1": "Spain",
        "col2": "Spain",
        "col3": "1969-05-19"
    },
    {
        "col0": "H. Hoketsu",
        "col1": "Japan",
        "col2": "Tokyo",
        "col3": "1941-03-28"
    },
    {
        "col0": "G. G. Trissino",
        "col1": "Italia",
        "col2": "Italy",
        "col3": "1877-07-22"
    },
    {
        "col0": "E. Tops-Alexander",
        "col1": "Australian",
        "col2": "Australia",
        "col3": "1974-03-29"
    },
    {
        "col0": "D. Berrecloth",
        "col1": "Canada",
        "col2": "Canada",
        "col3": "1981-10-30"
    },
    {
        "col0": "B. Rheeder",
        "col1": "Canada",
        "col2": "Mount Albert, Ontario",
        "col3": "1993-02-16"
    },
    {
        "col0": "A. Coleman",
        "col1": "United States",
        "col2": "California",
        "col3": "1983-1-1"
    },
    {
        "col0": "A. Cornelissen",
        "col1": "Netherlands",
        "col2": "Beilen",
        "col3": "1979-7-8"
    }
]