[
    {
        "col0": "Wrestling at the 2012 Summer Olympics - Women's freestyle 63 kg",
        "col1": "S. Battsetseg",
        "col2": "Wrestling at the 2016 Summer Olympics - Women's freestyle 63 kg",
        "col3": "J. Ruixue"
    },
    {
        "col0": "Wrestling at the 2012 Summer Olympics - Women's freestyle 48 kg",
        "col1": "C. Huynh",
        "col2": "Wrestling at the 2016 Summer Olympics - Women's freestyle 48 kg",
        "col3": "M. Stadnik"
    },
    {
        "col0": "Wrestling at the 2012 Summer Olympics - Men's freestyle 96 kg",
        "col1": "G. Gogshelidze",
        "col2": "Wrestling at the 2016 Summer Olympics - Men's freestyle 97 kg",
        "col3": "V. Andriytsev"
    },
    {
        "col0": "Wrestling at the 2012 Summer Olympics - Men's freestyle 84 kg",
        "col1": "D. Marsagishvili",
        "col2": "Wrestling at the 2016 Summer Olympics - Men's freestyle 86 kg",
        "col3": "J. Espinal"
    },
    {
        "col0": "Wrestling at the 2012 Summer Olympics - Men's freestyle 74 kg",
        "col1": "G. Hatos",
        "col2": "Wrestling at the 2016 Summer Olympics - Men's freestyle 74 kg",
        "col3": "S. Goudarzi"
    },
    {
        "col0": "Wrestling at the 2012 Summer Olympics - Men's freestyle 66 kg",
        "col1": "A. Tanatarov",
        "col2": "Wrestling at the 2016 Summer Olympics - Men's freestyle 65 kg",
        "col3": "S. Kumar"
    },
    {
        "col0": "Wrestling at the 2012 Summer Olympics - Men's freestyle 55 kg",
        "col1": "Y. Kyong-il",
        "col2": "Wrestling at the 2016 Summer Olympics - Men's freestyle 57 kg",
        "col3": "V. Khinchegashvili"
    },
    {
        "col0": "Wrestling at the 2012 Summer Olympics - Men's Greco-Roman 96 kg",
        "col1": "A. Aleksanyan",
        "col2": "Wrestling at the 2016 Summer Olympics - Men's Greco-Roman 98 kg",
        "col3": "R. Totrov"
    },
    {
        "col0": "Wrestling at the 2012 Summer Olympics - Men's Greco-Roman 74 kg",
        "col1": "A. Kazakevic",
        "col2": "Wrestling at the 2016 Summer Olympics - Men's Greco-Roman 75 kg",
        "col3": "A. Julfalakyan"
    },
    {
        "col0": "Wrestling at the 2012 Summer Olympics - Men's Greco-Roman 66 kg",
        "col1": "M. Tskhadaia",
        "col2": "Wrestling at the 2016 Summer Olympics - Men's Greco-Roman 66 kg",
        "col3": "T. Lorincz"
    },
    {
        "col0": "Wrestling at the 2012 Summer Olympics - Men's Greco-Roman 55 kg",
        "col1": "P. Modos",
        "col2": "Wrestling at the 2016 Summer Olympics - Men's Greco-Roman 59 kg",
        "col3": "R. Bayramov"
    },
    {
        "col0": "Wrestling at the 2012 Summer Olympics - Men's Greco-Roman 120 kg",
        "col1": "R. Kayaalp",
        "col2": "Wrestling at the 2016 Summer Olympics - Men's Greco-Roman 130 kg",
        "col3": "H. Nabi"
    },
    {
        "col0": "Wrestling at the 2012 Summer Olympics - Women's freestyle 63 kg",
        "col1": "S. Battsetseg",
        "col2": "Wrestling at the 2016 Summer Olympics - Women's freestyle 63 kg",
        "col3": "J. Ruixue"
    },
    {
        "col0": "Wrestling at the 2012 Summer Olympics - Women's freestyle 48 kg",
        "col1": "C. Huynh",
        "col2": "Wrestling at the 2016 Summer Olympics - Women's freestyle 48 kg",
        "col3": "M. Stadnik"
    },
    {
        "col0": "Wrestling at the 2012 Summer Olympics - Men's freestyle 96 kg",
        "col1": "G. Gogshelidze",
        "col2": "Wrestling at the 2016 Summer Olympics - Men's freestyle 97 kg",
        "col3": "V. Andriytsev"
    },
    {
        "col0": "Wrestling at the 2012 Summer Olympics - Men's freestyle 84 kg",
        "col1": "D. Marsagishvili",
        "col2": "Wrestling at the 2016 Summer Olympics - Men's freestyle 86 kg",
        "col3": "J. Espinal"
    },
    {
        "col0": "Wrestling at the 2012 Summer Olympics - Men's freestyle 74 kg",
        "col1": "G. Hatos",
        "col2": "Wrestling at the 2016 Summer Olympics - Men's freestyle 74 kg",
        "col3": "S. Goudarzi"
    },
    {
        "col0": "Wrestling at the 2012 Summer Olympics - Men's freestyle 66 kg",
        "col1": "A. Tanatarov",
        "col2": "Wrestling at the 2016 Summer Olympics - Men's freestyle 65 kg",
        "col3": "S. Kumar"
    },
    {
        "col0": "Wrestling at the 2012 Summer Olympics - Men's freestyle 55 kg",
        "col1": "Y. Kyong-il",
        "col2": "Wrestling at the 2016 Summer Olympics - Men's freestyle 57 kg",
        "col3": "V. Khinchegashvili"
    },
    {
        "col0": "Wrestling at the 2012 Summer Olympics - Men's Greco-Roman 96 kg",
        "col1": "A. Aleksanyan",
        "col2": "Wrestling at the 2016 Summer Olympics - Men's Greco-Roman 98 kg",
        "col3": "R. Totrov"
    },
    {
        "col0": "Wrestling at the 2012 Summer Olympics - Men's Greco-Roman 74 kg",
        "col1": "A. Kazakevic",
        "col2": "Wrestling at the 2016 Summer Olympics - Men's Greco-Roman 75 kg",
        "col3": "A. Julfalakyan"
    },
    {
        "col0": "Wrestling at the 2012 Summer Olympics - Men's Greco-Roman 66 kg",
        "col1": "M. Tskhadaia",
        "col2": "Wrestling at the 2016 Summer Olympics - Men's Greco-Roman 66 kg",
        "col3": "T. Lorincz"
    },
    {
        "col0": "Wrestling at the 2012 Summer Olympics - Men's Greco-Roman 55 kg",
        "col1": "P. Modos",
        "col2": "Wrestling at the 2016 Summer Olympics - Men's Greco-Roman 59 kg",
        "col3": "R. Bayramov"
    },
    {
        "col0": "Wrestling at the 2012 Summer Olympics - Men's Greco-Roman 120 kg",
        "col1": "R. Kayaalp",
        "col2": "Wrestling at the 2016 Summer Olympics - Men's Greco-Roman 130 kg",
        "col3": "H. Nabi"
    },
    {
        "col0": "Wrestling at the 2008 Summer Olympics - Women's freestyle 72 kg",
        "col1": "K. Hamaguchi",
        "col2": "Wrestling at the 2012 Summer Olympics - Women's freestyle 72 kg",
        "col3": "S. Zlateva"
    },
    {
        "col0": "Wrestling at the 2008 Summer Olympics - Women's freestyle 63 kg",
        "col1": "Y. Shalygina",
        "col2": "Wrestling at the 2012 Summer Olympics - Women's freestyle 63 kg",
        "col3": "A. Kartashova"
    },
    {
        "col0": "Wrestling at the 2008 Summer Olympics - Women's freestyle 55 kg",
        "col1": "T. Verbeek",
        "col2": "Wrestling at the 2012 Summer Olympics - Women's freestyle 55 kg",
        "col3": "X. Li"
    },
    {
        "col0": "Wrestling at the 2008 Summer Olympics - Women's freestyle 48 kg",
        "col1": "M. Stadnik",
        "col2": "Wrestling at the 2012 Summer Olympics - Women's freestyle 48 kg",
        "col3": "C. Icho"
    },
    {
        "col0": "Wrestling at the 2008 Summer Olympics - Men's freestyle 96 kg",
        "col1": "G. Gogshelidze",
        "col2": "Wrestling at the 2012 Summer Olympics - Men's freestyle 96 kg",
        "col3": "T. Tigiyev"
    },
    {
        "col0": "Wrestling at the 2008 Summer Olympics - Men's freestyle 84 kg",
        "col1": "T. Danko",
        "col2": "Wrestling at the 2012 Summer Olympics - Men's freestyle 84 kg",
        "col3": "Y. Abdusalomov"
    },
    {
        "col0": "Wrestling at the 2008 Summer Olympics - Men's freestyle 74 kg",
        "col1": "M. Gaidarov",
        "col2": "Wrestling at the 2012 Summer Olympics - Men's freestyle 74 kg",
        "col3": "S. Tigiev"
    },
    {
        "col0": "Wrestling at the 2008 Summer Olympics - Men's freestyle 66 kg",
        "col1": "O. Tushishvili",
        "col2": "Wrestling at the 2012 Summer Olympics - Men's freestyle 66 kg",
        "col3": "A. Stadnik"
    },
    {
        "col0": "Wrestling at the 2008 Summer Olympics - Men's freestyle 60 kg",
        "col1": "K. Yumoto",
        "col2": "Wrestling at the 2012 Summer Olympics - Men's freestyle 60 kg",
        "col3": "V. Fedoryshyn"
    },
    {
        "col0": "Wrestling at the 2008 Summer Olympics - Men's freestyle 55 kg",
        "col1": "R. Velikov",
        "col2": "Wrestling at the 2012 Summer Olympics - Men's freestyle 55 kg",
        "col3": "T. Matsunaga"
    },
    {
        "col0": "Wrestling at the 2008 Summer Olympics - Men's freestyle 120 kg",
        "col1": "D. Musulbes",
        "col2": "Wrestling at the 2012 Summer Olympics - Men's freestyle 120 kg",
        "col3": "B. Akhmedov"
    },
    {
        "col0": "Wrestling at the 2008 Summer Olympics - Men's Greco-Roman 96 kg",
        "col1": "A. Wheeler",
        "col2": "Wrestling at the 2012 Summer Olympics - Men's Greco-Roman 96 kg",
        "col3": "M. Englich"
    },
    {
        "col0": "Wrestling at the 2008 Summer Olympics - Men's Greco-Roman 84 kg",
        "col1": "N. Avluca",
        "col2": "Wrestling at the 2012 Summer Olympics - Men's Greco-Roman 84 kg",
        "col3": "Z. Fodor"
    },
    {
        "col0": "Wrestling at the 2008 Summer Olympics - Men's Greco-Roman 74 kg",
        "col1": "Y. Yanakiev",
        "col2": "Wrestling at the 2012 Summer Olympics - Men's Greco-Roman 74 kg",
        "col3": "C. Yongxiang"
    },
    {
        "col0": "Wrestling at the 2008 Summer Olympics - Men's Greco-Roman 66 kg",
        "col1": "A. Vardanyan",
        "col2": "Wrestling at the 2012 Summer Olympics - Men's Greco-Roman 66 kg",
        "col3": "K. Begaliev"
    },
    {
        "col0": "Wrestling at the 2008 Summer Olympics - Men's Greco-Roman 60 kg",
        "col1": "R. Tyumenbayev",
        "col2": "Wrestling at the 2012 Summer Olympics - Men's Greco-Roman 60 kg",
        "col3": "V. Rahimov"
    },
    {
        "col0": "Wrestling at the 2008 Summer Olympics - Men's Greco-Roman 55 kg",
        "col1": "R. Amoyan",
        "col2": "Wrestling at the 2012 Summer Olympics - Men's Greco-Roman 55 kg",
        "col3": "R. Bayramov"
    },
    {
        "col0": "Wrestling at the 2008 Summer Olympics - Men's Greco-Roman 120 kg",
        "col1": "M. Mizgaitis",
        "col2": "Wrestling at the 2012 Summer Olympics - Men's Greco-Roman 120 kg",
        "col3": "K. Baroyev"
    },
    {
        "col0": "Wrestling at the 2008 Summer Olympics - Women's freestyle 72 kg",
        "col1": "K. Hamaguchi",
        "col2": "Wrestling at the 2012 Summer Olympics - Women's freestyle 72 kg",
        "col3": "S. Zlateva"
    },
    {
        "col0": "Wrestling at the 2008 Summer Olympics - Women's freestyle 63 kg",
        "col1": "Y. Shalygina",
        "col2": "Wrestling at the 2012 Summer Olympics - Women's freestyle 63 kg",
        "col3": "A. Kartashova"
    },
    {
        "col0": "Wrestling at the 2008 Summer Olympics - Women's freestyle 55 kg",
        "col1": "T. Verbeek",
        "col2": "Wrestling at the 2012 Summer Olympics - Women's freestyle 55 kg",
        "col3": "X. Li"
    },
    {
        "col0": "Wrestling at the 2008 Summer Olympics - Women's freestyle 48 kg",
        "col1": "M. Stadnik",
        "col2": "Wrestling at the 2012 Summer Olympics - Women's freestyle 48 kg",
        "col3": "C. Icho"
    },
    {
        "col0": "Wrestling at the 2008 Summer Olympics - Men's freestyle 96 kg",
        "col1": "G. Gogshelidze",
        "col2": "Wrestling at the 2012 Summer Olympics - Men's freestyle 96 kg",
        "col3": "T. Tigiyev"
    },
    {
        "col0": "Wrestling at the 2008 Summer Olympics - Men's freestyle 84 kg",
        "col1": "T. Danko",
        "col2": "Wrestling at the 2012 Summer Olympics - Men's freestyle 84 kg",
        "col3": "Y. Abdusalomov"
    },
    {
        "col0": "Wrestling at the 2008 Summer Olympics - Men's freestyle 74 kg",
        "col1": "M. Gaidarov",
        "col2": "Wrestling at the 2012 Summer Olympics - Men's freestyle 74 kg",
        "col3": "S. Tigiev"
    },
    {
        "col0": "Wrestling at the 2008 Summer Olympics - Men's freestyle 66 kg",
        "col1": "O. Tushishvili",
        "col2": "Wrestling at the 2012 Summer Olympics - Men's freestyle 66 kg",
        "col3": "A. Stadnik"
    },
    {
        "col0": "Wrestling at the 2008 Summer Olympics - Men's freestyle 60 kg",
        "col1": "K. Yumoto",
        "col2": "Wrestling at the 2012 Summer Olympics - Men's freestyle 60 kg",
        "col3": "V. Fedoryshyn"
    },
    {
        "col0": "Wrestling at the 2008 Summer Olympics - Men's freestyle 55 kg",
        "col1": "R. Velikov",
        "col2": "Wrestling at the 2012 Summer Olympics - Men's freestyle 55 kg",
        "col3": "T. Matsunaga"
    },
    {
        "col0": "Wrestling at the 2008 Summer Olympics - Men's freestyle 120 kg",
        "col1": "D. Musulbes",
        "col2": "Wrestling at the 2012 Summer Olympics - Men's freestyle 120 kg",
        "col3": "B. Akhmedov"
    },
    {
        "col0": "Wrestling at the 2008 Summer Olympics - Men's Greco-Roman 96 kg",
        "col1": "A. Wheeler",
        "col2": "Wrestling at the 2012 Summer Olympics - Men's Greco-Roman 96 kg",
        "col3": "M. Englich"
    },
    {
        "col0": "Wrestling at the 2008 Summer Olympics - Men's Greco-Roman 84 kg",
        "col1": "N. Avluca",
        "col2": "Wrestling at the 2012 Summer Olympics - Men's Greco-Roman 84 kg",
        "col3": "Z. Fodor"
    },
    {
        "col0": "Wrestling at the 2008 Summer Olympics - Men's Greco-Roman 74 kg",
        "col1": "Y. Yanakiev",
        "col2": "Wrestling at the 2012 Summer Olympics - Men's Greco-Roman 74 kg",
        "col3": "C. Yongxiang"
    },
    {
        "col0": "Wrestling at the 2008 Summer Olympics - Men's Greco-Roman 66 kg",
        "col1": "A. Vardanyan",
        "col2": "Wrestling at the 2012 Summer Olympics - Men's Greco-Roman 66 kg",
        "col3": "K. Begaliev"
    },
    {
        "col0": "Wrestling at the 2008 Summer Olympics - Men's Greco-Roman 60 kg",
        "col1": "R. Tyumenbayev",
        "col2": "Wrestling at the 2012 Summer Olympics - Men's Greco-Roman 60 kg",
        "col3": "V. Rahimov"
    },
    {
        "col0": "Wrestling at the 2008 Summer Olympics - Men's Greco-Roman 55 kg",
        "col1": "R. Amoyan",
        "col2": "Wrestling at the 2012 Summer Olympics - Men's Greco-Roman 55 kg",
        "col3": "R. Bayramov"
    },
    {
        "col0": "Wrestling at the 2008 Summer Olympics - Men's Greco-Roman 120 kg",
        "col1": "M. Mizgaitis",
        "col2": "Wrestling at the 2012 Summer Olympics - Men's Greco-Roman 120 kg",
        "col3": "K. Baroyev"
    },
    {
        "col0": "Wrestling at the 2004 Summer Olympics - Women's freestyle 72 kg",
        "col1": "K. Hamaguchi",
        "col2": "Wrestling at the 2008 Summer Olympics - Women's freestyle 63 kg",
        "col3": "G. Manyurova"
    },
    {
        "col0": "Wrestling at the 2004 Summer Olympics - Women's freestyle 63 kg",
        "col1": "L. Legrand",
        "col2": "Wrestling at the 2008 Summer Olympics - Women's freestyle 63 kg",
        "col3": "S. McMann"
    },
    {
        "col0": "Wrestling at the 2004 Summer Olympics - Women's freestyle 55 kg",
        "col1": "A. Gomis",
        "col2": "Wrestling at the 2008 Summer Olympics - Women's freestyle 55 kg",
        "col3": "T. Verbeek"
    },
    {
        "col0": "Wrestling at the 2004 Summer Olympics - Women's freestyle 48 kg",
        "col1": "P. Miranda",
        "col2": "Wrestling at the 2008 Summer Olympics - Women's freestyle 48 kg",
        "col3": "C. Icho"
    },
    {
        "col0": "Wrestling at the 2004 Summer Olympics - Men's freestyle 96 kg",
        "col1": "A. Heidari",
        "col2": "Wrestling at the 2008 Summer Olympics - Men's freestyle 96 kg",
        "col3": "M. A. Ibragimov"
    },
    {
        "col0": "Wrestling at the 2004 Summer Olympics - Men's freestyle 84 kg",
        "col1": "S. Sazhidov",
        "col2": "Wrestling at the 2008 Summer Olympics - Men's freestyle 84 kg",
        "col3": "M. Eui-jae"
    },
    {
        "col0": "Wrestling at the 2004 Summer Olympics - Men's freestyle 74 kg",
        "col1": "I. Fundora",
        "col2": "Wrestling at the 2008 Summer Olympics - Men's freestyle 74 kg",
        "col3": "G. Laliyev"
    },
    {
        "col0": "Wrestling at the 2004 Summer Olympics - Men's freestyle 66 kg",
        "col1": "M. Murtazaliev",
        "col2": "Wrestling at the 2008 Summer Olympics - Men's freestyle 66 kg",
        "col3": "J. Kelly"
    },
    {
        "col0": "Wrestling at the 2004 Summer Olympics - Men's freestyle 60 kg",
        "col1": "K. Inoue",
        "col2": "Wrestling at the 2008 Summer Olympics - Men's freestyle 60 kg",
        "col3": "M. Mostafa-Jokar"
    },
    {
        "col0": "Wrestling at the 2004 Summer Olympics - Men's freestyle 55 kg",
        "col1": "C. Tanabe",
        "col2": "Wrestling at the 2008 Summer Olympics - Men's freestyle 55 kg",
        "col3": "S. Abas"
    },
    {
        "col0": "Wrestling at the 2004 Summer Olympics - Men's freestyle 120 kg",
        "col1": "A. Polatci",
        "col2": "Wrestling at the 2008 Summer Olympics - Men's freestyle 120 kg",
        "col3": "A. Rezaei"
    },
    {
        "col0": "Wrestling at the 2004 Summer Olympics - Men's Greco-Roman 96 kg",
        "col1": "M. Ozal",
        "col2": "Wrestling at the 2008 Summer Olympics - Men's Greco-Roman 96 kg",
        "col3": "R. Nozadze"
    },
    {
        "col0": "Wrestling at the 2004 Summer Olympics - Men's Greco-Roman 84 kg",
        "col1": "V. Makaranka",
        "col2": "Wrestling at the 2008 Summer Olympics - Men's Greco-Roman 84 kg",
        "col3": "A. Abrahamian"
    },
    {
        "col0": "Wrestling at the 2004 Summer Olympics - Men's Greco-Roman 74 kg",
        "col1": "V. Samurgashev",
        "col2": "Wrestling at the 2008 Summer Olympics - Men's Greco-Roman 74 kg",
        "col3": "M. Yli-Hannuksela"
    },
    {
        "col0": "Wrestling at the 2004 Summer Olympics - Men's Greco-Roman 66 kg",
        "col1": "M. Manukyan",
        "col2": "Wrestling at the 2008 Summer Olympics - Men's Greco-Roman 66 kg",
        "col3": "S. Eroglu"
    },
    {
        "col0": "Wrestling at the 2004 Summer Olympics - Men's Greco-Roman 60 kg",
        "col1": "A. Nazaryan",
        "col2": "Wrestling at the 2008 Summer Olympics - Men's Greco-Roman 60 kg",
        "col3": "R. Monzon"
    },
    {
        "col0": "Wrestling at the 2004 Summer Olympics - Men's Greco-Roman 55 kg",
        "col1": "A. Kiouregkian",
        "col2": "Wrestling at the 2008 Summer Olympics - Men's Greco-Roman 55 kg",
        "col3": "G. Mamedaliyev"
    },
    {
        "col0": "Wrestling at the 2004 Summer Olympics - Men's Greco-Roman 120 kg",
        "col1": "R. Gardner",
        "col2": "Wrestling at the 2008 Summer Olympics - Men's Greco-Roman 120 kg",
        "col3": "G. Tsurtsumia"
    },
    {
        "col0": "Wrestling at the 2004 Summer Olympics - Women's freestyle 72 kg",
        "col1": "K. Hamaguchi",
        "col2": "Wrestling at the 2008 Summer Olympics - Women's freestyle 63 kg",
        "col3": "G. Manyurova"
    },
    {
        "col0": "Wrestling at the 2004 Summer Olympics - Women's freestyle 63 kg",
        "col1": "L. Legrand",
        "col2": "Wrestling at the 2008 Summer Olympics - Women's freestyle 63 kg",
        "col3": "S. McMann"
    },
    {
        "col0": "Wrestling at the 2004 Summer Olympics - Women's freestyle 55 kg",
        "col1": "A. Gomis",
        "col2": "Wrestling at the 2008 Summer Olympics - Women's freestyle 55 kg",
        "col3": "T. Verbeek"
    },
    {
        "col0": "Wrestling at the 2004 Summer Olympics - Women's freestyle 48 kg",
        "col1": "P. Miranda",
        "col2": "Wrestling at the 2008 Summer Olympics - Women's freestyle 48 kg",
        "col3": "C. Icho"
    },
    {
        "col0": "Wrestling at the 2004 Summer Olympics - Men's freestyle 96 kg",
        "col1": "A. Heidari",
        "col2": "Wrestling at the 2008 Summer Olympics - Men's freestyle 96 kg",
        "col3": "M. A. Ibragimov"
    },
    {
        "col0": "Wrestling at the 2004 Summer Olympics - Men's freestyle 84 kg",
        "col1": "S. Sazhidov",
        "col2": "Wrestling at the 2008 Summer Olympics - Men's freestyle 84 kg",
        "col3": "M. Eui-jae"
    },
    {
        "col0": "Wrestling at the 2004 Summer Olympics - Men's freestyle 74 kg",
        "col1": "I. Fundora",
        "col2": "Wrestling at the 2008 Summer Olympics - Men's freestyle 74 kg",
        "col3": "G. Laliyev"
    }
]