[
    {
        "col0": "Wrestling at the 2004 Summer Olympics - Men's freestyle 66 kg",
        "col1": "M. Murtazaliev",
        "col2": "Wrestling at the 2008 Summer Olympics - Men's freestyle 66 kg",
        "col3": "J. Kelly"
    },
    {
        "col0": "Wrestling at the 2004 Summer Olympics - Men's freestyle 60 kg",
        "col1": "K. Inoue",
        "col2": "Wrestling at the 2008 Summer Olympics - Men's freestyle 60 kg",
        "col3": "M. Mostafa-Jokar"
    },
    {
        "col0": "Wrestling at the 2004 Summer Olympics - Men's freestyle 55 kg",
        "col1": "C. Tanabe",
        "col2": "Wrestling at the 2008 Summer Olympics - Men's freestyle 55 kg",
        "col3": "S. Abas"
    },
    {
        "col0": "Wrestling at the 2004 Summer Olympics - Men's freestyle 120 kg",
        "col1": "A. Polatci",
        "col2": "Wrestling at the 2008 Summer Olympics - Men's freestyle 120 kg",
        "col3": "A. Rezaei"
    },
    {
        "col0": "Wrestling at the 2004 Summer Olympics - Men's Greco-Roman 96 kg",
        "col1": "M. Ozal",
        "col2": "Wrestling at the 2008 Summer Olympics - Men's Greco-Roman 96 kg",
        "col3": "R. Nozadze"
    },
    {
        "col0": "Wrestling at the 2004 Summer Olympics - Men's Greco-Roman 84 kg",
        "col1": "V. Makaranka",
        "col2": "Wrestling at the 2008 Summer Olympics - Men's Greco-Roman 84 kg",
        "col3": "A. Abrahamian"
    },
    {
        "col0": "Wrestling at the 2004 Summer Olympics - Men's Greco-Roman 74 kg",
        "col1": "V. Samurgashev",
        "col2": "Wrestling at the 2008 Summer Olympics - Men's Greco-Roman 74 kg",
        "col3": "M. Yli-Hannuksela"
    },
    {
        "col0": "Wrestling at the 2004 Summer Olympics - Men's Greco-Roman 66 kg",
        "col1": "M. Manukyan",
        "col2": "Wrestling at the 2008 Summer Olympics - Men's Greco-Roman 66 kg",
        "col3": "S. Eroglu"
    },
    {
        "col0": "Wrestling at the 2004 Summer Olympics - Men's Greco-Roman 60 kg",
        "col1": "A. Nazaryan",
        "col2": "Wrestling at the 2008 Summer Olympics - Men's Greco-Roman 60 kg",
        "col3": "R. Monzon"
    },
    {
        "col0": "Wrestling at the 2004 Summer Olympics - Men's Greco-Roman 55 kg",
        "col1": "A. Kiouregkian",
        "col2": "Wrestling at the 2008 Summer Olympics - Men's Greco-Roman 55 kg",
        "col3": "G. Mamedaliyev"
    },
    {
        "col0": "Wrestling at the 2004 Summer Olympics - Men's Greco-Roman 120 kg",
        "col1": "R. Gardner",
        "col2": "Wrestling at the 2008 Summer Olympics - Men's Greco-Roman 120 kg",
        "col3": "G. Tsurtsumia"
    },
    {
        "col0": "Wrestling at the 1924 Summer Olympics - Men's freestyle welterweight",
        "col1": "O. Muller",
        "col2": "Wrestling at the 1928 Summer Olympics - Men's freestyle welterweight",
        "col3": "E. Leino"
    },
    {
        "col0": "Wrestling at the 1924 Summer Olympics - Men's freestyle middleweight",
        "col1": "V. Pekkala",
        "col2": "Wrestling at the 1928 Summer Olympics - Men's freestyle middleweight",
        "col3": "P. Ollivier"
    },
    {
        "col0": "Wrestling at the 1924 Summer Olympics - Men's freestyle lightweight",
        "col1": "A. Haavisto",
        "col2": "Wrestling at the 1928 Summer Olympics - Men's freestyle lightweight",
        "col3": "V. Wikstrom"
    },
    {
        "col0": "Wrestling at the 1924 Summer Olympics - Men's freestyle light heavyweight",
        "col1": "C. Courant",
        "col2": "Wrestling at the 1928 Summer Olympics - Men's freestyle light heavyweight",
        "col3": "R. Svensson"
    },
    {
        "col0": "Wrestling at the 1924 Summer Olympics - Men's freestyle heavyweight",
        "col1": "A. McDonald",
        "col2": "Wrestling at the 1928 Summer Olympics - Men's freestyle heavyweight",
        "col3": "H. Wernli"
    },
    {
        "col0": "Wrestling at the 1924 Summer Olympics - Men's freestyle featherweight",
        "col1": "K. Naito",
        "col2": "Wrestling at the 1928 Summer Olympics - Men's freestyle featherweight",
        "col3": "C. Newton"
    },
    {
        "col0": "Wrestling at the 1924 Summer Olympics - Men's freestyle bantamweight",
        "col1": "B. Hines",
        "col2": "Wrestling at the 1928 Summer Olympics - Men's freestyle bantamweight",
        "col3": "K. Makinen"
    },
    {
        "col0": "Wrestling at the 1924 Summer Olympics - Men's Greco-Roman middleweight",
        "col1": "R. Steinberg",
        "col2": "Wrestling at the 1928 Summer Olympics - Men's Greco-Roman middleweight",
        "col3": "A. Lindfors"
    },
    {
        "col0": "Wrestling at the 1924 Summer Olympics - Men's Greco-Roman lightweight",
        "col1": "K. Westerlund",
        "col2": "Wrestling at the 1928 Summer Olympics - Men's Greco-Roman lightweight",
        "col3": "L. Keresztes"
    },
    {
        "col0": "Wrestling at the 1924 Summer Olympics - Men's Greco-Roman light heavyweight",
        "col1": "O. Pellinen",
        "col2": "Wrestling at the 1928 Summer Olympics - Men's Greco-Roman light heavyweight",
        "col3": "R. Svensson"
    },
    {
        "col0": "Wrestling at the 1924 Summer Olympics - Men's Greco-Roman heavyweight",
        "col1": "R. Bado",
        "col2": "Wrestling at the 1928 Summer Olympics - Men's Greco-Roman heavyweight",
        "col3": "E. Rosenqvist"
    },
    {
        "col0": "Wrestling at the 1924 Summer Olympics - Men's Greco-Roman featherweight",
        "col1": "E. Malmberg",
        "col2": "Wrestling at the 1928 Summer Olympics - Men's Greco-Roman featherweight",
        "col3": "A. Toivola"
    },
    {
        "col0": "Wrestling at the 1924 Summer Olympics - Men's Greco-Roman bantamweight",
        "col1": "V. Ikonen",
        "col2": "Wrestling at the 1928 Summer Olympics - Men's Greco-Roman bantamweight",
        "col3": "A. Ahlfors"
    },
    {
        "col0": "Wrestling at the 1924 Summer Olympics - Men's freestyle welterweight",
        "col1": "O. Muller",
        "col2": "Wrestling at the 1928 Summer Olympics - Men's freestyle welterweight",
        "col3": "E. Leino"
    },
    {
        "col0": "Wrestling at the 1924 Summer Olympics - Men's freestyle middleweight",
        "col1": "V. Pekkala",
        "col2": "Wrestling at the 1928 Summer Olympics - Men's freestyle middleweight",
        "col3": "P. Ollivier"
    },
    {
        "col0": "Wrestling at the 1924 Summer Olympics - Men's freestyle lightweight",
        "col1": "A. Haavisto",
        "col2": "Wrestling at the 1928 Summer Olympics - Men's freestyle lightweight",
        "col3": "V. Wikstrom"
    },
    {
        "col0": "Wrestling at the 1924 Summer Olympics - Men's freestyle light heavyweight",
        "col1": "C. Courant",
        "col2": "Wrestling at the 1928 Summer Olympics - Men's freestyle light heavyweight",
        "col3": "R. Svensson"
    },
    {
        "col0": "Wrestling at the 1924 Summer Olympics - Men's freestyle heavyweight",
        "col1": "A. McDonald",
        "col2": "Wrestling at the 1928 Summer Olympics - Men's freestyle heavyweight",
        "col3": "H. Wernli"
    },
    {
        "col0": "Wrestling at the 1924 Summer Olympics - Men's freestyle featherweight",
        "col1": "K. Naito",
        "col2": "Wrestling at the 1928 Summer Olympics - Men's freestyle featherweight",
        "col3": "C. Newton"
    },
    {
        "col0": "Wrestling at the 1924 Summer Olympics - Men's freestyle bantamweight",
        "col1": "B. Hines",
        "col2": "Wrestling at the 1928 Summer Olympics - Men's freestyle bantamweight",
        "col3": "K. Makinen"
    },
    {
        "col0": "Wrestling at the 1924 Summer Olympics - Men's Greco-Roman middleweight",
        "col1": "R. Steinberg",
        "col2": "Wrestling at the 1928 Summer Olympics - Men's Greco-Roman middleweight",
        "col3": "A. Lindfors"
    },
    {
        "col0": "Wrestling at the 1924 Summer Olympics - Men's Greco-Roman lightweight",
        "col1": "K. Westerlund",
        "col2": "Wrestling at the 1928 Summer Olympics - Men's Greco-Roman lightweight",
        "col3": "L. Keresztes"
    },
    {
        "col0": "Wrestling at the 1924 Summer Olympics - Men's Greco-Roman light heavyweight",
        "col1": "O. Pellinen",
        "col2": "Wrestling at the 1928 Summer Olympics - Men's Greco-Roman light heavyweight",
        "col3": "R. Svensson"
    },
    {
        "col0": "Wrestling at the 1924 Summer Olympics - Men's Greco-Roman heavyweight",
        "col1": "R. Bado",
        "col2": "Wrestling at the 1928 Summer Olympics - Men's Greco-Roman heavyweight",
        "col3": "E. Rosenqvist"
    },
    {
        "col0": "Wrestling at the 1924 Summer Olympics - Men's Greco-Roman featherweight",
        "col1": "E. Malmberg",
        "col2": "Wrestling at the 1928 Summer Olympics - Men's Greco-Roman featherweight",
        "col3": "A. Toivola"
    },
    {
        "col0": "Wrestling at the 1924 Summer Olympics - Men's Greco-Roman bantamweight",
        "col1": "V. Ikonen",
        "col2": "Wrestling at the 1928 Summer Olympics - Men's Greco-Roman bantamweight",
        "col3": "A. Ahlfors"
    },
    {
        "col0": "Wrestling at the 1920 Summer Olympics - Men's freestyle middleweight",
        "col1": "C. Johnson",
        "col2": "Wrestling at the 1924 Summer Olympics - Men's freestyle middleweight",
        "col3": "V. Penttala"
    },
    {
        "col0": "Wrestling at the 1920 Summer Olympics - Men's freestyle lightweight",
        "col1": "P. Wright",
        "col2": "Wrestling at the 1924 Summer Olympics - Men's freestyle lightweight",
        "col3": "G. Svensson"
    },
    {
        "col0": "Wrestling at the 1920 Summer Olympics - Men's freestyle light heavyweight",
        "col1": "W. Maurer",
        "col2": "Wrestling at the 1924 Summer Olympics - Men's freestyle light heavyweight",
        "col3": "C. Courant"
    },
    {
        "col0": "Wrestling at the 1920 Summer Olympics - Men's freestyle heavyweight",
        "col1": "F. Meyer",
        "col2": "Wrestling at the 1924 Summer Olympics - Men's freestyle heavyweight",
        "col3": "N. Pendleton"
    },
    {
        "col0": "Wrestling at the 1920 Summer Olympics - Men's freestyle featherweight",
        "col1": "P. Bernard",
        "col2": "Wrestling at the 1924 Summer Olympics - Men's freestyle featherweight",
        "col3": "S. Gerson"
    },
    {
        "col0": "Wrestling at the 1920 Summer Olympics - Men's Greco-Roman middleweight",
        "col1": "M. Perttila",
        "col2": "Wrestling at the 1924 Summer Olympics - Men's Greco-Roman middleweight",
        "col3": "A. Lindfors"
    },
    {
        "col0": "Wrestling at the 1920 Summer Olympics - Men's Greco-Roman lightweight",
        "col1": "F. Andersen",
        "col2": "Wrestling at the 1924 Summer Olympics - Men's Greco-Roman lightweight",
        "col3": "T. Tamminen"
    },
    {
        "col0": "Wrestling at the 1920 Summer Olympics - Men's Greco-Roman light heavyweight",
        "col1": "J. Eriksen",
        "col2": "Wrestling at the 1924 Summer Olympics - Men's Greco-Roman light heavyweight",
        "col3": "E. Rosenqvist"
    },
    {
        "col0": "Wrestling at the 1920 Summer Olympics - Men's Greco-Roman heavyweight",
        "col1": "M. Nieminen",
        "col2": "Wrestling at the 1924 Summer Olympics - Men's Greco-Roman heavyweight",
        "col3": "P. Hansen"
    },
    {
        "col0": "Wrestling at the 1920 Summer Olympics - Men's Greco-Roman featherweight",
        "col1": "F. Svensson",
        "col2": "Wrestling at the 1924 Summer Olympics - Men's Greco-Roman featherweight",
        "col3": "H. Kahkonen"
    },
    {
        "col0": "Wrestling at the 1920 Summer Olympics - Men's freestyle middleweight",
        "col1": "C. Johnson",
        "col2": "Wrestling at the 1924 Summer Olympics - Men's freestyle middleweight",
        "col3": "V. Penttala"
    },
    {
        "col0": "Wrestling at the 1920 Summer Olympics - Men's freestyle lightweight",
        "col1": "P. Wright",
        "col2": "Wrestling at the 1924 Summer Olympics - Men's freestyle lightweight",
        "col3": "G. Svensson"
    },
    {
        "col0": "Wrestling at the 1920 Summer Olympics - Men's freestyle light heavyweight",
        "col1": "W. Maurer",
        "col2": "Wrestling at the 1924 Summer Olympics - Men's freestyle light heavyweight",
        "col3": "C. Courant"
    },
    {
        "col0": "Wrestling at the 1920 Summer Olympics - Men's freestyle heavyweight",
        "col1": "F. Meyer",
        "col2": "Wrestling at the 1924 Summer Olympics - Men's freestyle heavyweight",
        "col3": "N. Pendleton"
    },
    {
        "col0": "Wrestling at the 1920 Summer Olympics - Men's freestyle featherweight",
        "col1": "P. Bernard",
        "col2": "Wrestling at the 1924 Summer Olympics - Men's freestyle featherweight",
        "col3": "S. Gerson"
    },
    {
        "col0": "Wrestling at the 1920 Summer Olympics - Men's Greco-Roman middleweight",
        "col1": "M. Perttila",
        "col2": "Wrestling at the 1924 Summer Olympics - Men's Greco-Roman middleweight",
        "col3": "A. Lindfors"
    },
    {
        "col0": "Wrestling at the 1920 Summer Olympics - Men's Greco-Roman lightweight",
        "col1": "F. Andersen",
        "col2": "Wrestling at the 1924 Summer Olympics - Men's Greco-Roman lightweight",
        "col3": "T. Tamminen"
    },
    {
        "col0": "Wrestling at the 1920 Summer Olympics - Men's Greco-Roman light heavyweight",
        "col1": "J. Eriksen",
        "col2": "Wrestling at the 1924 Summer Olympics - Men's Greco-Roman light heavyweight",
        "col3": "E. Rosenqvist"
    },
    {
        "col0": "Wrestling at the 1920 Summer Olympics - Men's Greco-Roman heavyweight",
        "col1": "M. Nieminen",
        "col2": "Wrestling at the 1924 Summer Olympics - Men's Greco-Roman heavyweight",
        "col3": "P. Hansen"
    },
    {
        "col0": "Wrestling at the 1920 Summer Olympics - Men's Greco-Roman featherweight",
        "col1": "F. Svensson",
        "col2": "Wrestling at the 1924 Summer Olympics - Men's Greco-Roman featherweight",
        "col3": "H. Kahkonen"
    },
    {
        "col0": "Wrestling at the 1912 Summer Olympics - Men's Greco-Roman middleweight",
        "col1": "A. Asikainen",
        "col2": "Wrestling at the 1920 Summer Olympics - Men's Greco-Roman middleweight",
        "col3": "M. Klein"
    },
    {
        "col0": "Wrestling at the 1912 Summer Olympics - Men's Greco-Roman lightweight",
        "col1": "E. Mattiasson",
        "col2": "Wrestling at the 1920 Summer Olympics - Men's Greco-Roman lightweight",
        "col3": "G. Malmstrom"
    },
    {
        "col0": "Wrestling at the 1912 Summer Olympics - Men's Greco-Roman light heavyweight",
        "col1": "B. Varga",
        "col2": "Wrestling at the 1920 Summer Olympics - Men's Greco-Roman light heavyweight",
        "col3": "A. Ahlgren"
    },
    {
        "col0": "Wrestling at the 1912 Summer Olympics - Men's Greco-Roman heavyweight",
        "col1": "S. M. Jensen",
        "col2": "Wrestling at the 1920 Summer Olympics - Men's Greco-Roman heavyweight",
        "col3": "J. Olin"
    },
    {
        "col0": "Wrestling at the 1912 Summer Olympics - Men's Greco-Roman featherweight",
        "col1": "O. Lasanen",
        "col2": "Wrestling at the 1920 Summer Olympics - Men's Greco-Roman featherweight",
        "col3": "G. Gerstacker"
    },
    {
        "col0": "Wrestling at the 1912 Summer Olympics - Men's Greco-Roman middleweight",
        "col1": "A. Asikainen",
        "col2": "Wrestling at the 1920 Summer Olympics - Men's Greco-Roman middleweight",
        "col3": "M. Klein"
    },
    {
        "col0": "Wrestling at the 1912 Summer Olympics - Men's Greco-Roman lightweight",
        "col1": "E. Mattiasson",
        "col2": "Wrestling at the 1920 Summer Olympics - Men's Greco-Roman lightweight",
        "col3": "G. Malmstrom"
    },
    {
        "col0": "Wrestling at the 1912 Summer Olympics - Men's Greco-Roman light heavyweight",
        "col1": "B. Varga",
        "col2": "Wrestling at the 1920 Summer Olympics - Men's Greco-Roman light heavyweight",
        "col3": "A. Ahlgren"
    },
    {
        "col0": "Wrestling at the 1912 Summer Olympics - Men's Greco-Roman heavyweight",
        "col1": "S. M. Jensen",
        "col2": "Wrestling at the 1920 Summer Olympics - Men's Greco-Roman heavyweight",
        "col3": "J. Olin"
    },
    {
        "col0": "Wrestling at the 1912 Summer Olympics - Men's Greco-Roman featherweight",
        "col1": "O. Lasanen",
        "col2": "Wrestling at the 1920 Summer Olympics - Men's Greco-Roman featherweight",
        "col3": "G. Gerstacker"
    },
    {
        "col0": "Wrestling at the 1908 Summer Olympics - Men's freestyle middleweight",
        "col1": "F. Beck",
        "col2": "Wrestling at the 1920 Summer Olympics - Men's freestyle middleweight",
        "col3": "G. d. Relwyskow"
    },
    {
        "col0": "Wrestling at the 1908 Summer Olympics - Men's freestyle lightweight",
        "col1": "A. Gingell",
        "col2": "Wrestling at the 1920 Summer Olympics - Men's freestyle lightweight",
        "col3": "W. Wood"
    },
    {
        "col0": "Wrestling at the 1908 Summer Olympics - Men's freestyle heavyweight",
        "col1": "E. Barrett",
        "col2": "Wrestling at the 1920 Summer Olympics - Men's freestyle heavyweight",
        "col3": "J. Gundersen"
    },
    {
        "col0": "Wrestling at the 1908 Summer Olympics - Men's freestyle featherweight",
        "col1": "W. McKie",
        "col2": "Wrestling at the 1920 Summer Olympics - Men's freestyle featherweight",
        "col3": "J. Slim"
    },
    {
        "col0": "Wrestling at the 1908 Summer Olympics - Men's freestyle bantamweight",
        "col1": "A. Cote",
        "col2": "Wrestling at the 1924 Summer Olympics - Men's freestyle bantamweight",
        "col3": "W. Press"
    },
    {
        "col0": "Wrestling at the 1908 Summer Olympics - Men's Greco-Roman super heavyweight",
        "col1": "S. M. Jensen",
        "col2": "Wrestling at the 1972 Summer Olympics - Men's Greco-Roman +100 kg",
        "col3": "A. Petrov"
    },
    {
        "col0": "Wrestling at the 1908 Summer Olympics - Men's Greco-Roman middleweight",
        "col1": "A. Andersen",
        "col2": "Wrestling at the 1912 Summer Olympics - Men's Greco-Roman middleweight",
        "col3": "M. Andersson"
    },
    {
        "col0": "Wrestling at the 1908 Summer Olympics - Men's Greco-Roman lightweight",
        "col1": "A. Linden",
        "col2": "Wrestling at the 1912 Summer Olympics - Men's Greco-Roman lightweight",
        "col3": "N. Orlov"
    },
    {
        "col0": "Wrestling at the 1908 Summer Olympics - Men's Greco-Roman light heavyweight",
        "col1": "C. Jensen",
        "col2": "Wrestling at the 1912 Summer Olympics - Men's Greco-Roman light heavyweight",
        "col3": "Y. Saarela"
    },
    {
        "col0": "Wrestling at the 1908 Summer Olympics - Men's freestyle middleweight",
        "col1": "F. Beck",
        "col2": "Wrestling at the 1920 Summer Olympics - Men's freestyle middleweight",
        "col3": "G. d. Relwyskow"
    },
    {
        "col0": "Wrestling at the 1908 Summer Olympics - Men's freestyle lightweight",
        "col1": "A. Gingell",
        "col2": "Wrestling at the 1920 Summer Olympics - Men's freestyle lightweight",
        "col3": "W. Wood"
    },
    {
        "col0": "Wrestling at the 1908 Summer Olympics - Men's freestyle heavyweight",
        "col1": "E. Barrett",
        "col2": "Wrestling at the 1920 Summer Olympics - Men's freestyle heavyweight",
        "col3": "J. Gundersen"
    },
    {
        "col0": "Wrestling at the 1908 Summer Olympics - Men's freestyle featherweight",
        "col1": "W. McKie",
        "col2": "Wrestling at the 1920 Summer Olympics - Men's freestyle featherweight",
        "col3": "J. Slim"
    },
    {
        "col0": "Wrestling at the 1908 Summer Olympics - Men's freestyle bantamweight",
        "col1": "A. Cote",
        "col2": "Wrestling at the 1924 Summer Olympics - Men's freestyle bantamweight",
        "col3": "W. Press"
    },
    {
        "col0": "Wrestling at the 1908 Summer Olympics - Men's Greco-Roman super heavyweight",
        "col1": "S. M. Jensen",
        "col2": "Wrestling at the 1972 Summer Olympics - Men's Greco-Roman +100 kg",
        "col3": "A. Petrov"
    },
    {
        "col0": "Wrestling at the 1908 Summer Olympics - Men's Greco-Roman middleweight",
        "col1": "A. Andersen",
        "col2": "Wrestling at the 1912 Summer Olympics - Men's Greco-Roman middleweight",
        "col3": "M. Andersson"
    },
    {
        "col0": "Wrestling at the 1908 Summer Olympics - Men's Greco-Roman lightweight",
        "col1": "A. Linden",
        "col2": "Wrestling at the 1912 Summer Olympics - Men's Greco-Roman lightweight",
        "col3": "N. Orlov"
    },
    {
        "col0": "Wrestling at the 1908 Summer Olympics - Men's Greco-Roman light heavyweight",
        "col1": "C. Jensen",
        "col2": "Wrestling at the 1912 Summer Olympics - Men's Greco-Roman light heavyweight",
        "col3": "Y. Saarela"
    },
    {
        "col0": "Wrestling at the 1904 Summer Olympics - Men's freestyle welterweight",
        "col1": "J. Winholtz",
        "col2": "Wrestling at the 1924 Summer Olympics - Men's freestyle welterweight",
        "col3": "W. Beckmann"
    },
    {
        "col0": "Wrestling at the 1904 Summer Olympics - Men's freestyle lightweight",
        "col1": "A. Zirkel",
        "col2": "Wrestling at the 1908 Summer Olympics - Men's freestyle lightweight",
        "col3": "R. Tesing"
    },
    {
        "col0": "Wrestling at the 1904 Summer Olympics - Men's freestyle heavyweight",
        "col1": "F. Warmbold",
        "col2": "Wrestling at the 1908 Summer Olympics - Men's freestyle heavyweight",
        "col3": "F. Kugler"
    },
    {
        "col0": "Wrestling at the 1904 Summer Olympics - Men's freestyle featherweight",
        "col1": "C. Clapper",
        "col2": "Wrestling at the 1908 Summer Olympics - Men's freestyle featherweight",
        "col3": "T. McLear"
    },
    {
        "col0": "Wrestling at the 1904 Summer Olympics - Men's freestyle bantamweight",
        "col1": "L. Strebler",
        "col2": "Wrestling at the 1908 Summer Olympics - Men's freestyle bantamweight",
        "col3": "A. Wester"
    },
    {
        "col0": "Wrestling at the 1904 Summer Olympics - Men's freestyle welterweight",
        "col1": "J. Winholtz",
        "col2": "Wrestling at the 1924 Summer Olympics - Men's freestyle welterweight",
        "col3": "W. Beckmann"
    },
    {
        "col0": "Wrestling at the 1904 Summer Olympics - Men's freestyle lightweight",
        "col1": "A. Zirkel",
        "col2": "Wrestling at the 1908 Summer Olympics - Men's freestyle lightweight",
        "col3": "R. Tesing"
    },
    {
        "col0": "Wrestling at the 1904 Summer Olympics - Men's freestyle heavyweight",
        "col1": "F. Warmbold",
        "col2": "Wrestling at the 1908 Summer Olympics - Men's freestyle heavyweight",
        "col3": "F. Kugler"
    },
    {
        "col0": "Wrestling at the 1904 Summer Olympics - Men's freestyle featherweight",
        "col1": "C. Clapper",
        "col2": "Wrestling at the 1908 Summer Olympics - Men's freestyle featherweight",
        "col3": "T. McLear"
    },
    {
        "col0": "Wrestling at the 1904 Summer Olympics - Men's freestyle bantamweight",
        "col1": "L. Strebler",
        "col2": "Wrestling at the 1908 Summer Olympics - Men's freestyle bantamweight",
        "col3": "A. Wester"
    },
    {
        "col0": "Weightlifting at the 2012 Summer Olympics - Women's 75 kg",
        "col1": "I. Kulesha",
        "col2": "Weightlifting at the 2016 Summer Olympics - Women's 75 kg",
        "col3": "N. Zabolotnaya"
    },
    {
        "col0": "Weightlifting at the 2012 Summer Olympics - Women's 69 kg",
        "col1": "M. Shkermankova",
        "col2": "Weightlifting at the 2016 Summer Olympics - Women's 69 kg",
        "col3": "R. Cocos"
    },
    {
        "col0": "Weightlifting at the 2012 Summer Olympics - Women's 63 kg",
        "col1": "C. Girard",
        "col2": "Weightlifting at the 2016 Summer Olympics - Women's 63 kg",
        "col3": "S. Tsarukayeva"
    },
    {
        "col0": "Weightlifting at the 2012 Summer Olympics - Women's 58 kg",
        "col1": "S. Gulnoi",
        "col2": "Weightlifting at the 2016 Summer Olympics - Women's 58 kg",
        "col3": "P. Sirikaew"
    },
    {
        "col0": "Weightlifting at the 2012 Summer Olympics - Women's 53 kg",
        "col1": "C. Iovu",
        "col2": "Weightlifting at the 2016 Summer Olympics - Women's 53 kg",
        "col3": "H. Shu-ching"
    },
    {
        "col0": "Weightlifting at the 2012 Summer Olympics - Women's 48 kg",
        "col1": "R. Chun-hwa",
        "col2": "Weightlifting at the 2016 Summer Olympics - Women's 48 kg",
        "col3": "H. Miyake"
    },
    {
        "col0": "Weightlifting at the 2012 Summer Olympics - Women's +75 kg",
        "col1": "H. Khurshudyan",
        "col2": "Weightlifting at the 2016 Summer Olympics - Women's +75 kg",
        "col3": "T. Kashirina"
    }
]