[
    {
        "col0": "Speed skating at the 1994 Winter Olympics - Women's 500 metres",
        "col1": "F. Schenk",
        "col2": "Speed skating at the 1998 Winter Olympics - Women's 500 metres",
        "col3": "S. Auch"
    },
    {
        "col0": "Speed skating at the 1994 Winter Olympics - Women's 5000 metres",
        "col1": "H. Yamamoto",
        "col2": "Speed skating at the 1998 Winter Olympics - Women's 5000 metres",
        "col3": "G. Niemann-Stirnemann"
    },
    {
        "col0": "Speed skating at the 1994 Winter Olympics - Women's 3000 metres",
        "col1": "C. Pechstein",
        "col2": "Speed skating at the 1998 Winter Olympics - Women's 3000 metres",
        "col3": "E. Hunyady"
    },
    {
        "col0": "Speed skating at the 1994 Winter Olympics - Women's 1500 metres",
        "col1": "G. Niemann-Stirnemann",
        "col2": "Speed skating at the 1998 Winter Olympics - Women's 1500 metres",
        "col3": "S. Fedotkina"
    },
    {
        "col0": "Speed skating at the 1994 Winter Olympics - Women's 1000 metres",
        "col1": "Y. Qiaobo",
        "col2": "Speed skating at the 1998 Winter Olympics - Women's 1000 metres",
        "col3": "A. Baier-Loef"
    },
    {
        "col0": "Speed skating at the 1994 Winter Olympics - Men's 500 metres",
        "col1": "M. Horii",
        "col2": "Speed skating at the 1998 Winter Olympics - Men's 500 metres",
        "col3": "S. Klevchenya"
    },
    {
        "col0": "Speed skating at the 1994 Winter Olympics - Men's 5000 metres",
        "col1": "R. Ritsma",
        "col2": "Speed skating at the 1998 Winter Olympics - Men's 5000 metres",
        "col3": "K. Storelid"
    },
    {
        "col0": "Speed skating at the 1994 Winter Olympics - Men's 1500 metres",
        "col1": "F. Zandstra",
        "col2": "Speed skating at the 1998 Winter Olympics - Men's 1500 metres",
        "col3": "R. Ritsma"
    },
    {
        "col0": "Speed skating at the 1994 Winter Olympics - Men's 1000 metres",
        "col1": "S. Klevchenya",
        "col2": "Speed skating at the 1998 Winter Olympics - Men's 1000 metres",
        "col3": "I. Zhelezovski"
    },
    {
        "col0": "Speed skating at the 1994 Winter Olympics - Men's 10,000 metres",
        "col1": "R. Ritsma",
        "col2": "Speed skating at the 1998 Winter Olympics - Men's 10,000 metres",
        "col3": "K. Storelid"
    },
    {
        "col0": "Speed skating at the 1992 Winter Olympics - Women's 500 metres",
        "col1": "C. Luding-Rothenburger",
        "col2": "Speed skating at the 1994 Winter Olympics - Women's 500 metres",
        "col3": "Y. Qiaobo"
    },
    {
        "col0": "Speed skating at the 1992 Winter Olympics - Women's 5000 metres",
        "col1": "C. Pechstein",
        "col2": "Speed skating at the 1994 Winter Olympics - Women's 5000 metres",
        "col3": "H. Warnicke"
    },
    {
        "col0": "Speed skating at the 1992 Winter Olympics - Women's 3000 metres",
        "col1": "E. Hunyady",
        "col2": "Speed skating at the 1994 Winter Olympics - Women's 3000 metres",
        "col3": "H. Warnicke"
    },
    {
        "col0": "Speed skating at the 1992 Winter Olympics - Women's 1500 metres",
        "col1": "S. Hashimoto",
        "col2": "Speed skating at the 1994 Winter Olympics - Women's 1500 metres",
        "col3": "G. Niemann-Stirnemann"
    },
    {
        "col0": "Speed skating at the 1992 Winter Olympics - Women's 1000 metres",
        "col1": "M. Garbrecht-Enfeldt",
        "col2": "Speed skating at the 1994 Winter Olympics - Women's 1000 metres",
        "col3": "Y. Qiaobo"
    },
    {
        "col0": "Speed skating at the 1992 Winter Olympics - Men's 500 metres",
        "col1": "J. Inoue",
        "col2": "Speed skating at the 1994 Winter Olympics - Men's 500 metres",
        "col3": "T. Kuroiwa"
    },
    {
        "col0": "Speed skating at the 1992 Winter Olympics - Men's 5000 metres",
        "col1": "L. Visser",
        "col2": "Speed skating at the 1994 Winter Olympics - Men's 5000 metres",
        "col3": "F. Zandstra"
    },
    {
        "col0": "Speed skating at the 1992 Winter Olympics - Men's 1500 metres",
        "col1": "L. Visser",
        "col2": "Speed skating at the 1994 Winter Olympics - Men's 1500 metres",
        "col3": "A. Sondral"
    },
    {
        "col0": "Speed skating at the 1992 Winter Olympics - Men's 1000 metres",
        "col1": "Y. Miyabe",
        "col2": "Speed skating at the 1994 Winter Olympics - Men's 1000 metres",
        "col3": "K. Yoon-man"
    },
    {
        "col0": "Speed skating at the 1992 Winter Olympics - Men's 10,000 metres",
        "col1": "G. Karlstad",
        "col2": "Speed skating at the 1994 Winter Olympics - Men's 10,000 metres",
        "col3": "J. O. Koss"
    },
    {
        "col0": "Speed skating at the 1992 Winter Olympics - Women's 500 metres",
        "col1": "C. Luding-Rothenburger",
        "col2": "Speed skating at the 1994 Winter Olympics - Women's 500 metres",
        "col3": "Y. Qiaobo"
    },
    {
        "col0": "Speed skating at the 1992 Winter Olympics - Women's 5000 metres",
        "col1": "C. Pechstein",
        "col2": "Speed skating at the 1994 Winter Olympics - Women's 5000 metres",
        "col3": "H. Warnicke"
    },
    {
        "col0": "Speed skating at the 1992 Winter Olympics - Women's 3000 metres",
        "col1": "E. Hunyady",
        "col2": "Speed skating at the 1994 Winter Olympics - Women's 3000 metres",
        "col3": "H. Warnicke"
    },
    {
        "col0": "Speed skating at the 1992 Winter Olympics - Women's 1500 metres",
        "col1": "S. Hashimoto",
        "col2": "Speed skating at the 1994 Winter Olympics - Women's 1500 metres",
        "col3": "G. Niemann-Stirnemann"
    },
    {
        "col0": "Speed skating at the 1992 Winter Olympics - Women's 1000 metres",
        "col1": "M. Garbrecht-Enfeldt",
        "col2": "Speed skating at the 1994 Winter Olympics - Women's 1000 metres",
        "col3": "Y. Qiaobo"
    },
    {
        "col0": "Speed skating at the 1992 Winter Olympics - Men's 500 metres",
        "col1": "J. Inoue",
        "col2": "Speed skating at the 1994 Winter Olympics - Men's 500 metres",
        "col3": "T. Kuroiwa"
    },
    {
        "col0": "Speed skating at the 1992 Winter Olympics - Men's 5000 metres",
        "col1": "L. Visser",
        "col2": "Speed skating at the 1994 Winter Olympics - Men's 5000 metres",
        "col3": "F. Zandstra"
    },
    {
        "col0": "Speed skating at the 1992 Winter Olympics - Men's 1500 metres",
        "col1": "L. Visser",
        "col2": "Speed skating at the 1994 Winter Olympics - Men's 1500 metres",
        "col3": "A. Sondral"
    },
    {
        "col0": "Speed skating at the 1992 Winter Olympics - Men's 1000 metres",
        "col1": "Y. Miyabe",
        "col2": "Speed skating at the 1994 Winter Olympics - Men's 1000 metres",
        "col3": "K. Yoon-man"
    },
    {
        "col0": "Speed skating at the 1992 Winter Olympics - Men's 10,000 metres",
        "col1": "G. Karlstad",
        "col2": "Speed skating at the 1994 Winter Olympics - Men's 10,000 metres",
        "col3": "J. O. Koss"
    },
    {
        "col0": "Speed skating at the 1988 Winter Olympics - Women's 500 metres",
        "col1": "K. Enke",
        "col2": "Speed skating at the 1992 Winter Olympics - Women's 500 metres",
        "col3": "C. Luding-Rothenburger"
    },
    {
        "col0": "Speed skating at the 1988 Winter Olympics - Women's 5000 metres",
        "col1": "G. Zange",
        "col2": "Speed skating at the 1992 Winter Olympics - Women's 5000 metres",
        "col3": "A. Ehrig-Mitscherlich"
    },
    {
        "col0": "Speed skating at the 1988 Winter Olympics - Women's 3000 metres",
        "col1": "G. Zange",
        "col2": "Speed skating at the 1992 Winter Olympics - Women's 3000 metres",
        "col3": "A. Ehrig-Mitscherlich"
    },
    {
        "col0": "Speed skating at the 1988 Winter Olympics - Women's 1500 metres",
        "col1": "A. Ehrig-Mitscherlich",
        "col2": "Speed skating at the 1992 Winter Olympics - Women's 1500 metres",
        "col3": "K. Enke"
    },
    {
        "col0": "Speed skating at the 1988 Winter Olympics - Women's 1000 metres",
        "col1": "B. Blair",
        "col2": "Speed skating at the 1992 Winter Olympics - Women's 1000 metres",
        "col3": "K. Enke"
    },
    {
        "col0": "Speed skating at the 1988 Winter Olympics - Men's 500 metres",
        "col1": "A. Kuroiwa",
        "col2": "Speed skating at the 1992 Winter Olympics - Men's 500 metres",
        "col3": "J. Ykema"
    },
    {
        "col0": "Speed skating at the 1988 Winter Olympics - Men's 5000 metres",
        "col1": "G. Kemkers",
        "col2": "Speed skating at the 1992 Winter Olympics - Men's 5000 metres",
        "col3": "L. Visser"
    },
    {
        "col0": "Speed skating at the 1988 Winter Olympics - Men's 1500 metres",
        "col1": "M. Hadschieff",
        "col2": "Speed skating at the 1992 Winter Olympics - Men's 1500 metres",
        "col3": "E. Flaim"
    },
    {
        "col0": "Speed skating at the 1988 Winter Olympics - Men's 1000 metres",
        "col1": "I. Zhelezovski",
        "col2": "Speed skating at the 1992 Winter Olympics - Men's 1000 metres",
        "col3": "U. Mey"
    },
    {
        "col0": "Speed skating at the 1988 Winter Olympics - Men's 10,000 metres",
        "col1": "L. Visser",
        "col2": "Speed skating at the 1992 Winter Olympics - Men's 10,000 metres",
        "col3": "M. Hadschieff"
    },
    {
        "col0": "Speed skating at the 1988 Winter Olympics - Women's 500 metres",
        "col1": "K. Enke",
        "col2": "Speed skating at the 1992 Winter Olympics - Women's 500 metres",
        "col3": "C. Luding-Rothenburger"
    },
    {
        "col0": "Speed skating at the 1988 Winter Olympics - Women's 5000 metres",
        "col1": "G. Zange",
        "col2": "Speed skating at the 1992 Winter Olympics - Women's 5000 metres",
        "col3": "A. Ehrig-Mitscherlich"
    },
    {
        "col0": "Speed skating at the 1988 Winter Olympics - Women's 3000 metres",
        "col1": "G. Zange",
        "col2": "Speed skating at the 1992 Winter Olympics - Women's 3000 metres",
        "col3": "A. Ehrig-Mitscherlich"
    },
    {
        "col0": "Speed skating at the 1988 Winter Olympics - Women's 1500 metres",
        "col1": "A. Ehrig-Mitscherlich",
        "col2": "Speed skating at the 1992 Winter Olympics - Women's 1500 metres",
        "col3": "K. Enke"
    },
    {
        "col0": "Speed skating at the 1988 Winter Olympics - Women's 1000 metres",
        "col1": "B. Blair",
        "col2": "Speed skating at the 1992 Winter Olympics - Women's 1000 metres",
        "col3": "K. Enke"
    },
    {
        "col0": "Speed skating at the 1988 Winter Olympics - Men's 500 metres",
        "col1": "A. Kuroiwa",
        "col2": "Speed skating at the 1992 Winter Olympics - Men's 500 metres",
        "col3": "J. Ykema"
    },
    {
        "col0": "Speed skating at the 1988 Winter Olympics - Men's 5000 metres",
        "col1": "G. Kemkers",
        "col2": "Speed skating at the 1992 Winter Olympics - Men's 5000 metres",
        "col3": "L. Visser"
    },
    {
        "col0": "Speed skating at the 1988 Winter Olympics - Men's 1500 metres",
        "col1": "M. Hadschieff",
        "col2": "Speed skating at the 1992 Winter Olympics - Men's 1500 metres",
        "col3": "E. Flaim"
    },
    {
        "col0": "Speed skating at the 1988 Winter Olympics - Men's 1000 metres",
        "col1": "I. Zhelezovski",
        "col2": "Speed skating at the 1992 Winter Olympics - Men's 1000 metres",
        "col3": "U. Mey"
    },
    {
        "col0": "Speed skating at the 1988 Winter Olympics - Men's 10,000 metres",
        "col1": "L. Visser",
        "col2": "Speed skating at the 1992 Winter Olympics - Men's 10,000 metres",
        "col3": "M. Hadschieff"
    },
    {
        "col0": "Speed skating at the 1984 Winter Olympics - Women's 500 metres",
        "col1": "N. Glebova",
        "col2": "Speed skating at the 1988 Winter Olympics - Women's 500 metres",
        "col3": "K. Enke"
    },
    {
        "col0": "Speed skating at the 1984 Winter Olympics - Women's 3000 metres",
        "col1": "G. Zange",
        "col2": "Speed skating at the 1988 Winter Olympics - Women's 3000 metres",
        "col3": "K. Enke"
    },
    {
        "col0": "Speed skating at the 1984 Winter Olympics - Women's 1500 metres",
        "col1": "N. Petrusyova",
        "col2": "Speed skating at the 1988 Winter Olympics - Women's 1500 metres",
        "col3": "A. Ehrig-Mitscherlich"
    },
    {
        "col0": "Speed skating at the 1984 Winter Olympics - Women's 1000 metres",
        "col1": "N. Petrusyova",
        "col2": "Speed skating at the 1988 Winter Olympics - Women's 1000 metres",
        "col3": "A. Ehrig-Mitscherlich"
    },
    {
        "col0": "Speed skating at the 1984 Winter Olympics - Men's 500 metres",
        "col1": "G. Boucher",
        "col2": "Speed skating at the 1988 Winter Olympics - Men's 500 metres",
        "col3": "Y. Kitazawa"
    },
    {
        "col0": "Speed skating at the 1984 Winter Olympics - Men's 5000 metres",
        "col1": "R. Schofisch",
        "col2": "Speed skating at the 1988 Winter Olympics - Men's 5000 metres",
        "col3": "I. Malkov"
    },
    {
        "col0": "Speed skating at the 1984 Winter Olympics - Men's 1500 metres",
        "col1": "O. Bozhev",
        "col2": "Speed skating at the 1988 Winter Olympics - Men's 1500 metres",
        "col3": "S. Khlebnikov"
    },
    {
        "col0": "Speed skating at the 1984 Winter Olympics - Men's 1000 metres",
        "col1": "K. A. Engelstad",
        "col2": "Speed skating at the 1988 Winter Olympics - Men's 1000 metres",
        "col3": "S. Khlebnikov"
    },
    {
        "col0": "Speed skating at the 1984 Winter Olympics - Men's 10,000 metres",
        "col1": "R. Schofisch",
        "col2": "Speed skating at the 1988 Winter Olympics - Men's 10,000 metres",
        "col3": "T. Gustafson"
    },
    {
        "col0": "Speed skating at the 1984 Winter Olympics - Women's 500 metres",
        "col1": "N. Glebova",
        "col2": "Speed skating at the 1988 Winter Olympics - Women's 500 metres",
        "col3": "K. Enke"
    },
    {
        "col0": "Speed skating at the 1984 Winter Olympics - Women's 3000 metres",
        "col1": "G. Zange",
        "col2": "Speed skating at the 1988 Winter Olympics - Women's 3000 metres",
        "col3": "K. Enke"
    },
    {
        "col0": "Speed skating at the 1984 Winter Olympics - Women's 1500 metres",
        "col1": "N. Petrusyova",
        "col2": "Speed skating at the 1988 Winter Olympics - Women's 1500 metres",
        "col3": "A. Ehrig-Mitscherlich"
    },
    {
        "col0": "Speed skating at the 1984 Winter Olympics - Women's 1000 metres",
        "col1": "N. Petrusyova",
        "col2": "Speed skating at the 1988 Winter Olympics - Women's 1000 metres",
        "col3": "A. Ehrig-Mitscherlich"
    },
    {
        "col0": "Speed skating at the 1984 Winter Olympics - Men's 500 metres",
        "col1": "G. Boucher",
        "col2": "Speed skating at the 1988 Winter Olympics - Men's 500 metres",
        "col3": "Y. Kitazawa"
    },
    {
        "col0": "Speed skating at the 1984 Winter Olympics - Men's 5000 metres",
        "col1": "R. Schofisch",
        "col2": "Speed skating at the 1988 Winter Olympics - Men's 5000 metres",
        "col3": "I. Malkov"
    },
    {
        "col0": "Speed skating at the 1984 Winter Olympics - Men's 1500 metres",
        "col1": "O. Bozhev",
        "col2": "Speed skating at the 1988 Winter Olympics - Men's 1500 metres",
        "col3": "S. Khlebnikov"
    },
    {
        "col0": "Speed skating at the 1984 Winter Olympics - Men's 1000 metres",
        "col1": "K. A. Engelstad",
        "col2": "Speed skating at the 1988 Winter Olympics - Men's 1000 metres",
        "col3": "S. Khlebnikov"
    },
    {
        "col0": "Speed skating at the 1984 Winter Olympics - Men's 10,000 metres",
        "col1": "R. Schofisch",
        "col2": "Speed skating at the 1988 Winter Olympics - Men's 10,000 metres",
        "col3": "T. Gustafson"
    },
    {
        "col0": "Speed skating at the 1980 Winter Olympics - Women's 500 metres",
        "col1": "N. Petrusyova",
        "col2": "Speed skating at the 1984 Winter Olympics - Women's 500 metres",
        "col3": "L. Poulos-Mueller"
    },
    {
        "col0": "Speed skating at the 1980 Winter Olympics - Women's 3000 metres",
        "col1": "B. Heiden",
        "col2": "Speed skating at the 1984 Winter Olympics - Women's 3000 metres",
        "col3": "S. Becker"
    },
    {
        "col0": "Speed skating at the 1980 Winter Olympics - Women's 1500 metres",
        "col1": "S. Becker",
        "col2": "Speed skating at the 1984 Winter Olympics - Women's 1500 metres",
        "col3": "R. Visser"
    },
    {
        "col0": "Speed skating at the 1980 Winter Olympics - Women's 1000 metres",
        "col1": "S. Albrecht",
        "col2": "Speed skating at the 1984 Winter Olympics - Women's 1000 metres",
        "col3": "L. Poulos-Mueller"
    },
    {
        "col0": "Speed skating at the 1980 Winter Olympics - Men's 500 metres",
        "col1": "L. d. Boer",
        "col2": "Speed skating at the 1984 Winter Olympics - Men's 500 metres",
        "col3": "Y. Kulikov"
    },
    {
        "col0": "Speed skating at the 1980 Winter Olympics - Men's 5000 metres",
        "col1": "T. E. Oxholm",
        "col2": "Speed skating at the 1984 Winter Olympics - Men's 5000 metres",
        "col3": "K. Stenshjemmet"
    },
    {
        "col0": "Speed skating at the 1980 Winter Olympics - Men's 1500 metres",
        "col1": "T. Andersen",
        "col2": "Speed skating at the 1984 Winter Olympics - Men's 1500 metres",
        "col3": "K. A. Stenshjemmet"
    },
    {
        "col0": "Speed skating at the 1980 Winter Olympics - Men's 1000 metres",
        "col1": "V. Lobanov",
        "col2": "Speed skating at the 1984 Winter Olympics - Men's 1000 metres",
        "col3": "G. Boucher"
    },
    {
        "col0": "Speed skating at the 1980 Winter Olympics - Men's 10,000 metres",
        "col1": "T. E. Oxholm",
        "col2": "Speed skating at the 1984 Winter Olympics - Men's 10,000 metres",
        "col3": "P. Kleine"
    },
    {
        "col0": "Speed skating at the 1980 Winter Olympics - Women's 500 metres",
        "col1": "N. Petrusyova",
        "col2": "Speed skating at the 1984 Winter Olympics - Women's 500 metres",
        "col3": "L. Poulos-Mueller"
    },
    {
        "col0": "Speed skating at the 1980 Winter Olympics - Women's 3000 metres",
        "col1": "B. Heiden",
        "col2": "Speed skating at the 1984 Winter Olympics - Women's 3000 metres",
        "col3": "S. Becker"
    },
    {
        "col0": "Speed skating at the 1980 Winter Olympics - Women's 1500 metres",
        "col1": "S. Becker",
        "col2": "Speed skating at the 1984 Winter Olympics - Women's 1500 metres",
        "col3": "R. Visser"
    },
    {
        "col0": "Speed skating at the 1980 Winter Olympics - Women's 1000 metres",
        "col1": "S. Albrecht",
        "col2": "Speed skating at the 1984 Winter Olympics - Women's 1000 metres",
        "col3": "L. Poulos-Mueller"
    },
    {
        "col0": "Speed skating at the 1980 Winter Olympics - Men's 500 metres",
        "col1": "L. d. Boer",
        "col2": "Speed skating at the 1984 Winter Olympics - Men's 500 metres",
        "col3": "Y. Kulikov"
    },
    {
        "col0": "Speed skating at the 1980 Winter Olympics - Men's 5000 metres",
        "col1": "T. E. Oxholm",
        "col2": "Speed skating at the 1984 Winter Olympics - Men's 5000 metres",
        "col3": "K. Stenshjemmet"
    },
    {
        "col0": "Speed skating at the 1980 Winter Olympics - Men's 1500 metres",
        "col1": "T. Andersen",
        "col2": "Speed skating at the 1984 Winter Olympics - Men's 1500 metres",
        "col3": "K. A. Stenshjemmet"
    },
    {
        "col0": "Speed skating at the 1980 Winter Olympics - Men's 1000 metres",
        "col1": "V. Lobanov",
        "col2": "Speed skating at the 1984 Winter Olympics - Men's 1000 metres",
        "col3": "G. Boucher"
    },
    {
        "col0": "Speed skating at the 1980 Winter Olympics - Men's 10,000 metres",
        "col1": "T. E. Oxholm",
        "col2": "Speed skating at the 1984 Winter Olympics - Men's 10,000 metres",
        "col3": "P. Kleine"
    },
    {
        "col0": "Speed skating at the 1976 Winter Olympics - Women's 500 metres",
        "col1": "T. Averina",
        "col2": "Speed skating at the 1980 Winter Olympics - Women's 500 metres",
        "col3": "C. Priestner"
    },
    {
        "col0": "Speed skating at the 1976 Winter Olympics - Women's 3000 metres",
        "col1": "L. Korsmo-Berg",
        "col2": "Speed skating at the 1980 Winter Olympics - Women's 3000 metres",
        "col3": "A. Ehrig-Mitscherlich"
    },
    {
        "col0": "Speed skating at the 1976 Winter Olympics - Women's 1500 metres",
        "col1": "T. Averina",
        "col2": "Speed skating at the 1980 Winter Olympics - Women's 1500 metres",
        "col3": "S. Young"
    },
    {
        "col0": "Speed skating at the 1976 Winter Olympics - Women's 1000 metres",
        "col1": "S. Young",
        "col2": "Speed skating at the 1980 Winter Olympics - Women's 1000 metres",
        "col3": "L. Poulos-Mueller"
    },
    {
        "col0": "Speed skating at the 1976 Winter Olympics - Men's 500 metres",
        "col1": "D. Immerfall",
        "col2": "Speed skating at the 1980 Winter Olympics - Men's 500 metres",
        "col3": "V. Muratov"
    },
    {
        "col0": "Speed skating at the 1976 Winter Olympics - Men's 5000 metres",
        "col1": "H. v. Helden",
        "col2": "Speed skating at the 1980 Winter Olympics - Men's 5000 metres",
        "col3": "P. Kleine"
    },
    {
        "col0": "Speed skating at the 1976 Winter Olympics - Men's 1500 metres",
        "col1": "H. v. Helden",
        "col2": "Speed skating at the 1980 Winter Olympics - Men's 1500 metres",
        "col3": "Y. Kondakov"
    },
    {
        "col0": "Speed skating at the 1976 Winter Olympics - Men's 1000 metres",
        "col1": "V. Muratov",
        "col2": "Speed skating at the 1980 Winter Olympics - Men's 1000 metres",
        "col3": "J. Didriksen"
    },
    {
        "col0": "Speed skating at the 1976 Winter Olympics - Men's 10,000 metres",
        "col1": "H. v. Helden",
        "col2": "Speed skating at the 1980 Winter Olympics - Men's 10,000 metres",
        "col3": "S. Stensen"
    },
    {
        "col0": "Speed skating at the 1976 Winter Olympics - Women's 500 metres",
        "col1": "T. Averina",
        "col2": "Speed skating at the 1980 Winter Olympics - Women's 500 metres",
        "col3": "C. Priestner"
    },
    {
        "col0": "Speed skating at the 1976 Winter Olympics - Women's 3000 metres",
        "col1": "L. Korsmo-Berg",
        "col2": "Speed skating at the 1980 Winter Olympics - Women's 3000 metres",
        "col3": "A. Ehrig-Mitscherlich"
    },
    {
        "col0": "Speed skating at the 1976 Winter Olympics - Women's 1500 metres",
        "col1": "T. Averina",
        "col2": "Speed skating at the 1980 Winter Olympics - Women's 1500 metres",
        "col3": "S. Young"
    },
    {
        "col0": "Speed skating at the 1976 Winter Olympics - Women's 1000 metres",
        "col1": "S. Young",
        "col2": "Speed skating at the 1980 Winter Olympics - Women's 1000 metres",
        "col3": "L. Poulos-Mueller"
    },
    {
        "col0": "Speed skating at the 1976 Winter Olympics - Men's 500 metres",
        "col1": "D. Immerfall",
        "col2": "Speed skating at the 1980 Winter Olympics - Men's 500 metres",
        "col3": "V. Muratov"
    },
    {
        "col0": "Speed skating at the 1976 Winter Olympics - Men's 5000 metres",
        "col1": "H. v. Helden",
        "col2": "Speed skating at the 1980 Winter Olympics - Men's 5000 metres",
        "col3": "P. Kleine"
    },
    {
        "col0": "Speed skating at the 1976 Winter Olympics - Men's 1500 metres",
        "col1": "H. v. Helden",
        "col2": "Speed skating at the 1980 Winter Olympics - Men's 1500 metres",
        "col3": "Y. Kondakov"
    },
    {
        "col0": "Speed skating at the 1976 Winter Olympics - Men's 1000 metres",
        "col1": "V. Muratov",
        "col2": "Speed skating at the 1980 Winter Olympics - Men's 1000 metres",
        "col3": "J. Didriksen"
    },
    {
        "col0": "Speed skating at the 1976 Winter Olympics - Men's 10,000 metres",
        "col1": "H. v. Helden",
        "col2": "Speed skating at the 1980 Winter Olympics - Men's 10,000 metres",
        "col3": "S. Stensen"
    },
    {
        "col0": "Speed skating at the 1972 Winter Olympics - Women's 500 metres",
        "col1": "L. Titova",
        "col2": "Speed skating at the 1976 Winter Olympics - Women's 500 metres",
        "col3": "V. Krasnova"
    },
    {
        "col0": "Speed skating at the 1972 Winter Olympics - Women's 3000 metres",
        "col1": "A. Keulen-Deelstra",
        "col2": "Speed skating at the 1976 Winter Olympics - Women's 3000 metres",
        "col3": "D. Holum"
    },
    {
        "col0": "Speed skating at the 1972 Winter Olympics - Women's 1500 metres",
        "col1": "A. Keulen-Deelstra",
        "col2": "Speed skating at the 1976 Winter Olympics - Women's 1500 metres",
        "col3": "S. Kaiser"
    },
    {
        "col0": "Speed skating at the 1972 Winter Olympics - Women's 1000 metres",
        "col1": "A. Henning",
        "col2": "Speed skating at the 1976 Winter Olympics - Women's 1000 metres",
        "col3": "A. Keulen-Deelstra"
    },
    {
        "col0": "Speed skating at the 1972 Winter Olympics - Men's 500 metres",
        "col1": "V. Muratov",
        "col2": "Speed skating at the 1976 Winter Olympics - Men's 500 metres",
        "col3": "H. Borjes"
    },
    {
        "col0": "Speed skating at the 1972 Winter Olympics - Men's 5000 metres",
        "col1": "S. Stensen",
        "col2": "Speed skating at the 1976 Winter Olympics - Men's 5000 metres",
        "col3": "R. Gronvold"
    },
    {
        "col0": "Speed skating at the 1972 Winter Olympics - Men's 1500 metres",
        "col1": "G. Claeson",
        "col2": "Speed skating at the 1976 Winter Olympics - Men's 1500 metres",
        "col3": "R. Gronvold"
    },
    {
        "col0": "Speed skating at the 1972 Winter Olympics - Men's 10,000 metres",
        "col1": "S. Stensen",
        "col2": "Speed skating at the 1976 Winter Olympics - Men's 10,000 metres",
        "col3": "K. Verkerk"
    },
    {
        "col0": "Speed skating at the 1972 Winter Olympics - Women's 500 metres",
        "col1": "L. Titova",
        "col2": "Speed skating at the 1976 Winter Olympics - Women's 500 metres",
        "col3": "V. Krasnova"
    },
    {
        "col0": "Speed skating at the 1972 Winter Olympics - Women's 3000 metres",
        "col1": "A. Keulen-Deelstra",
        "col2": "Speed skating at the 1976 Winter Olympics - Women's 3000 metres",
        "col3": "D. Holum"
    },
    {
        "col0": "Speed skating at the 1972 Winter Olympics - Women's 1500 metres",
        "col1": "A. Keulen-Deelstra",
        "col2": "Speed skating at the 1976 Winter Olympics - Women's 1500 metres",
        "col3": "S. Kaiser"
    },
    {
        "col0": "Speed skating at the 1972 Winter Olympics - Women's 1000 metres",
        "col1": "A. Henning",
        "col2": "Speed skating at the 1976 Winter Olympics - Women's 1000 metres",
        "col3": "A. Keulen-Deelstra"
    },
    {
        "col0": "Speed skating at the 1972 Winter Olympics - Men's 500 metres",
        "col1": "V. Muratov",
        "col2": "Speed skating at the 1976 Winter Olympics - Men's 500 metres",
        "col3": "H. Borjes"
    },
    {
        "col0": "Speed skating at the 1972 Winter Olympics - Men's 5000 metres",
        "col1": "S. Stensen",
        "col2": "Speed skating at the 1976 Winter Olympics - Men's 5000 metres",
        "col3": "R. Gronvold"
    },
    {
        "col0": "Speed skating at the 1972 Winter Olympics - Men's 1500 metres",
        "col1": "G. Claeson",
        "col2": "Speed skating at the 1976 Winter Olympics - Men's 1500 metres",
        "col3": "R. Gronvold"
    },
    {
        "col0": "Speed skating at the 1972 Winter Olympics - Men's 10,000 metres",
        "col1": "S. Stensen",
        "col2": "Speed skating at the 1976 Winter Olympics - Men's 10,000 metres",
        "col3": "K. Verkerk"
    },
    {
        "col0": "Speed skating at the 1968 Winter Olympics - Women's 3000 metres",
        "col1": "S. Kaiser",
        "col2": "Speed skating at the 1972 Winter Olympics - Women's 3000 metres",
        "col3": "K. Mustonen"
    },
    {
        "col0": "Speed skating at the 1968 Winter Olympics - Women's 1500 metres",
        "col1": "S. Kaiser",
        "col2": "Speed skating at the 1972 Winter Olympics - Women's 1500 metres",
        "col3": "C. Geijssen"
    },
    {
        "col0": "Speed skating at the 1968 Winter Olympics - Women's 1000 metres",
        "col1": "D. Holum",
        "col2": "Speed skating at the 1972 Winter Olympics - Women's 1000 metres",
        "col3": "L. Titova"
    },
    {
        "col0": "Speed skating at the 1968 Winter Olympics - Men's 5000 metres",
        "col1": "P. Nottet",
        "col2": "Speed skating at the 1972 Winter Olympics - Men's 5000 metres",
        "col3": "K. Verkerk"
    },
    {
        "col0": "Speed skating at the 1968 Winter Olympics - Men's 10,000 metres",
        "col1": "O. Sandler",
        "col2": "Speed skating at the 1972 Winter Olympics - Men's 10,000 metres",
        "col3": "F. A. Maier"
    },
    {
        "col0": "Speed skating at the 1968 Winter Olympics - Women's 3000 metres",
        "col1": "S. Kaiser",
        "col2": "Speed skating at the 1972 Winter Olympics - Women's 3000 metres",
        "col3": "K. Mustonen"
    },
    {
        "col0": "Speed skating at the 1968 Winter Olympics - Women's 1500 metres",
        "col1": "S. Kaiser",
        "col2": "Speed skating at the 1972 Winter Olympics - Women's 1500 metres",
        "col3": "C. Geijssen"
    },
    {
        "col0": "Speed skating at the 1968 Winter Olympics - Women's 1000 metres",
        "col1": "D. Holum",
        "col2": "Speed skating at the 1972 Winter Olympics - Women's 1000 metres",
        "col3": "L. Titova"
    },
    {
        "col0": "Speed skating at the 1968 Winter Olympics - Men's 5000 metres",
        "col1": "P. Nottet",
        "col2": "Speed skating at the 1972 Winter Olympics - Men's 5000 metres",
        "col3": "K. Verkerk"
    },
    {
        "col0": "Speed skating at the 1968 Winter Olympics - Men's 10,000 metres",
        "col1": "O. Sandler",
        "col2": "Speed skating at the 1972 Winter Olympics - Men's 10,000 metres",
        "col3": "F. A. Maier"
    },
    {
        "col0": "Speed skating at the 1964 Winter Olympics - Women's 500 metres",
        "col1": "T. Sidorova",
        "col2": "Speed skating at the 1968 Winter Olympics - Women's 500 metres",
        "col3": "I. Yegorova"
    },
    {
        "col0": "Speed skating at the 1964 Winter Olympics - Women's 1500 metres",
        "col1": "B. Kolokoltseva",
        "col2": "Speed skating at the 1968 Winter Olympics - Women's 1500 metres",
        "col3": "K. Mustonen"
    },
    {
        "col0": "Speed skating at the 1964 Winter Olympics - Women's 1000 metres",
        "col1": "K. Mustonen",
        "col2": "Speed skating at the 1968 Winter Olympics - Women's 1000 metres",
        "col3": "L. Titova"
    },
    {
        "col0": "Speed skating at the 1964 Winter Olympics - Men's 5000 metres",
        "col1": "F. A. Maier",
        "col2": "Speed skating at the 1968 Winter Olympics - Men's 5000 metres",
        "col3": "P. I. Moe"
    },
    {
        "col0": "Speed skating at the 1964 Winter Olympics - Men's 1500 metres",
        "col1": "V. Haugen",
        "col2": "Speed skating at the 1968 Winter Olympics - Men's 1500 metres",
        "col3": "K. Verkerk"
    },
    {
        "col0": "Speed skating at the 1964 Winter Olympics - Men's 10,000 metres",
        "col1": "K. Johannesen",
        "col2": "Speed skating at the 1968 Winter Olympics - Men's 10,000 metres",
        "col3": "F. A. Maier"
    },
    {
        "col0": "Speed skating at the 1964 Winter Olympics - Women's 500 metres",
        "col1": "T. Sidorova",
        "col2": "Speed skating at the 1968 Winter Olympics - Women's 500 metres",
        "col3": "I. Yegorova"
    },
    {
        "col0": "Speed skating at the 1964 Winter Olympics - Women's 1500 metres",
        "col1": "B. Kolokoltseva",
        "col2": "Speed skating at the 1968 Winter Olympics - Women's 1500 metres",
        "col3": "K. Mustonen"
    },
    {
        "col0": "Speed skating at the 1964 Winter Olympics - Women's 1000 metres",
        "col1": "K. Mustonen",
        "col2": "Speed skating at the 1968 Winter Olympics - Women's 1000 metres",
        "col3": "L. Titova"
    },
    {
        "col0": "Speed skating at the 1964 Winter Olympics - Men's 5000 metres",
        "col1": "F. A. Maier",
        "col2": "Speed skating at the 1968 Winter Olympics - Men's 5000 metres",
        "col3": "P. I. Moe"
    },
    {
        "col0": "Speed skating at the 1964 Winter Olympics - Men's 1500 metres",
        "col1": "V. Haugen",
        "col2": "Speed skating at the 1968 Winter Olympics - Men's 1500 metres",
        "col3": "K. Verkerk"
    },
    {
        "col0": "Speed skating at the 1964 Winter Olympics - Men's 10,000 metres",
        "col1": "K. Johannesen",
        "col2": "Speed skating at the 1968 Winter Olympics - Men's 10,000 metres",
        "col3": "F. A. Maier"
    },
    {
        "col0": "Speed skating at the 1960 Winter Olympics - Women's 500 metres",
        "col1": "J. Ashworth",
        "col2": "Speed skating at the 1964 Winter Olympics - Women's 500 metres",
        "col3": "N. Donchenko"
    },
    {
        "col0": "Speed skating at the 1960 Winter Olympics - Women's 3000 metres",
        "col1": "E. Huttunen",
        "col2": "Speed skating at the 1964 Winter Olympics - Women's 3000 metres",
        "col3": "V. Stenina"
    },
    {
        "col0": "Speed skating at the 1960 Winter Olympics - Women's 1500 metres",
        "col1": "H. Pilejczyk",
        "col2": "Speed skating at the 1964 Winter Olympics - Women's 1500 metres",
        "col3": "E. Seroczynska"
    },
    {
        "col0": "Speed skating at the 1960 Winter Olympics - Women's 1000 metres",
        "col1": "T. Rylova",
        "col2": "Speed skating at the 1964 Winter Olympics - Women's 1000 metres",
        "col3": "H. Haase"
    },
    {
        "col0": "Speed skating at the 1960 Winter Olympics - Men's 500 metres",
        "col1": "R. Grach",
        "col2": "Speed skating at the 1964 Winter Olympics - Men's 500 metres",
        "col3": "B. Disney"
    },
    {
        "col0": "Speed skating at the 1960 Winter Olympics - Men's 5000 metres",
        "col1": "J. Pesman",
        "col2": "Speed skating at the 1964 Winter Olympics - Men's 5000 metres",
        "col3": "K. Johannesen"
    },
    {
        "col0": "Speed skating at the 1960 Winter Olympics - Men's 10,000 metres",
        "col1": "K. Backman",
        "col2": "Speed skating at the 1964 Winter Olympics - Men's 10,000 metres",
        "col3": "V. Kosichkin"
    },
    {
        "col0": "Speed skating at the 1960 Winter Olympics - Women's 500 metres",
        "col1": "J. Ashworth",
        "col2": "Speed skating at the 1964 Winter Olympics - Women's 500 metres",
        "col3": "N. Donchenko"
    },
    {
        "col0": "Speed skating at the 1960 Winter Olympics - Women's 3000 metres",
        "col1": "E. Huttunen",
        "col2": "Speed skating at the 1964 Winter Olympics - Women's 3000 metres",
        "col3": "V. Stenina"
    },
    {
        "col0": "Speed skating at the 1960 Winter Olympics - Women's 1500 metres",
        "col1": "H. Pilejczyk",
        "col2": "Speed skating at the 1964 Winter Olympics - Women's 1500 metres",
        "col3": "E. Seroczynska"
    },
    {
        "col0": "Speed skating at the 1960 Winter Olympics - Women's 1000 metres",
        "col1": "T. Rylova",
        "col2": "Speed skating at the 1964 Winter Olympics - Women's 1000 metres",
        "col3": "H. Haase"
    },
    {
        "col0": "Speed skating at the 1960 Winter Olympics - Men's 500 metres",
        "col1": "R. Grach",
        "col2": "Speed skating at the 1964 Winter Olympics - Men's 500 metres",
        "col3": "B. Disney"
    },
    {
        "col0": "Speed skating at the 1960 Winter Olympics - Men's 5000 metres",
        "col1": "J. Pesman",
        "col2": "Speed skating at the 1964 Winter Olympics - Men's 5000 metres",
        "col3": "K. Johannesen"
    },
    {
        "col0": "Speed skating at the 1960 Winter Olympics - Men's 10,000 metres",
        "col1": "K. Backman",
        "col2": "Speed skating at the 1964 Winter Olympics - Men's 10,000 metres",
        "col3": "V. Kosichkin"
    },
    {
        "col0": "Speed skating at the 1956 Winter Olympics - Men's 500 metres",
        "col1": "A. Gjestvang",
        "col2": "Speed skating at the 1960 Winter Olympics - Men's 500 metres",
        "col3": "R. Grach"
    },
    {
        "col0": "Speed skating at the 1956 Winter Olympics - Men's 5000 metres",
        "col1": "O. Goncharenko",
        "col2": "Speed skating at the 1960 Winter Olympics - Men's 5000 metres",
        "col3": "S. Ericsson"
    },
    {
        "col0": "Speed skating at the 1956 Winter Olympics - Men's 10,000 metres",
        "col1": "O. Goncharenko",
        "col2": "Speed skating at the 1960 Winter Olympics - Men's 10,000 metres",
        "col3": "K. Johannesen"
    },
    {
        "col0": "Speed skating at the 1956 Winter Olympics - Men's 500 metres",
        "col1": "A. Gjestvang",
        "col2": "Speed skating at the 1960 Winter Olympics - Men's 500 metres",
        "col3": "R. Grach"
    },
    {
        "col0": "Speed skating at the 1956 Winter Olympics - Men's 5000 metres",
        "col1": "O. Goncharenko",
        "col2": "Speed skating at the 1960 Winter Olympics - Men's 5000 metres",
        "col3": "S. Ericsson"
    },
    {
        "col0": "Speed skating at the 1956 Winter Olympics - Men's 10,000 metres",
        "col1": "O. Goncharenko",
        "col2": "Speed skating at the 1960 Winter Olympics - Men's 10,000 metres",
        "col3": "K. Johannesen"
    },
    {
        "col0": "Speed skating at the 1952 Winter Olympics - Men's 500 metres",
        "col1": "G. Audley",
        "col2": "Speed skating at the 1956 Winter Olympics - Men's 500 metres",
        "col3": "D. McDermott"
    }
]