[
    {
        "col0": "E. Beddoes",
        "col1": "Nottingham, England",
        "col2": "England",
        "col3": "1985-08-29",
        "col4": "1985-08-29"
    },
    {
        "col0": "E. Whitlock",
        "col1": "Wales",
        "col2": "England",
        "col3": "1994-02-15",
        "col4": "1994-02-15"
    },
    {
        "col0": "E. S. Garriga",
        "col1": "Barcelona",
        "col2": "Barcelona",
        "col3": "1981-09-22",
        "col4": "1981-09-22"
    },
    {
        "col0": "E. Wagenmans",
        "col1": "United States",
        "col2": "Belgium",
        "col3": "2000-09-09",
        "col4": "2000-09-09"
    },
    {
        "col0": "E. L. Moller",
        "col1": "Barcelona",
        "col2": "Spain",
        "col3": "1996-07-16",
        "col4": "1996-07-16"
    },
    {
        "col0": "E. Charlton",
        "col1": "England",
        "col2": "England",
        "col3": "1988-07-11",
        "col4": "1988-07-11"
    },
    {
        "col0": "D. Murray",
        "col1": "United States",
        "col2": "United States",
        "col3": "1995-04-29",
        "col4": "1995-04-29"
    },
    {
        "col0": "D. Bennett",
        "col1": "Eindhoven, Netherlands",
        "col2": "Eindhoven",
        "col3": "1984-09-17",
        "col4": "1984-09-17"
    },
    {
        "col0": "D. Kempsell",
        "col1": "Edinburgh",
        "col2": "Edinburgh",
        "col3": "1993-04-13",
        "col4": "1993-04-13"
    },
    {
        "col0": "D. Urquhart",
        "col1": "Queensland, Australia",
        "col2": "Yamba, New South Wales",
        "col3": "1986-12-19",
        "col4": "1986-12-19"
    },
    {
        "col0": "D. Lloyd-Walter",
        "col1": "Guildford",
        "col2": "Middlesex",
        "col3": "1981-06-17",
        "col4": "1981-06-17"
    },
    {
        "col0": "D. Lau",
        "col1": "Hong Kong",
        "col2": "Hong Kong",
        "col3": "1985-12-20",
        "col4": "1985-12-20"
    },
    {
        "col0": "D. Ryan",
        "col1": "Dublin",
        "col2": "Ireland",
        "col3": "1969-09-10",
        "col4": "1969-09-10"
    },
    {
        "col0": "D. Arnold",
        "col1": "Malaysia",
        "col2": "Malaysia",
        "col3": "1986-01-26",
        "col4": "1986-01-26"
    },
    {
        "col0": "D. James",
        "col1": "England",
        "col2": "England",
        "col3": "1993-04-19",
        "col4": "1993-04-19"
    },
    {
        "col0": "D. Bianchetti",
        "col1": "Brescia",
        "col2": "Brescia",
        "col3": "1977-03-08",
        "col4": "1977-03-08"
    },
    {
        "col0": "D. Palmer",
        "col1": "United States",
        "col2": "New South Wales",
        "col3": "1976-06-28",
        "col4": "1976-06-28"
    },
    {
        "col0": "D. Letourneau",
        "col1": "Princeton, New Jersey",
        "col2": "Canada",
        "col3": "1989-04-18",
        "col4": "1989-04-18"
    },
    {
        "col0": "D. Evans",
        "col1": "Pontypool",
        "col2": "Pontypool",
        "col3": "1974-10-24",
        "col4": "1974-10-24"
    },
    {
        "col0": "D. Selby",
        "col1": "Shenfield, Essex",
        "col2": "Harlow",
        "col3": "1982-11-03",
        "col4": "1982-11-03"
    },
    {
        "col0": "D. Letourneau",
        "col1": "Calgary",
        "col2": "Calgary",
        "col3": "1993-03-05",
        "col4": "1993-03-05"
    },
    {
        "col0": "D. Drady-Harte",
        "col1": "Gold Coast, Queensland",
        "col2": "Sydney",
        "col3": "1967-10-13",
        "col4": "1967-10-13"
    },
    {
        "col0": "D. Poleshchuk",
        "col1": "Israel",
        "col2": "Israel",
        "col3": "1996-02-11",
        "col4": "1996-02-11"
    },
    {
        "col0": "D. Sharp",
        "col1": "Ontario",
        "col2": "Ontario",
        "col3": "1985-01-01",
        "col4": "1985-01-01"
    },
    {
        "col0": "D. Jenson",
        "col1": "Adelaide",
        "col2": "Brisbane",
        "col3": "1975-06-20",
        "col4": "1975-06-20"
    },
    {
        "col0": "C. Salazar",
        "col1": "Mexico",
        "col2": "Mexico",
        "col3": "1988-01-03",
        "col4": "1988-01-03"
    },
    {
        "col0": "C. Peltier",
        "col1": "France",
        "col2": "France",
        "col3": "1992-03-30",
        "col4": "1992-03-30"
    },
    {
        "col0": "C. Aumard",
        "col1": "France",
        "col2": "France",
        "col3": "1989-06-13",
        "col4": "1989-06-13"
    },
    {
        "col0": "C. Gordon",
        "col1": "Hartford, Connecticut",
        "col2": "United States",
        "col3": "1986-07-17",
        "col4": "1986-07-17"
    },
    {
        "col0": "C. Binnie",
        "col1": "Hartford, Connecticut",
        "col2": "Jamaica",
        "col3": "1989-01-26",
        "col4": "1989-01-26"
    },
    {
        "col0": "C. Andre",
        "col1": "France",
        "col2": "France",
        "col3": "1987-05-29",
        "col4": "1987-05-29"
    },
    {
        "col0": "C. Nunn",
        "col1": "Australia",
        "col2": "Australia",
        "col3": "1991-04-04",
        "col4": "1991-04-04"
    },
    {
        "col0": "C. Simpson",
        "col1": "Guernsey",
        "col2": "Guernsey",
        "col3": "1987-03-30",
        "col4": "1987-03-30"
    },
    {
        "col0": "C. Ryder",
        "col1": "Leamington Spa, Warwickshire",
        "col2": "England",
        "col3": "1980-08-22",
        "col4": "1980-08-22"
    },
    {
        "col0": "C. Dittmar",
        "col1": "Adelaide",
        "col2": "Adelaide",
        "col3": "1964-01-16",
        "col4": "1964-01-16"
    },
    {
        "col0": "C. Mesic",
        "col1": "Bourges",
        "col2": "Boulogne Billancourt",
        "col3": "1991-06-14",
        "col4": "1991-06-14"
    },
    {
        "col0": "C. Matsui",
        "col1": "Japan",
        "col2": "Japan",
        "col3": "1977-08-08",
        "col4": "1977-08-08"
    },
    {
        "col0": "C. Tucker",
        "col1": "South Africa",
        "col2": "South Africa",
        "col3": "1990-10-02",
        "col4": "1990-10-02"
    },
    {
        "col0": "C. Y. Tang",
        "col1": "Hong Kong",
        "col2": "Hong Kong",
        "col3": "1993-07-23",
        "col4": "1993-07-23"
    },
    {
        "col0": "C. Sharpes",
        "col1": "England",
        "col2": "England",
        "col3": "1992-02-06",
        "col4": "1992-02-06"
    },
    {
        "col0": "C. Cortes",
        "col1": "United States",
        "col2": "Cambridge, MA",
        "col3": "1989-06-12",
        "col4": "1989-06-12"
    },
    {
        "col0": "C. Pelaez",
        "col1": "Colombia",
        "col2": "Bogota",
        "col3": "1991-09-04",
        "col4": "1991-09-04"
    },
    {
        "col0": "C. Jackman",
        "col1": "England",
        "col2": "England",
        "col3": "1972-12-22",
        "col4": "1972-12-22"
    },
    {
        "col0": "C. Owens",
        "col1": "Auckland",
        "col2": "Australia",
        "col3": "1971-06-04",
        "col4": "1971-06-04"
    },
    {
        "col0": "C. C. Ribadas",
        "col1": "Santiago de Compostela",
        "col2": "Santiago de Compostela",
        "col3": "1989-04-29",
        "col4": "1989-04-29"
    },
    {
        "col0": "C. Khan",
        "col1": "Karachi",
        "col2": "England",
        "col3": "1981-08-18",
        "col4": "1981-08-18"
    },
    {
        "col0": "C. Grayson",
        "col1": "New York",
        "col2": "Auckland",
        "col3": "1986-03-04",
        "col4": "1986-03-04"
    },
    {
        "col0": "C. Serme",
        "col1": "France",
        "col2": "Creteil",
        "col3": "1989-04-04",
        "col4": "1989-04-04"
    },
    {
        "col0": "C. White",
        "col1": "Belmont, Victoria",
        "col2": "Melbourne",
        "col3": "1977-04-30",
        "col4": "1977-04-30"
    },
    {
        "col0": "C. Pilley",
        "col1": "The Hague, Netherlands",
        "col2": "Yamba, New South Wales",
        "col3": "1982-10-27",
        "col4": "1982-10-27"
    },
    {
        "col0": "C. Salazar",
        "col1": "Mexico",
        "col2": "San Luis Potosi",
        "col3": "1988-01-03",
        "col4": "1988-01-03"
    },
    {
        "col0": "B. Davis",
        "col1": "Adelaide",
        "col2": "Australia",
        "col3": "1973-10-08",
        "col4": "1973-10-08"
    },
    {
        "col0": "B. Hindle",
        "col1": "Malta",
        "col2": "Mackay, Queensland",
        "col3": "1980-12-16",
        "col4": "1980-12-16"
    },
    {
        "col0": "B. Golan",
        "col1": "Santiago de Compostela",
        "col2": "Santiago de Compostela",
        "col3": "1983-01-06",
        "col4": "1983-01-06"
    },
    {
        "col0": "B. Coufal",
        "col1": "Austria",
        "col2": "Austria",
        "col3": "1985-06-21",
        "col4": "1985-06-21"
    },
    {
        "col0": "B. Samper",
        "col1": "United States",
        "col2": "Bogota",
        "col3": "1982-8-4",
        "col4": "1982-8-4"
    },
    {
        "col0": "B. Coleman",
        "col1": "England",
        "col2": "England",
        "col3": "1991-04-13",
        "col4": "1991-04-13"
    },
    {
        "col0": "B. Ashfaq",
        "col1": "Lahore",
        "col2": "Lahore",
        "col3": "1986-01-13",
        "col4": "1986-01-13"
    },
    {
        "col0": "B. Ravelli",
        "col1": "Haarlemmermeer",
        "col2": "Netherlands",
        "col3": "1987-11-16",
        "col4": "1987-11-16"
    },
    {
        "col0": "B. Wall",
        "col1": "City of Blue Mountains",
        "col2": "Perth, Western Australia",
        "col3": "1948-05-25",
        "col4": "1948-05-25"
    },
    {
        "col0": "A. Salazar",
        "col1": "Mexico",
        "col2": "Mexico",
        "col3": "1988-01-03",
        "col4": "1988-01-03"
    },
    {
        "col0": "A. Gaskin",
        "col1": "Ipswich",
        "col2": "Dublin",
        "col3": "1985-01-16",
        "col4": "1985-01-16"
    },
    {
        "col0": "A. Rehman",
        "col1": "Austria",
        "col2": "Austria",
        "col3": "1985-09-12",
        "col4": "1985-09-12"
    },
    {
        "col0": "A. Au",
        "col1": "Hong Kong",
        "col2": "Hong Kong",
        "col3": "1989-02-09",
        "col4": "1989-02-09"
    }
]