[
    {
        "col0": "I. Mullen",
        "col1": "Hamilton, Ontario",
        "col2": "Dunnville, Ontario",
        "col3": "1914-02-16"
    },
    {
        "col0": "I. Guest",
        "col1": "Philadelphia",
        "col2": "Ocean Gate, New Jersey",
        "col3": "1900-07-22"
    },
    {
        "col0": "I. Gilbert",
        "col1": "Sheffield",
        "col2": "Sheffield",
        "col3": "1903-01-22"
    },
    {
        "col0": "I. Milnikiel",
        "col1": "Skarzysko-Kamienna",
        "col2": "Warsaw",
        "col3": "1933-12-08"
    },
    {
        "col0": "I. Sorensen",
        "col1": "Denmark",
        "col2": "New Jersey",
        "col3": "1924-07-18"
    },
    {
        "col0": "I. Luzhkovsky",
        "col1": "Russia",
        "col2": "Saint Petersburg",
        "col3": "1938-03-18"
    },
    {
        "col0": "I. v. Feggelen",
        "col1": "Amsterdam",
        "col2": "Amsterdam",
        "col3": "1921-1-1"
    },
    {
        "col0": "H. Malmrot",
        "col1": "Orebro",
        "col2": "Karlskrona",
        "col3": "1900-11-29"
    },
    {
        "col0": "H. Lundevall",
        "col1": "Stockholm",
        "col2": "Stockholm",
        "col3": "1892-12-07"
    },
    {
        "col0": "H. Jonsson",
        "col1": "Helsinki",
        "col2": "Helsinki",
        "col3": "1884-02-25"
    },
    {
        "col0": "H. Goetz",
        "col1": "Chicago",
        "col2": "Foley, Alabama",
        "col3": "1884-10-18"
    },
    {
        "col0": "H. Patterson",
        "col1": "Saginaw, Michigan",
        "col2": "Frankenmuth, Michigan",
        "col3": "1927-09-18"
    },
    {
        "col0": "H. Gregor",
        "col1": "West Prussia",
        "col2": "Leipzig",
        "col3": "1938-07-24"
    },
    {
        "col0": "H. Iglesias",
        "col1": "Buenos Aires",
        "col2": "Argentina",
        "col3": "1942-04-29"
    },
    {
        "col0": "H. Topel",
        "col1": "Gothenburg",
        "col2": "Gothenburg",
        "col3": "1904-01-04"
    },
    {
        "col0": "H. Saxtorph",
        "col1": "Midtjylland",
        "col2": "Copenhagen",
        "col3": "1883-04-19"
    },
    {
        "col0": "H. Topel",
        "col1": "Gothenburg",
        "col2": "Goteborg",
        "col3": "1904-01-04"
    },
    {
        "col0": "H. Furuhashi",
        "col1": "Yuto, Shizuoka",
        "col2": "Italy",
        "col3": "1928-09-16"
    },
    {
        "col0": "H. Schrader",
        "col1": "Stassfurt",
        "col2": "Magdeburg",
        "col3": "1910-01-04"
    },
    {
        "col0": "H. James",
        "col1": "Warrington",
        "col2": "Birkenhead",
        "col3": "1904-04-27"
    },
    {
        "col0": "H. Stindt",
        "col1": "Bremerhaven",
        "col2": "Hanover",
        "col3": "1888-1-3"
    },
    {
        "col0": "H. Cederberg",
        "col1": "Grand Duchy of Finland",
        "col2": "Vaasa",
        "col3": "1883-09-07"
    },
    {
        "col0": "Herman Alexander de By",
        "col1": "Rotterdam",
        "col2": "Rotterdam",
        "col3": "1873-02-16"
    },
    {
        "col0": "H. v. Petersdorff",
        "col1": "Berlin",
        "col2": "Darmstadt",
        "col3": "1882-1-2"
    },
    {
        "col0": "H. Wetter",
        "col1": "Nedre Eiker",
        "col2": "Oslo",
        "col3": "1891-03-15"
    },
    {
        "col0": "H. Taylor",
        "col1": "Chicago, Illinois",
        "col2": "Chicago",
        "col3": "1892-06-07"
    },
    {
        "col0": "H. Klein",
        "col1": "Wroclaw",
        "col2": "Munich",
        "col3": "1923-3-25"
    },
    {
        "col0": "H. Heinrich",
        "col1": "Leipzig",
        "col2": "Dusseldorf",
        "col3": "1899-7-29"
    },
    {
        "col0": "H. Haresnape",
        "col1": "Liverpool",
        "col2": "Birkenhead",
        "col3": "1880-07-02"
    },
    {
        "col0": "H. Taylor",
        "col1": "Oldham",
        "col2": "Oldham",
        "col3": "1885-03-17"
    },
    {
        "col0": "H. Hajos",
        "col1": "Budapest",
        "col2": "Budapest",
        "col3": "1886-07-21"
    },
    {
        "col0": "H. v. Osch",
        "col1": "Groningen",
        "col2": "Zwolle",
        "col3": "1945-04-12"
    },
    {
        "col0": "H. P. Jr.",
        "col1": "Tourcoing",
        "col2": "Marcq-en-Baroeul",
        "col3": "1928-08-21"
    },
    {
        "col0": "H. Padou",
        "col1": "Tourcoing",
        "col2": "Wasquehal",
        "col3": "1898-05-15"
    },
    {
        "col0": "H. Madison",
        "col1": "Madison, Wisconsin",
        "col2": "Seattle",
        "col3": "1913-06-19"
    },
    {
        "col0": "H. Wainwright",
        "col1": "New York City",
        "col2": "Hampton Bays, New York",
        "col3": "1906-03-15"
    },
    {
        "col0": "H. Varcoe",
        "col1": "Truro",
        "col2": "Croydon",
        "col3": "1907-02-18"
    },
    {
        "col0": "H. Johns",
        "col1": "Boston",
        "col2": "Sumter, South Carolina",
        "col3": "1914-09-25"
    },
    {
        "col0": "H. Arendt",
        "col1": "Berlin",
        "col2": "Germany",
        "col3": "1917-05-16"
    },
    {
        "col0": "H. Hietanen",
        "col1": "Helsinki",
        "col2": "Helsinki",
        "col3": "1914-08-30"
    },
    {
        "col0": "H. Matsuzawa",
        "col1": "Kyoto Prefecture",
        "col2": "Nishinomiya",
        "col3": "1914-1-8"
    },
    {
        "col0": "H. Hebner",
        "col1": "Chicago, Illinois",
        "col2": "Lake Worth, Florida",
        "col3": "1891-06-15"
    },
    {
        "col0": "H. Hay",
        "col1": "Maitland, New South Wales",
        "col2": "Manly, New South Wales",
        "col3": "1893-1-1"
    },
    {
        "col0": "H. Glancy",
        "col1": "Bens Run, West Virginia",
        "col2": "New Orleans",
        "col3": "1904-09-17"
    },
    {
        "col0": "H. Forssell",
        "col1": "Brazil",
        "col2": "Brazil",
        "col3": "1905-3-1"
    },
    {
        "col0": "H. Lara",
        "col1": "Sao Paulo",
        "col2": "Sao Paulo",
        "col3": "1934-06-09"
    },
    {
        "col0": "H. Kruger",
        "col1": "Honolulu",
        "col2": "Burbank, California",
        "col3": "1897-09-21"
    },
    {
        "col0": "H. Hardwick",
        "col1": "Balmain, New South Wales",
        "col2": "Sydney",
        "col3": "1888-12-14"
    },
    {
        "col0": "H. Annison",
        "col1": "London Borough of Hackney",
        "col2": "Worthing",
        "col3": "1895-12-27"
    },
    {
        "col0": "H. Julin",
        "col1": "Stockholm",
        "col2": "Stockholm",
        "col3": "1890-03-27"
    },
    {
        "col0": "H. Malmstrom",
        "col1": "Frederiksberg",
        "col2": "Ordrup",
        "col3": "1912-11-15"
    },
    {
        "col0": "H. Termeulen",
        "col1": "Germany",
        "col2": "Amsterdam",
        "col3": "1929-02-18"
    },
    {
        "col0": "H. Malmrot",
        "col1": "Orebro",
        "col2": "Karlskrona",
        "col3": "1900-11-29"
    },
    {
        "col0": "G. Persson",
        "col1": "Stockholm",
        "col2": "Malmo",
        "col3": "1904-01-08"
    },
    {
        "col0": "G. Larsson",
        "col1": "Uppsala",
        "col2": "Haninge",
        "col3": "1932-05-24"
    },
    {
        "col0": "G. Szigritz",
        "col1": "Slovakia",
        "col2": "Hungary",
        "col3": "1907-01-18"
    },
    {
        "col0": "G. Kadas",
        "col1": "Eger",
        "col2": "Budapest",
        "col3": "1926-8-7"
    },
    {
        "col0": "G. Meister",
        "col1": "Paris",
        "col2": "Amiens",
        "col3": "1889-09-04"
    },
    {
        "col0": "G. Blitz",
        "col1": "Amsterdam",
        "col2": "Ganshoren",
        "col3": "1901-08-01"
    },
    {
        "col0": "G. Dekker",
        "col1": "Zaandam",
        "col2": "Zaandam",
        "col3": "1904-12-10"
    },
    {
        "col0": "G. Piller",
        "col1": "Hungary",
        "col2": "San Francisco",
        "col3": "1899-06-19"
    },
    {
        "col0": "G. Mitro",
        "col1": "Nyiregyhaza",
        "col2": "Budapest",
        "col3": "1930-3-6"
    },
    {
        "col0": "G. Csordas",
        "col1": "Hungary",
        "col2": "Budapest",
        "col3": "1928-10-06"
    },
    {
        "col0": "G. Kanasy",
        "col1": "Austria-Hungary",
        "col2": "Los Angeles",
        "col3": "1913-10-21"
    },
    {
        "col0": "G. Piller",
        "col1": "Hungary",
        "col2": "San Francisco",
        "col3": "1899-06-19"
    },
    {
        "col0": "G. Mitro",
        "col1": "Nyiregyhaza",
        "col2": "Budapest",
        "col3": "1930-3-6"
    },
    {
        "col0": "G. Csordas",
        "col1": "Hungary",
        "col2": "Budapest",
        "col3": "1928-10-06"
    },
    {
        "col0": "G. Kettesi",
        "col1": "Debrecen",
        "col2": "Budapest",
        "col3": "1929-05-17"
    },
    {
        "col0": "G. Klein",
        "col1": "Schiltigheim",
        "col2": "Strasbourg",
        "col3": "1901-11-28"
    },
    {
        "col0": "G. Frohlich",
        "col1": "Samoa",
        "col2": "Sydney",
        "col3": "1902-1-1"
    },
    {
        "col0": "G. Collin",
        "col1": "Stockholm",
        "col2": "Stockholm",
        "col3": "1890-05-23"
    },
    {
        "col0": "G. Ewerlund",
        "col1": "Malmo",
        "col2": "Malmo",
        "col3": "1902-10-13"
    },
    {
        "col0": "G. Werner",
        "col1": "Stockholm",
        "col2": "Stockholm",
        "col3": "1915-05-14"
    },
    {
        "col0": "G. Sundman",
        "col1": "Stockholm",
        "col2": "Redding, California",
        "col3": "1893-04-15"
    },
    {
        "col0": "G. Wegner",
        "col1": "Gorlitz",
        "col2": "Dresden",
        "col3": "1955-02-28"
    },
    {
        "col0": "G. Rosenberg",
        "col1": "Hanover",
        "col2": "Hildesheim",
        "col3": "1896-10-7"
    },
    {
        "col0": "G. Johansson",
        "col1": "Stockholm",
        "col2": "San Mateo, California",
        "col3": "1895-01-09"
    },
    {
        "col0": "G. Carlsson",
        "col1": "Sodermanland",
        "col2": "Stockholm",
        "col3": "1898-07-07"
    },
    {
        "col0": "G. Brough",
        "col1": "Surfers Paradise, Queensland",
        "col2": "Beechmont, Queensland",
        "col3": "1951-03-26"
    },
    {
        "col0": "G. Symonds",
        "col1": "Coventry",
        "col2": "Essex",
        "col3": "1937-03-21"
    },
    {
        "col0": "G. Sykes",
        "col1": "Coventry",
        "col2": "Stoneleigh, Warwickshire",
        "col3": "1937-7-20"
    },
    {
        "col0": "G. McKenzie",
        "col1": "Garston, Hertfordshire",
        "col2": "Liverpool",
        "col3": "1903-7-8"
    },
    {
        "col0": "G. Gremlowski",
        "col1": "Swietochlowice",
        "col2": "Bergisch Gladbach",
        "col3": "1931-11-05"
    },
    {
        "col0": "G. Kerr",
        "col1": "Burlington, Ontario",
        "col2": "Selwyn, Ontario",
        "col3": "1917-10-04"
    },
    {
        "col0": "G. Chalmers",
        "col1": "Cranford, New Jersey",
        "col2": "Hendersonville, North Carolina",
        "col3": "1911-02-24"
    },
    {
        "col0": "G. Pidgeon",
        "col1": "Dunedin",
        "col2": "Wellington",
        "col3": "1906-03-21"
    },
    {
        "col0": "G. Carson",
        "col1": "Leicester",
        "col2": "Spilsby",
        "col3": "1903-02-08"
    },
    {
        "col0": "G. Vallerey",
        "col1": "Amiens",
        "col2": "La Seyne-sur-Mer",
        "col3": "1930-01-22"
    },
    {
        "col0": "G. Thidholm",
        "col1": "Malmo",
        "col2": "Vaxjo",
        "col3": "1930-06-23"
    },
    {
        "col0": "G. Arendt",
        "col1": "Berlin",
        "col2": "Bonn",
        "col3": "1918-11-05"
    },
    {
        "col0": "G. Vallerey",
        "col1": "Amiens",
        "col2": "La Seyne-sur-Mer",
        "col3": "1930-01-22"
    },
    {
        "col0": "G. Gambi",
        "col1": "Ravenna",
        "col2": "Ravenna",
        "col3": "1907-09-06"
    },
    {
        "col0": "G. Arena",
        "col1": "Italy",
        "col2": "Italy",
        "col3": "1921-02-25"
    },
    {
        "col0": "G. Bozon",
        "col1": "Troyes",
        "col2": "Tours",
        "col3": "1935-3-19"
    },
    {
        "col0": "G. C. Gross",
        "col1": "Berlin",
        "col2": "Italy",
        "col3": "1942-02-11"
    },
    {
        "col0": "G. Signori",
        "col1": "Desenzano del Garda",
        "col2": "Desenzano del Garda",
        "col3": "1914-06-11"
    },
    {
        "col0": "G. Ederle",
        "col1": "New York City",
        "col2": "Wyckoff, New Jersey",
        "col3": "1905-10-23"
    },
    {
        "col0": "G. Moes",
        "col1": "Bussum",
        "col2": "Burlington, Ontario",
        "col3": "1902-08-10"
    },
    {
        "col0": "G. Hetz",
        "col1": "Germany",
        "col2": "Jalisco",
        "col3": "1942-07-13"
    },
    {
        "col0": "G. Bredgaard",
        "col1": "Copenhagen",
        "col2": "Copenhagen",
        "col3": "1908-05-14"
    },
    {
        "col0": "G. Clawson",
        "col1": "Ontario",
        "col2": "Pleasant Hill, California",
        "col3": "1917-11-10"
    },
    {
        "col0": "G. Vallerey",
        "col1": "Lorient",
        "col2": "Casablanca",
        "col3": "1902-12-02"
    },
    {
        "col0": "G. Tandel",
        "col1": "Luxembourg City",
        "col2": "Luxembourg City",
        "col3": "1910-07-24"
    },
    {
        "col0": "G. Rigal",
        "col1": "Paris",
        "col2": "Saint-Maur-des-Fosses",
        "col3": "1890-01-06"
    },
    {
        "col0": "G. Pouilley",
        "col1": "Remiremont",
        "col2": "Paris",
        "col3": "1893-7-23"
    },
    {
        "col0": "G. Leuillieux",
        "col1": "Lille",
        "col2": "Eu, Seine-Maritime",
        "col3": "1879-08-03"
    },
    {
        "col0": "G. Webster",
        "col1": "Halifax, West Yorkshire",
        "col2": "Halifax, West Yorkshire",
        "col3": "1885-07-31"
    },
    {
        "col0": "G. Vernot",
        "col1": "Montreal",
        "col2": "Montreal",
        "col3": "1901-02-27"
    },
    {
        "col0": "G. V. Cleaf",
        "col1": "Northfield, New York",
        "col2": "Brooklyn, New York",
        "col3": "1879-10-08"
    },
    {
        "col0": "G. Larson",
        "col1": "Hamilton, Ontario",
        "col2": "Hamilton, Ontario",
        "col3": "1912-06-10"
    },
    {
        "col0": "G. Kojac",
        "col1": "New York City",
        "col2": "Fairfax, Virginia",
        "col3": "1910-03-02"
    },
    {
        "col0": "G. Hodgson",
        "col1": "Montreal",
        "col2": "Montreal",
        "col3": "1893-10-12"
    },
    {
        "col0": "G. Godfrey",
        "col1": "Durban",
        "col2": "Durban",
        "col3": "1888-07-26"
    },
    {
        "col0": "G. Fissler",
        "col1": "New York City",
        "col2": "Martin, Florida",
        "col3": "1906-10-13"
    },
    {
        "col0": "G. Zacharias",
        "col1": "Berlin",
        "col2": "Berlin",
        "col3": "1884-6-14"
    },
    {
        "col0": "G. Werner",
        "col1": "Stockholm",
        "col2": "Stockholm",
        "col3": "1904-04-08"
    },
    {
        "col0": "G. Nikolayev",
        "col1": "Ashgabat",
        "col2": "Moscow",
        "col3": "1938-7-8"
    },
    {
        "col0": "G. Lenz",
        "col1": "San Luis Obispo, California",
        "col2": "San Luis Obispo, California",
        "col3": "1937-04-12"
    },
    {
        "col0": "G. Wielema",
        "col1": "Hilversum",
        "col2": "Almere",
        "col3": "1934-07-24"
    },
    {
        "col0": "G. Knoke",
        "col1": "Sydney",
        "col2": "Canberra",
        "col3": "1942-2-4"
    },
    {
        "col0": "G. Chapman",
        "col1": "Brighton-Le-Sands, New South Wales",
        "col2": "Little Bay, New South Wales",
        "col3": "1937-9-17"
    },
    {
        "col0": "G. Agnew",
        "col1": "Nedlands, Western Australia",
        "col2": "Crawley, Western Australia",
        "col3": "1930-09-21"
    },
    {
        "col0": "G. Ault",
        "col1": "North Bay, Ontario",
        "col2": "Bellaire, Michigan",
        "col3": "1905-11-01"
    },
    {
        "col0": "G. Williams",
        "col1": "Jamaica Plain",
        "col2": "San Diego",
        "col3": "1877-4-16"
    },
    {
        "col0": "G. Prozumenshchikova",
        "col1": "Soviet Union",
        "col2": "Moscow",
        "col3": "1948-11-26"
    },
    {
        "col0": "G. Persson",
        "col1": "Stockholm",
        "col2": "Malmo",
        "col3": "1904-01-08"
    },
    {
        "col0": "G. Larsson",
        "col1": "Uppsala",
        "col2": "Haninge",
        "col3": "1932-05-24"
    },
    {
        "col0": "G. Szigritz",
        "col1": "Slovakia",
        "col2": "Hungary",
        "col3": "1907-01-18"
    },
    {
        "col0": "G. Kadas",
        "col1": "Eger",
        "col2": "Budapest",
        "col3": "1926-8-7"
    },
    {
        "col0": "G. Meister",
        "col1": "Paris",
        "col2": "Amiens",
        "col3": "1889-09-04"
    },
    {
        "col0": "G. Blitz",
        "col1": "Amsterdam",
        "col2": "Ganshoren",
        "col3": "1901-08-01"
    },
    {
        "col0": "G. Dekker",
        "col1": "Zaandam",
        "col2": "Zaandam",
        "col3": "1904-12-10"
    },
    {
        "col0": "F. Lowy",
        "col1": "Austria",
        "col2": "Austria",
        "col3": "1910-11-18"
    },
    {
        "col0": "F. Carstensen",
        "col1": "Aarhus",
        "col2": "Lyngby-Taarbaek",
        "col3": "1925-07-18"
    },
    {
        "col0": "F. Dennerlein",
        "col1": "Naples",
        "col2": "Naples",
        "col3": "1936-03-14"
    },
    {
        "col0": "F. Hollosi",
        "col1": "Austria-Hungary",
        "col2": "Budapest",
        "col3": "1905-8-20"
    }
]