[
    {
        "col0": "Ass Burgers",
        "col1": "F. Mac",
        "col2": "The Last of the Meheecans",
        "col3": "8"
    },
    {
        "col0": "Asian F",
        "col1": "Dreamgirls",
        "col2": "Pot o' Gold",
        "col3": "3"
    },
    {
        "col0": "Arpanet",
        "col1": "Utopia",
        "col2": "New Car",
        "col3": "7"
    },
    {
        "col0": "Arena",
        "col1": "A. Courage",
        "col2": "Tomorrow Is Yesterday",
        "col3": "18"
    },
    {
        "col0": "Anne",
        "col1": "C. Beck",
        "col2": "Dead Man's Party",
        "col3": "1"
    },
    {
        "col0": "Angel One",
        "col1": "D. McCarthy",
        "col2": "11001001",
        "col3": "14"
    },
    {
        "col0": "And the Children Shall Lead",
        "col1": "G. Duning",
        "col2": "Is There in Truth No Beauty?",
        "col3": "4"
    },
    {
        "col0": "And When the Sky Was Opened",
        "col1": "L. Rosenman",
        "col2": "What You Need",
        "col3": "11"
    },
    {
        "col0": "And Now His Watch Is Ended",
        "col1": "R. Djawadi",
        "col2": "Kissed by Fire",
        "col3": "4"
    },
    {
        "col0": "And God Created Woman",
        "col1": "T. D. Comedy",
        "col2": "Grant Unto Him Eternal Rest",
        "col3": "5"
    },
    {
        "col0": "Amok Time",
        "col1": "G. Fried",
        "col2": "Who Mourns for Adonais?",
        "col3": "1"
    },
    {
        "col0": "Alone",
        "col1": "L. DeWyze",
        "col2": "The Grove",
        "col3": "13"
    },
    {
        "col0": "Allegiance",
        "col1": "R. Jones",
        "col2": "Captain's Holiday",
        "col3": "18"
    },
    {
        "col0": "All or Nothing",
        "col1": "R. Connection",
        "col2": "Love, Love, Love",
        "col3": "22"
    }
]