[
    {
        "col0": "World Theater",
        "col1": "C. H. Crane",
        "col2": "Razed 1980",
        "col3": "1506 Douglas Street"
    },
    {
        "col0": "Woods Theatre",
        "col1": "M. a. Fox",
        "col2": "Goodman Theatre Center",
        "col3": "54 West Randolph Street"
    },
    {
        "col0": "Woodlawn Theatre",
        "col1": "J. Eberson",
        "col2": "Community theatre",
        "col3": "1920 Fredericksburg Rd"
    },
    {
        "col0": "Warner Theatre",
        "col1": "C. H. Crane",
        "col2": "music venue",
        "col3": "513 13th Street, N.W."
    },
    {
        "col0": "Trinity Theatre",
        "col1": "D. Burton",
        "col2": "Theatre, Arts centre",
        "col3": "Church Road"
    },
    {
        "col0": "The Round",
        "col1": "J. Dobson",
        "col2": "The Cluny 2(2009-)",
        "col3": "Lime Street,Ouseburn"
    },
    {
        "col0": "Teatro Carignano",
        "col1": "B. Alfieri",
        "col2": "Theatre",
        "col3": "Piazza Carignano 6"
    },
    {
        "col0": "Sun-Ray Cinema",
        "col1": "R. Benjamin",
        "col2": "Movie theater",
        "col3": "1028 Park Street"
    },
    {
        "col0": "State Theatre",
        "col1": "R. Grounds",
        "col2": "Live Theatre, Opera, Ballet, Dance",
        "col3": "100 St Kilda Road"
    },
    {
        "col0": "Stamford Center for the Arts",
        "col1": "T. W. Lamb",
        "col2": "concert hall (Palace)",
        "col3": "307 Atlantic Street (Rich)"
    }
]