[
    {
        "col0": "McSwain Theatre",
        "col1": "Mission Revival Style architecture",
        "col2": "theater,music venue,art gallery",
        "col3": "130 W. Main Street"
    },
    {
        "col0": "Mark Hellinger Theatre",
        "col1": "T. W. Lamb",
        "col2": "Times Square Church",
        "col3": "237 West 51st Street"
    },
    {
        "col0": "Lensic Theater",
        "col1": "B. Brothers",
        "col2": "performing arts center",
        "col3": "211 West San Francisco Street"
    },
    {
        "col0": "Lamb's Theatre",
        "col1": "S. White",
        "col2": "Hotel",
        "col3": "130 West 44th Street"
    },
    {
        "col0": "La Monnaie",
        "col1": "J. Poelaert",
        "col2": "Opera and Ballet",
        "col3": "BrusselsB-1000"
    },
    {
        "col0": "King's Theatre, Edinburgh",
        "col1": "J. Davidson",
        "col2": "Theatre",
        "col3": "2 Leven Street, EH3 9LQ"
    },
    {
        "col0": "King's Hall, Herne Bay",
        "col1": "Institution of Civil Engineers",
        "col2": "Concert, dance and entertainment venue",
        "col3": "Beacon Hill,Herne Bay, Kent,"
    },
    {
        "col0": "Her Majesty's Theatre, Melbourne",
        "col1": "N. Barnet",
        "col2": "Musicals, opera",
        "col3": "219Exhibition Street"
    },
    {
        "col0": "Hanover Theatre for the Performing Arts",
        "col1": "T. W. Lamb",
        "col2": "Touring acts",
        "col3": "2 Southbridge Street"
    },
    {
        "col0": "Grand Theatre, Wolverhampton",
        "col1": "C. J. Phipps",
        "col2": "Musicals,Pantomime,Opera,Ballet, andPlays",
        "col3": "Lichfield Street"
    },
    {
        "col0": "Fox Theatre",
        "col1": "R. &. Reid",
        "col2": "Live event venue",
        "col3": "2215 Broadway Street"
    },
    {
        "col0": "Edinburgh Playhouse",
        "col1": "J. Fairweather",
        "col2": "Theatre",
        "col3": "18-22 Greenside Place"
    },
    {
        "col0": "Dudley Hippodrome",
        "col1": "A. H. Robinson",
        "col2": "Vacant (since 2009)",
        "col3": "Castle Hill"
    },
    {
        "col0": "Copley Symphony Hall",
        "col1": "W. a. Day",
        "col2": "Concert hall",
        "col3": "1245 Seventh Avenue"
    },
    {
        "col0": "Church Hill Theatre",
        "col1": "H. Blanc",
        "col2": "Theatre",
        "col3": "33 Morningside Road, EH10 4DR"
    },
    {
        "col0": "Capitol Theatre, Melbourne",
        "col1": "W. B. Griffin",
        "col2": "Education, events",
        "col3": "113 Swanston Street"
    },
    {
        "col0": "Bluebird Theater",
        "col1": "H. W. Edbrooke",
        "col2": "music venue",
        "col3": "3315-3317 E. Colfax Ave."
    },
    {
        "col0": "Atlas Performing Arts Center",
        "col1": "J. J. Zink",
        "col2": "Performing arts center",
        "col3": "1313-33 H Street,N.E."
    },
    {
        "col0": "Artcraft Theatre",
        "col1": "J. Eberson",
        "col2": "Movie theater and concert venue",
        "col3": "57 N. Main St"
    },
    {
        "col0": "Alhambra Theatre",
        "col1": "T. L. Pflueger",
        "col2": "Fitness club",
        "col3": "2330 Polk Street"
    },
    {
        "col0": "ABC Cinema, Wakefield",
        "col1": "W. R. Glen",
        "col2": "derelict",
        "col3": "Kirkgate"
    }
]