[
    {
        "col0": "Mount Akutan",
        "col1": "Alaska",
        "col2": "1303",
        "col3": "1992"
    },
    {
        "col0": "Mount Akita-Komagatake",
        "col1": "Tohoku region",
        "col2": "1637",
        "col3": "1970"
    },
    {
        "col0": "Mount Akagi",
        "col1": "Japan",
        "col2": "1828",
        "col3": "1251"
    },
    {
        "col0": "Mount Agung",
        "col1": "Bali",
        "col2": "3031",
        "col3": "1963"
    },
    {
        "col0": "Mount Adatara",
        "col1": "Fukushima Prefecture",
        "col2": "1728",
        "col3": "1996"
    },
    {
        "col0": "Mount Adams",
        "col1": "Washington",
        "col2": "3743",
        "col3": "950"
    },
    {
        "col0": "Morro Alto",
        "col1": "Azores",
        "col2": "914",
        "col3": "-950"
    },
    {
        "col0": "Morne Watt",
        "col1": "Dominica",
        "col2": "1224",
        "col3": "1997"
    },
    {
        "col0": "Morne Diablotins",
        "col1": "Caribbean",
        "col2": "1447",
        "col3": "30"
    },
    {
        "col0": "Monte Vulture",
        "col1": "Italy",
        "col2": "1326",
        "col3": "40"
    },
    {
        "col0": "Monte Nuovo",
        "col1": "Campania",
        "col2": "458",
        "col3": "1538"
    },
    {
        "col0": "Monte Burney",
        "col1": "Chile",
        "col2": "1520",
        "col3": "1910"
    },
    {
        "col0": "Monaco Bank",
        "col1": "Portugal",
        "col2": "-197",
        "col3": "1911"
    },
    {
        "col0": "Momotombo",
        "col1": "Leon Department",
        "col2": "1297",
        "col3": "2016"
    },
    {
        "col0": "Mombacho",
        "col1": "Nicaragua",
        "col2": "1344",
        "col3": "1570"
    },
    {
        "col0": "Mocho-Choshuenco",
        "col1": "Futrono",
        "col2": "2415",
        "col3": "1937"
    },
    {
        "col0": "Misti",
        "col1": "Peru",
        "col2": "5822",
        "col3": "1985"
    },
    {
        "col0": "Miravalles Volcano",
        "col1": "Costa Rica",
        "col2": "2028",
        "col3": "1946"
    },
    {
        "col0": "Michoacan-Guanajuato volcanic field",
        "col1": "Mexico",
        "col2": "3860",
        "col3": "1943"
    },
    {
        "col0": "Michinmahuida",
        "col1": "Chile",
        "col2": "2450",
        "col3": "1835"
    },
    {
        "col0": "Mezhdusopochny",
        "col1": "Kamchatka Peninsula",
        "col2": "1641",
        "col3": "1292"
    },
    {
        "col0": "Methana Volcano",
        "col1": "Greece",
        "col2": "760",
        "col3": "-258"
    },
    {
        "col0": "Mentolat",
        "col1": "Chile",
        "col2": "1620",
        "col3": "1710"
    },
    {
        "col0": "Menengai",
        "col1": "Kenya",
        "col2": "2278",
        "col3": "-6050"
    },
    {
        "col0": "Mendeleyeva",
        "col1": "Kuril Islands",
        "col2": "888",
        "col3": "1880"
    },
    {
        "col0": "Melimoyu",
        "col1": "Chile",
        "col2": "2440",
        "col3": "200"
    },
    {
        "col0": "Medvezhya",
        "col1": "Iturup",
        "col2": "1125",
        "col3": "1999"
    },
    {
        "col0": "Medicine Lake Volcano",
        "col1": "United States",
        "col2": "2414",
        "col3": "1080"
    },
    {
        "col0": "McDonald Islands",
        "col1": "Australia",
        "col2": "230",
        "col3": "2005"
    },
    {
        "col0": "Mayon Volcano",
        "col1": "Luzon",
        "col2": "2463",
        "col3": "2014"
    },
    {
        "col0": "Mawson Peak",
        "col1": "Australia",
        "col2": "2745",
        "col3": "2012"
    },
    {
        "col0": "Mauna Loa",
        "col1": "Hawaii",
        "col2": "4169",
        "col3": "1984"
    },
    {
        "col0": "Mauna Kea",
        "col1": "Hawaii County",
        "col2": "4207",
        "col3": "-2460"
    },
    {
        "col0": "Mascarin Peak",
        "col1": "Indian Ocean",
        "col2": "1230",
        "col3": "2004"
    },
    {
        "col0": "Masaya Volcano",
        "col1": "Nicaragua",
        "col2": "635",
        "col3": "2016"
    },
    {
        "col0": "Manda Hararo",
        "col1": "Ethiopia",
        "col2": "600",
        "col3": "2009"
    },
    {
        "col0": "Manam",
        "col1": "New Guinea",
        "col2": "1807",
        "col3": "2014"
    },
    {
        "col0": "Mammoth Mountain",
        "col1": "California",
        "col2": "3370",
        "col3": "1260"
    },
    {
        "col0": "Maly Semyachik",
        "col1": "Kamchatka Peninsula",
        "col2": "1560",
        "col3": "1952"
    },
    {
        "col0": "Malinche",
        "col1": "Tlaxcala",
        "col2": "4461",
        "col3": "-1170"
    },
    {
        "col0": "Makushin Volcano",
        "col1": "Alaska",
        "col2": "2036",
        "col3": "1995"
    },
    {
        "col0": "Maipo",
        "col1": "Argentina",
        "col2": "5264",
        "col3": "1912"
    },
    {
        "col0": "Mahagnao Volcano",
        "col1": "Leyte Island",
        "col2": "860",
        "col3": "1895"
    },
    {
        "col0": "Manana",
        "col1": "Hawaii",
        "col2": "110",
        "col3": "200"
    },
    {
        "col0": "Mahukona",
        "col1": "Hawaii",
        "col2": "-1149",
        "col3": "470"
    },
    {
        "col0": "Lvinaya Past",
        "col1": "Iturup",
        "col2": "528",
        "col3": "-7480"
    },
    {
        "col0": "Lower Chindwin",
        "col1": "Burma",
        "col2": "385",
        "col3": "10"
    },
    {
        "col0": "Lopevi",
        "col1": "Vanuatu",
        "col2": "1413",
        "col3": "2007"
    },
    {
        "col0": "Lonquimay",
        "col1": "Chile",
        "col2": "2865",
        "col3": "1988"
    },
    {
        "col0": "Long Island",
        "col1": "Papua New Guinea",
        "col2": "1280",
        "col3": "1993"
    },
    {
        "col0": "Lombenben",
        "col1": "Vanuatu",
        "col2": "1496",
        "col3": "2006"
    },
    {
        "col0": "Loloru",
        "col1": "Bougainville Island",
        "col2": "1887",
        "col3": "-1050"
    },
    {
        "col0": "Lokon-Empung",
        "col1": "Dutch East Indies",
        "col2": "1580",
        "col3": "2015"
    },
    {
        "col0": "Llullaillaco",
        "col1": "Argentina",
        "col2": "6739",
        "col3": "1877"
    },
    {
        "col0": "Llaima",
        "col1": "La Araucania Region",
        "col2": "3125",
        "col3": "2008"
    },
    {
        "col0": "Ljosufjoll",
        "col1": "Iceland",
        "col2": "988",
        "col3": "960"
    },
    {
        "col0": "Lewotolo",
        "col1": "Lembata",
        "col2": "1423",
        "col3": "2012"
    },
    {
        "col0": "Lewotobi",
        "col1": "Dutch East Indies",
        "col2": "1584",
        "col3": "2014"
    },
    {
        "col0": "Leutongey",
        "col1": "Kamchatka Peninsula",
        "col2": "1333",
        "col3": "-800"
    },
    {
        "col0": "Leroboleng",
        "col1": "Dutch East Indies",
        "col2": "1117",
        "col3": "2003"
    },
    {
        "col0": "Leonard Kniaseff",
        "col1": "Mindanao",
        "col2": "1190",
        "col3": "120"
    },
    {
        "col0": "Lemei Rock",
        "col1": "Washington",
        "col2": "1805",
        "col3": "8"
    },
    {
        "col0": "Lava Butte",
        "col1": "Oregon",
        "col2": "1531",
        "col3": "7"
    },
    {
        "col0": "Lautaro",
        "col1": "Chile",
        "col2": "3623",
        "col3": "1979"
    },
    {
        "col0": "Lassen Peak",
        "col1": "Shasta County, California",
        "col2": "3187",
        "col3": "1914"
    },
    {
        "col0": "Lascar",
        "col1": "Chile",
        "col2": "5592",
        "col3": "2015"
    },
    {
        "col0": "Las Pilas",
        "col1": "Leon Department",
        "col2": "1088",
        "col3": "1954"
    },
    {
        "col0": "Larch Mountain",
        "col1": "Oregon",
        "col2": "1237",
        "col3": "1"
    },
    {
        "col0": "Lanin",
        "col1": "Chile",
        "col2": "3776",
        "col3": "560"
    },
    {
        "col0": "Langila",
        "col1": "Papua New Guinea",
        "col2": "1330",
        "col3": "2012"
    },
    {
        "col0": "Lanin",
        "col1": "Argentina",
        "col2": "3776",
        "col3": "560"
    },
    {
        "col0": "Laki",
        "col1": "Iceland",
        "col2": "1725",
        "col3": "1784"
    },
    {
        "col0": "Lake Ilopango",
        "col1": "El Salvador",
        "col2": "450",
        "col3": "1879"
    },
    {
        "col0": "Laguna del Maule",
        "col1": "Chile",
        "col2": "2160",
        "col3": "2"
    },
    {
        "col0": "Laguna Volcanic Field",
        "col1": "Philippines",
        "col2": "1090",
        "col3": "1350"
    },
    {
        "col0": "La Soufriere",
        "col1": "Saint Vincent and the Grenadines",
        "col2": "1234",
        "col3": "1979"
    },
    {
        "col0": "La Grande Soufriere",
        "col1": "Caribbean",
        "col2": "1467",
        "col3": "1976"
    },
    {
        "col0": "La Cumbre",
        "col1": "Galapagos Islands",
        "col2": "1476",
        "col3": "2009"
    },
    {
        "col0": "KA<<lauea",
        "col1": "United States",
        "col2": "1246",
        "col3": "1983"
    }
]