[
    {
        "col0": "A Lecture on Camouflage",
        "col1": "Dr. Seuss",
        "col2": "M. Blanc",
        "col3": "D. Seuss"
    },
    {
        "col0": "A King's Story",
        "col1": "Jack Levin",
        "col2": "O. Welles",
        "col3": "G. Jones"
    },
    {
        "col0": "A Great Day in Harlem",
        "col1": "Terrell Braly",
        "col2": "Q. Jones",
        "col3": "J. Bach"
    },
    {
        "col0": "A Diary for Timothy",
        "col1": "Basil Wright",
        "col2": "M. Redgrave",
        "col3": "E. M. Forster"
    },
    {
        "col0": "A Christmas Carol",
        "col1": "Chuck Jones",
        "col2": "M. Redgrave",
        "col3": "C. Dickens"
    },
    {
        "col0": "A Canterbury Tale",
        "col1": "Emeric Pressburger",
        "col2": "R. Massey",
        "col3": "E. Pressburger"
    },
    {
        "col0": "A Beautiful Planet",
        "col1": "Toni Myers",
        "col2": "J. Lawrence",
        "col3": "T. Myers"
    },
    {
        "col0": "Asoka",
        "col1": "Shah Rukh Khan",
        "col2": "S. Oberoi",
        "col3": "S. Sivan"
    },
    {
        "col0": "9/11: Press for Truth",
        "col1": "Ray Nowosielski",
        "col2": "M. Pritchard",
        "col3": "R. Nowosielski"
    },
    {
        "col0": "8: The Mormon Proposition",
        "col1": "Reed Cowan",
        "col2": "D. L. Black",
        "col3": "R. Cowan"
    },
    {
        "col0": "7 Khoon Maaf",
        "col1": "Vishal Bhardwaj",
        "col2": "V. Shah",
        "col3": "V. Bhardwaj"
    },
    {
        "col0": "50 Children: The Rescue Mission of Mr. and Mrs. Kraus",
        "col1": "Steven Pressman",
        "col2": "A. Alda",
        "col3": "S. Pressman"
    },
    {
        "col0": "500 Days of Summer",
        "col1": "Mark Waters",
        "col2": "R. McGonagle",
        "col3": "M. H. Weber"
    },
    {
        "col0": "4 Clowns",
        "col1": "Robert Youngson",
        "col2": "J. Jackson",
        "col3": "R. Youngson"
    },
    {
        "col0": "3 Idiots",
        "col1": "Vidhu Vinod Chopra",
        "col2": "R. Madhavan",
        "col3": "V. V. Chopra"
    },
    {
        "col0": "24 Hour Party People",
        "col1": "Andrew Eaton",
        "col2": "S. Coogan",
        "col3": "F. C. Boyce"
    },
    {
        "col0": "20 Million Miles to Earth",
        "col1": "Charles H. Schneer",
        "col2": "W. Woodson",
        "col3": "R. Harryhausen"
    },
    {
        "col0": "2081",
        "col1": "Thor Halvorssen Mendoza",
        "col2": "P. Clarkson",
        "col3": "C. Tuttle"
    },
    {
        "col0": "13 Rue Madeleine",
        "col1": "Louis De Rochemont",
        "col2": "R. Hadley",
        "col3": "S. Bartlett"
    },
    {
        "col0": "10,000 BC",
        "col1": "Roland Emmerich",
        "col2": "O. Sharif",
        "col3": "R. Emmerich"
    }
]