[
    {
        "col0": "S. Gadabadze",
        "col1": "Azerbaijan",
        "col2": "Azerbaijan",
        "col3": "Azerbaijan"
    },
    {
        "col0": "S. Sazhidov",
        "col1": "Russia",
        "col2": "Russia",
        "col3": "Makhachkala"
    },
    {
        "col0": "R. Assakalov",
        "col1": "Russia",
        "col2": "Russia",
        "col3": "Russia"
    },
    {
        "col0": "R. Humphrey",
        "col1": "Americans",
        "col2": "Americans",
        "col3": "Columbus, Ohio"
    },
    {
        "col0": "R. Kumar",
        "col1": "Indian people",
        "col2": "Indian people",
        "col3": "Haryana"
    },
    {
        "col0": "O. Zamula",
        "col1": "Azerbaijan",
        "col2": "Azerbaijan",
        "col3": "Azerbaijan"
    },
    {
        "col0": "N. Israpilov",
        "col1": "Russia",
        "col2": "Russia",
        "col3": "Dagestan"
    },
    {
        "col0": "M. Kecman",
        "col1": "Serbia",
        "col2": "Serbia",
        "col3": "Serbia"
    },
    {
        "col0": "M. Ezerskis",
        "col1": "Lithuania",
        "col2": "Lithuania",
        "col3": "Lithuania"
    },
    {
        "col0": "M. Gentry",
        "col1": "Canada",
        "col2": "Canada",
        "col3": "British Columbia"
    },
    {
        "col0": "M. Gurova",
        "col1": "Russia",
        "col2": "Russia",
        "col3": "Russia"
    },
    {
        "col0": "M. V. Dusen",
        "col1": "United States",
        "col2": "United States",
        "col3": "Colorado Springs, Colorado"
    },
    {
        "col0": "M. Unda",
        "col1": "Spain",
        "col2": "Spain",
        "col3": "Basque Country"
    },
    {
        "col0": "M. S. Phogat",
        "col1": "Indian people",
        "col2": "Indian people",
        "col3": "Haryana"
    },
    {
        "col0": "L. Temirov",
        "col1": "Ukraine",
        "col2": "Ukraine",
        "col3": "Simferopol"
    },
    {
        "col0": "L. Langowski",
        "col1": "Mexico",
        "col2": "Mexico",
        "col3": "Mexico City, Mexico"
    },
    {
        "col0": "K. Jarvis",
        "col1": "Canada",
        "col2": "Canada",
        "col3": "Ontario"
    },
    {
        "col0": "K. Schneider",
        "col1": "Germany",
        "col2": "Germany",
        "col3": "Saarbrucken"
    },
    {
        "col0": "K. Ayvaz",
        "col1": "Turkey",
        "col2": "Turkey",
        "col3": "Sweden"
    }
]