[
    {
        "col0": "W. Syrokomla",
        "col1": "Lithuanian language",
        "col2": "Poles",
        "col3": "Vilnius",
        "col4": "Vilnius",
        "col5": "Ludwik Wladyslaw Franciszek Kondratowicz"
    },
    {
        "col0": "S. L. Morgan",
        "col1": "Kingdom of Ireland",
        "col2": "Kingdom of Ireland",
        "col3": "Brompton Cemetery",
        "col4": "London",
        "col5": "Sydney Owenson"
    },
    {
        "col0": "S. Andresen",
        "col1": "Frisian people",
        "col2": "Duchy of Schleswig",
        "col3": "Wyk auf Fohr",
        "col4": "Wyk auf Fohr",
        "col5": "Stine Jurgens"
    },
    {
        "col0": "S. Y. Agnon",
        "col1": "Jewish",
        "col2": "Israel",
        "col3": "Mount of Olives Jewish Cemetery",
        "col4": "Israel",
        "col5": "Shmuel Yosef Halevi Czaczkes"
    },
    {
        "col0": "P. Johnson",
        "col1": "English people",
        "col2": "Canadians",
        "col3": "Vancouver",
        "col4": "British Columbia",
        "col5": "Emily Pauline Johnson"
    },
    {
        "col0": "N. Gogol",
        "col1": "Ukrainians",
        "col2": "Russian Empire",
        "col3": "Novodevichy Cemetery",
        "col4": "Moscow",
        "col5": "Nikolai Vasilievich Gogol"
    },
    {
        "col0": "N. Atsiz",
        "col1": "Turkish people",
        "col2": "Turkish people",
        "col3": "Constantinople",
        "col4": "Kadikoy",
        "col5": "Mehmet Nail oglu Huseyin Nihal"
    },
    {
        "col0": "L. Kostic",
        "col1": "Serb",
        "col2": "Serbian language",
        "col3": "Serbia",
        "col4": "Austria-Hungary",
        "col5": "Lazar Kostic"
    },
    {
        "col0": "K. Yacine",
        "col1": "Berber people",
        "col2": "Algeria",
        "col3": "El Alia Cemetery",
        "col4": "France",
        "col5": "Kateb Yacine"
    },
    {
        "col0": "J. Brzechwa",
        "col1": "Jews in Poland",
        "col2": "Poland",
        "col3": "Powazki Cemetery",
        "col4": "Warsaw",
        "col5": "Jan Wiktor Lesman"
    },
    {
        "col0": "G. R. Agro",
        "col1": "Sindhi people",
        "col2": "Pakistani",
        "col3": "Sindh, Pakistan",
        "col4": "Hyderabad",
        "col5": "Ghulam Rabbani Agro"
    },
    {
        "col0": "B. Lesmian",
        "col1": "Jews in Poland",
        "col2": "Poland",
        "col3": "Powazki Cemetery",
        "col4": "Poland",
        "col5": "Boleslaw Lesman"
    },
    {
        "col0": "A. d. Quental",
        "col1": "Portugal",
        "col2": "Portugal",
        "col3": "Ponta Delgada",
        "col4": "Ponta Delgada",
        "col5": "Anthero Tarquinio de Quental"
    },
    {
        "col0": "A. Frank",
        "col1": "German-Jewish",
        "col2": "Statelessness",
        "col3": "Bergen-Belsen concentration camp",
        "col4": "Bergen-Belsen concentration camp",
        "col5": "Anneliesor AnnelieseMarie Frank"
    },
    {
        "col0": "A. Montrose",
        "col1": "English people",
        "col2": "England",
        "col3": "England",
        "col4": "England",
        "col5": "Agustus Horatio Montrose"
    }
]