[
    {
        "Finished": "1st",
        "Post": "",
        "Horse": "Manuel",
        "Jockey": "F. Taral",
        "Trainer": "Robert J. Walden",
        "Owner": "A.H. & D.H. Morris",
        "Time \\/ behind": "2:12.00"
    },
    {
        "Finished": "2nd",
        "Post": "",
        "Horse": "Corsini",
        "Jockey": "T. Burns",
        "Trainer": "",
        "Owner": "Ed Corrigan",
        "Time \\/ behind": "2"
    },
    {
        "Finished": "3rd",
        "Post": "",
        "Horse": "Mazo",
        "Jockey": "J. Conley",
        "Trainer": "",
        "Owner": "John E. Madden",
        "Time \\/ behind": "1-1\\/2"
    },
    {
        "Finished": "4th",
        "Post": "",
        "Horse": "His Lordship",
        "Jockey": "N. Turner",
        "Trainer": "",
        "Owner": "J.D. Smith",
        "Time \\/ behind": "6"
    },
    {
        "Finished": "5th",
        "Post": "",
        "Horse": "Fontainebleu",
        "Jockey": "A. Overton",
        "Trainer": "",
        "Owner": "J.M. Forsythe",
        "Time \\/ behind": "3"
    }
]