[
    {
        "col0": "The Lincoln Lawyer",
        "col1": "Echo Park",
        "col2": "The Closers",
        "col3": "404"
    },
    {
        "col0": "The Lime Works",
        "col1": "Correction",
        "col2": "Gargoyles",
        "col3": "241"
    },
    {
        "col0": "The Lighthouse",
        "col1": "The Private Patient",
        "col2": "The Murder Room",
        "col3": "352"
    },
    {
        "col0": "The Life of the World to Come",
        "col1": "The Children of the Company",
        "col2": "The Graveyard Game",
        "col3": "336"
    },
    {
        "col0": "The Life of Hope",
        "col1": "King Leary",
        "col2": "Home Game",
        "col3": "288"
    },
    {
        "col0": "The Lieutenant",
        "col1": "Sarah Thornhill",
        "col2": "The Secret River",
        "col3": "307"
    },
    {
        "col0": "The Lexus and the Olive Tree",
        "col1": "Longitudes and Attitudes",
        "col2": "From Beirut to Jerusalem",
        "col3": "394"
    },
    {
        "col0": "The Letter of Marque",
        "col1": "The Thirteen-Gun Salute",
        "col2": "The Reverse of the Medal",
        "col3": "284"
    },
    {
        "col0": "The Leper of Saint Giles",
        "col1": "The Virgin in the Ice",
        "col2": "Saint Peter's Fair",
        "col3": "224"
    },
    {
        "col0": "The Leopard",
        "col1": "Phantom",
        "col2": "The Snowman",
        "col3": "624"
    },
    {
        "col0": "The Legion",
        "col1": "Praetorian",
        "col2": "The Gladiator",
        "col3": "384"
    },
    {
        "col0": "The Legend of Sigurd and Gudrun",
        "col1": "The Fall of Arthur",
        "col2": "The Children of Hurin",
        "col3": "384"
    },
    {
        "col0": "The Legend of Luke",
        "col1": "Lord Brocktree",
        "col2": "Marlfox",
        "col3": "374"
    },
    {
        "col0": "The Legend of Deathwalker",
        "col1": "Winter Warriors",
        "col2": "The First Chronicles of Druss the Legend",
        "col3": "412"
    },
    {
        "col0": "The Left Hand of the Electron",
        "col1": "The Tragedy of the Moon",
        "col2": "The Stars in their Courses",
        "col3": "225"
    },
    {
        "col0": "The Left Hand of Darkness",
        "col1": "The Word for World is Forest",
        "col2": "City of Illusions",
        "col3": "286"
    },
    {
        "col0": "The Left Alternative",
        "col1": "The Religion of the Future",
        "col2": "Free Trade Reimagined: The World Division of Labor and the Method of Economics",
        "col3": "197"
    },
    {
        "col0": "The Lees of Laughter's End",
        "col1": "Crack'd Pot Trail",
        "col2": "The Healthy Dead",
        "col3": "151"
    },
    {
        "col0": "The League of Frightened Men",
        "col1": "The Rubber Band",
        "col2": "Fer-de-Lance",
        "col3": "308"
    },
    {
        "col0": "The Laws of Our Fathers",
        "col1": "Personal Injuries",
        "col2": "Pleading Guilty",
        "col3": "832"
    },
    {
        "col0": "The Lawless",
        "col1": "The Americans",
        "col2": "The Warriors",
        "col3": "704"
    },
    {
        "col0": "The Laughter of Carthage",
        "col1": "Jerusalem Commands",
        "col2": "Byzantium Endures",
        "col3": "602"
    },
    {
        "col0": "The Laughing Policeman",
        "col1": "The Fire Engine That Disappeared",
        "col2": "The Man on the Balcony",
        "col3": "240"
    },
    {
        "col0": "The Laughing Corpse",
        "col1": "Circus of the Damned",
        "col2": "Guilty Pleasures",
        "col3": "293"
    },
    {
        "col0": "The Last of the Sky Pirates",
        "col1": "Vox",
        "col2": "Midnight Over Sanctaphrax",
        "col3": "384"
    },
    {
        "col0": "The Last of the Jedi: Underworld",
        "col1": "The Last of the Jedi: Death on Naboo",
        "col2": "The Last of the Jedi: Dark Warning",
        "col3": "160"
    },
    {
        "col0": "The Last of the Jedi: The Desperate Mission",
        "col1": "The Last of the Jedi: Dark Warning",
        "col2": "Patterns of Force",
        "col3": "168"
    },
    {
        "col0": "The Last of the Jedi: Secret Weapon",
        "col1": "The Last of the Jedi: Against the Empire",
        "col2": "The Last of the Jedi: Return of the Dark Side",
        "col3": "160"
    },
    {
        "col0": "The Last of the Jedi: Return of the Dark Side",
        "col1": "The Last of the Jedi: Secret Weapon",
        "col2": "The Last of the Jedi: A Tangled Web",
        "col3": "160"
    },
    {
        "col0": "The Last of the Jedi: Death on Naboo",
        "col1": "The Last of the Jedi: A Tangled Web",
        "col2": "The Last of the Jedi: Underworld",
        "col3": "160"
    },
    {
        "col0": "The Last of the Jedi: Dark Warning",
        "col1": "The Last of the Jedi: Underworld",
        "col2": "The Last of the Jedi: The Desperate Mission",
        "col3": "139"
    },
    {
        "col0": "The Last of the Jedi: Against the Empire",
        "col1": "The Last of the Jedi: Master of Deception",
        "col2": "The Last of the Jedi: Secret Weapon",
        "col3": "160"
    },
    {
        "col0": "The Last of the Jedi: A Tangled Web",
        "col1": "The Last of the Jedi: Return of the Dark Side",
        "col2": "The Last of the Jedi: Death on Naboo",
        "col3": "160"
    },
    {
        "col0": "The Last Resort",
        "col1": "Timeless",
        "col2": "Reckless Engineering",
        "col3": "288"
    },
    {
        "col0": "The Last Precinct",
        "col1": "Blow Fly",
        "col2": "Black Notice",
        "col3": "449"
    },
    {
        "col0": "The Last Olympian",
        "col1": "The Heroes of Olympus",
        "col2": "Percy Jackson and the Battle of the Labyrinth",
        "col3": "361"
    },
    {
        "col0": "The Last Light of the Sun",
        "col1": "The Lions of Al-Rassan",
        "col2": "The Sarantine Mosaic",
        "col3": "501"
    },
    {
        "col0": "The Last Hero",
        "col1": "Knight Templar",
        "col2": "Enter the Saint",
        "col3": "318"
    },
    {
        "col0": "The Last Hawk",
        "col1": "Ascendant Sun",
        "col2": "Catch the Lightning",
        "col3": "448"
    },
    {
        "col0": "The Last Gospel",
        "col1": "The Tiger Warrior",
        "col2": "Crusader Gold",
        "col3": "418"
    },
    {
        "col0": "The Last Frontier",
        "col1": "Night Without End",
        "col2": "South by Java Head",
        "col3": "253"
    },
    {
        "col0": "The Last Enchantment",
        "col1": "The Wicked Day",
        "col2": "The Hollow Hills",
        "col3": "448"
    },
    {
        "col0": "The Last Coyote",
        "col1": "Trunk Music",
        "col2": "The Concrete Blonde",
        "col3": "400"
    },
    {
        "col0": "The Last Command",
        "col1": "Isard's Revenge",
        "col2": "Dark Force Rising",
        "col3": "407"
    },
    {
        "col0": "The Last Colony",
        "col1": "Zoe's Tale",
        "col2": "The Ghost Brigades",
        "col3": "336"
    },
    {
        "col0": "The Last Camel Died at Noon",
        "col1": "The Snake, the Crocodile, and the Dog",
        "col2": "Deeds of the Disturber",
        "col3": "352"
    },
    {
        "col0": "The Lantern Bearers",
        "col1": "Sword at Sunset",
        "col2": "The Silver Branch",
        "col3": "252"
    },
    {
        "col0": "The Land of the Silver Apples",
        "col1": "The Islands of the Blessed",
        "col2": "The Sea of Trolls",
        "col3": "496"
    },
    {
        "col0": "The Land of Mist",
        "col1": "When the World Screamed",
        "col2": "The Poison Belt",
        "col3": "294"
    },
    {
        "col0": "The Land Leviathan",
        "col1": "The Steel Tsar",
        "col2": "The Warlord of the Air",
        "col3": "161"
    },
    {
        "col0": "The Lake of Tears",
        "col1": "City of the Rats",
        "col2": "The Forests of Silence",
        "col3": "129"
    },
    {
        "col0": "The Lake of Souls",
        "col1": "Lord of the Shadows",
        "col2": "Killers of the Dawn",
        "col3": "220"
    },
    {
        "col0": "The Lair of Bones",
        "col1": "Sons of the Oak",
        "col2": "Wizardborn",
        "col3": "464"
    },
    {
        "col0": "The Lady of the Rivers",
        "col1": "The Kingmaker's Daughter",
        "col2": "The Red Queen",
        "col3": "512"
    },
    {
        "col0": "The Lady in the Lake",
        "col1": "The Little Sister",
        "col2": "The High Window",
        "col3": "216"
    },
    {
        "col0": "The Labours of Hercules",
        "col1": "Taken at the Flood",
        "col2": "Come, Tell Me How You Live",
        "col3": "265"
    },
    {
        "col0": "The Krytos Trap",
        "col1": "The Bacta War",
        "col2": "Wedge's Gamble",
        "col3": "355"
    },
    {
        "col0": "The Kobayashi Maru",
        "col1": "Rules of Engagement",
        "col2": "The Cry of the Onlies",
        "col3": "254"
    },
    {
        "col0": "The Knight Templar",
        "col1": "The Kingdom at the End of the Road",
        "col2": "The Road to Jerusalem",
        "col3": "419"
    },
    {
        "col0": "The Klingon Gambit",
        "col1": "The Covenant of the Crown",
        "col2": "The Entropy Effect",
        "col3": "158"
    },
    {
        "col0": "The Kings of Clonmel",
        "col1": "Halt's Peril",
        "col2": "Erak's Ransom",
        "col3": "403"
    },
    {
        "col0": "The Kingmaker's Daughter",
        "col1": "The White Princess",
        "col2": "The Lady of the Rivers",
        "col3": "448"
    },
    {
        "col0": "The Kingdom at the End of the Road",
        "col1": "The Heritage of Arn",
        "col2": "The Knight Templar",
        "col3": "431"
    },
    {
        "col0": "The Kingdom",
        "col1": "The Tombs",
        "col2": "Lost Empire",
        "col3": "400"
    },
    {
        "col0": "The King of Terror",
        "col1": "The Quantum Archangel",
        "col2": "Independence Day",
        "col3": "279"
    },
    {
        "col0": "The King of Attolia",
        "col1": "A Conspiracy of Kings",
        "col2": "The Queen of Attolia",
        "col3": "387"
    },
    {
        "col0": "The King and Other Stories",
        "col1": "The God of the Razor",
        "col2": "Mad Dog Summer",
        "col3": "98"
    },
    {
        "col0": "The King Beyond the Gate",
        "col1": "Waylander",
        "col2": "Legend",
        "col3": "415"
    },
    {
        "col0": "The King's Stilts",
        "col1": "The Seven Lady Godivas",
        "col2": "The 500 Hats of Bartholomew Cubbins",
        "col3": "56"
    },
    {
        "col0": "The King's Peace",
        "col1": "The King's Name",
        "col2": "The Prize in the Game",
        "col3": "416"
    },
    {
        "col0": "The King's Orchard",
        "col1": "The Flowering",
        "col2": "The Nightingale",
        "col3": "467"
    },
    {
        "col0": "The King's Justice",
        "col1": "The Quest for Saint Camber",
        "col2": "The Bishop's Heir",
        "col3": "337"
    },
    {
        "col0": "The King's Dragon",
        "col1": "The Glamour Chase",
        "col2": "Nuclear Time",
        "col3": "245"
    },
    {
        "col0": "The Kindly Ones",
        "col1": "The Valley of Bones",
        "col2": "Casanova's Chinese Restaurant",
        "col3": "254"
    },
    {
        "col0": "The Killing Dance",
        "col1": "Burnt Offerings",
        "col2": "Bloody Bones",
        "col3": "387"
    },
    {
        "col0": "The Killing",
        "col1": "Divine Madness",
        "col2": "Maximum Security",
        "col3": "320"
    },
    {
        "col0": "The Killer",
        "col1": "The Occult: A History",
        "col2": "The Mind Parasites",
        "col3": "224"
    },
    {
        "col0": "The Kill Artist",
        "col1": "The English Assassin",
        "col2": "The Marching Season",
        "col3": "428"
    },
    {
        "col0": "The Kidnap Murder Case",
        "col1": "The Gracie Allen Murder Case",
        "col2": "The Garden Murder Case",
        "col3": "316"
    },
    {
        "col0": "The Kid: What Happened After My Boyfriend and I Decided to Go Get Pregnant",
        "col1": "Skipping Towards Gomorrah: The Seven Deadly Sins and the Pursuit of Happiness in America",
        "col2": "Savage Love: Straight Answers from America's Most Popular Sex Columnist",
        "col3": "246"
    },
    {
        "col0": "The Key to Midnight",
        "col1": "The Funhouse",
        "col2": "The Vision",
        "col3": "392"
    },
    {
        "col0": "The Kestrel",
        "col1": "The Beggar Queen",
        "col2": "Westmark",
        "col3": "244"
    },
    {
        "col0": "The Kennel Murder Case",
        "col1": "The Dragon Murder Case",
        "col2": "The Scarab Murder Case",
        "col3": "307"
    },
    {
        "col0": "The Keeping Place",
        "col1": "The Stone Key",
        "col2": "Ashling",
        "col3": "754"
    },
    {
        "col0": "The Kalahari Typing School for Men",
        "col1": "The Full Cupboard of Life",
        "col2": "Morality for Beautiful Girls",
        "col3": "191"
    },
    {
        "col0": "The Kachina Doll Mystery",
        "col1": "The Twin Dilemma",
        "col2": "The Swami's Ring",
        "col3": "192"
    },
    {
        "col0": "The Jupiter Myth",
        "col1": "The Accusers",
        "col2": "A Body in the Bath House",
        "col3": "352"
    },
    {
        "col0": "The Jungle Pyramid",
        "col1": "The Firebird Rocket",
        "col2": "The Witchmaster's Key",
        "col3": "180"
    },
    {
        "col0": "The Judgment of Caesar",
        "col1": "A Gladiator Dies Only Once",
        "col2": "A Mist of Prophecies",
        "col3": "290"
    },
    {
        "col0": "The Judging Eye",
        "col1": "The White-Luck Warrior",
        "col2": "The Thousandfold Thought",
        "col3": "448"
    },
    {
        "col0": "The Judas Window",
        "col1": "Death in Five Boxes",
        "col2": "The Ten Teacups",
        "col3": "191"
    },
    {
        "col0": "The Judas Goat",
        "col1": "Looking for Rachel Wallace",
        "col2": "Promised Land",
        "col3": "181"
    },
    {
        "col0": "The Journey",
        "col1": "The Test",
        "col2": "The Familiar",
        "col3": "139"
    },
    {
        "col0": "The Joiner King",
        "col1": "The Unseen Queen",
        "col2": "The Unifying Force",
        "col3": "544"
    },
    {
        "col0": "The Jewel That Was Ours",
        "col1": "The Way Through the Woods",
        "col2": "The Wench is Dead",
        "col3": "224"
    },
    {
        "col0": "The Jennifer Morgue",
        "col1": "The Fuller Memorandum",
        "col2": "The Atrocity Archives",
        "col3": "340"
    },
    {
        "col0": "The Island of the Colorblind",
        "col1": "Uncle Tungsten",
        "col2": "An Anthropologist on Mars",
        "col3": "336"
    },
    {
        "col0": "The Iron Woman",
        "col1": "The Rising Tide",
        "col2": "The Awakening of Helena Richie",
        "col3": "477"
    },
    {
        "col0": "The Iron Hand of Mars",
        "col1": "Poseidon's Gold",
        "col2": "Venus in Copper",
        "col3": "252"
    },
    {
        "col0": "The Ionian Mission",
        "col1": "Treason's Harbour",
        "col2": "The Surgeon's Mate",
        "col3": "368"
    },
    {
        "col0": "The Invaders",
        "col1": "The Hunters",
        "col2": "The Outcasts",
        "col3": "464"
    },
    {
        "col0": "The Intriguers",
        "col1": "The Intimidators",
        "col2": "The Poisoners",
        "col3": "208"
    },
    {
        "col0": "The Intimidators",
        "col1": "The Terminators",
        "col2": "The Intriguers",
        "col3": "287"
    },
    {
        "col0": "The Integral Trees",
        "col1": "The Smoke Ring",
        "col2": "A World Out of Time",
        "col3": "240"
    },
    {
        "col0": "The Innocents Abroad",
        "col1": "Roughing It",
        "col2": "The Celebrated Jumping Frog of Calaveras County",
        "col3": "685"
    }
]