[
    {
        "Team": "Toronto Balmy Beach Beachers",
        "GP": "4",
        "W": "3",
        "L": "1",
        "T": "0",
        "PF": "28",
        "PA": "30",
        "Pts": "6"
    },
    {
        "Team": "Toronto Varsity Orfuns",
        "GP": "4",
        "W": "2",
        "L": "2",
        "T": "0",
        "PF": "29",
        "PA": "20",
        "Pts": "4"
    },
    {
        "Team": "Hamilton Rowing Club",
        "GP": "4",
        "W": "1",
        "L": "3",
        "T": "0",
        "PF": "47",
        "PA": "54",
        "Pts": "2"
    }
]