[
    {
        "P": "1",
        "Team": "Rangers",
        "Pld": "38",
        "W": "27",
        "D": "6",
        "L": "5",
        "GF": "96",
        "GA": "29",
        "GD": "67",
        "Pts": "60"
    },
    {
        "P": "2",
        "Team": "Celtic",
        "Pld": "38",
        "W": "24",
        "D": "10",
        "L": "4",
        "GF": "101",
        "GA": "34",
        "GD": "67",
        "Pts": "58"
    },
    {
        "P": "3",
        "Team": "Motherwell",
        "Pld": "38",
        "W": "24",
        "D": "8",
        "L": "6",
        "GF": "102",
        "GA": "42",
        "GD": "60",
        "Pts": "56"
    },
    {
        "P": "4",
        "Team": "Partick Thistle",
        "Pld": "38",
        "W": "24",
        "D": "5",
        "L": "9",
        "GF": "76",
        "GA": "43",
        "GD": "33",
        "Pts": "53"
    },
    {
        "P": "5",
        "Team": "Heart of Midlothian",
        "Pld": "38",
        "W": "19",
        "D": "6",
        "L": "13",
        "GF": "90",
        "GA": "63",
        "GD": "27",
        "Pts": "44"
    },
    {
        "P": "6",
        "Team": "Aberdeen",
        "Pld": "38",
        "W": "17",
        "D": "7",
        "L": "14",
        "GF": "79",
        "GA": "63",
        "GD": "16",
        "Pts": "41"
    },
    {
        "P": "7",
        "Team": "Cowdenbeath",
        "Pld": "38",
        "W": "17",
        "D": "7",
        "L": "14",
        "GF": "58",
        "GA": "65",
        "GD": "AC/^'7",
        "Pts": "41"
    },
    {
        "P": "8",
        "Team": "Dundee",
        "Pld": "38",
        "W": "17",
        "D": "5",
        "L": "16",
        "GF": "65",
        "GA": "63",
        "GD": "2",
        "Pts": "39"
    },
    {
        "P": "9",
        "Team": "Airdrieonians",
        "Pld": "38",
        "W": "17",
        "D": "5",
        "L": "16",
        "GF": "59",
        "GA": "66",
        "GD": "AC/^'7",
        "Pts": "39"
    },
    {
        "P": "10",
        "Team": "Hamilton Academical",
        "Pld": "38",
        "W": "16",
        "D": "5",
        "L": "17",
        "GF": "59",
        "GA": "57",
        "GD": "2",
        "Pts": "37"
    },
    {
        "P": "11",
        "Team": "Kilmarnock",
        "Pld": "38",
        "W": "15",
        "D": "5",
        "L": "18",
        "GF": "59",
        "GA": "60",
        "GD": "AC/^'1",
        "Pts": "35"
    },
    {
        "P": "12",
        "Team": "Clyde",
        "Pld": "38",
        "W": "15",
        "D": "4",
        "L": "19",
        "GF": "60",
        "GA": "87",
        "GD": "AC/^'27",
        "Pts": "34"
    },
    {
        "P": "13",
        "Team": "Queen's Park",
        "Pld": "38",
        "W": "13",
        "D": "7",
        "L": "18",
        "GF": "71",
        "GA": "72",
        "GD": "AC/^'1",
        "Pts": "33"
    },
    {
        "P": "14",
        "Team": "Falkirk",
        "Pld": "38",
        "W": "14",
        "D": "4",
        "L": "20",
        "GF": "77",
        "GA": "87",
        "GD": "AC/^'10",
        "Pts": "32"
    },
    {
        "P": "15",
        "Team": "St. Mirren",
        "Pld": "38",
        "W": "11",
        "D": "8",
        "L": "19",
        "GF": "49",
        "GA": "72",
        "GD": "AC/^'23",
        "Pts": "30"
    },
    {
        "P": "16",
        "Team": "Morton",
        "Pld": "38",
        "W": "11",
        "D": "7",
        "L": "20",
        "GF": "58",
        "GA": "83",
        "GD": "AC/^'25",
        "Pts": "29"
    },
    {
        "P": "17",
        "Team": "Leith Athletic",
        "Pld": "38",
        "W": "8",
        "D": "11",
        "L": "19",
        "GF": "51",
        "GA": "85",
        "GD": "AC/^'34",
        "Pts": "27"
    },
    {
        "P": "18",
        "Team": "Ayr United",
        "Pld": "38",
        "W": "8",
        "D": "11",
        "L": "19",
        "GF": "53",
        "GA": "92",
        "GD": "AC/^'39",
        "Pts": "27"
    },
    {
        "P": "19",
        "Team": "Hibernian",
        "Pld": "38",
        "W": "9",
        "D": "7",
        "L": "22",
        "GF": "49",
        "GA": "81",
        "GD": "AC/^'32",
        "Pts": "25"
    },
    {
        "P": "20",
        "Team": "East Fife",
        "Pld": "38",
        "W": "8",
        "D": "4",
        "L": "26",
        "GF": "45",
        "GA": "113",
        "GD": "AC/^'68",
        "Pts": "20"
    }
]