[
    {
        "NO-HEADER0": "1.",
        "Club": "KS Cracovia"
    },
    {
        "NO-HEADER0": "2.",
        "Club": "AZS Warszawa"
    },
    {
        "NO-HEADER0": "3.",
        "Club": "KTH Krynica"
    },
    {
        "NO-HEADER0": "4.",
        "Club": "Czarni Lwow"
    },
    {
        "NO-HEADER0": "5.",
        "Club": "KS Warszawianka"
    }
]