[
    {
        "Pos": "1",
        "Club": "Nacional",
        "P": "18",
        "W": "15",
        "D": "2",
        "L": "1",
        "GF": "57",
        "GA": "23",
        "Pts": "32"
    },
    {
        "Pos": "2",
        "Club": "Penarol",
        "P": "18",
        "W": "12",
        "D": "3",
        "L": "3",
        "GF": "61",
        "GA": "22",
        "Pts": "27"
    },
    {
        "Pos": "3",
        "Club": "Miramar",
        "P": "18",
        "W": "8",
        "D": "1",
        "L": "9",
        "GF": "29",
        "GA": "45",
        "Pts": "17"
    },
    {
        "Pos": "4",
        "Club": "Defensor",
        "P": "18",
        "W": "6",
        "D": "4",
        "L": "8",
        "GF": "27",
        "GA": "32",
        "Pts": "16"
    },
    {
        "Pos": "5",
        "Club": "Montevideo Wanderers",
        "P": "18",
        "W": "6",
        "D": "4",
        "L": "8",
        "GF": "28",
        "GA": "35",
        "Pts": "16"
    },
    {
        "Pos": "6",
        "Club": "Liverpool",
        "P": "18",
        "W": "6",
        "D": "3",
        "L": "9",
        "GF": "28",
        "GA": "36",
        "Pts": "15"
    },
    {
        "Pos": "7",
        "Club": "Central",
        "P": "18",
        "W": "6",
        "D": "3",
        "L": "9",
        "GF": "30",
        "GA": "41",
        "Pts": "15"
    },
    {
        "Pos": "8",
        "Club": "Racing Montevideo",
        "P": "18",
        "W": "6",
        "D": "3",
        "L": "9",
        "GF": "28",
        "GA": "46",
        "Pts": "15"
    },
    {
        "Pos": "9",
        "Club": "Sud America",
        "P": "18",
        "W": "5",
        "D": "4",
        "L": "9",
        "GF": "27",
        "GA": "33",
        "Pts": "14"
    },
    {
        "Pos": "10",
        "Club": "Rampla Juniors",
        "P": "18",
        "W": "5",
        "D": "3",
        "L": "10",
        "GF": "28",
        "GA": "30",
        "Pts": "13"
    }
]