[
    {
        "Transferred from": "Division 2 Norra 1946AC/EUR\"47",
        "Transferred to": "Division 2 NordAfAPstra 1947AC/EUR\"48",
        "Team": "Ludvika FfI",
        "Reason": "Winners"
    },
    {
        "Transferred from": "Division 2 Norra 1946AC/EUR\"47",
        "Transferred to": "Division 2 NordAfAPstra 1947AC/EUR\"48",
        "Team": "Sandvikens AIK",
        "Reason": "2nd team"
    },
    {
        "Transferred from": "Division 2 Norra 1946AC/EUR\"47",
        "Transferred to": "Division 2 NordAfAPstra 1947AC/EUR\"48",
        "Team": "Surahammars IF",
        "Reason": "3rd team"
    },
    {
        "Transferred from": "Division 2 Norra 1946AC/EUR\"47",
        "Transferred to": "Division 2 NordAfAPstra 1947AC/EUR\"48",
        "Team": "Vasteras IK",
        "Reason": "4th team"
    },
    {
        "Transferred from": "Division 2 Norra 1946AC/EUR\"47",
        "Transferred to": "Division 2 NordAfAPstra 1947AC/EUR\"48",
        "Team": "IFK Vasteras",
        "Reason": "5th team"
    },
    {
        "Transferred from": "Division 2 Af-stra 1946AC/EUR\"47",
        "Transferred to": "Division 2 NordAfAPstra 1947AC/EUR\"48",
        "Team": "IK Sleipner",
        "Reason": "3rd team"
    },
    {
        "Transferred from": "Division 2 Af-stra 1946AC/EUR\"47",
        "Transferred to": "Reymersholms IK",
        "Team": "Division 2 NordAfAPstra 1947AC/EUR\"48",
        "Reason": "5th team"
    },
    {
        "Transferred from": "Division 2 VAfA$?stra 1946AC/EUR\"47",
        "Transferred to": "Division 2 NordAfAPstra 1947AC/EUR\"48",
        "Team": "Karlstads BIK",
        "Reason": "4th team"
    },
    {
        "Transferred from": "Division 2 VAfA$?stra 1946AC/EUR\"47",
        "Transferred to": "Karlskoga IF",
        "Team": "Division 2 NordAfAPstra 1947AC/EUR\"48",
        "Reason": "5th team"
    },
    {
        "Transferred from": "Division 2 Af-stra 1946AC/EUR\"47",
        "Transferred to": "Division 2 SydvAfA$?stra 1947AC/EUR\"48",
        "Team": "A tvidabergs FF",
        "Reason": "2nd team"
    },
    {
        "Transferred from": "Division 2 Af-stra 1946AC/EUR\"47",
        "Transferred to": "Division 2 SydvAfA$?stra 1947AC/EUR\"48",
        "Team": "Husqvarna IF",
        "Reason": "4th team"
    },
    {
        "Transferred from": "Division 2 VAfA$?stra 1946AC/EUR\"47",
        "Transferred to": "Division 2 SydvAfA$?stra 1947AC/EUR\"48",
        "Team": "Af-rgryte IS",
        "Reason": "Winners"
    },
    {
        "Transferred from": "Division 2 VAfA$?stra 1946AC/EUR\"47",
        "Transferred to": "Tidaholms GIF",
        "Team": "Division 2 SydvAfA$?stra 1947AC/EUR\"48",
        "Reason": "2nd team"
    },
    {
        "Transferred from": "Division 2 VAfA$?stra 1946AC/EUR\"47",
        "Transferred to": "IFK Uddevalla",
        "Team": "Division 2 SydvAfA$?stra 1947AC/EUR\"48",
        "Reason": "3rd team"
    },
    {
        "Transferred from": "Division 2 SAfAPdra 1946AC/EUR\"47",
        "Transferred to": "Division 2 SydvAfA$?stra 1947AC/EUR\"48",
        "Team": "Landskrona BoIS",
        "Reason": "2nd team"
    },
    {
        "Transferred from": "Division 2 SAfAPdra 1946AC/EUR\"47",
        "Transferred to": "IFK Malmo",
        "Team": "Division 2 SydvAfA$?stra 1947AC/EUR\"48",
        "Reason": "3rd team"
    },
    {
        "Transferred from": "Division 2 SAfAPdra 1946AC/EUR\"47",
        "Transferred to": "Kalmar FF",
        "Team": "Division 2 SydvAfA$?stra 1947AC/EUR\"48",
        "Reason": "4th team"
    },
    {
        "Transferred from": "Division 2 SAfAPdra 1946AC/EUR\"47",
        "Transferred to": "Hoganas BK",
        "Team": "Division 2 SydvAfA$?stra 1947AC/EUR\"48",
        "Reason": "5th team"
    }
]