[
    {
        "[1]": "1",
        "Team": "Af-rebro SK",
        "Pld": "18",
        "W": "12",
        "D": "2",
        "L": "4",
        "GF": "44",
        "NO-HEADER7": "AC/EUR\"",
        "GA": "23",
        "GD": "+21",
        "Pts": "26"
    },
    {
        "[1]": "2",
        "Team": "Karlstads BIK",
        "Pld": "18",
        "W": "12",
        "D": "1",
        "L": "5",
        "GF": "43",
        "NO-HEADER7": "AC/EUR\"",
        "GA": "22",
        "GD": "+21",
        "Pts": "25"
    },
    {
        "[1]": "3",
        "Team": "Ludvika FfI",
        "Pld": "18",
        "W": "10",
        "D": "3",
        "L": "5",
        "GF": "42",
        "NO-HEADER7": "AC/EUR\"",
        "GA": "26",
        "GD": "+16",
        "Pts": "23"
    },
    {
        "[1]": "4",
        "Team": "Sandvikens AIK",
        "Pld": "18",
        "W": "9",
        "D": "4",
        "L": "5",
        "GF": "37",
        "NO-HEADER7": "AC/EUR\"",
        "GA": "31",
        "GD": "+6",
        "Pts": "22"
    },
    {
        "[1]": "5",
        "Team": "Reymersholms IK",
        "Pld": "18",
        "W": "7",
        "D": "5",
        "L": "6",
        "GF": "31",
        "NO-HEADER7": "AC/EUR\"",
        "GA": "28",
        "GD": "+3",
        "Pts": "19"
    },
    {
        "[1]": "6",
        "Team": "Surahammars IF",
        "Pld": "18",
        "W": "7",
        "D": "3",
        "L": "8",
        "GF": "28",
        "NO-HEADER7": "AC/EUR\"",
        "GA": "25",
        "GD": "+3",
        "Pts": "17"
    },
    {
        "[1]": "7",
        "Team": "Karlskoga IF",
        "Pld": "18",
        "W": "7",
        "D": "2",
        "L": "9",
        "GF": "30",
        "NO-HEADER7": "AC/EUR\"",
        "GA": "32",
        "GD": "-2",
        "Pts": "16"
    },
    {
        "[1]": "8",
        "Team": "IK Sleipner",
        "Pld": "18",
        "W": "7",
        "D": "2",
        "L": "9",
        "GF": "30",
        "NO-HEADER7": "AC/EUR\"",
        "GA": "39",
        "GD": "-9",
        "Pts": "16"
    },
    {
        "[1]": "9",
        "Team": "Vasteras IK",
        "Pld": "18",
        "W": "5",
        "D": "4",
        "L": "9",
        "GF": "21",
        "NO-HEADER7": "AC/EUR\"",
        "GA": "35",
        "GD": "-14",
        "Pts": "14"
    },
    {
        "[1]": "10",
        "Team": "IFK Vasteras",
        "Pld": "18",
        "W": "0",
        "D": "2",
        "L": "16",
        "GF": "12",
        "NO-HEADER7": "AC/EUR\"",
        "GA": "57",
        "GD": "-45",
        "Pts": "2"
    }
]