[
    {
        "West": "St. Louis Flyers",
        "GP": "68",
        "W": "41",
        "L": "18",
        "T": "9",
        "Pts": "91",
        "GF": "294",
        "GA": "192"
    },
    {
        "West": "Indianapolis Capitals",
        "GP": "68",
        "W": "39",
        "L": "17",
        "T": "12",
        "Pts": "90",
        "GF": "288",
        "GA": "209"
    },
    {
        "West": "Cleveland Barons",
        "GP": "68",
        "W": "41",
        "L": "21",
        "T": "6",
        "Pts": "88",
        "GF": "286",
        "GA": "451"
    },
    {
        "West": "Pittsburgh Hornets",
        "GP": "68",
        "W": "39",
        "L": "19",
        "T": "10",
        "Pts": "88",
        "GF": "301",
        "GA": "175"
    },
    {
        "West": "Buffalo Bisons",
        "GP": "68",
        "W": "33",
        "L": "27",
        "T": "8",
        "Pts": "74",
        "GF": "246",
        "GA": "213"
    }
]