[
    {
        "view talk edit": "view talk edit",
        "W": "W",
        "L": "L",
        "T": "T",
        "PCT": "PCT",
        "CONF": "CONF",
        "PF": "PF",
        "PA": "PA",
        "STK": "STK"
    },
    {
        "view talk edit": "Los Angeles Rams",
        "W": "8",
        "L": "4",
        "T": "0",
        "PCT": ".667",
        "CONF": "7AC/EUR\"2",
        "PF": "392",
        "PA": "261",
        "STK": "W1"
    },
    {
        "view talk edit": "San Francisco 49ers",
        "W": "7",
        "L": "4",
        "T": "1",
        "PCT": ".636",
        "CONF": "5AC/EUR\"2AC/EUR\"1",
        "PF": "255",
        "PA": "205",
        "STK": "W3"
    },
    {
        "view talk edit": "Detroit Lions",
        "W": "7",
        "L": "4",
        "T": "1",
        "PCT": ".636",
        "CONF": "5AC/EUR\"4AC/EUR\"1",
        "PF": "336",
        "PA": "259",
        "STK": "L1"
    },
    {
        "view talk edit": "Chicago Bears",
        "W": "7",
        "L": "5",
        "T": "0",
        "PCT": ".583",
        "CONF": "6AC/EUR\"2",
        "PF": "286",
        "PA": "282",
        "STK": "L1"
    },
    {
        "view talk edit": "Green Bay Packers",
        "W": "3",
        "L": "9",
        "T": "0",
        "PCT": ".250",
        "CONF": "1AC/EUR\"8",
        "PF": "254",
        "PA": "375",
        "STK": "L7"
    },
    {
        "view talk edit": "New York Yanks",
        "W": "1",
        "L": "9",
        "T": "2",
        "PCT": ".100",
        "CONF": "1AC/EUR\"7AC/EUR\"2",
        "PF": "241",
        "PA": "382",
        "STK": "L2"
    }
]