[
    {
        "Position": "Pitcher",
        "Player": "Masaichi Kaneda",
        "Team": "Kokutetsu Swallows"
    },
    {
        "Position": "Catcher",
        "Player": "Shigeru Fujio",
        "Team": "Yomiuri Giants"
    },
    {
        "Position": "First baseman",
        "Player": "Tetsuharu Kawakami",
        "Team": "Yomiuri Giants"
    },
    {
        "Position": "Second baseman",
        "Player": "Noboru Inoue",
        "Team": "Chunichi Dragons"
    },
    {
        "Position": "Third baseman",
        "Player": "Nobukazu Miyake",
        "Team": "Osaka Tigers"
    },
    {
        "Position": "Shortstop",
        "Player": "Yoshio Yoshida",
        "Team": "Osaka Tigers"
    },
    {
        "Position": "Outfielder",
        "Player": "Wally Yonamine",
        "Team": "Yomiuri Giants"
    },
    {
        "Position": "Outfielder",
        "Player": "Kenjiro Tamiya",
        "Team": "Osaka Tigers"
    },
    {
        "Position": "Outfielder",
        "Player": "Noboru Aota",
        "Team": "Taiyo Whales"
    }
]