[
    {
        "Event": "C-1",
        "Gold": "Wolfgang Peters (FRG)",
        "Points": "318.05",
        "Silver": "Harald Cuypers (FRG)",
        "Points 4": "340.57",
        "Bronze": "Karel Kumpfmuller (TCH)",
        "Points 6": "341.92"
    },
    {
        "Event": "C-1 team",
        "Gold": "Czechoslovakia Karel Kumpfmuller Bohuslav Pospichal Petr Sodomka",
        "Points": "519.07",
        "Silver": "East Germany Jurgen Kohler Jochen Forster Manfred Schubert",
        "Points 4": "566.00",
        "Bronze": "West Germany Harald Cuypers Wolfgang Peters Otto Stumpf",
        "Points 6": "678.85"
    },
    {
        "Event": "C-2",
        "Gold": "Czechoslovakia Miroslav Stach ZdenA\">k Valenta",
        "Points": "279.99",
        "Silver": "Czechoslovakia Milan Horyna Vaclav Janousek",
        "Points 4": "293.26",
        "Bronze": "Czechoslovakia Ladislav MA\">A...A!A...AY=an ZdenA\">k MA\">A...A!A...AY=an",
        "Points 6": "300.40"
    },
    {
        "Event": "C-2 team",
        "Gold": "East Germany Ulrich Hippauf & Willi Landers Siegfried Luck & Jurgen Noak Gunther Merkel & Manfred Merkel",
        "Points": "416.68",
        "Silver": "Czechoslovakia Milan Horyna & VAfA!clav JanouA...A!ek Ladislav MA\">A...A!A...AY=an & ZdenA\">k MA\">A...A!A...AY=an Miroslav Stach & ZdenA\">k Valenta",
        "Points 4": "420.15",
        "Bronze": "West Germany Gere GlAfA 1/4 ck & Klaus Nenninger Manfred HeAfY & Wolfgang Wenzel Karl-Heinz Scheffer & Heinz-JAfA 1/4 rgen Steinschulte",
        "Points 6": "525.57"
    }
]