[
    {
        "Round": "1",
        "Date": "19 Aug 1970",
        "Opponents": "Reading",
        "Venue": "H",
        "Result": "2AC/EUR\"1",
        "Scorers": "Brown, Young",
        "Attendance": "3,624"
    },
    {
        "Round": "2",
        "Date": "9 Sep 1970",
        "Opponents": "Blackpool",
        "Venue": "A",
        "Result": "1AC/EUR\"4",
        "Scorers": "Brown",
        "Attendance": "9,828"
    }
]