[
    {
        "Team": "Clarence",
        "Played": "20",
        "Won": "14",
        "Lost": "6",
        "Draw": "0",
        "For": "2045",
        "Against": "1851",
        "Percentage": "110.48%",
        "Points": "56"
    },
    {
        "Team": "New Norfolk",
        "Played": "20",
        "Won": "13",
        "Lost": "7",
        "Draw": "0",
        "For": "1954",
        "Against": "1760",
        "Percentage": "111.02%",
        "Points": "52"
    },
    {
        "Team": "Sandy Bay",
        "Played": "20",
        "Won": "12",
        "Lost": "8",
        "Draw": "0",
        "For": "2169",
        "Against": "1889",
        "Percentage": "114.66%",
        "Points": "48"
    },
    {
        "Team": "Glenorchy",
        "Played": "20",
        "Won": "9",
        "Lost": "11",
        "Draw": "0",
        "For": "1939",
        "Against": "1943",
        "Percentage": "99.79%",
        "Points": "36"
    },
    {
        "Team": "North Hobart",
        "Played": "20",
        "Won": "7",
        "Lost": "13",
        "Draw": "0",
        "For": "1687",
        "Against": "2024",
        "Percentage": "83.35%",
        "Points": "32"
    },
    {
        "Team": "Hobart",
        "Played": "20",
        "Won": "5",
        "Lost": "15",
        "Draw": "0",
        "For": "1746",
        "Against": "2073",
        "Percentage": "84.23%",
        "Points": "20"
    }
]