[
    {
        "v t e AL East": "Baltimore Orioles",
        "W": "101",
        "L": "57",
        "Pct.": "0.639",
        "GB": "AC/EUR\"",
        "Home": "53AC/EUR\"24",
        "Road": "48AC/EUR\"33"
    },
    {
        "v t e AL East": "Detroit Tigers",
        "W": "91",
        "L": "71",
        "Pct.": "0.562",
        "GB": "12",
        "Home": "54AC/EUR\"27",
        "Road": "37AC/EUR\"44"
    },
    {
        "v t e AL East": "Boston Red Sox",
        "W": "85",
        "L": "77",
        "Pct.": "0.525",
        "GB": "18",
        "Home": "47AC/EUR\"33",
        "Road": "38AC/EUR\"44"
    },
    {
        "v t e AL East": "New York Yankees",
        "W": "82",
        "L": "80",
        "Pct.": "0.506",
        "GB": "21",
        "Home": "44AC/EUR\"37",
        "Road": "38AC/EUR\"43"
    },
    {
        "v t e AL East": "Washington Senators",
        "W": "63",
        "L": "96",
        "Pct.": "0.396",
        "GB": "38 1/2 ",
        "Home": "35AC/EUR\"46",
        "Road": "28AC/EUR\"50"
    },
    {
        "v t e AL East": "Cleveland Indians",
        "W": "60",
        "L": "102",
        "Pct.": "0.370",
        "GB": "43",
        "Home": "29AC/EUR\"52",
        "Road": "31AC/EUR\"50"
    }
]