[
    {
        "Tie no": "1",
        "Home team": "Sheffield Wednesday",
        "Score": "1AC/EUR\"2",
        "Away team": "Chelsea",
        "Date": "24 February 1973"
    },
    {
        "Tie no": "2",
        "Home team": "Bolton Wanderers",
        "Score": "0AC/EUR\"1",
        "Away team": "Luton Town",
        "Date": "24 February 1973"
    },
    {
        "Tie no": "3",
        "Home team": "Wolverhampton Wanderers",
        "Score": "1AC/EUR\"0",
        "Away team": "Millwall",
        "Date": "24 February 1973"
    },
    {
        "Tie no": "4",
        "Home team": "Derby County",
        "Score": "4AC/EUR\"2",
        "Away team": "Queens Park Rangers",
        "Date": "24 February 1973"
    },
    {
        "Tie no": "5",
        "Home team": "Manchester City",
        "Score": "2AC/EUR\"2",
        "Away team": "Sunderland",
        "Date": "24 February 1973"
    },
    {
        "Tie no": "Replay",
        "Home team": "Sunderland",
        "Score": "3AC/EUR\"1",
        "Away team": "Manchester City",
        "Date": "27 February 1973"
    },
    {
        "Tie no": "6",
        "Home team": "Coventry City",
        "Score": "3AC/EUR\"0",
        "Away team": "Hull City",
        "Date": "24 February 1973"
    },
    {
        "Tie no": "7",
        "Home team": "Carlisle United",
        "Score": "1AC/EUR\"2",
        "Away team": "Arsenal",
        "Date": "24 February 1973"
    },
    {
        "Tie no": "8",
        "Home team": "Leeds United",
        "Score": "2AC/EUR\"0",
        "Away team": "West Bromwich Albion",
        "Date": "24 February 1973"
    }
]