[
    {
        "NO-HEADER0": "",
        "Czechoslovakia": "Soviet Union"
    },
    {
        "NO-HEADER0": "",
        "Czechoslovakia": "Sweden"
    },
    {
        "NO-HEADER0": "4",
        "Czechoslovakia": "United States"
    },
    {
        "NO-HEADER0": "5",
        "Czechoslovakia": "Finland"
    },
    {
        "NO-HEADER0": "6",
        "Czechoslovakia": "West Germany"
    },
    {
        "NO-HEADER0": "7",
        "Czechoslovakia": "Poland"
    },
    {
        "NO-HEADER0": "8",
        "Czechoslovakia": "East Germany"
    }
]