[
    {
        "Pos": "1",
        "Rider": "Kork Ballington",
        "Manufacturer": "Kawasaki",
        "Laps": "20",
        "Time": "45:33.2",
        "Grid": "1",
        "Points": "15"
    },
    {
        "Pos": "2",
        "Rider": "Takazumi Katayama",
        "Manufacturer": "Yamaha",
        "Laps": "20",
        "Time": "+3.2",
        "Grid": "9",
        "Points": "12"
    },
    {
        "Pos": "3",
        "Rider": "Tom Herron",
        "Manufacturer": "Yamaha",
        "Laps": "20",
        "Time": "+35.8",
        "Grid": "19",
        "Points": "10"
    },
    {
        "Pos": "4",
        "Rider": "Vic Soussan",
        "Manufacturer": "Yamaha",
        "Laps": "20",
        "Time": "+36.9",
        "Grid": "6",
        "Points": "8"
    },
    {
        "Pos": "5",
        "Rider": "Jon Ekerold",
        "Manufacturer": "Yamaha",
        "Laps": "20",
        "Time": "+44.7",
        "Grid": "5",
        "Points": "6"
    },
    {
        "Pos": "6",
        "Rider": "Guy Bertin",
        "Manufacturer": "Yamaha",
        "Laps": "20",
        "Time": "+49.0",
        "Grid": "7",
        "Points": "5"
    },
    {
        "Pos": "7",
        "Rider": "Michel Rougerie",
        "Manufacturer": "Yamaha",
        "Laps": "20",
        "Time": "+50.7",
        "Grid": "2",
        "Points": "4"
    },
    {
        "Pos": "8",
        "Rider": "Olivier Chevallier",
        "Manufacturer": "Yamaha",
        "Laps": "20",
        "Time": "+1:10.4",
        "Grid": "10",
        "Points": "3"
    },
    {
        "Pos": "9",
        "Rider": "Paolo Pileri",
        "Manufacturer": "Morbidelli",
        "Laps": "20",
        "Time": "+1:10.8",
        "Grid": "8",
        "Points": "2"
    },
    {
        "Pos": "10",
        "Rider": "Eero Hyvarinen",
        "Manufacturer": "Yamaha",
        "Laps": "20",
        "Time": "+1:12.2",
        "Grid": "",
        "Points": "1"
    },
    {
        "Pos": "11",
        "Rider": "Bruno Kneubuhler",
        "Manufacturer": "Yamaha",
        "Laps": "20",
        "Time": "+1:35.8",
        "Grid": "",
        "Points": ""
    },
    {
        "Pos": "12",
        "Rider": "Michel Frutschi",
        "Manufacturer": "Yamaha",
        "Laps": "20",
        "Time": "+1:45.8",
        "Grid": "12",
        "Points": ""
    },
    {
        "Pos": "13",
        "Rider": "Seppo Rossi",
        "Manufacturer": "Yamaha",
        "Laps": "20",
        "Time": "+2:09.8",
        "Grid": "",
        "Points": ""
    },
    {
        "Pos": "14",
        "Rider": "Reino Eskelinen",
        "Manufacturer": "Yamaha",
        "Laps": "20",
        "Time": "+2:22.4",
        "Grid": "",
        "Points": ""
    },
    {
        "Pos": "15",
        "Rider": "Les van Breda",
        "Manufacturer": "Yamaha",
        "Laps": "19",
        "Time": "+1 lap",
        "Grid": "",
        "Points": ""
    },
    {
        "Pos": "",
        "Rider": "Gregg Hansford",
        "Manufacturer": "Kawasaki",
        "Laps": "",
        "Time": "",
        "Grid": "3",
        "Points": ""
    },
    {
        "Pos": "",
        "Rider": "Anton Mang",
        "Manufacturer": "Kawasaki",
        "Laps": "",
        "Time": "",
        "Grid": "4",
        "Points": ""
    },
    {
        "Pos": "",
        "Rider": "Marco Lucchinelli",
        "Manufacturer": "Harley-Davidson",
        "Laps": "",
        "Time": "",
        "Grid": "11",
        "Points": ""
    },
    {
        "Pos": "",
        "Rider": "Mick Grant",
        "Manufacturer": "Kawasaki",
        "Laps": "",
        "Time": "",
        "Grid": "13",
        "Points": ""
    },
    {
        "Pos": "",
        "Rider": "Leif Gustafsson",
        "Manufacturer": "Yamaha",
        "Laps": "",
        "Time": "",
        "Grid": "14",
        "Points": ""
    },
    {
        "Pos": "",
        "Rider": "Chas Mortimer",
        "Manufacturer": "Yamaha",
        "Laps": "",
        "Time": "",
        "Grid": "15",
        "Points": ""
    },
    {
        "Pos": "",
        "Rider": "Patrick Fernandez",
        "Manufacturer": "Yamaha",
        "Laps": "",
        "Time": "",
        "Grid": "16",
        "Points": ""
    },
    {
        "Pos": "",
        "Rider": "Christian Sarron",
        "Manufacturer": "Yamaha",
        "Laps": "",
        "Time": "",
        "Grid": "17",
        "Points": ""
    },
    {
        "Pos": "",
        "Rider": "Patrick Pons",
        "Manufacturer": "Yamaha",
        "Laps": "",
        "Time": "",
        "Grid": "18",
        "Points": ""
    },
    {
        "Pos": "",
        "Rider": "Pentti Korhonen",
        "Manufacturer": "Yamaha",
        "Laps": "",
        "Time": "",
        "Grid": "20",
        "Points": ""
    },
    {
        "Pos": "35 starters in total",
        "Rider": "",
        "Manufacturer": "",
        "Laps": "",
        "Time": "",
        "Grid": "",
        "Points": ""
    },
    {
        "Pos": "[1]",
        "Rider": "",
        "Manufacturer": "",
        "Laps": "",
        "Time": "",
        "Grid": "",
        "Points": ""
    }
]