[
    {
        "Game": "50",
        "Date": "February 2",
        "Visitor": "Philadelphia",
        "Score": "4 AC/EUR\" 0",
        "Home": "Pittsburgh",
        "Decision": "Peeters",
        "Attendance": "16,033",
        "Record": "35AC/EUR\"3AC/EUR\"12",
        "Points": "82"
    },
    {
        "Game": "51",
        "Date": "February 3",
        "Visitor": "Boston",
        "Score": "3 AC/EUR\" 3",
        "Home": "Philadelphia",
        "Decision": "Myre",
        "Attendance": "17,077",
        "Record": "35AC/EUR\"3AC/EUR\"13",
        "Points": "83"
    },
    {
        "Game": "52",
        "Date": "February 7",
        "Visitor": "Vancouver",
        "Score": "4 AC/EUR\" 1",
        "Home": "Philadelphia",
        "Decision": "Myre",
        "Attendance": "17,077",
        "Record": "35AC/EUR\"4AC/EUR\"13",
        "Points": "83"
    },
    {
        "Game": "53",
        "Date": "February 9",
        "Visitor": "Philadelphia",
        "Score": "6 AC/EUR\" 5",
        "Home": "Detroit",
        "Decision": "Peeters",
        "Attendance": "19,353",
        "Record": "36AC/EUR\"4AC/EUR\"13",
        "Points": "85"
    },
    {
        "Game": "54",
        "Date": "February 10",
        "Visitor": "Los Angeles",
        "Score": "2 AC/EUR\" 5",
        "Home": "Philadelphia",
        "Decision": "Myre",
        "Attendance": "17,077",
        "Record": "37AC/EUR\"4AC/EUR\"13",
        "Points": "87"
    },
    {
        "Game": "55",
        "Date": "February 14",
        "Visitor": "Winnipeg",
        "Score": "1 AC/EUR\" 5",
        "Home": "Philadelphia",
        "Decision": "Peeters",
        "Attendance": "17,077",
        "Record": "38AC/EUR\"4AC/EUR\"13",
        "Points": "89"
    },
    {
        "Game": "56",
        "Date": "February 17",
        "Visitor": "Pittsburgh",
        "Score": "5 AC/EUR\" 6",
        "Home": "Philadelphia",
        "Decision": "Myre",
        "Attendance": "17,077",
        "Record": "39AC/EUR\"4AC/EUR\"13",
        "Points": "91"
    },
    {
        "Game": "57",
        "Date": "February 19",
        "Visitor": "Philadelphia",
        "Score": "6 AC/EUR\" 8",
        "Home": "Colorado",
        "Decision": "Peeters",
        "Attendance": "11,563",
        "Record": "39AC/EUR\"5AC/EUR\"13",
        "Points": "91"
    },
    {
        "Game": "58",
        "Date": "February 22",
        "Visitor": "Philadelphia",
        "Score": "7 AC/EUR\" 3",
        "Home": "Vancouver",
        "Decision": "Myre",
        "Attendance": "16,341",
        "Record": "40AC/EUR\"5AC/EUR\"13",
        "Points": "93"
    },
    {
        "Game": "59",
        "Date": "February 23",
        "Visitor": "Philadelphia",
        "Score": "5 AC/EUR\" 1",
        "Home": "Los Angeles",
        "Decision": "Peeters",
        "Attendance": "16,005",
        "Record": "41AC/EUR\"5AC/EUR\"13",
        "Points": "95"
    },
    {
        "Game": "60",
        "Date": "February 27",
        "Visitor": "Philadelphia",
        "Score": "1 AC/EUR\" 1",
        "Home": "Buffalo",
        "Decision": "Myre",
        "Attendance": "16,433",
        "Record": "41AC/EUR\"5AC/EUR\"14",
        "Points": "96"
    }
]