[
    {
        "Team 1": "US Goree",
        "Agg.": "2-1",
        "Team 2": "Raccah Rovers",
        "1st leg": "2-0",
        "2nd leg": "0-1"
    },
    {
        "Team 1": "Hafia FC",
        "Agg.": "2-3",
        "Team 2": "Hearts of Oak",
        "1st leg": "2-0",
        "2nd leg": "0-3"
    },
    {
        "Team 1": "Al Zamalek",
        "Agg.": "3-2",
        "Team 2": "CS Imana",
        "1st leg": "3-1",
        "2nd leg": "0-12"
    },
    {
        "Team 1": "Matlama FC",
        "Agg.": "1-5",
        "Team 2": "Union Douala",
        "1st leg": "1-3",
        "2nd leg": "0-2"
    }
]