[
    {
        "Date": "March 16",
        "Name": "Arthur Godfrey",
        "Age": "79",
        "Notability": "Host (Arthur Godfrey's Talent Scouts)"
    },
    {
        "Date": "July 20",
        "Name": "Frank Reynolds",
        "Age": "53",
        "Notability": "ABC news journalist"
    },
    {
        "Date": "July 29",
        "Name": "Raymond Massey",
        "Age": "86",
        "Notability": "Actor (Dr. Gillespie on Dr. Kildare)"
    },
    {
        "Date": "August 3",
        "Name": "Carolyn Jones",
        "Age": "53",
        "Notability": "Actress (Morticia on The Addams Family)"
    },
    {
        "Date": "August 28",
        "Name": "Jan Clayton",
        "Age": "66",
        "Notability": "Actress (Ellen Miller on Lassie)"
    },
    {
        "Date": "August 29",
        "Name": "Simon Oakland",
        "Age": "68",
        "Notability": "Actor (Baa Baa Black Sheep)"
    },
    {
        "Date": "October 23",
        "Name": "Jessica Savitch",
        "Age": "36",
        "Notability": "NBC news anchor"
    },
    {
        "Date": "November 22",
        "Name": "Michael Conrad",
        "Age": "58",
        "Notability": "Actor (Sgt. Phil Esterhasz on Hill Street Blues)"
    },
    {
        "Date": "November 14",
        "Name": "Junior Samples",
        "Age": "57",
        "Notability": "Comedian (Hee Haw)"
    },
    {
        "Date": "November 28",
        "Name": "Christopher George",
        "Age": "52",
        "Notability": "Actor (Sgt. Sam Troy on The Rat Patrol)"
    },
    {
        "Date": "December 28",
        "Name": "William Demarest",
        "Age": "91",
        "Notability": "Actor (Uncle Charlie on My Three Sons)"
    }
]