[
    {
        "Sheet A": "New Brunswick (Leahy)",
        "1": "1",
        "2": "0",
        "3": "1",
        "4": "0",
        "5": "3",
        "6": "1",
        "7": "0",
        "8": "0",
        "9": "1",
        "10": "0",
        "Final": "7"
    },
    {
        "Sheet A": "Northwest Territories\\/Yukon (Moss)",
        "1": "0",
        "2": "1",
        "3": "0",
        "4": "2",
        "5": "0",
        "6": "0",
        "7": "1",
        "8": "2",
        "9": "0",
        "10": "2",
        "Final": "8"
    }
]