[
    {
        "Place": "1",
        "Rider": "Stefan Dorflinger",
        "Machine": "Zundapp",
        "NAT": "2",
        "ESP": "7",
        "AUT": "1",
        "GER": "1",
        "YUG": "1",
        "NED": "Ret",
        "BEL": "1",
        "RSM": "5",
        "Points": "82"
    },
    {
        "Place": "2",
        "Rider": "Hubert Abold",
        "Machine": "Zundapp",
        "NAT": "3",
        "ESP": "4",
        "AUT": "2",
        "GER": "4",
        "YUG": "2",
        "NED": "3",
        "BEL": "6",
        "RSM": "3",
        "Points": "75"
    },
    {
        "Place": "3",
        "Rider": "Pier Paolo Bianchi",
        "Machine": "Huvo-Casal",
        "NAT": "1",
        "ESP": "1",
        "AUT": "4",
        "GER": "2",
        "YUG": "Ret",
        "NED": "6",
        "BEL": "4",
        "RSM": "6",
        "Points": "68"
    },
    {
        "Place": "4",
        "Rider": "Jorge Martinez",
        "Machine": "Derbi",
        "NAT": "7",
        "ESP": "8",
        "AUT": "5",
        "GER": "Ret",
        "YUG": "3",
        "NED": "1",
        "BEL": "2",
        "RSM": "2",
        "Points": "62"
    },
    {
        "Place": "5",
        "Rider": "Gerhard Waibel",
        "Machine": "Real",
        "NAT": "5",
        "ESP": "Ret",
        "AUT": "3",
        "GER": "3",
        "YUG": "4",
        "NED": "4",
        "BEL": "7",
        "RSM": "1",
        "Points": "61"
    },
    {
        "Place": "6",
        "Rider": "Hans Spaan",
        "Machine": "Casal",
        "NAT": "4",
        "ESP": "5",
        "AUT": "6",
        "GER": "Ret",
        "YUG": "5",
        "NED": "2",
        "BEL": "3",
        "RSM": "Ret",
        "Points": "47"
    },
    {
        "Place": "7",
        "Rider": "Willem Heykoop",
        "Machine": "Huvo-Casal",
        "NAT": "6",
        "ESP": "",
        "AUT": "7",
        "GER": "5",
        "YUG": "Ret",
        "NED": "5",
        "BEL": "5",
        "RSM": "9",
        "Points": "29"
    },
    {
        "Place": "8",
        "Rider": "Hans Muller",
        "Machine": "Sachs",
        "NAT": "Ret",
        "ESP": "3",
        "AUT": "8",
        "GER": "Ret",
        "YUG": "",
        "NED": "8",
        "BEL": "9",
        "RSM": "Ret",
        "Points": "18"
    },
    {
        "Place": "9",
        "Rider": "George Looijesteyn",
        "Machine": "Casal",
        "NAT": "12",
        "ESP": "9",
        "AUT": "Ret",
        "GER": "6",
        "YUG": "6",
        "NED": "7",
        "BEL": "Ret",
        "RSM": "Ret",
        "Points": "16"
    },
    {
        "Place": "10",
        "Rider": "Theo Timmer",
        "Machine": "Casal",
        "NAT": "11",
        "ESP": "Ret",
        "AUT": "Ret",
        "GER": "Ret",
        "YUG": "9",
        "NED": "9",
        "BEL": "10",
        "RSM": "4",
        "Points": "13"
    },
    {
        "Place": "11",
        "Rider": "Henk Van Kessel",
        "Machine": "Huvo-Casal",
        "NAT": "",
        "ESP": "2",
        "AUT": "",
        "GER": "",
        "YUG": "",
        "NED": "",
        "BEL": "",
        "RSM": "",
        "Points": "12"
    },
    {
        "Place": "12",
        "Rider": "Zdravko Matulja",
        "Machine": "Tomos",
        "NAT": "19",
        "ESP": "",
        "AUT": "9",
        "GER": "8",
        "YUG": "7",
        "NED": "11",
        "BEL": "11",
        "RSM": "Ret",
        "Points": "9"
    },
    {
        "Place": "13",
        "Rider": "Serge Julin",
        "Machine": "Casal",
        "NAT": "",
        "ESP": "",
        "AUT": "",
        "GER": "7",
        "YUG": "Ret",
        "NED": "20",
        "BEL": "8",
        "RSM": "Ret",
        "Points": "7"
    },
    {
        "Place": "14",
        "Rider": "Paul Rimmelzwaan",
        "Machine": "Harmsen",
        "NAT": "Ret",
        "ESP": "",
        "AUT": "",
        "GER": "13",
        "YUG": "8",
        "NED": "10",
        "BEL": "Ret",
        "RSM": "8",
        "Points": "7"
    },
    {
        "Place": "15",
        "Rider": "Rainer Scheidhauer",
        "Machine": "Seel",
        "NAT": "Ret",
        "ESP": "6",
        "AUT": "Ret",
        "GER": "Ret",
        "YUG": "",
        "NED": "",
        "BEL": "",
        "RSM": "",
        "Points": "5"
    },
    {
        "Place": "16",
        "Rider": "Reinhard Koberstein",
        "Machine": "Seel",
        "NAT": "9",
        "ESP": "10",
        "AUT": "Ret",
        "GER": "9",
        "YUG": "Ret",
        "NED": "DNS",
        "BEL": "",
        "RSM": "Ret",
        "Points": "5"
    },
    {
        "Place": "17",
        "Rider": "Gerd Kafka",
        "Machine": "Sachs",
        "NAT": "",
        "ESP": "",
        "AUT": "",
        "GER": "",
        "YUG": "",
        "NED": "",
        "BEL": "",
        "RSM": "7",
        "Points": "4"
    },
    {
        "Place": "18",
        "Rider": "Maurizio Stocco",
        "Machine": "Lusuardi",
        "NAT": "8",
        "ESP": "",
        "AUT": "Ret",
        "GER": "",
        "YUG": "",
        "NED": "",
        "BEL": "",
        "RSM": "Ret",
        "Points": "3"
    },
    {
        "Place": "19",
        "Rider": "Otto Machinek",
        "Machine": "Kreidler",
        "NAT": "13",
        "ESP": "",
        "AUT": "14",
        "GER": "12",
        "YUG": "10",
        "NED": "Ret",
        "BEL": "14",
        "RSM": "10",
        "Points": "2"
    },
    {
        "Place": "20",
        "Rider": "Claudio Granata",
        "Machine": "Garelli",
        "NAT": "10",
        "ESP": "",
        "AUT": "",
        "GER": "",
        "YUG": "11",
        "NED": "",
        "BEL": "",
        "RSM": "",
        "Points": "1"
    },
    {
        "Place": "21",
        "Rider": "Thomas Engl",
        "Machine": "Sachs",
        "NAT": "Ret",
        "ESP": "",
        "AUT": "10",
        "GER": "18",
        "YUG": "Ret",
        "NED": "Ret",
        "BEL": "",
        "RSM": "Ret",
        "Points": "1"
    },
    {
        "Place": "22",
        "Rider": "Bernd Rossbach",
        "Machine": "Casal",
        "NAT": "",
        "ESP": "",
        "AUT": "12",
        "GER": "10",
        "YUG": "Ret",
        "NED": "14",
        "BEL": "18",
        "RSM": "13",
        "Points": "1"
    },
    {
        "Place": "",
        "Rider": "Johann Auer",
        "Machine": "Eberhardt",
        "NAT": "",
        "ESP": "",
        "AUT": "11",
        "GER": "16",
        "YUG": "Ret",
        "NED": "18",
        "BEL": "16",
        "RSM": "11",
        "Points": "0"
    },
    {
        "Place": "",
        "Rider": "Bertus Grinwis",
        "Machine": "Casal",
        "NAT": "",
        "ESP": "",
        "AUT": "Ret",
        "GER": "11",
        "YUG": "",
        "NED": "13",
        "BEL": "12",
        "RSM": "",
        "Points": "0"
    },
    {
        "Place": "",
        "Rider": "Tony Smith",
        "Machine": "Casal",
        "NAT": "23",
        "ESP": "11",
        "AUT": "Ret",
        "GER": "14",
        "YUG": "",
        "NED": "",
        "BEL": "",
        "RSM": "",
        "Points": "0"
    },
    {
        "Place": "",
        "Rider": "Hans Koopman",
        "Machine": "Kreidler",
        "NAT": "15",
        "ESP": "",
        "AUT": "19",
        "GER": "Ret",
        "YUG": "12",
        "NED": "12",
        "BEL": "15",
        "RSM": "Ret",
        "Points": "0"
    },
    {
        "Place": "",
        "Rider": "Chris Baert",
        "Machine": "Eberhardt",
        "NAT": "14",
        "ESP": "12",
        "AUT": "13",
        "GER": "15",
        "YUG": "15",
        "NED": "19",
        "BEL": "17",
        "RSM": "20",
        "Points": "0"
    },
    {
        "Place": "",
        "Rider": "Salvatore Milano",
        "Machine": "Casal",
        "NAT": "17",
        "ESP": "",
        "AUT": "",
        "GER": "",
        "YUG": "13",
        "NED": "",
        "BEL": "",
        "RSM": "12",
        "Points": "0"
    },
    {
        "Place": "",
        "Rider": "Jos van Dongen",
        "Machine": "Sachs",
        "NAT": "20",
        "ESP": "",
        "AUT": "15",
        "GER": "19",
        "YUG": "16",
        "NED": "16",
        "BEL": "13",
        "RSM": "19",
        "Points": "0"
    },
    {
        "Place": "",
        "Rider": "Giuliano Tabanelli",
        "Machine": "BBFT",
        "NAT": "Ret",
        "ESP": "",
        "AUT": "",
        "GER": "",
        "YUG": "14",
        "NED": "",
        "BEL": "",
        "RSM": "18",
        "Points": "0"
    },
    {
        "Place": "",
        "Rider": "Ian McConnachie",
        "Machine": "Casal",
        "NAT": "",
        "ESP": "",
        "AUT": "",
        "GER": "",
        "YUG": "",
        "NED": "",
        "BEL": "",
        "RSM": "14",
        "Points": "0"
    },
    {
        "Place": "",
        "Rider": "Bruno Casanova",
        "Machine": "Casal",
        "NAT": "Ret",
        "ESP": "",
        "AUT": "",
        "GER": "",
        "YUG": "",
        "NED": "",
        "BEL": "",
        "RSM": "15",
        "Points": "0"
    },
    {
        "Place": "",
        "Rider": "Aad Wijsman",
        "Machine": "Harmsen",
        "NAT": "",
        "ESP": "",
        "AUT": "",
        "GER": "",
        "YUG": "",
        "NED": "15",
        "BEL": "",
        "RSM": "",
        "Points": "0"
    },
    {
        "Place": "",
        "Rider": "Inge Arends",
        "Machine": "Jas",
        "NAT": "",
        "ESP": "",
        "AUT": "16",
        "GER": "Ret",
        "YUG": "",
        "NED": "25",
        "BEL": "",
        "RSM": "",
        "Points": "0"
    },
    {
        "Place": "",
        "Rider": "Rainer Kunz",
        "Machine": "FKN",
        "NAT": "Ret",
        "ESP": "",
        "AUT": "Ret",
        "GER": "",
        "YUG": "Ret",
        "NED": "Ret",
        "BEL": "Ret",
        "RSM": "16",
        "Points": "0"
    },
    {
        "Place": "",
        "Rider": "Joaquin Gali",
        "Machine": "Kreidler",
        "NAT": "16",
        "ESP": "Ret",
        "AUT": "",
        "GER": "",
        "YUG": "",
        "NED": "",
        "BEL": "",
        "RSM": "",
        "Points": "0"
    },
    {
        "Place": "",
        "Rider": "Bert Smit",
        "Machine": "BZ",
        "NAT": "",
        "ESP": "",
        "AUT": "",
        "GER": "17",
        "YUG": "",
        "NED": "17",
        "BEL": "",
        "RSM": "",
        "Points": "0"
    },
    {
        "Place": "",
        "Rider": "Gunter Schirnhofer",
        "Machine": "Honda",
        "NAT": "",
        "ESP": "",
        "AUT": "17",
        "GER": "Ret",
        "YUG": "18",
        "NED": "23",
        "BEL": "19",
        "RSM": "22",
        "Points": "0"
    },
    {
        "Place": "",
        "Rider": "Miljenko Nervo",
        "Machine": "Sever",
        "NAT": "",
        "ESP": "",
        "AUT": "",
        "GER": "",
        "YUG": "17",
        "NED": "",
        "BEL": "",
        "RSM": "",
        "Points": "0"
    },
    {
        "Place": "",
        "Rider": "Massimo Fargeri",
        "Machine": "Casal",
        "NAT": "",
        "ESP": "",
        "AUT": "",
        "GER": "",
        "YUG": "",
        "NED": "",
        "BEL": "",
        "RSM": "17",
        "Points": "0"
    },
    {
        "Place": "",
        "Rider": "Pasquale Buonfante",
        "Machine": "Kreidler",
        "NAT": "18",
        "ESP": "",
        "AUT": "",
        "GER": "",
        "YUG": "19",
        "NED": "",
        "BEL": "",
        "RSM": "Ret",
        "Points": "0"
    },
    {
        "Place": "",
        "Rider": "Mika-Sakari Komu",
        "Machine": "Eberhardt",
        "NAT": "",
        "ESP": "",
        "AUT": "18",
        "GER": "Ret",
        "YUG": "",
        "NED": "24",
        "BEL": "",
        "RSM": "",
        "Points": "0"
    },
    {
        "Place": "",
        "Rider": "Lajos Horti",
        "Machine": "Kreidler",
        "NAT": "",
        "ESP": "",
        "AUT": "",
        "GER": "",
        "YUG": "20",
        "NED": "",
        "BEL": "",
        "RSM": "",
        "Points": "0"
    },
    {
        "Place": "",
        "Rider": "Georges Fisette",
        "Machine": "Casal",
        "NAT": "",
        "ESP": "",
        "AUT": "",
        "GER": "",
        "YUG": "",
        "NED": "",
        "BEL": "20",
        "RSM": "",
        "Points": "0"
    },
    {
        "Place": "",
        "Rider": "Eico Rispens",
        "Machine": "Rispens",
        "NAT": "",
        "ESP": "",
        "AUT": "",
        "GER": "Ret",
        "YUG": "",
        "NED": "21",
        "BEL": "",
        "RSM": "",
        "Points": "0"
    },
    {
        "Place": "",
        "Rider": "Simone Crespi",
        "Machine": "Minarelli",
        "NAT": "21",
        "ESP": "",
        "AUT": "",
        "GER": "",
        "YUG": "",
        "NED": "",
        "BEL": "",
        "RSM": "",
        "Points": "0"
    },
    {
        "Place": "",
        "Rider": "Steve Mason",
        "Machine": "MBA",
        "NAT": "",
        "ESP": "",
        "AUT": "",
        "GER": "",
        "YUG": "",
        "NED": "",
        "BEL": "",
        "RSM": "21",
        "Points": "0"
    },
    {
        "Place": "",
        "Rider": "Reiner Koster",
        "Machine": "Casal",
        "NAT": "24",
        "ESP": "",
        "AUT": "Ret",
        "GER": "Ret",
        "YUG": "Ret",
        "NED": "22",
        "BEL": "Ret",
        "RSM": "23",
        "Points": "0"
    },
    {
        "Place": "",
        "Rider": "Nicola Casadei",
        "Machine": "Casal",
        "NAT": "22",
        "ESP": "",
        "AUT": "",
        "GER": "",
        "YUG": "",
        "NED": "",
        "BEL": "",
        "RSM": "Ret",
        "Points": "0"
    },
    {
        "Place": "",
        "Rider": "Gerhard Bauer",
        "Machine": "Ziegler",
        "NAT": "",
        "ESP": "Ret",
        "AUT": "Ret",
        "GER": "Ret",
        "YUG": "",
        "NED": "Ret",
        "BEL": "",
        "RSM": "",
        "Points": "0"
    },
    {
        "Place": "",
        "Rider": "Hans Hummel",
        "Machine": "Hummel",
        "NAT": "",
        "ESP": "",
        "AUT": "Ret",
        "GER": "Ret",
        "YUG": "",
        "NED": "Ret",
        "BEL": "",
        "RSM": "Ret",
        "Points": "0"
    },
    {
        "Place": "",
        "Rider": "Stefan Kurfiss",
        "Machine": "Kreidler",
        "NAT": "Ret",
        "ESP": "",
        "AUT": "Ret",
        "GER": "",
        "YUG": "",
        "NED": "",
        "BEL": "",
        "RSM": "",
        "Points": "0"
    },
    {
        "Place": "",
        "Rider": "Kasimir Rapczynski",
        "Machine": "Kreidler",
        "NAT": "",
        "ESP": "",
        "AUT": "",
        "GER": "Ret",
        "YUG": "Ret",
        "NED": "",
        "BEL": "",
        "RSM": "",
        "Points": "0"
    },
    {
        "Place": "",
        "Rider": "Ezio Saffiotti",
        "Machine": "UFO",
        "NAT": "Ret",
        "ESP": "",
        "AUT": "",
        "GER": "",
        "YUG": "",
        "NED": "",
        "BEL": "",
        "RSM": "DNQ",
        "Points": "0"
    },
    {
        "Place": "",
        "Rider": "Paolo Priori",
        "Machine": "Lusuardi",
        "NAT": "Ret",
        "ESP": "",
        "AUT": "",
        "GER": "",
        "YUG": "",
        "NED": "",
        "BEL": "",
        "RSM": "DNQ",
        "Points": "0"
    },
    {
        "Place": "",
        "Rider": "Ricardo Tormo",
        "Machine": "Derbi",
        "NAT": "Ret",
        "ESP": "",
        "AUT": "",
        "GER": "",
        "YUG": "",
        "NED": "",
        "BEL": "",
        "RSM": "",
        "Points": "0"
    },
    {
        "Place": "",
        "Rider": "Ramon Gali",
        "Machine": "Bultaco",
        "NAT": "",
        "ESP": "Ret",
        "AUT": "",
        "GER": "",
        "YUG": "",
        "NED": "",
        "BEL": "",
        "RSM": "",
        "Points": "0"
    },
    {
        "Place": "",
        "Rider": "Manuel Herreros",
        "Machine": "Huvo-Casal",
        "NAT": "",
        "ESP": "Ret",
        "AUT": "",
        "GER": "",
        "YUG": "",
        "NED": "",
        "BEL": "",
        "RSM": "",
        "Points": "0"
    },
    {
        "Place": "",
        "Rider": "Henrique Sande",
        "Machine": "Carmona",
        "NAT": "",
        "ESP": "Ret",
        "AUT": "",
        "GER": "",
        "YUG": "",
        "NED": "",
        "BEL": "",
        "RSM": "",
        "Points": "0"
    },
    {
        "Place": "",
        "Rider": "Daniel Mateos",
        "Machine": "Autisa",
        "NAT": "",
        "ESP": "Ret",
        "AUT": "",
        "GER": "",
        "YUG": "",
        "NED": "",
        "BEL": "",
        "RSM": "",
        "Points": "0"
    },
    {
        "Place": "",
        "Rider": "Jorge Jimenez",
        "Machine": "Huvo-Casal",
        "NAT": "",
        "ESP": "Ret",
        "AUT": "",
        "GER": "",
        "YUG": "",
        "NED": "",
        "BEL": "",
        "RSM": "",
        "Points": "0"
    },
    {
        "Place": "",
        "Rider": "Pablo Cegarra",
        "Machine": "Huvo-Casal",
        "NAT": "",
        "ESP": "Ret",
        "AUT": "",
        "GER": "",
        "YUG": "",
        "NED": "",
        "BEL": "",
        "RSM": "",
        "Points": "0"
    },
    {
        "Place": "",
        "Rider": "Erich Reuberger",
        "Machine": "Suzuki",
        "NAT": "",
        "ESP": "",
        "AUT": "Ret",
        "GER": "",
        "YUG": "",
        "NED": "",
        "BEL": "",
        "RSM": "",
        "Points": "0"
    },
    {
        "Place": "",
        "Rider": "Mauro Mordenti",
        "Machine": "Kreidler",
        "NAT": "",
        "ESP": "",
        "AUT": "",
        "GER": "",
        "YUG": "Ret",
        "NED": "",
        "BEL": "",
        "RSM": "",
        "Points": "0"
    },
    {
        "Place": "",
        "Rider": "Robert Hmeljak",
        "Machine": "MBA",
        "NAT": "",
        "ESP": "",
        "AUT": "",
        "GER": "",
        "YUG": "Ret",
        "NED": "",
        "BEL": "",
        "RSM": "",
        "Points": "0"
    },
    {
        "Place": "",
        "Rider": "Hans Stevens",
        "Machine": "Casal",
        "NAT": "",
        "ESP": "",
        "AUT": "",
        "GER": "",
        "YUG": "",
        "NED": "",
        "BEL": "Ret",
        "RSM": "",
        "Points": "0"
    },
    {
        "Place": "",
        "Rider": "Massimo de Lorenzi",
        "Machine": "RB",
        "NAT": "",
        "ESP": "",
        "AUT": "",
        "GER": "",
        "YUG": "",
        "NED": "",
        "BEL": "",
        "RSM": "Ret",
        "Points": "0"
    },
    {
        "Place": "",
        "Rider": "Edward Rees",
        "Machine": "Kreidler",
        "NAT": "",
        "ESP": "",
        "AUT": "",
        "GER": "",
        "YUG": "",
        "NED": "",
        "BEL": "",
        "RSM": "DNQ",
        "Points": "0"
    }
]