[
    {
        "Player": "Gene Banks",
        "GP": "82",
        "GS": "33",
        "MPG": "26.1",
        "FG%": ".517",
        "3P%": ".000",
        "FT%": ".718",
        "RPG": "4.4",
        "APG": "3.1",
        "SPG": ".99",
        "BPG": ".12",
        "PPG": "10.9"
    },
    {
        "Player": "Ron Brewer",
        "GP": "4",
        "GS": "0",
        "MPG": "4.5",
        "FG%": ".333",
        "3P%": ".000",
        "FT%": "1.000",
        "RPG": ".0",
        "APG": ".0",
        "SPG": ".00",
        "BPG": ".00",
        "PPG": "1.8"
    },
    {
        "Player": "Tony Brown",
        "GP": "10",
        "GS": "0",
        "MPG": "13.2",
        "FG%": ".439",
        "3P%": ".000",
        "FT%": ".692",
        "RPG": "1.6",
        "APG": "1.4",
        "SPG": ".50",
        "BPG": ".10",
        "PPG": "4.5"
    },
    {
        "Player": "Dave Corzine",
        "GP": "67",
        "GS": "4",
        "MPG": "25.5",
        "FG%": ".491",
        "3P%": ".250",
        "FT%": ".743",
        "RPG": "6.5",
        "APG": "2.2",
        "SPG": ".42",
        "BPG": ".79",
        "PPG": "9.6"
    },
    {
        "Player": "Quintin Dailey",
        "GP": "35",
        "GS": "0",
        "MPG": "20.7",
        "FG%": ".432",
        "3P%": ".000",
        "FT%": ".823",
        "RPG": "1.9",
        "APG": "1.9",
        "SPG": ".63",
        "BPG": ".14",
        "PPG": "16.3"
    },
    {
        "Player": "George Gervin",
        "GP": "82",
        "GS": "75",
        "MPG": "25.2",
        "FG%": ".472",
        "3P%": ".211",
        "FT%": ".879",
        "RPG": "2.6",
        "APG": "1.8",
        "SPG": ".60",
        "BPG": ".28",
        "PPG": "16.2"
    },
    {
        "Player": "Sidney Green",
        "GP": "80",
        "GS": "68",
        "MPG": "28.8",
        "FG%": ".465",
        "3P%": ".000",
        "FT%": ".782",
        "RPG": "8.2",
        "APG": "1.7",
        "SPG": ".88",
        "BPG": ".46",
        "PPG": "13.4"
    },
    {
        "Player": "Rod Higgins",
        "GP": "5",
        "GS": "0",
        "MPG": "16.2",
        "FG%": ".391",
        "3P%": ".000",
        "FT%": ".833",
        "RPG": "1.4",
        "APG": "1.0",
        "SPG": ".80",
        "BPG": ".60",
        "PPG": "4.6"
    },
    {
        "Player": "Mike Holton",
        "GP": "24",
        "GS": "0",
        "MPG": "18.6",
        "FG%": ".471",
        "3P%": ".100",
        "FT%": ".632",
        "RPG": "1.2",
        "APG": "2.0",
        "SPG": ".96",
        "BPG": ".00",
        "PPG": "7.1"
    },
    {
        "Player": "Michael Jordan",
        "GP": "18",
        "GS": "7",
        "MPG": "25.1",
        "FG%": ".457",
        "3P%": ".167",
        "FT%": ".840",
        "RPG": "3.6",
        "APG": "2.9",
        "SPG": "2.06",
        "BPG": "1.17",
        "PPG": "22.7"
    },
    {
        "Player": "Kyle Macy",
        "GP": "82",
        "GS": "79",
        "MPG": "29.6",
        "FG%": ".483",
        "3P%": ".411",
        "FT%": ".811",
        "RPG": "2.2",
        "APG": "5.4",
        "SPG": ".99",
        "BPG": ".13",
        "PPG": "8.6"
    },
    {
        "Player": "Billy McKinney",
        "GP": "9",
        "GS": "0",
        "MPG": "9.2",
        "FG%": ".435",
        "3P%": ".000",
        "FT%": "1.000",
        "RPG": ".6",
        "APG": "1.4",
        "SPG": ".33",
        "BPG": ".00",
        "PPG": "2.4"
    },
    {
        "Player": "Charles Oakley",
        "GP": "77",
        "GS": "30",
        "MPG": "23.0",
        "FG%": ".519",
        "3P%": ".000",
        "FT%": ".662",
        "RPG": "8.6",
        "APG": "1.7",
        "SPG": ".88",
        "BPG": ".39",
        "PPG": "9.6"
    },
    {
        "Player": "Jawann Oldham",
        "GP": "52",
        "GS": "47",
        "MPG": "24.5",
        "FG%": ".517",
        "3P%": ".000",
        "FT%": ".582",
        "RPG": "5.9",
        "APG": ".7",
        "SPG": ".54",
        "BPG": "2.58",
        "PPG": "7.4"
    },
    {
        "Player": "John Paxson",
        "GP": "75",
        "GS": "3",
        "MPG": "20.9",
        "FG%": ".466",
        "3P%": ".300",
        "FT%": ".804",
        "RPG": "1.3",
        "APG": "3.7",
        "SPG": ".73",
        "BPG": ".03",
        "PPG": "5.3"
    },
    {
        "Player": "Mike Smrek",
        "GP": "38",
        "GS": "5",
        "MPG": "10.7",
        "FG%": ".377",
        "3P%": ".000",
        "FT%": ".552",
        "RPG": "2.9",
        "APG": ".5",
        "SPG": ".16",
        "BPG": ".61",
        "PPG": "2.8"
    },
    {
        "Player": "Orlando Woolridge",
        "GP": "70",
        "GS": "59",
        "MPG": "32.1",
        "FG%": ".495",
        "3P%": ".174",
        "FT%": ".788",
        "RPG": "5.0",
        "APG": "3.0",
        "SPG": ".70",
        "BPG": ".67",
        "PPG": "20.7"
    }
]