[
    {
        "Team": "Kazma SC",
        "Pts": "6",
        "Pld": "4",
        "W": "3",
        "D": "0",
        "L": "1",
        "GF": "6",
        "GA": "1",
        "GD": "+5"
    },
    {
        "Team": "Al-Hilal",
        "Pts": "5",
        "Pld": "4",
        "W": "2",
        "D": "1",
        "L": "1",
        "GF": "6",
        "GA": "3",
        "GD": "+3"
    },
    {
        "Team": "Muharraq Club",
        "Pts": "4",
        "Pld": "4",
        "W": "2",
        "D": "0",
        "L": "2",
        "GF": "5",
        "GA": "7",
        "GD": "AC/^'2"
    },
    {
        "Team": "Al-Nasr",
        "Pts": "3",
        "Pld": "4",
        "W": "1",
        "D": "1",
        "L": "2",
        "GF": "3",
        "GA": "4",
        "GD": "AC/^'1"
    },
    {
        "Team": "Fanja",
        "Pts": "2",
        "Pld": "4",
        "W": "1",
        "D": "0",
        "L": "3",
        "GF": "4",
        "GA": "9",
        "GD": "AC/^'5"
    }
]