[
    {
        "Pos": "1",
        "Club": "Le Havre",
        "P": "34",
        "Pts": "47",
        "GF": "52",
        "GA": "17",
        "W": "18",
        "D": "11",
        "L": "5",
        "Note": "Promoted"
    },
    {
        "Pos": "2",
        "Club": "Lens",
        "P": "34",
        "Pts": "42",
        "GF": "49",
        "GA": "26",
        "W": "14",
        "D": "14",
        "L": "6",
        "Note": "Promoted"
    },
    {
        "Pos": "3",
        "Club": "Stade Lavallois",
        "P": "34",
        "Pts": "41",
        "GF": "49",
        "GA": "29",
        "W": "16",
        "D": "9",
        "L": "9",
        "Note": ""
    },
    {
        "Pos": "4",
        "Club": "Angers",
        "P": "34",
        "Pts": "40",
        "GF": "52",
        "GA": "32",
        "W": "16",
        "D": "8",
        "L": "10",
        "Note": ""
    },
    {
        "Pos": "5",
        "Club": "Rouen",
        "P": "34",
        "Pts": "40",
        "GF": "46",
        "GA": "26",
        "W": "15",
        "D": "10",
        "L": "9",
        "Note": ""
    },
    {
        "Pos": "6",
        "Club": "Stade Reims",
        "P": "34",
        "Pts": "37",
        "GF": "38",
        "GA": "29",
        "W": "13",
        "D": "11",
        "L": "10",
        "Note": "Relegated"
    },
    {
        "Pos": "7",
        "Club": "En Avant Guingamp",
        "P": "34",
        "Pts": "35",
        "GF": "35",
        "GA": "37",
        "W": "12",
        "D": "11",
        "L": "11",
        "Note": ""
    },
    {
        "Pos": "8",
        "Club": "St Seurin",
        "P": "34",
        "Pts": "34",
        "GF": "33",
        "GA": "37",
        "W": "10",
        "D": "14",
        "L": "10",
        "Note": ""
    },
    {
        "Pos": "9",
        "Club": "Tours",
        "P": "34",
        "Pts": "33",
        "GF": "26",
        "GA": "32",
        "W": "9",
        "D": "15",
        "L": "10",
        "Note": ""
    },
    {
        "Pos": "10",
        "Club": "Red Star Paris",
        "P": "34",
        "Pts": "32",
        "GF": "36",
        "GA": "43",
        "W": "9",
        "D": "14",
        "L": "11",
        "Note": ""
    },
    {
        "Pos": "11",
        "Club": "Beauvais",
        "P": "34",
        "Pts": "31",
        "GF": "21",
        "GA": "25",
        "W": "9",
        "D": "13",
        "L": "12",
        "Note": ""
    },
    {
        "Pos": "12",
        "Club": "La Roche sur Yon",
        "P": "34",
        "Pts": "31",
        "GF": "35",
        "GA": "46",
        "W": "10",
        "D": "11",
        "L": "13",
        "Note": ""
    },
    {
        "Pos": "13",
        "Club": "Bourges",
        "P": "34",
        "Pts": "31",
        "GF": "35",
        "GA": "51",
        "W": "10",
        "D": "11",
        "L": "13",
        "Note": ""
    },
    {
        "Pos": "14",
        "Club": "Le Mans",
        "P": "34",
        "Pts": "30",
        "GF": "28",
        "GA": "33",
        "W": "8",
        "D": "14",
        "L": "12",
        "Note": ""
    },
    {
        "Pos": "15",
        "Club": "Chamois Niort",
        "P": "34",
        "Pts": "29",
        "GF": "26",
        "GA": "33",
        "W": "9",
        "D": "11",
        "L": "14",
        "Note": "Relegated"
    },
    {
        "Pos": "16",
        "Club": "Orleans",
        "P": "34",
        "Pts": "28",
        "GF": "29",
        "GA": "41",
        "W": "7",
        "D": "14",
        "L": "13",
        "Note": ""
    },
    {
        "Pos": "17",
        "Club": "US Creteil",
        "P": "34",
        "Pts": "26",
        "GF": "28",
        "GA": "52",
        "W": "7",
        "D": "12",
        "L": "15",
        "Note": "Relegated"
    },
    {
        "Pos": "18",
        "Club": "Olympique Saint-Quentin",
        "P": "34",
        "Pts": "25",
        "GF": "24",
        "GA": "53",
        "W": "7",
        "D": "11",
        "L": "16",
        "Note": ""
    }
]