[
    {
        "Team v t e": "Sweden",
        "Pld": "6",
        "Pts": "10"
    },
    {
        "Team v t e": "England",
        "Pld": "6",
        "Pts": "9"
    },
    {
        "Team v t e": "Poland",
        "Pld": "6",
        "Pts": "5"
    },
    {
        "Team v t e": "Albania",
        "Pld": "6",
        "Pts": "0"
    }
]