[
    {
        "Teams": "Guatemala",
        "Pld": "2",
        "W": "2",
        "D": "0",
        "L": "0",
        "GF": "5",
        "GA": "1",
        "GD": "+4",
        "Pts": "4"
    },
    {
        "Teams": "Suriname",
        "Pld": "2",
        "W": "1",
        "D": "0",
        "L": "1",
        "GF": "2",
        "GA": "4",
        "GD": "AC/EUR\"2",
        "Pts": "2"
    },
    {
        "Teams": "Bermuda",
        "Pld": "2",
        "W": "0",
        "D": "0",
        "L": "2",
        "GF": "2",
        "GA": "4",
        "GD": "AC/EUR\"2",
        "Pts": "0"
    }
]