[
    {
        "Game No": "",
        "Fixture Date": "",
        "Home Team": "",
        "NO-HEADER3": "",
        "Score": "",
        "NO-HEADER5": "",
        "Away Team": "",
        "Venue": "",
        "Att": "",
        "Rec": "",
        "Notes": "",
        "Ref": ""
    },
    {
        "Game No": "1",
        "Fixture Date": "Sat 11 Dec 1993",
        "Home Team": "St Helens",
        "NO-HEADER3": "",
        "Score": "8-16",
        "NO-HEADER5": "",
        "Away Team": "Warrington",
        "Venue": "Knowsley Road",
        "Att": "5366",
        "Rec": "",
        "Notes": "",
        "Ref": "[5][8]"
    },
    {
        "Game No": "2",
        "Fixture Date": "Sun 12 Dec 1993",
        "Home Team": "Carlisle",
        "NO-HEADER3": "",
        "Score": "34-4",
        "NO-HEADER5": "",
        "Away Team": "Bramley",
        "Venue": "Gifford Park",
        "Att": "516",
        "Rec": "",
        "Notes": "",
        "Ref": ""
    },
    {
        "Game No": "3",
        "Fixture Date": "Sun 12 Dec 1993",
        "Home Team": "Hull F.C.",
        "NO-HEADER3": "",
        "Score": "10-6",
        "NO-HEADER5": "",
        "Away Team": "Widnes",
        "Venue": "Boulevard",
        "Att": "3412",
        "Rec": "",
        "Notes": "18",
        "Ref": "[7][9]"
    },
    {
        "Game No": "4",
        "Fixture Date": "Sun 12 Dec 1993",
        "Home Team": "Oldham",
        "NO-HEADER3": "",
        "Score": "8-16",
        "NO-HEADER5": "",
        "Away Team": "Wigan",
        "Venue": "Watersheddings",
        "Att": "6342",
        "Rec": "",
        "Notes": "19",
        "Ref": "[2]"
    },
    {
        "Game No": "5",
        "Fixture Date": "Sun 12 Dec 1993",
        "Home Team": "Ryedale-York",
        "NO-HEADER3": "",
        "Score": "10-42",
        "NO-HEADER5": "",
        "Away Team": "London Crusaders",
        "Venue": "Ryedale Stadium",
        "Att": "741",
        "Rec": "",
        "Notes": "",
        "Ref": ""
    },
    {
        "Game No": "6",
        "Fixture Date": "Mon 13 Dec 1993",
        "Home Team": "Castleford",
        "NO-HEADER3": "",
        "Score": "54-14",
        "NO-HEADER5": "",
        "Away Team": "Leigh",
        "Venue": "The Jungle",
        "Att": "2116",
        "Rec": "",
        "Notes": "",
        "Ref": ""
    },
    {
        "Game No": "7",
        "Fixture Date": "Tue 14 Dec 1993",
        "Home Team": "Batley",
        "NO-HEADER3": "",
        "Score": "8-12",
        "NO-HEADER5": "",
        "Away Team": "Salford",
        "Venue": "Mount Pleasant",
        "Att": "809",
        "Rec": "",
        "Notes": "",
        "Ref": ""
    },
    {
        "Game No": "8",
        "Fixture Date": "Thu 16 Dec 1993",
        "Home Team": "Bradford Northern",
        "NO-HEADER3": "",
        "Score": "16-8",
        "NO-HEADER5": "",
        "Away Team": "Halifax",
        "Venue": "Odsal",
        "Att": "5057",
        "Rec": "",
        "Notes": "",
        "Ref": ""
    }
]