[
    {
        "Pos": "1",
        "Team": "Macclesfield Town",
        "Pld": "42",
        "NO-HEADER3": "",
        "W": "14",
        "D": "3",
        "L": "4",
        "F": "39",
        "A": "18",
        "NO-HEADER9": "",
        "W 10": "10",
        "D 11": "5",
        "L 12": "6",
        "F 13": "31",
        "A 14": "22",
        "NO-HEADER15": "",
        "F 16": "70",
        "A 17": "40",
        "GD": "+ 30",
        "NO-HEADER19": "",
        "Pts": "80"
    },
    {
        "Pos": "2",
        "Team": "Woking",
        "Pld": "42",
        "NO-HEADER3": "",
        "W": "11",
        "D": "8",
        "L": "2",
        "F": "46",
        "A": "23",
        "NO-HEADER9": "",
        "W 10": "10",
        "D 11": "4",
        "L 12": "7",
        "F 13": "30",
        "A 14": "31",
        "NO-HEADER15": "",
        "F 16": "76",
        "A 17": "54",
        "GD": "+ 22",
        "NO-HEADER19": "",
        "Pts": "75"
    },
    {
        "Pos": "3",
        "Team": "Southport",
        "Pld": "42",
        "NO-HEADER3": "",
        "W": "13",
        "D": "4",
        "L": "4",
        "F": "46",
        "A": "21",
        "NO-HEADER9": "",
        "W 10": "8",
        "D 11": "5",
        "L 12": "8",
        "F 13": "22",
        "A 14": "29",
        "NO-HEADER15": "",
        "F 16": "68",
        "A 17": "50",
        "GD": "+ 18",
        "NO-HEADER19": "",
        "Pts": "72"
    },
    {
        "Pos": "4",
        "Team": "Altrincham",
        "Pld": "42",
        "NO-HEADER3": "",
        "W": "10",
        "D": "3",
        "L": "8",
        "F": "34",
        "A": "27",
        "NO-HEADER9": "",
        "W 10": "10",
        "D 11": "5",
        "L 12": "6",
        "F 13": "43",
        "A 14": "33",
        "NO-HEADER15": "",
        "F 16": "77",
        "A 17": "60",
        "GD": "+ 17",
        "NO-HEADER19": "",
        "Pts": "68"
    },
    {
        "Pos": "5",
        "Team": "Stevenage Borough",
        "Pld": "42",
        "NO-HEADER3": "",
        "W": "10",
        "D": "4",
        "L": "7",
        "F": "40",
        "A": "27",
        "NO-HEADER9": "",
        "W 10": "10",
        "D 11": "3",
        "L 12": "8",
        "F 13": "28",
        "A 14": "22",
        "NO-HEADER15": "",
        "F 16": "68",
        "A 17": "49",
        "GD": "+ 19",
        "NO-HEADER19": "",
        "Pts": "67"
    },
    {
        "Pos": "6",
        "Team": "Kettering Town",
        "Pld": "42",
        "NO-HEADER3": "",
        "W": "12",
        "D": "5",
        "L": "4",
        "F": "40",
        "A": "25",
        "NO-HEADER9": "",
        "W 10": "7",
        "D 11": "5",
        "L 12": "9",
        "F 13": "33",
        "A 14": "31",
        "NO-HEADER15": "",
        "F 16": "73",
        "A 17": "56",
        "GD": "+ 17",
        "NO-HEADER19": "",
        "Pts": "67"
    },
    {
        "Pos": "7",
        "Team": "Gateshead",
        "Pld": "42",
        "NO-HEADER3": "",
        "W": "12",
        "D": "4",
        "L": "5",
        "F": "28",
        "A": "13",
        "NO-HEADER9": "",
        "W 10": "7",
        "D 11": "6",
        "L 12": "8",
        "F 13": "33",
        "A 14": "40",
        "NO-HEADER15": "",
        "F 16": "61",
        "A 17": "53",
        "GD": "+ 8",
        "NO-HEADER19": "",
        "Pts": "67"
    },
    {
        "Pos": "8",
        "Team": "Halifax Town",
        "Pld": "42",
        "NO-HEADER3": "",
        "W": "11",
        "D": "6",
        "L": "4",
        "F": "46",
        "A": "20",
        "NO-HEADER9": "",
        "W 10": "6",
        "D 11": "6",
        "L 12": "9",
        "F 13": "22",
        "A 14": "34",
        "NO-HEADER15": "",
        "F 16": "68",
        "A 17": "54",
        "GD": "+ 14",
        "NO-HEADER19": "",
        "Pts": "63"
    },
    {
        "Pos": "9",
        "Team": "Runcorn",
        "Pld": "42",
        "NO-HEADER3": "",
        "W": "11",
        "D": "7",
        "L": "3",
        "F": "39",
        "A": "28",
        "NO-HEADER9": "",
        "W 10": "5",
        "D 11": "3",
        "L 12": "13",
        "F 13": "20",
        "A 14": "43",
        "NO-HEADER15": "",
        "F 16": "59",
        "A 17": "71",
        "GD": "AC/EUR\" 12",
        "NO-HEADER19": "",
        "Pts": "58"
    },
    {
        "Pos": "10",
        "Team": "Northwich Victoria",
        "Pld": "42",
        "NO-HEADER3": "",
        "W": "7",
        "D": "8",
        "L": "6",
        "F": "39",
        "A": "30",
        "NO-HEADER9": "",
        "W 10": "7",
        "D 11": "7",
        "L 12": "7",
        "F 13": "38",
        "A 14": "36",
        "NO-HEADER15": "",
        "F 16": "77",
        "A 17": "66",
        "GD": "+ 11",
        "NO-HEADER19": "",
        "Pts": "57"
    },
    {
        "Pos": "11",
        "Team": "Kidderminster Harriers",
        "Pld": "42",
        "NO-HEADER3": "",
        "W": "6",
        "D": "5",
        "L": "10",
        "F": "28",
        "A": "29",
        "NO-HEADER9": "",
        "W 10": "10",
        "D 11": "4",
        "L 12": "7",
        "F 13": "35",
        "A 14": "32",
        "NO-HEADER15": "",
        "F 16": "63",
        "A 17": "61",
        "GD": "+ 2",
        "NO-HEADER19": "",
        "Pts": "57"
    },
    {
        "Pos": "12",
        "Team": "Bath City",
        "Pld": "42",
        "NO-HEADER3": "",
        "W": "10",
        "D": "6",
        "L": "5",
        "F": "35",
        "A": "26",
        "NO-HEADER9": "",
        "W 10": "5",
        "D 11": "6",
        "L 12": "10",
        "F 13": "20",
        "A 14": "30",
        "NO-HEADER15": "",
        "F 16": "55",
        "A 17": "56",
        "GD": "AC/EUR\" 1",
        "NO-HEADER19": "",
        "Pts": "57"
    },
    {
        "Pos": "13",
        "Team": "Bromsgrove Rovers",
        "Pld": "42",
        "NO-HEADER3": "",
        "W": "9",
        "D": "7",
        "L": "5",
        "F": "42",
        "A": "35",
        "NO-HEADER9": "",
        "W 10": "5",
        "D 11": "6",
        "L 12": "10",
        "F 13": "24",
        "A 14": "34",
        "NO-HEADER15": "",
        "F 16": "66",
        "A 17": "69",
        "GD": "AC/EUR\" 3",
        "NO-HEADER19": "",
        "Pts": "55"
    },
    {
        "Pos": "14",
        "Team": "Farnborough Town",
        "Pld": "42",
        "NO-HEADER3": "",
        "W": "8",
        "D": "5",
        "L": "8",
        "F": "23",
        "A": "31",
        "NO-HEADER9": "",
        "W 10": "7",
        "D 11": "5",
        "L 12": "9",
        "F 13": "22",
        "A 14": "33",
        "NO-HEADER15": "",
        "F 16": "45",
        "A 17": "64",
        "GD": "AC/EUR\" 19",
        "NO-HEADER19": "",
        "Pts": "55"
    },
    {
        "Pos": "15",
        "Team": "Dagenham & Redbridge",
        "Pld": "42",
        "NO-HEADER3": "",
        "W": "8",
        "D": "5",
        "L": "8",
        "F": "28",
        "A": "32",
        "NO-HEADER9": "",
        "W 10": "5",
        "D 11": "8",
        "L 12": "8",
        "F 13": "28",
        "A 14": "37",
        "NO-HEADER15": "",
        "F 16": "56",
        "A 17": "69",
        "GD": "AC/EUR\" 13",
        "NO-HEADER19": "",
        "Pts": "52"
    },
    {
        "Pos": "16",
        "Team": "Dover Athletic",
        "Pld": "42",
        "NO-HEADER3": "",
        "W": "6",
        "D": "10",
        "L": "5",
        "F": "28",
        "A": "25",
        "NO-HEADER9": "",
        "W 10": "5",
        "D 11": "6",
        "L 12": "10",
        "F 13": "20",
        "A 14": "30",
        "NO-HEADER15": "",
        "F 16": "48",
        "A 17": "55",
        "GD": "AC/EUR\" 7",
        "NO-HEADER19": "",
        "Pts": "49"
    },
    {
        "Pos": "17",
        "Team": "Welling United",
        "Pld": "42",
        "NO-HEADER3": "",
        "W": "9",
        "D": "3",
        "L": "9",
        "F": "31",
        "A": "33",
        "NO-HEADER9": "",
        "W 10": "4",
        "D 11": "7",
        "L 12": "10",
        "F 13": "26",
        "A 14": "41",
        "NO-HEADER15": "",
        "F 16": "57",
        "A 17": "74",
        "GD": "AC/EUR\" 17",
        "NO-HEADER19": "",
        "Pts": "49"
    },
    {
        "Pos": "18",
        "Team": "Stalybridge Celtic",
        "Pld": "42",
        "NO-HEADER3": "",
        "W": "9",
        "D": "6",
        "L": "6",
        "F": "29",
        "A": "27",
        "NO-HEADER9": "",
        "W 10": "2",
        "D 11": "8",
        "L 12": "11",
        "F 13": "23",
        "A 14": "45",
        "NO-HEADER15": "",
        "F 16": "52",
        "A 17": "72",
        "GD": "AC/EUR\" 20",
        "NO-HEADER19": "",
        "Pts": "47"
    },
    {
        "Pos": "19",
        "Team": "Telford United",
        "Pld": "42",
        "NO-HEADER3": "",
        "W": "9",
        "D": "9",
        "L": "3",
        "F": "30",
        "A": "20",
        "NO-HEADER9": "",
        "W 10": "1",
        "D 11": "7",
        "L 12": "13",
        "F 13": "23",
        "A 14": "42",
        "NO-HEADER15": "",
        "F 16": "53",
        "A 17": "62",
        "GD": "AC/EUR\" 9",
        "NO-HEADER19": "",
        "Pts": "46"
    },
    {
        "Pos": "20",
        "Team": "Merthyr Tydfil",
        "Pld": "42",
        "NO-HEADER3": "",
        "W": "10",
        "D": "4",
        "L": "7",
        "F": "37",
        "A": "27",
        "NO-HEADER9": "",
        "W 10": "1",
        "D 11": "7",
        "L 12": "13",
        "F 13": "16",
        "A 14": "36",
        "NO-HEADER15": "",
        "F 16": "53",
        "A 17": "63",
        "GD": "AC/EUR\" 10",
        "NO-HEADER19": "",
        "Pts": "44"
    },
    {
        "Pos": "21",
        "Team": "Stafford Rangers",
        "Pld": "42",
        "NO-HEADER3": "",
        "W": "5",
        "D": "5",
        "L": "11",
        "F": "29",
        "A": "34",
        "NO-HEADER9": "",
        "W 10": "4",
        "D 11": "6",
        "L 12": "11",
        "F 13": "24",
        "A 14": "45",
        "NO-HEADER15": "",
        "F 16": "53",
        "A 17": "79",
        "GD": "AC/EUR\" 26",
        "NO-HEADER19": "",
        "Pts": "38"
    },
    {
        "Pos": "22",
        "Team": "Yeovil Town [notes 1]",
        "Pld": "42",
        "NO-HEADER3": "",
        "W": "5",
        "D": "8",
        "L": "8",
        "F": "29",
        "A": "31",
        "NO-HEADER9": "",
        "W 10": "3",
        "D 11": "6",
        "L 12": "12",
        "F 13": "21",
        "A 14": "40",
        "NO-HEADER15": "",
        "F 16": "50",
        "A 17": "71",
        "GD": "AC/EUR\" 21",
        "NO-HEADER19": "",
        "Pts": "37"
    }
]