[
    {
        "Team": "Fiorentina",
        "Pts": "6",
        "Pld": "3",
        "W": "2",
        "D": "0",
        "L": "1",
        "GF": "4",
        "GA": "2",
        "GD": "+2"
    },
    {
        "Team": "Roma",
        "Pts": "5",
        "Pld": "3",
        "W": "1",
        "D": "2",
        "L": "0",
        "GF": "3",
        "GA": "2",
        "GD": "+1"
    },
    {
        "Team": "Flamengo",
        "Pts": "4",
        "Pld": "3",
        "W": "1",
        "D": "1",
        "L": "1",
        "GF": "4",
        "GA": "3",
        "GD": "+1"
    },
    {
        "Team": "Reggiana",
        "Pts": "1",
        "Pld": "3",
        "W": "0",
        "D": "1",
        "L": "2",
        "GF": "1",
        "GA": "5",
        "GD": "-4"
    }
]