[
    {
        "Rnd": "1",
        "Race Name": "1995 Miami",
        "Circuit": "Bicentennial Park",
        "City\\/Location": "Miami, Florida",
        "Date": "March 4",
        "Pole position": "Patrick Carpentier",
        "Winning driver": "Patrick Carpentier",
        "Winning team": "Lynx Racing"
    },
    {
        "Rnd": "2",
        "Race Name": "1995 Phoenix",
        "Circuit": "Phoenix International Raceway",
        "City\\/Location": "Phoenix, Arizona",
        "Date": "April 2",
        "Pole position": "Patrick Carpentier",
        "Winning driver": "David Empringham",
        "Winning team": ""
    },
    {
        "Rnd": "3",
        "Race Name": "1995 Long Beach",
        "Circuit": "Streets of Long Beach",
        "City\\/Location": "Long Beach, California",
        "Date": "April 9",
        "Pole position": "Richie Hearn",
        "Winning driver": "David Empringham",
        "Winning team": ""
    },
    {
        "Rnd": "4",
        "Race Name": "1995 Nazareth",
        "Circuit": "Nazareth Speedway",
        "City\\/Location": "Nazareth, Pennsylvania",
        "Date": "April 22",
        "Pole position": "Patrick Carpentier",
        "Winning driver": "Patrick Carpentier",
        "Winning team": "Lynx Racing"
    },
    {
        "Rnd": "5",
        "Race Name": "1995 Milwaukee",
        "Circuit": "Milwaukee Mile",
        "City\\/Location": "West Allis, Wisconsin",
        "Date": "June 3",
        "Pole position": "David Empringham",
        "Winning driver": "David Empringham",
        "Winning team": ""
    },
    {
        "Rnd": "6",
        "Race Name": "1995 Montreal",
        "Circuit": "Circuit Gilles Villeneuve",
        "City\\/Location": "Montreal, Quebec",
        "Date": "June 12",
        "Pole position": "Patrick Carpentier",
        "Winning driver": "David Empringham",
        "Winning team": ""
    },
    {
        "Rnd": "7",
        "Race Name": "1995 Toronto",
        "Circuit": "Exhibition Place",
        "City\\/Location": "Toronto, Ontario",
        "Date": "July 15",
        "Pole position": "Richie Hearn",
        "Winning driver": "Richie Hearn",
        "Winning team": "Della Penna Motorsports"
    },
    {
        "Rnd": "8",
        "Race Name": "1995 Trois-Rivieres 1",
        "Circuit": "Circuit Trois-Rivieres",
        "City\\/Location": "Trois-Rivieres, Quebec",
        "Date": "August 6",
        "Pole position": "Richie Hearn",
        "Winning driver": "David Empringham",
        "Winning team": ""
    },
    {
        "Rnd": "9",
        "Race Name": "1995 Trois-Rivieres 2",
        "Circuit": "Circuit Trois-Rivieres",
        "City\\/Location": "Trois-Rivieres, Quebec",
        "Date": "August 6",
        "Pole position": "Richie Hearn",
        "Winning driver": "Richie Hearn",
        "Winning team": "Della Penna Motorsports"
    },
    {
        "Rnd": "10",
        "Race Name": "1995 Mid-Ohio",
        "Circuit": "Mid-Ohio Sports Car Course",
        "City\\/Location": "Lexington, Ohio",
        "Date": "August 13",
        "Pole position": "Richie Hearn",
        "Winning driver": "Richie Hearn",
        "Winning team": "Della Penna Motorsports"
    },
    {
        "Rnd": "11",
        "Race Name": "1995 Vancouver",
        "Circuit": "Streets of Vancouver",
        "City\\/Location": "Vancouver, British Columbia",
        "Date": "September 2",
        "Pole position": "David Empringham",
        "Winning driver": "David Empringham",
        "Winning team": ""
    },
    {
        "Rnd": "12",
        "Race Name": "1995 Laguna Seca",
        "Circuit": "Mazda Raceway Laguna Seca",
        "City\\/Location": "Monterey, California",
        "Date": "September 9",
        "Pole position": "Case Montgomery",
        "Winning driver": "Case Montgomery",
        "Winning team": "Condor Motorsports"
    }
]