[
    {
        "Rank": "",
        "Team": "United States",
        "Record": "8AC/EUR\"1"
    },
    {
        "Rank": "",
        "Team": "Puerto Rico",
        "Record": "5AC/EUR\"4"
    },
    {
        "Rank": "",
        "Team": "Brazil",
        "Record": "6AC/EUR\"3"
    },
    {
        "Rank": "4",
        "Team": "Argentina",
        "Record": "4AC/EUR\"5"
    },
    {
        "Rank": "5",
        "Team": "Canada",
        "Record": "5AC/EUR\"4"
    },
    {
        "Rank": "6",
        "Team": "Cuba",
        "Record": "4AC/EUR\"5"
    },
    {
        "Rank": "7",
        "Team": "Venezuela",
        "Record": "4AC/EUR\"4"
    },
    {
        "Rank": "8",
        "Team": "Uruguay",
        "Record": "3AC/EUR\"5"
    },
    {
        "Rank": "9",
        "Team": "Dominican Republic",
        "Record": "0AC/EUR\"4"
    },
    {
        "Rank": "10",
        "Team": "Mexico",
        "Record": "0AC/EUR\"4"
    }
]