[
    {
        "Home team": "Richmond",
        "Score": "20.12.132",
        "Away team": "Carlton",
        "Score 3": "11.4.70",
        "Venue": "Melbourne Cricket Ground",
        "Attendance": "66,287",
        "Date": "Friday, 3 July"
    },
    {
        "Home team": "Essendon",
        "Score": "16.12.108",
        "Away team": "Port Adelaide",
        "Score 3": "12.9.81",
        "Venue": "Melbourne Cricket Ground",
        "Attendance": "37,685",
        "Date": "Saturday, 4 July"
    },
    {
        "Home team": "St Kilda",
        "Score": "12.7.79",
        "Away team": "North Melbourne",
        "Score 3": "22.13.145",
        "Venue": "Waverley Park",
        "Attendance": "36,557",
        "Date": "Saturday, 4 July"
    },
    {
        "Home team": "Western Bulldogs",
        "Score": "12.11.83",
        "Away team": "Melbourne",
        "Score 3": "9.11.65",
        "Venue": "Princes Park",
        "Attendance": "20,782",
        "Date": "Saturday, 4 July"
    },
    {
        "Home team": "Brisbane Lions",
        "Score": "6.13.49",
        "Away team": "West Coast",
        "Score 3": "11.10.76",
        "Venue": "The Gabba",
        "Attendance": "15,369",
        "Date": "Saturday, 4 July"
    },
    {
        "Home team": "Adelaide",
        "Score": "9.14.68",
        "Away team": "Hawthorn",
        "Score 3": "4.11.35",
        "Venue": "Football Park",
        "Attendance": "38,430",
        "Date": "Sunday, 5 July"
    },
    {
        "Home team": "Collingwood",
        "Score": "10.11.71",
        "Away team": "Geelong",
        "Score 3": "9.7.61",
        "Venue": "Melbourne Cricket Ground",
        "Attendance": "44,806",
        "Date": "Sunday, 5 July"
    },
    {
        "Home team": "Fremantle",
        "Score": "10.9.69",
        "Away team": "Sydney",
        "Score 3": "13.4.82",
        "Venue": "Subiaco Oval",
        "Attendance": "21,042",
        "Date": "Sunday, 5 July"
    }
]