[
    {
        "NO-HEADER0": "1.",
        "Team": "Panathinaikos",
        "Pld": "16",
        "W": "13",
        "L": "3",
        "PF": "1246",
        "PA": "1084",
        "Diff": "+162"
    },
    {
        "NO-HEADER0": "2.",
        "Team": "Union Olimpija",
        "Pld": "16",
        "W": "10",
        "L": "6",
        "PF": "1201",
        "PA": "1175",
        "Diff": "+26"
    },
    {
        "NO-HEADER0": "3.",
        "Team": "Real Madrid",
        "Pld": "16",
        "W": "10",
        "L": "6",
        "PF": "1227",
        "PA": "1187",
        "Diff": "+40"
    },
    {
        "NO-HEADER0": "4.",
        "Team": "PAOK",
        "Pld": "16",
        "W": "7",
        "L": "9",
        "PF": "1140",
        "PA": "1114",
        "Diff": "+26"
    },
    {
        "NO-HEADER0": "5.",
        "Team": "Cholet",
        "Pld": "16",
        "W": "3",
        "L": "13",
        "PF": "1054",
        "PA": "1186",
        "Diff": "-132"
    },
    {
        "NO-HEADER0": "6.",
        "Team": "Crvena Zvezda",
        "Pld": "16",
        "W": "2",
        "L": "14",
        "PF": "1034",
        "PA": "1257",
        "Diff": "-223"
    }
]