[
    {
        "Date": "29 Sep",
        "NO-HEADER1": "Russia",
        "Score": "0AC/EUR\"3",
        "NO-HEADER3": "Iran",
        "Set 1": "15AC/EUR\"25",
        "Set 2": "20AC/EUR\"25",
        "Set 3": "27AC/EUR\"29",
        "Set 4": "",
        "Set 5": "",
        "Total": "62AC/EUR\"79"
    },
    {
        "Date": "29 Sep",
        "NO-HEADER1": "Egypt",
        "Score": "0AC/EUR\"3",
        "NO-HEADER3": "Brazil",
        "Set 1": "14AC/EUR\"25",
        "Set 2": "20AC/EUR\"25",
        "Set 3": "14AC/EUR\"25",
        "Set 4": "",
        "Set 5": "",
        "Total": "48AC/EUR\"75"
    }
]