[
    {
        "Pos": "1",
        "Manufacturer": "Honda",
        "JPN": "1",
        "RSA": "1",
        "ESP": "1",
        "FRA": "3",
        "ITA": "1",
        "CAT": "1",
        "NED": "2",
        "GBR": "1",
        "GER": "5",
        "CZE": "1",
        "POR": "1",
        "VAL": "2",
        "PAC": "1",
        "AUS": "1",
        "MAL": "1",
        "RIO": "1",
        "Pts": "367"
    },
    {
        "Pos": "2",
        "Manufacturer": "Yamaha",
        "JPN": "2",
        "RSA": "4",
        "ESP": "2",
        "FRA": "1",
        "ITA": "3",
        "CAT": "2",
        "NED": "1",
        "GBR": "2",
        "GER": "1",
        "CZE": "4",
        "POR": "3",
        "VAL": "4",
        "PAC": "4",
        "AUS": "2",
        "MAL": "3",
        "RIO": "2",
        "Pts": "295"
    },
    {
        "Pos": "3",
        "Manufacturer": "Suzuki",
        "JPN": "7",
        "RSA": "7",
        "ESP": "7",
        "FRA": "6",
        "ITA": "6",
        "CAT": "5",
        "NED": "6",
        "GBR": "8",
        "GER": "9",
        "CZE": "8",
        "POR": "6",
        "VAL": "1",
        "PAC": "8",
        "AUS": "9",
        "MAL": "8",
        "RIO": "12",
        "Pts": "153"
    },
    {
        "Pos": "4",
        "Manufacturer": "Proton KR",
        "JPN": "11",
        "RSA": "11",
        "ESP": "13",
        "FRA": "10",
        "ITA": "12",
        "CAT": "9",
        "NED": "9",
        "GBR": "12",
        "GER": "14",
        "CZE": "Ret",
        "POR": "7",
        "VAL": "9",
        "PAC": "Ret",
        "AUS": "10",
        "MAL": "Ret",
        "RIO": "Ret",
        "Pts": "65"
    },
    {
        "Pos": "5",
        "Manufacturer": "Sabre V4",
        "JPN": "Ret",
        "RSA": "18",
        "ESP": "17",
        "FRA": "Ret",
        "ITA": "Ret",
        "CAT": "17",
        "NED": "18",
        "GBR": "18",
        "GER": "Ret",
        "CZE": "15",
        "POR": "13",
        "VAL": "14",
        "PAC": "Ret",
        "AUS": "17",
        "MAL": "Ret",
        "RIO": "",
        "Pts": "6"
    },
    {
        "Pos": "6",
        "Manufacturer": "Pulse",
        "JPN": "Ret",
        "RSA": "20",
        "ESP": "18",
        "FRA": "Ret",
        "ITA": "13",
        "CAT": "16",
        "NED": "16",
        "GBR": "19",
        "GER": "16",
        "CZE": "",
        "POR": "",
        "VAL": "",
        "PAC": "",
        "AUS": "",
        "MAL": "",
        "RIO": "",
        "Pts": "3"
    },
    {
        "Pos": "",
        "Manufacturer": "Paton",
        "JPN": "",
        "RSA": "",
        "ESP": "DNQ",
        "FRA": "",
        "ITA": "DNQ",
        "CAT": "",
        "NED": "",
        "GBR": "DNQ",
        "GER": "",
        "CZE": "Ret",
        "POR": "",
        "VAL": "",
        "PAC": "",
        "AUS": "",
        "MAL": "",
        "RIO": "",
        "Pts": "0"
    },
    {
        "Pos": "Pos",
        "Manufacturer": "Manufacturer",
        "JPN": "JPN",
        "RSA": "RSA",
        "ESP": "ESP",
        "FRA": "FRA",
        "ITA": "ITA",
        "CAT": "CAT",
        "NED": "NED",
        "GBR": "GBR",
        "GER": "GER",
        "CZE": "CZE",
        "POR": "POR",
        "VAL": "VAL",
        "PAC": "PAC",
        "AUS": "AUS",
        "MAL": "MAL",
        "RIO": "RIO",
        "Pts": "Pts"
    }
]