[
    {
        "Team": "Austria",
        "GP": "3",
        "W": "2",
        "T": "1",
        "L": "0",
        "GF": "16",
        "GA": "11",
        "Pts": "5"
    },
    {
        "Team": "Poland",
        "GP": "3",
        "W": "2",
        "T": "0",
        "L": "1",
        "GF": "19",
        "GA": "15",
        "Pts": "4"
    },
    {
        "Team": "Italy",
        "GP": "3",
        "W": "0",
        "T": "2",
        "L": "1",
        "GF": "10",
        "GA": "14",
        "Pts": "2"
    },
    {
        "Team": "Latvia",
        "GP": "3",
        "W": "0",
        "T": "1",
        "L": "2",
        "GF": "11",
        "GA": "16",
        "Pts": "1"
    }
]