[
    {
        "Rank": "",
        "Nation": "Brazil",
        "Competitors": "Luis da Silveira, Luis Antonio Eloi, Diego Venancio, Flavio Godoy",
        "Time": "3:05.71",
        "Notes": ""
    },
    {
        "Rank": "",
        "Nation": "Venezuela",
        "Competitors": "Jose Carabali, Danny Nunez, Luis Luna, Jonathan Palma",
        "Time": "3:08.87",
        "Notes": ""
    },
    {
        "Rank": "",
        "Nation": "Puerto Rico",
        "Competitors": "Jorge Richardson, Ricardo Etheridge, Alexander Greaux, Rogelio Pizarro",
        "Time": "3:12.64",
        "Notes": ""
    },
    {
        "Rank": "4",
        "Nation": "Ecuador",
        "Competitors": "Cristian Matute, Andres Carchi, Luis Moran, Cristian Gutierrez",
        "Time": "3:13.90",
        "Notes": ""
    },
    {
        "Rank": "5",
        "Nation": "Honduras",
        "Competitors": "Miguel Angel Flores, JosAA(c) Calixto Sierra, Alex Navas, Jonnie Lowe",
        "Time": "3:33.11",
        "Notes": ""
    }
]