[
    {
        "Rank": "1",
        "Name": "Elena Grushina \\/ Ruslan Goncharov",
        "Nation": "Ukraine",
        "Total Points": "2.0",
        "CD": "1",
        "OD": "1",
        "FD": "1"
    },
    {
        "Rank": "2",
        "Name": "Tatiana Navka \\/ Roman Kostomarov",
        "Nation": "Russia",
        "Total Points": "4.0",
        "CD": "2",
        "OD": "2",
        "FD": "2"
    },
    {
        "Rank": "3",
        "Name": "Tanith Belbin \\/ Benjamin Agosto",
        "Nation": "United States",
        "Total Points": "6.0",
        "CD": "3",
        "OD": "3",
        "FD": "3"
    },
    {
        "Rank": "4",
        "Name": "Galit Chait \\/ Sergei Sakhnovski",
        "Nation": "Israel",
        "Total Points": "8.0",
        "CD": "4",
        "OD": "4",
        "FD": "4"
    },
    {
        "Rank": "5",
        "Name": "Melissa Gregory \\/ Denis Petukhov",
        "Nation": "United States",
        "Total Points": "10.0",
        "CD": "5",
        "OD": "5",
        "FD": "5"
    },
    {
        "Rank": "6",
        "Name": "Kristin Fraser \\/ Igor Lukanin",
        "Nation": "Azerbaijan",
        "Total Points": "12.0",
        "CD": "6",
        "OD": "6",
        "FD": "6"
    },
    {
        "Rank": "7",
        "Name": "Emilie Nussear \\/ Mathew Gates",
        "Nation": "United States",
        "Total Points": "14.0",
        "CD": "7",
        "OD": "7",
        "FD": "7"
    },
    {
        "Rank": "8",
        "Name": "Nozomi Watanabe \\/ Akiyuki Kido",
        "Nation": "Japan",
        "Total Points": "16.0",
        "CD": "8",
        "OD": "8",
        "FD": "8"
    },
    {
        "Rank": "9",
        "Name": "Josee Piche \\/ Pascal Denis",
        "Nation": "Canada",
        "Total Points": "18.0",
        "CD": "9",
        "OD": "9",
        "FD": "9"
    }
]