[
    {
        "NO-HEADER0": "1",
        "North American": "Marc-Andre Fleury",
        "European": "Konstantin Barulin"
    },
    {
        "NO-HEADER0": "2",
        "North American": "Jimmy Howard",
        "European": "Teemu Lassila"
    },
    {
        "NO-HEADER0": "3",
        "North American": "Ryan Munce",
        "European": "Patrick Ehelechner"
    }
]