[
    {
        "Team": "Team",
        "Coeff.": "Coeff."
    },
    {
        "Team": "Ferencvaros",
        "Coeff.": "13.045"
    },
    {
        "Team": "Standard Liege",
        "Coeff.": "12.529"
    },
    {
        "Team": "Egaleo",
        "Coeff.": "11.467"
    },
    {
        "Team": "AZ",
        "Coeff.": "11.246"
    },
    {
        "Team": "Zenit St. Petersburg",
        "Coeff.": "9.572"
    },
    {
        "Team": "Beveren",
        "Coeff.": "9.529"
    },
    {
        "Team": "Austria Wien",
        "Coeff.": "8.971"
    },
    {
        "Team": "Dinamo Tbilisi",
        "Coeff.": "1.649"
    }
]