[
    {
        "Stadium": "Stadion Maksimir",
        "City": "Zagreb",
        "Home club": "Dinamo Zagreb",
        "Capacity": "37,168"
    },
    {
        "Stadium": "Stadion Poljud",
        "City": "Split",
        "Home club": "Hajduk Split",
        "Capacity": "35,000"
    },
    {
        "Stadium": "Stadion Gradski vrt",
        "City": "Osijek",
        "Home club": "Osijek",
        "Capacity": "19,500"
    },
    {
        "Stadium": "Stadion NK Varteks",
        "City": "Varazdin",
        "Home club": "Varteks",
        "Capacity": "10,800"
    },
    {
        "Stadium": "Stadion Kantrida",
        "City": "Rijeka",
        "Home club": "Rijeka",
        "Capacity": "10,275"
    },
    {
        "Stadium": "Stadion KranjAeviAeva",
        "City": "Zagreb",
        "Home club": "NK Zagreb",
        "Capacity": "8,850"
    },
    {
        "Stadium": "Stadion Kamen Ingrad",
        "City": "Velika",
        "Home club": "Kamen Ingrad",
        "Capacity": "8,000"
    },
    {
        "Stadium": "Stadion SRC Mladost",
        "City": "A\"OEakovec",
        "Home club": "MeA\"'imurje",
        "Capacity": "8,000"
    },
    {
        "Stadium": "Stadion Stanovi",
        "City": "Zadar",
        "Home club": "Zadar",
        "Capacity": "5,860"
    },
    {
        "Stadium": "Stadion A... RC ZapreA...A!iA\"++",
        "City": "Zagreb",
        "Home club": "Inter ZapreA...A!iA\"++",
        "Capacity": "5,000"
    },
    {
        "Stadium": "Gradski stadion u Koprivnici",
        "City": "Koprivnica",
        "Home club": "Slaven Belupo",
        "Capacity": "4,000"
    },
    {
        "Stadium": "Stadion Veruda",
        "City": "Pula",
        "Home club": "Pula 1856",
        "Capacity": "3,000"
    }
]