[
    {
        "NO-HEADER0": "1",
        "Team": "Hammarby IF",
        "Pld": "11",
        "W": "9",
        "D": "1",
        "L": "1",
        "GF": "57",
        "NO-HEADER7": "AC/EUR\"",
        "GA": "33",
        "GD": "+24",
        "Pts": "19"
    },
    {
        "NO-HEADER0": "2",
        "Team": "Edsbyns IF",
        "Pld": "11",
        "W": "8",
        "D": "2",
        "L": "1",
        "GF": "74",
        "NO-HEADER7": "AC/EUR\"",
        "GA": "35",
        "GD": "+39",
        "Pts": "18"
    },
    {
        "NO-HEADER0": "3",
        "Team": "Vasteras SK",
        "Pld": "11",
        "W": "7",
        "D": "1",
        "L": "3",
        "GF": "48",
        "NO-HEADER7": "AC/EUR\"",
        "GA": "38",
        "GD": "+10",
        "Pts": "15"
    },
    {
        "NO-HEADER0": "4",
        "Team": "Sandvikens AIK",
        "Pld": "11",
        "W": "5",
        "D": "3",
        "L": "3",
        "GF": "54",
        "NO-HEADER7": "AC/EUR\"",
        "GA": "35",
        "GD": "+19",
        "Pts": "13"
    },
    {
        "NO-HEADER0": "5",
        "Team": "IFK Vanersborg",
        "Pld": "11",
        "W": "2",
        "D": "3",
        "L": "6",
        "GF": "32",
        "NO-HEADER7": "AC/EUR\"",
        "GA": "42",
        "GD": "-10",
        "Pts": "7"
    },
    {
        "NO-HEADER0": "6",
        "Team": "Vetlanda BK",
        "Pld": "11",
        "W": "3",
        "D": "1",
        "L": "7",
        "GF": "38",
        "NO-HEADER7": "AC/EUR\"",
        "GA": "56",
        "GD": "-18",
        "Pts": "7"
    },
    {
        "NO-HEADER0": "7",
        "Team": "Villa Lidkoping BK",
        "Pld": "11",
        "W": "3",
        "D": "0",
        "L": "8",
        "GF": "41",
        "NO-HEADER7": "AC/EUR\"",
        "GA": "77",
        "GD": "-36",
        "Pts": "6"
    },
    {
        "NO-HEADER0": "8",
        "Team": "Broberg\\/Soderhamn Bandy",
        "Pld": "11",
        "W": "1",
        "D": "1",
        "L": "9",
        "GF": "32",
        "NO-HEADER7": "AC/EUR\"",
        "GA": "60",
        "GD": "-28",
        "Pts": "3"
    }
]