[
    {
        "Team": "Russia",
        "Pld": "3",
        "W": "2",
        "L": "1",
        "PF": "303",
        "PA": "183",
        "Pts": "5"
    },
    {
        "Team": "France",
        "Pld": "3",
        "W": "2",
        "L": "1",
        "PF": "214",
        "PA": "214",
        "Pts": "5"
    },
    {
        "Team": "Croatia",
        "Pld": "3",
        "W": "1",
        "L": "2",
        "PF": "174",
        "PA": "209",
        "Pts": "4"
    },
    {
        "Team": "Slovenia",
        "Pld": "3",
        "W": "1",
        "L": "2",
        "PF": "161",
        "PA": "246",
        "Pts": "4"
    }
]