[
    {
        "Team 1": "Athletic Bilbao",
        "Agg.": "0-5",
        "Team 2": "Real Madrid",
        "1st leg": "0-1",
        "2nd leg": "0-4"
    },
    {
        "Team 1": "Villarreal CF",
        "Agg.": "0-3",
        "Team 2": "Valencia CF",
        "1st leg": "0-2",
        "2nd leg": "0-1"
    },
    {
        "Team 1": "Celta Vigo",
        "Agg.": "1-1 (a)",
        "Team 2": "Real Betis",
        "1st leg": "1-1",
        "2nd leg": "0-0"
    },
    {
        "Team 1": "Getafe CF",
        "Agg.": "3-4",
        "Team 2": "RCD Espanyol",
        "1st leg": "0-1",
        "2nd leg": "3-3"
    },
    {
        "Team 1": "Deportivo La Coruna",
        "Agg.": "4-2",
        "Team 2": "CA Osasuna",
        "1st leg": "3-0",
        "2nd leg": "1-2"
    },
    {
        "Team 1": "Cadiz CF",
        "Agg.": "3-2",
        "Team 2": "Sevilla FC",
        "1st leg": "3-2",
        "2nd leg": "0-0"
    },
    {
        "Team 1": "Zamora CF",
        "Agg.": "1-9",
        "Team 2": "FC Barcelona",
        "1st leg": "1-3",
        "2nd leg": "0-6"
    },
    {
        "Team 1": "Atletico Madrid",
        "Agg.": "2-3",
        "Team 2": "Real Zaragoza",
        "1st leg": "0-1",
        "2nd leg": "2-2"
    }
]