[
    {
        "Rank": "1",
        "Name": "Petra MajdiA",
        "Nation": "SLO",
        "Time": "28:44.8"
    },
    {
        "Rank": "2",
        "Name": "Kristin Stormer Steira",
        "Nation": "NOR",
        "Time": "+27.2"
    },
    {
        "Rank": "3",
        "Name": "Virpi Kuitunen",
        "Nation": "FIN",
        "Time": "+33.8"
    },
    {
        "Rank": "4",
        "Name": "Valentina Shevchenko",
        "Nation": "UKR",
        "Time": "+37.1"
    },
    {
        "Rank": "5",
        "Name": "Aino Kaisa Saarinen",
        "Nation": "FIN",
        "Time": "+37.9"
    },
    {
        "Rank": "6",
        "Name": "Vibeke Skofterud",
        "Nation": "NOR",
        "Time": "+38.3"
    },
    {
        "Rank": "7",
        "Name": "Marianna Longa",
        "Nation": "ITA",
        "Time": "+54.8"
    },
    {
        "Rank": "8",
        "Name": "Viola Bauer",
        "Nation": "GER",
        "Time": "+56.0"
    },
    {
        "Rank": "9",
        "Name": "Evi Sachenbacher-Stehle",
        "Nation": "GER",
        "Time": "+59.5"
    },
    {
        "Rank": "10",
        "Name": "Kamila Rajdlova",
        "Nation": "CZE",
        "Time": "+1:04.2"
    },
    {
        "Rank": "11",
        "Name": "Marit Bjorgen",
        "Nation": "NOR",
        "Time": "+1:05.0"
    },
    {
        "Rank": "12",
        "Name": "Justyna Kowalczyk",
        "Nation": "POL",
        "Time": "+1:11.7"
    },
    {
        "Rank": "17",
        "Name": "KateA...(tm)ina NeumannovAfA!",
        "Nation": "CZE",
        "Time": "+1:37.4"
    },
    {
        "Rank": "26",
        "Name": "Claudia Kunzel-Nystad",
        "Nation": "GER",
        "Time": "+2:09.2"
    }
]