[
    {
        "Date": "10 January",
        "Home team": "Melbourne Tigers",
        "Score": "106-94",
        "Away team": "South Dragons",
        "Venue": "State Netball and Hockey Centre",
        "Crowd": "????",
        "Box Score": "box score",
        "Report": "report"
    },
    {
        "Date": "10 January",
        "Home team": "Adelaide 36ers",
        "Score": "99-111",
        "Away team": "Cairns Taipans",
        "Venue": "Distinctive Homes Dome",
        "Crowd": "5475",
        "Box Score": "box score",
        "Report": "report"
    },
    {
        "Date": "10 January",
        "Home team": "West Sydney Razorbacks",
        "Score": "90-129",
        "Away team": "Townsville Crocodiles",
        "Venue": "Coffs Harbour",
        "Crowd": "????",
        "Box Score": "box score",
        "Report": "report"
    },
    {
        "Date": "10 January",
        "Home team": "Singapore Slingers",
        "Score": "96-88",
        "Away team": "Sydney Kings",
        "Venue": "Singapore Indoor Stadium",
        "Crowd": "????",
        "Box Score": "box score",
        "Report": "report"
    },
    {
        "Date": "11 January",
        "Home team": "New Zealand Breakers",
        "Score": "102-132",
        "Away team": "Wollongong Hawks",
        "Venue": "North Shore Events Centre",
        "Crowd": "????",
        "Box Score": "box score",
        "Report": "report"
    },
    {
        "Date": "12 January",
        "Home team": "Cairns Taipans",
        "Score": "101-113",
        "Away team": "Singapore Slingers",
        "Venue": "Cairns Convention Centre",
        "Crowd": "????",
        "Box Score": "box score",
        "Report": "report"
    },
    {
        "Date": "12 January",
        "Home team": "Perth Wildcats",
        "Score": "107-96",
        "Away team": "Adelaide 36ers",
        "Venue": "Challenge Stadium",
        "Crowd": "????",
        "Box Score": "box score",
        "Report": "report"
    },
    {
        "Date": "13 January",
        "Home team": "Wollongong Hawks",
        "Score": "102-106",
        "Away team": "West Sydney Razorbacks",
        "Venue": "WIN Entertainment Centre",
        "Crowd": "????",
        "Box Score": "box score",
        "Report": "report"
    },
    {
        "Date": "13 January",
        "Home team": "Townsville Crocodiles",
        "Score": "140-100",
        "Away team": "Singapore Slingers",
        "Venue": "Townsville Entertainment Centre",
        "Crowd": "????",
        "Box Score": "box score",
        "Report": "report"
    },
    {
        "Date": "14 January",
        "Home team": "West Sydney Razorbacks",
        "Score": "82-115",
        "Away team": "Melbourne Tigers",
        "Venue": "State Sports Centre",
        "Crowd": "????",
        "Box Score": "box score",
        "Report": "report"
    },
    {
        "Date": "14 January",
        "Home team": "South Dragons",
        "Score": "105-115",
        "Away team": "Cairns Taipans",
        "Venue": "Geelong Arena",
        "Crowd": "????",
        "Box Score": "box score",
        "Report": "report"
    },
    {
        "Date": "14 January",
        "Home team": "Brisbane Bullets",
        "Score": "108-95",
        "Away team": "Sydney Kings",
        "Venue": "Brisbane Convention & Exhibition Centre",
        "Crowd": "????",
        "Box Score": "box score",
        "Report": "report"
    }
]