[
    {
        "Pos": "1",
        "Nat": "",
        "Name": "Sebastien Bourdais",
        "Team": "Newman\\/Haas Racing",
        "Qual 1": "50.160",
        "Qual 2": "48.989",
        "Best": "48.989"
    },
    {
        "Pos": "2",
        "Nat": "",
        "Name": "Paul Tracy",
        "Team": "Forsythe Racing",
        "Qual 1": "50.156",
        "Qual 2": "49.810",
        "Best": "49.810"
    },
    {
        "Pos": "3",
        "Nat": "",
        "Name": "A. J. Allmendinger",
        "Team": "Forsythe Racing",
        "Qual 1": "50.246",
        "Qual 2": "49.264",
        "Best": "49.264"
    },
    {
        "Pos": "4",
        "Nat": "",
        "Name": "Cristiano da Matta",
        "Team": "RuSPORT",
        "Qual 1": "50.734",
        "Qual 2": "49.659",
        "Best": "49.659"
    },
    {
        "Pos": "5",
        "Nat": "",
        "Name": "Oriol ServiA",
        "Team": "PKV Racing",
        "Qual 1": "50.388",
        "Qual 2": "49.813",
        "Best": "49.813"
    },
    {
        "Pos": "6",
        "Nat": "",
        "Name": "Will Power",
        "Team": "Team Australia",
        "Qual 1": "AC/EUR\"",
        "Qual 2": "49.867",
        "Best": "49.867"
    },
    {
        "Pos": "7",
        "Nat": "",
        "Name": "Bruno Junqueira",
        "Team": "Newman\\/Haas Racing",
        "Qual 1": "50.587",
        "Qual 2": "49.887",
        "Best": "49.887"
    },
    {
        "Pos": "8",
        "Nat": "",
        "Name": "Andrew Ranger",
        "Team": "Mi-Jack Conquest Racing",
        "Qual 1": "50.925",
        "Qual 2": "49.962",
        "Best": "49.962"
    },
    {
        "Pos": "9",
        "Nat": "",
        "Name": "Dan Clarke",
        "Team": "CTE Racing-HVM",
        "Qual 1": "50.278",
        "Qual 2": "50.161",
        "Best": "50.161"
    },
    {
        "Pos": "10",
        "Nat": "",
        "Name": "Mario Dominguez",
        "Team": "Dale Coyne Racing",
        "Qual 1": "50.861",
        "Qual 2": "50.215",
        "Best": "50.215"
    },
    {
        "Pos": "11",
        "Nat": "",
        "Name": "Nelson Philippe",
        "Team": "CTE Racing-HVM",
        "Qual 1": "50.440",
        "Qual 2": "50.312",
        "Best": "50.312"
    },
    {
        "Pos": "12",
        "Nat": "",
        "Name": "Justin Wilson",
        "Team": "RuSPORT",
        "Qual 1": "50.504",
        "Qual 2": "50.341",
        "Best": "50.341"
    },
    {
        "Pos": "13",
        "Nat": "",
        "Name": "Alex Tagliani",
        "Team": "Team Australia",
        "Qual 1": "50.373",
        "Qual 2": "AC/EUR\"",
        "Best": "50.373"
    },
    {
        "Pos": "14",
        "Nat": "",
        "Name": "Charles Zwolsman",
        "Team": "Mi-Jack Conquest Racing",
        "Qual 1": "51.004",
        "Qual 2": "50.435",
        "Best": "50.435"
    },
    {
        "Pos": "15",
        "Nat": "",
        "Name": "Katherine Legge",
        "Team": "PKV Racing",
        "Qual 1": "51.329",
        "Qual 2": "50.473",
        "Best": "50.473"
    },
    {
        "Pos": "16",
        "Nat": "",
        "Name": "Jan Heylen",
        "Team": "Dale Coyne Racing",
        "Qual 1": "51.591",
        "Qual 2": "50.838",
        "Best": "50.838"
    },
    {
        "Pos": "17",
        "Nat": "",
        "Name": "Nicky Pastorelli",
        "Team": "Rocketsports Racing",
        "Qual 1": "52.344",
        "Qual 2": "51.628",
        "Best": "51.628"
    }
]