[
    {
        "Pos": "1",
        "Club": "Khemera",
        "P": "4",
        "W": "3",
        "D": "1",
        "L": "0",
        "GF": "18",
        "GA": "2",
        "Pts": "10"
    },
    {
        "Pos": "2",
        "Club": "Nagacorp FC",
        "P": "4",
        "W": "3",
        "D": "1",
        "L": "0",
        "GF": "17",
        "GA": "5",
        "Pts": "10"
    },
    {
        "Pos": "3",
        "Club": "Phnom Penh United",
        "P": "4",
        "W": "3",
        "D": "1",
        "L": "0",
        "GF": "14",
        "GA": "3",
        "Pts": "10"
    },
    {
        "Pos": "4",
        "Club": "Keila Rith",
        "P": "4",
        "W": "3",
        "D": "0",
        "L": "1",
        "GF": "13",
        "GA": "5",
        "Pts": "9"
    },
    {
        "Pos": "5",
        "Club": "Koh Kong",
        "P": "4",
        "W": "2",
        "D": "0",
        "L": "2",
        "GF": "6",
        "GA": "7",
        "Pts": "6"
    },
    {
        "Pos": "6",
        "Club": "Military Police",
        "P": "4",
        "W": "1",
        "D": "1",
        "L": "2",
        "GF": "10",
        "GA": "11",
        "Pts": "4"
    },
    {
        "Pos": "7",
        "Club": "Khmer Empire",
        "P": "3",
        "W": "1",
        "D": "0",
        "L": "2",
        "GF": "7",
        "GA": "17",
        "Pts": "3"
    },
    {
        "Pos": "8",
        "Club": "RCAF",
        "P": "4",
        "W": "1",
        "D": "0",
        "L": "3",
        "GF": "8",
        "GA": "12",
        "Pts": "3"
    },
    {
        "Pos": "9",
        "Club": "Royal Navy",
        "P": "3",
        "W": "0",
        "D": "0",
        "L": "3",
        "GF": "0",
        "GA": "14",
        "Pts": "0"
    },
    {
        "Pos": "10",
        "Club": "General Logistics",
        "P": "4",
        "W": "0",
        "D": "0",
        "L": "4",
        "GF": "2",
        "GA": "19",
        "Pts": "0"
    }
]