[
    {
        "Pos.": "1.",
        "Cyclist": "Hanka Kupfernagel",
        "Nation": "Germany",
        "Points": "895"
    },
    {
        "Pos.": "2.",
        "Cyclist": "Marianne Vos",
        "Nation": "Netherlands",
        "Points": "760"
    },
    {
        "Pos.": "3.",
        "Cyclist": "Helen Wyman",
        "Nation": "United Kingdom",
        "Points": "640"
    },
    {
        "Pos.": "4.",
        "Cyclist": "Laurence Leboucher",
        "Nation": "France",
        "Points": "547"
    },
    {
        "Pos.": "5.",
        "Cyclist": "Reza Hormes-Ravenstijn",
        "Nation": "Netherlands",
        "Points": "523"
    },
    {
        "Pos.": "6.",
        "Cyclist": "Birgit Hollmann",
        "Nation": "Germany",
        "Points": "480"
    },
    {
        "Pos.": "7.",
        "Cyclist": "Veerle Ingels",
        "Nation": "Belgium",
        "Points": "418"
    },
    {
        "Pos.": "8.",
        "Cyclist": "Arenda Grimberg",
        "Nation": "Netherlands",
        "Points": "388"
    },
    {
        "Pos.": "9.",
        "Cyclist": "Susanne Juranek",
        "Nation": "Germany",
        "Points": "377"
    },
    {
        "Pos.": "10.",
        "Cyclist": "Lyne Bessette",
        "Nation": "Canada",
        "Points": "340"
    }
]