[
    {
        "Player": "Alan Anderson",
        "GP": "",
        "GS": "",
        "MPG": "",
        "FG%": "",
        "3FG%": "",
        "FT%": "",
        "RPG": "",
        "APG": "",
        "SPG": "",
        "BPG": "",
        "PPG": ""
    },
    {
        "Player": "Derek Anderson",
        "GP": "",
        "GS": "",
        "MPG": "",
        "FG%": "",
        "3FG%": "",
        "FT%": "",
        "RPG": "",
        "APG": "",
        "SPG": "",
        "BPG": "",
        "PPG": ""
    },
    {
        "Player": "Primoz Brezec",
        "GP": "",
        "GS": "",
        "MPG": "",
        "FG%": "",
        "3FG%": "",
        "FT%": "",
        "RPG": "",
        "APG": "",
        "SPG": "",
        "BPG": "",
        "PPG": ""
    },
    {
        "Player": "Matt Carroll",
        "GP": "",
        "GS": "",
        "MPG": "",
        "FG%": "",
        "3FG%": "",
        "FT%": "",
        "RPG": "",
        "APG": "",
        "SPG": "",
        "BPG": "",
        "PPG": ""
    },
    {
        "Player": "Melvin Ely",
        "GP": "",
        "GS": "",
        "MPG": "",
        "FG%": "",
        "3FG%": "",
        "FT%": "",
        "RPG": "",
        "APG": "",
        "SPG": "",
        "BPG": "",
        "PPG": ""
    },
    {
        "Player": "Raymond Felton",
        "GP": "",
        "GS": "",
        "MPG": "",
        "FG%": "",
        "3FG%": "",
        "FT%": "",
        "RPG": "",
        "APG": "",
        "SPG": "",
        "BPG": "",
        "PPG": ""
    },
    {
        "Player": "Othella Harrington",
        "GP": "",
        "GS": "",
        "MPG": "",
        "FG%": "",
        "3FG%": "",
        "FT%": "",
        "RPG": "",
        "APG": "",
        "SPG": "",
        "BPG": "",
        "PPG": ""
    },
    {
        "Player": "Walter Herrmann",
        "GP": "",
        "GS": "",
        "MPG": "",
        "FG%": "",
        "3FG%": "",
        "FT%": "",
        "RPG": "",
        "APG": "",
        "SPG": "",
        "BPG": "",
        "PPG": ""
    },
    {
        "Player": "Ryan Hollins",
        "GP": "",
        "GS": "",
        "MPG": "",
        "FG%": "",
        "3FG%": "",
        "FT%": "",
        "RPG": "",
        "APG": "",
        "SPG": "",
        "BPG": "",
        "PPG": ""
    },
    {
        "Player": "Brevin Knight",
        "GP": "",
        "GS": "",
        "MPG": "",
        "FG%": "",
        "3FG%": "",
        "FT%": "",
        "RPG": "",
        "APG": "",
        "SPG": "",
        "BPG": "",
        "PPG": ""
    },
    {
        "Player": "Sean May",
        "GP": "",
        "GS": "",
        "MPG": "",
        "FG%": "",
        "3FG%": "",
        "FT%": "",
        "RPG": "",
        "APG": "",
        "SPG": "",
        "BPG": "",
        "PPG": ""
    },
    {
        "Player": "Jeff McInnis",
        "GP": "",
        "GS": "",
        "MPG": "",
        "FG%": "",
        "3FG%": "",
        "FT%": "",
        "RPG": "",
        "APG": "",
        "SPG": "",
        "BPG": "",
        "PPG": ""
    },
    {
        "Player": "Adam Morrison",
        "GP": "",
        "GS": "",
        "MPG": "",
        "FG%": "",
        "3FG%": "",
        "FT%": "",
        "RPG": "",
        "APG": "",
        "SPG": "",
        "BPG": "",
        "PPG": ""
    },
    {
        "Player": "Emeka Okafor",
        "GP": "",
        "GS": "",
        "MPG": "",
        "FG%": "",
        "3FG%": "",
        "FT%": "",
        "RPG": "",
        "APG": "",
        "SPG": "",
        "BPG": "",
        "PPG": ""
    },
    {
        "Player": "Bernard Robinson",
        "GP": "",
        "GS": "",
        "MPG": "",
        "FG%": "",
        "3FG%": "",
        "FT%": "",
        "RPG": "",
        "APG": "",
        "SPG": "",
        "BPG": "",
        "PPG": ""
    },
    {
        "Player": "Jake Voskuhl",
        "GP": "",
        "GS": "",
        "MPG": "",
        "FG%": "",
        "3FG%": "",
        "FT%": "",
        "RPG": "",
        "APG": "",
        "SPG": "",
        "BPG": "",
        "PPG": ""
    },
    {
        "Player": "Gerald Wallace",
        "GP": "",
        "GS": "",
        "MPG": "",
        "FG%": "",
        "3FG%": "",
        "FT%": "",
        "RPG": "",
        "APG": "",
        "SPG": "",
        "BPG": "",
        "PPG": ""
    },
    {
        "Player": "Eric Williams",
        "GP": "",
        "GS": "",
        "MPG": "",
        "FG%": "",
        "3FG%": "",
        "FT%": "",
        "RPG": "",
        "APG": "",
        "SPG": "",
        "BPG": "",
        "PPG": ""
    }
]