[
    {
        "Team": "Cameroon (Amateur team)",
        "Pts": "4",
        "Pld": "2",
        "W": "1",
        "D": "1",
        "L": "0",
        "GF": "2",
        "GA": "0"
    },
    {
        "Team": "Gabon",
        "Pts": "2",
        "Pld": "2",
        "W": "0",
        "D": "2",
        "L": "0",
        "GF": "2",
        "GA": "2"
    },
    {
        "Team": "Central African Republic",
        "Pts": "1",
        "Pld": "2",
        "W": "0",
        "D": "1",
        "L": "1",
        "GF": "2",
        "GA": "4"
    }
]