[
    {
        "Name": "Paul Agostino",
        "Position": "Forward",
        "Moving from": "TSV 1860 Munchen"
    },
    {
        "Name": "Jonas Salley",
        "Position": "Midfield",
        "Moving from": "New Zealand Knights"
    },
    {
        "Name": "Kristian Sarkies",
        "Position": "Forward",
        "Moving from": "Melbourne Victory"
    },
    {
        "Name": "Cassio",
        "Position": "Defender",
        "Moving from": "Santa Cruz"
    },
    {
        "Name": "Shaun Ontong",
        "Position": "Defender",
        "Moving from": "AIS"
    },
    {
        "Name": "Matthew Mullen",
        "Position": "Midfield",
        "Moving from": "AIS"
    },
    {
        "Name": "Isyan Erdogan",
        "Position": "Defender",
        "Moving from": "Preston Lions"
    },
    {
        "Name": "Milan Susak",
        "Position": "Defender",
        "Moving from": "FK Vojvodina"
    },
    {
        "Name": "Eugene Galekovic",
        "Position": "Goalkeeper",
        "Moving from": "Melbourne Victory"
    }
]