[
    {
        "Rank": "1",
        "Nation": "Russia",
        "Gold": "4",
        "Silver": "3",
        "Bronze": "0",
        "Total": "7",
        "Men points": "4287",
        "Women points": "4000"
    },
    {
        "Rank": "2",
        "Nation": "Germany",
        "Gold": "4",
        "Silver": "0",
        "Bronze": "2",
        "Total": "6",
        "Men points": "3893",
        "Women points": "4406"
    },
    {
        "Rank": "3",
        "Nation": "Ukraine",
        "Gold": "3",
        "Silver": "2",
        "Bronze": "1",
        "Total": "6",
        "Men points": "4081",
        "Women points": "3899"
    },
    {
        "Rank": "4",
        "Nation": "Belarus",
        "Gold": "1",
        "Silver": "3",
        "Bronze": "1",
        "Total": "5",
        "Men points": "4256",
        "Women points": "4032"
    },
    {
        "Rank": "5",
        "Nation": "France",
        "Gold": "1",
        "Silver": "1",
        "Bronze": "0",
        "Total": "2",
        "Men points": "N\\/A",
        "Women points": "N\\/A"
    },
    {
        "Rank": "6=",
        "Nation": "Estonia",
        "Gold": "1",
        "Silver": "0",
        "Bronze": "0",
        "Total": "1",
        "Men points": "3687",
        "Women points": "N\\/A"
    },
    {
        "Rank": "6=",
        "Nation": "Slovenia",
        "Gold": "1",
        "Silver": "0",
        "Bronze": "0",
        "Total": "1",
        "Men points": "N\\/A",
        "Women points": "N\\/A"
    },
    {
        "Rank": "6=",
        "Nation": "Serbia",
        "Gold": "1",
        "Silver": "0",
        "Bronze": "0",
        "Total": "1",
        "Men points": "N\\/A",
        "Women points": "N\\/A"
    },
    {
        "Rank": "9",
        "Nation": "Italy",
        "Gold": "0",
        "Silver": "1",
        "Bronze": "3",
        "Total": "4",
        "Men points": "4020",
        "Women points": "4132"
    },
    {
        "Rank": "10=",
        "Nation": "Hungary",
        "Gold": "0",
        "Silver": "1",
        "Bronze": "1",
        "Total": "2",
        "Men points": "N\\/A",
        "Women points": "N\\/A"
    },
    {
        "Rank": "10=",
        "Nation": "Latvia",
        "Gold": "0",
        "Silver": "1",
        "Bronze": "1",
        "Total": "2",
        "Men points": "N\\/A",
        "Women points": "N\\/A"
    },
    {
        "Rank": "10=",
        "Nation": "Romania",
        "Gold": "0",
        "Silver": "1",
        "Bronze": "1",
        "Total": "2",
        "Men points": "4001",
        "Women points": "3932"
    },
    {
        "Rank": "13=",
        "Nation": "Great Britain",
        "Gold": "0",
        "Silver": "1",
        "Bronze": "0",
        "Total": "1",
        "Men points": "N\\/A",
        "Women points": "N\\/A"
    },
    {
        "Rank": "13=",
        "Nation": "Poland",
        "Gold": "0",
        "Silver": "1",
        "Bronze": "0",
        "Total": "1",
        "Men points": "N\\/A",
        "Women points": "N\\/A"
    },
    {
        "Rank": "13=",
        "Nation": "Sweden",
        "Gold": "0",
        "Silver": "1",
        "Bronze": "0",
        "Total": "1",
        "Men points": "N\\/A",
        "Women points": "N\\/A"
    },
    {
        "Rank": "16",
        "Nation": "Turkey",
        "Gold": "0",
        "Silver": "0",
        "Bronze": "2",
        "Total": "2",
        "Men points": "N\\/A",
        "Women points": "N\\/A"
    },
    {
        "Rank": "17=",
        "Nation": "Armenia",
        "Gold": "0",
        "Silver": "0",
        "Bronze": "1",
        "Total": "1",
        "Men points": "N\\/A",
        "Women points": "N\\/A"
    },
    {
        "Rank": "17=",
        "Nation": "Croatia",
        "Gold": "0",
        "Silver": "0",
        "Bronze": "1",
        "Total": "1",
        "Men points": "N\\/A",
        "Women points": "N\\/A"
    },
    {
        "Rank": "17=",
        "Nation": "Portugal",
        "Gold": "0",
        "Silver": "0",
        "Bronze": "1",
        "Total": "1",
        "Men points": "N\\/A",
        "Women points": "N\\/A"
    },
    {
        "Rank": "17=",
        "Nation": "Spain",
        "Gold": "0",
        "Silver": "0",
        "Bronze": "1",
        "Total": "1",
        "Men points": "N\\/A",
        "Women points": "N\\/A"
    }
]