[
    {
        "Team 1": "Anderlecht",
        "Agg.": "2AC/EUR\"6",
        "Team 2": "Bayern Munich",
        "1st leg": "0AC/EUR\"5",
        "2nd leg": "2AC/EUR\"1"
    },
    {
        "Team 1": "Rangers",
        "Agg.": "2AC/EUR\"1",
        "Team 2": "Werder Bremen",
        "1st leg": "2AC/EUR\"0",
        "2nd leg": "0AC/EUR\"1"
    },
    {
        "Team 1": "Bolton Wanderers",
        "Agg.": "1AC/EUR\"2",
        "Team 2": "Sporting CP",
        "1st leg": "1AC/EUR\"1",
        "2nd leg": "0AC/EUR\"1"
    },
    {
        "Team 1": "Bayer Leverkusen",
        "Agg.": "3AC/EUR\"3 (a)",
        "Team 2": "Hamburg",
        "1st leg": "1AC/EUR\"0",
        "2nd leg": "2AC/EUR\"3"
    },
    {
        "Team 1": "Benfica",
        "Agg.": "1AC/EUR\"3",
        "Team 2": "Getafe",
        "1st leg": "1AC/EUR\"2",
        "2nd leg": "0AC/EUR\"1"
    },
    {
        "Team 1": "Fiorentina",
        "Agg.": "2AC/EUR\"2 (4AC/EUR\"2p)",
        "Team 2": "Everton",
        "1st leg": "2AC/EUR\"0",
        "2nd leg": "0AC/EUR\"2 (aet)"
    },
    {
        "Team 1": "Tottenham Hotspur",
        "Agg.": "1AC/EUR\"1 (5AC/EUR\"6p)",
        "Team 2": "PSV Eindhoven",
        "1st leg": "0AC/EUR\"1",
        "2nd leg": "1AC/EUR\"0 (aet)"
    },
    {
        "Team 1": "Marseille",
        "Agg.": "3AC/EUR\"3 (a)",
        "Team 2": "Zenit Saint Petersburg",
        "1st leg": "3AC/EUR\"1",
        "2nd leg": "0AC/EUR\"2"
    }
]