[
    {
        "Pos": "1",
        "Driver": "Fernando Alonso",
        "Points": "38"
    },
    {
        "Pos": "2",
        "Driver": "Lewis Hamilton",
        "Points": "38"
    },
    {
        "Pos": "3",
        "Driver": "Felipe Massa",
        "Points": "33"
    },
    {
        "Pos": "4",
        "Driver": "Kimi Raikkonen",
        "Points": "23"
    },
    {
        "Pos": "5",
        "Driver": "Nick Heidfeld",
        "Points": "18"
    }
]