[
    {
        "Team": "Lawton",
        "W": "4",
        "L": "1"
    },
    {
        "Team": "Scott",
        "W": "4",
        "L": "1"
    },
    {
        "Team": "Kleibrink",
        "W": "3",
        "L": "2"
    },
    {
        "Team": "Moore",
        "W": "1",
        "L": "4"
    },
    {
        "Team": "Rankin",
        "W": "0",
        "L": "5"
    }
]