[
    {
        "Position": "",
        "Name": "Adrienn Hormay",
        "Country": "Hungary"
    },
    {
        "Position": "",
        "Name": "Ana Maria BrAfAC/nzA\"f",
        "Country": "Romania"
    },
    {
        "Position": "",
        "Name": "Bianca Del Carretto",
        "Country": "Italy"
    },
    {
        "Position": "",
        "Name": "Anna Sivkova",
        "Country": "Russia"
    },
    {
        "Position": "5.",
        "Name": "Marijana Markovic",
        "Country": "Germany"
    },
    {
        "Position": "6.",
        "Name": "Francesca Quondamcarlo",
        "Country": "Italy"
    },
    {
        "Position": "7.",
        "Name": "Noam Mills",
        "Country": "Israel"
    },
    {
        "Position": "8.",
        "Name": "Hajnalka Kiraly Picot",
        "Country": "France"
    }
]