[
    {
        "Month": "Month",
        "First Division manager": "First Division manager",
        "SFL Player": "SFL Player",
        "SFL Young player": "SFL Young player",
        "NO-HEADER4": "",
        "NO-HEADER5": "",
        "NO-HEADER6": ""
    },
    {
        "Month": "Month",
        "First Division manager": "Manager",
        "SFL Player": "Club",
        "SFL Young player": "Player",
        "NO-HEADER4": "Club",
        "NO-HEADER5": "Player",
        "NO-HEADER6": "Club"
    },
    {
        "Month": "August[15]",
        "First Division manager": "Roberto Landi",
        "SFL Player": "Livingston",
        "SFL Young player": "Stephen Robertson",
        "NO-HEADER4": "Airdrie United",
        "NO-HEADER5": "Leigh Griffiths",
        "NO-HEADER6": "Livingston"
    },
    {
        "Month": "September[16]",
        "First Division manager": "Jim McIntyre",
        "SFL Player": "Dunfermline Athletic",
        "SFL Young player": "Paul McManus",
        "NO-HEADER4": "East Fife",
        "NO-HEADER5": "Calum Elliot",
        "NO-HEADER6": "Livingston"
    },
    {
        "Month": "October[17]",
        "First Division manager": "Derek McInnes",
        "SFL Player": "St. Johnstone",
        "SFL Young player": "Steven Milne",
        "NO-HEADER4": "St. Johnstone",
        "NO-HEADER5": "Dominic Shimmin",
        "NO-HEADER6": "Greenock Morton"
    },
    {
        "Month": "November[18]",
        "First Division manager": "Jocky Scott",
        "SFL Player": "Dundee",
        "SFL Young player": "Bryan Prunty",
        "NO-HEADER4": "Ayr United",
        "NO-HEADER5": "Kyle Benedictus",
        "NO-HEADER6": "Dundee"
    },
    {
        "Month": "December[19]",
        "First Division manager": "John Brown",
        "SFL Player": "Clyde",
        "SFL Young player": "Alan Main",
        "NO-HEADER4": "St. Johnstone",
        "NO-HEADER5": "Chris McMenamin",
        "NO-HEADER6": "Berwick Rangers"
    },
    {
        "Month": "January[20]",
        "First Division manager": "Ian McCall",
        "SFL Player": "Partick Thistle",
        "SFL Young player": "Willie McLaren",
        "NO-HEADER4": "Clyde",
        "NO-HEADER5": "Bobby Barr",
        "NO-HEADER6": "Albion Rovers"
    },
    {
        "Month": "February[21]",
        "First Division manager": "Jocky Scott",
        "SFL Player": "Dundee",
        "SFL Young player": "Gary Harkins",
        "NO-HEADER4": "Partick Thistle",
        "NO-HEADER5": "Fraser McLaren",
        "NO-HEADER6": "Berwick Rangers"
    },
    {
        "Month": "March[22]",
        "First Division manager": "Paul Hegarty",
        "SFL Player": "Livingston",
        "SFL Young player": "Kevin Rutkiewicz",
        "NO-HEADER4": "St. Johnstone",
        "NO-HEADER5": "Leigh Griffiths",
        "NO-HEADER6": "Livingston"
    },
    {
        "Month": "April[23]",
        "First Division manager": "Gordon Chisholm",
        "SFL Player": "Queen of the South",
        "SFL Young player": "Stephen Dobbie",
        "NO-HEADER4": "Queen of the South",
        "NO-HEADER5": "Kevin Moon",
        "NO-HEADER6": "St. Johnstone"
    }
]