[
    {
        "Pos": "1",
        "Team": "Stirling Albion (C) (P)",
        "Pld": "36",
        "W": "18",
        "D": "11",
        "L": "7",
        "GF": "68",
        "GA": "48",
        "GD": "+20",
        "Pts": "65",
        "Qualification or relegation": "First Division"
    },
    {
        "Pos": "2",
        "Team": "Alloa Athletic",
        "Pld": "36",
        "W": "19",
        "D": "8",
        "L": "9",
        "GF": "49",
        "GA": "35",
        "GD": "+14",
        "Pts": "65",
        "Qualification or relegation": "First Division Play-offs"
    },
    {
        "Pos": "3",
        "Team": "Cowdenbeath (O) (P)",
        "Pld": "36",
        "W": "16",
        "D": "11",
        "L": "9",
        "GF": "60",
        "GA": "41",
        "GD": "+19",
        "Pts": "59",
        "Qualification or relegation": "First Division Play-offs"
    },
    {
        "Pos": "4",
        "Team": "Brechin City",
        "Pld": "36",
        "W": "15",
        "D": "9",
        "L": "12",
        "GF": "47",
        "GA": "42",
        "GD": "+5",
        "Pts": "54",
        "Qualification or relegation": "First Division Play-offs"
    },
    {
        "Pos": "5",
        "Team": "Peterhead",
        "Pld": "36",
        "W": "15",
        "D": "6",
        "L": "15",
        "GF": "45",
        "GA": "49",
        "GD": "AC/^'4",
        "Pts": "51",
        "Qualification or relegation": ""
    },
    {
        "Pos": "6",
        "Team": "Dumbarton",
        "Pld": "36",
        "W": "14",
        "D": "6",
        "L": "16",
        "GF": "49",
        "GA": "58",
        "GD": "AC/^'9",
        "Pts": "48",
        "Qualification or relegation": ""
    },
    {
        "Pos": "7",
        "Team": "East Fife",
        "Pld": "36",
        "W": "10",
        "D": "11",
        "L": "15",
        "GF": "46",
        "GA": "53",
        "GD": "AC/^'7",
        "Pts": "41",
        "Qualification or relegation": ""
    },
    {
        "Pos": "8",
        "Team": "Stenhousemuir",
        "Pld": "36",
        "W": "9",
        "D": "13",
        "L": "14",
        "GF": "38",
        "GA": "42",
        "GD": "AC/^'4",
        "Pts": "40",
        "Qualification or relegation": ""
    },
    {
        "Pos": "9",
        "Team": "Arbroath (R)",
        "Pld": "36",
        "W": "10",
        "D": "10",
        "L": "16",
        "GF": "41",
        "GA": "55",
        "GD": "AC/^'14",
        "Pts": "40",
        "Qualification or relegation": "Second Division Play-offs"
    },
    {
        "Pos": "10",
        "Team": "Clyde (R)",
        "Pld": "36",
        "W": "8",
        "D": "7",
        "L": "21",
        "GF": "37",
        "GA": "57",
        "GD": "AC/^'20",
        "Pts": "31",
        "Qualification or relegation": "Third Division"
    }
]