[
    {
        "Category": "Category",
        "High": "High",
        "Average": "Average",
        "NO-HEADER3": "",
        "NO-HEADER4": "",
        "NO-HEADER5": "",
        "NO-HEADER6": "",
        "NO-HEADER7": ""
    },
    {
        "Category": "Category",
        "High": "Player",
        "Average": "Team",
        "NO-HEADER3": "Total",
        "NO-HEADER4": "Player",
        "NO-HEADER5": "Team",
        "NO-HEADER6": "Avg.",
        "NO-HEADER7": "GP"
    },
    {
        "Category": "Points",
        "High": "Ray Allen LeBron James",
        "Average": "Boston Celtics Cleveland Cavaliers",
        "NO-HEADER3": "51 (3OT) 49",
        "NO-HEADER4": "LeBron James",
        "NO-HEADER5": "Cleveland Cavaliers",
        "NO-HEADER6": "35.3",
        "NO-HEADER7": "14"
    },
    {
        "Category": "Rebounds",
        "High": "Dwight Howard",
        "Average": "Orlando Magic",
        "NO-HEADER3": "24",
        "NO-HEADER4": "Dwight Howard",
        "NO-HEADER5": "Orlando Magic",
        "NO-HEADER6": "15.3",
        "NO-HEADER7": "23"
    },
    {
        "Category": "Assists",
        "High": "Rajon Rondo Rajon Rondo",
        "Average": "Boston Celtics",
        "NO-HEADER3": "19 (3OT) 18",
        "NO-HEADER4": "Deron Williams",
        "NO-HEADER5": "Utah Jazz",
        "NO-HEADER6": "10.8",
        "NO-HEADER7": "5"
    },
    {
        "Category": "Steals",
        "High": "Glen Davis",
        "Average": "Boston Celtics",
        "NO-HEADER3": "6",
        "NO-HEADER4": "Mario Chalmers",
        "NO-HEADER5": "Miami Heat",
        "NO-HEADER6": "2.9",
        "NO-HEADER7": "7"
    },
    {
        "Category": "Blocks",
        "High": "Dwight Howard Chris Andersen Tyrus Thomas",
        "Average": "Orlando Magic Denver Nuggets Chicago Bulls",
        "NO-HEADER3": "9 (OT) 6 6",
        "NO-HEADER4": "Tyrus Thomas",
        "NO-HEADER5": "Chicago Bulls",
        "NO-HEADER6": "2.9",
        "NO-HEADER7": "7"
    }
]