[
    {
        "Nations": "Nations",
        "Round 1": "Round 1",
        "Round 2": "Round 2"
    },
    {
        "Nations": "Turkey",
        "Round 1": "7",
        "Round 2": "10"
    },
    {
        "Nations": "France",
        "Round 1": "8",
        "Round 2": "9"
    },
    {
        "Nations": "Bosnia \\/ Croatia \\/ Serbia and Montenegro \\/ Slovenia",
        "Round 1": "4",
        "Round 2": "AC/EUR\""
    }
]