[
    {
        "Pos": "1",
        "Team": "FC Absheron (P)",
        "Pld": "26",
        "W": "23",
        "D": "3",
        "L": "0",
        "GF": "75",
        "GA": "6",
        "GD": "+69",
        "Pts": "72"
    },
    {
        "Pos": "2",
        "Team": "Ravan Baku (P)",
        "Pld": "26",
        "W": "19",
        "D": "3",
        "L": "4",
        "GF": "54",
        "GA": "14",
        "GD": "+40",
        "Pts": "60"
    },
    {
        "Pos": "3",
        "Team": "Bakili",
        "Pld": "26",
        "W": "16",
        "D": "4",
        "L": "6",
        "GF": "37",
        "GA": "24",
        "GD": "+13",
        "Pts": "52"
    },
    {
        "Pos": "4",
        "Team": "FK MKT-Araz",
        "Pld": "26",
        "W": "15",
        "D": "3",
        "L": "8",
        "GF": "49",
        "GA": "34",
        "GD": "+15",
        "Pts": "48"
    },
    {
        "Pos": "5",
        "Team": "A...zahdaA\"Y",
        "Pld": "26",
        "W": "13",
        "D": "8",
        "L": "5",
        "GF": "45",
        "GA": "22",
        "GD": "+23",
        "Pts": "47"
    },
    {
        "Pos": "6",
        "Team": "QaradaA\"Y LAfAPkbatan",
        "Pld": "25",
        "W": "14",
        "D": "5",
        "L": "6",
        "GF": "44",
        "GA": "24",
        "GD": "+20",
        "Pts": "47"
    },
    {
        "Pos": "7",
        "Team": "Sumgayit",
        "Pld": "26",
        "W": "13",
        "D": "5",
        "L": "8",
        "GF": "34",
        "GA": "26",
        "GD": "+8",
        "Pts": "44"
    },
    {
        "Pos": "8",
        "Team": "Karvan",
        "Pld": "26",
        "W": "6",
        "D": "8",
        "L": "12",
        "GF": "26",
        "GA": "40",
        "GD": "AC/^'14",
        "Pts": "26"
    },
    {
        "Pos": "9",
        "Team": "A...zA%0(tm)mkir",
        "Pld": "26",
        "W": "5",
        "D": "7",
        "L": "14",
        "GF": "15",
        "GA": "36",
        "GD": "AC/^'21",
        "Pts": "22"
    },
    {
        "Pos": "10",
        "Team": "GAfAPyA%0(tm)zA%0(tm)n",
        "Pld": "26",
        "W": "5",
        "D": "4",
        "L": "17",
        "GF": "22",
        "GA": "50",
        "GD": "AC/^'28",
        "Pts": "19"
    },
    {
        "Pos": "11",
        "Team": "FK Neftchala",
        "Pld": "25",
        "W": "4",
        "D": "6",
        "L": "15",
        "GF": "25",
        "GA": "48",
        "GD": "AC/^'23",
        "Pts": "18"
    },
    {
        "Pos": "12",
        "Team": "A...zuA...Ya",
        "Pld": "26",
        "W": "3",
        "D": "8",
        "L": "15",
        "GF": "20",
        "GA": "41",
        "GD": "AC/^'21",
        "Pts": "17"
    },
    {
        "Pos": "13",
        "Team": "Energetik",
        "Pld": "25",
        "W": "3",
        "D": "6",
        "L": "16",
        "GF": "14",
        "GA": "50",
        "GD": "AC/^'36",
        "Pts": "15"
    },
    {
        "Pos": "14",
        "Team": "Adliyya Baku",
        "Pld": "23",
        "W": "3",
        "D": "4",
        "L": "16",
        "GF": "13",
        "GA": "58",
        "GD": "AC/^'45",
        "Pts": "13"
    }
]