[
    {
        "Date": "21 May",
        "Time": "10:00",
        "NO-HEADER2": "Thailand",
        "Score": "3AC/EUR\"0",
        "NO-HEADER4": "Sri Lanka",
        "Set 1": "25AC/EUR\"21",
        "Set 2": "25AC/EUR\"23",
        "Set 3": "25AC/EUR\"21",
        "Set 4": "",
        "Set 5": "",
        "Total": "75AC/EUR\"65",
        "Report": "Report"
    }
]