[
    {
        "NO-HEADER0": "ABC",
        "7:00 am": "Good Morning America",
        "7:30 am": "Local Programs",
        "8:00 am": "The View",
        "8:30 am": "Local Programs",
        "9:00 am": "All My Children",
        "9:30 am": "One Life to Live",
        "10:00 am": "General Hospital",
        "10:30 am": "Local Programs",
        "11:00 am": "ABC World News with Diane Sawyer",
        "11:30 am": "",
        "noon": "",
        "12:30 pm": "",
        "1:00 pm": "",
        "1:30 pm": "",
        "2:00 pm": "",
        "2:30 pm": "",
        "3:00 pm": "",
        "3:30 pm": "",
        "4:00 pm": "",
        "4:30 pm": "",
        "5:00 pm": "",
        "5:30 pm": "",
        "6:00 pm": "",
        "6:30 pm": ""
    },
    {
        "NO-HEADER0": "CBS",
        "7:00 am": "The Early Show",
        "7:30 am": "Local programs",
        "8:00 am": "Let's Make a Deal\\/Local Programs",
        "8:30 am": "The Price is Right",
        "9:00 am": "Local Programs",
        "9:30 am": "The Young and the Restless",
        "10:00 am": "The Bold and the Beautiful",
        "10:30 am": "The Talk",
        "11:00 am": "Let's Make a Deal\\/Local Programs",
        "11:30 am": "Local Programs",
        "noon": "CBS Evening News with Katie Couric",
        "12:30 pm": "",
        "1:00 pm": "",
        "1:30 pm": "",
        "2:00 pm": "",
        "2:30 pm": "",
        "3:00 pm": "",
        "3:30 pm": "",
        "4:00 pm": "",
        "4:30 pm": "",
        "5:00 pm": "",
        "5:30 pm": "",
        "6:00 pm": "",
        "6:30 pm": ""
    },
    {
        "NO-HEADER0": "NBC",
        "7:00 am": "Today",
        "7:30 am": "Local Programs",
        "8:00 am": "Days of Our Lives",
        "8:30 am": "Local Programs",
        "9:00 am": "NBC Nightly News with Brian Williams",
        "9:30 am": "",
        "10:00 am": "",
        "10:30 am": "",
        "11:00 am": "",
        "11:30 am": "",
        "noon": "",
        "12:30 pm": "",
        "1:00 pm": "",
        "1:30 pm": "",
        "2:00 pm": "",
        "2:30 pm": "",
        "3:00 pm": "",
        "3:30 pm": "",
        "4:00 pm": "",
        "4:30 pm": "",
        "5:00 pm": "",
        "5:30 pm": "",
        "6:00 pm": "",
        "6:30 pm": ""
    },
    {
        "NO-HEADER0": "CW",
        "7:00 am": "Local Programs",
        "7:30 am": "The Tyra Banks Show reruns",
        "8:00 am": "The Tyra Banks Show reruns",
        "8:30 am": "Local Programs",
        "9:00 am": "",
        "9:30 am": "",
        "10:00 am": "",
        "10:30 am": "",
        "11:00 am": "",
        "11:30 am": "",
        "noon": "",
        "12:30 pm": "",
        "1:00 pm": "",
        "1:30 pm": "",
        "2:00 pm": "",
        "2:30 pm": "",
        "3:00 pm": "",
        "3:30 pm": "",
        "4:00 pm": "",
        "4:30 pm": "",
        "5:00 pm": "",
        "5:30 pm": "",
        "6:00 pm": "",
        "6:30 pm": ""
    }
]