[
    {
        "Team": "PA...(tm)AfAbram",
        "Outgoing manager": "Martin HA...(tm)AfAdel",
        "Manner of departure": "Sacked",
        "Date of vacancy": "28 September 2010[10]",
        "Table": "14th",
        "Incoming manager": "Roman Nadvornik",
        "Date of appointment": "4 October 2010[11]"
    },
    {
        "Team": "Slavia Prague",
        "Outgoing manager": "Karel Jarolim",
        "Manner of departure": "Mutual consent",
        "Date of vacancy": "29 September 2010[12]",
        "Table": "12th",
        "Incoming manager": "Michal PetrouA!",
        "Date of appointment": "29 September 2010[12]"
    },
    {
        "Team": "Banik Ostrava",
        "Outgoing manager": "Miroslav Koubek",
        "Manner of departure": "Sacked",
        "Date of vacancy": "25 October 2010[13]",
        "Table": "14th",
        "Incoming manager": "Karol Marko",
        "Date of appointment": "8 November 2010[14]"
    },
    {
        "Team": "Slovan Liberec",
        "Outgoing manager": "Josef PetA...(tm)AfAk",
        "Manner of departure": "Resigned",
        "Date of vacancy": "26 October 2010[15]",
        "Table": "11th",
        "Incoming manager": "Petr Rada",
        "Date of appointment": "26 October 2010[15]"
    },
    {
        "Team": "Brno",
        "Outgoing manager": "Karel VeAeA\na",
        "Manner of departure": "Sacked",
        "Date of vacancy": "14 April 2011[16]",
        "Table": "15th",
        "Incoming manager": "Rene Wagner",
        "Date of appointment": "14 April 2011[16]"
    },
    {
        "Team": "PA...(tm)AfAbram",
        "Outgoing manager": "Roman Nadvornik",
        "Manner of departure": "Sacked",
        "Date of vacancy": "26 April 2011[17]",
        "Table": "14th",
        "Incoming manager": "David VavruA!ka [1]",
        "Date of appointment": "26 May 2011[18]"
    },
    {
        "Team": "Mlada Boleslav",
        "Outgoing manager": "Karel Stanner",
        "Manner of departure": "Resigned",
        "Date of vacancy": "18 May 2011[19]",
        "Table": "14th",
        "Incoming manager": "Miroslav Koubek [2]",
        "Date of appointment": "28 May 2011[20]"
    }
]