[
    {
        "Home AC/*A2 Away": "Debrecen",
        "DEB": "",
        "DIA\"": "5AC/EUR\"0",
        "FTC": "1AC/EUR\"0",
        "GYA\n": "2AC/EUR\"0",
        "HAL": "2AC/EUR\"0",
        "HON": "1AC/EUR\"1",
        "KAP": "3AC/EUR\"0",
        "KEC": "2AC/EUR\"1",
        "PAK": "4AC/EUR\"2",
        "PAP": "2AC/EUR\"2",
        "PAf%0C": "4AC/EUR\"0",
        "SIA\"": "1AC/EUR\"1",
        "UTE": "3AC/EUR\"2",
        "VAS": "5AC/EUR\"2",
        "VID": "2AC/EUR\"1",
        "ZTE": "5AC/EUR\"2"
    },
    {
        "Home AC/*A2 Away": "DiA3sgyA'r",
        "DEB": "0AC/EUR\"2",
        "DIA\"": "",
        "FTC": "2AC/EUR\"3",
        "GYA\n": "2AC/EUR\"0",
        "HAL": "1AC/EUR\"0",
        "HON": "2AC/EUR\"1",
        "KAP": "2AC/EUR\"1",
        "KEC": "1AC/EUR\"2",
        "PAK": "1AC/EUR\"2",
        "PAP": "2AC/EUR\"0",
        "PAf%0C": "4AC/EUR\"0",
        "SIA\"": "2AC/EUR\"1",
        "UTE": "1AC/EUR\"0",
        "VAS": "3AC/EUR\"2",
        "VID": "0AC/EUR\"2",
        "ZTE": "4AC/EUR\"1"
    },
    {
        "Home AC/*A2 Away": "Ferencvaros",
        "DEB": "1AC/EUR\"2",
        "DIA\"": "1AC/EUR\"1",
        "FTC": "",
        "GYA\n": "2AC/EUR\"2",
        "HAL": "1AC/EUR\"2",
        "HON": "0AC/EUR\"0",
        "KAP": "0AC/EUR\"0",
        "KEC": "3AC/EUR\"02",
        "PAK": "0AC/EUR\"0",
        "PAP": "0AC/EUR\"2",
        "PAf%0C": "0AC/EUR\"1",
        "SIA\"": "0AC/EUR\"1",
        "UTE": "3AC/EUR\"0",
        "VAS": "1AC/EUR\"0",
        "VID": "0AC/EUR\"1",
        "ZTE": "2AC/EUR\"0"
    },
    {
        "Home AC/*A2 Away": "GyA...'r",
        "DEB": "1AC/EUR\"2",
        "DIA\"": "2AC/EUR\"0",
        "FTC": "2AC/EUR\"0",
        "GYA\n": "",
        "HAL": "1AC/EUR\"0",
        "HON": "1AC/EUR\"3",
        "KAP": "2AC/EUR\"1",
        "KEC": "4AC/EUR\"0",
        "PAK": "4AC/EUR\"1",
        "PAP": "3AC/EUR\"2",
        "PAf%0C": "3AC/EUR\"0",
        "SIA\"": "4AC/EUR\"1",
        "UTE": "1AC/EUR\"0",
        "VAS": "3AC/EUR\"2",
        "VID": "1AC/EUR\"0",
        "ZTE": "5AC/EUR\"1"
    },
    {
        "Home AC/*A2 Away": "Haladas",
        "DEB": "0AC/EUR\"1",
        "DIA\"": "2AC/EUR\"1",
        "FTC": "2AC/EUR\"1",
        "GYA\n": "1AC/EUR\"1",
        "HAL": "",
        "HON": "2AC/EUR\"4",
        "KAP": "1AC/EUR\"1",
        "KEC": "2AC/EUR\"2",
        "PAK": "5AC/EUR\"0",
        "PAP": "2AC/EUR\"1",
        "PAf%0C": "1AC/EUR\"1",
        "SIA\"": "2AC/EUR\"1",
        "UTE": "1AC/EUR\"1",
        "VAS": "3AC/EUR\"0",
        "VID": "2AC/EUR\"2",
        "ZTE": "1AC/EUR\"0"
    },
    {
        "Home AC/*A2 Away": "Honved",
        "DEB": "0AC/EUR\"3",
        "DIA\"": "2AC/EUR\"1",
        "FTC": "1AC/EUR\"0",
        "GYA\n": "1AC/EUR\"2",
        "HAL": "2AC/EUR\"2",
        "HON": "",
        "KAP": "0AC/EUR\"0",
        "KEC": "1AC/EUR\"4",
        "PAK": "2AC/EUR\"3",
        "PAP": "2AC/EUR\"0",
        "PAf%0C": "1AC/EUR\"1",
        "SIA\"": "3AC/EUR\"1",
        "UTE": "2AC/EUR\"0",
        "VAS": "4AC/EUR\"0",
        "VID": "1AC/EUR\"0",
        "ZTE": "2AC/EUR\"0"
    },
    {
        "Home AC/*A2 Away": "Kaposvar",
        "DEB": "1AC/EUR\"1",
        "DIA\"": "3AC/EUR\"2",
        "FTC": "2AC/EUR\"2",
        "GYA\n": "0AC/EUR\"0",
        "HAL": "1AC/EUR\"1",
        "HON": "2AC/EUR\"2",
        "KAP": "",
        "KEC": "2AC/EUR\"1",
        "PAK": "4AC/EUR\"4",
        "PAP": "2AC/EUR\"0",
        "PAf%0C": "1AC/EUR\"0",
        "SIA\"": "2AC/EUR\"3",
        "UTE": "2AC/EUR\"2",
        "VAS": "0AC/EUR\"0",
        "VID": "2AC/EUR\"0",
        "ZTE": "3AC/EUR\"1"
    },
    {
        "Home AC/*A2 Away": "Kecskemet",
        "DEB": "0AC/EUR\"1",
        "DIA\"": "1AC/EUR\"0",
        "FTC": "1AC/EUR\"0",
        "GYA\n": "2AC/EUR\"0",
        "HAL": "2AC/EUR\"2",
        "HON": "3AC/EUR\"1",
        "KAP": "4AC/EUR\"0",
        "KEC": "",
        "PAK": "0AC/EUR\"1",
        "PAP": "3AC/EUR\"0",
        "PAf%0C": "1AC/EUR\"2",
        "SIA\"": "3AC/EUR\"2",
        "UTE": "0AC/EUR\"0",
        "VAS": "1AC/EUR\"1",
        "VID": "0AC/EUR\"2",
        "ZTE": "2AC/EUR\"0"
    },
    {
        "Home AC/*A2 Away": "Paks",
        "DEB": "0AC/EUR\"0",
        "DIA\"": "1AC/EUR\"1",
        "FTC": "4AC/EUR\"2",
        "GYA\n": "1AC/EUR\"2",
        "HAL": "3AC/EUR\"2",
        "HON": "2AC/EUR\"1",
        "KAP": "0AC/EUR\"0",
        "KEC": "3AC/EUR\"2",
        "PAK": "",
        "PAP": "1AC/EUR\"1",
        "PAf%0C": "4AC/EUR\"4",
        "SIA\"": "1AC/EUR\"1",
        "UTE": "2AC/EUR\"0",
        "VAS": "2AC/EUR\"1",
        "VID": "1AC/EUR\"2",
        "ZTE": "4AC/EUR\"2"
    },
    {
        "Home AC/*A2 Away": "Papa",
        "DEB": "0AC/EUR\"2",
        "DIA\"": "1AC/EUR\"2",
        "FTC": "1AC/EUR\"2",
        "GYA\n": "0AC/EUR\"2",
        "HAL": "1AC/EUR\"0",
        "HON": "3AC/EUR\"1",
        "KAP": "1AC/EUR\"0",
        "KEC": "1AC/EUR\"0",
        "PAK": "1AC/EUR\"0",
        "PAP": "",
        "PAf%0C": "0AC/EUR\"0",
        "SIA\"": "2AC/EUR\"0",
        "UTE": "0AC/EUR\"1",
        "VAS": "0AC/EUR\"0",
        "VID": "2AC/EUR\"3",
        "ZTE": "0AC/EUR\"1"
    },
    {
        "Home AC/*A2 Away": "Pecs",
        "DEB": "0AC/EUR\"0",
        "DIA\"": "1AC/EUR\"2",
        "FTC": "0AC/EUR\"2",
        "GYA\n": "3AC/EUR\"1",
        "HAL": "1AC/EUR\"0",
        "HON": "3AC/EUR\"4",
        "KAP": "1AC/EUR\"1",
        "KEC": "2AC/EUR\"2",
        "PAK": "1AC/EUR\"2",
        "PAP": "2AC/EUR\"1",
        "PAf%0C": "",
        "SIA\"": "1AC/EUR\"1",
        "UTE": "0AC/EUR\"0",
        "VAS": "5AC/EUR\"1",
        "VID": "1AC/EUR\"3",
        "ZTE": "2AC/EUR\"1"
    },
    {
        "Home AC/*A2 Away": "Siofok",
        "DEB": "0AC/EUR\"0",
        "DIA\"": "1AC/EUR\"0",
        "FTC": "0AC/EUR\"2",
        "GYA\n": "0AC/EUR\"1",
        "HAL": "0AC/EUR\"2",
        "HON": "0AC/EUR\"0",
        "KAP": "3AC/EUR\"1",
        "KEC": "0AC/EUR\"2",
        "PAK": "2AC/EUR\"0",
        "PAP": "3AC/EUR\"1",
        "PAf%0C": "2AC/EUR\"1",
        "SIA\"": "",
        "UTE": "2AC/EUR\"0",
        "VAS": "0AC/EUR\"0",
        "VID": "0AC/EUR\"0",
        "ZTE": "2AC/EUR\"0"
    },
    {
        "Home AC/*A2 Away": "Afsjpest",
        "DEB": "1AC/EUR\"5",
        "DIA\"": "1AC/EUR\"1",
        "FTC": "1AC/EUR\"1",
        "GYA\n": "1AC/EUR\"3",
        "HAL": "4AC/EUR\"1",
        "HON": "2AC/EUR\"0",
        "KAP": "3AC/EUR\"1",
        "KEC": "3AC/EUR\"1",
        "PAK": "0AC/EUR\"2",
        "PAP": "0AC/EUR\"1",
        "PAf%0C": "4AC/EUR\"1",
        "SIA\"": "1AC/EUR\"1",
        "UTE": "",
        "VAS": "2AC/EUR\"0",
        "VID": "0AC/EUR\"2",
        "ZTE": "4AC/EUR\"2"
    },
    {
        "Home AC/*A2 Away": "Vasas",
        "DEB": "0AC/EUR\"0",
        "DIA\"": "2AC/EUR\"3",
        "FTC": "2AC/EUR\"0",
        "GYA\n": "1AC/EUR\"2",
        "HAL": "0AC/EUR\"0",
        "HON": "1AC/EUR\"2",
        "KAP": "0AC/EUR\"1",
        "KEC": "2AC/EUR\"4",
        "PAK": "1AC/EUR\"0",
        "PAP": "1AC/EUR\"1",
        "PAf%0C": "1AC/EUR\"2",
        "SIA\"": "1AC/EUR\"0",
        "UTE": "3AC/EUR\"0",
        "VAS": "",
        "VID": "0AC/EUR\"0",
        "ZTE": "3AC/EUR\"2"
    },
    {
        "Home AC/*A2 Away": "Videoton",
        "DEB": "0AC/EUR\"1",
        "DIA\"": "2AC/EUR\"0",
        "FTC": "2AC/EUR\"0",
        "GYA\n": "2AC/EUR\"1",
        "HAL": "1AC/EUR\"0",
        "HON": "1AC/EUR\"0",
        "KAP": "2AC/EUR\"0",
        "KEC": "0AC/EUR\"2",
        "PAK": "4AC/EUR\"0",
        "PAP": "2AC/EUR\"0",
        "PAf%0C": "4AC/EUR\"1",
        "SIA\"": "7AC/EUR\"0",
        "UTE": "3AC/EUR\"0",
        "VAS": "4AC/EUR\"1",
        "VID": "",
        "ZTE": "4AC/EUR\"1"
    },
    {
        "Home AC/*A2 Away": "ZTE",
        "DEB": "0AC/EUR\"2",
        "DIA\"": "1AC/EUR\"1",
        "FTC": "2AC/EUR\"3",
        "GYA\n": "0AC/EUR\"2",
        "HAL": "1AC/EUR\"1",
        "HON": "0AC/EUR\"4",
        "KAP": "1AC/EUR\"1",
        "KEC": "1AC/EUR\"1",
        "PAK": "1AC/EUR\"1",
        "PAP": "1AC/EUR\"1",
        "PAf%0C": "0AC/EUR\"0",
        "SIA\"": "1AC/EUR\"1",
        "UTE": "1AC/EUR\"1",
        "VAS": "1AC/EUR\"1",
        "VID": "0AC/EUR\"2",
        "ZTE": ""
    }
]