[
    {
        "rank": "",
        "name": "Darya Domracheva (BLR)",
        "points": "250"
    },
    {
        "rank": "2",
        "name": "Tora Berger (NOR)",
        "points": "241"
    },
    {
        "rank": "3",
        "name": "Marie Laure Brunet (FRA)",
        "points": "198"
    }
]