[
    {
        "Rank": "",
        "Bib": "1",
        "Name": "Henrieta Farkasova Guide: Natalia Subrtova",
        "Country": "Slovakia",
        "Run 1": "1:08.27",
        "Rank 5": "1",
        "Run 2": "1:10.93",
        "Rank 7": "1",
        "Total": "2:19.20",
        "Difference": ""
    },
    {
        "Rank": "",
        "Bib": "5",
        "Name": "Alexandra Frantseva Guide: Evgenia Kolosovskaya",
        "Country": "Russia",
        "Run 1": "1:12.10",
        "Rank 5": "2",
        "Run 2": "1:16.63",
        "Rank 7": "2",
        "Total": "2:28.73",
        "Difference": "+9.53"
    },
    {
        "Rank": "",
        "Bib": "2",
        "Name": "Kelly Gallagher Guide: Charlotte Evans",
        "Country": "United Kingdom",
        "Run 1": "1:13.96",
        "Rank 5": "3",
        "Run 2": "1:17.72",
        "Rank 7": "3",
        "Total": "2:31.68",
        "Difference": "+12.48"
    },
    {
        "Rank": "4",
        "Bib": "7",
        "Name": "Melissa Perrine Guide: Andrew Bor",
        "Country": "Australia",
        "Run 1": "1:18.44",
        "Rank 5": "4",
        "Run 2": "1:22.25",
        "Rank 7": "5",
        "Total": "2:40.69",
        "Difference": "+21.49"
    },
    {
        "Rank": "5",
        "Bib": "4",
        "Name": "Natasha de Troyer Guide: Werner de Troyer",
        "Country": "Belgium",
        "Run 1": "1:20.75",
        "Rank 5": "6",
        "Run 2": "1:22.99",
        "Rank 7": "6",
        "Total": "2:43.74",
        "Difference": "+24.54"
    },
    {
        "Rank": "6",
        "Bib": "3",
        "Name": "Anna Kuliskova Guide: Michaela Hubacova",
        "Country": "Czech Republic",
        "Run 1": "1:24.40",
        "Rank 5": "7",
        "Run 2": "1:20.18",
        "Rank 7": "4",
        "Total": "2:44.58",
        "Difference": "+25.38"
    },
    {
        "Rank": "7",
        "Bib": "8",
        "Name": "Gemma Pedrini Guide: Ivan Morlotti",
        "Country": "Italy",
        "Run 1": "1:27.51",
        "Rank 5": "8",
        "Run 2": "1:36.04",
        "Rank 7": "7",
        "Total": "3:03.55",
        "Difference": "+44.35"
    },
    {
        "Rank": "",
        "Bib": "6",
        "Name": "Danelle Umstead Guide: Robert Umstead",
        "Country": "United States",
        "Run 1": "",
        "Rank 5": "",
        "Run 2": "DNS",
        "Rank 7": "",
        "Total": "",
        "Difference": ""
    }
]