[
    {
        "Pos": "1",
        "Team": "Saham",
        "Pld": "26",
        "W": "17",
        "D": "4",
        "L": "5",
        "GF": "53",
        "GA": "22",
        "GD": "+31",
        "Pts": "55"
    },
    {
        "Pos": "2",
        "Team": "Al-Nasr",
        "Pld": "26",
        "W": "14",
        "D": "8",
        "L": "4",
        "GF": "42",
        "GA": "15",
        "GD": "+27",
        "Pts": "50"
    },
    {
        "Pos": "3",
        "Team": "Al-Seeb",
        "Pld": "26",
        "W": "15",
        "D": "3",
        "L": "8",
        "GF": "35",
        "GA": "26",
        "GD": "+9",
        "Pts": "48"
    },
    {
        "Pos": "4",
        "Team": "Al-Ittihad",
        "Pld": "26",
        "W": "13",
        "D": "6",
        "L": "7",
        "GF": "45",
        "GA": "31",
        "GD": "+14",
        "Pts": "45"
    },
    {
        "Pos": "5",
        "Team": "Al-Salam",
        "Pld": "26",
        "W": "10",
        "D": "11",
        "L": "5",
        "GF": "34",
        "GA": "25",
        "GD": "+9",
        "Pts": "41"
    },
    {
        "Pos": "6",
        "Team": "Muscat",
        "Pld": "26",
        "W": "11",
        "D": "6",
        "L": "9",
        "GF": "40",
        "GA": "37",
        "GD": "+3",
        "Pts": "39"
    },
    {
        "Pos": "7",
        "Team": "Al-Bashaer",
        "Pld": "26",
        "W": "11",
        "D": "4",
        "L": "11",
        "GF": "42",
        "GA": "34",
        "GD": "+8",
        "Pts": "37"
    },
    {
        "Pos": "8",
        "Team": "Sohar",
        "Pld": "26",
        "W": "9",
        "D": "6",
        "L": "11",
        "GF": "36",
        "GA": "39",
        "GD": "AC/^'3",
        "Pts": "33"
    },
    {
        "Pos": "9",
        "Team": "Majees",
        "Pld": "26",
        "W": "7",
        "D": "10",
        "L": "9",
        "GF": "35",
        "GA": "45",
        "GD": "AC/^'10",
        "Pts": "31"
    },
    {
        "Pos": "10",
        "Team": "Al-Khabourah",
        "Pld": "26",
        "W": "8",
        "D": "6",
        "L": "12",
        "GF": "30",
        "GA": "44",
        "GD": "AC/^'14",
        "Pts": "30"
    },
    {
        "Pos": "11",
        "Team": "Al-Mudhaibi",
        "Pld": "26",
        "W": "6",
        "D": "8",
        "L": "12",
        "GF": "20",
        "GA": "34",
        "GD": "AC/^'14",
        "Pts": "26"
    },
    {
        "Pos": "11",
        "Team": "Mirbat",
        "Pld": "26",
        "W": "6",
        "D": "7",
        "L": "13",
        "GF": "25",
        "GA": "41",
        "GD": "AC/^'16",
        "Pts": "25"
    },
    {
        "Pos": "13",
        "Team": "Yanqul",
        "Pld": "26",
        "W": "5",
        "D": "6",
        "L": "15",
        "GF": "32",
        "GA": "54",
        "GD": "AC/^'22",
        "Pts": "21"
    },
    {
        "Pos": "14",
        "Team": "Bowsher",
        "Pld": "26",
        "W": "6",
        "D": "3",
        "L": "17",
        "GF": "26",
        "GA": "48",
        "GD": "AC/^'22",
        "Pts": "21"
    }
]