[
    {
        "Pos.": "1",
        "Team": "Colombia",
        "Pld": "6",
        "W": "6",
        "D": "0",
        "L": "0",
        "Pts": "18",
        "GF": "33",
        "GA": "6",
        "GD": "+27"
    },
    {
        "Pos.": "2",
        "Team": "Paraguay",
        "Pld": "6",
        "W": "3",
        "D": "2",
        "L": "1",
        "Pts": "11",
        "GF": "32",
        "GA": "19",
        "GD": "+13"
    },
    {
        "Pos.": "3",
        "Team": "Argentina",
        "Pld": "6",
        "W": "4",
        "D": "1",
        "L": "1",
        "Pts": "13",
        "GF": "31",
        "GA": "18",
        "GD": "+13"
    },
    {
        "Pos.": "4",
        "Team": "Russia",
        "Pld": "6",
        "W": "3",
        "D": "1",
        "L": "2",
        "Pts": "10",
        "GF": "26",
        "GA": "24",
        "GD": "+2"
    },
    {
        "Pos.": "Eliminated in the quarter-finals",
        "Team": "",
        "Pld": "",
        "W": "",
        "D": "",
        "L": "",
        "Pts": "",
        "GF": "",
        "GA": "",
        "GD": ""
    },
    {
        "Pos.": "5",
        "Team": "Peru",
        "Pld": "4",
        "W": "3",
        "D": "0",
        "L": "1",
        "Pts": "9",
        "GF": "17",
        "GA": "13",
        "GD": "+4"
    },
    {
        "Pos.": "6",
        "Team": "Venezuela",
        "Pld": "4",
        "W": "2",
        "D": "1",
        "L": "1",
        "Pts": "7",
        "GF": "16",
        "GA": "7",
        "GD": "+9"
    },
    {
        "Pos.": "7",
        "Team": "Catalonia",
        "Pld": "4",
        "W": "2",
        "D": "0",
        "L": "2",
        "Pts": "6",
        "GF": "13",
        "GA": "16",
        "GD": "-3"
    },
    {
        "Pos.": "8",
        "Team": "Belarus",
        "Pld": "4",
        "W": "2",
        "D": "0",
        "L": "2",
        "Pts": "6",
        "GF": "12",
        "GA": "16",
        "GD": "-4"
    },
    {
        "Pos.": "Eliminated in the group stage",
        "Team": "",
        "Pld": "",
        "W": "",
        "D": "",
        "L": "",
        "Pts": "",
        "GF": "",
        "GA": "",
        "GD": ""
    },
    {
        "Pos.": "9",
        "Team": "Brazil",
        "Pld": "3",
        "W": "1",
        "D": "1",
        "L": "1",
        "Pts": "4",
        "GF": "12",
        "GA": "12",
        "GD": "0"
    },
    {
        "Pos.": "10",
        "Team": "Uruguay",
        "Pld": "3",
        "W": "1",
        "D": "0",
        "L": "2",
        "Pts": "3",
        "GF": "12",
        "GA": "13",
        "GD": "-1"
    },
    {
        "Pos.": "11",
        "Team": "Czech Republic",
        "Pld": "3",
        "W": "1",
        "D": "0",
        "L": "2",
        "Pts": "3",
        "GF": "6",
        "GA": "7",
        "GD": "-1"
    },
    {
        "Pos.": "12",
        "Team": "Ecuador",
        "Pld": "3",
        "W": "1",
        "D": "0",
        "L": "2",
        "Pts": "3",
        "GF": "8",
        "GA": "24",
        "GD": "-16"
    },
    {
        "Pos.": "13",
        "Team": "South Ossetia",
        "Pld": "3",
        "W": "0",
        "D": "0",
        "L": "3",
        "Pts": "0",
        "GF": "6",
        "GA": "11",
        "GD": "-5"
    },
    {
        "Pos.": "14",
        "Team": "Canada",
        "Pld": "3",
        "W": "0",
        "D": "0",
        "L": "3",
        "Pts": "0",
        "GF": "8",
        "GA": "19",
        "GD": "-11"
    },
    {
        "Pos.": "15",
        "Team": "New Zealand",
        "Pld": "3",
        "W": "0",
        "D": "0",
        "L": "3",
        "Pts": "0",
        "GF": "4",
        "GA": "18",
        "GD": "-14"
    },
    {
        "Pos.": "16",
        "Team": "Mexico",
        "Pld": "3",
        "W": "0",
        "D": "0",
        "L": "3",
        "Pts": "0",
        "GF": "1",
        "GA": "29",
        "GD": "-28"
    }
]