[
    {
        "Week": "1",
        "Player": "Patrick Beverley",
        "Team": "Spartak Saint Petersburg",
        "PIR": "27"
    },
    {
        "Week": "2",
        "Player": "Loukas Mavrokefalidis",
        "Team": "Spartak Saint Petersburg",
        "PIR": "29"
    },
    {
        "Week": "3",
        "Player": "Nando de Colo",
        "Team": "Valencia Basket",
        "PIR": "40"
    },
    {
        "Week": "4",
        "Player": "Hilton Armstrong",
        "Team": "ASVEL Basket",
        "PIR": "26"
    },
    {
        "Week": "5",
        "Player": "DaShaun Wood",
        "Team": "Alba Berlin",
        "PIR": "37"
    },
    {
        "Week": "6",
        "Player": "Jeremiah Massey",
        "Team": "PBC Lokomotiv-Kuban",
        "PIR": "37"
    }
]