[
    {
        "Player": "Ray Allen",
        "GP": "46",
        "GS": "42",
        "MPG": "34.0",
        "FG%": ".458",
        "3FG%": ".453",
        "FT%": ".915",
        "RPG": "3.1",
        "APG": "2.4",
        "SPG": "1.1",
        "BPG": ".2",
        "PPG": "14.2"
    },
    {
        "Player": "Brandon Bass",
        "GP": "59",
        "GS": "39",
        "MPG": "31.7",
        "FG%": ".479",
        "3FG%": "",
        "FT%": ".810",
        "RPG": "6.2",
        "APG": ".9",
        "SPG": ".6",
        "BPG": ".9",
        "PPG": "12.5"
    },
    {
        "Player": "Avery Bradley",
        "GP": "64",
        "GS": "28",
        "MPG": "21.4",
        "FG%": ".498",
        "3FG%": ".407",
        "FT%": ".795",
        "RPG": "1.8",
        "APG": "1.4",
        "SPG": ".7",
        "BPG": ".2",
        "PPG": "7.6"
    },
    {
        "Player": "Marquis Daniels",
        "GP": "38",
        "GS": "0",
        "MPG": "12.7",
        "FG%": ".364",
        "3FG%": ".000",
        "FT%": ".739",
        "RPG": "1.7",
        "APG": "1.2",
        "SPG": ".6",
        "BPG": ".2",
        "PPG": "3.2"
    },
    {
        "Player": "Keyon Dooling",
        "GP": "46",
        "GS": "2",
        "MPG": "14.4",
        "FG%": ".405",
        "3FG%": ".333",
        "FT%": ".742",
        "RPG": "0.8",
        "APG": "1.1",
        "SPG": ".3",
        "BPG": ".0",
        "PPG": "4.0"
    },
    {
        "Player": "Kevin Garnett",
        "GP": "60",
        "GS": "60",
        "MPG": "31.1",
        "FG%": ".503",
        "3FG%": ".333",
        "FT%": ".857",
        "RPG": "8.2",
        "APG": "2.9",
        "SPG": ".9",
        "BPG": "1.0",
        "PPG": "15.8"
    },
    {
        "Player": "Ryan Hollins[1]",
        "GP": "15",
        "GS": "1",
        "MPG": "10.7",
        "FG%": ".643",
        "3FG%": "",
        "FT%": ".300",
        "RPG": "1.7",
        "APG": ".2",
        "SPG": ".1",
        "BPG": ".3",
        "PPG": "2.8"
    },
    {
        "Player": "JaJuan Johnson",
        "GP": "36",
        "GS": "0",
        "MPG": "8.3",
        "FG%": ".446",
        "3FG%": "",
        "FT%": ".667",
        "RPG": "1.6",
        "APG": ".2",
        "SPG": ".1",
        "BPG": ".4",
        "PPG": "3.2"
    },
    {
        "Player": "E'Twaun Moore",
        "GP": "38",
        "GS": "0",
        "MPG": "8.7",
        "FG%": ".381",
        "3FG%": ".378",
        "FT%": "1.000",
        "RPG": ".9",
        "APG": ".9",
        "SPG": ".3",
        "BPG": ".1",
        "PPG": "2.9"
    },
    {
        "Player": "Jermaine O'Neal[1]",
        "GP": "25",
        "GS": "24",
        "MPG": "22.8",
        "FG%": ".433",
        "3FG%": "",
        "FT%": ".677",
        "RPG": "5.4",
        "APG": ".4",
        "SPG": ".3",
        "BPG": "1.7",
        "PPG": "5.0"
    },
    {
        "Player": "Sasha PavloviA\"++",
        "GP": "45",
        "GS": "7",
        "MPG": "11.7",
        "FG%": ".391",
        "3FG%": ".293",
        "FT%": ".375",
        "RPG": "1.6",
        "APG": ".4",
        "SPG": ".4",
        "BPG": ".3",
        "PPG": "2.7"
    },
    {
        "Player": "Paul Pierce",
        "GP": "61",
        "GS": "61",
        "MPG": "34.0",
        "FG%": ".443",
        "3FG%": ".366",
        "FT%": ".852",
        "RPG": "5.2",
        "APG": "4.5",
        "SPG": "1.1",
        "BPG": ".4",
        "PPG": "19.4"
    },
    {
        "Player": "Mickael Pietrus",
        "GP": "42",
        "GS": "6",
        "MPG": "21.9",
        "FG%": ".385",
        "3FG%": ".335",
        "FT%": ".645",
        "RPG": "3.1",
        "APG": ".6",
        "SPG": ".5",
        "BPG": ".2",
        "PPG": "6.9"
    },
    {
        "Player": "Rajon Rondo",
        "GP": "53",
        "GS": "53",
        "MPG": "36.9",
        "FG%": ".448",
        "3FG%": ".238",
        "FT%": ".597",
        "RPG": "4.8",
        "APG": "11.7",
        "SPG": "1.8",
        "BPG": ".1",
        "PPG": "11.9"
    },
    {
        "Player": "Greg Stiemsma",
        "GP": "55",
        "GS": "3",
        "MPG": "13.9",
        "FG%": ".545",
        "3FG%": "",
        "FT%": ".707",
        "RPG": "3.2",
        "APG": ".5",
        "SPG": ".7",
        "BPG": "1.5",
        "PPG": "2.9"
    },
    {
        "Player": "Chris Wilcox[1]",
        "GP": "28",
        "GS": "4",
        "MPG": "17.2",
        "FG%": ".598",
        "3FG%": "",
        "FT%": ".615",
        "RPG": "4.4",
        "APG": ".4",
        "SPG": ".4",
        "BPG": ".3",
        "PPG": "5.4"
    },
    {
        "Player": "Sean Williams[1]",
        "GP": "3",
        "GS": "0",
        "MPG": "14.0",
        "FG%": ".333",
        "3FG%": "",
        "FT%": "1.000",
        "RPG": "4.0",
        "APG": "1.0",
        "SPG": "1.0",
        "BPG": "1.0",
        "PPG": "3.7"
    }
]