[
    {
        "NO-HEADER0": "NO-HEADER0",
        "Team": "Team",
        "Time": "Time",
        "NO-HEADER3": "",
        "NO-HEADER4": "",
        "NO-HEADER5": "",
        "NO-HEADER6": "",
        "NO-HEADER7": "",
        "NO-HEADER8": "",
        "NO-HEADER9": "",
        "NO-HEADER10": "",
        "NO-HEADER11": "",
        "NO-HEADER12": "",
        "NO-HEADER13": "",
        "NO-HEADER14": "",
        "NO-HEADER15": "",
        "NO-HEADER16": "",
        "NO-HEADER17": "",
        "NO-HEADER18": "",
        "NO-HEADER19": "",
        "NO-HEADER20": ""
    },
    {
        "NO-HEADER0": "1",
        "Team": "Tabriz Petrochemical Team",
        "Time": "90h 30' 59\"\n2\"",
        "NO-HEADER3": "Azad University Iran",
        "NO-HEADER4": "+ 11\"\n3\"",
        "NO-HEADER5": "ChipotleAC/EUR\"Garmin Development Team",
        "NO-HEADER6": "+ 37\"\n4\"",
        "NO-HEADER7": "Androni Giocattoli",
        "NO-HEADER8": "+ 06' 17\"\n5\"",
        "NO-HEADER9": "Max Success Sports",
        "NO-HEADER10": "+ 10' 17\"\n6\"",
        "NO-HEADER11": "South Korea",
        "NO-HEADER12": "+ 18' 14\"\n7\"",
        "NO-HEADER13": "Team Europcar",
        "NO-HEADER14": "+ 20' 44\"\n8\"",
        "NO-HEADER15": "Terengganu Cycling Team",
        "NO-HEADER16": "+ 21' 37\"\n9\"",
        "NO-HEADER17": "SkilAC/EUR\"Shimano",
        "NO-HEADER18": "+ 24' 48\"\n10\"",
        "NO-HEADER19": "Giant Kenda Cycling Team",
        "NO-HEADER20": "+ 25' 25\"\n\n"
    }
]