[
    {
        "Skip": "Mary-Anne Arsenault",
        "Third": "Colleen Jones",
        "Second": "Kim Kelly",
        "Lead": "Jennifer Baxter",
        "Locale": "Halifax, Nova Scotia"
    },
    {
        "Skip": "Chrissy Cadorin",
        "Third": "Janet Langevinl",
        "Second": "Sandy Becher",
        "Lead": "Cindy McKnight",
        "Locale": "Toronto, Ontario"
    },
    {
        "Skip": "Kelly Cochrane",
        "Third": "Brenna Cochrane",
        "Second": "Adele Campbell",
        "Lead": "Joanne Curtis",
        "Locale": "Toronto, Ontario"
    },
    {
        "Skip": "Ginger Coyle",
        "Third": "Lauren Wood",
        "Second": "Laura Brown",
        "Lead": "Robyn Murphy",
        "Locale": "Dundas, Ontario"
    },
    {
        "Skip": "Lisa Farnell",
        "Third": "Erin Morrissey",
        "Second": "Karen Sagle",
        "Lead": "Ainsley Galbraith",
        "Locale": "Elgin, Ontario"
    },
    {
        "Skip": "Jacqueline Harrison",
        "Third": "Kimberly Tuck",
        "Second": "Susan Froud",
        "Lead": "Heather Nicol",
        "Locale": "Waterdown, Ontario"
    },
    {
        "Skip": "Julie Hastings",
        "Third": "Christy Trombley",
        "Second": "Stacey Smith",
        "Lead": "Katrina Collins",
        "Locale": "Thornhill, Ontario"
    },
    {
        "Skip": "Courtney Hodgson",
        "Third": "Jenna Bonner",
        "Second": "Amanda Gebhardt",
        "Lead": "Amber Gebhardt",
        "Locale": "Guelph, Ontario"
    },
    {
        "Skip": "Susan McKnight",
        "Third": "Catherine Kaino",
        "Second": "Karen Rowsell",
        "Lead": "Jordan Ariss",
        "Locale": "Uxbridge, Ontario"
    },
    {
        "Skip": "Jill Mouzar",
        "Third": "Stephanie LeDrew",
        "Second": "Danielle Inglis",
        "Lead": "Hollie Nicol",
        "Locale": "Toronto, Ontario"
    },
    {
        "Skip": "Allison Nimik",
        "Third": "Katie Pringle",
        "Second": "Lynn Kreviazuk",
        "Lead": "Morgan Court",
        "Locale": "Toronto, Ontario"
    },
    {
        "Skip": "Brit O'Neill",
        "Third": "Mallory Buist",
        "Second": "Jenn Minchin",
        "Lead": "Jasmine Thurston",
        "Locale": "Hamilton, Ontario"
    },
    {
        "Skip": "Julie Reddick",
        "Third": "Carrie Lindner",
        "Second": "Megan Balsdon",
        "Lead": "Laura Hickey",
        "Locale": "Toronto, Ontario"
    },
    {
        "Skip": "Jamie Sinclair",
        "Third": "Holly Donaldson",
        "Second": "Erin Jenkins",
        "Lead": "Katelyn Wasylkiw",
        "Locale": "Manotick, Ontario"
    },
    {
        "Skip": "Jennifer Spencer",
        "Third": "Karyn Issler",
        "Second": "Jenn Ellard",
        "Lead": "Michelle Laidlaw",
        "Locale": "Brampton, Ontario"
    },
    {
        "Skip": "Stephanie Van Huyse",
        "Third": "Sheryl Tavoularis",
        "Second": "Laura Arbour",
        "Lead": "Jennifer Allan",
        "Locale": "Whitby, Ontario"
    }
]