[
    {
        "Tie no": "1",
        "Home team": "Drina HE (II)",
        "Score": "0AC/EUR\"1",
        "Away team": "Radnik (I)"
    },
    {
        "Tie no": "2",
        "Home team": "Proleter (III)",
        "Score": "2AC/EUR\"1",
        "Away team": "LjubiA\"++ (II)"
    },
    {
        "Tie no": "3",
        "Home team": "Vlasenica (III)",
        "Score": "0AC/EUR\"1",
        "Away team": "Rudar (P) (I)"
    },
    {
        "Tie no": "4",
        "Home team": "Velez (N) (IV)",
        "Score": "0AC/EUR\"3",
        "Away team": "Jedinstvo (Z) (III)"
    },
    {
        "Tie no": "5",
        "Home team": "Mladost (KV) (III)",
        "Score": "1AC/EUR\"3",
        "Away team": "Drina (Z) (II)"
    },
    {
        "Tie no": "8",
        "Home team": "Rudar (U) (II)",
        "Score": "2AC/EUR\"0",
        "Away team": "Kozara (II)"
    },
    {
        "Tie no": "7",
        "Home team": "Kozara (DO) (V)",
        "Score": "0AC/EUR\"2",
        "Away team": "Borac (BL) (I)"
    },
    {
        "Tie no": "8",
        "Home team": "Sutjeska (II)",
        "Score": "2AC/EUR\"2 (5AC/EUR\"4 pen.)",
        "Away team": "Sloboda (MG) (II)"
    }
]