[
    {
        "Player": "Player",
        "Award": "Award",
        "Awarded": "Awarded"
    },
    {
        "Player": "Chris Stewart [35]",
        "Award": "NHL First Star of the Week",
        "Awarded": "March 17, 2013"
    },
    {
        "Player": "Jake Allen and Chris Stewart [36]",
        "Award": "NHL Hot List",
        "Awarded": "March 17, 2013"
    },
    {
        "Player": "Brian Elliott [37]",
        "Award": "NHL Second Star of the Week",
        "Awarded": "April 7, 2013"
    },
    {
        "Player": "Brian Elliott [28]",
        "Award": "NHL Second Star for April",
        "Awarded": "April 29, 2013"
    }
]