[
    {
        "Pot 1 (Hosts & CONMEBOL)": "Tahiti (assigned to A1) Argentina Brazil Paraguay",
        "Pot 2 (CAF & CONCACAF)": "Cote d'Ivoire Senegal El Salvador United States",
        "Pot 3 (AFC & OFC)": "Iran Japan United Arab Emirates Solomon Islands*",
        "Pot 4 (UEFA)": "Netherlands Russia (assigned to D1) Spain Ukraine"
    }
]