[
    {
        "Pot 1": "Valencia BC Alba Berlin Bilbao Basket A\"OEEZ Nymburk",
        "Pot 2": "KK Cedevita Union Olimpija CAI Zaragoza FoxTown Cantu",
        "Pot 3": "Acea Roma Banco di Sardegna Sassari Cimberio Varese Le Mans",
        "Pot 4": "Spirou Charleroi ASVEL Telenet Oostende Belfius Mons-Hainaut",
        "Pot 5": "ratiopharm Ulm KK Cibona BCM Gravelines Af%0lan Chalon",
        "Pot 6": "Paris-Levallois Artland Dragons EWE Baskets Oldenburg Telekom Baskets Bonn"
    }
]