[
    {
        "Sheet E": "Italy (Apollonio)",
        "1": "3",
        "2": "1",
        "3": "1",
        "4": "3",
        "5": "0",
        "6": "3",
        "7": "X",
        "8": "X",
        "Final": "11"
    },
    {
        "Sheet E": "Turkey (KarataA...Y)",
        "1": "0",
        "2": "0",
        "3": "0",
        "4": "0",
        "5": "2",
        "6": "0",
        "7": "X",
        "8": "X",
        "Final": "2"
    }
]