[
    {
        "Name": "James Franklin",
        "Position": "Head Coach",
        "Year": "3rd"
    },
    {
        "Name": "John Donovan",
        "Position": "Offensive Coordinator \\/ Running Backs Coach",
        "Year": "3rd"
    },
    {
        "Name": "Bob Shoop",
        "Position": "Defensive Coordinator \\/ Safeties Coach",
        "Year": "3rd"
    },
    {
        "Name": "Charles Bankins",
        "Position": "Special Teams Coordinator \\/ Tight Ends Coach",
        "Year": "3rd"
    },
    {
        "Name": "Josh Gattis",
        "Position": "Wide Receivers Coach",
        "Year": "2nd"
    },
    {
        "Name": "Herb Hand",
        "Position": "Offensive Line Coach",
        "Year": "4th"
    },
    {
        "Name": "George Barlow",
        "Position": "Defensive Backs Coach",
        "Year": "2nd"
    },
    {
        "Name": "Brent Pry",
        "Position": "Co-Defensive Coordinator \\/ Linebackers Coach",
        "Year": "3rd"
    },
    {
        "Name": "Ricky Rahne",
        "Position": "Quarterbacks Coach",
        "Year": "3rd"
    },
    {
        "Name": "Sean Spencer",
        "Position": "Defensive Line Coach",
        "Year": "3rd"
    },
    {
        "Name": "Andy Frank",
        "Position": "Assistant Director of Football Operations",
        "Year": "5th"
    },
    {
        "Name": "Jemal Griffin",
        "Position": "Football Chief of Staff",
        "Year": "3rd"
    },
    {
        "Name": "Michael Hazel",
        "Position": "Director of Football Operations",
        "Year": "5th"
    },
    {
        "Name": "Matt Ruland",
        "Position": "Assistant Recruiting Coordinator",
        "Year": "2nd"
    },
    {
        "Name": "Joey Orck",
        "Position": "Offensive Graduate Assistant",
        "Year": "5th"
    },
    {
        "Name": "Tom Bossung",
        "Position": "Head Athletic Trainer",
        "Year": "15th"
    },
    {
        "Name": "Kevin Colon",
        "Position": "Associate Director of Student Athletics",
        "Year": "3rd"
    },
    {
        "Name": "Dwight Galt",
        "Position": "Football Strength and Conditioning Director",
        "Year": "3rd"
    },
    {
        "Name": "Chuck Losey",
        "Position": "Football Assistant Strength Coach",
        "Year": "3rd"
    },
    {
        "Name": "Kevin Threlkel",
        "Position": "Offensive Administrative Assistant",
        "Year": "3rd"
    },
    {
        "Name": "Luke Wyatt",
        "Position": "Head Equipment Manager",
        "Year": "31st"
    }
]