[
    {
        "Team \\ Round": "Fenerbahce",
        "1": "11",
        "2": "7",
        "3": "3",
        "4": "2",
        "5": "1",
        "6": "1",
        "7": "1",
        "8": "1",
        "9": "1",
        "10": "1",
        "11": "1",
        "12": "1",
        "13": "1",
        "14": "1",
        "15": "1",
        "16": "1",
        "17": "1",
        "18": "1",
        "19": "1",
        "20": "1",
        "21": "1",
        "22": "1",
        "23": "1",
        "24": "1",
        "25": "1",
        "26": "1",
        "27": "1",
        "28": "1",
        "29": "1",
        "30": "1",
        "31": "1",
        "32": "1",
        "33": "1",
        "34": "1"
    },
    {
        "Team \\ Round": "Galatasaray",
        "1": "6",
        "2": "3",
        "3": "7",
        "4": "7",
        "5": "4",
        "6": "5",
        "7": "8",
        "8": "6",
        "9": "5",
        "10": "4",
        "11": "6",
        "12": "5",
        "13": "4",
        "14": "4",
        "15": "4",
        "16": "3",
        "17": "2",
        "18": "2",
        "19": "2",
        "20": "2",
        "21": "3",
        "22": "2",
        "23": "2",
        "24": "2",
        "25": "2",
        "26": "3",
        "27": "2",
        "28": "2",
        "29": "3",
        "30": "3",
        "31": "2",
        "32": "2",
        "33": "2",
        "34": "2"
    },
    {
        "Team \\ Round": "BeA...YiktaA...Y",
        "1": "2",
        "2": "1",
        "3": "1",
        "4": "1",
        "5": "2",
        "6": "3",
        "7": "2",
        "8": "2",
        "9": "3",
        "10": "5",
        "11": "4",
        "12": "3",
        "13": "3",
        "14": "3",
        "15": "2",
        "16": "2",
        "17": "3",
        "18": "3",
        "19": "3",
        "20": "3",
        "21": "2",
        "22": "3",
        "23": "3",
        "24": "3",
        "25": "3",
        "26": "2",
        "27": "3",
        "28": "3",
        "29": "2",
        "30": "2",
        "31": "3",
        "32": "3",
        "33": "3",
        "34": "3"
    },
    {
        "Team \\ Round": "Trabzonspor",
        "1": "16",
        "2": "12",
        "3": "15",
        "4": "10",
        "5": "7",
        "6": "4",
        "7": "5",
        "8": "5",
        "9": "10",
        "10": "6",
        "11": "7",
        "12": "6",
        "13": "5",
        "14": "7",
        "15": "7",
        "16": "8",
        "17": "7",
        "18": "6",
        "19": "8",
        "20": "9",
        "21": "9",
        "22": "7",
        "23": "7",
        "24": "7",
        "25": "4",
        "26": "4",
        "27": "6",
        "28": "4",
        "29": "4",
        "30": "4",
        "31": "4",
        "32": "4",
        "33": "5",
        "34": "4"
    },
    {
        "Team \\ Round": "Sivasspor",
        "1": "13",
        "2": "5",
        "3": "12",
        "4": "9",
        "5": "11",
        "6": "8",
        "7": "7",
        "8": "9",
        "9": "6",
        "10": "3",
        "11": "3",
        "12": "4",
        "13": "6",
        "14": "6",
        "15": "5",
        "16": "6",
        "17": "4",
        "18": "4",
        "19": "4",
        "20": "4",
        "21": "4",
        "22": "4",
        "23": "4",
        "24": "4",
        "25": "6",
        "26": "6",
        "27": "4",
        "28": "7",
        "29": "5",
        "30": "5",
        "31": "5",
        "32": "5",
        "33": "4",
        "34": "5"
    },
    {
        "Team \\ Round": "KasA\"A+-mpaA...Ya",
        "1": "16",
        "2": "7",
        "3": "5",
        "4": "8",
        "5": "6",
        "6": "9",
        "7": "6",
        "8": "3",
        "9": "2",
        "10": "2",
        "11": "2",
        "12": "2",
        "13": "2",
        "14": "2",
        "15": "3",
        "16": "4",
        "17": "5",
        "18": "5",
        "19": "5",
        "20": "7",
        "21": "8",
        "22": "6",
        "23": "6",
        "24": "5",
        "25": "8",
        "26": "7",
        "27": "5",
        "28": "6",
        "29": "7",
        "30": "6",
        "31": "6",
        "32": "6",
        "33": "6",
        "34": "6"
    },
    {
        "Team \\ Round": "Karabukspor",
        "1": "2",
        "2": "2",
        "3": "2",
        "4": "5",
        "5": "8",
        "6": "10",
        "7": "12",
        "8": "13",
        "9": "13",
        "10": "13",
        "11": "13",
        "12": "8",
        "13": "10",
        "14": "8",
        "15": "8",
        "16": "7",
        "17": "8",
        "18": "9",
        "19": "7",
        "20": "5",
        "21": "5",
        "22": "5",
        "23": "8",
        "24": "8",
        "25": "9",
        "26": "8",
        "27": "7",
        "28": "5",
        "29": "6",
        "30": "7",
        "31": "7",
        "32": "7",
        "33": "7",
        "34": "7"
    },
    {
        "Team \\ Round": "Bursaspor",
        "1": "16",
        "2": "18",
        "3": "10",
        "4": "15",
        "5": "16",
        "6": "16",
        "7": "13",
        "8": "11",
        "9": "9",
        "10": "11",
        "11": "11",
        "12": "11",
        "13": "8",
        "14": "10",
        "15": "9",
        "16": "9",
        "17": "10",
        "18": "8",
        "19": "10",
        "20": "10",
        "21": "10",
        "22": "10",
        "23": "10",
        "24": "9",
        "25": "11",
        "26": "12",
        "27": "12",
        "28": "11",
        "29": "11",
        "30": "10",
        "31": "9",
        "32": "10",
        "33": "10",
        "34": "8"
    },
    {
        "Team \\ Round": "GenAfASSlerbirliA\"Yi",
        "1": "13",
        "2": "4",
        "3": "11",
        "4": "11",
        "5": "14",
        "6": "17",
        "7": "18",
        "8": "18",
        "9": "15",
        "10": "12",
        "11": "12",
        "12": "13",
        "13": "15",
        "14": "15",
        "15": "14",
        "16": "13",
        "17": "11",
        "18": "11",
        "19": "12",
        "20": "13",
        "21": "13",
        "22": "13",
        "23": "15",
        "24": "13",
        "25": "12",
        "26": "11",
        "27": "9",
        "28": "9",
        "29": "10",
        "30": "8",
        "31": "8",
        "32": "8",
        "33": "8",
        "34": "9"
    },
    {
        "Team \\ Round": "Akhisar Bld.",
        "1": "1",
        "2": "10",
        "3": "4",
        "4": "6",
        "5": "5",
        "6": "6",
        "7": "4",
        "8": "8",
        "9": "7",
        "10": "8",
        "11": "8",
        "12": "9",
        "13": "11",
        "14": "9",
        "15": "11",
        "16": "10",
        "17": "9",
        "18": "10",
        "19": "9",
        "20": "6",
        "21": "7",
        "22": "9",
        "23": "5",
        "24": "6",
        "25": "7",
        "26": "9",
        "27": "10",
        "28": "10",
        "29": "8",
        "30": "9",
        "31": "10",
        "32": "9",
        "33": "9",
        "34": "10"
    },
    {
        "Team \\ Round": "Konyaspor",
        "1": "5",
        "2": "11",
        "3": "12",
        "4": "17",
        "5": "12",
        "6": "14",
        "7": "11",
        "8": "12",
        "9": "12",
        "10": "14",
        "11": "14",
        "12": "14",
        "13": "12",
        "14": "13",
        "15": "13",
        "16": "14",
        "17": "13",
        "18": "14",
        "19": "13",
        "20": "11",
        "21": "11",
        "22": "11",
        "23": "12",
        "24": "12",
        "25": "13",
        "26": "13",
        "27": "13",
        "28": "13",
        "29": "13",
        "30": "14",
        "31": "12",
        "32": "12",
        "33": "11",
        "34": "11"
    },
    {
        "Team \\ Round": "EskiA...Yehirspor",
        "1": "2",
        "2": "5",
        "3": "8",
        "4": "12",
        "5": "9",
        "6": "7",
        "7": "9",
        "8": "7",
        "9": "4",
        "10": "7",
        "11": "5",
        "12": "7",
        "13": "7",
        "14": "5",
        "15": "6",
        "16": "5",
        "17": "6",
        "18": "7",
        "19": "6",
        "20": "8",
        "21": "6",
        "22": "8",
        "23": "9",
        "24": "10",
        "25": "5",
        "26": "5",
        "27": "8",
        "28": "8",
        "29": "9",
        "30": "11",
        "31": "11",
        "32": "11",
        "33": "12",
        "34": "12"
    },
    {
        "Team \\ Round": "Rizespor",
        "1": "7",
        "2": "9",
        "3": "6",
        "4": "3",
        "5": "3",
        "6": "2",
        "7": "3",
        "8": "4",
        "9": "8",
        "10": "9",
        "11": "9",
        "12": "10",
        "13": "13",
        "14": "14",
        "15": "15",
        "16": "15",
        "17": "15",
        "18": "15",
        "19": "15",
        "20": "16",
        "21": "16",
        "22": "16",
        "23": "16",
        "24": "16",
        "25": "16",
        "26": "15",
        "27": "14",
        "28": "14",
        "29": "14",
        "30": "12",
        "31": "13",
        "32": "13",
        "33": "13",
        "34": "13"
    },
    {
        "Team \\ Round": "Erciyesspor",
        "1": "9",
        "2": "17",
        "3": "17",
        "4": "13",
        "5": "13",
        "6": "13",
        "7": "16",
        "8": "16",
        "9": "17",
        "10": "18",
        "11": "15",
        "12": "15",
        "13": "16",
        "14": "16",
        "15": "16",
        "16": "17",
        "17": "18",
        "18": "17",
        "19": "18",
        "20": "17",
        "21": "17",
        "22": "17",
        "23": "17",
        "24": "17",
        "25": "17",
        "26": "17",
        "27": "17",
        "28": "15",
        "29": "16",
        "30": "16",
        "31": "15",
        "32": "14",
        "33": "14",
        "34": "14"
    },
    {
        "Team \\ Round": "Gaziantepspor",
        "1": "12",
        "2": "15",
        "3": "18",
        "4": "18",
        "5": "18",
        "6": "18",
        "7": "14",
        "8": "14",
        "9": "14",
        "10": "15",
        "11": "16",
        "12": "16",
        "13": "14",
        "14": "12",
        "15": "10",
        "16": "11",
        "17": "12",
        "18": "12",
        "19": "11",
        "20": "12",
        "21": "12",
        "22": "12",
        "23": "11",
        "24": "11",
        "25": "10",
        "26": "10",
        "27": "11",
        "28": "12",
        "29": "12",
        "30": "13",
        "31": "14",
        "32": "15",
        "33": "15",
        "34": "15"
    },
    {
        "Team \\ Round": "ElazA\"A+-A\"Yspor",
        "1": "15",
        "2": "16",
        "3": "9",
        "4": "4",
        "5": "10",
        "6": "11",
        "7": "15",
        "8": "15",
        "9": "16",
        "10": "16",
        "11": "17",
        "12": "18",
        "13": "18",
        "14": "18",
        "15": "18",
        "16": "18",
        "17": "16",
        "18": "16",
        "19": "16",
        "20": "15",
        "21": "15",
        "22": "15",
        "23": "13",
        "24": "14",
        "25": "14",
        "26": "16",
        "27": "15",
        "28": "17",
        "29": "15",
        "30": "15",
        "31": "16",
        "32": "16",
        "33": "16",
        "34": "16"
    },
    {
        "Team \\ Round": "Antalyaspor",
        "1": "9",
        "2": "14",
        "3": "16",
        "4": "16",
        "5": "17",
        "6": "12",
        "7": "10",
        "8": "10",
        "9": "11",
        "10": "10",
        "11": "10",
        "12": "12",
        "13": "9",
        "14": "11",
        "15": "12",
        "16": "12",
        "17": "14",
        "18": "13",
        "19": "14",
        "20": "14",
        "21": "14",
        "22": "14",
        "23": "14",
        "24": "15",
        "25": "15",
        "26": "14",
        "27": "16",
        "28": "16",
        "29": "17",
        "30": "17",
        "31": "17",
        "32": "18",
        "33": "17",
        "34": "17"
    },
    {
        "Team \\ Round": "Kayserispor",
        "1": "7",
        "2": "12",
        "3": "14",
        "4": "14",
        "5": "15",
        "6": "15",
        "7": "17",
        "8": "17",
        "9": "18",
        "10": "17",
        "11": "18",
        "12": "17",
        "13": "17",
        "14": "17",
        "15": "17",
        "16": "16",
        "17": "17",
        "18": "18",
        "19": "17",
        "20": "18",
        "21": "18",
        "22": "18",
        "23": "18",
        "24": "18",
        "25": "18",
        "26": "18",
        "27": "18",
        "28": "18",
        "29": "18",
        "30": "18",
        "31": "18",
        "32": "17",
        "33": "18",
        "34": "18"
    }
]