[
    {
        "Date": "August 31",
        "Time": "12:00 PM",
        "Opponent": "at Charlotte*",
        "Site": "Jerry Richardson Stadium AC/EURAC/ Charlotte, NC",
        "TV": "WCCB",
        "Result": "L 7AC/EUR\"52",
        "Attendance": "16,630"
    },
    {
        "Date": "September 7",
        "Time": "6:00 PM",
        "Opponent": "Virginia-Wise*",
        "Site": "BarkerAC/EUR\"Lane Stadium AC/EURAC/ Buies Creek, NC",
        "TV": "",
        "Result": "W 56AC/EUR\"21",
        "Attendance": "5,538"
    },
    {
        "Date": "September 14",
        "Time": "6:00 PM",
        "Opponent": "Charleston Southern*",
        "Site": "BarkerAC/EUR\"Lane Stadium AC/EURAC/ Buies Creek, NC",
        "TV": "",
        "Result": "L 10AC/EUR\"30",
        "Attendance": "6,044"
    },
    {
        "Date": "September 28",
        "Time": "2:00 PM",
        "Opponent": "at Valparaiso",
        "Site": "Brown Field AC/EURAC/ Valparaiso, IN",
        "TV": "",
        "Result": "L 42AC/EUR\"49 OT",
        "Attendance": "3,357"
    },
    {
        "Date": "October 5",
        "Time": "1:00 PM",
        "Opponent": "Morehead State",
        "Site": "BarkerAC/EUR\"Lane Stadium AC/EURAC/ Buies Creek, NC",
        "TV": "",
        "Result": "L 36AC/EUR\"45",
        "Attendance": "4,270"
    },
    {
        "Date": "October 12",
        "Time": "1:00 PM",
        "Opponent": "at Butler",
        "Site": "Butler Bowl AC/EURAC/ Indianapolis, IN",
        "TV": "",
        "Result": "L 14AC/EUR\"35",
        "Attendance": "3,400"
    },
    {
        "Date": "October 19",
        "Time": "1:00 PM",
        "Opponent": "Jacksonville",
        "Site": "BarkerAC/EUR\"Lane Stadium AC/EURAC/ Buies Creek, NC",
        "TV": "",
        "Result": "L 45AC/EUR\"52",
        "Attendance": "2,750"
    },
    {
        "Date": "October 26",
        "Time": "4:00 PM",
        "Opponent": "Mercer",
        "Site": "BarkerAC/EUR\"Lane Stadium AC/EURAC/ Buies Creek, NC",
        "TV": "",
        "Result": "L 31AC/EUR\"38",
        "Attendance": "4,772"
    },
    {
        "Date": "November 2",
        "Time": "1:00 PM",
        "Opponent": "at Stetson",
        "Site": "Spec Martin Stadium AC/EURAC/ DeLand, FL",
        "TV": "",
        "Result": "W 19AC/EUR\"18",
        "Attendance": "3,008"
    },
    {
        "Date": "November 9",
        "Time": "1:00 PM",
        "Opponent": "Marist",
        "Site": "BarkerAC/EUR\"Lane Stadium AC/EURAC/ Buies Creek, NC",
        "TV": "",
        "Result": "L 28AC/EUR\"55",
        "Attendance": "2,820"
    },
    {
        "Date": "November 16",
        "Time": "1:00 PM",
        "Opponent": "at Old Dominion*",
        "Site": "Foreman Field AC/EURAC/ Norfolk, VA",
        "TV": "",
        "Result": "L 14AC/EUR\"42",
        "Attendance": "20,118"
    },
    {
        "Date": "November 23",
        "Time": "1:00 PM",
        "Opponent": "at Davidson",
        "Site": "Richardson Stadium AC/EURAC/ Davidson, NC",
        "TV": "",
        "Result": "W 47AC/EUR\"14",
        "Attendance": "3,309"
    },
    {
        "Date": "*Non-conference game. Homecoming. #Rankings from The Sports Network FCS Poll released prior to game. All times are in Eastern Time.",
        "Time": "",
        "Opponent": "",
        "Site": "",
        "TV": "",
        "Result": "",
        "Attendance": ""
    }
]