[
    {
        "Sheet 5": "Dacey\\/Smith-Dacey",
        "1": "0",
        "2": "0",
        "3": "0",
        "4": "2",
        "5": "1",
        "6": "0",
        "7": "X",
        "8": "X",
        "Final": "3"
    },
    {
        "Sheet 5": "McDonald\\/Rivington",
        "1": "3",
        "2": "4",
        "3": "1",
        "4": "0",
        "5": "0",
        "6": "0",
        "7": "X",
        "8": "X",
        "Final": "8"
    }
]