[
    {
        "Club": "Acqui",
        "City": "Acqui Terme",
        "Stadium": "Jona Ottolenghi",
        "Capacity": "1,500",
        "2013AC/EUR\"14 season": "1st in Eccellenza Piedmont Girone B"
    },
    {
        "Club": "Argentina",
        "City": "Arma di Taggia",
        "Stadium": "Ezio Scalvi",
        "Capacity": "",
        "2013AC/EUR\"14 season": "1st in Eccellenza Liguria"
    },
    {
        "Club": "Asti",
        "City": "Asti",
        "Stadium": "Censin Bosia",
        "Capacity": "6,000",
        "2013AC/EUR\"14 season": "9th in Serie D Girone A"
    },
    {
        "Club": "Borgomanero",
        "City": "Borgomanero",
        "Stadium": "Comunale",
        "Capacity": "1,000",
        "2013AC/EUR\"14 season": "14th in Serie D Girone B"
    },
    {
        "Club": "Borgosesia",
        "City": "Borgosesia",
        "Stadium": "Comunale",
        "Capacity": "2,500",
        "2013AC/EUR\"14 season": "3rd in Serie D Girone A"
    },
    {
        "Club": "Bra",
        "City": "Bra",
        "Stadium": "Attilio Bravi",
        "Capacity": "1,000",
        "2013AC/EUR\"14 season": "18th in Lega Pro Seconda Divisione A"
    },
    {
        "Club": "Caronnese",
        "City": "Caronno Pertusella",
        "Stadium": "Comunale",
        "Capacity": "1,000",
        "2013AC/EUR\"14 season": "4th in Serie D Girone A"
    },
    {
        "Club": "Chieri",
        "City": "Chieri",
        "Stadium": "Piero De Paoli",
        "Capacity": "4,000",
        "2013AC/EUR\"14 season": "6th in Serie D Girone A"
    },
    {
        "Club": "Cuneo",
        "City": "Cuneo",
        "Stadium": "Fratelli Paschiero",
        "Capacity": "4,000",
        "2013AC/EUR\"14 season": "11th in Lega Pro Seconda Divisione A"
    },
    {
        "Club": "Derthona",
        "City": "Tortona",
        "Stadium": "Fausto Coppi",
        "Capacity": "2,700",
        "2013AC/EUR\"14 season": "13th in Serie D Girone A"
    },
    {
        "Club": "Lavagnese",
        "City": "Lavagna",
        "Stadium": "Edoardo Riboli",
        "Capacity": "800",
        "2013AC/EUR\"14 season": "5th in Serie D Girone A"
    },
    {
        "Club": "Novese",
        "City": "Novi Ligure",
        "Stadium": "Costante Girardengo",
        "Capacity": "3,500",
        "2013AC/EUR\"14 season": "10th in Serie D Girone A"
    },
    {
        "Club": "OltrepoVoghera",
        "City": "Stradella & Voghera",
        "Stadium": "Giovanni Parisi",
        "Capacity": "4,000",
        "2013AC/EUR\"14 season": "1st in Eccellenza Lombardy Girone A"
    },
    {
        "Club": "Pro Settimo & Eureka",
        "City": "Settimo Torinese",
        "Stadium": "Renzo Valla",
        "Capacity": "",
        "2013AC/EUR\"14 season": "1st in Eccellenza Piedmont Girone A"
    },
    {
        "Club": "RapalloBogliasco",
        "City": "Bogliasco (playing in Santa Margherita Ligure)",
        "Stadium": "Eugenio Broccardi",
        "Capacity": "2,000",
        "2013AC/EUR\"14 season": "2nd in Serie D Girone A"
    },
    {
        "Club": "Sancolombano",
        "City": "San Colombano al Lambro",
        "Stadium": "Franco Riccardi",
        "Capacity": "2,000",
        "2013AC/EUR\"14 season": "5th in Serie D Girone D"
    },
    {
        "Club": "Sestri Levante",
        "City": "Sestri Levante",
        "Stadium": "Giuseppe Sivori",
        "Capacity": "1,500",
        "2013AC/EUR\"14 season": "15th in Serie D Girone A"
    },
    {
        "Club": "Sporting Bellinzago",
        "City": "Bellinzago Novarese",
        "Stadium": "Comunale",
        "Capacity": "",
        "2013AC/EUR\"14 season": "2nd in Eccellenza Piedmont Girone A"
    },
    {
        "Club": "Vado",
        "City": "Vado Ligure",
        "Stadium": "Ferruccio Chittolina",
        "Capacity": "2,000",
        "2013AC/EUR\"14 season": "7th in Serie D Girone A"
    },
    {
        "Club": "VallAfA(c)e dAC/EUR(tm)Aoste",
        "City": "Saint-Christophe",
        "Stadium": "Comunale",
        "Capacity": "",
        "2013AC/EUR\"14 season": "11th in Serie D Girone A"
    }
]