[
    {
        "Home AC/*A2 Away": "Ballinamallard United",
        "BMD": "",
        "BYM": "",
        "COL": "",
        "DUN": "1AC/EUR\"0",
        "INS": "2AC/EUR\"0",
        "WPT": "3AC/EUR\"3"
    },
    {
        "Home AC/*A2 Away": "Ballymena United",
        "BMD": "2AC/EUR\"1",
        "BYM": "",
        "COL": "",
        "DUN": "1AC/EUR\"0",
        "INS": "",
        "WPT": "2AC/EUR\"1"
    },
    {
        "Home AC/*A2 Away": "Coleraine",
        "BMD": "1AC/EUR\"2",
        "BYM": "0AC/EUR\"1",
        "COL": "",
        "DUN": "",
        "INS": "3AC/EUR\"1",
        "WPT": "2AC/EUR\"1"
    },
    {
        "Home AC/*A2 Away": "Dungannon Swifts",
        "BMD": "",
        "BYM": "",
        "COL": "1AC/EUR\"0",
        "DUN": "",
        "INS": "1AC/EUR\"1",
        "WPT": "1AC/EUR\"1"
    },
    {
        "Home AC/*A2 Away": "Institute",
        "BMD": "",
        "BYM": "1AC/EUR\"2",
        "COL": "",
        "DUN": "",
        "INS": "",
        "WPT": ""
    },
    {
        "Home AC/*A2 Away": "Warrenpoint Town",
        "BMD": "",
        "BYM": "",
        "COL": "",
        "DUN": "",
        "INS": "5AC/EUR\"1",
        "WPT": ""
    }
]