[
    {
        "Team v t e": "Switzerland",
        "Pld": "10",
        "W": "7",
        "D": "3",
        "L": "0",
        "GF": "17",
        "GA": "6",
        "GD": "+11",
        "Pts": "24"
    },
    {
        "Team v t e": "Iceland",
        "Pld": "10",
        "W": "5",
        "D": "2",
        "L": "3",
        "GF": "17",
        "GA": "15",
        "GD": "+2",
        "Pts": "17"
    },
    {
        "Team v t e": "Slovenia",
        "Pld": "10",
        "W": "5",
        "D": "0",
        "L": "5",
        "GF": "14",
        "GA": "11",
        "GD": "+3",
        "Pts": "15"
    },
    {
        "Team v t e": "Norway",
        "Pld": "10",
        "W": "3",
        "D": "3",
        "L": "4",
        "GF": "10",
        "GA": "13",
        "GD": "AC/^'3",
        "Pts": "12"
    },
    {
        "Team v t e": "Albania",
        "Pld": "10",
        "W": "3",
        "D": "2",
        "L": "5",
        "GF": "9",
        "GA": "11",
        "GD": "AC/^'2",
        "Pts": "11"
    },
    {
        "Team v t e": "Cyprus",
        "Pld": "10",
        "W": "1",
        "D": "2",
        "L": "7",
        "GF": "4",
        "GA": "15",
        "GD": "AC/^'11",
        "Pts": "5"
    }
]