[
    {
        "Team": "Champions Route",
        "Coeff": ""
    },
    {
        "Team": "Red Bull Salzburg",
        "Coeff": "46.185"
    },
    {
        "Team": "APOEL",
        "Coeff": "37.650"
    },
    {
        "Team": "AaB",
        "Coeff": "5.260"
    },
    {
        "Team": "League Route",
        "Coeff": ""
    },
    {
        "Team": "Zenit Saint Petersburg",
        "Coeff": "73.899"
    },
    {
        "Team": "Lille",
        "Coeff": "45.300"
    },
    {
        "Team": "Copenhagen",
        "Coeff": "45.260"
    },
    {
        "Team": "Standard Liege",
        "Coeff": "38.260"
    },
    {
        "Team": "BeA...YiktaA...Y",
        "Coeff": "32.840"
    },
    {
        "Team": "Dnipro Dnipropetrovsk",
        "Coeff": "32.193"
    },
    {
        "Team": "Panathinaikos",
        "Coeff": "30.220"
    },
    {
        "Team": "Feyenoord",
        "Coeff": "13.362"
    },
    {
        "Team": "Grasshoppers",
        "Coeff": "9.645"
    },
    {
        "Team": "AEL Limassol",
        "Coeff": "7.650"
    }
]