[
    {
        "Event": "Event",
        "Gold": "Gold",
        "Silver": "Silver",
        "Bronze": "Bronze",
        "NO-HEADER4": "",
        "NO-HEADER5": "",
        "NO-HEADER6": ""
    },
    {
        "Event": "3 metre springboard",
        "Gold": "Shi Tingmao (CHN)",
        "Silver": "383.40",
        "Bronze": "He Zi (CHN)",
        "NO-HEADER4": "369.65",
        "NO-HEADER5": "Jennifer Abel (CAN)",
        "NO-HEADER6": "364.05"
    },
    {
        "Event": "10 metre platform",
        "Gold": "Huang Xiaohui (CHN)",
        "Silver": "373.60",
        "Bronze": "Liu Huixia (CHN)",
        "NO-HEADER4": "354.35",
        "NO-HEADER5": "Melissa Wu (AUS)",
        "NO-HEADER6": "349.50"
    },
    {
        "Event": "Synchronized 3 metre springboard",
        "Gold": "Wu Minxia (CHN) Shi Tingmao (CHN)",
        "Silver": "340.50",
        "Bronze": "Jennifer Abel (CAN) Pamela Ware (CAN)",
        "NO-HEADER4": "318.33",
        "NO-HEADER5": "Maddison Keeney (AUS) Annabelle Smith (AUS)",
        "NO-HEADER6": "310.14"
    },
    {
        "Event": "Synchronized 10 metre platform",
        "Gold": "Chen Ruolin (CHN) Liu Huixia (CHN)",
        "Silver": "357.66",
        "Bronze": "Leong Mun Yee (MAS) Cheong Jun Hoong (MAS)",
        "NO-HEADER4": "336.66",
        "NO-HEADER5": "Meaghan Benfeito (CAN) Roseline Filion (CAN)",
        "NO-HEADER6": "335.25"
    }
]