[
    {
        "Player": "Daniel Zaar",
        "Team": "Rogle BK",
        "GP": "10",
        "G": "2",
        "A": "12",
        "Pts": "14",
        "+\\/AC/EUR\"": "+7",
        "PIM": "16"
    },
    {
        "Player": "Marcus Sorensen",
        "Team": "Djurgardens IF",
        "GP": "10",
        "G": "4",
        "A": "8",
        "Pts": "12",
        "+\\/AC/EUR\"": "0",
        "PIM": "4"
    },
    {
        "Player": "Marcus Hogstrom",
        "Team": "Djurgardens IF",
        "GP": "10",
        "G": "2",
        "A": "9",
        "Pts": "11",
        "+\\/AC/EUR\"": "+5",
        "PIM": "4"
    },
    {
        "Player": "Jens Jakobs",
        "Team": "Djurgardens IF",
        "GP": "10",
        "G": "7",
        "A": "3",
        "Pts": "10",
        "+\\/AC/EUR\"": "+4",
        "PIM": "0"
    },
    {
        "Player": "Jared Aulin",
        "Team": "Af-rebro HK",
        "GP": "7",
        "G": "2",
        "A": "7",
        "Pts": "9",
        "+\\/AC/EUR\"": "+7",
        "PIM": "2"
    },
    {
        "Player": "Daniel Sondell",
        "Team": "Af-rebro HK",
        "GP": "8",
        "G": "1",
        "A": "8",
        "Pts": "9",
        "+\\/AC/EUR\"": "+9",
        "PIM": "4"
    },
    {
        "Player": "Joakim Eriksson",
        "Team": "Djurgardens IF",
        "GP": "10",
        "G": "1",
        "A": "8",
        "Pts": "9",
        "+\\/AC/EUR\"": "0",
        "PIM": "14"
    },
    {
        "Player": "Michael Holmqvist",
        "Team": "Djurgardens IF",
        "GP": "10",
        "G": "6",
        "A": "2",
        "Pts": "8",
        "+\\/AC/EUR\"": "+2",
        "PIM": "4"
    },
    {
        "Player": "Kelsey Tessier",
        "Team": "Rogle BK",
        "GP": "10",
        "G": "6",
        "A": "1",
        "Pts": "7",
        "+\\/AC/EUR\"": "+3",
        "PIM": "8"
    },
    {
        "Player": "Jere Sallinen",
        "Team": "Af-rebro HK",
        "GP": "10",
        "G": "4",
        "A": "3",
        "Pts": "7",
        "+\\/AC/EUR\"": "+5",
        "PIM": "8"
    },
    {
        "Player": "Frederik Storm",
        "Team": "Malmo Redhawks",
        "GP": "10",
        "G": "4",
        "A": "3",
        "Pts": "7",
        "+\\/AC/EUR\"": "+2",
        "PIM": "0"
    }
]