[
    {
        "Pos": "1",
        "Grp": "H",
        "Team": "Lukoil Academic",
        "Pld": "6",
        "W": "4",
        "L": "2",
        "PF": "458",
        "PA": "465",
        "PD": "AC/^'7",
        "Pts": "10",
        "Qualification": "Advanced to Round of 32"
    },
    {
        "Pos": "2",
        "Grp": "L",
        "Team": "Juventus",
        "Pld": "6",
        "W": "3",
        "L": "3",
        "PF": "484",
        "PA": "437",
        "PD": "+47",
        "Pts": "9",
        "Qualification": "Advanced to Round of 32"
    },
    {
        "Pos": "3",
        "Grp": "M",
        "Team": "A iauliai",
        "Pld": "6",
        "W": "3",
        "L": "3",
        "PF": "508",
        "PA": "489",
        "PD": "+19",
        "Pts": "9",
        "Qualification": ""
    },
    {
        "Pos": "4",
        "Grp": "N",
        "Team": "Rilski Sportist",
        "Pld": "6",
        "W": "2",
        "L": "4",
        "PF": "502",
        "PA": "537",
        "PD": "AC/^'35",
        "Pts": "8",
        "Qualification": ""
    },
    {
        "Pos": "5",
        "Grp": "I",
        "Team": "PGE Turow",
        "Pld": "6",
        "W": "2",
        "L": "4",
        "PF": "454",
        "PA": "489",
        "PD": "AC/^'35",
        "Pts": "8",
        "Qualification": ""
    },
    {
        "Pos": "6",
        "Grp": "K",
        "Team": "Astana",
        "Pld": "6",
        "W": "2",
        "L": "4",
        "PF": "458",
        "PA": "498",
        "PD": "AC/^'40",
        "Pts": "8",
        "Qualification": ""
    },
    {
        "Pos": "7",
        "Grp": "J",
        "Team": "Kumanovo 2009",
        "Pld": "6",
        "W": "1",
        "L": "5",
        "PF": "464",
        "PA": "516",
        "PD": "AC/^'52",
        "Pts": "7",
        "Qualification": ""
    }
]