[
    {
        "Team": "BAfA!nh PhA+AdegA!A>>>c",
        "Location": "AA!A>>ng XoA i",
        "Stadium": "BAfA!nh PhA+AdegA!A>>>c Stadium",
        "Capacity": "10,000"
    },
    {
        "Team": "Cong An Nhan Dan",
        "Location": "HAf NA!A>>(tm)i",
        "Stadium": "HA ng AA!AoA<<y Stadium",
        "Capacity": "22,500"
    },
    {
        "Team": "HAf NA!A>>(tm)i",
        "Location": "HAf NA!A>>(tm)i",
        "Stadium": "HA ng AA!AoA<<y Stadium",
        "Capacity": "22,500"
    },
    {
        "Team": "Hue F.C.",
        "Location": "Hue",
        "Stadium": "Tu Do Stadium",
        "Capacity": "25,000"
    },
    {
        "Team": "Nam AA!A>>nh",
        "Location": "Nam AA!A>>nh",
        "Stadium": "ThiAAan TrAAdegA!A>>ng Stadium",
        "Capacity": "20,000"
    },
    {
        "Team": "Phu Yen",
        "Location": "Tuy Hoa",
        "Stadium": "Phu Yen Stadium",
        "Capacity": "5,000"
    },
    {
        "Team": "TP Ha>>\" ChA Minh",
        "Location": "Ha>>\" ChA Minh City",
        "Stadium": "Tha>>'ng NhaoY=t Stadium",
        "Capacity": "25,000"
    },
    {
        "Team": "AA!AoA-k LA!AoA-k",
        "Location": "BuAfA'n Ma ThuA!A>>(tm)t",
        "Stadium": "AA!AoA-k LA!AoA-k Stadium",
        "Capacity": "10,000"
    }
]