[
    {
        "Pos.": "1",
        "Driver": "Sebastien Ogier",
        "MON": "1",
        "SWE": "11",
        "MEX": "11",
        "ARG": "171",
        "POR": "21",
        "ITA": "11",
        "POL": "11",
        "FIN": "21",
        "DEU": "1",
        "AUS": "11",
        "FRA": "151",
        "ESP": "Ret",
        "GBR": "1",
        "Points": "263"
    },
    {
        "Pos.": "2",
        "Driver": "Jari-Matti Latvala",
        "MON": "23",
        "SWE": "Ret",
        "MEX": "15",
        "ARG": "Ret",
        "POR": "12",
        "ITA": "62",
        "POL": "5",
        "FIN": "12",
        "DEU": "21",
        "AUS": "22",
        "FRA": "13",
        "ESP": "22",
        "GBR": "501",
        "Points": "183"
    },
    {
        "Pos.": "3",
        "Driver": "Andreas Mikkelsen",
        "MON": "3",
        "SWE": "3",
        "MEX": "32",
        "ARG": "Ret",
        "POR": "33",
        "ITA": "363",
        "POL": "23",
        "FIN": "Ret",
        "DEU": "3",
        "AUS": "43",
        "FRA": "3",
        "ESP": "11",
        "GBR": "32",
        "Points": "171"
    },
    {
        "Pos.": "4",
        "Driver": "Mads Af~stberg",
        "MON": "4",
        "SWE": "103",
        "MEX": "2",
        "ARG": "23",
        "POR": "7",
        "ITA": "5",
        "POL": "9",
        "FIN": "3",
        "DEU": "7",
        "AUS": "WD",
        "FRA": "6",
        "ESP": "4",
        "GBR": "7",
        "Points": "116"
    },
    {
        "Pos.": "5",
        "Driver": "Kris Meeke",
        "MON": "101",
        "SWE": "7",
        "MEX": "16",
        "ARG": "1",
        "POR": "4",
        "ITA": "24",
        "POL": "7",
        "FIN": "173",
        "DEU": "122",
        "AUS": "3",
        "FRA": "4",
        "ESP": "53",
        "GBR": "2",
        "Points": "112"
    },
    {
        "Pos.": "6",
        "Driver": "Thierry Neuville",
        "MON": "5",
        "SWE": "22",
        "MEX": "83",
        "ARG": "Ret",
        "POR": "38",
        "ITA": "3",
        "POL": "6",
        "FIN": "4",
        "DEU": "5",
        "AUS": "7",
        "FRA": "23",
        "ESP": "8",
        "GBR": "Ret",
        "Points": "90"
    },
    {
        "Pos.": "7",
        "Driver": "Elfyn Evans",
        "MON": "7",
        "SWE": "6",
        "MEX": "4",
        "ARG": "3",
        "POR": "69",
        "ITA": "4",
        "POL": "50",
        "FIN": "12",
        "DEU": "6",
        "AUS": "9",
        "FRA": "2",
        "ESP": "34",
        "GBR": "6",
        "Points": "89"
    },
    {
        "Pos.": "8",
        "Driver": "Dani Sordo",
        "MON": "6",
        "SWE": "WD",
        "MEX": "5",
        "ARG": "52",
        "POR": "6",
        "ITA": "20",
        "POL": "10",
        "FIN": "11",
        "DEU": "43",
        "AUS": "8",
        "FRA": "7",
        "ESP": "3",
        "GBR": "4",
        "Points": "89"
    },
    {
        "Pos.": "9",
        "Driver": "Hayden Paddon",
        "MON": "",
        "SWE": "5",
        "MEX": "17",
        "ARG": "16",
        "POR": "8",
        "ITA": "2",
        "POL": "4",
        "FIN": "Ret",
        "DEU": "9",
        "AUS": "5",
        "FRA": "5",
        "ESP": "6",
        "GBR": "5",
        "Points": "84"
    },
    {
        "Pos.": "10",
        "Driver": "Ott Tanak",
        "MON": "18",
        "SWE": "4",
        "MEX": "22",
        "ARG": "10",
        "POR": "5",
        "ITA": "14",
        "POL": "32",
        "FIN": "5",
        "DEU": "8",
        "AUS": "6",
        "FRA": "10",
        "ESP": "41",
        "GBR": "Ret",
        "Points": "63"
    },
    {
        "Pos.": "11",
        "Driver": "Martin Prokop",
        "MON": "9",
        "SWE": "8",
        "MEX": "6",
        "ARG": "4",
        "POR": "10",
        "ITA": "Ret",
        "POL": "11",
        "FIN": "7",
        "DEU": "Ret",
        "AUS": "",
        "FRA": "12",
        "ESP": "7",
        "GBR": "21",
        "Points": "39"
    },
    {
        "Pos.": "12",
        "Driver": "Robert Kubica",
        "MON": "Ret",
        "SWE": "20",
        "MEX": "18",
        "ARG": "",
        "POR": "9",
        "ITA": "30",
        "POL": "8",
        "FIN": "Ret",
        "DEU": "35",
        "AUS": "",
        "FRA": "222",
        "ESP": "11",
        "GBR": "93",
        "Points": "11"
    },
    {
        "Pos.": "13",
        "Driver": "Khalid Al Qassimi",
        "MON": "",
        "SWE": "",
        "MEX": "",
        "ARG": "6",
        "POR": "24",
        "ITA": "10",
        "POL": "",
        "FIN": "16",
        "DEU": "",
        "AUS": "",
        "FRA": "",
        "ESP": "15",
        "GBR": "",
        "Points": "9"
    },
    {
        "Pos.": "14",
        "Driver": "Juho Hanninen",
        "MON": "",
        "SWE": "",
        "MEX": "",
        "ARG": "",
        "POR": "",
        "ITA": "",
        "POL": "",
        "FIN": "6",
        "DEU": "",
        "AUS": "",
        "FRA": "",
        "ESP": "",
        "GBR": "",
        "Points": "8"
    },
    {
        "Pos.": "15",
        "Driver": "Yuriy Protasov",
        "MON": "16",
        "SWE": "9",
        "MEX": "13",
        "ARG": "13",
        "POR": "",
        "ITA": "7",
        "POL": "",
        "FIN": "13",
        "DEU": "15",
        "AUS": "11",
        "FRA": "20",
        "ESP": "14",
        "GBR": "37",
        "Points": "8"
    },
    {
        "Pos.": "16",
        "Driver": "Nasser Al-Attiyah",
        "MON": "",
        "SWE": "",
        "MEX": "7",
        "ARG": "",
        "POR": "11",
        "ITA": "12",
        "POL": "Ret",
        "FIN": "",
        "DEU": "17",
        "AUS": "10",
        "FRA": "",
        "ESP": "12",
        "GBR": "",
        "Points": "7"
    },
    {
        "Pos.": "17",
        "Driver": "Abdulaziz Al-Kuwari",
        "MON": "",
        "SWE": "",
        "MEX": "11",
        "ARG": "7",
        "POR": "16",
        "ITA": "11",
        "POL": "",
        "FIN": "",
        "DEU": "",
        "AUS": "12",
        "FRA": "",
        "ESP": "23",
        "GBR": "16",
        "Points": "6"
    },
    {
        "Pos.": "18",
        "Driver": "Sebastien Loeb",
        "MON": "82",
        "SWE": "",
        "MEX": "",
        "ARG": "",
        "POR": "",
        "ITA": "",
        "POL": "",
        "FIN": "",
        "DEU": "",
        "AUS": "",
        "FRA": "",
        "ESP": "",
        "GBR": "",
        "Points": "6"
    },
    {
        "Pos.": "19",
        "Driver": "Stephane Lefebvre",
        "MON": "12",
        "SWE": "Ret",
        "MEX": "Ret",
        "ARG": "Ret",
        "POR": "15",
        "ITA": "26",
        "POL": "Ret",
        "FIN": "EX",
        "DEU": "10",
        "AUS": "13",
        "FRA": "11",
        "ESP": "50",
        "GBR": "8",
        "Points": "5"
    },
    {
        "Pos.": "20",
        "Driver": "Esapekka Lappi",
        "MON": "",
        "SWE": "",
        "MEX": "",
        "ARG": "",
        "POR": "12",
        "ITA": "17",
        "POL": "12",
        "FIN": "8",
        "DEU": "42",
        "AUS": "",
        "FRA": "14",
        "ESP": "Ret",
        "GBR": "",
        "Points": "4"
    },
    {
        "Pos.": "21",
        "Driver": "Diego Dominguez",
        "MON": "",
        "SWE": "",
        "MEX": "",
        "ARG": "8",
        "POR": "",
        "ITA": "",
        "POL": "",
        "FIN": "",
        "DEU": "",
        "AUS": "",
        "FRA": "",
        "ESP": "",
        "GBR": "",
        "Points": "4"
    },
    {
        "Pos.": "22",
        "Driver": "Paolo Andreucci",
        "MON": "",
        "SWE": "",
        "MEX": "",
        "ARG": "",
        "POR": "",
        "ITA": "8",
        "POL": "",
        "FIN": "",
        "DEU": "",
        "AUS": "",
        "FRA": "",
        "ESP": "",
        "GBR": "",
        "Points": "4"
    },
    {
        "Pos.": "23",
        "Driver": "Bryan Bouffier",
        "MON": "Ret",
        "SWE": "",
        "MEX": "",
        "ARG": "",
        "POR": "",
        "ITA": "",
        "POL": "",
        "FIN": "",
        "DEU": "Ret",
        "AUS": "",
        "FRA": "8",
        "ESP": "",
        "GBR": "",
        "Points": "4"
    },
    {
        "Pos.": "24",
        "Driver": "Pontus Tidemand",
        "MON": "",
        "SWE": "17",
        "MEX": "",
        "ARG": "",
        "POR": "13",
        "ITA": "",
        "POL": "13",
        "FIN": "9",
        "DEU": "",
        "AUS": "",
        "FRA": "Ret",
        "ESP": "9",
        "GBR": "WD",
        "Points": "4"
    },
    {
        "Pos.": "25",
        "Driver": "Jan Kopecky",
        "MON": "",
        "SWE": "",
        "MEX": "",
        "ARG": "",
        "POR": "",
        "ITA": "9",
        "POL": "",
        "FIN": "",
        "DEU": "13",
        "AUS": "",
        "FRA": "",
        "ESP": "10",
        "GBR": "WD",
        "Points": "3"
    },
    {
        "Pos.": "26",
        "Driver": "Stephane Sarrazin",
        "MON": "",
        "SWE": "",
        "MEX": "",
        "ARG": "",
        "POR": "",
        "ITA": "",
        "POL": "",
        "FIN": "",
        "DEU": "",
        "AUS": "",
        "FRA": "9",
        "ESP": "",
        "GBR": "",
        "Points": "2"
    },
    {
        "Pos.": "27",
        "Driver": "Nicolas Fuchs",
        "MON": "",
        "SWE": "",
        "MEX": "9",
        "ARG": "Ret",
        "POR": "17",
        "ITA": "15",
        "POL": "20",
        "FIN": "Ret",
        "DEU": "",
        "AUS": "",
        "FRA": "",
        "ESP": "",
        "GBR": "18",
        "Points": "2"
    },
    {
        "Pos.": "28",
        "Driver": "Gustavo Saba",
        "MON": "",
        "SWE": "",
        "MEX": "",
        "ARG": "9",
        "POR": "",
        "ITA": "",
        "POL": "",
        "FIN": "",
        "DEU": "",
        "AUS": "",
        "FRA": "",
        "ESP": "",
        "GBR": "",
        "Points": "2"
    },
    {
        "Pos.": "29",
        "Driver": "Lorenzo Bertelli",
        "MON": "68",
        "SWE": "Ret",
        "MEX": "Ret",
        "ARG": "19",
        "POR": "Ret",
        "ITA": "Ret",
        "POL": "16",
        "FIN": "10",
        "DEU": "DNS",
        "AUS": "18",
        "FRA": "Ret",
        "ESP": "Ret",
        "GBR": "10",
        "Points": "2"
    },
    {
        "Pos.": "30",
        "Driver": "Jari Ketomaa",
        "MON": "",
        "SWE": "13",
        "MEX": "10",
        "ARG": "12",
        "POR": "Ret",
        "ITA": "",
        "POL": "17",
        "FIN": "",
        "DEU": "",
        "AUS": "",
        "FRA": "",
        "ESP": "36",
        "GBR": "WD",
        "Points": "1"
    },
    {
        "Pos.": "",
        "Driver": "Kevin Abbring",
        "MON": "",
        "SWE": "11",
        "MEX": "",
        "ARG": "",
        "POR": "",
        "ITA": "",
        "POL": "15",
        "FIN": "",
        "DEU": "11",
        "AUS": "",
        "FRA": "Ret",
        "ESP": "",
        "GBR": "Ret",
        "Points": "0"
    },
    {
        "Pos.": "",
        "Driver": "Henning Solberg",
        "MON": "11",
        "SWE": "12",
        "MEX": "",
        "ARG": "",
        "POR": "",
        "ITA": "",
        "POL": "",
        "FIN": "",
        "DEU": "",
        "AUS": "",
        "FRA": "",
        "ESP": "",
        "GBR": "",
        "Points": "0"
    },
    {
        "Pos.": "",
        "Driver": "Benito Guerra",
        "MON": "",
        "SWE": "",
        "MEX": "12",
        "ARG": "",
        "POR": "",
        "ITA": "",
        "POL": "",
        "FIN": "",
        "DEU": "",
        "AUS": "",
        "FRA": "",
        "ESP": "",
        "GBR": "",
        "Points": "0"
    },
    {
        "Pos.": "",
        "Driver": "Josh Moffett",
        "MON": "",
        "SWE": "",
        "MEX": "",
        "ARG": "",
        "POR": "",
        "ITA": "",
        "POL": "",
        "FIN": "",
        "DEU": "",
        "AUS": "",
        "FRA": "",
        "ESP": "",
        "GBR": "14",
        "Points": "0"
    },
    {
        "Pos.": "",
        "Driver": "Sam Moffett",
        "MON": "",
        "SWE": "",
        "MEX": "",
        "ARG": "",
        "POR": "",
        "ITA": "",
        "POL": "",
        "FIN": "",
        "DEU": "",
        "AUS": "",
        "FRA": "",
        "ESP": "",
        "GBR": "15",
        "Points": "0"
    },
    {
        "Pos.": "",
        "Driver": "Jean-Michel Raoux",
        "MON": "20",
        "SWE": "",
        "MEX": "",
        "ARG": "",
        "POR": "",
        "ITA": "",
        "POL": "",
        "FIN": "",
        "DEU": "",
        "AUS": "",
        "FRA": "",
        "ESP": "",
        "GBR": "",
        "Points": "0"
    },
    {
        "Pos.": "",
        "Driver": "Sebastien Chardonnet",
        "MON": "47",
        "SWE": "",
        "MEX": "",
        "ARG": "",
        "POR": "",
        "ITA": "",
        "POL": "",
        "FIN": "",
        "DEU": "",
        "AUS": "",
        "FRA": "",
        "ESP": "",
        "GBR": "",
        "Points": "0"
    },
    {
        "Pos.": "",
        "Driver": "Geoff Coffey",
        "MON": "",
        "SWE": "",
        "MEX": "",
        "ARG": "",
        "POR": "",
        "ITA": "",
        "POL": "",
        "FIN": "",
        "DEU": "47",
        "AUS": "",
        "FRA": "",
        "ESP": "",
        "GBR": "",
        "Points": "0"
    },
    {
        "Pos.": "",
        "Driver": "Michal Solowow",
        "MON": "",
        "SWE": "Ret",
        "MEX": "",
        "ARG": "",
        "POR": "",
        "ITA": "",
        "POL": "",
        "FIN": "",
        "DEU": "",
        "AUS": "",
        "FRA": "",
        "ESP": "",
        "GBR": "",
        "Points": "0"
    },
    {
        "Pos.": "",
        "Driver": "Jaroslav Melicharek",
        "MON": "",
        "SWE": "",
        "MEX": "",
        "ARG": "",
        "POR": "",
        "ITA": "",
        "POL": "",
        "FIN": "",
        "DEU": "Ret",
        "AUS": "",
        "FRA": "",
        "ESP": "",
        "GBR": "",
        "Points": "0"
    },
    {
        "Pos.": "Pos.",
        "Driver": "Driver",
        "MON": "MON",
        "SWE": "SWE",
        "MEX": "MEX",
        "ARG": "ARG",
        "POR": "POR",
        "ITA": "ITA",
        "POL": "POL",
        "FIN": "FIN",
        "DEU": "DEU",
        "AUS": "AUS",
        "FRA": "FRA",
        "ESP": "ESP",
        "GBR": "GBR",
        "Points": "Points"
    }
]