[
    {
        "Pos": "1",
        "Team": "Italy",
        "Pld": "3",
        "W": "1",
        "D": "2",
        "L": "0",
        "GF": "4",
        "GA": "1",
        "GD": "+3",
        "Pts": "5",
        "Qualification": "Elite round"
    },
    {
        "Pos": "2",
        "Team": "Bulgaria (H)",
        "Pld": "3",
        "W": "1",
        "D": "1",
        "L": "1",
        "GF": "2",
        "GA": "3",
        "GD": "AC/^'1",
        "Pts": "4[a]",
        "Qualification": "Elite round"
    },
    {
        "Pos": "3",
        "Team": "Scotland",
        "Pld": "3",
        "W": "1",
        "D": "1",
        "L": "1",
        "GF": "4",
        "GA": "3",
        "GD": "+1",
        "Pts": "4[a]",
        "Qualification": "Elite round"
    },
    {
        "Pos": "4",
        "Team": "Macedonia",
        "Pld": "3",
        "W": "0",
        "D": "2",
        "L": "1",
        "GF": "0",
        "GA": "3",
        "GD": "AC/^'3",
        "Pts": "2",
        "Qualification": ""
    }
]