[
    {
        "Country": "Armenia",
        "Men[2]": "Slavik Hayrapetyan",
        "Ladies[3]": "Anastasia Galustyan",
        "Pairs[4]": "",
        "Ice dancing[5]": "Tina Garabedian \\/ Simon Proulx-Senecal"
    },
    {
        "Country": "Austria[6]",
        "Men[2]": "Mario-Rafael Ionian",
        "Ladies[3]": "Kerstin Frank",
        "Pairs[4]": "Miriam Ziegler \\/ Severin Kiefer",
        "Ice dancing[5]": "Barbora Silna \\/ Juri Kurakin"
    },
    {
        "Country": "Azerbaijan",
        "Men[2]": "Larry Loupolover",
        "Ladies[3]": "",
        "Pairs[4]": "",
        "Ice dancing[5]": ""
    },
    {
        "Country": "Belarus",
        "Men[2]": "Alexei Mialionkhin",
        "Ladies[3]": "Janina Makeenka",
        "Pairs[4]": "Tatiana Danilova \\/ Mikalai Kamianchuk",
        "Ice dancing[5]": "Viktoria Kavaliova \\/ Yurii Bieliaiev"
    },
    {
        "Country": "Belgium",
        "Men[2]": "Jorik Hendrickx",
        "Ladies[3]": "Charlotte Vandersarren",
        "Pairs[4]": "",
        "Ice dancing[5]": ""
    },
    {
        "Country": "Bulgaria",
        "Men[2]": "",
        "Ladies[3]": "Daniela Stoeva",
        "Pairs[4]": "",
        "Ice dancing[5]": ""
    },
    {
        "Country": "Croatia",
        "Men[2]": "Nicholas Vrdoljak",
        "Ladies[3]": "",
        "Pairs[4]": "",
        "Ice dancing[5]": ""
    },
    {
        "Country": "Czech Republic",
        "Men[2]": "Jiri Belohradsky Michal BA...(tm)ezina",
        "Ladies[3]": "EliA...A!ka BA...(tm)ezinovAfA!",
        "Pairs[4]": "",
        "Ice dancing[5]": "Cortney Mansour \\/ Michal A\"OEeA...A!ka"
    },
    {
        "Country": "Denmark[7]",
        "Men[2]": "",
        "Ladies[3]": "Pernille Sorensen",
        "Pairs[4]": "",
        "Ice dancing[5]": "Laurence Fournier Beaudry \\/ Nikolaj Sorensen"
    },
    {
        "Country": "Estonia",
        "Men[2]": "Daniil Zurav",
        "Ladies[3]": "Helery Halvin",
        "Pairs[4]": "",
        "Ice dancing[5]": ""
    },
    {
        "Country": "Finland[8]",
        "Men[2]": "Valtter Virtanen",
        "Ladies[3]": "Viveca Lindfors",
        "Pairs[4]": "",
        "Ice dancing[5]": "Cecilia Torn \\/ Jussiville Partanen"
    },
    {
        "Country": "France",
        "Men[2]": "Florent Amodio",
        "Ladies[3]": "Laurine Lecavelier Mae Berenice Meite",
        "Pairs[4]": "Vanessa James \\/ Morgan Cipres",
        "Ice dancing[5]": "Lorenza Alessandrini \\/ Pierre Souquet Peroline Ojardias \\/ Michael Bramante Gabriella Papadakis \\/ Guillaume Cizeron"
    },
    {
        "Country": "Georgia",
        "Men[2]": "Armen Agaian",
        "Ladies[3]": "",
        "Pairs[4]": "",
        "Ice dancing[5]": ""
    },
    {
        "Country": "Germany[9]",
        "Men[2]": "Franz Streubel Paul Fentz",
        "Ladies[3]": "Lutricia Bock Nathalie Weinzierl",
        "Pairs[4]": "Aliona Savchenko \\/ Bruno Massot Mari Vartmann \\/ Ruben Blommaert",
        "Ice dancing[5]": "Kavita Lorenz \\/ Panagiotis Polizoakis Katharina Muller \\/ Tim Dieck"
    },
    {
        "Country": "Hungary",
        "Men[2]": "Alexander Maszljanko",
        "Ladies[3]": "Ivett Toth",
        "Pairs[4]": "Anna Marie Pearce \\/ Mark Magyar",
        "Ice dancing[5]": "Carolina Moscheni \\/ Balazs Major"
    },
    {
        "Country": "Israel",
        "Men[2]": "Alexei Bychenko Daniel Samohin",
        "Ladies[3]": "Aimee Buchanan",
        "Pairs[4]": "Adel Tankova \\/ Evgeni Krasnopolski",
        "Ice dancing[5]": "Isabella Tobias \\/ Ilia Tkachenko"
    },
    {
        "Country": "Italy",
        "Men[2]": "Ivan Righini Matteo Rizzo",
        "Ladies[3]": "Roberta Rodeghiero Giada Russo",
        "Pairs[4]": "Nicole Della Monica \\/ Matteo Guarise Bianca Manacorda \\/ Niccolo Macii Valentina Marchei \\/ OndA...(tm)ej HotAfA!rek",
        "Ice dancing[5]": "Anna Cappellini \\/ Luca Lanotte Charlene Guignard \\/ Marco Fabbri Misato Komatsubara \\/ Andrea Fabbri"
    },
    {
        "Country": "Latvia",
        "Men[2]": "Deniss Vasiljevs",
        "Ladies[3]": "AngelAA<<na KuAvaAA 1/4 ska",
        "Pairs[4]": "",
        "Ice dancing[5]": "Olga Jakushina \\/ Andrey Nevskiy"
    },
    {
        "Country": "Lithuania",
        "Men[2]": "",
        "Ladies[3]": "Aleksandra Golovkina",
        "Pairs[4]": "Goda Butkute \\/ Nikita Ermolaev",
        "Ice dancing[5]": "Taylor Tran \\/ Saulius Ambrulevicius"
    },
    {
        "Country": "Luxembourg",
        "Men[2]": "",
        "Ladies[3]": "Fleur Maxwell",
        "Pairs[4]": "",
        "Ice dancing[5]": ""
    },
    {
        "Country": "Netherlands[10]",
        "Men[2]": "Thomas Kennes",
        "Ladies[3]": "Niki Wories",
        "Pairs[4]": "",
        "Ice dancing[5]": ""
    },
    {
        "Country": "Norway",
        "Men[2]": "Sondre Oddvoll Boe",
        "Ladies[3]": "Anne Line Gjersem",
        "Pairs[4]": "",
        "Ice dancing[5]": ""
    },
    {
        "Country": "Poland",
        "Men[2]": "Patrick Myzyk",
        "Ladies[3]": "",
        "Pairs[4]": "",
        "Ice dancing[5]": "Natalia Kaliszek \\/ Maksym Spodyriev"
    },
    {
        "Country": "Romania",
        "Men[2]": "",
        "Ladies[3]": "Julia Sauter",
        "Pairs[4]": "",
        "Ice dancing[5]": ""
    },
    {
        "Country": "Russia[11]",
        "Men[2]": "Mikhail Kolyada Maxim Kovtun Alexander Petrov",
        "Ladies[3]": "Evgenia Medvedeva Anna Pogorilaya Elena Radionova",
        "Pairs[4]": "Ksenia Stolbova \\/ Fedor Klimov Evgenia Tarasova \\/ Vladimir Morozov Tatiana Volosozhar \\/ Maxim Trankov",
        "Ice dancing[5]": "Ekaterina Bobrova \\/ Dmitri Soloviev Victoria Sinitsina \\/ Nikita Katsalapov Alexandra Stepanova \\/ Ivan Bukin"
    },
    {
        "Country": "Slovakia",
        "Men[2]": "Michael Neuman",
        "Ladies[3]": "Nicole RajiAovAA!",
        "Pairs[4]": "",
        "Ice dancing[5]": "Federica Testa \\/ Lukas Csolley"
    },
    {
        "Country": "Slovenia",
        "Men[2]": "David Kranjec",
        "Ladies[3]": "DaA!a Grm",
        "Pairs[4]": "",
        "Ice dancing[5]": ""
    },
    {
        "Country": "Spain",
        "Men[2]": "Javier Fernandez Felipe Montoya",
        "Ladies[3]": "Sonia Lafuente",
        "Pairs[4]": "Marcelina Lech \\/ Aritz Maestu",
        "Ice dancing[5]": "Celia Robledo \\/ Luis Fenero"
    },
    {
        "Country": "Sweden[12]",
        "Men[2]": "Alexander Majorov",
        "Ladies[3]": "Matilda Algotsson Joshi Helgesson Isabelle Olsson",
        "Pairs[4]": "",
        "Ice dancing[5]": ""
    },
    {
        "Country": "Switzerland[13]",
        "Men[2]": "Stephane Walker",
        "Ladies[3]": "Tanja Odermatt",
        "Pairs[4]": "Alexandra Herbrikova \\/ Nicolas Roulet",
        "Ice dancing[5]": "Katarina Paice \\/ Iurii Ieremenko"
    },
    {
        "Country": "Turkey",
        "Men[2]": "Engin Ali Artan",
        "Ladies[3]": "Birce Atabey",
        "Pairs[4]": "",
        "Ice dancing[5]": "Alisa Agafonova \\/ Alper Ucar"
    },
    {
        "Country": "Ukraine[14]",
        "Men[2]": "Ivan Pavlov",
        "Ladies[3]": "Anna Khnychenkova",
        "Pairs[4]": "",
        "Ice dancing[5]": "Valeria Haistruk \\/ Oleksiy Oliynyk"
    },
    {
        "Country": "United Kingdom",
        "Men[2]": "Phillip Harris",
        "Ladies[3]": "Danielle Harrison",
        "Pairs[4]": "",
        "Ice dancing[5]": "Penny Coomes \\/ Nicholas Buckland"
    }
]