[
    {
        "col0": "Fentanyl",
        "col1": "3345",
        "col2": "N-(1-(2-Phenylethyl)-4-piperidinyl)-N-phenylpropanamide",
        "col3": "119915",
        "col4": "33"
    },
    {
        "col0": "Felodipine",
        "col1": "3333",
        "col2": "(RS)-3-ethyl 5-methyl 4-(2,3-dichlorophenyl)-2,6-dimethyl-1,4-dihydropyridine-3,5-dicarboxylate",
        "col3": "585948",
        "col4": "15"
    },
    {
        "col0": "Famotidine",
        "col1": "3325",
        "col2": "3-[({2-[(diaminomethylidene)amino]-1,3-thiazol-4-yl}methyl)sulfanyl]-N'-sulfamoylpropanimidamide",
        "col3": "4975",
        "col4": "40"
    },
    {
        "col0": "Famciclovir",
        "col1": "3324",
        "col2": "2-[(acetyloxy)methyl]-4-(2-amino-9H-purin-9-yl)butyl acetate",
        "col3": "4974",
        "col4": "75"
    },
    {
        "col0": "Ezetimibe",
        "col1": "150311",
        "col2": "(3R,4S)-1-(4-fluorophenyl)-3-[(3S)-3-(4-fluorophenyl)-3-hydroxypropyl]-4-(4-hydroxyphenyl)azetidin-2-one",
        "col3": "49040",
        "col4": "35"
    },
    {
        "col0": "Etoricoxib",
        "col1": "123619",
        "col2": "5-Chloro-6'-methyl-3-[4-(methylsulfonyl)phenyl]-2,3'-bipyridine",
        "col3": "6339",
        "col4": "100"
    },
    {
        "col0": "Etidronic acid",
        "col1": "3305",
        "col2": "(1-hydroxyethan-1,1-diyl)bis(phosphonic acid)",
        "col3": "4907",
        "col4": "3"
    },
    {
        "col0": "Ethosuximide",
        "col1": "3291",
        "col2": "(RS)-3-Ethyl-3-methyl-pyrrolidine-2,5-dione",
        "col3": "4887",
        "col4": "93"
    },
    {
        "col0": "Ethinyl estradiol",
        "col1": "5991",
        "col2": "17a-Ethynylestra-1,3,5(10)-triene-3,17b-diol",
        "col3": "4903",
        "col4": "38"
    },
    {
        "col0": "Estramustine",
        "col1": "259331",
        "col2": "(17b)-17-Hydroxyestra-1(10),2,4-trien-3-yl bis(2-chloroethyl)carbamate",
        "col3": "4868",
        "col4": "75"
    },
    {
        "col0": "Estazolam",
        "col1": "3261",
        "col2": "8-chloro-6-phenyl-4H-[1,2,4]triazolo[4,3-a][1,4]benzodiazepine",
        "col3": "4858",
        "col4": "93"
    },
    {
        "col0": "Esomeprazole",
        "col1": "9579578",
        "col2": "(S)-(-)-5-Methoxy-2-[(4-methoxy-3,5-dimethylpyridin-2-yl)methylsulfinyl]-3H-benzoimidazole",
        "col3": "50275",
        "col4": "50"
    },
    {
        "col0": "Escitalopram",
        "col1": "146570",
        "col2": "(1S)-1-[3-(Dimethylamino)propyl]-1-(4-fluorophenyl)-1,3-dihydro-2-benzofuran-5-carbonitrile",
        "col3": "36791",
        "col4": "80"
    },
    {
        "col0": "Ertapenem",
        "col1": "150610",
        "col2": "(4R,5S,6S)-3-[(3S,5S)-5-[(3-carboxyphenyl)carbamoyl]",
        "col3": "404903",
        "col4": "90"
    },
    {
        "col0": "Erlotinib",
        "col1": "176870",
        "col2": "N-(3-ethynylphenyl)-6,7-bis(2-methoxyethoxy)",
        "col3": "114785",
        "col4": "59"
    },
    {
        "col0": "Eprosartan",
        "col1": "5281037",
        "col2": "4-({2-Butyl-5-[2-carboxy-2-(thiophen-2-ylmethyl)eth-1-en-1-yl]-1H-imidazol-1-yl}methyl)benzoic acid",
        "col3": "4814",
        "col4": "15"
    },
    {
        "col0": "Ephedrine",
        "col1": "5032",
        "col2": "rel-(R,S)-2-(methylamino)-1-phenylpropan-1-ol",
        "col3": "15407",
        "col4": "85"
    },
    {
        "col0": "Enzalutamide",
        "col1": "15951529",
        "col2": "4-(3-(4-Cyano-3-(trifluoromethyl)phenyl)-5,5-dimethyl-4-oxo-2-thioxoimidazolidin-1-yl)-2-fluoro-N-methylbenzamide",
        "col3": "68534",
        "col4": "89"
    },
    {
        "col0": "Entacapone",
        "col1": "5281081",
        "col2": "(2E)-2-cyano-3-(3,4-dihydroxy-5-nitrophenyl)-N,N-diethylprop-2-enamide",
        "col3": "4798",
        "col4": "35"
    },
    {
        "col0": "Enrofloxacin",
        "col1": "71188",
        "col2": "1-cyclopropyl-7-(4-ethylpiperazin-1-yl)-6-fluoro-4-oxo-1,4-dihydroquinoline-3-carboxylic acid",
        "col3": "35720",
        "col4": "80"
    },
    {
        "col0": "Enalapril",
        "col1": "5388962",
        "col2": "(2S)-1-[(2S)-2-{[(2S)-1-ethoxy-1-oxo-4-phenylbutan-2-yl]amino}propanoyl]pyrrolidine-2-carboxylic acid",
        "col3": "4784",
        "col4": "60"
    },
    {
        "col0": "Emtricitabine",
        "col1": "60877",
        "col2": "4-amino-5-fluoro-1-[(2R,5S)-2-(hydroxymethyl)-1,3-oxathiolan-5-yl]-1,2-dihydropyrimidin-2-one",
        "col3": "31536",
        "col4": "93"
    },
    {
        "col0": "Eletriptan",
        "col1": "77993",
        "col2": "(R)-3-[(-1-methylpyrrolidin-2-yl)methyl]-5-(2-phenylsulfonylethyl)- 1H-indole",
        "col3": "50922",
        "col4": "50"
    },
    {
        "col0": "Eflornithine",
        "col1": "3009",
        "col2": "(RS)-2,5-diamino-2-(difluoromethyl)pentanoic acid",
        "col3": "41948",
        "col4": "100"
    },
    {
        "col0": "Efavirenz",
        "col1": "64139",
        "col2": "(4S)-6-chloro-4-(2-cyclopropylethynyl)-4-(trifluoromethyl)-2,4-dihydro-1H-3,1-benzoxazin-2-one",
        "col3": "119486",
        "col4": "40"
    },
    {
        "col0": "Edoxaban",
        "col1": "10280735",
        "col2": "N'-(5-chloropyridin-2-yl)-N-[(1S,2R,4S)-4-(dimethylcarbamoyl)-2-[(5-methyl-6,7-dihydro-4H-[1,3]thiazolo[5,4-c]pyridine-2-carbonyl)amino]cyclohexyl]oxamide",
        "col3": "85973",
        "col4": "62"
    },
    {
        "col0": "Dydrogesterone",
        "col1": "9051",
        "col2": "(9b,10a)-Pregna-4,6-diene-3,20-dione",
        "col3": "31527",
        "col4": "28"
    },
    {
        "col0": "Dutasteride",
        "col1": "6918296",
        "col2": "(5a, 17b)-N-{2,5-Bis(trifluoromethyl)phenyl}-3-oxo-4-azaandrost-1-ene-17-carboxamide",
        "col3": "521033",
        "col4": "60"
    },
    {
        "col0": "Droxidopa",
        "col1": "6989215",
        "col2": "(2S,3R)-2-Amino-3-(3,4-dihydroxyphenyl)-3-hydroxypropanoic acid",
        "col3": "31524",
        "col4": "90"
    },
    {
        "col0": "Drospirenone",
        "col1": "68873",
        "col2": "17-Hydroxy-6b,7b:15b,16b-dimethylene-3-oxo-17a-pregn-4-ene-21-carboxylic acid, g-lactone",
        "col3": "50838",
        "col4": "76"
    },
    {
        "col0": "Dronedarone",
        "col1": "208898",
        "col2": "N-(2-Butyl-3-(p-(3-(dibutylamino)propoxy)benzoyl)-5-benzofuranyl)methanesulfonamide",
        "col3": "50659",
        "col4": "15"
    },
    {
        "col0": "Doxycycline",
        "col1": "11256",
        "col2": "(4S,4aR,5S,5aR,6R,12aS)-4-(dimethylamino)- 3,5,10,12,12a-pentahydroxy- 6-methyl- 1,11-dioxo- 1,4,4a,5,5a,6,11,12a-octahydrotetracene- 2-carboxamide",
        "col3": "60648",
        "col4": "100"
    },
    {
        "col0": "Doxorubicin",
        "col1": "31703",
        "col2": "(7S,9S)-7-[(2R,4S,5S,6S)-4-amino-5-hydroxy-6-methyloxan-2-yl]oxy-6,9,11-trihydroxy-9-(2-hydroxyacetyl)-4-methoxy-8,10-dihydro-7H-tetracene-5,12-dione",
        "col3": "28748",
        "col4": "5"
    },
    {
        "col0": "Doxazosin",
        "col1": "3157",
        "col2": "(RS)-2-[4-(2,3-Dihydro-1,4-benzodioxine-2-carbonyl)piperazin-1-yl]-6,7-dimethoxyquinazolin-4-amine",
        "col3": "4708",
        "col4": "65"
    },
    {
        "col0": "Doxacurium chloride",
        "col1": "5284551",
        "col2": "bis[3-[6,7,8-trimethoxy-2-methyl-1- [(3,4,5-trimethoxyphenyl)methyl]- 3,4-dihydro-1H- isoquinolin-2-yl]propyl] butanedioate dichloride",
        "col3": "59819",
        "col4": "100"
    },
    {
        "col0": "Donepezil",
        "col1": "3152",
        "col2": "(RS)-2-[(1-Benzyl-4-piperidyl)methyl]- 5,6-dimethoxy-2,3-dihydroinden-1-one",
        "col3": "53289",
        "col4": "100"
    },
    {
        "col0": "Dofetilide",
        "col1": "71329",
        "col2": "N-[4-(2-{[2-(4-methane sulfonamidophenoxy)ethyl](methyl)amino}ethyl)phenyl]methanesulfonamide",
        "col3": "4681",
        "col4": "96"
    },
    {
        "col0": "Dithranol",
        "col1": "2202",
        "col2": "1,8-dihydroxy-9,10-dihydroanthracen-9-one",
        "col3": "37510",
        "col4": "0"
    },
    {
        "col0": "Dirithromycin",
        "col1": "6917067",
        "col2": "(2R,3R,6R,7S,8S,9R,10R,12R,13S,15R,17S)-9-{[(2S,3R,4S,6R)-4-(dimethylamino)-3-hydroxy-6-methyloxan-2-yl]oxy}-3-ethyl-2,10-dihydroxy-7-{[(2R,4R,5S,6S)-5-hydroxy-4-methoxy-4,6-dimethyloxan-2-yl]oxy}-15-[(2-methoxyethoxy)methyl]-2,6,8,10,12,17-hexamethyl-4,16-dioxa-14-azabicyclo[11.3.1]heptadecan-5-one",
        "col3": "474014",
        "col4": "10"
    },
    {
        "col0": "Diphenhydramine",
        "col1": "3100",
        "col2": "2-(diphenylmethoxy)-N,N-dimethylethanamine",
        "col3": "4636",
        "col4": "40"
    },
    {
        "col0": "Diltiazem",
        "col1": "39186",
        "col2": "cis-(+)-[2-(2-Dimethylaminoethyl)-5-(4-methoxyphenyl)-3-oxo-6-thia-2-azabicyclo[5.4.0]undeca-7,9,11-trien-4-yl]ethanoate",
        "col3": "101278",
        "col4": "40"
    },
    {
        "col0": "Dihydroergotamine",
        "col1": "10531",
        "col2": "(2R,4R,7R)-N-[(1S,2S,4R,7S)-7-benzyl-2-hydroxy-4-methyl-5,8-dioxo-3-oxa-6,9-diazatricyclo[7.3.0.02,6]dodecan-4-yl]-6-methyl-6,11-diazatetracyclo[7.6.1.02,7.012,16]hexadeca-1(16),9,12,14-tetraene-4-carboxamide",
        "col3": "4562",
        "col4": "32"
    },
    {
        "col0": "Digoxin",
        "col1": "2724385",
        "col2": "(4-[(3S,5R,8R,9S,10S,12R,13S,14S)-3-[(2S,4S,5R,6R)-5-[(2S,4S,5R,6R)-5-[(2S,4S,5R,6R)-4,5-dihydroxy-6-methyl-oxan-2-yl]oxy-4-hydroxy-6-methyl-oxan-2-yl]oxy-4-hydroxy-6-methyl-oxan-2-yl]oxy-12,14-dihydroxy-10,13-dimethyl-1,2,3,4,5,6,7,8,9,11,12,15,16,17-tetradecahydrocyclopenta[a]phenanthren-17-yl]-5H-furan-2-one)",
        "col3": "4551",
        "col4": "60"
    },
    {
        "col0": "Digitoxin",
        "col1": "441207",
        "col2": "(3b,5b)-3-[(O-2,6-dideoxy-",
        "col3": "28544",
        "col4": "95"
    },
    {
        "col0": "Diflunisal",
        "col1": "3059",
        "col2": "2',4'-difluoro-4-hydroxybiphenyl-3-carboxylic acid",
        "col3": "39669",
        "col4": "80"
    },
    {
        "col0": "Dienogest",
        "col1": "68861",
        "col2": "[(17b)-17-Hydroxy-3-oxoestra-4,9-dien-17-yl]acetonitrile",
        "col3": "70708",
        "col4": "90"
    },
    {
        "col0": "Dicloxacillin",
        "col1": "18381",
        "col2": "(2S,5R,6R)-6-{[3-(2,6-dichlorophenyl)-5-methyl-",
        "col3": "4511",
        "col4": "60"
    },
    {
        "col0": "Diazepam",
        "col1": "3016",
        "col2": "7-chloro-1-methyl-5-phenyl-3H-1,4-benzodiazepin-2-one",
        "col3": "49575",
        "col4": "93"
    },
    {
        "col0": "Dextropropoxyphene",
        "col1": "10100",
        "col2": "(1S,2R)-1-benzyl-3-(dimethylamino)-2-methyl-1-phenylpropyl propionate",
        "col3": "51173",
        "col4": "40"
    },
    {
        "col0": "Dextromethorphan",
        "col1": "15978238",
        "col2": "(4bS,8aR,9S)-3-Methoxy-11-methyl-6,7,8,8a,9,10-hexahydro-5H-9,4b-(epiminoethano)phenanthrene",
        "col3": "4470",
        "col4": "11"
    },
    {
        "col0": "Dextroamphetamine",
        "col1": "5826",
        "col2": "(2S)-1-phenylpropan-2-amine",
        "col3": "4469",
        "col4": "100"
    },
    {
        "col0": "Dexmethylphenidate",
        "col1": "154101",
        "col2": "(R,R)-(+)-Methyl 2-phenyl-2-(2-piperidyl)acetate",
        "col3": "51860",
        "col4": "11"
    },
    {
        "col0": "Dexamethasone",
        "col1": "5743",
        "col2": "(8S,9R,10S,11S,13S,14S,16R,17R)-9- Fluoro-11,17-dihydroxy-17-(2-hydroxyacetyl)-10,13,16-trimethyl-6,7,8,9,10,11,12,13,14,15,16,17- dodecahydro-3H-cyclopenta[a]phenanthren-3-one",
        "col3": "41879",
        "col4": "80"
    },
    {
        "col0": "Desvenlafaxine",
        "col1": "125017",
        "col2": "4-[2-dimethylamino-1-(1-hydroxycyclohexyl)",
        "col3": "83527",
        "col4": "80"
    },
    {
        "col0": "Desipramine",
        "col1": "2995",
        "col2": "3-(10,11-Dihydro-5H-dibenzo[b,f]azepin-5-yl)-N-methylpropan-1-amine",
        "col3": "47781",
        "col4": "73"
    },
    {
        "col0": "Demeclocycline",
        "col1": "5311063",
        "col2": "(2E,4S,4aS,5aS,6S,12aS)-2-[amino(hydroxy)methylidene]-7-chloro-4-(dimethylamino)-6,10,11,12a-tetrahydroxy-1,2,3,4,4a,5,5a,6,12,12a-decahydrotetracene-1,3,12-trione",
        "col3": "4392",
        "col4": "60"
    },
    {
        "col0": "Delavirdine",
        "col1": "5625",
        "col2": "N-[2-({4-[3-(propan-2-ylamino)pyridin-2-yl]piperazin-1-yl}carbonyl)-1H-indol-5-yl]methanesulfonamide",
        "col3": "119573",
        "col4": "85"
    },
    {
        "col0": "Darifenacin",
        "col1": "444031",
        "col2": "(S)-2-[1-[2-(2,3-dihydrobenzofuran-5-yl)ethyl]pyrrolidin-3-yl] -2,2-diphenyl-acetamide",
        "col3": "391960",
        "col4": "15"
    },
    {
        "col0": "Dapsone",
        "col1": "2955",
        "col2": "4-[(4-aminobenzene)sulfonyl]aniline",
        "col3": "4325",
        "col4": "70"
    },
    {
        "col0": "Dantrolene",
        "col1": "2952",
        "col2": "1-{[5-(4-nitrophenyl)-2-furyl]methylideneamino}",
        "col3": "4317",
        "col4": "70"
    },
    {
        "col0": "Dacarbazine",
        "col1": "2942",
        "col2": "5-(3,3-Dimethyl-1-triazenyl)imidazole-4-carboxamide",
        "col3": "4305",
        "col4": "100"
    },
    {
        "col0": "Cytarabine",
        "col1": "6253",
        "col2": "4-amino-1-[(2R,3S,4R,5R)-3,4-dihydroxy-5- (hydroxymethyl)oxolan-2-yl]pyrimidin-2-one",
        "col3": "28680",
        "col4": "20"
    },
    {
        "col0": "Cyproterone acetate",
        "col1": "9880",
        "col2": "(1b,2b)-17-(Acetyloxy)-6-chloro-1,2-dihydro-3H-cyclopropa[1,2]pregna-1,4,6-triene-3,20-dione",
        "col3": "50743",
        "col4": "100"
    }
]