[
    {
        "col0": "E. Mulsant",
        "col1": "Marnans",
        "col2": "Lyon",
        "col3": "1797-3-2",
        "col4": "1880-11-4",
        "col5": "1797-3-2"
    },
    {
        "col0": "E. Blanchard",
        "col1": "Paris",
        "col2": "France",
        "col3": "1819-03-06",
        "col4": "1900-02-11",
        "col5": "1819-03-06"
    },
    {
        "col0": "E. Lefevre",
        "col1": "Chartres",
        "col2": "Paris",
        "col3": "1839-1-1",
        "col4": "1894-1-1",
        "col5": "1839-1-1"
    },
    {
        "col0": "Angelo Moreira da Costa Lima",
        "col1": "Rio de Janeiro",
        "col2": "Rio de Janeiro",
        "col3": "1887-06-29",
        "col4": "1964-1-1",
        "col5": "1887-06-29"
    },
    {
        "col0": "W. Nylander",
        "col1": "Oulu",
        "col2": "Paris",
        "col3": "1822-1-3",
        "col4": "1899-3-29",
        "col5": "1822-1-3"
    },
    {
        "col0": "W. F. Erichson",
        "col1": "Stralsund",
        "col2": "Berlin",
        "col3": "1809-11-26",
        "col4": "1848-12-18",
        "col5": "1809-11-26"
    },
    {
        "col0": "T. d. Charpentier",
        "col1": "Freiberg",
        "col2": "Brzeg",
        "col3": "1779-11-22",
        "col4": "1847-3-4",
        "col5": "1779-11-22"
    },
    {
        "col0": "S. v. Breuning",
        "col1": "Vienna",
        "col2": "Paris",
        "col3": "1894-1-1",
        "col4": "1983-03-11",
        "col5": "1894-1-1"
    },
    {
        "col0": "S. Bleszynski",
        "col1": "Krakow",
        "col2": "Bonn",
        "col3": "1927-08-13",
        "col4": "1969-12-24",
        "col5": "1927-08-13"
    },
    {
        "col0": "S. Canzoneri",
        "col1": "Corleone",
        "col2": "Venice",
        "col3": "1941-2-4",
        "col4": "1995-10-5",
        "col5": "1941-2-4"
    },
    {
        "col0": "S. Schenkling",
        "col1": "Laucha an der Unstrut",
        "col2": "Eisleben",
        "col3": "1865-7-11",
        "col4": "1946-12-16",
        "col5": "1865-7-11"
    },
    {
        "col0": "S. Matsumura",
        "col1": "Hyogo Prefecture",
        "col2": "Tokyo",
        "col3": "1872-1-1",
        "col4": "1960-1-1",
        "col5": "1872-1-1"
    },
    {
        "col0": "S. Alpheraky",
        "col1": "Kharkiv",
        "col2": "Saint Petersburg",
        "col3": "1850-1-1",
        "col4": "1918-1-1",
        "col5": "1850-1-1"
    },
    {
        "col0": "Samuel Constantinus Snellen van Vollenhoven",
        "col1": "Rotterdam",
        "col2": "The Hague",
        "col3": "1816-10-18",
        "col4": "1880-3-22",
        "col5": "1816-10-18"
    },
    {
        "col0": "R. Pungeler",
        "col1": "Burtscheid",
        "col2": "Burtscheid",
        "col3": "1857-2-15",
        "col4": "1927-2-1",
        "col5": "1857-2-15"
    },
    {
        "col0": "R. Felder",
        "col1": "Vienna",
        "col2": "Vienna",
        "col3": "1842-5-2",
        "col4": "1871-3-29",
        "col5": "1842-5-2"
    },
    {
        "col0": "R. Blanchard",
        "col1": "Saint-Christophe-sur-le-Nais",
        "col2": "Paris",
        "col3": "1857-2-28",
        "col4": "1919-2-7",
        "col5": "1857-2-28"
    },
    {
        "col0": "P. Rossi",
        "col1": "Florence",
        "col2": "Pisa",
        "col3": "1738-1-1",
        "col4": "1804-12-21",
        "col5": "1738-1-1"
    },
    {
        "col0": "P. Milliere",
        "col1": "Saint-Jean-de-Losne",
        "col2": "Cannes",
        "col3": "1811-12-1",
        "col4": "1887-5-29",
        "col5": "1811-12-1"
    },
    {
        "col0": "P. J. Bonnaterre",
        "col1": "Aveyron",
        "col2": "Saint-Geniez",
        "col3": "1752-1-1",
        "col4": "1804-9-20",
        "col5": "1752-1-1"
    },
    {
        "col0": "Philogene Auguste Joseph Duponchel",
        "col1": "Valenciennes",
        "col2": "Paris",
        "col3": "1774-1-1",
        "col4": "1846-1-10",
        "col5": "1774-1-1"
    },
    {
        "col0": "Philipp Ludwig Statius Muller",
        "col1": "Esens, Lower Saxony",
        "col2": "Erlangen",
        "col3": "1725-4-25",
        "col4": "1776-1-5",
        "col5": "1725-4-25"
    },
    {
        "col0": "P. W. Wygodzinsky",
        "col1": "Bonn",
        "col2": "Middletown, Orange County, New York",
        "col3": "1916-10-5",
        "col4": "1987-1-27",
        "col5": "1916-10-5"
    },
    {
        "col0": "P. F. Wahlberg",
        "col1": "Gothenburg",
        "col2": "Stockholm",
        "col3": "1800-6-19",
        "col4": "1877-5-22",
        "col5": "1800-6-19"
    },
    {
        "col0": "P. A. Roman",
        "col1": "Westergotland",
        "col2": "Sweden",
        "col3": "1872-11-16",
        "col4": "1943-12-23",
        "col5": "1872-11-16"
    },
    {
        "col0": "P. B. Gerhard",
        "col1": "Leipzig",
        "col2": "St. Louis",
        "col3": "1824-3-10",
        "col4": "1908-5-18",
        "col5": "1824-3-10"
    },
    {
        "col0": "P. Luigioni",
        "col1": "Rome",
        "col2": "Rome",
        "col3": "1873-2-9",
        "col4": "1937-5-6",
        "col5": "1873-2-9"
    },
    {
        "col0": "O. Butschli",
        "col1": "Frankfurt",
        "col2": "Heidelberg",
        "col3": "1848-05-03",
        "col4": "1920-02-02",
        "col5": "1848-05-03"
    },
    {
        "col0": "O. Bang-Haas",
        "col1": "Dresden",
        "col2": "Dresden",
        "col3": "1882-1-10",
        "col4": "1948-7-30",
        "col5": "1882-1-10"
    },
    {
        "col0": "O. Butschli",
        "col1": "Frankfurt",
        "col2": "Heidelberg",
        "col3": "1848-05-03",
        "col4": "1920-02-02",
        "col5": "1848-05-03"
    },
    {
        "col0": "O. Hofmann",
        "col1": "Frankfurt",
        "col2": "Regensburg",
        "col3": "1835-09-20",
        "col4": "1900-02-22",
        "col5": "1835-09-20"
    },
    {
        "col0": "O. G. Costa",
        "col1": "Lecce",
        "col2": "Naples",
        "col3": "1787-8-26",
        "col4": "1867-11-7",
        "col5": "1787-8-26"
    },
    {
        "col0": "O. Marek",
        "col1": "Usti nad Orlici",
        "col2": "Czechoslovakia",
        "col3": "1911-11-03",
        "col4": "1986-12-26",
        "col5": "1911-11-03"
    },
    {
        "col0": "O. Radoszkowski",
        "col1": "Lomza",
        "col2": "Saint Petersburg",
        "col3": "1820-8-7",
        "col4": "1895-5-1",
        "col5": "1820-8-7"
    },
    {
        "col0": "N. Boubee",
        "col1": "Toulouse",
        "col2": "Bagneres-de-Luchon",
        "col3": "1806-5-12",
        "col4": "1862-8-2",
        "col5": "1806-5-12"
    },
    {
        "col0": "N. G. Yershov",
        "col1": "Moscow",
        "col2": "Saint Petersburg",
        "col3": "1837-4-23",
        "col4": "1896-3-12",
        "col5": "1837-4-23"
    },
    {
        "col0": "Nikolaus Poda von Neuhaus",
        "col1": "Vienna",
        "col2": "Vienna",
        "col3": "1723-10-4",
        "col4": "1798-4-29",
        "col5": "1723-10-4"
    },
    {
        "col0": "N. Boubee",
        "col1": "Toulouse",
        "col2": "Bagneres-de-Luchon",
        "col3": "1806-5-12",
        "col4": "1862-8-2",
        "col5": "1806-5-12"
    },
    {
        "col0": "M. B. Borkhausen",
        "col1": "Giessen",
        "col2": "Darmstadt",
        "col3": "1760-12-3",
        "col4": "1806-11-30",
        "col5": "1760-12-3"
    },
    {
        "col0": "Maurice Gilbert Perrot des Gozis",
        "col1": "Montlucon",
        "col2": "Montlucon",
        "col3": "1851-11-12",
        "col4": "1909-4-11",
        "col5": "1851-11-12"
    },
    {
        "col0": "M. Caullery",
        "col1": "Bergues",
        "col2": "Paris",
        "col3": "1868-9-5",
        "col4": "1958-7-13",
        "col5": "1868-9-5"
    },
    {
        "col0": "M. Grandi",
        "col1": "Bologna",
        "col2": "Bologna",
        "col3": "1915-7-3",
        "col4": "2005-10-6",
        "col5": "1915-7-3"
    },
    {
        "col0": "Mariano de la Paz Graells y de la Aguera",
        "col1": "Tricio",
        "col2": "Madrid",
        "col3": "1809-1-24",
        "col4": "1898-2-14",
        "col5": "1809-1-24"
    },
    {
        "col0": "L. Fairmaire",
        "col1": "Paris",
        "col2": "Paris",
        "col3": "1820-6-29",
        "col4": "1906-4-1",
        "col5": "1820-6-29"
    },
    {
        "col0": "L. Bellardi",
        "col1": "Genoa",
        "col2": "Turin",
        "col3": "1818-05-18",
        "col4": "1889-09-17",
        "col5": "1818-05-18"
    },
    {
        "col0": "L. Ganglbauer",
        "col1": "Vienna",
        "col2": "Pressbaum",
        "col3": "1856-10-1",
        "col4": "1912-6-5",
        "col5": "1856-10-1"
    },
    {
        "col0": "Ludwig Carl Christian Koch",
        "col1": "Germany",
        "col2": "Germany",
        "col3": "1825-11-08",
        "col4": "1908-11-1",
        "col5": "1825-11-08"
    },
    {
        "col0": "L. Berland",
        "col1": "Ay, Marne",
        "col2": "Versailles, Yvelines",
        "col3": "1888-5-14",
        "col4": "1962-8-18",
        "col5": "1888-5-14"
    },
    {
        "col0": "Lucas Friedrich Julius Dominikus von Heyden",
        "col1": "Frankfurt",
        "col2": "Frankfurt",
        "col3": "1838-5-22",
        "col4": "1915-9-13",
        "col5": "1838-5-22"
    },
    {
        "col0": "L. J. Reiche",
        "col1": "Gorinchem",
        "col2": "Neuilly-sur-Seine",
        "col3": "1799-12-20",
        "col4": "1890-5-16",
        "col5": "1799-12-20"
    },
    {
        "col0": "L. G. d'Antessanty",
        "col1": "Troyes",
        "col2": "Troyes",
        "col3": "1834-10-26",
        "col4": "1922-1-6",
        "col5": "1834-10-26"
    },
    {
        "col0": "L. E. Robert",
        "col1": "Meudon",
        "col2": "Sezanne",
        "col3": "1806-12-6",
        "col4": "1882-5-28",
        "col5": "1806-12-6"
    },
    {
        "col0": "L. Camerano",
        "col1": "Biella",
        "col2": "Turin",
        "col3": "1856-4-9",
        "col4": "1917-11-22",
        "col5": "1856-4-9"
    },
    {
        "col0": "L. Navas",
        "col1": "Cabaces",
        "col2": "Girona",
        "col3": "1858-3-7",
        "col4": "1938-12-31",
        "col5": "1858-3-7"
    },
    {
        "col0": "L. Fairmaire",
        "col1": "Paris",
        "col2": "Paris",
        "col3": "1820-6-29",
        "col4": "1906-4-1",
        "col5": "1820-6-29"
    },
    {
        "col0": "Karl Borromaeus Maria Josef Heller",
        "col1": "Sieghartskirchen",
        "col2": "Dresden",
        "col3": "1864-3-21",
        "col4": "1945-12-26",
        "col5": "1864-3-21"
    },
    {
        "col0": "Jorgen Matthias Christian Schiodte",
        "col1": "Copenhagen",
        "col2": "Copenhagen",
        "col3": "1815-4-20",
        "col4": "1884-4-22",
        "col5": "1815-4-20"
    },
    {
        "col0": "J. Weise",
        "col1": "Lubsko",
        "col2": "Cieplice Slaskie-Zdroj",
        "col3": "1844-06-06",
        "col4": "1925-02-25",
        "col5": "1844-06-06"
    },
    {
        "col0": "J. V. Carus",
        "col1": "Leipzig",
        "col2": "Leipzig",
        "col3": "1823-8-25",
        "col4": "1903-3-10",
        "col5": "1823-8-25"
    },
    {
        "col0": "J. Roger",
        "col1": "Germany",
        "col2": "Sosnicowice",
        "col3": "1819-02-23",
        "col4": "1865-01-07",
        "col5": "1819-02-23"
    },
    {
        "col0": "J. P. Rambur",
        "col1": "Ingrandes-de-Touraine",
        "col2": "Geneva",
        "col3": "1801-7-21",
        "col4": "1870-8-10",
        "col5": "1801-7-21"
    },
    {
        "col0": "Jose Candido de Melo Carvalho",
        "col1": "Minas Gerais",
        "col2": "Tijuca",
        "col3": "1914-06-11",
        "col4": "1994-10-22",
        "col5": "1914-06-11"
    },
    {
        "col0": "J. Kriechbaumer",
        "col1": "Tegernsee",
        "col2": "Munich",
        "col3": "1819-3-13",
        "col4": "1902-5-2",
        "col5": "1819-3-13"
    },
    {
        "col0": "J. Fahringer",
        "col1": "Baden bei Wien",
        "col2": "Vienna",
        "col3": "1876-12-21",
        "col4": "1950-12-18",
        "col5": "1876-12-21"
    },
    {
        "col0": "Jose Candido de Melo Carvalho",
        "col1": "Minas Gerais",
        "col2": "Tijuca",
        "col3": "1914-06-11",
        "col4": "1994-10-22",
        "col5": "1914-06-11"
    },
    {
        "col0": "J. R. Schellenberg",
        "col1": "Basel",
        "col2": "Toss",
        "col3": "1740-1-4",
        "col4": "1806-8-6",
        "col5": "1740-1-4"
    },
    {
        "col0": "J. P. Breyne",
        "col1": "Gdansk",
        "col2": "Gdansk",
        "col3": "1680-1-1",
        "col4": "1764-1-1",
        "col5": "1680-1-1"
    },
    {
        "col0": "Johann Nepomuk von Laicharting",
        "col1": "Innsbruck",
        "col2": "Innsbruck",
        "col3": "1754-1-1",
        "col4": "1797-1-1",
        "col5": "1754-1-1"
    },
    {
        "col0": "Johann Leopold Theodor Friedrich Zincken",
        "col1": "Braunschweig",
        "col2": "Braunschweig",
        "col3": "1770-1-1",
        "col4": "1856-1-1",
        "col5": "1770-1-1"
    },
    {
        "col0": "Johann Karl Wilhelm Illiger",
        "col1": "Braunschweig",
        "col2": "Berlin",
        "col3": "1775-11-19",
        "col4": "1813-05-10",
        "col5": "1775-11-19"
    },
    {
        "col0": "J. H. Sulzer",
        "col1": "Winterthur",
        "col2": "Winterthur",
        "col3": "1735-1-1",
        "col4": "1814-1-1",
        "col5": "1735-1-1"
    },
    {
        "col0": "J. G. Kugelann",
        "col1": "Kingdom of Prussia",
        "col2": "Kingdom of Prussia",
        "col3": "1753-01-02",
        "col4": "1815-09-08",
        "col5": "1753-01-02"
    },
    {
        "col0": "J. F. Wolff",
        "col1": "Schweinfurt",
        "col2": "Schweinfurt",
        "col3": "1778-1-1",
        "col4": "1806-3-13",
        "col5": "1778-1-1"
    },
    {
        "col0": "Johann Friedrich Wilhelm Herbst",
        "col1": "Petershagen",
        "col2": "Berlin",
        "col3": "1743-11-1",
        "col4": "1807-11-5",
        "col5": "1743-11-1"
    },
    {
        "col0": "J. F. Jaennicke",
        "col1": "Frankfurt",
        "col2": "Mainz",
        "col3": "1831-1-7",
        "col4": "1907-4-1",
        "col5": "1831-1-7"
    },
    {
        "col0": "J. C. Mikan",
        "col1": "Teplice",
        "col2": "Prague",
        "col3": "1769-12-5",
        "col4": "1844-12-24",
        "col5": "1769-12-5"
    },
    {
        "col0": "Johann Carl Megerle von Muhlfeld",
        "col1": "Vienna",
        "col2": "Vienna",
        "col3": "1765-1-1",
        "col4": "1840-1-1",
        "col5": "1765-1-1"
    },
    {
        "col0": "J. A. Schnabl",
        "col1": "Warsaw",
        "col2": "Warsaw",
        "col3": "1838-0-0",
        "col4": "1912-11-14",
        "col5": "1838-0-0"
    },
    {
        "col0": "J. R. Sahlberg",
        "col1": "Helsinki",
        "col2": "Helsinki",
        "col3": "1845-06-06",
        "col4": "1920-05-08",
        "col5": "1845-06-06"
    },
    {
        "col0": "J. E. Berce",
        "col1": "Saint-Die-des-Vosges",
        "col2": "Paris",
        "col3": "1803-1-1",
        "col4": "1879-1-1",
        "col5": "1803-1-1"
    },
    {
        "col0": "J. Girard",
        "col1": "Givet",
        "col2": "Lion-sur-Mer",
        "col3": "1822-9-13",
        "col4": "1886-9-8",
        "col5": "1822-9-13"
    },
    {
        "col0": "J. Wojtusiak",
        "col1": "Krakow",
        "col2": "Krakow",
        "col3": "1942-02-21",
        "col4": "2012-04-02",
        "col5": "1942-02-21"
    },
    {
        "col0": "J. K. Kluk",
        "col1": "Ciechanowiec",
        "col2": "Ciechanowiec",
        "col3": "1739-9-13",
        "col4": "1796-7-2",
        "col5": "1739-9-13"
    },
    {
        "col0": "J. H. Laspeyres",
        "col1": "Berlin",
        "col2": "Berlin",
        "col3": "1768-1-1",
        "col4": "1809-1-1",
        "col5": "1768-1-1"
    },
    {
        "col0": "J. Aubert",
        "col1": "Lausanne",
        "col2": "Lutry",
        "col3": "1916-8-17",
        "col4": "1995-8-14",
        "col5": "1916-8-17"
    },
    {
        "col0": "Jorgen Matthias Christian Schiodte",
        "col1": "Copenhagen",
        "col2": "Copenhagen",
        "col3": "1815-4-20",
        "col4": "1884-4-22",
        "col5": "1815-4-20"
    },
    {
        "col0": "I. Schiffermuller",
        "col1": "Hellmonsodt",
        "col2": "Linz",
        "col3": "1727-10-2",
        "col4": "1806-6-21",
        "col5": "1727-10-2"
    },
    {
        "col0": "I. Bolivar",
        "col1": "Madrid",
        "col2": "Mexico City",
        "col3": "1850-11-9",
        "col4": "1944-11-19",
        "col5": "1850-11-9"
    },
    {
        "col0": "H. T. Christoph",
        "col1": "Herrnhut",
        "col2": "Saint Petersburg",
        "col3": "1831-04-16",
        "col4": "1894-11-05",
        "col5": "1831-04-16"
    },
    {
        "col0": "H. Lucas",
        "col1": "Paris",
        "col2": "Paris",
        "col3": "1814-1-17",
        "col4": "1899-7-5",
        "col5": "1814-1-17"
    },
    {
        "col0": "H. v. Ihering",
        "col1": "Kiel",
        "col2": "Giessen",
        "col3": "1850-10-09",
        "col4": "1930-02-24",
        "col5": "1850-10-09"
    },
    {
        "col0": "H. Schmitz",
        "col1": "Elberfeld",
        "col2": "Bad Godesberg",
        "col3": "1878-8-12",
        "col4": "1960-9-1",
        "col5": "1878-8-12"
    },
    {
        "col0": "H. R. Schaum",
        "col1": "Glauchau",
        "col2": "Bonn",
        "col3": "1819-4-29",
        "col4": "1865-9-15",
        "col5": "1819-4-29"
    },
    {
        "col0": "H. W. Brolemann",
        "col1": "Paris",
        "col2": "Basses-Pyrenees",
        "col3": "1860-07-10",
        "col4": "1933-7-31",
        "col5": "1860-07-10"
    },
    {
        "col0": "Henri Gadeau de Kerville",
        "col1": "Rouen",
        "col2": "Bagneres-de-Luchon",
        "col3": "1858-12-17",
        "col4": "1940-7-26",
        "col5": "1858-12-17"
    },
    {
        "col0": "H. Friese",
        "col1": "Schwerin",
        "col2": "Schwerin",
        "col3": "1860-05-04",
        "col4": "1948-9-8",
        "col5": "1860-05-04"
    },
    {
        "col0": "H. C. Burckhardt",
        "col1": "Adelebsen",
        "col2": "Hanover",
        "col3": "1811-2-26",
        "col4": "1879-12-14",
        "col5": "1811-2-26"
    },
    {
        "col0": "H. Kotzsch",
        "col1": "Dresden",
        "col2": "Dresden",
        "col3": "1901-1-1",
        "col4": "1950-1-1",
        "col5": "1901-1-1"
    },
    {
        "col0": "H. Fruhstorfer",
        "col1": "Germany",
        "col2": "Germany",
        "col3": "1866-03-07",
        "col4": "1922-4-9",
        "col5": "1866-03-07"
    },
    {
        "col0": "Hans Daniel Johan Wallengren",
        "col1": "Lund",
        "col2": "Malmohus County",
        "col3": "1823-6-8",
        "col4": "1894-10-25",
        "col5": "1823-6-8"
    },
    {
        "col0": "G. Horvath",
        "col1": "Cecejovce",
        "col2": "Budapest",
        "col3": "1847-11-23",
        "col4": "1937-09-08",
        "col5": "1847-11-23"
    },
    {
        "col0": "G. Mayr",
        "col1": "Vienna",
        "col2": "Vienna",
        "col3": "1830-10-12",
        "col4": "1908-7-14",
        "col5": "1830-10-12"
    },
    {
        "col0": "G. Flor",
        "col1": "SalacgrA<<va Municipality",
        "col2": "Tartu",
        "col3": "1829-08-13",
        "col4": "1883-05-13",
        "col5": "1829-08-13"
    },
    {
        "col0": "G. Breddin",
        "col1": "Magdeburg",
        "col2": "Oschersleben",
        "col3": "1864-2-25",
        "col4": "1909-12-22",
        "col5": "1864-2-25"
    },
    {
        "col0": "G. Bey-Bienko",
        "col1": "Bilopillia",
        "col2": "Moscow",
        "col3": "1903-2-7",
        "col4": "1971-11-3",
        "col5": "1903-2-7"
    },
    {
        "col0": "Gottlieb August Wilhelm Herrich-Schaffer",
        "col1": "Regensburg",
        "col2": "Regensburg",
        "col3": "1799-12-17",
        "col4": "1874-4-14",
        "col5": "1799-12-17"
    },
    {
        "col0": "Giuseppe Sigismondo Ala Ponzone",
        "col1": "Cremona",
        "col2": "Cremona",
        "col3": "1761-3-21",
        "col4": "1842-5-2",
        "col5": "1761-3-21"
    },
    {
        "col0": "G. S. Poli",
        "col1": "Italy",
        "col2": "Naples",
        "col3": "1746-10-26",
        "col4": "1825-04-07",
        "col5": "1746-10-26"
    },
    {
        "col0": "G. Cestoni",
        "col1": "Montegiorgio",
        "col2": "Livorno",
        "col3": "1637-5-13",
        "col4": "1718-1-29",
        "col5": "1637-5-13"
    },
    {
        "col0": "George Henry Kendrick Thwaites",
        "col1": "Bristol",
        "col2": "Kandy",
        "col3": "1812-7-9",
        "col4": "1882-11-09",
        "col5": "1812-7-9"
    },
    {
        "col0": "G. Dieck",
        "col1": "Zoschen",
        "col2": "Zoschen",
        "col3": "1847-4-28",
        "col4": "1925-10-21",
        "col5": "1847-4-28"
    },
    {
        "col0": "G. Horvath",
        "col1": "Cecejovce",
        "col2": "Budapest",
        "col3": "1847-11-23",
        "col4": "1937-09-08",
        "col5": "1847-11-23"
    },
    {
        "col0": "Friedrich Wilhelm Ludwig Suckow",
        "col1": "Heidelberg",
        "col2": "Mannheim",
        "col3": "1770-1-1",
        "col4": "1838-6-21",
        "col5": "1770-1-1"
    },
    {
        "col0": "Friedrich Otto Gustav Quedenfeldt",
        "col1": "Grudziadz",
        "col2": "Berlin",
        "col3": "1817-6-14",
        "col4": "1891-12-20",
        "col5": "1817-6-14"
    },
    {
        "col0": "Franz von Paula Schrank",
        "col1": "Neuburg am Inn",
        "col2": "Munich",
        "col3": "1747-8-21",
        "col4": "1835-12-22",
        "col5": "1747-8-21"
    },
    {
        "col0": "F. Turk",
        "col1": "Wimbledon, London",
        "col2": "Cornwall",
        "col3": "1911-1-15",
        "col4": "1986-2-14",
        "col5": "1911-1-15"
    },
    {
        "col0": "F. A. Bonelli",
        "col1": "Cuneo",
        "col2": "Turin",
        "col3": "1784-11-10",
        "col4": "1830-11-18",
        "col5": "1784-11-10"
    },
    {
        "col0": "F. Silvestri",
        "col1": "Bevagna",
        "col2": "Portici",
        "col3": "1873-06-22",
        "col4": "1949-6-10",
        "col5": "1873-06-22"
    },
    {
        "col0": "F. L. Cerf",
        "col1": "Paris",
        "col2": "Paris",
        "col3": "1881-10-3",
        "col4": "1945-1-1",
        "col5": "1881-10-3"
    },
    {
        "col0": "F. Bryk",
        "col1": "Vienna",
        "col2": "Stockholm",
        "col3": "1882-1-21",
        "col4": "1957-1-13",
        "col5": "1882-1-21"
    },
    {
        "col0": "Eugenius Johann Christoph Esper",
        "col1": "Wunsiedel",
        "col2": "Erlangen",
        "col3": "1742-6-2",
        "col4": "1810-7-27",
        "col5": "1742-6-2"
    },
    {
        "col0": "E. G. Munroe",
        "col1": "Detroit",
        "col2": "Ontario",
        "col3": "1919-9-8",
        "col4": "2008-5-31",
        "col5": "1919-9-8"
    },
    {
        "col0": "Ernst Otto Wilhelm Taschenberg",
        "col1": "Zahna",
        "col2": "Halle",
        "col3": "1854-3-23",
        "col4": "1922-3-20",
        "col5": "1854-3-23"
    },
    {
        "col0": "E. G. Kraatz",
        "col1": "Berlin",
        "col2": "Berlin",
        "col3": "1830-3-13",
        "col4": "1909-11-2",
        "col5": "1830-3-13"
    },
    {
        "col0": "E. F. Germar",
        "col1": "Glauchau",
        "col2": "Halle",
        "col3": "1786-11-3",
        "col4": "1853-7-8",
        "col5": "1786-11-3"
    },
    {
        "col0": "E. Wasmann",
        "col1": "Merano",
        "col2": "Valkenburg aan de Geul",
        "col3": "1859-5-29",
        "col4": "1931-2-27",
        "col5": "1859-5-29"
    },
    {
        "col0": "E. Haase",
        "col1": "Berlin",
        "col2": "Bangkok",
        "col3": "1859-1-19",
        "col4": "1894-4-24",
        "col5": "1859-1-19"
    },
    {
        "col0": "E. Cornalia",
        "col1": "Milan",
        "col2": "Milan",
        "col3": "1824-7-21",
        "col4": "1882-6-8",
        "col5": "1824-7-21"
    },
    {
        "col0": "E. M. Walker",
        "col1": "Windsor, Ontario",
        "col2": "Toronto",
        "col3": "1877-10-05",
        "col4": "1969-02-14",
        "col5": "1877-10-05"
    },
    {
        "col0": "D. Leston",
        "col1": "London",
        "col2": "Florida",
        "col3": "1917-02-17",
        "col4": "1981-10-07",
        "col5": "1917-02-17"
    },
    {
        "col0": "C. Biezanko",
        "col1": "Kielce",
        "col2": "Pelotas",
        "col3": "1895-11-22",
        "col4": "1986-1-1",
        "col5": "1895-11-22"
    },
    {
        "col0": "C. Eisner",
        "col1": "Zabrze",
        "col2": "The Hague",
        "col3": "1890-4-28",
        "col4": "1981-12-30",
        "col5": "1890-4-28"
    },
    {
        "col0": "C. V. Houlbert",
        "col1": "Voutre",
        "col2": "Rennes",
        "col3": "1857-7-18",
        "col4": "1947-12-22",
        "col5": "1857-7-18"
    },
    {
        "col0": "C. Bar",
        "col1": "Nantes",
        "col2": "Paramaribo",
        "col3": "1817-10-14",
        "col4": "1878-0-0",
        "col5": "1817-10-14"
    },
    {
        "col0": "C. Rey",
        "col1": "Lyon",
        "col2": "Lyon",
        "col3": "1817-9-2",
        "col4": "1895-1-31",
        "col5": "1817-9-2"
    },
    {
        "col0": "C. v. Steven",
        "col1": "Hamina",
        "col2": "Simferopol",
        "col3": "1781-1-19",
        "col4": "1863-4-18",
        "col5": "1781-1-19"
    },
    {
        "col0": "C. Oberthur",
        "col1": "Rennes",
        "col2": "Rennes",
        "col3": "1845-9-14",
        "col4": "1924-6-1",
        "col5": "1845-9-14"
    },
    {
        "col0": "Charles N. F. Brisout",
        "col1": "Paris",
        "col2": "Saint-Germain-en-Laye",
        "col3": "1822-7-22",
        "col4": "1893-5-2",
        "col5": "1822-7-22"
    },
    {
        "col0": "Charles Jules Edmee Brongniart",
        "col1": "Paris",
        "col2": "Paris",
        "col3": "1859-2-11",
        "col4": "1899-4-18",
        "col5": "1859-2-11"
    },
    {
        "col0": "C. J. Gahan",
        "col1": "Tipperary",
        "col2": "Aylsham",
        "col3": "1862-1-20",
        "col4": "1939-1-21",
        "col5": "1862-1-20"
    },
    {
        "col0": "C. J. Devillers",
        "col1": "Rennes",
        "col2": "Rennes",
        "col3": "1724-1-1",
        "col4": "1810-1-1",
        "col5": "1724-1-1"
    },
    {
        "col0": "C. Coquerel",
        "col1": "Amsterdam",
        "col2": "Saint-Denis, Reunion",
        "col3": "1822-1-1",
        "col4": "1867-1-1",
        "col5": "1822-1-1"
    },
    {
        "col0": "C. E. Duftschmid",
        "col1": "Gmunden",
        "col2": "Linz",
        "col3": "1767-11-19",
        "col4": "1821-1-1",
        "col5": "1767-11-19"
    },
    {
        "col0": "C. Emery",
        "col1": "Naples",
        "col2": "Bologna",
        "col3": "1848-10-25",
        "col4": "1925-5-11",
        "col5": "1848-10-25"
    },
    {
        "col0": "C. v. Heyden",
        "col1": "Frankfurt",
        "col2": "Frankfurt",
        "col3": "1793-1-20",
        "col4": "1866-1-1",
        "col5": "1793-1-20"
    },
    {
        "col0": "C. R. Osten-Sacken",
        "col1": "Saint Petersburg",
        "col2": "Heidelberg",
        "col3": "1828-8-21",
        "col4": "1906-5-20",
        "col5": "1828-8-21"
    },
    {
        "col0": "C. R. Sahlberg",
        "col1": "Eura",
        "col2": "Ylane",
        "col3": "1779-1-22",
        "col4": "1860-10-18",
        "col5": "1779-1-22"
    },
    {
        "col0": "C. L. Koch",
        "col1": "Germany",
        "col2": "Germany",
        "col3": "1778-09-21",
        "col4": "1857-8-23",
        "col5": "1778-09-21"
    },
    {
        "col0": "Carl Julius Bernhard Borner",
        "col1": "Bremen",
        "col2": "Naumburg",
        "col3": "1880-5-28",
        "col4": "1953-6-14",
        "col5": "1880-5-28"
    },
    {
        "col0": "C. H. Boheman",
        "col1": "Jonkoping",
        "col2": "Stockholm",
        "col3": "1796-7-10",
        "col4": "1868-11-2",
        "col5": "1796-7-10"
    },
    {
        "col0": "C. G. Thomson",
        "col1": "Malmo",
        "col2": "Lund",
        "col3": "1824-10-13",
        "col4": "1899-9-20",
        "col5": "1824-10-13"
    },
    {
        "col0": "C. F. Fallen",
        "col1": "Kristinehamn",
        "col2": "Lund",
        "col3": "1764-9-22",
        "col4": "1830-8-26",
        "col5": "1764-9-22"
    },
    {
        "col0": "Carl Eduard Adolph Gerstaecker",
        "col1": "Berlin",
        "col2": "Greifswald",
        "col3": "1828-8-30",
        "col4": "1895-6-20",
        "col5": "1828-8-30"
    },
    {
        "col0": "C. Acqua",
        "col1": "Velletri",
        "col2": "Ascoli Piceno",
        "col3": "1863-8-30",
        "col4": "1936-3-25",
        "col5": "1863-8-30"
    }
]