[
    {
        "col0": "A. Ausserer",
        "col1": "Austria",
        "col2": "Austria",
        "col3": "1843-07-05",
        "col4": "1889-07-20",
        "col5": "1843-07-05"
    },
    {
        "col0": "Antoine Joseph Jean Solier",
        "col1": "Marseille",
        "col2": "Marseille",
        "col3": "1792-2-8",
        "col4": "1851-11-27",
        "col5": "1792-2-8"
    },
    {
        "col0": "A. V. Martynov",
        "col1": "Ryazan",
        "col2": "Moscow",
        "col3": "1879-8-21",
        "col4": "1938-1-29",
        "col5": "1879-8-21"
    },
    {
        "col0": "A. Bang-Haas",
        "col1": "Horsens",
        "col2": "Dresden",
        "col3": "1846-12-6",
        "col4": "1925-2-7",
        "col5": "1846-12-6"
    },
    {
        "col0": "Amedee Louis Michel le Peletier, comte de Saint-Fargeau",
        "col1": "Paris",
        "col2": "Saint-Germain-en-Laye",
        "col3": "1770-10-9",
        "col4": "1845-1-1",
        "col5": "1770-10-9"
    },
    {
        "col0": "A. F. Rogenhofer",
        "col1": "Vienna",
        "col2": "Vienna",
        "col3": "1831-12-22",
        "col4": "1897-1-15",
        "col5": "1831-12-22"
    },
    {
        "col0": "A. Mocsary",
        "col1": "Oradea",
        "col2": "Budapest",
        "col3": "1841-9-27",
        "col4": "1915-12-26",
        "col5": "1841-9-27"
    },
    {
        "col0": "A. Trotter",
        "col1": "Udine",
        "col2": "Vittorio Veneto",
        "col3": "1874-7-26",
        "col4": "1967-7-22",
        "col5": "1874-7-26"
    },
    {
        "col0": "A. Horion",
        "col1": "Juchen",
        "col2": "Uberlingen",
        "col3": "1888-7-12",
        "col4": "1988-1-1",
        "col5": "1888-7-12"
    },
    {
        "col0": "A. Guenee",
        "col1": "Chartres",
        "col2": "Chateaudun",
        "col3": "1809-1-1",
        "col4": "1880-12-30",
        "col5": "1809-1-1"
    },
    {
        "col0": "A. Deyrolle",
        "col1": "Lille",
        "col2": "Paris",
        "col3": "1813-1-1",
        "col4": "1865-1-1",
        "col5": "1813-1-1"
    },
    {
        "col0": "E. Mulsant",
        "col1": "Marnans",
        "col2": "Lyon",
        "col3": "1797-3-2",
        "col4": "1880-11-4",
        "col5": "1797-3-2"
    },
    {
        "col0": "E. Blanchard",
        "col1": "Paris",
        "col2": "France",
        "col3": "1819-03-06",
        "col4": "1900-02-11",
        "col5": "1819-03-06"
    },
    {
        "col0": "E. Lefevre",
        "col1": "Chartres",
        "col2": "Paris",
        "col3": "1839-1-1",
        "col4": "1894-1-1",
        "col5": "1839-1-1"
    },
    {
        "col0": "Angelo Moreira da Costa Lima",
        "col1": "Rio de Janeiro",
        "col2": "Rio de Janeiro",
        "col3": "1887-06-29",
        "col4": "1964-1-1",
        "col5": "1887-06-29"
    }
]