[
    {
        "col0": "The Ascent",
        "col1": "A. Kroeker",
        "col2": "Things Past",
        "col3": "D. Bell"
    },
    {
        "col0": "The Arsenal of Freedom",
        "col1": "L. Landau",
        "col2": "Heart of Glory",
        "col3": "D. McCarthy"
    },
    {
        "col0": "The Apple",
        "col1": "J. Pevney",
        "col2": "Mirror, Mirror",
        "col3": "G. Fried"
    },
    {
        "col0": "The Andorian Incident",
        "col1": "R. Dawson",
        "col2": "Terra Nova",
        "col3": "P. Baillargeon"
    },
    {
        "col0": "The Alternative Factor",
        "col1": "G. Oswald",
        "col2": "Errand of Mercy",
        "col3": "A. Courage"
    },
    {
        "col0": "The Alternate",
        "col1": "D. Carson",
        "col2": "Rivals",
        "col3": "D. McCarthy"
    },
    {
        "col0": "The After Hours",
        "col1": "D. Heyes",
        "col2": "Mr. Bevis",
        "col3": "B. Herrmann"
    },
    {
        "col0": "The Adversary",
        "col1": "A. Singer",
        "col2": "Facets",
        "col3": "J. Chattaway"
    },
    {
        "col0": "The Abandoned",
        "col1": "A. Brooks",
        "col2": "Second Skin",
        "col3": "J. Chattaway"
    },
    {
        "col0": "The 37's",
        "col1": "J. L. Conway",
        "col2": "Learning Curve",
        "col3": "D. McCarthy"
    },
    {
        "col0": "That Which Survives",
        "col1": "H. Wallerstein",
        "col2": "The Mark of Gideon",
        "col3": "F. Steiner"
    },
    {
        "col0": "Thanksgiving",
        "col1": "B. Buecker",
        "col2": "Dynamic Duets",
        "col3": "She'll Be Coming 'Round the Mountain"
    },
    {
        "col0": "Tested",
        "col1": "P. McCrane",
        "col2": "Bash",
        "col3": "L. W. Awhile"
    },
    {
        "col0": "Test of Strength",
        "col1": "A. Hemingway",
        "col2": "Bullseye",
        "col3": "Come as You Are"
    },
    {
        "col0": "Terra Prime",
        "col1": "M. V. Rush",
        "col2": "Demons",
        "col3": "J. Chattaway"
    },
    {
        "col0": "Terra Nova",
        "col1": "L. Burton",
        "col2": "Unexpected",
        "col3": "D. Bell"
    },
    {
        "col0": "Tentacles of Doom",
        "col1": "D. Lowney",
        "col2": "Think Fast, Father Ted",
        "col3": "T. D. Comedy"
    },
    {
        "col0": "Tech",
        "col1": "R. Dawson",
        "col2": "Publicity",
        "col3": "The 20th Century Fox Mambo"
    },
    {
        "col0": "Tears of the Prophets",
        "col1": "A. Kroeker",
        "col2": "The Sound of Her Voice",
        "col3": "J. Chattaway"
    },
    {
        "col0": "Tea Leaves",
        "col1": "J. Hamm",
        "col2": "A Little Kiss",
        "col3": "Sixteen Going on Seventeen"
    },
    {
        "col0": "Tattoo",
        "col1": "A. Singer",
        "col2": "Persistence of Vision",
        "col3": "D. McCarthy"
    },
    {
        "col0": "Tapestry",
        "col1": "L. Landau",
        "col2": "Face of the Enemy",
        "col3": "D. McCarthy"
    },
    {
        "col0": "Taming Strange",
        "col1": "T. Parker",
        "col2": "Goth Kids 3: Dawn of the Posers",
        "col3": "A. N. Long"
    },
    {
        "col0": "Take Me Out to the Holosuite",
        "col1": "C. Chalmers",
        "col2": "Afterimage",
        "col3": "D. Bell"
    },
    {
        "col0": "Tainted Obligation",
        "col1": "T. Verica",
        "col2": "I Always Feel Like Somebody's Watchin' Me",
        "col3": "K. Herzig"
    },
    {
        "col0": "Tacking into the Wind",
        "col1": "M. Vejar",
        "col2": "When It Rains...",
        "col3": "D. Bell"
    },
    {
        "col0": "Tabula Rasa",
        "col1": "J. Bender",
        "col2": "Pilot",
        "col3": "Leavin' on Your Mind"
    },
    {
        "col0": "Tabula Rasa",
        "col1": "D. Grossman",
        "col2": "Once More, with Feeling",
        "col3": "G. t. You"
    },
    {
        "col0": "TS-19",
        "col1": "G. Ferland",
        "col2": "Wildfire",
        "col3": "Tomorrow Is a Long Time"
    },
    {
        "col0": "Sweet Dreams",
        "col1": "E. Keene",
        "col2": "Shooting Star",
        "col3": "N. t. Me"
    },
    {
        "col0": "Swan Song",
        "col1": "B. Falchuk",
        "col2": "Thanksgiving",
        "col3": "H. Baby!"
    },
    {
        "col0": "Suspicions",
        "col1": "C. Bole",
        "col2": "Frame of Mind",
        "col3": "D. McCarthy"
    },
    {
        "col0": "Survival Instinct",
        "col1": "T. Windell",
        "col2": "Equinox",
        "col3": "D. McCarthy"
    },
    {
        "col0": "Sunset",
        "col1": "L. L. Glatter",
        "col2": "Gone, Gone, Gone",
        "col3": "Sunset"
    },
    {
        "col0": "Suddenly Human",
        "col1": "G. Beaumont",
        "col2": "Brothers",
        "col3": "D. McCarthy"
    },
    {
        "col0": "Sub Rosa",
        "col1": "J. Frakes",
        "col2": "Homeward",
        "col3": "J. Chattaway"
    },
    {
        "col0": "Stunning and Brave",
        "col1": "T. Parker",
        "col2": "HappyHolograms",
        "col3": "T. T. Club"
    },
    {
        "col0": "Stride of Pride",
        "col1": "M. Engler",
        "col2": "Governor Dunston",
        "col3": "J. Richmond"
    },
    {
        "col0": "Stratagem",
        "col1": "M. Vejar",
        "col2": "Proving Ground",
        "col3": "J. Chattaway"
    },
    {
        "col0": "Strange New World",
        "col1": "D. Livingston",
        "col2": "Fight or Flight",
        "col3": "D. McCarthy"
    },
    {
        "col0": "Strange Bedfellows",
        "col1": "R. Auberjonois",
        "col2": "'Til Death Do Us Part",
        "col3": "J. Chattaway"
    },
    {
        "col0": "Storm Front",
        "col1": "A. Kroeker",
        "col2": "Zero Hour",
        "col3": "J. Chattaway"
    },
    {
        "col0": "Still",
        "col1": "J. Ramsay",
        "col2": "Claimed",
        "col3": "T. M. Goats"
    },
    {
        "col0": "Stigma",
        "col1": "D. Livingston",
        "col2": "Dawn",
        "col3": "D. McCarthy"
    },
    {
        "col0": "Steel",
        "col1": "D. Weis",
        "col2": "In Praise of Pip",
        "col3": "N. V. Cleave"
    },
    {
        "col0": "Stealth",
        "col1": "G. Hoblit",
        "col2": "Yousaf",
        "col3": "N. Barr"
    },
    {
        "col0": "Statistical Probabilities",
        "col1": "A. Williams",
        "col2": "Resurrection",
        "col3": "D. Bell"
    },
    {
        "col0": "State of Flux",
        "col1": "R. Scheerer",
        "col2": "Prime Factors",
        "col3": "D. McCarthy"
    },
    {
        "col0": "Starship Mine",
        "col1": "C. Bole",
        "col2": "Birthright",
        "col3": "J. Chattaway"
    },
    {
        "col0": "Starship Down",
        "col1": "A. Singer",
        "col2": "Rejoined",
        "col3": "J. Chattaway"
    },
    {
        "col0": "Standards and Practices",
        "col1": "B. McCarthy-Miller",
        "col2": "Alexis Goodlooking and the Case of the Missing Whisky",
        "col3": "J. Richmond"
    },
    {
        "col0": "Standard Deviation",
        "col1": "L. Trilling",
        "col2": "Race to Space",
        "col3": "J. Mathis"
    },
    {
        "col0": "St. Patrick's Day",
        "col1": "J. Riggi",
        "col2": "Standards and Practices",
        "col3": "J. Richmond"
    },
    {
        "col0": "Spooky Little Girl",
        "col1": "J. S. Scott",
        "col2": "Rubber Man",
        "col3": "A. Shaw"
    },
    {
        "col0": "Spock's Brain",
        "col1": "M. Daniels",
        "col2": "Assignment: Earth",
        "col3": "F. Steiner"
    },
    {
        "col0": "Spirit Folk",
        "col1": "D. Livingston",
        "col2": "Collective",
        "col3": "J. Chattaway"
    },
    {
        "col0": "Spilt Milk",
        "col1": "A. Gomez-Rejon",
        "col2": "The Name Game",
        "col3": "P. Glass"
    },
    {
        "col0": "Spectre of the Gun",
        "col1": "V. McEveety",
        "col2": "Is There in Truth No Beauty?",
        "col3": "J. Fielding"
    },
    {
        "col0": "Special Education",
        "col1": "P. Barclay",
        "col2": "Furt",
        "col3": "(I've Had) The Time of My Life"
    },
    {
        "col0": "Space Seed",
        "col1": "M. Daniels",
        "col2": "The Return of the Archons",
        "col3": "A. Courage"
    },
    {
        "col0": "Sozin's Comet: The Final Battle",
        "col1": "G. Volpe",
        "col2": "Avatar: The Last Airbender",
        "col3": "J. Zuckerman"
    },
    {
        "col0": "Soprano Home Movies",
        "col1": "T. V. Patten",
        "col2": "Kaisha",
        "col3": "B. E. King"
    },
    {
        "col0": "Sons of the Harpy",
        "col1": "M. Mylod",
        "col2": "High Sparrow",
        "col3": "R. Djawadi"
    },
    {
        "col0": "Sons of Mogh",
        "col1": "D. Livingston",
        "col2": "Return to Grace",
        "col3": "D. Bell"
    },
    {
        "col0": "Sons and Daughters",
        "col1": "J. S. Trevino",
        "col2": "Rocks and Shoals",
        "col3": "J. Chattaway"
    },
    {
        "col0": "Someone to Watch Over Me",
        "col1": "R. D. McNeill",
        "col2": "Juggernaut",
        "col3": "D. McCarthy"
    },
    {
        "col0": "Somebody to Love",
        "col1": "B. McCarthy-Miller",
        "col2": "Greenzo",
        "col3": "J. Donaghy"
    },
    {
        "col0": "Some of the Things That Molecules Do",
        "col1": "B. Pope",
        "col2": "Standing Up in the Milky Way",
        "col3": "A. Silvestri"
    },
    {
        "col0": "Soldiers of the Empire",
        "col1": "L. Burton",
        "col2": "Ferengi Love Songs",
        "col3": "D. Bell"
    },
    {
        "col0": "Smug Alert!",
        "col1": "T. Parker",
        "col2": "The Return of Chef",
        "col3": "B. t. Beguine"
    },
    {
        "col0": "Smoldering Children",
        "col1": "M. Lehmann",
        "col2": "Spooky Little Girl",
        "col3": "T. Muses"
    },
    {
        "col0": "Sleeping Dogs",
        "col1": "L. Landau",
        "col2": "Dear Doctor",
        "col3": "D. McCarthy"
    },
    {
        "col0": "Slaughterhouse",
        "col1": "S. Mimica-Gezzan",
        "col2": "Durant, Nebraska",
        "col3": "G. Santaolalla"
    },
    {
        "col0": "Skin of Evil",
        "col1": "J. L. Scanlan",
        "col2": "Symbiosis",
        "col3": "R. Jones"
    },
    {
        "col0": "Sisters of the Sun",
        "col1": "B. Braga",
        "col2": "The Clean Room",
        "col3": "A. Silvestri"
    },
    {
        "col0": "Singularity",
        "col1": "P. Norris",
        "col2": "The Communicator",
        "col3": "D. Bell"
    },
    {
        "col0": "Similitude",
        "col1": "L. Burton",
        "col2": "North Star",
        "col3": "V. R. Bunch"
    },
    {
        "col0": "Silly Love Songs",
        "col1": "T. Donovan",
        "col2": "The Sue Sylvester Shuffle",
        "col3": "M. F. Valentine"
    },
    {
        "col0": "Silicon Avatar",
        "col1": "C. Bole",
        "col2": "Ensign Ro",
        "col3": "J. Chattaway"
    },
    {
        "col0": "Silent Enemy",
        "col1": "W. Kolbe",
        "col2": "Cold Front",
        "col3": "V. R. Bunch"
    },
    {
        "col0": "Signal 30",
        "col1": "J. Slattery",
        "col2": "Mystery Date",
        "col3": "S. N. 9"
    },
    {
        "col0": "Sick",
        "col1": "P. Jackson",
        "col2": "Time",
        "col3": "P. Brewis"
    },
    {
        "col0": "Shuttlepod One",
        "col1": "D. Livingston",
        "col2": "Shadows of P'Jem",
        "col3": "J. Chattaway"
    },
    {
        "col0": "Showmance",
        "col1": "R. Murphy",
        "col2": "Pilot",
        "col3": "L. Freak"
    },
    {
        "col0": "Shockwave",
        "col1": "A. Kroeker",
        "col2": "Two Days and Two Nights",
        "col3": "D. McCarthy"
    },
    {
        "col0": "Ship in a Bottle",
        "col1": "A. Singer",
        "col2": "Chain of Command",
        "col3": "D. McCarthy"
    },
    {
        "col0": "Shattered Mirror",
        "col1": "J. L. Conway",
        "col2": "Hard Time",
        "col3": "D. McCarthy"
    },
    {
        "col0": "Shattered",
        "col1": "T. Windell",
        "col2": "Flesh and Blood",
        "col3": "J. Chattaway"
    },
    {
        "col0": "Shadows of P'Jem",
        "col1": "M. Vejar",
        "col2": "Sleeping Dogs",
        "col3": "P. Baillargeon"
    },
    {
        "col0": "Shadows and Symbols",
        "col1": "A. Kroeker",
        "col2": "Image in the Sand",
        "col3": "D. McCarthy"
    },
    {
        "col0": "Shadowplay",
        "col1": "R. Scheerer",
        "col2": "Paradise",
        "col3": "J. Chattaway"
    },
    {
        "col0": "Shades of Gray",
        "col1": "R. Bowman",
        "col2": "Peak Performance",
        "col3": "R. Jones"
    },
    {
        "col0": "Sexy",
        "col1": "R. Murphy",
        "col2": "Blame It on the Alcohol",
        "col3": "Animal"
    },
    {
        "col0": "See",
        "col1": "S. Rogen",
        "col2": "Pilot",
        "col3": "D. Porter"
    },
    {
        "col0": "Sectionals",
        "col1": "B. Falchuk",
        "col2": "Mattress",
        "col3": "D. S. Believin'"
    },
    {
        "col0": "Second Sons",
        "col1": "M. MacLaren",
        "col2": "The Bear and the Maiden Fair",
        "col3": "R. Djawadi"
    },
    {
        "col0": "Second Skin",
        "col1": "L. Landau",
        "col2": "Equilibrium",
        "col3": "D. Bell"
    },
    {
        "col0": "Second Sight",
        "col1": "P. Hammond",
        "col2": "The Gilded Cage",
        "col3": "L. Johnson"
    },
    {
        "col0": "Second Sight",
        "col1": "A. Singer",
        "col2": "Necessary Evil",
        "col3": "D. McCarthy"
    },
    {
        "col0": "Second Chances",
        "col1": "L. Burton",
        "col2": "Rightful Heir",
        "col3": "D. McCarthy"
    },
    {
        "col0": "Scruffy",
        "col1": "C. A. Nichols",
        "col2": "The Trouble with Miss Switch",
        "col3": "D. Elliott"
    },
    {
        "col0": "Scorpion",
        "col1": "W. Kolbe",
        "col2": "Worst Case Scenario",
        "col3": "J. Chattaway"
    },
    {
        "col0": "Scientific Method",
        "col1": "D. Livingston",
        "col2": "The Raven",
        "col3": "J. Chattaway"
    },
    {
        "col0": "Schisms",
        "col1": "R. Wiemer",
        "col2": "Relics",
        "col3": "D. McCarthy"
    },
    {
        "col0": "Say My Name",
        "col1": "T. Schnauz",
        "col2": "Buyout",
        "col3": "D. Porter"
    },
    {
        "col0": "Say Hello to My Little Friend",
        "col1": "L. Innes",
        "col2": "Slack Water",
        "col3": "B. Rhapsody"
    },
    {
        "col0": "Save Yourself",
        "col1": "M. Lehmann",
        "col2": "Sunset",
        "col3": "S. Westward"
    },
    {
        "col0": "Sanctuary",
        "col1": "L. Landau",
        "col2": "Second Sight",
        "col3": "D. McCarthy"
    },
    {
        "col0": "Samaritan Snare",
        "col1": "L. Landau",
        "col2": "Q Who",
        "col3": "D. McCarthy"
    },
    {
        "col0": "Salang Pass",
        "col1": "K. Dowling",
        "col2": "Dimebag",
        "col3": "O. You"
    },
    {
        "col0": "Sacrifice of Angels",
        "col1": "A. Kroeker",
        "col2": "Favor the Bold",
        "col3": "D. Bell"
    },
    {
        "col0": "Sacred Ground",
        "col1": "R. D. McNeill",
        "col2": "Remember",
        "col3": "J. Chattaway"
    },
    {
        "col0": "S.O.S.",
        "col1": "E. Laneuville",
        "col2": "Dave",
        "col3": "O. Redding"
    },
    {
        "col0": "Run",
        "col1": "T. Verica",
        "col2": "Where the Sun Don't Shine",
        "col3": "Sunny"
    },
    {
        "col0": "Rumours",
        "col1": "T. Hunter",
        "col2": "Born This Way",
        "col3": "T. Chain"
    },
    {
        "col0": "Rules of Engagement",
        "col1": "L. Burton",
        "col2": "Accession",
        "col3": "J. Chattaway"
    },
    {
        "col0": "Rules of Acquisition",
        "col1": "D. Livingston",
        "col2": "Melora",
        "col3": "D. McCarthy"
    },
    {
        "col0": "Rogue Planet",
        "col1": "A. Kroeker",
        "col2": "Fusion",
        "col3": "P. Baillargeon"
    },
    {
        "col0": "Roger Ebert Should Lay Off the Fatty Foods",
        "col1": "T. Parker",
        "col2": "Chickenpox",
        "col3": "K. Loggins"
    },
    {
        "col0": "Rocks and Shoals",
        "col1": "M. Vejar",
        "col2": "A Time to Stand",
        "col3": "D. Bell"
    },
    {
        "col0": "Rock a Hula Ted",
        "col1": "D. Lowney",
        "col2": "The Plague",
        "col3": "T. D. Comedy"
    },
    {
        "col0": "Rivals",
        "col1": "D. Livingston",
        "col2": "Sanctuary",
        "col3": "J. Chattaway"
    },
    {
        "col0": "Rise",
        "col1": "R. Scheerer",
        "col2": "Darkling",
        "col3": "J. Chattaway"
    },
    {
        "col0": "Rightful Heir",
        "col1": "W. Kolbe",
        "col2": "Suspicions",
        "col3": "J. Chattaway"
    },
    {
        "col0": "Riddles",
        "col1": "R. Dawson",
        "col2": "Alice",
        "col3": "J. Chattaway"
    },
    {
        "col0": "Revulsion",
        "col1": "K. Biller",
        "col2": "Nemesis",
        "col3": "D. Bell"
    },
    {
        "col0": "Reunion",
        "col1": "J. Frakes",
        "col2": "Legacy",
        "col3": "R. Jones"
    },
    {
        "col0": "Return to Tomorrow",
        "col1": "R. Senensky",
        "col2": "A Private Little War",
        "col3": "G. Duning"
    },
    {
        "col0": "Retrospect",
        "col1": "J. S. Trevino",
        "col2": "Prey",
        "col3": "J. Chattaway"
    },
    {
        "col0": "Resurrection",
        "col1": "L. Burton",
        "col2": "You are Cordially Invited...",
        "col3": "J. Chattaway"
    },
    {
        "col0": "Resolutions",
        "col1": "A. Singer",
        "col2": "Tuvix",
        "col3": "D. McCarthy"
    },
    {
        "col0": "Resistance",
        "col1": "W. Kolbe",
        "col2": "Maneuvers",
        "col3": "D. McCarthy"
    },
    {
        "col0": "Requiem for Methuselah",
        "col1": "M. Golden",
        "col2": "The Lights of Zetar",
        "col3": "F. Steiner"
    },
    {
        "col0": "Repression",
        "col1": "W. Kolbe",
        "col2": "Drive",
        "col3": "J. Chattaway"
    },
    {
        "col0": "Repentance",
        "col1": "M. Vejar",
        "col2": "Lineage",
        "col3": "P. Baillargeon"
    },
    {
        "col0": "Renaissance Man",
        "col1": "M. Vejar",
        "col2": "Homestead",
        "col3": "D. McCarthy"
    },
    {
        "col0": "Remember Me",
        "col1": "C. Bole",
        "col2": "Suddenly Human",
        "col3": "J. Chattaway"
    },
    {
        "col0": "Remember",
        "col1": "W. Kolbe",
        "col2": "False Profits",
        "col3": "D. Bell"
    },
    {
        "col0": "Relics",
        "col1": "A. Singer",
        "col2": "Man of the People",
        "col3": "J. Chattaway"
    },
    {
        "col0": "Relativity",
        "col1": "A. Eastman",
        "col2": "11:59",
        "col3": "D. McCarthy"
    },
    {
        "col0": "Rejoined",
        "col1": "A. Brooks",
        "col2": "Indiscretion",
        "col3": "J. Chattaway"
    },
    {
        "col0": "Regeneration",
        "col1": "D. Livingston",
        "col2": "Cogenitor",
        "col3": "B. Tyler"
    },
    {
        "col0": "Realm of Fear",
        "col1": "C. Bole",
        "col2": "Time's Arrow",
        "col3": "J. Chattaway"
    },
    {
        "col0": "Real Life",
        "col1": "A. Williams",
        "col2": "Before and After",
        "col3": "D. McCarthy"
    },
    {
        "col0": "Range War",
        "col1": "D. Gordon",
        "col2": "Eminent Domain",
        "col3": "G. Santaolalla"
    },
    {
        "col0": "Randy, Red, Superfreak and Julia",
        "col1": "T. Verica",
        "col2": "The Price of Free and Fair Election",
        "col3": "Sunny"
    },
    {
        "col0": "Raisins",
        "col1": "T. Parker",
        "col2": "Butt Out",
        "col3": "Don't Know What You Got"
    },
    {
        "col0": "Queen of Jordan 2: Mystery of the Phantom Pooper",
        "col1": "K. Whittingham",
        "col2": "Live from Studio 6H",
        "col3": "J. Richmond"
    },
    {
        "col0": "Qpid",
        "col1": "C. Bole",
        "col2": "The Nth Degree",
        "col3": "D. McCarthy"
    },
    {
        "col0": "Q Who",
        "col1": "R. Bowman",
        "col2": "Pen Pals",
        "col3": "R. Jones"
    },
    {
        "col0": "Q2",
        "col1": "L. Burton",
        "col2": "Human Error",
        "col3": "P. Baillargeon"
    },
    {
        "col0": "Puppet Master",
        "col1": "P. McCrane",
        "col2": "Movin' Out",
        "col3": "I. t. Groove"
    },
    {
        "col0": "Publicity",
        "col1": "M. Mayer",
        "col2": "The Movie Star",
        "col3": "Run"
    },
    {
        "col0": "Public Relations",
        "col1": "P. Abraham",
        "col2": "Shut the Door. Have a Seat.",
        "col3": "T. N. Teens"
    },
    {
        "col0": "Props",
        "col1": "I. Brennan",
        "col2": "Prom-asaurus",
        "col3": "Flashdance... What a Feeling"
    },
    {
        "col0": "Prophet Motive",
        "col1": "R. Auberjonois",
        "col2": "Destiny",
        "col3": "D. McCarthy"
    },
    {
        "col0": "Prom Queen",
        "col1": "E. Stoltz",
        "col2": "Rumours",
        "col3": "D. Queen"
    },
    {
        "col0": "Prom-asaurus",
        "col1": "E. Stoltz",
        "col2": "Choke",
        "col3": "Love You Like a Love Song"
    },
    {
        "col0": "Projections",
        "col1": "J. Frakes",
        "col2": "Initiations",
        "col3": "D. Bell"
    },
    {
        "col0": "Printer's Devil",
        "col1": "R. Senensky",
        "col2": "Miniature",
        "col3": "The Big Tall Wish"
    },
    {
        "col0": "Pride, Pomp and Circumstance",
        "col1": "M. Slovis",
        "col2": "Bread and Circuses",
        "col3": "D. Tick"
    },
    {
        "col0": "Previously Unaired Christmas",
        "col1": "W. Stanzler",
        "col2": "Puppet Master",
        "col3": "Mary's Boy Child - Oh My Lord"
    },
    {
        "col0": "Previews",
        "col1": "R. D. McNeill",
        "col2": "Tech",
        "col3": "S. Song"
    },
    {
        "col0": "Prehistoric Ice Man",
        "col1": "E. Stough",
        "col2": "Gnomes",
        "col3": "A. o. Base"
    },
    {
        "col0": "Preggers",
        "col1": "B. Falchuk",
        "col2": "Acafellas",
        "col3": "Tonight"
    },
    {
        "col0": "Preemptive Strike",
        "col1": "P. Stewart",
        "col2": "Emergence",
        "col3": "J. Chattaway"
    },
    {
        "col0": "Precious Cargo",
        "col1": "D. Livingston",
        "col2": "Vanishing Point",
        "col3": "P. Baillargeon"
    },
    {
        "col0": "Pot o' Gold",
        "col1": "A. Shankman",
        "col2": "Asian F",
        "col3": "L. F. Night"
    },
    {
        "col0": "Post Mortem",
        "col1": "P. Weller",
        "col2": "The C-Word",
        "col3": "K. Edwards"
    },
    {
        "col0": "Pool Hall Blues",
        "col1": "J. Napolitano",
        "col2": "Good Night, Dear Heart",
        "col3": "M. Post"
    },
    {
        "col0": "Polar Bears",
        "col1": "P. Draper",
        "col2": "County Fair Concert Special",
        "col3": "N. Wolff"
    },
    {
        "col0": "Plato's Stepchildren",
        "col1": "D. Alexander",
        "col2": "The Tholian Web",
        "col3": "A. Courage"
    },
    {
        "col0": "Pink Cupcakes",
        "col1": "M. Uppendahl",
        "col2": "Edward Mordrake",
        "col3": "G. Antheil"
    },
    {
        "col0": "Pilot/Chapter Two",
        "col1": "D. Straiton",
        "col2": "The Firm",
        "col3": "T. Morris"
    },
    {
        "col0": "Persistence of Vision",
        "col1": "J. L. Conway",
        "col2": "Parturition",
        "col3": "D. Bell"
    },
    {
        "col0": "Perchance to Dream",
        "col1": "R. Florey",
        "col2": "Time Enough at Last",
        "col3": "N. V. Cleave"
    },
    {
        "col0": "Pen Pals",
        "col1": "W. Kolbe",
        "col2": "The Icarus Factor",
        "col3": "D. McCarthy"
    },
    {
        "col0": "Peak Performance",
        "col1": "R. Scheerer",
        "col2": "The Emissary",
        "col3": "D. McCarthy"
    },
    {
        "col0": "Patterns of Force",
        "col1": "V. McEveety",
        "col2": "Return to Tomorrow",
        "col3": "G. Duning"
    },
    {
        "col0": "Past Tense",
        "col1": "J. Frakes",
        "col2": "Fascination",
        "col3": "D. Bell"
    },
    {
        "col0": "Parturition",
        "col1": "J. Frakes",
        "col2": "Twisted",
        "col3": "D. McCarthy"
    },
    {
        "col0": "Ozymandias",
        "col1": "R. Johnson",
        "col2": "To'hajiilee",
        "col3": "T. Limeliters"
    }
]