[
    {
        "col0": "Jess-Belle",
        "col1": "B. Kulik",
        "col2": "Death Ship",
        "col3": "N. V. Cleave"
    },
    {
        "col0": "Jamais Je Ne T'oublierai",
        "col1": "A. Zakrzewski",
        "col2": "A New Birth of Freedom",
        "col3": "G. Welch"
    },
    {
        "col0": "Jagged Little Tapestry",
        "col1": "P. McCrane",
        "col2": "Homecoming",
        "col3": "You've Got a Friend"
    },
    {
        "col0": "Is There in Truth No Beauty?",
        "col1": "R. Senensky",
        "col2": "And the Children Shall Lead",
        "col3": "G. Duning"
    },
    {
        "col0": "Investigations",
        "col1": "L. Landau",
        "col2": "Lifesigns",
        "col3": "J. Chattaway"
    },
    {
        "col0": "Invasive Procedures",
        "col1": "L. Landau",
        "col2": "The Siege",
        "col3": "D. McCarthy"
    },
    {
        "col0": "Invasion",
        "col1": "T. Phelan",
        "col2": "Tainted Obligation",
        "col3": "Y. Ghost"
    },
    {
        "col0": "Into Harmony's Way",
        "col1": "B. Iles",
        "col2": "Life of Brian",
        "col3": "P. Floyd"
    },
    {
        "col0": "Interface",
        "col1": "R. Wiemer",
        "col2": "Liaisons",
        "col3": "J. Chattaway"
    },
    {
        "col0": "Initiations",
        "col1": "W. Kolbe",
        "col2": "The 37's",
        "col3": "D. McCarthy"
    },
    {
        "col0": "Inheritance",
        "col1": "R. Scheerer",
        "col2": "Force of Nature",
        "col3": "J. Chattaway"
    },
    {
        "col0": "Indifference",
        "col1": "T. Brock",
        "col2": "Isolation",
        "col3": "S. V. Etten"
    },
    {
        "col0": "In the Hands of the Prophets",
        "col1": "D. Livingston",
        "col2": "Duet",
        "col3": "D. McCarthy"
    },
    {
        "col0": "In a Mirror, Darkly",
        "col1": "M. V. Rush",
        "col2": "Bound",
        "col3": "D. McCarthy"
    },
    {
        "col0": "In Praise of Pip",
        "col1": "J. M. Newman",
        "col2": "The Bard",
        "col3": "L. Gluskin"
    },
    {
        "col0": "In Control",
        "col1": "J. d. Segonzac",
        "col2": "Gregory",
        "col3": "Echo & the Bunnymen"
    },
    {
        "col0": "Improbable Cause",
        "col1": "A. Brooks",
        "col2": "Through the Looking Glass",
        "col3": "D. Bell"
    },
    {
        "col0": "If Wishes Were Horses",
        "col1": "R. Legato",
        "col2": "Progress",
        "col3": "J. Chattaway"
    },
    {
        "col0": "Idiots Are People Two!",
        "col1": "B. McCarthy-Miller",
        "col2": "Dance Like Nobody's Watching",
        "col3": "J. Richmond"
    },
    {
        "col0": "Idiots Are People Three!",
        "col1": "B. McCarthy-Miller",
        "col2": "Idiots Are People Two!",
        "col3": "J. Richmond"
    },
    {
        "col0": "I Shot an Arrow into the Air",
        "col1": "S. Rosenberg",
        "col2": "Third from the Sun",
        "col3": "And When the Sky Was Opened"
    },
    {
        "col0": "I Kissed a Girl",
        "col1": "T. Donovan",
        "col2": "Mash Off",
        "col3": "Jolene"
    },
    {
        "col0": "I Dream of Genie",
        "col1": "R. Gist",
        "col2": "The Parallel",
        "col3": "F. Steiner"
    },
    {
        "col0": "I Do",
        "col1": "T. Gates",
        "col2": "The Cost of Living",
        "col3": "Ann-Margret"
    },
    {
        "col0": "I Do",
        "col1": "B. Falchuk",
        "col2": "Diva",
        "col3": "W. G. Tonight"
    },
    {
        "col0": "I Am the Night--Color Me Black",
        "col1": "A. Biberman",
        "col2": "The Masks",
        "col3": "W. I. Everybody?"
    },
    {
        "col0": "I Am a Tree",
        "col1": "J. Melman",
        "col2": "Time Has Come Today",
        "col3": "M. Kearney"
    },
    {
        "col0": "I Am Unicorn",
        "col1": "B. Falchuk",
        "col2": "The Purple Piano Project",
        "col3": "Somewhere"
    },
    {
        "col0": "I Am Anne Frank",
        "col1": "A. Gomez-Rejon",
        "col2": "Nor'easter",
        "col3": "T. Weavers"
    },
    {
        "col0": "I Always Feel Like Somebody's Watchin' Me",
        "col1": "M. Pressman",
        "col2": "Goodbye",
        "col3": "Elephants...Teeth Sinking into Heart"
    },
    {
        "col0": "IParty with Victorious",
        "col1": "S. Hoefer",
        "col2": "ICarly",
        "col3": "ICarly"
    },
    {
        "col0": "Human",
        "col1": "R. C. Cooper",
        "col2": "Faith",
        "col3": "T. Jam"
    },
    {
        "col0": "How to Save a Life",
        "col1": "R. Hardy",
        "col2": "One Flight Down",
        "col3": "C. Cars"
    },
    {
        "col0": "House of the Rising Sun",
        "col1": "M. Zinberg",
        "col2": "White Rabbit",
        "col3": "W. Nelson"
    },
    {
        "col0": "Hope and Fear",
        "col1": "W. Kolbe",
        "col2": "One",
        "col3": "D. McCarthy"
    },
    {
        "col0": "Hooked on Monkey Fonics",
        "col1": "T. Parker",
        "col2": "Chinpokomon",
        "col3": "H. Diver"
    },
    {
        "col0": "Homecoming Out",
        "col1": "J. Travis",
        "col2": "Pilot",
        "col3": "Tennis"
    },
    {
        "col0": "Home Soil",
        "col1": "C. Allen",
        "col2": "When the Bough Breaks",
        "col3": "D. McCarthy"
    },
    {
        "col0": "Home Invasion",
        "col1": "A. Gomez-Rejon",
        "col2": "Pilot",
        "col3": "Aquarius/Let the Sunshine In"
    },
    {
        "col0": "Home",
        "col1": "P. Barclay",
        "col2": "The Power of Madonna",
        "col3": "One Less Bell to Answer"
    },
    {
        "col0": "Home",
        "col1": "J. Podeswa",
        "col2": "The Red Woman",
        "col3": "R. Djawadi"
    },
    {
        "col0": "Hogcock!",
        "col1": "B. McCarthy-Miller",
        "col2": "A Goon's Deed in a Weary World",
        "col3": "J. Richmond"
    },
    {
        "col0": "Hocus-Pocus and Frisby",
        "col1": "L. Johnson",
        "col2": "Four O'Clock",
        "col3": "T. Morgan"
    },
    {
        "col0": "His Last Vow",
        "col1": "N. Hurran",
        "col2": "The Sign of Three",
        "col3": "D. Arnold"
    },
    {
        "col0": "Hippocratic Oath",
        "col1": "R. Auberjonois",
        "col2": "The Visitor",
        "col3": "J. Chattaway"
    },
    {
        "col0": "High Sparrow",
        "col1": "M. Mylod",
        "col2": "The House of Black and White",
        "col3": "R. Djawadi"
    },
    {
        "col0": "Hiding in the Light",
        "col1": "B. Pope",
        "col2": "A Sky Full of Ghosts",
        "col3": "A. Silvestri"
    },
    {
        "col0": "Hide and Q",
        "col1": "C. Bole",
        "col2": "The Battle",
        "col3": "D. McCarthy"
    },
    {
        "col0": "Hey, Baby, What's Wrong",
        "col1": "M. Engler",
        "col2": "Today You Are a Man",
        "col3": "J. Richmond"
    },
    {
        "col0": "Hero Worship",
        "col1": "P. Stewart",
        "col2": "New Ground",
        "col3": "J. Chattaway"
    },
    {
        "col0": "Hell on Earth",
        "col1": "P. McGuigan",
        "col2": "The Coup",
        "col3": "Cheers"
    },
    {
        "col0": "Hell",
        "col1": "D. Lowney",
        "col2": "Grant Unto Him Eternal Rest",
        "col3": "T. D. Comedy"
    },
    {
        "col0": "Hell-O",
        "col1": "B. Falchuk",
        "col2": "Sectionals",
        "col3": "H. Goodbye"
    },
    {
        "col0": "Heart of Stone",
        "col1": "A. Singer",
        "col2": "Life Support",
        "col3": "D. Bell"
    },
    {
        "col0": "Heart of Glory",
        "col1": "R. Bowman",
        "col2": "Coming of Age",
        "col3": "R. Jones"
    },
    {
        "col0": "Heart",
        "col1": "B. Falchuk",
        "col2": "The Spanish Teacher",
        "col3": "I Will Always Love You"
    },
    {
        "col0": "Heads Will Roll",
        "col1": "J. Bender",
        "col2": "Curtains",
        "col3": "T. Acid"
    },
    {
        "col0": "Head",
        "col1": "H. Deutch",
        "col2": "The Sacred Taking",
        "col3": "Keyboard suite in D minor"
    },
    {
        "col0": "Hazard Pay",
        "col1": "A. Bernstein",
        "col2": "Madrigal",
        "col3": "On a Clear Day You Can See Forever"
    },
    {
        "col0": "Haven",
        "col1": "R. Compton",
        "col2": "Hide and Q",
        "col3": "D. McCarthy"
    },
    {
        "col0": "Hard Time",
        "col1": "A. Singer",
        "col2": "Rules of Engagement",
        "col3": "D. McCarthy"
    },
    {
        "col0": "Hairography",
        "col1": "B. D'Elia",
        "col2": "Ballad",
        "col3": "Imagine"
    },
    {
        "col0": "Guitar Queer-O",
        "col1": "T. Parker",
        "col2": "Imaginationland Episode III",
        "col3": "Buckethead"
    },
    {
        "col0": "Guilty Pleasures",
        "col1": "E. Stoltz",
        "col2": "Feud",
        "col3": "M. Mia"
    },
    {
        "col0": "Grilled Cheesus",
        "col1": "A. Gomez-Rejon",
        "col2": "Britney/Brittany",
        "col3": "I Want to Hold Your Hand"
    },
    {
        "col0": "Gregory",
        "col1": "T. Schlamme",
        "col2": "The Clock",
        "col3": "R. Music"
    },
    {
        "col0": "Gravity",
        "col1": "T. Windell",
        "col2": "Bride of Chaotica!",
        "col3": "D. McCarthy"
    },
    {
        "col0": "Grave",
        "col1": "J. A. Contner",
        "col2": "Two to Go",
        "col3": "Make Me an Instrument of Your Peace"
    },
    {
        "col0": "Grant Unto Him Eternal Rest",
        "col1": "D. Lowney",
        "col2": "And God Created Woman",
        "col3": "T. D. Comedy"
    },
    {
        "col0": "Granite State",
        "col1": "P. Gould",
        "col2": "Ozymandias",
        "col3": "A. Wine"
    },
    {
        "col0": "Grandmentor",
        "col1": "B. McCarthy-Miller",
        "col2": "St. Patrick's Day",
        "col3": "J. Richmond"
    },
    {
        "col0": "Governor Dunston",
        "col1": "R. Carlock",
        "col2": "The Beginning of the End",
        "col3": "J. Richmond"
    },
    {
        "col0": "Goodbye",
        "col1": "B. D'Elia",
        "col2": "Good Mourning",
        "col3": "K. Herzig"
    },
    {
        "col0": "Goodbye",
        "col1": "B. Falchuk",
        "col2": "Nationals",
        "col3": "G. Days"
    },
    {
        "col0": "Gluten Free Ebola",
        "col1": "T. Parker",
        "col2": "Go Fund Yourself",
        "col3": "Get the Party Started"
    },
    {
        "col0": "Gliding Over All",
        "col1": "M. MacLaren",
        "col2": "Say My Name",
        "col3": "N. K. Cole"
    },
    {
        "col0": "Glee, Actually",
        "col1": "A. Shankman",
        "col2": "Swan Song",
        "col3": "W. Christmas"
    },
    {
        "col0": "Glease",
        "col1": "M. Uppendahl",
        "col2": "The Role You Were Born to Play",
        "col3": "You're the One That I Want"
    },
    {
        "col0": "Gladiators Don't Run",
        "col1": "R. Zisk",
        "col2": "Where's the Black Lady?",
        "col3": "Think"
    },
    {
        "col0": "Give Peace a Chance",
        "col1": "C. Wilson",
        "col2": "I Saw What I Saw",
        "col3": "T. Suns"
    },
    {
        "col0": "Girls",
        "col1": "I. Brennan",
        "col2": "I Do",
        "col3": "Shout"
    },
    {
        "col0": "Ginger Cow",
        "col1": "T. Parker",
        "col2": "Taming Strange",
        "col3": "V. Halen"
    },
    {
        "col0": "Ghosts of the Past",
        "col1": "E. Bianchi",
        "col2": "Ogi Jun",
        "col3": "L. Branigan"
    },
    {
        "col0": "Garden of Bones",
        "col1": "D. Petrarca",
        "col2": "What Is Dead May Never Die",
        "col3": "R. Djawadi"
    },
    {
        "col0": "Game Over",
        "col1": "K. Whittingham",
        "col2": "My Whole Life Is Thunder",
        "col3": "J. Richmond"
    },
    {
        "col0": "G.G.",
        "col1": "M. Piznarski",
        "col2": "Father and the Bride",
        "col3": "Diamonds Are a Girl's Best Friend"
    },
    {
        "col0": "Future Imperfect",
        "col1": "L. Landau",
        "col2": "Reunion",
        "col3": "D. McCarthy"
    },
    {
        "col0": "Future's End",
        "col1": "C. Bole",
        "col2": "Sacred Ground",
        "col3": "J. Chattaway"
    },
    {
        "col0": "Further Instructions",
        "col1": "S. Williams",
        "col2": "The Glass Ballerina",
        "col3": "M. Waters"
    },
    {
        "col0": "Funk",
        "col1": "E. Keene",
        "col2": "Theatricality",
        "col3": "Another One Bites the Dust"
    },
    {
        "col0": "From Agnes--With Love",
        "col1": "R. Donner",
        "col2": "Night Call",
        "col3": "N. V. Cleave"
    },
    {
        "col0": "Friends of Peter G.",
        "col1": "J. Holmquist",
        "col2": "And I'm Joyce Kinney",
        "col3": "S. Cahn"
    },
    {
        "col0": "Friday's Child",
        "col1": "J. Pevney",
        "col2": "Journey to Babel",
        "col3": "G. Fried"
    },
    {
        "col0": "Forget-Me-Not",
        "col1": "B. Iles",
        "col2": "Killer Queen",
        "col3": "S. Bird"
    },
    {
        "col0": "Force Majeure",
        "col1": "P. Leto",
        "col2": "Infestation",
        "col3": "Who'll Stop the Rain"
    },
    {
        "col0": "Fly",
        "col1": "R. Johnson",
        "col2": "Kafkaesque",
        "col3": "D. Porter"
    },
    {
        "col0": "Flu Shot",
        "col1": "D. Scardino",
        "col2": "Senor Macho Solo",
        "col3": "M. Buble"
    },
    {
        "col0": "Flashes Before Your Eyes",
        "col1": "J. Bender",
        "col2": "Not in Portland",
        "col3": "S. McLachlan"
    },
    {
        "col0": "Flashback",
        "col1": "D. Livingston",
        "col2": "Basics",
        "col3": "D. Bell"
    },
    {
        "col0": "Five Characters in Search of an Exit",
        "col1": "L. Johnson",
        "col2": "Once Upon a Time",
        "col3": "A Hundred Yards Over the Rim"
    },
    {
        "col0": "First of His Name",
        "col1": "M. MacLaren",
        "col2": "Oathkeeper",
        "col3": "R. Djawadi"
    },
    {
        "col0": "Fire and Blood",
        "col1": "A. Taylor",
        "col2": "Baelor",
        "col3": "R. Djawadi"
    },
    {
        "col0": "Fire + Water",
        "col1": "J. Bender",
        "col2": "The Hunting Party",
        "col3": "P. L. Mambo"
    },
    {
        "col0": "Fight or Flight",
        "col1": "A. Kroeker",
        "col2": "Broken Bow",
        "col3": "J. Chattaway"
    },
    {
        "col0": "Fifty-One",
        "col1": "R. Johnson",
        "col2": "Hazard Pay",
        "col3": "K. Party"
    },
    {
        "col0": "Felina",
        "col1": "V. Gilligan",
        "col2": "Granite State",
        "col3": "B. Blue"
    },
    {
        "col0": "Fearful Pranks Ensue",
        "col1": "M. Uppendahl",
        "col2": "The Replacements",
        "col3": "P. Mali"
    },
    {
        "col0": "Favor the Bold",
        "col1": "W. Kolbe",
        "col2": "Behind the Lines",
        "col3": "J. Chattaway"
    },
    {
        "col0": "Fascination",
        "col1": "A. Brooks",
        "col2": "Defiant",
        "col3": "D. McCarthy"
    },
    {
        "col0": "Far Beyond the Stars",
        "col1": "A. Brooks",
        "col2": "Who Mourns for Morn?",
        "col3": "D. McCarthy"
    },
    {
        "col0": "Far Away Places",
        "col1": "S. Hornbacher",
        "col2": "Signal 30",
        "col3": "I Just Wasn't Made for These Times"
    }
]