[
    {
        "col0": "S. McIntyre",
        "col1": "Cork",
        "col2": "Kenmare",
        "col3": "1971-1-1"
    },
    {
        "col0": "R. Johansson",
        "col1": "Stockholm",
        "col2": "Stockholm",
        "col3": "1920-08-23"
    },
    {
        "col0": "P. Barry",
        "col1": "Shelbourne Road",
        "col2": "Bruff",
        "col3": "1895-1-1"
    },
    {
        "col0": "M. Tapavica",
        "col1": "Croatia",
        "col2": "Austria-Hungary",
        "col3": "1872-10-14"
    },
    {
        "col0": "M. Byrne",
        "col1": "Dublin",
        "col2": "Dublin",
        "col3": "1923-9-2"
    },
    {
        "col0": "K. Heffernan",
        "col1": "Dublin",
        "col2": "Dublin",
        "col3": "1929-8-20"
    },
    {
        "col0": "J. Ryan",
        "col1": "Killimordaly",
        "col2": "Killimordaly",
        "col3": "1958-4-1"
    },
    {
        "col0": "J. McNaughton",
        "col1": "Cushendall",
        "col2": "Cushendall",
        "col3": "1963-0-0"
    },
    {
        "col0": "G. Hughes",
        "col1": "Lorrha",
        "col2": "Cloghan, County Offaly",
        "col3": "1939-11-17"
    },
    {
        "col0": "F. White",
        "col1": "Dublin",
        "col2": "Raharney",
        "col3": "1913-1-1"
    },
    {
        "col0": "F. Nelson",
        "col1": "Panama",
        "col2": "Canada",
        "col3": "1859-0-0"
    }
]