[
    {
        "Actress": "Actress",
        "Film": "Film",
        "Result": "Result"
    },
    {
        "Actress": "Zhou Xun",
        "Film": "The Great Magician",
        "Result": "Nominated"
    },
    {
        "Actress": "Miriam Yeung",
        "Film": "Love in the Buff",
        "Result": "Won"
    },
    {
        "Actress": "Sammi Cheng",
        "Film": "Romancing in Thin Air",
        "Result": "Nominated"
    },
    {
        "Actress": "Zhou Xun",
        "Film": "The Silent War",
        "Result": "Nominated"
    },
    {
        "Actress": "Elanne Kong",
        "Film": "Love Lifting",
        "Result": "Nominated"
    }
]