[
    {
        "col0": "J. Stanowicz",
        "col1": "Orange, California",
        "col2": "1999-09-21",
        "col3": "1921-11-04"
    },
    {
        "col0": "J. Sparma",
        "col1": "Columbus, Ohio",
        "col2": "1986-05-14",
        "col3": "1942-02-04"
    },
    {
        "col0": "J. Skladany",
        "col1": "Pittsburgh, Pennsylvania",
        "col2": "1972-08-09",
        "col3": "1911-05-25"
    },
    {
        "col0": "J. Secord",
        "col1": "Green Bay, Wisconsin",
        "col2": "1970-08-21",
        "col3": "1897-08-22"
    },
    {
        "col0": "J. Scott",
        "col1": "Athens, Texas",
        "col2": "2016-06-30",
        "col3": "1926-03-17"
    },
    {
        "col0": "J. Scibelli",
        "col1": "Boston, Massachusetts",
        "col2": "1991-12-11",
        "col3": "1939-04-19"
    },
    {
        "col0": "J. Ruetz",
        "col1": "Stanford, California",
        "col2": "2003-01-02",
        "col3": "1916-10-21"
    },
    {
        "col0": "J. Routt",
        "col1": "Belgium",
        "col2": "1944-12-10",
        "col3": "1914-10-18"
    },
    {
        "col0": "J. Pikula",
        "col1": "Brantford",
        "col2": "2015-04-29",
        "col3": "1944-05-05"
    },
    {
        "col0": "J. Perry",
        "col1": "Chandler, Arizona",
        "col2": "2011-4-25",
        "col3": "1927-1-22"
    },
    {
        "col0": "J. Palumbo",
        "col1": "Charlottesville, Virginia",
        "col2": "2013-12-05",
        "col3": "1929-08-01"
    },
    {
        "col0": "J. Osmanski",
        "col1": "Chicago",
        "col2": "1993-07-24",
        "col3": "1917-12-26"
    },
    {
        "col0": "J. O'Malley",
        "col1": "Montgomery, Alabama",
        "col2": "2015-03-20",
        "col3": "1932-01-01"
    },
    {
        "col0": "J. Murphy",
        "col1": "Manchester, New Hampshire",
        "col2": "1940-05-22",
        "col3": "1897-05-15"
    },
    {
        "col0": "J. Muha",
        "col1": "Hemet, California",
        "col2": "1993-04-01",
        "col3": "1921-04-28"
    },
    {
        "col0": "J. Morrison",
        "col1": "Columbia, South Carolina",
        "col2": "1989-02-05",
        "col3": "1937-08-21"
    },
    {
        "col0": "J. Mobra",
        "col1": "Tulsa, Oklahoma",
        "col2": "1981-03-08",
        "col3": "1933-01-06"
    },
    {
        "col0": "J. McGlone",
        "col1": "New York, New York",
        "col2": "1963-01-25",
        "col3": "1896-09-12"
    },
    {
        "col0": "J. Marhefka",
        "col1": "United States",
        "col2": "2003-06-30",
        "col3": "1902-02-16"
    },
    {
        "col0": "J. Margucci",
        "col1": "Encino, Los Angeles",
        "col2": "1996-04-27",
        "col3": "1921-09-05"
    },
    {
        "col0": "J. L. Twig",
        "col1": "Ohio",
        "col2": "1939-03-06",
        "col3": "1897-5-12"
    },
    {
        "col0": "J. Lintzenich",
        "col1": "Creve Coeur, Missouri",
        "col2": "1985-06-23",
        "col3": "1908-03-26"
    },
    {
        "col0": "J. Laws",
        "col1": "Green Bay, Wisconsin",
        "col2": "1979-08-22",
        "col3": "1911-06-16"
    },
    {
        "col0": "J. Lamas",
        "col1": "Manhasset, New York",
        "col2": "1996-04-22",
        "col3": "1916-01-10"
    },
    {
        "col0": "J. Kulbacki",
        "col1": "Buffalo, New York",
        "col2": "2012-11-26",
        "col3": "1938-03-01"
    },
    {
        "col0": "J. Krupa",
        "col1": "Chicago, Illinois",
        "col2": "2011-09-13",
        "col3": "1933-07-06"
    },
    {
        "col0": "J. Krol",
        "col1": "Toronto",
        "col2": "2008-12-16",
        "col3": "1919-02-20"
    },
    {
        "col0": "J. Kopcha",
        "col1": "Hobart, Indiana",
        "col2": "1986-07-29",
        "col3": "1905-12-23"
    },
    {
        "col0": "J. Kendall",
        "col1": "Owensboro, Kentucky",
        "col2": "1965-11-25",
        "col3": "1909-10-02"
    },
    {
        "col0": "J. Johnson",
        "col1": "Las Vegas, Nevada",
        "col2": "2003-11-01",
        "col3": "1929-11-03"
    },
    {
        "col0": "J. Hollingsworth",
        "col1": "Lynch, Kentucky",
        "col2": "1975-08-18",
        "col3": "1925-06-20"
    },
    {
        "col0": "J. Hergert",
        "col1": "Daytona Beach, Florida",
        "col2": "2016-01-16",
        "col3": "1936-06-07"
    },
    {
        "col0": "J. Guyon",
        "col1": "Louisville, Kentucky",
        "col2": "1971-11-27",
        "col3": "1892-11-26"
    },
    {
        "col0": "J. Golding",
        "col1": "Muskogee, Oklahoma",
        "col2": "1971-12-26",
        "col3": "1921-03-26"
    },
    {
        "col0": "J. Glamp",
        "col1": "Greensburg, Pennsylvania",
        "col2": "1989-01-13",
        "col3": "1921-05-13"
    },
    {
        "col0": "J. Gilliam",
        "col1": "Nashville, Tennessee",
        "col2": "2000-12-25",
        "col3": "1950-12-29"
    },
    {
        "col0": "J. Gibson",
        "col1": "Sacramento, California",
        "col2": "2002-10-19",
        "col3": "1919-06-28"
    },
    {
        "col0": "J. Geri",
        "col1": "Milledgeville, Georgia",
        "col2": "2002-04-20",
        "col3": "1924-10-20"
    },
    {
        "col0": "J. Francis",
        "col1": "Hawaii",
        "col2": "2013-04-15",
        "col3": "1936-04-21"
    },
    {
        "col0": "J. Fourqurean",
        "col1": "United States",
        "col2": "2013-11-19",
        "col3": "1950-01-09"
    },
    {
        "col0": "J. Faragalli",
        "col1": "Narragansett, Rhode Island",
        "col2": "2006-04-10",
        "col3": "1929-04-18"
    },
    {
        "col0": "J. DuSossoit",
        "col1": "Phoenix, Arizona",
        "col2": "1969-04-04",
        "col3": "1895-10-02"
    },
    {
        "col0": "J. D. Looney",
        "col1": "United States",
        "col2": "1988-09-24",
        "col3": "1942-10-10"
    },
    {
        "col0": "J. Domnanovich",
        "col1": "Alabama",
        "col2": "2009-01-20",
        "col3": "1919-03-21"
    },
    {
        "col0": "J. Delaney",
        "col1": "Monroe, Louisiana",
        "col2": "1983-6-29",
        "col3": "1958-10-30"
    },
    {
        "col0": "J. DeLuca",
        "col1": "Pleasant Hill, California",
        "col2": "2013-07-21",
        "col3": "1932-06-06"
    },
    {
        "col0": "J. Cibulas",
        "col1": "Pennsylvania",
        "col2": "1998-05-15",
        "col3": "1921-05-31"
    },
    {
        "col0": "J. Childress",
        "col1": "Houston, Texas",
        "col2": "1986-05-05",
        "col3": "1933-10-25"
    },
    {
        "col0": "J. Cardwell",
        "col1": "Norfolk, Virginia",
        "col2": "1957-07-06",
        "col3": "1912-01-31"
    },
    {
        "col0": "J. Campanella",
        "col1": "Baltimore",
        "col2": "1967-02-15",
        "col3": "1930-09-03"
    },
    {
        "col0": "J. Burks",
        "col1": "Yakima, Washington",
        "col2": "1968-07-06",
        "col3": "1899-07-08"
    },
    {
        "col0": "J. Bukant",
        "col1": "Portage, Michigan",
        "col2": "2007-02-09",
        "col3": "1915-10-31"
    },
    {
        "col0": "J. Breen",
        "col1": "Ontario",
        "col2": "1978-10-13",
        "col3": "1897-04-23"
    },
    {
        "col0": "J. Blahak",
        "col1": "Lincoln, Nebraska",
        "col2": "2016-04-25",
        "col3": "1950-08-29"
    },
    {
        "col0": "J. B. Hayes",
        "col1": "Murfreesboro, Tennessee",
        "col2": "2013-12-09",
        "col3": "1915-09-20"
    },
    {
        "col0": "J. Bernstein",
        "col1": "Orange, NJ",
        "col2": "1967-03-28",
        "col3": "1893-11-23"
    },
    {
        "col0": "J. Bartos",
        "col1": "Bridgeport, Connecticut",
        "col2": "1989-03-11",
        "col3": "1926-11-18"
    },
    {
        "col0": "J. Asquini",
        "col1": "Ottawa, Ontario",
        "col2": "1990-04-09",
        "col3": "1925-1-1"
    },
    {
        "col0": "J. Aguirre",
        "col1": "Grass Valley, California",
        "col2": "1985-07-13",
        "col3": "1918-10-17"
    },
    {
        "col0": "J. Whire",
        "col1": "Albany, Georgia",
        "col2": "1983-02-09",
        "col3": "1910-06-11"
    },
    {
        "col0": "J. Tays",
        "col1": "Champaign, Illinois",
        "col2": "1986-06-21",
        "col3": "1899-03-10"
    },
    {
        "col0": "J. Streater",
        "col1": "Asheville, North Carolina",
        "col2": "2004-02-20",
        "col3": "1957-12-17"
    },
    {
        "col0": "J. Steele",
        "col1": "Hillsborough County, Florida",
        "col2": "1980-9-15",
        "col3": "1909-12-11"
    },
    {
        "col0": "J. Patton",
        "col1": "Villa Rica, GA",
        "col2": "1972-12-22",
        "col3": "1933-09-29"
    },
    {
        "col0": "J. Nelson",
        "col1": "Encinitas, California",
        "col2": "1986-12-24",
        "col3": "1919-07-26"
    },
    {
        "col0": "J. Lander",
        "col1": "San Diego County, California",
        "col2": "1989-06-21",
        "col3": "1912-10-14"
    },
    {
        "col0": "J. Gunn",
        "col1": "Los Angeles, California",
        "col2": "2015-04-11",
        "col3": "1948-11-27"
    },
    {
        "col0": "J. Conzelman",
        "col1": "St. Louis",
        "col2": "1970-8-5",
        "col3": "1898-3-6"
    },
    {
        "col0": "J. Cain",
        "col1": "Rancho Mirage, California",
        "col2": "2007-08-26",
        "col3": "1912-09-05"
    },
    {
        "col0": "J. Wulff",
        "col1": "Traverse City, Michigan",
        "col2": "2000-02-19",
        "col3": "1936-03-22"
    },
    {
        "col0": "J. Worden",
        "col1": "Springfield, Ohio",
        "col2": "2007-02-25",
        "col3": "1942-05-16"
    },
    {
        "col0": "J. Winkler",
        "col1": "Ventura, California",
        "col2": "2001-02-14",
        "col3": "1927-07-21"
    },
    {
        "col0": "J. Wilson",
        "col1": "Atlanta, Georgia",
        "col2": "2009-02-02",
        "col3": "1942-06-12"
    },
    {
        "col0": "J. Welsh",
        "col1": "Lake County, Florida",
        "col2": "1958-02-12",
        "col3": "1902-09-17"
    },
    {
        "col0": "J. Weatherall",
        "col1": "Oklahoma City, Oklahoma",
        "col2": "1992-08-02",
        "col3": "1929-10-26"
    },
    {
        "col0": "J. Tyrer",
        "col1": "Kansas City, Missouri",
        "col2": "1980-09-15",
        "col3": "1939-02-25"
    },
    {
        "col0": "J. Trimble",
        "col1": "Indianapolis, Indiana",
        "col2": "2006-05-23",
        "col3": "1918-05-29"
    },
    {
        "col0": "J. Thorpe",
        "col1": "Lomita, California",
        "col2": "1953-3-28",
        "col3": "1888-5-28"
    },
    {
        "col0": "J. Thomason",
        "col1": "Brenham, Texas",
        "col2": "2007-08-04",
        "col3": "1920-03-28"
    },
    {
        "col0": "J. Swink",
        "col1": "Rusk, Texas",
        "col2": "2014-12-03",
        "col3": "1936-03-14"
    },
    {
        "col0": "J. Stiger",
        "col1": "Lompoc, California",
        "col2": "1981-12-12",
        "col3": "1941-01-07"
    },
    {
        "col0": "J. Steffen",
        "col1": "Arnold, Maryland",
        "col2": "2015-04-23",
        "col3": "1936-05-01"
    },
    {
        "col0": "J. Simmons",
        "col1": "Elmore City, Oklahoma",
        "col2": "1977-01-16",
        "col3": "1903-04-03"
    },
    {
        "col0": "J. Rountree",
        "col1": "Tamarac, Florida",
        "col2": "2013-10-01",
        "col3": "1936-04-24"
    },
    {
        "col0": "J. Ringo",
        "col1": "Virginia Beach, Virginia",
        "col2": "2007-11-19",
        "col3": "1931-11-21"
    },
    {
        "col0": "J. Ricca",
        "col1": "Fairfax, Virginia",
        "col2": "2007-02-11",
        "col3": "1927-10-08"
    },
    {
        "col0": "J. Reeder",
        "col1": "Jacksonville, Florida",
        "col2": "1992-09-22",
        "col3": "1916-10-22"
    },
    {
        "col0": "J. Quondamatteo",
        "col1": "Hamilton, Ontario",
        "col2": "2006-11-16",
        "col3": "1927-10-07"
    },
    {
        "col0": "J. Purnell",
        "col1": "Evanston, Illinois",
        "col2": "2003-11-04",
        "col3": "1941-12-12"
    },
    {
        "col0": "J. Podoley",
        "col1": "Bowie, Maryland",
        "col2": "2010-01-24",
        "col3": "1933-09-16"
    },
    {
        "col0": "J. Phillips",
        "col1": "Auburn, Alabama",
        "col2": "2015-03-25",
        "col3": "1936-02-05"
    },
    {
        "col0": "J. Pederson",
        "col1": "Pawtucket, Rhode Island",
        "col2": "1978-08-14",
        "col3": "1907-10-19"
    },
    {
        "col0": "J. Parmer",
        "col1": "Lubbock, Texas",
        "col2": "2005-04-20",
        "col3": "1927-04-25"
    },
    {
        "col0": "J. Parker",
        "col1": "Columbia, Maryland",
        "col2": "2005-07-18",
        "col3": "1934-04-03"
    },
    {
        "col0": "J. Pace",
        "col1": "Culver City, California",
        "col2": "1983-03-04",
        "col3": "1936-01-01"
    },
    {
        "col0": "J. Norton",
        "col1": "Garland, Texas",
        "col2": "2007-6-12",
        "col3": "1938-10-20"
    },
    {
        "col0": "J. Mutscheller",
        "col1": "Towson, Maryland",
        "col2": "2015-04-10",
        "col3": "1930-03-31"
    },
    {
        "col0": "J. Moscrip",
        "col1": "Atherton, California",
        "col2": "1980-10-11",
        "col3": "1913-09-17"
    },
    {
        "col0": "J. Miller",
        "col1": "Pittsburgh, Pennsylvania",
        "col2": "1965-02-10",
        "col3": "1908-02-19"
    },
    {
        "col0": "J. McPherson",
        "col1": "Rochester, Minnesota",
        "col2": "2011-04-23",
        "col3": "1931-02-20"
    },
    {
        "col0": "J. McDonald",
        "col1": "Knoxville, Tennessee",
        "col2": "1997-05-01",
        "col3": "1915-06-09"
    },
    {
        "col0": "J. Mandich",
        "col1": "Miami Lakes, Florida",
        "col2": "2011-4-26",
        "col3": "1948-7-30"
    },
    {
        "col0": "J. Maddock",
        "col1": "Chicago, Illinois",
        "col2": "2011-07-20",
        "col3": "1934-12-23"
    },
    {
        "col0": "J. MacMurdo",
        "col1": "Darby, Pennsylvania",
        "col2": "1981-08-11",
        "col3": "1909-09-02"
    },
    {
        "col0": "J. Logan",
        "col1": "Richmond, Indiana",
        "col2": "2004-03-27",
        "col3": "1916-12-22"
    },
    {
        "col0": "J. Lindsey",
        "col1": "Colleyville, Texas",
        "col2": "1998-09-09",
        "col3": "1948-11-16"
    },
    {
        "col0": "J. Letcavits",
        "col1": "United States",
        "col2": "2015-02-03",
        "col3": "1935-12-01"
    },
    {
        "col0": "J. Leonard",
        "col1": "Woodbury, New Jersey",
        "col2": "1993-11-28",
        "col3": "1910-02-14"
    },
    {
        "col0": "J. L. Howell",
        "col1": "Lonoke, Arkansas",
        "col2": "1995-01-04",
        "col3": "1914-09-27"
    },
    {
        "col0": "J. Lawson",
        "col1": "Carmel-by-the-Sea, California",
        "col2": "1989-01-03",
        "col3": "1902-03-11"
    },
    {
        "col0": "J. Laird",
        "col1": "Lebanon, Connecticut",
        "col2": "1970-08-16",
        "col3": "1897-09-10"
    },
    {
        "col0": "J. Kisselburgh",
        "col1": "El Paso, Texas",
        "col2": "1996-07-10",
        "col3": "1919-09-04"
    },
    {
        "col0": "J. Kincaid",
        "col1": "Goldsboro, North Carolina",
        "col2": "2014-09-25",
        "col3": "1930-08-11"
    },
    {
        "col0": "J. Kendrick",
        "col1": "Waco, Texas",
        "col2": "1941-11-17",
        "col3": "1893-08-22"
    },
    {
        "col0": "J. Keane",
        "col1": "Lake Forest, Illinois",
        "col2": "2011-03-08",
        "col3": "1924-01-11"
    },
    {
        "col0": "J. Kane",
        "col1": "Rochester, New York",
        "col2": "1976-04-10",
        "col3": "1896-11-28"
    }
]