[
    {
        "col0": "St. Michael's College, Toronto",
        "col1": "Roman Catholic Church",
        "col2": "1852-09-15",
        "col3": "30200000",
        "col4": "Blue and yellow. Later, green was added."
    },
    {
        "col0": "Spelman College",
        "col1": "Annapolis Group",
        "col2": "1881-04-11",
        "col3": "367000000",
        "col4": "Columbia Blue and White"
    },
    {
        "col0": "Southern University",
        "col1": "Association of Public and Land-grant Universities",
        "col2": "1880-04-01",
        "col3": "9600000",
        "col4": "Columbia blueand Gold"
    },
    {
        "col0": "Shaw University",
        "col1": "Southern Association of Colleges and Schools",
        "col2": "1865-12-01",
        "col3": "23000000",
        "col4": "Garnet & White"
    },
    {
        "col0": "Savannah State University",
        "col1": "Mid-Eastern Athletic Conference",
        "col2": "1890-11-26",
        "col3": "4348674",
        "col4": "Burnt orangeandreflex blue"
    },
    {
        "col0": "San Diego State University",
        "col1": "California State University",
        "col2": "1897-03-13",
        "col3": "209400000",
        "col4": "Scarlet and Black"
    },
    {
        "col0": "Saint Louis University",
        "col1": "Association of Jesuit Colleges and Universities",
        "col2": "1818-11-16",
        "col3": "1020000000",
        "col4": "Blue and White"
    },
    {
        "col0": "Saint Joseph's University",
        "col1": "Roman Catholic Church",
        "col2": "1851-09-15",
        "col3": "216000000",
        "col4": "Crimson and Gray"
    },
    {
        "col0": "SUNY Polytechnic Institute",
        "col1": "State University of New York",
        "col2": "1966-06-14",
        "col3": "2630000",
        "col4": "Blue, White and Gold"
    },
    {
        "col0": "Queen's University",
        "col1": "Association of Universities and Colleges of Canada",
        "col2": "1841-10-16",
        "col3": "1036000000",
        "col4": "Red, Blue, and Gold"
    },
    {
        "col0": "Purdue University",
        "col1": "Association of American Universities",
        "col2": "1869-05-06",
        "col3": "2398000000",
        "col4": "Black and Old Gold"
    },
    {
        "col0": "Pittsburg State University",
        "col1": "Kansas Board of Regents",
        "col2": "1903-03-06",
        "col3": "71220000",
        "col4": "Crimson and Gold"
    },
    {
        "col0": "Piedmont College",
        "col1": "United Church of Christ",
        "col2": "1897-09-01",
        "col3": "52552848",
        "col4": "Dark GreenandGold"
    },
    {
        "col0": "Osaka University",
        "col1": "APRU",
        "col2": "1919-11-22",
        "col3": "264300000000",
        "col4": "Sky blue"
    },
    {
        "col0": "Occidental College",
        "col1": "Annapolis Group",
        "col2": "1887-04-20",
        "col3": "406100000",
        "col4": "OrangeandBlack"
    },
    {
        "col0": "Oberlin College",
        "col1": "Annapolis Group",
        "col2": "1833-09-02",
        "col3": "832400000",
        "col4": "Cardinal red"
    },
    {
        "col0": "North Carolina State University",
        "col1": "University of North Carolina",
        "col2": "1887-03-07",
        "col3": "984000000",
        "col4": "Red, White"
    },
    {
        "col0": "North Carolina Agricultural and Technical State University",
        "col1": "University of North Carolina",
        "col2": "1891-03-09",
        "col3": "48000000",
        "col4": "Blue and Gold"
    },
    {
        "col0": "Nicholls State University",
        "col1": "University of Louisiana System",
        "col2": "1948-09-23",
        "col3": "8500000",
        "col4": "Red & Gray"
    },
    {
        "col0": "Morningside College",
        "col1": "United Methodist Church",
        "col2": "1894-12-05",
        "col3": "31300000",
        "col4": "MaroonandWhite"
    },
    {
        "col0": "Monmouth College",
        "col1": "Annapolis Group",
        "col2": "1853-04-18",
        "col3": "99200000",
        "col4": "Red and White"
    },
    {
        "col0": "Missouri State University",
        "col1": "Missouri State University System",
        "col2": "1906-06-11",
        "col3": "76106000",
        "col4": "Maroon and White"
    },
    {
        "col0": "Mississippi College",
        "col1": "National Association of Independent Colleges and Universities",
        "col2": "1826-01-24",
        "col3": "60716982",
        "col4": "Blue and Gold"
    },
    {
        "col0": "Mindanao State University",
        "col1": "Association of Southeast Asian Institutions of Higher Learning",
        "col2": "1961-09-01",
        "col3": "1195000000",
        "col4": "Maroon and Gold"
    },
    {
        "col0": "Middlebury College",
        "col1": "568 Group",
        "col2": "1800-11-01",
        "col3": "1101000000",
        "col4": "Blue & White"
    },
    {
        "col0": "Middle Tennessee State University",
        "col1": "Association of Public and Land-Grant Universities",
        "col2": "1911-09-11",
        "col3": "58900000",
        "col4": "Royal blue & White"
    },
    {
        "col0": "Middle East Technical University",
        "col1": "European University Association",
        "col2": "1956-11-15",
        "col3": "400000000",
        "col4": "Red and white"
    },
    {
        "col0": "Michigan State University",
        "col1": "Association of American Universities",
        "col2": "1855-02-12",
        "col3": "2275000000",
        "col4": "Green, white"
    },
    {
        "col0": "McMaster University",
        "col1": "Association of Universities and Colleges of Canada",
        "col2": "1887-04-23",
        "col3": "655500000",
        "col4": "MaroonandGrey"
    },
    {
        "col0": "MCPHS University",
        "col1": "Association of Independent Colleges and Universities in Massachusetts",
        "col2": "1823-12-08",
        "col3": "578000000",
        "col4": "Cardinal Red and White"
    },
    {
        "col0": "Loyola University New Orleans",
        "col1": "Roman Catholic Church",
        "col2": "1912-07-10",
        "col3": "266200000",
        "col4": "Maroonandgold"
    },
    {
        "col0": "Louisiana College",
        "col1": "Baptist",
        "col2": "1906-10-03",
        "col3": "27064817",
        "col4": "Orange and Royal Blue"
    },
    {
        "col0": "Longwood University",
        "col1": "AASCU",
        "col2": "1839-03-05",
        "col3": "54100000",
        "col4": "Blue, White, Gray"
    },
    {
        "col0": "London Metropolitan University",
        "col1": "British Computer Society",
        "col2": "2002-08-01",
        "col3": "1320000",
        "col4": "Purple, grey"
    },
    {
        "col0": "Lebanon Valley College",
        "col1": "United Methodist Church",
        "col2": "1866-02-23",
        "col3": "49200000",
        "col4": "Blue and white"
    },
    {
        "col0": "Laval University",
        "col1": "Association of Universities and Colleges of Canada",
        "col2": "1852-12-08",
        "col3": "120500000",
        "col4": "Red and Gold"
    },
    {
        "col0": "Langara College",
        "col1": "Canadian Bureau for International Education",
        "col2": "1994-04-01",
        "col3": "5800000",
        "col4": "Orange, black, white"
    },
    {
        "col0": "Lamar University",
        "col1": "Texas State University System",
        "col2": "1923-09-17",
        "col3": "106826000",
        "col4": "Red and White"
    },
    {
        "col0": "La Trobe University",
        "col1": "Universities Australia",
        "col2": "1964-12-09",
        "col3": "665000000",
        "col4": "Blackref|The use of black dates back to the early years of the university, most likely originating from the La Trobe University Football Club. When La Trobe first opened in 1967 its sports clubs used the University of Melbourne as a benchmark to emulate. One outcome of this was the creation of the La Trobe University Reds and the La Trobe University Blacks in 1968, which was based on the University Blues and the University Blacks at Melbourne.|group=Note"
    },
    {
        "col0": "Kettering University",
        "col1": "North Central Association of Colleges and Schools",
        "col2": "1919-10-20",
        "col3": "80000000",
        "col4": "Gold and Blue"
    },
    {
        "col0": "Kennesaw State University",
        "col1": "University System of Georgia",
        "col2": "1963-10-09",
        "col3": "36523927",
        "col4": "Black and Gold"
    },
    {
        "col0": "Kansas State University",
        "col1": "Kansas Board of Regents",
        "col2": "1863-02-16",
        "col3": "488900000",
        "col4": "Royal purple"
    },
    {
        "col0": "Indiana University - Purdue University Fort Wayne",
        "col1": "Purdue University System",
        "col2": "1964-09-17",
        "col3": "48600000",
        "col4": "Blue and white"
    },
    {
        "col0": "Indiana University Bloomington",
        "col1": "Association of American Universities",
        "col2": "1820-01-20",
        "col3": "1974000000",
        "col4": "Crimson,Cream"
    },
    {
        "col0": "Indiana University - Purdue University Fort Wayne",
        "col1": "Purdue University System",
        "col2": "1964-09-17",
        "col3": "48600000",
        "col4": "Blue and white"
    },
    {
        "col0": "Indiana University",
        "col1": "Association of American Universities",
        "col2": "1820-01-20",
        "col3": "1735000000",
        "col4": "Cream and Crimson"
    },
    {
        "col0": "Humboldt State University",
        "col1": "California State University",
        "col2": "1913-06-16",
        "col3": "28000000",
        "col4": "Greenandgold"
    },
    {
        "col0": "Howard University",
        "col1": "National Association of Independent Colleges and Universities",
        "col2": "1867-03-02",
        "col3": "659600000",
        "col4": "Blue, White and Red"
    },
    {
        "col0": "Howard Payne University",
        "col1": "Baptist General Convention of Texas",
        "col2": "1889-06-20",
        "col3": "61250000",
        "col4": "Navy blue and Old gold"
    },
    {
        "col0": "Hiram College",
        "col1": "Annapolis Group",
        "col2": "1850-03-01",
        "col3": "58700000",
        "col4": "Red&Blue"
    },
    {
        "col0": "Hampton University",
        "col1": "Middle Atlantic Intercollegiate Sailing Association",
        "col2": "1868-04-01",
        "col3": "263200000",
        "col4": "Reflex Blue & White"
    },
    {
        "col0": "Hampden-Sydney College",
        "col1": "Annapolis Group",
        "col2": "1775-11-10",
        "col3": "154600000",
        "col4": "GarnetandGrey"
    },
    {
        "col0": "Gonzaga University",
        "col1": "Catholic Church",
        "col2": "1887-09-17",
        "col3": "185600000",
        "col4": "Blue, Red"
    },
    {
        "col0": "Georgia Southern University",
        "col1": "University System of Georgia",
        "col2": "1906-12-01",
        "col3": "46200000",
        "col4": "Blueandwhite"
    },
    {
        "col0": "Georgia Institute of Technology",
        "col1": "University System of Georgia",
        "col2": "1885-10-13",
        "col3": "1859000000",
        "col4": "White and GT gold"
    },
    {
        "col0": "Georgetown University",
        "col1": "Roman Catholic Church",
        "col2": "1789-01-23",
        "col3": "1529000000",
        "col4": "Union Blue and Confederate Gray"
    },
    {
        "col0": "George Washington University",
        "col1": "National Association of Independent Colleges and Universities",
        "col2": "1821-02-09",
        "col3": "1616000000",
        "col4": "Buff and Blue"
    },
    {
        "col0": "George Mason University",
        "col1": "Association of Public and Land-grant Universities",
        "col2": "1949-10-01",
        "col3": "70200000",
        "col4": "Green and Gold"
    },
    {
        "col0": "Gallaudet University",
        "col1": "National Association of Independent Colleges and Universities",
        "col2": "1864-04-08",
        "col3": "136400000",
        "col4": "Buff and Blue"
    },
    {
        "col0": "Florida Institute of Technology",
        "col1": "Independent Colleges and Universities of Florida",
        "col2": "1958-09-22",
        "col3": "66200000",
        "col4": "Crimson and Gray"
    },
    {
        "col0": "Florida A&M University",
        "col1": "Association of Public and Land-Grant Universities",
        "col2": "1887-10-03",
        "col3": "127180000",
        "col4": "Orange and Green"
    },
    {
        "col0": "Ferris State University",
        "col1": "American Association of State Colleges and Universities",
        "col2": "1884-09-01",
        "col3": "40200000",
        "col4": "Crimson and Gold"
    },
    {
        "col0": "Duquesne University",
        "col1": "Middle States Association of Colleges and Schools",
        "col2": "1878-10-01",
        "col3": "260600000",
        "col4": "Red and Blue"
    },
    {
        "col0": "Division of Health Sciences",
        "col1": "University of Quintana Roo",
        "col2": "2010-10-23",
        "col3": "7169000",
        "col4": "Gold and green"
    },
    {
        "col0": "Delft University of Technology",
        "col1": "European University Association",
        "col2": "1842-01-08",
        "col3": "1201000000",
        "col4": "Cyan, Black and White"
    },
    {
        "col0": "Delaware State University",
        "col1": "Mid-Eastern Athletic Conference",
        "col2": "1891-05-15",
        "col3": "20800000",
        "col4": "Columbia blueandRed"
    },
    {
        "col0": "De La Salle University",
        "col1": "International Association of Universities",
        "col2": "1911-06-16",
        "col3": "286000000",
        "col4": "Green and White"
    },
    {
        "col0": "Dartmouth College",
        "col1": "568 Group",
        "col2": "1769-12-13",
        "col3": "4700000000",
        "col4": "Dartmouth Green"
    },
    {
        "col0": "Concordia College",
        "col1": "National Association of Independent Colleges and Universities",
        "col2": "1891-10-31",
        "col3": "101650896",
        "col4": "Maroon, Gold"
    },
    {
        "col0": "Cleveland State University",
        "col1": "Association of Public and Land-grant Universities",
        "col2": "1964-12-18",
        "col3": "66200000",
        "col4": "Forest Green and White"
    },
    {
        "col0": "Clark University",
        "col1": "National Association of Independent Colleges and Universities",
        "col2": "1887-03-31",
        "col3": "404900000",
        "col4": "Scarlet and White"
    },
    {
        "col0": "Chicago State University",
        "col1": "American Association of State Colleges and Universities",
        "col2": "1867-09-02",
        "col3": "3763212",
        "col4": "Green, Black and White"
    },
    {
        "col0": "Centre College",
        "col1": "Presbyterian Church",
        "col2": "1819-01-21",
        "col3": "263810000",
        "col4": "Gold and White"
    },
    {
        "col0": "Catholic University of America",
        "col1": "Roman Catholic",
        "col2": "1887-04-10",
        "col3": "319020000",
        "col4": "(Academic)"
    },
    {
        "col0": "California State University, Sacramento",
        "col1": "Big Sky Conference",
        "col2": "1947-09-22",
        "col3": "35000000",
        "col4": "Sac State Green & Hornet Gold"
    },
    {
        "col0": "California Polytechnic State University",
        "col1": "California State University",
        "col2": "1901-03-08",
        "col3": "194700000",
        "col4": "Green and Gold"
    },
    {
        "col0": "Brandeis University",
        "col1": "Association of American Universities",
        "col2": "1948-10-20",
        "col3": "915100000",
        "col4": "BlueWhite"
    },
    {
        "col0": "Bowie State University",
        "col1": "Central Intercollegiate Athletic Association",
        "col2": "1865-01-09",
        "col3": "22991522",
        "col4": "BlackandGold"
    },
    {
        "col0": "Bowdoin College",
        "col1": "Annapolis Group",
        "col2": "1794-06-24",
        "col3": "1393000000",
        "col4": "Black and White"
    },
    {
        "col0": "Biola University",
        "col1": "Council for Christian Colleges and Universities",
        "col2": "1908-02-25",
        "col3": "105400000",
        "col4": "Pantone186 (Red), Black and White"
    },
    {
        "col0": "Bennett College",
        "col1": "United Methodist Church",
        "col2": "1873-08-01",
        "col3": "15000000",
        "col4": "NavyBlueandWhite"
    },
    {
        "col0": "Belmont Abbey College",
        "col1": "Roman Catholic",
        "col2": "1876-04-21",
        "col3": "8020000",
        "col4": "Crimsonandcream"
    },
    {
        "col0": "Bates College",
        "col1": "Consortium of Liberal Arts Colleges",
        "col2": "1855-03-16",
        "col3": "261500000",
        "col4": "Garnet & Black"
    },
    {
        "col0": "Assumption College",
        "col1": "Roman Catholic",
        "col2": "1904-10-01",
        "col3": "100800000",
        "col4": "BlueandWhite"
    },
    {
        "col0": "American University",
        "col1": "National Association of Independent Colleges and Universities",
        "col2": "1893-02-24",
        "col3": "600300000",
        "col4": "American Red and Blue"
    }
]