[
    {
        "col0": "The Journal of Human Resources",
        "col1": "University of Wisconsin Press",
        "col2": "1965",
        "col3": "2",
        "col4": "2011",
        "col5": "0022-166X"
    },
    {
        "col0": "The Journal of Higher Education",
        "col1": "Ohio State University Press",
        "col2": "1930",
        "col3": "1",
        "col4": "2015",
        "col5": "0022-1546"
    },
    {
        "col0": "The Journal of General Physiology",
        "col1": "Rockefeller University Press",
        "col2": "1918",
        "col3": "4",
        "col4": "2014",
        "col5": "0022-1295"
    },
    {
        "col0": "The Journal of Forensic Psychiatry & Psychology",
        "col1": "Routledge",
        "col2": "1990",
        "col3": "0",
        "col4": "2014",
        "col5": "1478-9949"
    },
    {
        "col0": "The Journal of Finance",
        "col1": "Wiley-Blackwell",
        "col2": "1946",
        "col3": "5",
        "col4": "2015",
        "col5": "0022-1082"
    },
    {
        "col0": "The Journal of Experimental Biology",
        "col1": "Company of Biologists",
        "col2": "1923",
        "col3": "2",
        "col4": "2015",
        "col5": "0022-0949"
    },
    {
        "col0": "The Journal of Environment & Development",
        "col1": "Sage Publications",
        "col2": "1992",
        "col3": "1",
        "col4": "2014",
        "col5": "1070-4965"
    },
    {
        "col0": "The Journal of Emergency Medicine",
        "col1": "Elsevier",
        "col2": "1983",
        "col3": "1",
        "col4": "2013",
        "col5": "0736-4679"
    },
    {
        "col0": "The Journal of Economic History",
        "col1": "Cambridge University Press",
        "col2": "1941",
        "col3": "0",
        "col4": "2015",
        "col5": "0022-0507"
    },
    {
        "col0": "The Journal of Comparative Neurology",
        "col1": "Wiley-Liss",
        "col2": "1891",
        "col3": "3",
        "col4": "2015",
        "col5": "1096-9861"
    },
    {
        "col0": "The Journal of Clinical Pharmacology",
        "col1": "John Wiley & Sons",
        "col2": "1961",
        "col3": "2",
        "col4": "2014",
        "col5": "1552-4604"
    },
    {
        "col0": "The Journal of Clinical Endocrinology and Metabolism",
        "col1": "The Endocrine Society",
        "col2": "1941",
        "col3": "6",
        "col4": "2014",
        "col5": "0021-972X"
    },
    {
        "col0": "The Journal of Chemical Thermodynamics",
        "col1": "Elsevier",
        "col2": "1969",
        "col3": "2",
        "col4": "2014",
        "col5": "0021-9614"
    },
    {
        "col0": "The Journal of Asian Studies",
        "col1": "Cambridge University Press",
        "col2": "1941",
        "col3": "0",
        "col4": "2013",
        "col5": "0021-9118"
    },
    {
        "col0": "The Journal of Applied Behavioral Science",
        "col1": "SAGE Publications",
        "col2": "1965",
        "col3": "1",
        "col4": "2010",
        "col5": "0021-8863"
    },
    {
        "col0": "The Journal of Antibiotics",
        "col1": "Nature Publishing Group",
        "col2": "1948",
        "col3": "1",
        "col4": "2014",
        "col5": "0021-8820"
    },
    {
        "col0": "The Journal of American History",
        "col1": "Oxford University Press",
        "col2": "1914",
        "col3": "0",
        "col4": "2009",
        "col5": "0021-8723"
    },
    {
        "col0": "The Journal of Allergy and Clinical Immunology",
        "col1": "Elsevier",
        "col2": "1929",
        "col3": "11",
        "col4": "2014",
        "col5": "0091-6749"
    },
    {
        "col0": "The Journal of African History",
        "col1": "Cambridge University Press",
        "col2": "1960",
        "col3": "0",
        "col4": "2014",
        "col5": "0021-8537"
    },
    {
        "col0": "The Journal of Academic Librarianship",
        "col1": "Elsevier",
        "col2": "1975",
        "col3": "0",
        "col4": "2014",
        "col5": "0099-1333"
    },
    {
        "col0": "The Japanese Economic Review",
        "col1": "Wiley-Blackwell",
        "col2": "1959",
        "col3": "0",
        "col4": "2014",
        "col5": "1352-4739"
    },
    {
        "col0": "The International Journal of Robotics Research",
        "col1": "Sage Publications",
        "col2": "1982",
        "col3": "2",
        "col4": "2013",
        "col5": "0278-3649"
    },
    {
        "col0": "The International Journal of Psychoanalysis",
        "col1": "Wiley-Blackwell",
        "col2": "1920",
        "col3": "0",
        "col4": "2014",
        "col5": "0020-7578"
    },
    {
        "col0": "The International Journal of Press/Politics",
        "col1": "SAGE Publications",
        "col2": "1996",
        "col3": "1",
        "col4": "2014",
        "col5": "1940-1612"
    },
    {
        "col0": "The International Journal of Neuropsychopharmacology",
        "col1": "Oxford University Press",
        "col2": "1998",
        "col3": "4",
        "col4": "2014",
        "col5": "1461-1457"
    },
    {
        "col0": "The International Journal of Lower Extremity Wounds",
        "col1": "SAGE Publications",
        "col2": "2010",
        "col3": "0",
        "col4": "2014",
        "col5": "1534-7346"
    },
    {
        "col0": "The International Journal of Developmental Biology",
        "col1": "University of the Basque Country",
        "col2": "1953",
        "col3": "1",
        "col4": "2014",
        "col5": "0214-6282"
    },
    {
        "col0": "The International Journal of Biochemistry & Cell Biology",
        "col1": "Elsevier",
        "col2": "1970",
        "col3": "4",
        "col4": "2013",
        "col5": "1357-2725"
    },
    {
        "col0": "The International Journal of Aviation Psychology",
        "col1": "Taylor & Francis",
        "col2": "1991",
        "col3": "0",
        "col4": "2012",
        "col5": "1050-8414"
    },
    {
        "col0": "The International Journal of Advanced Manufacturing Technology",
        "col1": "Springer Science+Business Media",
        "col2": "1985",
        "col3": "1",
        "col4": "2013",
        "col5": "0268-3768"
    }
]