[
    {
        "col0": "PLOS Computational Biology",
        "col1": "Public Library of Science",
        "col2": "2005",
        "col3": "4",
        "col4": "2014",
        "col5": "1553-734X"
    },
    {
        "col0": "PLOS Biology",
        "col1": "Public Library of Science",
        "col2": "2003",
        "col3": "9",
        "col4": "2014",
        "col5": "1544-9173"
    },
    {
        "col0": "Oxford Review of Economic Policy",
        "col1": "Oxford University Press",
        "col2": "1985",
        "col3": "1",
        "col4": "2010",
        "col5": "0266-903X"
    },
    {
        "col0": "Oxford Journal of Legal Studies",
        "col1": "Oxford University Press",
        "col2": "1981",
        "col3": "0",
        "col4": "2014",
        "col5": "0143-6503"
    },
    {
        "col0": "Oxford Bulletin of Economics and Statistics",
        "col1": "University of Oxford",
        "col2": "1973",
        "col3": "1",
        "col4": "2011",
        "col5": "0305-9049"
    },
    {
        "col0": "Otolaryngology-Head and Neck Surgery",
        "col1": "Sage Publications",
        "col2": "1995",
        "col3": "2",
        "col4": "2014",
        "col5": "0194-5998"
    },
    {
        "col0": "Ostrich",
        "col1": "BirdLife South Africa",
        "col2": "1930",
        "col3": "0",
        "col4": "2009",
        "col5": "0030-6525"
    },
    {
        "col0": "Osteoporosis International",
        "col1": "Springer Science+Business Media",
        "col2": "1990",
        "col3": "4",
        "col4": "2010",
        "col5": "0937-941X"
    },
    {
        "col0": "Osteoarthritis and Cartilage",
        "col1": "Elsevier",
        "col2": "1993",
        "col3": "4",
        "col4": "2014",
        "col5": "1063-4584"
    },
    {
        "col0": "Orthopaedic Nursing",
        "col1": "Lippincott Williams & Wilkins",
        "col2": "1982",
        "col3": "0",
        "col4": "2009",
        "col5": "0744-6020"
    },
    {
        "col0": "Orphanet Journal of Rare Diseases",
        "col1": "BioMed Central",
        "col2": "2006",
        "col3": "3",
        "col4": "2013",
        "col5": "1750-1172"
    },
    {
        "col0": "Origins of Life and Evolution of Biospheres",
        "col1": "Springer Science+Business Media",
        "col2": "1968",
        "col3": "2",
        "col4": "2010",
        "col5": "0169-6149"
    },
    {
        "col0": "Organometallics",
        "col1": "American Chemical Society",
        "col2": "1982",
        "col3": "4",
        "col4": "2014",
        "col5": "0276-7333"
    },
    {
        "col0": "Organizational Research Methods",
        "col1": "Sage Publications",
        "col2": "1998",
        "col3": "3",
        "col4": "2012",
        "col5": "1094-4281"
    },
    {
        "col0": "Organization Studies",
        "col1": "Sage Publications",
        "col2": "1980",
        "col3": "2",
        "col4": "2013",
        "col5": "0170-8406"
    },
    {
        "col0": "Organization Science",
        "col1": "INFORMS",
        "col2": "1990",
        "col3": "3",
        "col4": "2013",
        "col5": "1047-7039"
    },
    {
        "col0": "Organization",
        "col1": "Sage Publications",
        "col2": "1994",
        "col3": "2",
        "col4": "2013",
        "col5": "1350-5084"
    },
    {
        "col0": "Organic and Biomolecular Chemistry",
        "col1": "Royal Society of Chemistry",
        "col2": "2003",
        "col3": "3",
        "col4": "2015",
        "col5": "1477-0520"
    },
    {
        "col0": "Organic Process Research & Development",
        "col1": "American Chemical Society",
        "col2": "1997",
        "col3": "2",
        "col4": "2015",
        "col5": "1083-6160"
    },
    {
        "col0": "Organic Letters",
        "col1": "American Chemical Society",
        "col2": "1999",
        "col3": "6",
        "col4": "2014",
        "col5": "1523-7052"
    },
    {
        "col0": "Organic Geochemistry",
        "col1": "Elsevier",
        "col2": "1977",
        "col3": "2",
        "col4": "2012",
        "col5": "0146-6380"
    },
    {
        "col0": "Oral Surgery, Oral Medicine, Oral Pathology, and Oral Radiology",
        "col1": "Mosby",
        "col2": "1948",
        "col3": "1",
        "col4": "2012",
        "col5": "2212-4403"
    },
    {
        "col0": "Oral Oncology",
        "col1": "Elsevier",
        "col2": "1965",
        "col3": "3",
        "col4": "2014",
        "col5": "1368-8375"
    },
    {
        "col0": "Optometry and Vision Science",
        "col1": "Lippincott Williams & Wilkins",
        "col2": "1924",
        "col3": "1",
        "col4": "2012",
        "col5": "1040-5488"
    },
    {
        "col0": "Optik",
        "col1": "Elsevier",
        "col2": "1946",
        "col3": "0",
        "col4": "2013",
        "col5": "0030-4026"
    },
    {
        "col0": "Optics Letters",
        "col1": "Optical Society of America",
        "col2": "1977",
        "col3": "3",
        "col4": "2013",
        "col5": "0146-9592"
    },
    {
        "col0": "Optics Express",
        "col1": "Optical Society",
        "col2": "1997",
        "col3": "3",
        "col4": "2015",
        "col5": "1094-4087"
    },
    {
        "col0": "Optics Communications",
        "col1": "Elsevier",
        "col2": "1969",
        "col3": "1",
        "col4": "2015",
        "col5": "0030-4018"
    },
    {
        "col0": "Optical Review",
        "col1": "Springer Science+Business Media",
        "col2": "1994",
        "col3": "0",
        "col4": "2012",
        "col5": "1340-6000"
    },
    {
        "col0": "Optical Materials",
        "col1": "Elsevier",
        "col2": "1992",
        "col3": "2",
        "col4": "2011",
        "col5": "0925-3467"
    },
    {
        "col0": "Optical Engineering",
        "col1": "SPIE",
        "col2": "1962",
        "col3": "0",
        "col4": "2012",
        "col5": "0091-3286"
    },
    {
        "col0": "Ophthalmology",
        "col1": "Elsevier",
        "col2": "1978",
        "col3": "6",
        "col4": "2014",
        "col5": "0161-6420"
    },
    {
        "col0": "Operations Research",
        "col1": "INFORMS",
        "col2": "1952",
        "col3": "1",
        "col4": "2009",
        "col5": "0030-364X"
    },
    {
        "col0": "Open Physics",
        "col1": "Walter de Gruyter",
        "col2": "2003",
        "col3": "0",
        "col4": "2015",
        "col5": "2391-5471"
    },
    {
        "col0": "Open Medicine",
        "col1": "Walter de Gruyter",
        "col2": "2006",
        "col3": "0",
        "col4": "2014",
        "col5": "2391-5463"
    },
    {
        "col0": "Open Mathematics",
        "col1": "Walter de Gruyter",
        "col2": "2003",
        "col3": "0",
        "col4": "2014",
        "col5": "2391-5455"
    },
    {
        "col0": "Open Life Sciences",
        "col1": "Walter de Gruyter",
        "col2": "2006",
        "col3": "0",
        "col4": "2014",
        "col5": "2391-5412"
    },
    {
        "col0": "Open Geosciences",
        "col1": "Walter de Gruyter",
        "col2": "2009",
        "col3": "0",
        "col4": "2014",
        "col5": "2391-5447"
    },
    {
        "col0": "Open Chemistry",
        "col1": "De Gruyter Open",
        "col2": "2003",
        "col3": "1",
        "col4": "2015",
        "col5": "2391-5420"
    },
    {
        "col0": "Open Biology",
        "col1": "Royal Society",
        "col2": "2011",
        "col3": "5",
        "col4": "2014",
        "col5": "2046-2441"
    },
    {
        "col0": "Oncology Reports",
        "col1": "Spandidos Publications",
        "col2": "1994",
        "col3": "2",
        "col4": "2014",
        "col5": "1021-335X"
    },
    {
        "col0": "Oncology Nursing Forum",
        "col1": "Oncology Nursing Society",
        "col2": "1977",
        "col3": "2",
        "col4": "2014",
        "col5": "0190-535X"
    },
    {
        "col0": "Oncogene",
        "col1": "Nature Publishing Group",
        "col2": "1987",
        "col3": "8",
        "col4": "2014",
        "col5": "0950-9232"
    },
    {
        "col0": "OncoTargets and Therapy",
        "col1": "Dove Medical Press",
        "col2": "2008",
        "col3": "2",
        "col4": "2014",
        "col5": "1178-6930"
    },
    {
        "col0": "Oikos",
        "col1": "Wiley-Blackwell",
        "col2": "1949",
        "col3": "3",
        "col4": "2012",
        "col5": "0030-1299"
    },
    {
        "col0": "Oceanography",
        "col1": "Oceanography Society",
        "col2": "1988",
        "col3": "2",
        "col4": "2012",
        "col5": "1042-8275"
    },
    {
        "col0": "Oceania",
        "col1": "Wiley-Blackwell",
        "col2": "1930",
        "col3": "0",
        "col4": "2012",
        "col5": "0029-8077"
    },
    {
        "col0": "Ocean Science",
        "col1": "Copernicus Publications",
        "col2": "2005",
        "col3": "2",
        "col4": "2014",
        "col5": "1812-0784"
    },
    {
        "col0": "Occupational and Environmental Medicine",
        "col1": "BMJ Group",
        "col2": "1944",
        "col3": "3",
        "col4": "2014",
        "col5": "1351-0711"
    },
    {
        "col0": "Obstetrics & Gynecology",
        "col1": "Lippincott Williams & Wilkins",
        "col2": "1953",
        "col3": "5",
        "col4": "2014",
        "col5": "0029-7844"
    },
    {
        "col0": "Obstetrical & Gynecological Survey",
        "col1": "Wolters Kluwer",
        "col2": "1946",
        "col3": "1",
        "col4": "2014",
        "col5": "0029-7828"
    },
    {
        "col0": "Obesity Reviews",
        "col1": "Wiley-Blackwell",
        "col2": "2000",
        "col3": "7",
        "col4": "2014",
        "col5": "1467-7881"
    },
    {
        "col0": "Obesity",
        "col1": "Wiley-Blackwell",
        "col2": "1993",
        "col3": "4",
        "col4": "2013",
        "col5": "1930-7381"
    },
    {
        "col0": "Nutrition in Clinical Practice",
        "col1": "SAGE Publications",
        "col2": "1986",
        "col3": "2",
        "col4": "2014",
        "col5": "0884-5336"
    },
    {
        "col0": "Nutrition and Cancer",
        "col1": "Routledge",
        "col2": "1978",
        "col3": "2",
        "col4": "2014",
        "col5": "0163-5581"
    },
    {
        "col0": "Nutrition Reviews",
        "col1": "Oxford University Press",
        "col2": "1942",
        "col3": "5",
        "col4": "2013",
        "col5": "0029-6643"
    },
    {
        "col0": "Nutrition Journal",
        "col1": "BioMed Central",
        "col2": "2002",
        "col3": "2",
        "col4": "2014",
        "col5": "1475-2891"
    }
]