[
    {
        "col0": "W. Halas",
        "col1": "Chicago",
        "col2": "1892-01-15",
        "col3": "1959-12-20"
    },
    {
        "col0": "W. H. Watkins",
        "col1": "Meridian, Mississippi",
        "col2": "1878-02-23",
        "col3": "1937-04-06"
    },
    {
        "col0": "W. F. Kelly",
        "col1": "Bradford, Massachusetts",
        "col2": "1874-01-13",
        "col3": "1961-03-01"
    },
    {
        "col0": "W. E. Marks",
        "col1": "Ottumwa, Iowa",
        "col2": "1905-02-16",
        "col3": "1992-11-24"
    },
    {
        "col0": "W. E. Bachman",
        "col1": "Phillipsburg, New Jersey",
        "col2": "1879-03-19",
        "col3": "1958-0-0"
    },
    {
        "col0": "W. D. Powell",
        "col1": "Reedsburg, Wisconsin",
        "col2": "1891-07-15",
        "col3": "1967-09-15"
    },
    {
        "col0": "W. Camp",
        "col1": "New Britain, Connecticut",
        "col2": "1859-04-07",
        "col3": "1925-03-14"
    },
    {
        "col0": "W. McPherson",
        "col1": "San Jose, California",
        "col2": "1916-12-05",
        "col3": "2013-01-12"
    },
    {
        "col0": "W. Kiesling",
        "col1": "Minnesota",
        "col2": "1903-05-27",
        "col3": "1962-03-02"
    },
    {
        "col0": "W. Holmer",
        "col1": "Moline, Illinois",
        "col2": "1902-12-05",
        "col3": "1976-08-27"
    },
    {
        "col0": "W. Weber",
        "col1": "Mount Clemens, Michigan",
        "col2": "1903-02-27",
        "col3": "1984-04-14"
    },
    {
        "col0": "W. Lemm",
        "col1": "Chicago",
        "col2": "1919-10-23",
        "col3": "1988-10-08"
    },
    {
        "col0": "W. Hess",
        "col1": "Indiana",
        "col2": "1894-10-28",
        "col3": "1963-08-30"
    },
    {
        "col0": "W. Fromhart",
        "col1": "Newburg, West Virginia",
        "col2": "1913-05-18",
        "col3": "2002-05-23"
    },
    {
        "col0": "W. Butts",
        "col1": "Milledgeville, Georgia",
        "col2": "1905-02-07",
        "col3": "1973-12-17"
    },
    {
        "col0": "W. Wade",
        "col1": "Trenton, Tennessee",
        "col2": "1892-06-15",
        "col3": "1986-10-07"
    },
    {
        "col0": "W. Moyle",
        "col1": "Plymouth, England",
        "col2": "1867-05-14",
        "col3": "1920-09-20"
    },
    {
        "col0": "W. Woodworth",
        "col1": "Providence, Rhode Island",
        "col2": "1905-08-23",
        "col3": "1992-06-29"
    },
    {
        "col0": "W. Walker",
        "col1": "Mocksville, North Carolina",
        "col2": "1923-11-29",
        "col3": "2013-12-18"
    },
    {
        "col0": "W. Moore",
        "col1": "Franklin County, Kansas",
        "col2": "1876-06-14",
        "col3": "1956-06-14"
    },
    {
        "col0": "W. W. Wharton",
        "col1": "Indiana",
        "col2": "1872-05-14",
        "col3": "1963-12-16"
    },
    {
        "col0": "W. T. Cook",
        "col1": "Peru, Illinois",
        "col2": "1884-1-1",
        "col3": "1970-1-1"
    },
    {
        "col0": "W. S. Boreland",
        "col1": "Oil City, Pennsylvania",
        "col2": "1878-02-01",
        "col3": "1959-11-22"
    },
    {
        "col0": "W. R. Warren",
        "col1": "Harrisonburg, Virginia",
        "col2": "1885-12-22",
        "col3": "1969-11-17"
    },
    {
        "col0": "W. R. Ritchie",
        "col1": "Rabun County, Georgia",
        "col2": "1876-01-25",
        "col3": "1970-01-18"
    },
    {
        "col0": "W. R. Richards",
        "col1": "Connecticut",
        "col2": "1904-01-10",
        "col3": "1991-10-12"
    },
    {
        "col0": "W. P. Finney",
        "col1": "Dana, Indiana",
        "col2": "1871-04-14",
        "col3": "1954-03-06"
    },
    {
        "col0": "W. P. Astle",
        "col1": "Newton, Kansas",
        "col2": "1902-07-27",
        "col3": "1983-12-0"
    },
    {
        "col0": "W. L. Golightly",
        "col1": "Crowley, Texas",
        "col2": "1900-02-19",
        "col3": "1974-09-03"
    },
    {
        "col0": "W. J. Randall",
        "col1": "Boston, Massachusetts",
        "col2": "1874-06-27",
        "col3": "1925-11-17"
    },
    {
        "col0": "W. J. King",
        "col1": "Port Hope, Ontario",
        "col2": "1864-01-04",
        "col3": "1936-07-16"
    },
    {
        "col0": "W. J. Forbes",
        "col1": "Shoreham, Vermont",
        "col2": "1874-08-24",
        "col3": "1900-06-18"
    },
    {
        "col0": "W. H. Lyon",
        "col1": "Boonton, New Jersey",
        "col2": "1872-09-15",
        "col3": "1957-04-03"
    },
    {
        "col0": "W. H. Lillard",
        "col1": "Paris, Illinois",
        "col2": "1881-11-20",
        "col3": "1967-06-30"
    },
    {
        "col0": "W. H. Britton",
        "col1": "Des Moines, Iowa",
        "col2": "1892-06-04",
        "col3": "1982-11-29"
    },
    {
        "col0": "W. H. Bannard",
        "col1": "Plainfield, New Jersey",
        "col2": "1875-03-06",
        "col3": "1913-03-22"
    },
    {
        "col0": "W. E. Metzenthin",
        "col1": "Berlin",
        "col2": "1875-02-24",
        "col3": "1942-09-18"
    },
    {
        "col0": "W. D. Chadwick",
        "col1": "Ohio",
        "col2": "1883-12-20",
        "col3": "1934-06-05"
    },
    {
        "col0": "W. C. Riddick",
        "col1": "Wake County, North Carolina",
        "col2": "1864-08-04",
        "col3": "1942-06-09"
    },
    {
        "col0": "W. C. Raftery",
        "col1": "Worcester, Massachusetts",
        "col2": "1887-07-28",
        "col3": "1965-07-02"
    },
    {
        "col0": "W. C. Dowd",
        "col1": "Moore County, North Carolina",
        "col2": "1865-03-21",
        "col3": "1927-09-23"
    },
    {
        "col0": "W. B. Hopkins",
        "col1": "Ontario, New York",
        "col2": "1869-01-01",
        "col3": "1935-12-06"
    },
    {
        "col0": "W. A. Martin",
        "col1": "Chattanooga, Tennessee",
        "col2": "1878-06-01",
        "col3": "1955-08-05"
    },
    {
        "col0": "W. A. Lambeth",
        "col1": "Thomasville, North Carolina",
        "col2": "1867-10-27",
        "col3": "1944-06-24"
    },
    {
        "col0": "W. A. Cunningham",
        "col1": "Nashville, Tennessee",
        "col2": "1886-07-09",
        "col3": "1958-08-15"
    },
    {
        "col0": "W. A. Blount",
        "col1": "Pensacola, Florida",
        "col2": "1879-05-23",
        "col3": "1918-10-28"
    },
    {
        "col0": "V. Ashford",
        "col1": "Chicago, Illinois",
        "col2": "1907-11-15",
        "col3": "1973-10-14"
    },
    {
        "col0": "V. Dabney",
        "col1": "Charlottesville, Virginia",
        "col2": "1878-02-02",
        "col3": "1942-01-17"
    },
    {
        "col0": "V. Lombardi",
        "col1": "Brooklyn, New York",
        "col2": "1913-06-11",
        "col3": "1970-09-03"
    },
    {
        "col0": "V. Gibson",
        "col1": "Birmingham, Alabama",
        "col2": "1933-03-27",
        "col3": "2012-01-10"
    },
    {
        "col0": "V. DiFrancesca",
        "col1": "Melrose Park, Illinois",
        "col2": "1922-01-01",
        "col3": "2007-05-21"
    },
    {
        "col0": "V. Cazzetta",
        "col1": "New Britain, Connecticut",
        "col2": "1925-9-24",
        "col3": "2005-5-4"
    },
    {
        "col0": "V. Payne",
        "col1": "Texas",
        "col2": "1899-07-03",
        "col3": "1981-10-26"
    },
    {
        "col0": "V. M. Place",
        "col1": "New Salem, Massachusetts",
        "col2": "1876-11-26",
        "col3": "1923-06-16"
    },
    {
        "col0": "V. Kelly",
        "col1": "Oklahoma",
        "col2": "1887-10-31",
        "col3": "1958-07-25"
    },
    {
        "col0": "V. Schwenk",
        "col1": "Dayton, Ohio",
        "col2": "1924-10-26",
        "col3": "2016-03-14"
    },
    {
        "col0": "V. Rowen",
        "col1": "Brooklyn, New York",
        "col2": "1919-07-24",
        "col3": "2013-01-14"
    },
    {
        "col0": "V. Heyliger",
        "col1": "Boston",
        "col2": "1912-09-26",
        "col3": "2006-10-04"
    },
    {
        "col0": "V. Hanson",
        "col1": "Sacramento, California",
        "col2": "1903-07-30",
        "col3": "1982-04-10"
    },
    {
        "col0": "V. Fusia",
        "col1": "Wilkinsburg, Pennsylvania",
        "col2": "1916-11-21",
        "col3": "1991-01-18"
    },
    {
        "col0": "V. Smith",
        "col1": "Macon, Georgia",
        "col2": "1908-01-14",
        "col3": "1988-09-29"
    },
    {
        "col0": "V. McCasland",
        "col1": "Comanche, Texas",
        "col2": "1896-09-27",
        "col3": "1970-11-15"
    },
    {
        "col0": "V. McCain",
        "col1": "Enville, Oklahoma",
        "col2": "1908-06-04",
        "col3": "1993-04-05"
    },
    {
        "col0": "V. L. Parrington",
        "col1": "Aurora, Illinois",
        "col2": "1871-08-03",
        "col3": "1929-06-16"
    },
    {
        "col0": "V. K. Irvine",
        "col1": "Bedford, Pennsylvania",
        "col2": "1871-06-24",
        "col3": "1942-09-04"
    },
    {
        "col0": "V. Haynes",
        "col1": "Arkansas City, Arkansas",
        "col2": "1910-12-17",
        "col3": "1973-05-29"
    },
    {
        "col0": "V. Glass",
        "col1": "Bloomburg, Texas",
        "col2": "1928-10-14",
        "col3": "2005-12-03"
    },
    {
        "col0": "V. Geddy",
        "col1": "Williamsburg, Virginia",
        "col2": "1897-11-11",
        "col3": "1952-10-18"
    },
    {
        "col0": "V. S. Bennett",
        "col1": "Prattsburgh, New York",
        "col2": "1867-01-01",
        "col3": "1944-10-26"
    },
    {
        "col0": "V. Triechler",
        "col1": "Elizabethtown, Pennsylvania",
        "col2": "1879-06-05",
        "col3": "1947-04-28"
    },
    {
        "col0": "V. Ward",
        "col1": "United States",
        "col2": "1884-09-06",
        "col3": "1919-03-04"
    },
    {
        "col0": "V. Peterson",
        "col1": "Huntsville, Utah",
        "col2": "1892-05-02",
        "col3": "1976-09-01"
    },
    {
        "col0": "V. P. Whelan",
        "col1": "Youngstown, Ohio",
        "col2": "1877-07-19",
        "col3": "1946-11-21"
    },
    {
        "col0": "T. McLaughry",
        "col1": "Chicago, Illinois",
        "col2": "1893-05-19",
        "col3": "1974-11-26"
    },
    {
        "col0": "T. Edwards",
        "col1": "Douglas County, Washington",
        "col2": "1907-9-28",
        "col3": "1973-1-12"
    },
    {
        "col0": "T. Meyers",
        "col1": "Gobles, Michigan",
        "col2": "1887-09-05",
        "col3": "1942-0-0"
    },
    {
        "col0": "T. J. Rees",
        "col1": "Dover, Ohio",
        "col2": "1913-10-22",
        "col3": "1999-01-02"
    },
    {
        "col0": "T. Tidwell",
        "col1": "Florence, Alabama",
        "col2": "1929-02-05",
        "col3": "2004-07-01"
    },
    {
        "col0": "T. Ward",
        "col1": "Birmingham, Alabama",
        "col2": "1978-07-07",
        "col3": "2015-04-07"
    },
    {
        "col0": "T. Clark",
        "col1": "Oshkosh, Wisconsin",
        "col2": "1929-1-1",
        "col3": "2009-04-22"
    },
    {
        "col0": "T. Knap",
        "col1": "Milwaukee, Wisconsin",
        "col2": "1914-12-08",
        "col3": "2011-09-24"
    },
    {
        "col0": "T. Hinkle",
        "col1": "Logansport, Indiana",
        "col2": "1899-12-19",
        "col3": "1992-09-22"
    },
    {
        "col0": "T. Frasca",
        "col1": "Cambridge, Massachusetts",
        "col2": "1927-05-30",
        "col3": "1999-04-01"
    },
    {
        "col0": "T. Comerford",
        "col1": "Worcester, Massachusetts",
        "col2": "1898-01-25",
        "col3": "1970-08-25"
    },
    {
        "col0": "T. Coleman",
        "col1": "Phil Campbell, Alabama",
        "col2": "1907-07-07",
        "col3": "1973-10-18"
    },
    {
        "col0": "T. Scott",
        "col1": "Onancock, Virginia",
        "col2": "1907-10-09",
        "col3": "1962-6-1"
    },
    {
        "col0": "T. Prothro",
        "col1": "Memphis, Tennessee",
        "col2": "1920-07-20",
        "col3": "1995-05-14"
    },
    {
        "col0": "T. O'Keefe",
        "col1": "Jersey City, New Jersey",
        "col2": "1926-7-16",
        "col3": "2015-10-18"
    },
    {
        "col0": "T. O'Boyle",
        "col1": "Fort Dodge, Iowa",
        "col2": "1917-08-21",
        "col3": "2000-07-19"
    },
    {
        "col0": "T. Mont",
        "col1": "Mount Savage, Maryland",
        "col2": "1922-06-20",
        "col3": "2012-01-01"
    },
    {
        "col0": "T. Mills",
        "col1": "Beloit, Wisconsin",
        "col2": "1883-0-0",
        "col3": "1944-02-25"
    },
    {
        "col0": "T. Hudspeth",
        "col1": "Cherryvale, Kansas",
        "col2": "1931-09-14",
        "col3": "2015-06-23"
    },
    {
        "col0": "T. Code",
        "col1": "California",
        "col2": "1873-04-13",
        "col3": "1956-01-28"
    },
    {
        "col0": "T. Zerfoss",
        "col1": "Ashland, Kentucky",
        "col2": "1895-06-15",
        "col3": "1988-08-05"
    },
    {
        "col0": "T. Wilson",
        "col1": "Corsicana, Texas",
        "col2": "1944-02-24",
        "col3": "2016-08-10"
    },
    {
        "col0": "T. Scott",
        "col1": "Franklin, Kansas",
        "col2": "1908-01-06",
        "col3": "1993-11-26"
    },
    {
        "col0": "T. Nugent",
        "col1": "Lawrence, Massachusetts",
        "col2": "1913-02-24",
        "col3": "2006-01-19"
    },
    {
        "col0": "T. McCann",
        "col1": "Waukegan, Illinois",
        "col2": "1898-11-07",
        "col3": "1975-03-23"
    },
    {
        "col0": "T. Lieb",
        "col1": "Faribault, Minnesota",
        "col2": "1899-10-28",
        "col3": "1962-04-30"
    },
    {
        "col0": "T. Lichtenberg",
        "col1": "Cincinnati",
        "col2": "1940-07-13",
        "col3": "2013-05-26"
    },
    {
        "col0": "T. Lester",
        "col1": "Drumright, Oklahoma",
        "col2": "1927-01-23",
        "col3": "2012-09-02"
    },
    {
        "col0": "T. Landry",
        "col1": "Mission, Texas",
        "col2": "1924-09-11",
        "col3": "2000-02-12"
    },
    {
        "col0": "T. Keady",
        "col1": "Wakefield, Massachusetts",
        "col2": "1882-0-0",
        "col3": "1964-02-12"
    },
    {
        "col0": "T. Kaulukukui",
        "col1": "Honolulu, Hawaii",
        "col2": "1913-01-22",
        "col3": "2007-03-09"
    },
    {
        "col0": "T. Hosier",
        "col1": "South Haven, Michigan",
        "col2": "1942-09-15",
        "col3": "2015-10-28"
    },
    {
        "col0": "T. Hearden",
        "col1": "Appleton, Wisconsin",
        "col2": "1904-09-08",
        "col3": "1964-12-27"
    },
    {
        "col0": "T. Hamilton",
        "col1": "Hoopeston, Illinois",
        "col2": "1905-12-26",
        "col3": "1994-04-03"
    },
    {
        "col0": "T. Fennell",
        "col1": "Jersey City, New Jersey",
        "col2": "1875-05-25",
        "col3": "1936-11-04"
    },
    {
        "col0": "T. Dockrell",
        "col1": "Massachusetts",
        "col2": "1924-07-19",
        "col3": "2012-08-09"
    },
    {
        "col0": "T. Davies",
        "col1": "Pittsburgh",
        "col2": "1896-10-14",
        "col3": "1972-02-29"
    },
    {
        "col0": "T. Dandelet",
        "col1": "Faribault, Minnesota",
        "col2": "1897-08-01",
        "col3": "1950-03-30"
    },
    {
        "col0": "T. Cahill",
        "col1": "Fayetteville, New York",
        "col2": "1919-10-11",
        "col3": "1992-10-29"
    },
    {
        "col0": "T. Boisture",
        "col1": "Detroit, Michigan",
        "col2": "1931-03-23",
        "col3": "2011-03-11"
    },
    {
        "col0": "T. Blackburn",
        "col1": "Peebles, Ohio",
        "col2": "1906-01-23",
        "col3": "1964-03-06"
    },
    {
        "col0": "T. Rockwell",
        "col1": "Jackson, Michigan",
        "col2": "1900-0-0",
        "col3": "1952-03-22"
    },
    {
        "col0": "T. Eberle",
        "col1": "Washington D.C.",
        "col2": "1886-07-04",
        "col3": "1967-0-0"
    },
    {
        "col0": "T. Greene",
        "col1": "Sullivan County, Missouri",
        "col2": "1899-03-29",
        "col3": "1967-10-03"
    },
    {
        "col0": "T. Taylor",
        "col1": "Boston, Massachusetts",
        "col2": "1942-03-26",
        "col3": "2013-04-27"
    },
    {
        "col0": "T. Rucks",
        "col1": "Waukegan, Illinois",
        "col2": "1960-12-21",
        "col3": "2015-03-10"
    },
    {
        "col0": "T. Marcum",
        "col1": "Roscoe, Texas",
        "col2": "1944-02-10",
        "col3": "2013-12-05"
    },
    {
        "col0": "T. Campbell",
        "col1": "Pine Bluff, Arkansas",
        "col2": "1908-0-0",
        "col3": "1963-02-23"
    },
    {
        "col0": "T. Jones",
        "col1": "Wilson, Oklahoma",
        "col2": "1918-04-06",
        "col3": "1988-01-16"
    },
    {
        "col0": "T. McCrady",
        "col1": "Coon Rapids, Iowa",
        "col2": "1907-07-31",
        "col3": "1999-05-27"
    },
    {
        "col0": "T. Murray",
        "col1": "Jackson, Tennessee",
        "col2": "1898-05-08",
        "col3": "1979-8-0"
    },
    {
        "col0": "T. Trenchard",
        "col1": "Queen Anne's County, Maryland",
        "col2": "1874-05-03",
        "col3": "1943-10-16"
    },
    {
        "col0": "T. S. Hammond",
        "col1": "Crown Point, New York",
        "col2": "1883-10-29",
        "col3": "1950-06-15"
    },
    {
        "col0": "T. Ransom",
        "col1": "Grant County, Indiana",
        "col2": "1870-08-08",
        "col3": "1946-06-03"
    },
    {
        "col0": "T. J. Riley",
        "col1": "Escanaba, Michigan",
        "col2": "1885-01-20",
        "col3": "1928-03-15"
    },
    {
        "col0": "T. J. Campbell",
        "col1": "Gardner, Massachusetts",
        "col2": "1886-10-27",
        "col3": "1972-02-28"
    },
    {
        "col0": "T. Hazzard",
        "col1": "Titusville, Pennsylvania",
        "col2": "1871-10-24",
        "col3": "1957-02-10"
    },
    {
        "col0": "T. H. Maguire",
        "col1": "South Boston",
        "col2": "1877-01-11",
        "col3": "1915-03-05"
    },
    {
        "col0": "T. F. Fennell",
        "col1": "Bronx, New York",
        "col2": "1904-03-01",
        "col3": "1991-05-23"
    },
    {
        "col0": "T. E. Stidham",
        "col1": "Checotah, Oklahoma",
        "col2": "1905-03-25",
        "col3": "1964-01-29"
    },
    {
        "col0": "T. Dowler",
        "col1": "Erie, Pennsylvania",
        "col2": "1903-07-03",
        "col3": "1986-12-06"
    },
    {
        "col0": "Thomas A. Bogle, Jr.",
        "col1": "Ann Arbor, Michigan",
        "col2": "1890-03-07",
        "col3": "1955-09-21"
    },
    {
        "col0": "T. A. Barry",
        "col1": "Brockton, Massachusetts",
        "col2": "1879-0-0",
        "col3": "1947-12-27"
    },
    {
        "col0": "T. W. Mortimer",
        "col1": "Minburn, Iowa",
        "col2": "1872-05-27",
        "col3": "1952-10-01"
    },
    {
        "col0": "T. Lyman",
        "col1": "Alden, Iowa",
        "col2": "1869-09-07",
        "col3": "1939-09-21"
    },
    {
        "col0": "T. J. Fouts",
        "col1": "Gonzales, Texas",
        "col2": "1893-07-05",
        "col3": "1954-04-28"
    },
    {
        "col0": "T. M. Stuart",
        "col1": "Chariton, Iowa",
        "col2": "1883-06-24",
        "col3": "1946-01-14"
    },
    {
        "col0": "T. Boyett",
        "col1": "Missouri",
        "col2": "1912-08-02",
        "col3": "1987-08-17"
    },
    {
        "col0": "T. Vann",
        "col1": "Magnolia, Mississippi",
        "col2": "1907-09-22",
        "col3": "1982-09-07"
    },
    {
        "col0": "T. Truax",
        "col1": "Hancock, Maryland",
        "col2": "1945-06-10",
        "col3": "2015-02-15"
    },
    {
        "col0": "T. Slater",
        "col1": "Kirkland Lake, Ontario",
        "col2": "1937-12-05",
        "col3": "1991-12-06"
    },
    {
        "col0": "T. Hoeppner",
        "col1": "Woodburn, Indiana",
        "col2": "1947-08-19",
        "col3": "2007-06-19"
    },
    {
        "col0": "T. Morris",
        "col1": "Ontario",
        "col2": "1910-3-0",
        "col3": "1965-09-05"
    },
    {
        "col0": "T. Sloane",
        "col1": "Iowa",
        "col2": "1903-03-22",
        "col3": "1984-12-21"
    },
    {
        "col0": "T. Petoskey",
        "col1": "St. Charles, Michigan",
        "col2": "1911-01-05",
        "col3": "1996-11-30"
    },
    {
        "col0": "T. Nesser",
        "col1": "Ohio",
        "col2": "1883-04-05",
        "col3": "1941-06-07"
    },
    {
        "col0": "T. Marchibroda",
        "col1": "Franklin, Pennsylvania",
        "col2": "1931-3-15",
        "col3": "2016-1-16"
    },
    {
        "col0": "T. Jefferies",
        "col1": "Jacksonville, Texas",
        "col2": "1908-11-08",
        "col3": "1985-01-02"
    },
    {
        "col0": "T. Coy",
        "col1": "Andover, Massachusetts",
        "col2": "1888-05-23",
        "col3": "1935-09-08"
    },
    {
        "col0": "T. Cox",
        "col1": "Sault Ste. Marie, Michigan",
        "col2": "1903-06-30",
        "col3": "1989-11-05"
    },
    {
        "col0": "T. Stevens",
        "col1": "Oakley, Utah",
        "col2": "1923-10-30",
        "col3": "1995-08-09"
    },
    {
        "col0": "T. W. Alley",
        "col1": "Wytheville, Virginia",
        "col2": "1942-07-27",
        "col3": "1993-02-05"
    }
]