[
    {
        "col0": "Y. Edochie",
        "col1": "M. Obiekwe",
        "col2": "1982-01-07",
        "col3": "Yul Edochie"
    },
    {
        "col0": "W. Dafoe",
        "col1": "D. Dafoe",
        "col2": "1955-07-22",
        "col3": "William J. Dafoe"
    },
    {
        "col0": "W. Houston",
        "col1": "D. Warwick",
        "col2": "1963-08-09",
        "col3": "Whitney Elizabeth Houston"
    },
    {
        "col0": "W. Disney",
        "col1": "D. family",
        "col2": "1901-12-05",
        "col3": "Walter Elias Disney"
    },
    {
        "col0": "V. McMahon",
        "col1": "T. H",
        "col2": "1945-08-24",
        "col3": "Vincent Kennedy McMahon"
    },
    {
        "col0": "V. Kumaranatunga",
        "col1": "J. Kumaranatunga",
        "col2": "1945-10-09",
        "col3": "Kovilage Anton Vijaya Kumaranatunga"
    },
    {
        "col0": "V. Silayan",
        "col1": "V. Silayan",
        "col2": "1929-01-31",
        "col3": "Victor Payumo Silayan"
    },
    {
        "col0": "T. Hanks",
        "col1": "J. Hanks",
        "col2": "1956-07-09",
        "col3": "Thomas Jeffrey Hanks"
    },
    {
        "col0": "Tinku",
        "col1": "Sonia",
        "col2": "1978-08-13",
        "col3": "Arunkanth"
    },
    {
        "col0": "T. Considine",
        "col1": "J. Considine",
        "col2": "1940-12-31",
        "col3": "Timothy Daniel Considine"
    },
    {
        "col0": "S. Chaplin",
        "col1": "C. Chaplin",
        "col2": "1885-03-16",
        "col3": "Sydney John Hill"
    },
    {
        "col0": "S. Spielberg",
        "col1": "A. Spielberg",
        "col2": "1946-12-18",
        "col3": "Steven Allan Spielberg"
    },
    {
        "col0": "S. McMahon",
        "col1": "M. Mazzola-McMahon",
        "col2": "1976-09-24",
        "col3": "Stephanie Marie McMahon"
    },
    {
        "col0": "Sinitta",
        "col1": "A. Stewart",
        "col2": "1963-10-19",
        "col3": "Sinitta Renet Malone"
    },
    {
        "col0": "S. Sim",
        "col1": "D. Attenborough",
        "col2": "1922-06-05",
        "col3": "Sheila Beryl Grant Sim"
    },
    {
        "col0": "S. Penn",
        "col1": "M. Penn",
        "col2": "1960-08-17",
        "col3": "Sean Justin Penn"
    },
    {
        "col0": "S. W. Abbas",
        "col1": "H. Akhtar",
        "col2": "1957-06-21",
        "col3": "Saba Hameed Akhtar"
    },
    {
        "col0": "R. Reagan",
        "col1": "N. Reagan",
        "col2": "1911-02-06",
        "col3": "Ronald Wilson Reagan"
    },
    {
        "col0": "R. Reagan",
        "col1": "M. Reagan",
        "col2": "1958-05-20",
        "col3": "Ronald Prescott Reagan"
    },
    {
        "col0": "R. Padilla",
        "col1": "R. Padilla",
        "col2": "1964-1-4",
        "col3": "Rommel Carino Padilla"
    },
    {
        "col0": "R. Wagner",
        "col1": "N. G. Wagner",
        "col2": "1930-02-10",
        "col3": "Robert John Wagner, Jr."
    },
    {
        "col0": "R. Belushi",
        "col1": "J. Belushi",
        "col2": "1980-10-23",
        "col3": "Robert James Belushi"
    },
    {
        "col0": "R. Corddry",
        "col1": "N. Corddry",
        "col2": "1971-02-04",
        "col3": "Robert William Corddry"
    },
    {
        "col0": "R. Attenborough",
        "col1": "D. Attenborough",
        "col2": "1923-08-29",
        "col3": "Richard Samuel Attenborough"
    },
    {
        "col0": "R. Montalban",
        "col1": "C. Montalban",
        "col2": "1920-11-25",
        "col3": "Ricardo Gonzalo Pedro Montalban y Merino"
    },
    {
        "col0": "R. Stone",
        "col1": "M. Bell",
        "col2": "1969-11-03",
        "col3": "Rhashan Stone"
    },
    {
        "col0": "R. Quaid",
        "col1": "D. Quaid",
        "col2": "1950-10-01",
        "col3": "Randy Randall Rudy Quaid"
    },
    {
        "col0": "R. Boone",
        "col1": "D. Boone",
        "col2": "1942-01-17",
        "col3": "Clyde Randall Boone"
    },
    {
        "col0": "R. Padilla",
        "col1": "D. Padilla",
        "col2": "1989-01-22",
        "col3": "Ronnel Antonio Padilla"
    },
    {
        "col0": "Q. A. Brocka",
        "col1": "L. Brocka",
        "col2": "1972-1-1",
        "col3": "Quenton Allan Brocka"
    },
    {
        "col0": "P. Pascual",
        "col1": "B. Alves",
        "col2": "1977-01-12",
        "col3": "Piolo Jose Nonato Pascual"
    },
    {
        "col0": "P. Medina",
        "col1": "P. Medina",
        "col2": "1950-08-27",
        "col3": "Crispin Medina"
    },
    {
        "col0": "P. McCartney",
        "col1": "M. McGear",
        "col2": "1942-06-18",
        "col3": "James Paul McCartney"
    },
    {
        "col0": "P. Fix",
        "col1": "H. C. Jr.",
        "col2": "1901-03-13",
        "col3": "Peter Paul Fix"
    },
    {
        "col0": "P. Davis",
        "col1": "M. Reagan",
        "col2": "1952-10-21",
        "col3": "Patricia Ann Reagan"
    },
    {
        "col0": "P. Diaz",
        "col1": "R. Diaz",
        "col2": "1937-05-28",
        "col3": "Francisco Bustillos Diaz"
    },
    {
        "col0": "P. Bai",
        "col1": "Mynavathi",
        "col2": "1928-09-18",
        "col3": "Geetha"
    },
    {
        "col0": "N. Hjulstrom",
        "col1": "F. Hjulstrom",
        "col2": "1962-02-15",
        "col3": "Niklas Lennart Hjulstrom"
    },
    {
        "col0": "N. Campbell",
        "col1": "C. Campbell",
        "col2": "1973-10-03",
        "col3": "Neve Adrianne Campbell"
    },
    {
        "col0": "M. Stone",
        "col1": "F. Stone",
        "col2": "1904-07-05",
        "col3": "Hugh Milburn Stone"
    },
    {
        "col0": "M. Myers",
        "col1": "P. Myers",
        "col2": "1963-05-25",
        "col3": "Michael John Myers"
    }
]