[
    {
        "col0": "Your Unchanging Love",
        "col1": "Detroit",
        "col2": "Holland-Dozier-Holland",
        "col3": "0015-01-05"
    },
    {
        "col0": "Your Squaw Is on the Warpath",
        "col1": "United States",
        "col2": "L. Lynn",
        "col3": "1968-08-30"
    },
    {
        "col0": "Your Precious Love",
        "col1": "Hitsville USA",
        "col2": "A. &. Simpson",
        "col3": "1967-03-23"
    },
    {
        "col0": "Your Old Cold Shoulder",
        "col1": "Nashville, Tennessee",
        "col2": "R. Leigh",
        "col3": "1977-10-13"
    },
    {
        "col0": "Your Love",
        "col1": "London",
        "col2": "J. Spinks",
        "col3": "1985-07-26"
    },
    {
        "col0": "Your Kisses Will",
        "col1": "Nashville, Tennessee",
        "col2": "V. Stephenson",
        "col3": "1976-11-01"
    },
    {
        "col0": "Your Decision",
        "col1": "Northridge, Los Angeles, California",
        "col2": "J. Cantrell",
        "col3": "2008-10-23"
    },
    {
        "col0": "Young Parisians",
        "col1": "Notting Hill",
        "col2": "A. Ant",
        "col3": "1978-08-26"
    },
    {
        "col0": "Young Boy",
        "col1": "England",
        "col2": "P. McCartney",
        "col3": "1995-02-22"
    },
    {
        "col0": "Young Blood",
        "col1": "1957 in music",
        "col2": "Jerry Leiber and Mike Stoller",
        "col3": "1957-02-15"
    },
    {
        "col0": "You Won't See Me",
        "col1": "Abbey Road Studios",
        "col2": "Lennon-McCartney",
        "col3": "1965-11-11"
    },
    {
        "col0": "You Win Again",
        "col1": "Nashville, Tennessee",
        "col2": "H. Williams",
        "col3": "1952-07-11"
    },
    {
        "col0": "You Were Made for Me",
        "col1": "California",
        "col2": "S. Cooke",
        "col3": "1957-06-01"
    },
    {
        "col0": "You Still Believe in Me",
        "col1": "United Western Recorders",
        "col2": "B. Wilson",
        "col3": "1965-11-01"
    },
    {
        "col0": "You Stepped Into My Life",
        "col1": "Criteria Studios",
        "col2": "B. Gibb",
        "col3": "1976-02-03"
    },
    {
        "col0": "You Should Be Dancing",
        "col1": "Le Studio",
        "col2": "R. Gibb",
        "col3": "1976-02-08"
    },
    {
        "col0": "You Really Got Me",
        "col1": "London",
        "col2": "R. Davies",
        "col3": "1979-03-06"
    },
    {
        "col0": "You Never Give Me Your Money",
        "col1": "Abbey Road Studios",
        "col2": "Lennon-McCartney",
        "col3": "0005-07-31"
    },
    {
        "col0": "You Love the Thunder",
        "col1": "New Jersey",
        "col2": "J. Browne",
        "col3": "1977-08-27"
    },
    {
        "col0": "You Like Me Too Much",
        "col1": "Abbey Road Studios",
        "col2": "G. Harrison",
        "col3": "1965-02-17"
    },
    {
        "col0": "You Know You're Right",
        "col1": "Seattle, Washington",
        "col2": "K. Cobain",
        "col3": "1994-01-30"
    },
    {
        "col0": "You Know What to Do",
        "col1": "Abbey Road Studios",
        "col2": "G. Harrison",
        "col3": "1964-06-03"
    },
    {
        "col0": "You Know My Name",
        "col1": "Abbey Road Studios",
        "col2": "Lennon-McCartney",
        "col3": "0007-05-17"
    },
    {
        "col0": "You Keep Me Hangin' On",
        "col1": "Hitsville U.S.A.",
        "col2": "Holland-Dozier-Holland",
        "col3": "1966-08-01"
    },
    {
        "col0": "You Have More Friends Than You Know",
        "col1": "Los Angeles, California",
        "col2": "M. Warren",
        "col3": "2013-04-12"
    },
    {
        "col0": "You Had Me",
        "col1": "Right Track Recording",
        "col2": "J. Stone",
        "col3": "2003-08-14"
    },
    {
        "col0": "You Don't Mess Around with Jim",
        "col1": "New York City",
        "col2": "J. Croce",
        "col3": "1971-10-11"
    },
    {
        "col0": "You Can't Hurry Love",
        "col1": "Hitsville U.S.A.",
        "col2": "Holland-Dozier-Holland",
        "col3": "1966-07-05"
    },
    {
        "col0": "You Can't Do That",
        "col1": "Abbey Road Studios",
        "col2": "Lennon-McCartney",
        "col3": "1964-02-25"
    },
    {
        "col0": "You Better You Bet",
        "col1": "Odyssey Studios",
        "col2": "P. Townshend",
        "col3": "1980-11-04"
    },
    {
        "col0": "You Ain't Woman Enough",
        "col1": "Nashville, Tennessee",
        "col2": "L. Lynn",
        "col3": "1965-11-15"
    },
    {
        "col0": "You've Really Got a Hold on Me",
        "col1": "Hitsville USA",
        "col2": "S. Robinson",
        "col3": "1962-10-16"
    },
    {
        "col0": "You've Got to Hide Your Love Away",
        "col1": "Abbey Road Studios",
        "col2": "Lennon-McCartney",
        "col3": "1965-02-18"
    },
    {
        "col0": "You've Got to Earn It",
        "col1": "Hitsville USA",
        "col2": "S. Robinson",
        "col3": "1964-08-18"
    },
    {
        "col0": "You're the Voice",
        "col1": "World Liberty Concert",
        "col2": "K. Reid",
        "col3": "1995-05-08"
    },
    {
        "col0": "You're in My Heart",
        "col1": "Texas",
        "col2": "G. Jones",
        "col3": "1954-01-19"
    },
    {
        "col0": "You're a Wonderful One",
        "col1": "Detroit, Michigan",
        "col2": "Holland-Dozier-Holland",
        "col3": "1964-01-06"
    },
    {
        "col0": "You're a Big Girl Now",
        "col1": "Minneapolis, Minnesota",
        "col2": "B. Dylan",
        "col3": "1974-12-27"
    },
    {
        "col0": "You're Welcome",
        "col1": "CBS Columbia Square",
        "col2": "B. Wilson",
        "col3": "1966-12-15"
    },
    {
        "col0": "You're So Good to Me",
        "col1": "United Western Recorders",
        "col2": "B. Wilson",
        "col3": "1965-05-24"
    },
    {
        "col0": "You're Just in Love",
        "col1": "1950 in music",
        "col2": "I. Berlin",
        "col3": "1950-09-26"
    },
    {
        "col0": "You're Gonna Miss Me",
        "col1": "Houston",
        "col2": "R. Erickson",
        "col3": "1966-01-02"
    },
    {
        "col0": "You're Gonna Make Me Lonesome When You Go",
        "col1": "Minneapolis, Minnesota",
        "col2": "B. Dylan",
        "col3": "1974-12-30"
    },
    {
        "col0": "You're Gonna Change",
        "col1": "Nashville, Tennessee",
        "col2": "H. Williams",
        "col3": "1949-03-02"
    }
]