[
    {
        "col0": "J. English",
        "col1": "Cabramatta High School",
        "col2": "2016",
        "col3": "Jonathan James English",
        "col4": "1949-03-26"
    },
    {
        "col0": "J. Vernon",
        "col1": "Royal Academy of Dramatic Arts",
        "col2": "2005",
        "col3": "Adolphus Raymondus Vernon Agopsowicz",
        "col4": "1932-02-24"
    },
    {
        "col0": "J. Schlesinger",
        "col1": "Balliol College, Oxford",
        "col2": "2003",
        "col3": "John Richard Schlesinger",
        "col4": "1926-02-16"
    },
    {
        "col0": "J. Saunders",
        "col1": "Ryerson University",
        "col2": "2016",
        "col3": "John Peterson Saunders",
        "col4": "1955-02-02"
    },
    {
        "col0": "J. Ritter",
        "col1": "University of Southern California",
        "col2": "2003",
        "col3": "Jonathan Southworth Ritter",
        "col4": "1948-09-17"
    },
    {
        "col0": "J. McLaughlin",
        "col1": "Columbia University",
        "col2": "2016",
        "col3": "John Joseph McLaughlin",
        "col4": "1927-03-29"
    },
    {
        "col0": "J. McGiver",
        "col1": "Columbia University",
        "col2": "1975",
        "col3": "John Irwin McGiver",
        "col4": "1913-11-05"
    },
    {
        "col0": "J. Kerr",
        "col1": "Harvard University",
        "col2": "2013",
        "col3": "John Grinham Kerr",
        "col4": "1931-11-15"
    },
    {
        "col0": "J. Howard",
        "col1": "Case Western Reserve University",
        "col2": "1995",
        "col3": "John Richard Cox, Jr.",
        "col4": "1913-04-14"
    },
    {
        "col0": "J. Forsythe",
        "col1": "University of North Carolina at Chapel Hill",
        "col2": "2010",
        "col3": "John/Jacob Lincoln Freund",
        "col4": "1918-01-29"
    },
    {
        "col0": "J. C. Daly",
        "col1": "Boston College",
        "col2": "1991",
        "col3": "John Charles Patrick Croghan Daly",
        "col4": "1914-02-20"
    },
    {
        "col0": "J. Cassavetes",
        "col1": "American Academy of Dramatic Arts",
        "col2": "1989",
        "col3": "John Nicholas Cassavetes",
        "col4": "1929-12-09"
    },
    {
        "col0": "J. Beradino",
        "col1": "University of Southern California",
        "col2": "1996",
        "col3": "Giovanni Berardino",
        "col4": "1917-05-01"
    },
    {
        "col0": "J. Ashley",
        "col1": "Oklahoma State University",
        "col2": "1997",
        "col3": "John Atchley",
        "col4": "1934-12-25"
    },
    {
        "col0": "J. Abineri",
        "col1": "Bristol Old Vic Theatre School",
        "col2": "2000",
        "col3": "John Frederick Abineri",
        "col4": "1928-05-18"
    },
    {
        "col0": "J. Ranft",
        "col1": "California Institute of the Arts",
        "col2": "2005",
        "col3": "Joseph Henry Ranft",
        "col4": "1960-03-13"
    },
    {
        "col0": "J. Jamail",
        "col1": "University of Texas at Austin",
        "col2": "2015",
        "col3": "Joseph Dahr Jamail, Jr.",
        "col4": "1925-10-19"
    },
    {
        "col0": "J. Flynn",
        "col1": "University of Notre Dame",
        "col2": "1974",
        "col3": "Joseph A. Flynn",
        "col4": "1924-11-08"
    },
    {
        "col0": "J. Mahoney",
        "col1": "University of Iowa",
        "col2": "1989",
        "col3": "Jacques Joseph O'Mahoney",
        "col4": "1919-02-07"
    },
    {
        "col0": "J. Moore",
        "col1": "Agnes Scott College",
        "col2": "1997",
        "col3": "Dorothy Joanne Cook",
        "col4": "1934-11-10"
    }
]