[
    {
        "col0": "B. Garrett",
        "col1": "Neighborhood Playhouse",
        "col2": "2011",
        "col3": "Elizabeth Garrett",
        "col4": "1919-05-23"
    },
    {
        "col0": "B. Page",
        "col1": "Multnomah University",
        "col2": "2008",
        "col3": "Bettie Mae Page",
        "col4": "1923-04-22"
    },
    {
        "col0": "B. Palmer",
        "col1": "DePaul University",
        "col2": "2015",
        "col3": "Patricia Betsy Hrunek",
        "col4": "1926-11-01"
    },
    {
        "col0": "B. Kalich",
        "col1": "Lviv Conservatory",
        "col2": "1939",
        "col3": "Beylke Kalakh",
        "col4": "1874-05-17"
    },
    {
        "col0": "B. Convy",
        "col1": "North Hollywood High School",
        "col2": "1991",
        "col3": "Bernard Whalen Convy",
        "col4": "1933-07-23"
    },
    {
        "col0": "B. Piazza",
        "col1": "Princeton University",
        "col2": "1991",
        "col3": "Benito Daniel Piazza",
        "col4": "1933-07-30"
    },
    {
        "col0": "B. Gazzara",
        "col1": "The New School",
        "col2": "2012",
        "col3": "Biagio Anthony Gazzarra",
        "col4": "1930-08-28"
    },
    {
        "col0": "B. Bradlee",
        "col1": "Harvard College",
        "col2": "2014",
        "col3": "Benjamin Crowninshield Bradlee",
        "col4": "1921-08-26"
    },
    {
        "col0": "B. Arthur",
        "col1": "Blackstone College for Girls",
        "col2": "2009",
        "col3": "Bernice Frankel",
        "col4": "1922-05-13"
    },
    {
        "col0": "B. Jenner",
        "col1": "West Chester University",
        "col2": "2016",
        "col3": "Barry Francis Jenner",
        "col4": "1941-01-14"
    },
    {
        "col0": "B. Ingham",
        "col1": "Heath Grammar School",
        "col2": "2015",
        "col3": "Barrie Stanton Ingham",
        "col4": "1932-02-10"
    },
    {
        "col0": "B. Billingsley",
        "col1": "Los Angeles City College",
        "col2": "2010",
        "col3": "Barbara Lillian Combes",
        "col4": "1915-12-22"
    },
    {
        "col0": "A. Gardner",
        "col1": "Barton College",
        "col2": "1990",
        "col3": "Ava Lavinia Gardner",
        "col4": "1922-12-24"
    },
    {
        "col0": "A. Hill",
        "col1": "University of British Columbia",
        "col2": "2006",
        "col3": "Arthur Edward Spence Hill",
        "col4": "1922-08-01"
    },
    {
        "col0": "A. E. Carewe",
        "col1": "American Academy of Dramatic Arts",
        "col2": "1937",
        "col3": "Hovsep Hovsepian",
        "col4": "1884-12-30"
    },
    {
        "col0": "A. Ridley",
        "col1": "University of Bristol",
        "col2": "1984",
        "col3": "William Arnold Ridley",
        "col4": "1896-01-07"
    },
    {
        "col0": "A. Dolmetsch",
        "col1": "Royal College of Music",
        "col2": "1940",
        "col3": "Eugene Arnold Dolmetsch",
        "col4": "1858-02-24"
    },
    {
        "col0": "A. Francis",
        "col1": "Finch College",
        "col2": "2001",
        "col3": "Arlene Francis Kazanjian",
        "col4": "1907-10-20"
    },
    {
        "col0": "A. Hamilton",
        "col1": "Scotch College, Adelaide",
        "col2": "1995",
        "col3": "Antony Hamilton Smith",
        "col4": "1952-05-04"
    },
    {
        "col0": "A. Yelchin",
        "col1": "Sherman Oaks Center for Enriched Studies",
        "col2": "2016",
        "col3": "Anton Viktorovich Yelchin",
        "col4": "1989-03-11"
    },
    {
        "col0": "A. Eisley",
        "col1": "University of Miami",
        "col2": "2003",
        "col3": "Frederick Glendinning Eisley",
        "col4": "1925-01-19"
    },
    {
        "col0": "A. Jackson",
        "col1": "Actors Studio",
        "col2": "2016",
        "col3": "Anna Jane Jackson",
        "col4": "1925-09-03"
    },
    {
        "col0": "A. Sothern",
        "col1": "University of Washington",
        "col2": "2001",
        "col3": "Harriette Arlene Lake",
        "col4": "1909-01-22"
    },
    {
        "col0": "A. Rutherford",
        "col1": "Fairfax High School",
        "col2": "2012",
        "col3": "Therese Ann Rutherford",
        "col4": "1917-11-02"
    },
    {
        "col0": "A. B. Davis",
        "col1": "University of Michigan",
        "col2": "2014",
        "col3": "Ann Bradford Davis",
        "col4": "1926-05-05"
    }
]