[
    {
        "Rank": "1",
        "Nation": "United States",
        "Gold": "5",
        "Silver": "6",
        "Bronze": "5",
        "Total": "16"
    },
    {
        "Rank": "2",
        "Nation": "Jamaica",
        "Gold": "4",
        "Silver": "1",
        "Bronze": "1",
        "Total": "6"
    },
    {
        "Rank": "3",
        "Nation": "Netherlands",
        "Gold": "2",
        "Silver": "0",
        "Bronze": "0",
        "Total": "2"
    },
    {
        "Rank": "4",
        "Nation": "Bahamas",
        "Gold": "1",
        "Silver": "1",
        "Bronze": "0",
        "Total": "2"
    },
    {
        "Rank": "5",
        "Nation": "Ukraine",
        "Gold": "1",
        "Silver": "0",
        "Bronze": "1",
        "Total": "2"
    },
    {
        "Rank": "6",
        "Nation": "East Germany",
        "Gold": "1",
        "Silver": "0",
        "Bronze": "0",
        "Total": "1"
    },
    {
        "Rank": "",
        "Nation": "Greece",
        "Gold": "1",
        "Silver": "0",
        "Bronze": "0",
        "Total": "1"
    },
    {
        "Rank": "",
        "Nation": "Soviet Union",
        "Gold": "1",
        "Silver": "0",
        "Bronze": "0",
        "Total": "1"
    },
    {
        "Rank": "9",
        "Nation": "Ivory Coast",
        "Gold": "0",
        "Silver": "2",
        "Bronze": "0",
        "Total": "2"
    },
    {
        "Rank": "",
        "Nation": "United Kingdom",
        "Gold": "0",
        "Silver": "2",
        "Bronze": "0",
        "Total": "2"
    },
    {
        "Rank": "11",
        "Nation": "Belgium",
        "Gold": "0",
        "Silver": "1",
        "Bronze": "1",
        "Total": "2"
    },
    {
        "Rank": "12",
        "Nation": "Bulgaria",
        "Gold": "0",
        "Silver": "1",
        "Bronze": "0",
        "Total": "1"
    },
    {
        "Rank": "",
        "Nation": "Russia",
        "Gold": "0",
        "Silver": "1",
        "Bronze": "0",
        "Total": "1"
    },
    {
        "Rank": "",
        "Nation": "Germany",
        "Gold": "0",
        "Silver": "1",
        "Bronze": "0",
        "Total": "1"
    },
    {
        "Rank": "15",
        "Nation": "Canada",
        "Gold": "0",
        "Silver": "0",
        "Bronze": "2",
        "Total": "2"
    },
    {
        "Rank": "",
        "Nation": "France",
        "Gold": "0",
        "Silver": "0",
        "Bronze": "2",
        "Total": "2"
    },
    {
        "Rank": "17",
        "Nation": "Belarus",
        "Gold": "0",
        "Silver": "0",
        "Bronze": "1",
        "Total": "1"
    },
    {
        "Rank": "",
        "Nation": "Cuba",
        "Gold": "0",
        "Silver": "0",
        "Bronze": "1",
        "Total": "1"
    },
    {
        "Rank": "",
        "Nation": "Gabon",
        "Gold": "0",
        "Silver": "0",
        "Bronze": "1",
        "Total": "1"
    },
    {
        "Rank": "",
        "Nation": "British Virgin Islands",
        "Gold": "0",
        "Silver": "0",
        "Bronze": "1",
        "Total": "1"
    },
    {
        "Rank": "Total",
        "Nation": "16",
        "Gold": "16",
        "Silver": "16",
        "Bronze": "48",
        "Total": ""
    }
]