[
    {
        "col0": "BAP Palacios",
        "col1": "Callao",
        "col2": "1952-05-08",
        "col3": "1954-03-29",
        "col4": "1947-04-03"
    },
    {
        "col0": "BAP Montero",
        "col1": "Callao",
        "col2": "1982-10-08",
        "col3": "1984-07-29",
        "col4": "1976-06-16"
    },
    {
        "col0": "BAP Mariategui",
        "col1": "Callao",
        "col2": "1984-10-08",
        "col3": "1987-12-28",
        "col4": "1976-08-13"
    },
    {
        "col0": "BAP Islay",
        "col1": "Callao",
        "col2": "1973-10-11",
        "col3": "1974-08-29",
        "col4": "1971-03-15"
    },
    {
        "col0": "BAP Ferre",
        "col1": "Callao",
        "col2": "1949-03-29",
        "col3": "1953-04-28",
        "col4": "1946-09-22"
    },
    {
        "col0": "BAP Chipana",
        "col1": "Callao",
        "col2": "1981-05-19",
        "col3": "1982-10-28",
        "col4": "1978-11-01"
    },
    {
        "col0": "BAP Arica",
        "col1": "Callao",
        "col2": "1974-04-05",
        "col3": "1975-01-21",
        "col4": "1971-10-01"
    },
    {
        "col0": "BAP Antofagasta",
        "col1": "Callao",
        "col2": "1979-12-19",
        "col3": "1981-05-22",
        "col4": "1977-12-03"
    },
    {
        "col0": "BAP Angamos",
        "col1": "Callao",
        "col2": "1979-08-31",
        "col3": "1980-12-19",
        "col4": "1977-07-15"
    },
    {
        "col0": "BAP Almirante Grau",
        "col1": "Callao",
        "col2": "1941-12-19",
        "col3": "1953-11-18",
        "col4": "1939-09-05"
    },
    {
        "col0": "BAP Aguirre",
        "col1": "Callao",
        "col2": "1941-12-19",
        "col3": "1953-11-18",
        "col4": "1939-09-05"
    },
    {
        "col0": "ARA Veinticinco de Mayo",
        "col1": "Puerto Belgrano",
        "col2": "1943-12-30",
        "col3": "1944-11-27",
        "col4": "1942-12-03"
    },
    {
        "col0": "ARA Spiro",
        "col1": "Puerto Belgrano",
        "col2": "1983-06-24",
        "col3": "1988-05-09",
        "col4": "1982-04-01"
    },
    {
        "col0": "ARA Santisima Trinidad",
        "col1": "Puerto Belgrano",
        "col2": "1974-11-09",
        "col3": "1981-07-01",
        "col4": "1971-10-11"
    },
    {
        "col0": "ARA Hercules",
        "col1": "Puerto Belgrano",
        "col2": "1972-10-24",
        "col3": "1976-07-12",
        "col4": "1971-06-16"
    },
    {
        "col0": "ARA Granville",
        "col1": "Mar del Plata",
        "col2": "1980-06-28",
        "col3": "1981-06-22",
        "col4": "1978-12-01"
    },
    {
        "col0": "ARA Espora",
        "col1": "Puerto Belgrano",
        "col2": "1982-01-23",
        "col3": "1985-09-04",
        "col4": "1980-03-10"
    },
    {
        "col0": "ARA Drummond",
        "col1": "Mar del Plata",
        "col2": "1977-03-05",
        "col3": "1978-11-09",
        "col4": "1976-03-12"
    }
]