[
    {
        "col0": "Henfil",
        "col1": "Rio de Janeiro",
        "col2": "Minas Gerais",
        "col3": "Brazil",
        "col4": "1944-02-05"
    },
    {
        "col0": "H. Einstein",
        "col1": "Los Angeles, California",
        "col2": "Boston",
        "col3": "United States",
        "col4": "1904-05-06"
    },
    {
        "col0": "H. Lloyd",
        "col1": "California",
        "col2": "United States",
        "col3": "United States",
        "col4": "1893-04-20"
    },
    {
        "col0": "G. Giraldo",
        "col1": "New Jersey",
        "col2": "New York",
        "col3": "United States",
        "col4": "1965-12-10"
    },
    {
        "col0": "G. Nutt",
        "col1": "Vinemont, Alabama",
        "col2": "Amarillo, Texas",
        "col3": "United States",
        "col4": "1934-09-02"
    },
    {
        "col0": "G. Kirby",
        "col1": "Las Vegas, Nevada",
        "col2": "Chicago",
        "col3": "United States",
        "col4": "1923-06-08"
    },
    {
        "col0": "F. Suero",
        "col1": "Dominican Republic",
        "col2": "San Cristobal Province",
        "col3": "Dominican people",
        "col4": "1960-06-04"
    },
    {
        "col0": "E. Tunney",
        "col1": "Windsor, Ontario",
        "col2": "Windsor, Ontario",
        "col3": "Canadians",
        "col4": "1964-09-09"
    },
    {
        "col0": "D. Harron",
        "col1": "Ontario",
        "col2": "Ontario",
        "col3": "Canadians",
        "col4": "1924-09-19"
    },
    {
        "col0": "D. Wolfberg",
        "col1": "Culver City, California",
        "col2": "Long Island, New York",
        "col3": "United States",
        "col4": "1946-03-29"
    },
    {
        "col0": "D. Morris",
        "col1": "Blackpool",
        "col2": "Middlesbrough",
        "col3": "United Kingdom",
        "col4": "1896-07-05"
    },
    {
        "col0": "D. Froland",
        "col1": "Norway",
        "col2": "Norway",
        "col3": "Norway",
        "col4": "1945-09-16"
    },
    {
        "col0": "C. Callas",
        "col1": "Las Vegas",
        "col2": "Brooklyn",
        "col3": "United States",
        "col4": "1924-12-20"
    },
    {
        "col0": "C. Cairoli",
        "col1": "England",
        "col2": "Italy",
        "col3": "Italians in the United Kingdom",
        "col4": "1910-02-15"
    },
    {
        "col0": "C. C. Willis",
        "col1": "United States",
        "col2": "United States",
        "col3": "United States",
        "col4": "1937-04-20"
    },
    {
        "col0": "B. Mac",
        "col1": "Chicago",
        "col2": "Chicago",
        "col3": "United States",
        "col4": "1957-10-05"
    }
]