[
    {
        "col0": "A. Fleitas",
        "col1": "Abreus, Cuba",
        "col2": "Washington Senators",
        "col3": "Miami, Florida",
        "col4": "1914-11-10",
        "col5": "2006-07-10"
    },
    {
        "col0": "A. Aragon",
        "col1": "Cuba",
        "col2": "New York Yankees",
        "col3": "New York, New York",
        "col4": "1890-08-02",
        "col5": "1952-01-24"
    },
    {
        "col0": "Z. Versalles",
        "col1": "Vedado, Cuba",
        "col2": "Washington Senators",
        "col3": "Bloomington, Minnesota",
        "col4": "1939-12-18",
        "col5": "1995-06-09"
    },
    {
        "col0": "Z. Zabel",
        "col1": "Wetmore, Kansas",
        "col2": "Chicago Cubs",
        "col3": "Beloit, Wisconsin",
        "col4": "1891-02-18",
        "col5": "1970-05-31"
    },
    {
        "col0": "Z. Collins",
        "col1": "Brooklyn",
        "col2": "Pittsburgh Pirates",
        "col3": "Manassas, Virginia",
        "col4": "1892-05-04",
        "col5": "1983-12-19"
    },
    {
        "col0": "Z. Beck",
        "col1": "Steubenville, Ohio",
        "col2": "St. Louis Cardinals",
        "col3": "West Palm Beach, Florida",
        "col4": "1885-09-30",
        "col5": "1981-03-19"
    },
    {
        "col0": "Z. Hasbrook",
        "col1": "Grundy Center, Iowa",
        "col2": "Chicago White Sox",
        "col3": "Garland, Texas",
        "col4": "1893-11-21",
        "col5": "1976-02-09"
    },
    {
        "col0": "Z. Wrigley",
        "col1": "Philadelphia",
        "col2": "Washington Senators",
        "col3": "Philadelphia",
        "col4": "1874-01-18",
        "col5": "1952-09-28"
    },
    {
        "col0": "Z. Wilson",
        "col1": "Benton, Alabama",
        "col2": "Boston Beaneaters",
        "col3": "Montgomery, Alabama",
        "col4": "1869-12-24",
        "col5": "1928-04-26"
    },
    {
        "col0": "Z. Bonura",
        "col1": "New Orleans, Louisiana",
        "col2": "Chicago White Sox",
        "col3": "New Orleans, Louisiana",
        "col4": "1908-09-20",
        "col5": "1987-03-09"
    },
    {
        "col0": "Z. Bella",
        "col1": "Greenwich, Connecticut",
        "col2": "New York Yankees",
        "col3": "Greenwich, Connecticut",
        "col4": "1930-08-22",
        "col5": "2013-11-17"
    },
    {
        "col0": "Z. Terry",
        "col1": "Denison, Texas",
        "col2": "Chicago White Sox",
        "col3": "Los Angeles",
        "col4": "1891-06-17",
        "col5": "1988-03-14"
    },
    {
        "col0": "Z. Eaton",
        "col1": "Cooleemee, North Carolina",
        "col2": "Detroit Tigers",
        "col3": "West Palm Beach, Florida",
        "col4": "1920-02-02",
        "col5": "1989-12-17"
    },
    {
        "col0": "Z. Harvey",
        "col1": "Saratoga, California",
        "col2": "Chicago Orphans",
        "col3": "Santa Monica, California",
        "col4": "1879-01-05",
        "col5": "1954-06-03"
    },
    {
        "col0": "Z. Wheat",
        "col1": "Missouri",
        "col2": "Brooklyn Superbas",
        "col3": "Sedalia, Missouri",
        "col4": "1888-05-23",
        "col5": "1972-05-11"
    },
    {
        "col0": "Z. Taylor",
        "col1": "Yulee, Florida",
        "col2": "Brooklyn Robins",
        "col3": "Orlando, Florida",
        "col4": "1898-07-27",
        "col5": "1974-09-19"
    },
    {
        "col0": "Y. Johnson",
        "col1": "San Francisco",
        "col2": "Philadelphia Phillies",
        "col3": "Berkeley, California",
        "col4": "1873-07-22",
        "col5": "1936-08-28"
    },
    {
        "col0": "Y. Berra",
        "col1": "St. Louis, Missouri",
        "col2": "New York Yankees",
        "col3": "Montclair, New Jersey",
        "col4": "1925-05-12",
        "col5": "2015-09-22"
    },
    {
        "col0": "Y. Davalillo",
        "col1": "Cabimas",
        "col2": "Washington Senators",
        "col3": "Venezuela",
        "col4": "1928-6-5",
        "col5": "2013-02-28"
    },
    {
        "col0": "Y. Owens",
        "col1": "Ontario",
        "col2": "Boston Red Sox",
        "col3": "Minneapolis, Minnesota",
        "col4": "1886-01-26",
        "col5": "1958-07-02"
    },
    {
        "col0": "Y. Wuestling",
        "col1": "St. Louis, Missouri",
        "col2": "Detroit Tigers",
        "col3": "St. Louis, Missouri",
        "col4": "1903-04-26",
        "col5": "1970-10-18"
    },
    {
        "col0": "Y. Toyoda",
        "col1": "Daigo, Ibaraki",
        "col2": "Nishitetsu Lions",
        "col3": "Kawasaki, Kanagawa",
        "col4": "1935-02-12",
        "col5": "2016-08-14"
    },
    {
        "col0": "Y. Taiho",
        "col1": "Puli, Nantou",
        "col2": "Chunichi Dragons",
        "col3": "Nagoya",
        "col4": "1963-11-15",
        "col5": "2015-01-18"
    },
    {
        "col0": "Y. Terry",
        "col1": "Bedford, Indiana",
        "col2": "Boston Red Sox",
        "col3": "Bloomington, Indiana",
        "col4": "1911-02-11",
        "col5": "1979-11-04"
    },
    {
        "col0": "Y. Robinson",
        "col1": "Philadelphia",
        "col2": "Detroit Wolverines",
        "col3": "St. Louis, Missouri",
        "col4": "1859-09-19",
        "col5": "1894-08-25"
    },
    {
        "col0": "Y. Murphy",
        "col1": "Southborough, Massachusetts",
        "col2": "New York Giants",
        "col3": "Westborough, Massachusetts",
        "col4": "1869-10-11",
        "col5": "1906-02-14"
    },
    {
        "col0": "W. Andrus",
        "col1": "Orono, Ontario",
        "col2": "Providence Grays",
        "col3": "Miles City, Montana",
        "col4": "1858-10-14",
        "col5": "1935-06-17"
    },
    {
        "col0": "W. Williams",
        "col1": "Pamplin, Virginia",
        "col2": "Brooklyn Dodgers",
        "col3": "Appomattox, Virginia",
        "col4": "1912-08-21",
        "col5": "1995-02-24"
    },
    {
        "col0": "W. Wheaton",
        "col1": "Philadelphia, Pennsylvania",
        "col2": "Philadelphia Athletics",
        "col3": "Lancaster, Pennsylvania",
        "col4": "1914-10-03",
        "col5": "1995-12-11"
    },
    {
        "col0": "W. Upchurch",
        "col1": "Buies Creek, North Carolina",
        "col2": "Philadelphia Athletics",
        "col3": "Buies Creek, North Carolina",
        "col4": "1911-04-13",
        "col5": "1971-10-23"
    },
    {
        "col0": "W. Rich",
        "col1": "Morganton, North Carolina",
        "col2": "Boston Red Sox",
        "col3": "Morganton, North Carolina",
        "col4": "1916-03-09",
        "col5": "1983-04-18"
    },
    {
        "col0": "W. Main",
        "col1": "Delano, California",
        "col2": "Pittsburgh Pirates",
        "col3": "Whittier, California",
        "col4": "1922-02-12",
        "col5": "1992-06-27"
    },
    {
        "col0": "W. Jensen",
        "col1": "Bremerton, Washington",
        "col2": "Pittsburgh Pirates",
        "col3": "Wichita, Kansas",
        "col4": "1907-08-11",
        "col5": "2001-10-05"
    },
    {
        "col0": "W. English",
        "col1": "Fredonia, Ohio",
        "col2": "Chicago Cubs",
        "col3": "Newark, Ohio",
        "col4": "1906-03-02",
        "col5": "1997-09-26"
    },
    {
        "col0": "W. Crowson",
        "col1": "Fuquay Springs",
        "col2": "Philadelphia Athletics",
        "col3": "Greensboro, North Carolina",
        "col4": "1918-0-0",
        "col5": "1947-08-14"
    },
    {
        "col0": "W. Abernathy",
        "col1": "Forest City, North Carolina",
        "col2": "New York Giants",
        "col3": "Louisville, Kentucky",
        "col4": "1915-02-01",
        "col5": "1994-12-05"
    },
    {
        "col0": "W. Held",
        "col1": "Sacramento, California",
        "col2": "New York Yankees",
        "col3": "Dubois, Wyoming",
        "col4": "1932-03-25",
        "col5": "2009-06-10"
    },
    {
        "col0": "W. Fryman",
        "col1": "Ewing, Kentucky",
        "col2": "Pittsburgh Pirates",
        "col3": "Ewing, Kentucky",
        "col4": "1940-04-12",
        "col5": "2011-02-04"
    },
    {
        "col0": "W. Egan",
        "col1": "Evart, Michigan",
        "col2": "Detroit Tigers",
        "col3": "Detroit, Michigan",
        "col4": "1881-06-16",
        "col5": "1951-04-13"
    },
    {
        "col0": "W. Anderson",
        "col1": "Lillian, Texas",
        "col2": "Cincinnati Reds",
        "col3": "Fort Worth, Texas",
        "col4": "1886-08-13",
        "col5": "1950-12-19"
    },
    {
        "col0": "W. Noyes",
        "col1": "Pleasanton, Nebraska",
        "col2": "Boston Braves",
        "col3": "Cashmere, Washington",
        "col4": "1889-06-16",
        "col5": "1969-04-08"
    },
    {
        "col0": "W. Mercer",
        "col1": "Chester, West Virginia",
        "col2": "Washington Senators",
        "col3": "San Francisco, California",
        "col4": "1874-06-20",
        "col5": "1903-01-12"
    },
    {
        "col0": "W. Kellum",
        "col1": "Canada",
        "col2": "Boston Americans",
        "col3": "Big Rapids, Michigan",
        "col4": "1876-04-11",
        "col5": "1951-08-10"
    },
    {
        "col0": "W. Clark",
        "col1": "Circleville, Ohio",
        "col2": "Louisville Colonels",
        "col3": "Los Angeles, California",
        "col4": "1875-04-11",
        "col5": "1959-04-15"
    },
    {
        "col0": "W. Quinn",
        "col1": "Birmingham, Alabama",
        "col2": "Chicago Cubs",
        "col3": "Santa Monica, California",
        "col4": "1918-05-14",
        "col5": "1954-09-01"
    },
    {
        "col0": "W. Collins",
        "col1": "Pulaski, Tennessee",
        "col2": "Boston Braves",
        "col3": "Knoxville, Tennessee",
        "col4": "1889-05-07",
        "col5": "1941-02-28"
    },
    {
        "col0": "W. Mizell",
        "col1": "Vinegar Bend, Alabama",
        "col2": "St. Louis Cardinals",
        "col3": "Kerrville, Texas",
        "col4": "1930-08-13",
        "col5": "1999-02-21"
    },
    {
        "col0": "W. Fields",
        "col1": "Manassas, Virginia",
        "col2": "Homestead Grays",
        "col3": "Manassas, Virginia",
        "col4": "1922-08-02",
        "col5": "2004-06-04"
    },
    {
        "col0": "W. Wilson",
        "col1": "Columbus, Ohio",
        "col2": "Washington Senators",
        "col3": "Seattle, Washington",
        "col4": "1884-01-07",
        "col5": "1925-10-28"
    },
    {
        "col0": "W. Hudlin",
        "col1": "Wagoner, Oklahoma",
        "col2": "Cleveland Indians",
        "col3": "Little Rock, Arkansas",
        "col4": "1906-05-23",
        "col5": "2002-08-05"
    },
    {
        "col0": "W. Cole",
        "col1": "Milton, Wisconsin",
        "col2": "Chicago White Sox",
        "col3": "Madison, Wisconsin",
        "col4": "1882-01-06",
        "col5": "1965-10-11"
    },
    {
        "col0": "W. Wells",
        "col1": "Austin, Texas",
        "col2": "St. Louis Stars",
        "col3": "Austin, Texas",
        "col4": "1905-8-10",
        "col5": "1989-01-22"
    },
    {
        "col0": "W. Sudhoff",
        "col1": "St. Louis, Missouri",
        "col2": "St. Louis Browns",
        "col3": "St. Louis, Missouri",
        "col4": "1874-09-17",
        "col5": "1917-05-25"
    },
    {
        "col0": "W. Stargell",
        "col1": "Earlsboro, Oklahoma",
        "col2": "Pittsburgh Pirates",
        "col3": "Wilmington, North Carolina",
        "col4": "1940-03-06",
        "col5": "2001-04-09"
    },
    {
        "col0": "W. Smith",
        "col1": "Anniston, Alabama",
        "col2": "Detroit Tigers",
        "col3": "Anniston, Alabama",
        "col4": "1939-02-11",
        "col5": "2006-01-16"
    },
    {
        "col0": "W. Royster",
        "col1": "Clarksville, Virginia",
        "col2": "Baltimore Orioles",
        "col3": "Ocean View, New Jersey",
        "col4": "1954-04-11",
        "col5": "2015-11-23"
    },
    {
        "col0": "W. Ramsdell",
        "col1": "Williamsburg, Kansas",
        "col2": "Brooklyn Dodgers",
        "col3": "Wichita, Kansas",
        "col4": "1916-04-04",
        "col5": "1969-10-08"
    },
    {
        "col0": "W. Powell",
        "col1": "Eutaw, Alabama",
        "col2": "Chicago American Giants",
        "col3": "Three Rivers, Michigan",
        "col4": "1903-10-30",
        "col5": "1944-01-10"
    },
    {
        "col0": "W. Mills",
        "col1": "Schenevus, New York",
        "col2": "New York Giants",
        "col3": "Utica, New York",
        "col4": "1877-08-15",
        "col5": "1914-7-5"
    },
    {
        "col0": "W. McGill",
        "col1": "Atlanta",
        "col2": "Cleveland Infants",
        "col3": "Indianapolis",
        "col4": "1873-11-10",
        "col5": "1944-08-29"
    },
    {
        "col0": "W. Ludolph",
        "col1": "San Francisco, California",
        "col2": "Detroit Tigers",
        "col3": "Oakland, California",
        "col4": "1900-01-21",
        "col5": "1952-04-08"
    },
    {
        "col0": "W. Keeler",
        "col1": "Brooklyn",
        "col2": "New York Giants",
        "col3": "Brooklyn",
        "col4": "1872-03-03",
        "col5": "1923-01-01"
    },
    {
        "col0": "W. Kamm",
        "col1": "San Francisco, California",
        "col2": "Chicago White Sox",
        "col3": "Belmont, California",
        "col4": "1900-02-02",
        "col5": "1988-12-21"
    },
    {
        "col0": "W. Jones",
        "col1": "Dillon, South Carolina",
        "col2": "Philadelphia Phillies",
        "col3": "Cincinnati, Ohio",
        "col4": "1925-08-16",
        "col5": "1983-10-18"
    },
    {
        "col0": "W. Jensen",
        "col1": "Philadelphia",
        "col2": "Detroit Tigers",
        "col3": "Philadelphia",
        "col4": "1889-11-17",
        "col5": "1917-03-27"
    },
    {
        "col0": "W. Hogan",
        "col1": "North San Juan, California",
        "col2": "Philadelphia Athletics",
        "col3": "San Jose, California",
        "col4": "1884-09-14",
        "col5": "1974-09-28"
    },
    {
        "col0": "W. Garoni",
        "col1": "Fort Lee, New Jersey",
        "col2": "New York Giants",
        "col3": "Fort Lee, New Jersey",
        "col4": "1877-07-28",
        "col5": "1914-09-09"
    },
    {
        "col0": "W. Davis",
        "col1": "Howard County, Arkansas",
        "col2": "Los Angeles Dodgers",
        "col3": "Burbank, California",
        "col4": "1940-04-15",
        "col5": "2010-03-09"
    },
    {
        "col0": "W. Crawford",
        "col1": "California",
        "col2": "Los Angeles Dodgers",
        "col3": "California",
        "col4": "1946-09-07",
        "col5": "2004-08-27"
    },
    {
        "col0": "W. Clark",
        "col1": "Pittsburgh, Pennsylvania",
        "col2": "New York Giants",
        "col3": "Pittsburgh, Pennsylvania",
        "col4": "1872-08-16",
        "col5": "1932-11-13"
    },
    {
        "col0": "W. Adams",
        "col1": "Clearfield, Pennsylvania",
        "col2": "St. Louis Browns",
        "col3": "Albany, New York",
        "col4": "1890-09-27",
        "col5": "1937-06-18"
    },
    {
        "col0": "W. T. Randall",
        "col1": "Phoebus, Virginia",
        "col2": "Homestead Grays",
        "col3": "Columbia, Maryland",
        "col4": "1915-08-05",
        "col5": "2013-02-13"
    },
    {
        "col0": "W. Suero",
        "col1": "Dominican Republic",
        "col2": "Milwaukee Brewers",
        "col3": "Dominican Republic",
        "col4": "1966-11-07",
        "col5": "1995-11-30"
    },
    {
        "col0": "W. Stecher",
        "col1": "Riverside Township, New Jersey",
        "col2": "Philadelphia Athletics",
        "col3": "Riverside Township, New Jersey",
        "col4": "1869-10-20",
        "col5": "1926-12-26"
    },
    {
        "col0": "W. Rexter",
        "col1": "Brooklyn, New York",
        "col2": "Brooklyn Atlantics",
        "col3": "Staten Island, New York",
        "col4": "1850-0-0",
        "col5": "1898-06-23"
    },
    {
        "col0": "W. Pierson",
        "col1": "Atlantic City, New Jersey",
        "col2": "Philadelphia Athletics",
        "col3": "Atlantic City, New Jersey",
        "col4": "1899-06-14",
        "col5": "1959-02-20"
    },
    {
        "col0": "W. Metzig",
        "col1": "Fort Dodge, Iowa",
        "col2": "Chicago White Sox",
        "col3": "Lubbock, Texas",
        "col4": "1918-12-04",
        "col5": "2006-03-12"
    },
    {
        "col0": "W. McLaughlin",
        "col1": "Sacramento County, California",
        "col2": "Washington Nationals",
        "col3": "Gig Harbor, Washington",
        "col4": "1861-07-03",
        "col5": "1936-03-21"
    },
    {
        "col0": "W. McCarthy",
        "col1": "Ashland, Massachusetts",
        "col2": "Boston Beaneaters",
        "col3": "Boston, Massachusetts",
        "col4": "1882-04-11",
        "col5": "1939-05-29"
    },
    {
        "col0": "W. Matthews",
        "col1": "Mahanoy City, Pennsylvania",
        "col2": "Boston Red Sox",
        "col3": "Mount Carbon, Pennsylvania",
        "col4": "1878-01-12",
        "col5": "1946-01-23"
    },
    {
        "col0": "W. Marriott",
        "col1": "Pratt, Kansas",
        "col2": "Chicago Cubs",
        "col3": "Berkeley, California",
        "col4": "1893-04-18",
        "col5": "1969-08-11"
    },
    {
        "col0": "W. Lackey",
        "col1": "St. Albans, West Virginia",
        "col2": "Philadelphia Athletics",
        "col3": "Columbus, Ohio",
        "col4": "1870-12-08",
        "col5": "1941-05-15"
    },
    {
        "col0": "W. Johnson",
        "col1": "Parma, Ohio",
        "col2": "Cleveland Forest Citys",
        "col3": "Albuquerque, New Mexico",
        "col4": "1844-5-23",
        "col5": "1909-09-25"
    },
    {
        "col0": "W. Houseman",
        "col1": "Baltimore, Maryland",
        "col2": "Baltimore Orioles",
        "col3": "Baltimore, Maryland",
        "col4": "1859-0-0",
        "col5": "1894-0-0"
    },
    {
        "col0": "W. Gallagher",
        "col1": "Lowell, Massachusetts",
        "col2": "Philadelphia Phillies",
        "col3": "Worcester, Massachusetts",
        "col4": "1874-0-0",
        "col5": "1950-03-11"
    },
    {
        "col0": "W. Francis",
        "col1": "Philadelphia",
        "col2": "Philadelphia Giants",
        "col3": "Chicago, Illinois",
        "col4": "1879-02-28",
        "col5": "1942-01-26"
    },
    {
        "col0": "W. E. White",
        "col1": "Milner, Georgia",
        "col2": "Providence Grays",
        "col3": "Chicago, Illinois",
        "col4": "1860-10-1",
        "col5": "1937-03-29"
    },
    {
        "col0": "W. Coon",
        "col1": "Philadelphia, Pennsylvania",
        "col2": "Philadelphia Athletics",
        "col3": "Burlington, New Jersey",
        "col4": "1855-03-21",
        "col5": "1915-08-30"
    },
    {
        "col0": "W. Burke",
        "col1": "Cincinnati, Ohio",
        "col2": "Detroit Wolverines",
        "col3": "Atchison, Kansas",
        "col4": "1865-1-1",
        "col5": "1939-03-17"
    },
    {
        "col0": "W. Brown",
        "col1": "San Francisco, California",
        "col2": "New York Giants",
        "col3": "Philadelphia",
        "col4": "1866-1-1",
        "col5": "1897-12-20"
    },
    {
        "col0": "W. Bell",
        "col1": "Galveston, Texas",
        "col2": "Kansas City Monarchs",
        "col3": "El Campo, Texas",
        "col4": "1897-08-31",
        "col5": "1969-03-16"
    },
    {
        "col0": "W. Barnes",
        "col1": "Birmingham, Alabama",
        "col2": "Baltimore Elite Giants",
        "col3": "Bessemer, Alabama",
        "col4": "1919-12-29",
        "col5": "1996-11-21"
    },
    {
        "col0": "W. Ahearn",
        "col1": "Troy, New York",
        "col2": "Troy Trojans",
        "col3": "Troy, New York",
        "col4": "1858-1-1",
        "col5": "1919-04-28"
    },
    {
        "col0": "W. Schmidt",
        "col1": "Hays, Kansas",
        "col2": "St. Louis Cardinals",
        "col3": "Newcastle, Oklahoma",
        "col4": "1928-05-29",
        "col5": "2007-03-22"
    },
    {
        "col0": "W. Nixon",
        "col1": "Taylorsville, Georgia",
        "col2": "Boston Red Sox",
        "col3": "Rome, Georgia",
        "col4": "1928-07-17",
        "col5": "2000-12-10"
    },
    {
        "col0": "W. Marshall",
        "col1": "Richmond, Virginia",
        "col2": "New York Giants",
        "col3": "Norwood, New Jersey",
        "col4": "1921-02-08",
        "col5": "2000-11-05"
    },
    {
        "col0": "W. Mains",
        "col1": "North Windham, Maine",
        "col2": "Chicago White Stockings",
        "col3": "Bridgton, Maine",
        "col4": "1868-07-07",
        "col5": "1923-05-23"
    },
    {
        "col0": "W. Hershberger",
        "col1": "Lemon Cove, California",
        "col2": "Cincinnati Reds",
        "col3": "Boston, Massachusetts",
        "col4": "1910-05-28",
        "col5": "1940-08-03"
    },
    {
        "col0": "W. Brown",
        "col1": "Shreveport, Louisiana",
        "col2": "St. Louis Browns",
        "col3": "Houston",
        "col4": "1911-6-26",
        "col5": "1996-08-04"
    },
    {
        "col0": "W. White",
        "col1": "Caton, New York",
        "col2": "Boston Red Caps",
        "col3": "Port Carling, Ontario",
        "col4": "1854-10-11",
        "col5": "1911-08-31"
    },
    {
        "col0": "W. Thompson",
        "col1": "Pittsburgh, Pennsylvania",
        "col2": "Pittsburgh Pirates",
        "col3": "Pittsburgh, Pennsylvania",
        "col4": "1870-08-30",
        "col5": "1962-06-09"
    },
    {
        "col0": "W. Smalley",
        "col1": "Oakland, California",
        "col2": "Cleveland Spiders",
        "col3": "Bay City, Michigan",
        "col4": "1871-06-27",
        "col5": "1891-10-11"
    },
    {
        "col0": "W. Sawyer",
        "col1": "Brimfield, Ohio",
        "col2": "Cleveland Blues",
        "col3": "Kent, Ohio",
        "col4": "1864-07-29",
        "col5": "1936-01-05"
    },
    {
        "col0": "W. Koenigsmark",
        "col1": "Belleville, Illinois",
        "col2": "St. Louis Cardinals",
        "col3": "Waterloo, Illinois",
        "col4": "1896-02-27",
        "col5": "1972-07-01"
    },
    {
        "col0": "W. Holland",
        "col1": "Georgetown, Delaware",
        "col2": "Baltimore Orioles",
        "col3": "Philadelphia, Pennsylvania",
        "col4": "1862-0-0",
        "col5": "1930-07-19"
    },
    {
        "col0": "W. Foley",
        "col1": "Chicago",
        "col2": "Chicago White Stockings",
        "col3": "Chicago",
        "col4": "1855-11-15",
        "col5": "1916-11-12"
    },
    {
        "col0": "W. Calihan",
        "col1": "Oswego, New York",
        "col2": "Rochester Broncos",
        "col3": "Rochester, New York",
        "col4": "1869-5-1",
        "col5": "1917-12-20"
    },
    {
        "col0": "W. Taylor",
        "col1": "Wamego, Kansas",
        "col2": "Detroit Tigers",
        "col3": "Westmoreland, Kansas",
        "col4": "1888-03-18",
        "col5": "1954-07-08"
    },
    {
        "col0": "W. Piatt",
        "col1": "Blue Creek, Ohio",
        "col2": "Philadelphia Phillies",
        "col3": "Cincinnati",
        "col4": "1874-07-13",
        "col5": "1946-09-20"
    },
    {
        "col0": "W. Dunham",
        "col1": "Piketon, Ohio",
        "col2": "St. Louis Cardinals",
        "col3": "Cleveland, Ohio",
        "col4": "1877-01-30",
        "col5": "1934-01-16"
    },
    {
        "col0": "W. Davis",
        "col1": "Seymour, Tennessee",
        "col2": "Cincinnati Reds",
        "col3": "Detroit, Michigan",
        "col4": "1875-08-01",
        "col5": "1942-09-22"
    },
    {
        "col0": "W. B. Widner",
        "col1": "Cincinnati",
        "col2": "Cincinnati Red Stockings",
        "col3": "Cincinnati",
        "col4": "1867-06-03",
        "col5": "1908-12-10"
    },
    {
        "col0": "W. B. Luhrsen",
        "col1": "Buckley, Illinois",
        "col2": "Pittsburgh Pirates",
        "col3": "Little Rock, Arkansas",
        "col4": "1884-04-14",
        "col5": "1973-08-15"
    },
    {
        "col0": "W. Moore",
        "col1": "Bonita, Texas",
        "col2": "New York Yankees",
        "col3": "Hollis, Oklahoma",
        "col4": "1897-05-20",
        "col5": "1963-03-29"
    },
    {
        "col0": "W. Murdoch",
        "col1": "Avon, New York",
        "col2": "St. Louis Cardinals",
        "col3": "Los Angeles",
        "col4": "1875-03-14",
        "col5": "1941-10-29"
    },
    {
        "col0": "W. Good",
        "col1": "Punxsutawney, Pennsylvania",
        "col2": "New York Highlanders",
        "col3": "Brooksville, Florida",
        "col4": "1885-09-28",
        "col5": "1963-12-30"
    },
    {
        "col0": "W. Robinson",
        "col1": "Bolton, Massachusetts",
        "col2": "Philadelphia Athletics",
        "col3": "Atlanta",
        "col4": "1863-06-29",
        "col5": "1934-08-08"
    },
    {
        "col0": "W. Culmer",
        "col1": "Nassau, Bahamas",
        "col2": "Cleveland Indians",
        "col3": "Nassau, Bahamas",
        "col4": "1957-11-11",
        "col5": "2003-10-14"
    },
    {
        "col0": "W. Matthews",
        "col1": "Raleigh, Illinois",
        "col2": "Philadelphia Athletics",
        "col3": "Hollywood, California",
        "col4": "1896-10-20",
        "col5": "1965-10-05"
    },
    {
        "col0": "W. Conroy",
        "col1": "Pennsylvania",
        "col2": "Milwaukee Brewers",
        "col3": "Mount Holly, New Jersey",
        "col4": "1877-04-05",
        "col5": "1959-12-06"
    },
    {
        "col0": "W. McAvoy",
        "col1": "Rochester, New York",
        "col2": "Philadelphia Athletics",
        "col3": "Rochester, New York",
        "col4": "1894-10-20",
        "col5": "1973-07-06"
    },
    {
        "col0": "W. Smith",
        "col1": "Evart, Michigan",
        "col2": "St. Louis Browns",
        "col3": "Fargo, North Dakota",
        "col4": "1886-08-30",
        "col5": "1959-11-18"
    },
    {
        "col0": "W. Witt",
        "col1": "Orange, Massachusetts",
        "col2": "Philadelphia Athletics",
        "col3": "Salem County, New Jersey",
        "col4": "1895-09-28",
        "col5": "1988-07-14"
    }
]