[
    {
        "col0": "P. O'Brien",
        "col1": "Binghamton, New York",
        "col2": "Cincinnati Reds",
        "col3": "Jersey City, New Jersey",
        "col4": "1877-06-17",
        "col5": "1917-01-31"
    },
    {
        "col0": "P. O'Brien",
        "col1": "Chicago",
        "col2": "Washington Nationals",
        "col3": "York, Illinois",
        "col4": "1867-06-16",
        "col5": "1937-06-30"
    },
    {
        "col0": "P. Noonan",
        "col1": "West Stockbridge, Massachusetts",
        "col2": "Philadelphia Athletics",
        "col3": "Great Barrington, Massachusetts",
        "col4": "1881-11-24",
        "col5": "1965-02-11"
    },
    {
        "col0": "P. Naton",
        "col1": "Flushing, New York",
        "col2": "Pittsburgh Pirates",
        "col3": "Springfield, Massachusetts",
        "col4": "1931-09-09",
        "col5": "2013-12-10"
    },
    {
        "col0": "P. Naktenis",
        "col1": "Aberdeen, Washington",
        "col2": "Philadelphia Athletics",
        "col3": "Singer Island, Florida",
        "col4": "1914-06-12",
        "col5": "2007-08-01"
    },
    {
        "col0": "P. Milne",
        "col1": "Mobile, Alabama",
        "col2": "New York Giants",
        "col3": "Mobile, Alabama",
        "col4": "1925-04-10",
        "col5": "1999-04-11"
    },
    {
        "col0": "P. Mikkelsen",
        "col1": "Staten Island, New York",
        "col2": "New York Yankees",
        "col3": "Mabton, Washington",
        "col4": "1939-10-25",
        "col5": "2006-11-29"
    },
    {
        "col0": "P. Meegan",
        "col1": "San Francisco",
        "col2": "Richmond Virginians",
        "col3": "San Francisco",
        "col4": "1862-11-13",
        "col5": "1905-03-15"
    },
    {
        "col0": "P. McShannic",
        "col1": "Pittsburgh, Pennsylvania",
        "col2": "Pittsburgh Alleghenys",
        "col3": "Toledo, Ohio",
        "col4": "1864-03-20",
        "col5": "1946-11-30"
    },
    {
        "col0": "P. McClanahan",
        "col1": "Coldspring, Texas",
        "col2": "Pittsburgh Pirates",
        "col3": "Mont Belvieu, Texas",
        "col4": "1906-10-24",
        "col5": "1987-10-28"
    },
    {
        "col0": "P. McBride",
        "col1": "Adams, Massachusetts",
        "col2": "Cleveland Spiders",
        "col3": "North Adams, Massachusetts",
        "col4": "1875-07-09",
        "col5": "1944-07-03"
    },
    {
        "col0": "P. Loos",
        "col1": "Philadelphia",
        "col2": "Philadelphia Athletics",
        "col3": "Darby, Pennsylvania",
        "col4": "1878-03-23",
        "col5": "1956-02-23"
    },
    {
        "col0": "P. Lohman",
        "col1": "Washington County, Minnesota",
        "col2": "Washington Senators",
        "col3": "Los Angeles, California",
        "col4": "1864-10-21",
        "col5": "1928-11-21"
    },
    {
        "col0": "P. Lister",
        "col1": "Savanna, Illinois",
        "col2": "Cleveland Indians",
        "col3": "St. Petersburg, Florida",
        "col4": "1881-07-21",
        "col5": "1947-03-27"
    },
    {
        "col0": "P. LePine",
        "col1": "Canada",
        "col2": "Detroit Tigers",
        "col3": "United States",
        "col4": "1876-09-05",
        "col5": "1949-12-03"
    },
    {
        "col0": "P. Lapan",
        "col1": "Easthampton, Massachusetts",
        "col2": "Washington Senators",
        "col3": "Norwalk, California",
        "col4": "1891-06-25",
        "col5": "1953-01-05"
    },
    {
        "col0": "P. Lamer",
        "col1": "New York, New York",
        "col2": "Chicago Cubs",
        "col3": "Brooklyn, New York",
        "col4": "1873-12-27",
        "col5": "1931-10-24"
    },
    {
        "col0": "P. Knisely",
        "col1": "Waynesburg, Pennsylvania",
        "col2": "Cincinnati Reds",
        "col3": "Brownsville, Pennsylvania",
        "col4": "1887-08-11",
        "col5": "1948-07-01"
    },
    {
        "col0": "P. Kilduff",
        "col1": "Weir, Kansas",
        "col2": "New York Giants",
        "col3": "Pittsburg, Kansas",
        "col4": "1893-04-04",
        "col5": "1930-02-14"
    },
    {
        "col0": "P. Johns",
        "col1": "Cleveland, Ohio",
        "col2": "Chicago White Sox",
        "col3": "Cleveland, Ohio",
        "col4": "1888-01-17",
        "col5": "1964-08-09"
    },
    {
        "col0": "P. Hotaling",
        "col1": "Mohawk, Herkimer County, New York",
        "col2": "Cincinnati Reds",
        "col3": "Cleveland, Ohio",
        "col4": "1856-12-16",
        "col5": "1928-07-02"
    },
    {
        "col0": "P. Henning",
        "col1": "Crown Point, Indiana",
        "col2": "Kansas City Packers",
        "col3": "Dyer, Indiana",
        "col4": "1887-12-28",
        "col5": "1939-11-04"
    },
    {
        "col0": "P. Hasney",
        "col1": "England",
        "col2": "Philadelphia Athletics",
        "col3": "Philadelphia, Pennsylvania",
        "col4": "1865-05-26",
        "col5": "1908-05-24"
    },
    {
        "col0": "P. Gray",
        "col1": "Nanticoke, Pennsylvania",
        "col2": "St. Louis Browns",
        "col3": "Nanticoke, Pennsylvania",
        "col4": "1915-03-06",
        "col5": "2002-06-30"
    },
    {
        "col0": "P. Gilbert",
        "col1": "Baltic, Connecticut",
        "col2": "Baltimore Orioles",
        "col3": "Springfield, Massachusetts",
        "col4": "1867-09-06",
        "col5": "1911-01-01"
    },
    {
        "col0": "P. Gebrian",
        "col1": "Bayonne, New Jersey",
        "col2": "Chicago White Sox",
        "col3": "Stuart, Florida",
        "col4": "1923-08-10",
        "col5": "2005-05-06"
    },
    {
        "col0": "P. Galligan",
        "col1": "Chicago, Illinois",
        "col2": "Washington Nationals",
        "col3": "Chicago, Illinois",
        "col4": "1860-1-1",
        "col5": "1917-05-20"
    },
    {
        "col0": "P. Fries",
        "col1": "Scranton, Pennsylvania",
        "col2": "Columbus Buckeyes",
        "col3": "Chicago, Illinois",
        "col4": "1857-10-30",
        "col5": "1937-07-29"
    },
    {
        "col0": "P. Fox",
        "col1": "Evansville, Indiana",
        "col2": "Detroit Tigers",
        "col3": "Detroit, Michigan",
        "col4": "1909-03-08",
        "col5": "1966-07-05"
    },
    {
        "col0": "P. Falsey",
        "col1": "New Haven, Connecticut",
        "col2": "Pittsburgh Pirates",
        "col3": "Los Angeles, California",
        "col4": "1891-04-24",
        "col5": "1976-05-23"
    },
    {
        "col0": "P. Fahrer",
        "col1": "Holgate, Ohio",
        "col2": "Cincinnati Reds",
        "col3": "Fremont, Michigan",
        "col4": "1890-03-10",
        "col5": "1967-06-10"
    },
    {
        "col0": "P. Elko",
        "col1": "Wilkes-Barre, Pennsylvania",
        "col2": "Chicago Cubs",
        "col3": "Wilkes-Barre, Pennsylvania",
        "col4": "1918-07-17",
        "col5": "1993-09-17"
    },
    {
        "col0": "P. Dowling",
        "col1": "St. Louis",
        "col2": "Louisville Colonels",
        "col3": "Hot Lake, Oregon",
        "col4": "1876-07-15",
        "col5": "1905-06-30"
    },
    {
        "col0": "P. Donohue",
        "col1": "Athens, Texas",
        "col2": "Cincinnati Reds",
        "col3": "Fort Worth, Texas",
        "col4": "1900-11-05",
        "col5": "1988-02-23"
    },
    {
        "col0": "P. Donnelly",
        "col1": "Philadelphia, Pennsylvania",
        "col2": "Keokuk Westerns",
        "col3": "Jersey City, New Jersey",
        "col4": "1849-10-08",
        "col5": "1890-10-01"
    },
    {
        "col0": "P. Daniels",
        "col1": "County Cavan, Ireland",
        "col2": "Pittsburg Alleghenys",
        "col3": "Indianapolis, Indiana",
        "col4": "1864-04-08",
        "col5": "1928-02-13"
    },
    {
        "col0": "P. Daglia",
        "col1": "Napa, California",
        "col2": "Chicago White Sox",
        "col3": "Willits, California",
        "col4": "1906-02-28",
        "col5": "1952-03-11"
    },
    {
        "col0": "P. Cote",
        "col1": "Cambridge, Massachusetts",
        "col2": "New York Giants",
        "col3": "Middleton, Massachusetts",
        "col4": "1902-08-30",
        "col5": "1987-10-17"
    },
    {
        "col0": "P. Coscarart",
        "col1": "Escondido, California",
        "col2": "Brooklyn Dodgers",
        "col3": "Escondido, California",
        "col4": "1913-06-16",
        "col5": "2002-07-24"
    },
    {
        "col0": "P. Conway",
        "col1": "Lansdowne, Pennsylvania",
        "col2": "Buffalo Bisons",
        "col3": "Clifton Heights, Pennsylvania",
        "col4": "1866-10-30",
        "col5": "1903-01-13"
    },
    {
        "col0": "P. Compton",
        "col1": "San Marcos, Texas",
        "col2": "St. Louis Browns",
        "col3": "Kansas City, Missouri",
        "col4": "1889-09-28",
        "col5": "1978-02-03"
    },
    {
        "col0": "P. Childs",
        "col1": "Philadelphia, Pennsylvania",
        "col2": "St. Louis Cardinals",
        "col3": "Philadelphia, Pennsylvania",
        "col4": "1871-11-15",
        "col5": "1922-02-15"
    },
    {
        "col0": "P. Center",
        "col1": "Hazel Green, Kentucky",
        "col2": "Cleveland Indians",
        "col3": "Campton, Kentucky",
        "col4": "1912-04-22",
        "col5": "2004-08-08"
    },
    {
        "col0": "P. Castiglione",
        "col1": "Greenwich, Connecticut",
        "col2": "Pittsburgh Pirates",
        "col3": "Pompano Beach, Florida",
        "col4": "1921-02-13",
        "col5": "2010-04-22"
    },
    {
        "col0": "P. Cassidy",
        "col1": "Wilmington, Delaware",
        "col2": "Louisville Colonels",
        "col3": "Wilmington, Delaware",
        "col4": "1873-04-08",
        "col5": "1929-07-09"
    },
    {
        "col0": "P. Appleton",
        "col1": "Terryville, Connecticut",
        "col2": "Cincinnati Reds",
        "col3": "Trenton, New Jersey",
        "col4": "1904-05-20",
        "col5": "1974-01-18"
    },
    {
        "col0": "P. Allen",
        "col1": "Columbiana, Ohio",
        "col2": "Cleveland Spiders",
        "col3": "Philadelphia, Pennsylvania",
        "col4": "1868-05-01",
        "col5": "1946-04-16"
    },
    {
        "col0": "P. Werden",
        "col1": "St. Louis, Missouri",
        "col2": "St. Louis Maroons / Indianapolis Hoosiers",
        "col3": "Minneapolis",
        "col4": "1865-07-21",
        "col5": "1934-01-09"
    },
    {
        "col0": "P. Jones",
        "col1": "Harwood, Texas",
        "col2": "Chicago Cubs",
        "col3": "Dallas, Texas",
        "col4": "1899-10-28",
        "col5": "1979-03-18"
    },
    {
        "col0": "P. Coleman",
        "col1": "Mason, Ohio",
        "col2": "St. Louis Browns",
        "col3": "Van Nuys, California",
        "col4": "1876-1-1",
        "col5": "1948-02-16"
    },
    {
        "col0": "P. Martin",
        "col1": "Temple, Oklahoma",
        "col2": "St. Louis Cardinals",
        "col3": "McAlester, Oklahoma",
        "col4": "1904-02-29",
        "col5": "1965-03-05"
    },
    {
        "col0": "P. Daniels",
        "col1": "Valdosta, Georgia",
        "col2": "Detroit Stars",
        "col3": "Chester, Orange County, New York",
        "col4": "1902-08-20",
        "col5": "1978-09-25"
    },
    {
        "col0": "P. Young",
        "col1": "Jamestown, North Carolina",
        "col2": "Pittsburgh Pirates",
        "col3": "Jamestown, North Carolina",
        "col4": "1907-08-29",
        "col5": "1962-01-14"
    },
    {
        "col0": "P. Rambert",
        "col1": "Cleveland, Ohio",
        "col2": "Pittsburgh Pirates",
        "col3": "West Palm Beach, Florida",
        "col4": "1916-08-01",
        "col5": "1974-11-16"
    },
    {
        "col0": "P. Goodwin",
        "col1": "Pocatello, Idaho",
        "col2": "Kansas City Packers",
        "col3": "Oakland, California",
        "col4": "1891-12-19",
        "col5": "1972-02-15"
    },
    {
        "col0": "P. Deininger",
        "col1": "Germany",
        "col2": "Boston Americans",
        "col3": "Boston, Massachusetts",
        "col4": "1877-10-10",
        "col5": "1950-09-25"
    },
    {
        "col0": "P. Clark",
        "col1": "Union City, Ohio",
        "col2": "Chicago White Sox",
        "col3": "Milwaukee, Wisconsin",
        "col4": "1883-03-20",
        "col5": "1965-06-08"
    },
    {
        "col0": "P. Finlayson",
        "col1": "Cheraw, South Carolina",
        "col2": "Brooklyn Superbas",
        "col3": "Brooklyn, New York",
        "col4": "1888-07-31",
        "col5": "1912-03-06"
    },
    {
        "col0": "P. Ballenger",
        "col1": "South Carolina",
        "col2": "Minnesota Twins",
        "col3": "Greenville County, South Carolina",
        "col4": "1894-02-06",
        "col5": "1948-12-08"
    },
    {
        "col0": "P. Veach",
        "col1": "Indianapolis, Indiana",
        "col2": "Kansas City Cowboys",
        "col3": "Indianapolis, Indiana",
        "col4": "1862-06-15",
        "col5": "1937-11-12"
    },
    {
        "col0": "P. Wanninger",
        "col1": "Birmingham, Alabama",
        "col2": "New York Yankees",
        "col3": "North Augusta, South Carolina",
        "col4": "1902-12-12",
        "col5": "1981-03-07"
    },
    {
        "col0": "P. Dibut",
        "col1": "Cienfuegos",
        "col2": "Cincinnati Reds",
        "col3": "Hialeah, Florida",
        "col4": "1892-11-18",
        "col5": "1979-12-04"
    },
    {
        "col0": "P. Borbon",
        "col1": "Dominican Republic",
        "col2": "Los Angeles Angels of Anaheim",
        "col3": "Pharr, Texas",
        "col4": "1946-12-02",
        "col5": "2012-06-04"
    },
    {
        "col0": "P. Chiles",
        "col1": "Deepwater, Missouri",
        "col2": "Philadelphia Phillies",
        "col3": "Talmage, California",
        "col4": "1867-05-28",
        "col5": "1933-12-11"
    },
    {
        "col0": "P. Lowrey",
        "col1": "Culver City, California",
        "col2": "Chicago Cubs",
        "col3": "Inglewood, California",
        "col4": "1917-08-27",
        "col5": "1986-07-02"
    },
    {
        "col0": "P. O'Neill",
        "col1": "Anderson, Indiana",
        "col2": "Cincinnati Reds",
        "col3": "Anderson, Indiana",
        "col4": "1879-08-30",
        "col5": "1955-08-02"
    },
    {
        "col0": "P. Graham",
        "col1": "Aledo, Illinois",
        "col2": "Cleveland Bronchos",
        "col3": "Long Beach, California",
        "col4": "1877-03-23",
        "col5": "1939-07-25"
    },
    {
        "col0": "P. R. Day",
        "col1": "Center, Missouri",
        "col2": "St. Louis Cardinals",
        "col3": "Kansas City, Missouri",
        "col4": "1899-08-15",
        "col5": "1934-03-21"
    },
    {
        "col0": "P. Zahniser",
        "col1": "Sac City, Iowa",
        "col2": "Washington Senators",
        "col3": "Klamath Falls, Oregon",
        "col4": "1896-09-06",
        "col5": "1964-09-26"
    },
    {
        "col0": "P. Waner",
        "col1": "Harrah, Oklahoma",
        "col2": "Pittsburgh Pirates",
        "col3": "Sarasota, Florida",
        "col4": "1903-04-16",
        "col5": "1965-08-29"
    },
    {
        "col0": "P. Wachtel",
        "col1": "Myersville, Maryland",
        "col2": "Brooklyn Robins",
        "col3": "San Antonio, Texas",
        "col4": "1888-04-30",
        "col5": "1964-12-15"
    },
    {
        "col0": "P. Toth",
        "col1": "McRoberts, Kentucky",
        "col2": "St. Louis Cardinals",
        "col3": "Anaheim, California",
        "col4": "1935-06-30",
        "col5": "1999-03-20"
    },
    {
        "col0": "P. Strand",
        "col1": "Carbonado, Washington",
        "col2": "Boston Braves",
        "col3": "Salt Lake City, Utah",
        "col4": "1893-12-19",
        "col5": "1974-07-02"
    },
    {
        "col0": "P. Splittorff",
        "col1": "Evansville, Indiana",
        "col2": "Kansas City Royals",
        "col3": "Blue Springs, Missouri",
        "col4": "1946-10-08",
        "col5": "2011-05-25"
    },
    {
        "col0": "P. Speraw",
        "col1": "Annville, Pennsylvania",
        "col2": "St. Louis Browns",
        "col3": "Cedar Rapids, Iowa",
        "col4": "1893-10-05",
        "col5": "1962-02-22"
    },
    {
        "col0": "P. Smith",
        "col1": "Mount Zion, Illinois",
        "col2": "Cincinnati Reds",
        "col3": "Decatur, Illinois",
        "col4": "1888-05-07",
        "col5": "1958-07-03"
    },
    {
        "col0": "P. Sentell",
        "col1": "New Orleans, Louisiana",
        "col2": "Philadelphia Phillies",
        "col3": "Cincinnati",
        "col4": "1879-08-27",
        "col5": "1923-04-27"
    },
    {
        "col0": "P. Schreiber",
        "col1": "Jacksonville, Florida",
        "col2": "Brooklyn Robins",
        "col3": "Sarasota, Florida",
        "col4": "1902-10-08",
        "col5": "1982-01-28"
    },
    {
        "col0": "P. Russell",
        "col1": "Reading, Pennsylvania",
        "col2": "St. Louis Browns",
        "col3": "Norristown, Pennsylvania",
        "col4": "1871-03-23",
        "col5": "1957-10-08"
    },
    {
        "col0": "P. Richards",
        "col1": "Waxahachie, Texas",
        "col2": "Brooklyn Dodgers",
        "col3": "Waxahachie, Texas",
        "col4": "1908-11-21",
        "col5": "1986-05-04"
    },
    {
        "col0": "P. Radford",
        "col1": "Roxbury, Massachusetts",
        "col2": "Boston Beaneaters",
        "col3": "Boston, Massachusetts",
        "col4": "1861-10-14",
        "col5": "1945-02-21"
    },
    {
        "col0": "P. Penson",
        "col1": "Kansas City, Kansas",
        "col2": "Philadelphia Phillies",
        "col3": "Merriam, Kansas",
        "col4": "1931-07-12",
        "col5": "2006-05-03"
    },
    {
        "col0": "P. Owens",
        "col1": "Salamanca",
        "col2": "Olean Oilers",
        "col3": "Woodbury, New Jersey",
        "col4": "1924-02-07",
        "col5": "2003-12-26"
    },
    {
        "col0": "P. O'Dea",
        "col1": "Cleveland, Ohio",
        "col2": "Cleveland Indians",
        "col3": "Cleveland, Ohio",
        "col4": "1920-07-03",
        "col5": "1978-12-11"
    },
    {
        "col0": "P. Musser",
        "col1": "Millheim, Pennsylvania",
        "col2": "Washington Senators",
        "col3": "State College, Pennsylvania",
        "col4": "1889-06-24",
        "col5": "1973-07-07"
    },
    {
        "col0": "P. Minner",
        "col1": "New Wilmington, Pennsylvania",
        "col2": "Brooklyn Dodgers",
        "col3": "Lemoyne, Pennsylvania",
        "col4": "1923-07-30",
        "col5": "2006-03-28"
    },
    {
        "col0": "P. Meloan",
        "col1": "Paynesville, Missouri",
        "col2": "Chicago White Sox",
        "col3": "Taft, California",
        "col4": "1888-08-23",
        "col5": "1950-02-11"
    },
    {
        "col0": "P. McSweeney",
        "col1": "St. Louis, Missouri",
        "col2": "St. Louis Browns",
        "col3": "St. Louis, Missouri",
        "col4": "1867-04-03",
        "col5": "1951-08-12"
    },
    {
        "col0": "P. McCullough",
        "col1": "New Castle, Pennsylvania",
        "col2": "Washington Senators",
        "col3": "New Castle, Pennsylvania",
        "col4": "1898-07-28",
        "col5": "1970-11-07"
    },
    {
        "col0": "P. Masterson",
        "col1": "Chicago, Illinois",
        "col2": "Philadelphia Phillies",
        "col3": "Chicago, Illinois",
        "col4": "1915-10-16",
        "col5": "1997-11-27"
    },
    {
        "col0": "P. Maloy",
        "col1": "Bascom, Ohio",
        "col2": "Boston Red Sox",
        "col3": "Sandusky, Ohio",
        "col4": "1892-06-04",
        "col5": "1976-03-18"
    },
    {
        "col0": "P. Lindblad",
        "col1": "Chanute, Kansas",
        "col2": "Kansas City Athletics",
        "col3": "Arlington, Texas",
        "col4": "1941-08-09",
        "col5": "2006-01-01"
    },
    {
        "col0": "P. Lehner",
        "col1": "Jefferson County, Alabama",
        "col2": "St. Louis Browns",
        "col3": "Birmingham, Alabama",
        "col4": "1920-07-01",
        "col5": "1967-12-27"
    },
    {
        "col0": "P. LaPalme",
        "col1": "Springfield, Massachusetts",
        "col2": "Pittsburgh Pirates",
        "col3": "Leominster, Massachusetts",
        "col4": "1923-12-14",
        "col5": "2010-02-07"
    },
    {
        "col0": "P. Kardow",
        "col1": "Humble, Texas",
        "col2": "Cleveland Indians",
        "col3": "San Antonio, Texas",
        "col4": "1915-09-19",
        "col5": "1968-04-27"
    },
    {
        "col0": "P. Howard",
        "col1": "Boston, Massachusetts",
        "col2": "Boston Red Sox",
        "col3": "Miami, Florida",
        "col4": "1884-05-20",
        "col5": "1968-08-29"
    },
    {
        "col0": "P. Hopkins",
        "col1": "Chester, Connecticut",
        "col2": "Washington Senators",
        "col3": "Middletown, Connecticut",
        "col4": "1904-09-25",
        "col5": "2004-01-02"
    },
    {
        "col0": "P. Hines",
        "col1": "Virginia",
        "col2": "Washington Nationals",
        "col3": "Hyattsville, Maryland",
        "col4": "1855-03-01",
        "col5": "1935-07-10"
    },
    {
        "col0": "P. Gillespie",
        "col1": "Bartow County, Georgia",
        "col2": "Chicago Cubs",
        "col3": "Anniston, Alabama",
        "col4": "1920-09-18",
        "col5": "1970-08-11"
    },
    {
        "col0": "P. Giel",
        "col1": "Winona, Minnesota",
        "col2": "New York Giants",
        "col3": "Minneapolis",
        "col4": "1932-09-29",
        "col5": "2002-05-22"
    },
    {
        "col0": "P. Gehrman",
        "col1": "Marquam, Oregon",
        "col2": "Cincinnati Reds",
        "col3": "Bend, Oregon",
        "col4": "1912-05-03",
        "col5": "1986-10-23"
    },
    {
        "col0": "P. Florence",
        "col1": "Chicago",
        "col2": "New York Giants",
        "col3": "Gainesville, Florida",
        "col4": "1900-04-22",
        "col5": "1986-05-28"
    },
    {
        "col0": "P. Fittery",
        "col1": "Lebanon, Pennsylvania",
        "col2": "Cincinnati Reds",
        "col3": "Cartersville, Georgia",
        "col4": "1887-10-10",
        "col5": "1974-01-28"
    },
    {
        "col0": "P. Erickson",
        "col1": "Zion, Illinois",
        "col2": "Chicago Cubs",
        "col3": "Fond du Lac, Wisconsin",
        "col4": "1915-12-14",
        "col5": "2002-04-05"
    },
    {
        "col0": "P. Edmondson",
        "col1": "Kansas City, Kansas",
        "col2": "Chicago White Sox",
        "col3": "Santa Barbara, California",
        "col4": "1943-02-12",
        "col5": "1970-02-13"
    },
    {
        "col0": "P. Easterling",
        "col1": "Reidsville, Georgia",
        "col2": "Detroit Tigers",
        "col3": "Reidsville, Georgia",
        "col4": "1905-09-28",
        "col5": "1993-03-15"
    },
    {
        "col0": "P. Derringer",
        "col1": "Springfield, Kentucky",
        "col2": "St. Louis Cardinals",
        "col3": "Sarasota, Florida",
        "col4": "1906-10-17",
        "col5": "1987-11-17"
    },
    {
        "col0": "P. Dean",
        "col1": "Lucas, Arkansas",
        "col2": "St. Louis Cardinals",
        "col3": "Springdale, Arkansas",
        "col4": "1912-08-14",
        "col5": "1981-03-17"
    },
    {
        "col0": "P. Cook",
        "col1": "Caledonia, New York",
        "col2": "Philadelphia Quakers",
        "col3": "Rochester, New York",
        "col4": "1863-05-05",
        "col5": "1905-05-25"
    },
    {
        "col0": "P. Chervinko",
        "col1": "Trauger, Pennsylvania",
        "col2": "Brooklyn Dodgers",
        "col3": "Danville, Illinois",
        "col4": "1910-07-23",
        "col5": "1976-06-03"
    },
    {
        "col0": "P. Castner",
        "col1": "Saint Paul, Minnesota",
        "col2": "Chicago White Sox",
        "col3": "Saint Paul, Minnesota",
        "col4": "1897-02-16",
        "col5": "1986-03-03"
    },
    {
        "col0": "P. Carpenter",
        "col1": "Granville, Ohio",
        "col2": "Pittsburgh Pirates",
        "col3": "Newark, Ohio",
        "col4": "1894-08-12",
        "col5": "1968-03-14"
    },
    {
        "col0": "P. Campbell",
        "col1": "Paw Creek, North Carolina",
        "col2": "Boston Red Sox",
        "col3": "Charlotte, North Carolina",
        "col4": "1917-09-01",
        "col5": "2006-06-22"
    },
    {
        "col0": "P. Calvert",
        "col1": "Canada",
        "col2": "Cleveland Indians",
        "col3": "Canada",
        "col4": "1917-10-06",
        "col5": "1999-02-01"
    },
    {
        "col0": "P. Burris",
        "col1": "Hickory, North Carolina",
        "col2": "Boston Braves",
        "col3": "Charlotte, North Carolina",
        "col4": "1923-07-21",
        "col5": "1999-10-03"
    },
    {
        "col0": "P. Blair",
        "col1": "Cushing, Oklahoma",
        "col2": "Baltimore Orioles",
        "col3": "Pikesville, Maryland",
        "col4": "1944-02-01",
        "col5": "2013-12-26"
    }
]