[
    {
        "col0": "Lord Howe pigeon",
        "col1": "Columbidae",
        "col2": "Columba vitiensis",
        "col3": "EX",
        "col4": "IUCN3.1"
    },
    {
        "col0": "Lord Howe fantail",
        "col1": "Fantail",
        "col2": "Rhipidura fuliginosa",
        "col3": "EX",
        "col4": "EPBC"
    },
    {
        "col0": "Lord Howe currawong",
        "col1": "Artamidae",
        "col2": "Pied currawong",
        "col3": "VU",
        "col4": "EPBC"
    },
    {
        "col0": "Lord Howe boobook",
        "col1": "Strigidae",
        "col2": "Ninox novaeseelandiae",
        "col3": "EX",
        "col4": "EPBC"
    },
    {
        "col0": "Lilian's meadowlark",
        "col1": "Icteridae",
        "col2": "Sturnella magna",
        "col3": "NR",
        "col4": "IUCN3.1"
    },
    {
        "col0": "Lilacine amazon",
        "col1": "Psittacidae",
        "col2": "Red-lored amazon",
        "col3": "EN",
        "col4": "iucn3.1"
    },
    {
        "col0": "Lana'i 'alauahio",
        "col1": "Carduelinae",
        "col2": "Paroreomyza montana",
        "col3": "EX",
        "col4": "IUCN3.1"
    },
    {
        "col0": "Lana'i hookbill",
        "col1": "Finch",
        "col2": "Extinction",
        "col3": "EX",
        "col4": "IUCN3.1"
    },
    {
        "col0": "Kumlien's gull",
        "col1": "Laridae",
        "col2": "Larus glaucoides",
        "col3": "NE",
        "col4": "IUCN3.1"
    },
    {
        "col0": "King Island emu",
        "col1": "Dromaiidae",
        "col2": "Dromaius novaehollandiae",
        "col3": "EX",
        "col4": "IUCN3.1"
    },
    {
        "col0": "Kabobo apalis",
        "col1": "Cisticolidae",
        "col2": "Chestnut-throated apalis",
        "col3": "NE",
        "col4": "iucn3.1"
    },
    {
        "col0": "Helmeted honeyeater",
        "col1": "Meliphagidae",
        "col2": "Yellow-tufted honeyeater",
        "col3": "EN",
        "col4": "EPBC"
    },
    {
        "col0": "Heath hen",
        "col1": "Phasianidae",
        "col2": "Tympanuchus cupido",
        "col3": "EX",
        "col4": "iucn3.1"
    },
    {
        "col0": "Hawaiian stilt",
        "col1": "Recurvirostridae",
        "col2": "Himantopus mexicanus",
        "col3": "T2",
        "col4": "TNC"
    },
    {
        "col0": "Hawaiian gallinule",
        "col1": "Rallidae",
        "col2": "Common gallinule",
        "col3": "T2",
        "col4": "TNC"
    },
    {
        "col0": "Haast's eagle",
        "col1": "Accipitridae",
        "col2": "Extinction",
        "col3": "EX",
        "col4": "IUCN3.1"
    },
    {
        "col0": "Guadalupe caracara",
        "col1": "Falconidae",
        "col2": "Extinction",
        "col3": "EX",
        "col4": "IUCN3.1"
    },
    {
        "col0": "Gray hawk",
        "col1": "Accipitridae",
        "col2": "Hermann Schlegel",
        "col3": "LC",
        "col4": "IUCN3.1"
    },
    {
        "col0": "Gibson's albatross",
        "col1": "Diomedeidae",
        "col2": "D. antipodensis",
        "col3": "VU",
        "col4": "iucn3.1"
    },
    {
        "col0": "Florida grasshopper sparrow",
        "col1": "Emberizidae",
        "col2": "Grasshopper sparrow",
        "col3": "E",
        "col4": "ESA"
    },
    {
        "col0": "Feral pigeon",
        "col1": "Dove",
        "col2": "Rock pigeon",
        "col3": "LC",
        "col4": "IUCN3.1"
    },
    {
        "col0": "Escudo hummingbird",
        "col1": "Trochilidae",
        "col2": "Rufous-tailed hummingbird",
        "col3": "NR",
        "col4": "iucn3.1"
    }
]