[
    {
        "col0": "Vulcana",
        "col1": "London",
        "col2": "Wales",
        "col3": "1875-1-1",
        "col4": "1946-1-1"
    },
    {
        "col0": "V. Gironda",
        "col1": "Ventura County, California",
        "col2": "New York City",
        "col3": "1917-11-09",
        "col4": "1997-10-18"
    },
    {
        "col0": "S. Reeves",
        "col1": "Escondido, California",
        "col2": "Glasgow, Montana",
        "col3": "1926-01-21",
        "col4": "2000-05-01"
    },
    {
        "col0": "S. Schmidt",
        "col1": "Melbourne",
        "col2": "New Zealand",
        "col3": "1953-9-1",
        "col4": "2004-1-25"
    },
    {
        "col0": "S. Beattie",
        "col1": "Portland, Oregon",
        "col2": "California",
        "col3": "1967-08-24",
        "col4": "2008-02-16"
    },
    {
        "col0": "S. Oliva",
        "col1": "Chicago",
        "col2": "Cuba",
        "col3": "1941-07-04",
        "col4": "2012-11-12"
    },
    {
        "col0": "S. Nubret",
        "col1": "France",
        "col2": "Guadeloupe",
        "col3": "1938-10-06",
        "col4": "2011-04-19"
    },
    {
        "col0": "R. Park",
        "col1": "South Africa",
        "col2": "England",
        "col3": "1928-06-07",
        "col4": "2007-11-22"
    },
    {
        "col0": "P. Rader",
        "col1": "United States",
        "col2": "United States",
        "col3": "1909-10-17",
        "col4": "1991-11-24"
    },
    {
        "col0": "P. Demayo",
        "col1": "Boston",
        "col2": "California",
        "col3": "1967-09-12",
        "col4": "2005-06-02"
    },
    {
        "col0": "N. E. Sonbaty",
        "col1": "Cairo, Egypt",
        "col2": "Stuttgart",
        "col3": "1965-10-15",
        "col4": "2013-03-20"
    },
    {
        "col0": "M. Roy",
        "col1": "India",
        "col2": "Dhaka district",
        "col3": "1916-10-21",
        "col4": "2005-06-29"
    },
    {
        "col0": "M. Benaziza",
        "col1": "Zeeland",
        "col2": "Algeria",
        "col3": "1959-1-1",
        "col4": "1992-10-04"
    },
    {
        "col0": "M. Mentzer",
        "col1": "California",
        "col2": "Pennsylvania",
        "col3": "1951-11-15",
        "col4": "2001-06-10"
    },
    {
        "col0": "M. Matarazzo",
        "col1": "Palo Alto, California",
        "col2": "Boston",
        "col3": "1965-11-08",
        "col4": "2014-08-16"
    },
    {
        "col0": "M. Aich",
        "col1": "India",
        "col2": "British India",
        "col3": "1912-03-17",
        "col4": "2016-06-05"
    },
    {
        "col0": "L. Combes",
        "col1": "Odessa, Florida",
        "col2": "Racine, Wisconsin",
        "col3": "1953-10-19",
        "col4": "1989-10-04"
    },
    {
        "col0": "L. Scott",
        "col1": "Salt Lake City",
        "col2": "Blackfoot, Idaho",
        "col3": "1938-10-12",
        "col4": "2014-03-08"
    },
    {
        "col0": "K. Baxter",
        "col1": "Los Angeles, California",
        "col2": "Ohio",
        "col3": "1945-10-03",
        "col4": "1988-05-16"
    },
    {
        "col0": "J. Grimek",
        "col1": "York, Pennsylvania",
        "col2": "Perth Amboy, New Jersey",
        "col3": "1910-06-17",
        "col4": "1998-11-20"
    },
    {
        "col0": "J. Weider",
        "col1": "California",
        "col2": "Montreal",
        "col3": "1920-11-11",
        "col4": "2013-03-23"
    },
    {
        "col0": "J. Gold",
        "col1": "Marina del Rey, California",
        "col2": "Boyle Heights, Los Angeles",
        "col3": "1922-3-10",
        "col4": "2004-7-11"
    },
    {
        "col0": "I. Koszewski",
        "col1": "Doylestown, Pennsylvania",
        "col2": "Camden, New Jersey",
        "col3": "1922-08-20",
        "col4": "2009-03-29"
    },
    {
        "col0": "G. Kovacs",
        "col1": "Ontario",
        "col2": "Ontario",
        "col3": "1968-12-16",
        "col4": "2013-11-22"
    },
    {
        "col0": "F. R. Rivera",
        "col1": "Caguas, Puerto Rico",
        "col2": "Ponce, Puerto Rico",
        "col3": "1972-03-19",
        "col4": "2010-02-16"
    },
    {
        "col0": "F. Hodzic",
        "col1": "Prijedor",
        "col2": "Prijedor",
        "col3": "1953-06-26",
        "col4": "1992-07-09"
    }
]