[
    {
        "col0": "Climbing Mount Improbable",
        "col1": "L. Ward",
        "col2": "River out of Eden",
        "col3": "34633422",
        "col4": "QH375 .D376 1996"
    },
    {
        "col0": "Chris Crawford on Game Design",
        "col1": "C. Crawford",
        "col2": "The Art of Computer Game Design",
        "col3": "52937807",
        "col4": "QA76.76.C672 C73 2003"
    },
    {
        "col0": "Chicka, Chicka, 1, 2, 3",
        "col1": "L. Ehlert",
        "col2": "Chicka Chicka Boom Boom",
        "col3": "53900934",
        "col4": "PZ8.3.M3988 Cf 2004"
    },
    {
        "col0": "Charlie and the Great Glass Elevator",
        "col1": "Q. Blake",
        "col2": "Charlie and the Chocolate Factory",
        "col3": "314239",
        "col4": "PZ7.D1515 Ck3"
    },
    {
        "col0": "Cats of the Clans",
        "col1": "W. McLoughlin",
        "col2": "Secrets of the Clans",
        "col3": "214322581",
        "col4": "PZ7.H916625 Cat 2008"
    },
    {
        "col0": "By the Shores of Silver Lake",
        "col1": "G. Williams",
        "col2": "On the Banks of Plum Creek",
        "col3": "6932095",
        "col4": "PZ7.W6461 By"
    },
    {
        "col0": "Bigger Deal: A Year Inside the Poker Boom",
        "col1": "G. Scarfe",
        "col2": "Big Deal: A Year as a Professional Poker Player",
        "col3": "122261636",
        "col4": "GV1250.2.H65 A3 2007"
    },
    {
        "col0": "As I Walked Out One Midsummer Morning",
        "col1": "L. Rosoman",
        "col2": "Cider with Rosie",
        "col3": "12104039",
        "col4": "PR6023.E285 Z463 1985"
    },
    {
        "col0": "An Urchin in the Storm",
        "col1": "D. Levine",
        "col2": "Time's Arrow, Time's Cycle",
        "col3": "16472146",
        "col4": "QH311 .G68 1987"
    },
    {
        "col0": "A Gift of Dragons",
        "col1": "T. Kidd",
        "col2": "The Skies of Pern",
        "col3": "50817877",
        "col4": "PS3563.A255 G54 2002"
    },
    {
        "col0": "2061: Odyssey Three",
        "col1": "M. Whelan",
        "col2": "2010: Odyssey Two",
        "col3": "16756201",
        "col4": "PR6005.L36 A617 1988"
    }
]