[
    {
        "col0": "F. DePaula",
        "col1": "United States",
        "col2": "New Jersey",
        "col3": "Beacon, Jersey City",
        "col4": "1970-09-14",
        "col5": "1939-07-04"
    },
    {
        "col0": "F. Klaus",
        "col1": "Americans",
        "col2": "Pittsburgh",
        "col3": "Pittsburgh",
        "col4": "1948-02-08",
        "col5": "1887-12-30"
    },
    {
        "col0": "F. Erne",
        "col1": "Americans",
        "col2": "Zurich",
        "col3": "New York City",
        "col4": "1954-09-17",
        "col5": "1875-01-08"
    },
    {
        "col0": "F. Childs",
        "col1": "Americans",
        "col2": "Texas",
        "col3": "Waukegan, Illinois",
        "col4": "1936-06-20",
        "col5": "1867-07-17"
    },
    {
        "col0": "F. Guilledo",
        "col1": "Filipino people",
        "col2": "Insular Government of the Philippine Islands",
        "col3": "San Francisco",
        "col4": "1925-07-14",
        "col5": "1901-08-01"
    },
    {
        "col0": "F. Cabanas",
        "col1": "Mexico",
        "col2": "Mexico City",
        "col3": "Mexico City",
        "col4": "2002-01-26",
        "col5": "1912-01-22"
    },
    {
        "col0": "F. Fernandez",
        "col1": "Cubans",
        "col2": "Cuba",
        "col3": "Florida",
        "col4": "2013-01-28",
        "col5": "1936-03-07"
    },
    {
        "col0": "F. LaBarba",
        "col1": "United States",
        "col2": "New York City",
        "col3": "California",
        "col4": "1981-10-02",
        "col5": "1905-09-29"
    },
    {
        "col0": "F. Nagy",
        "col1": "Hungary",
        "col2": "Cegled",
        "col3": "Budapest",
        "col4": "1977-05-11",
        "col5": "1916-10-27"
    },
    {
        "col0": "E. Charles",
        "col1": "Americans",
        "col2": "Lawrenceville, Georgia",
        "col3": "Chicago",
        "col4": "1975-05-28",
        "col5": "1921-07-07"
    },
    {
        "col0": "E. Criqui",
        "col1": "France",
        "col2": "Paris",
        "col3": "France",
        "col4": "1977-07-07",
        "col5": "1893-08-15"
    },
    {
        "col0": "E. d. Jesus",
        "col1": "Puerto Rican people",
        "col2": "Carolina, Puerto Rico",
        "col3": "San Juan, Puerto Rico",
        "col4": "1989-05-12",
        "col5": "1951-08-02"
    },
    {
        "col0": "E. Gallard",
        "col1": "Cubans",
        "col2": "Cuba",
        "col3": "Argentina",
        "col4": "1929-10-07",
        "col5": "1901-01-11"
    },
    {
        "col0": "E. Lopez",
        "col1": "United States",
        "col2": "Fort Duchesne, Utah",
        "col3": "Pleasant Grove, Utah",
        "col4": "2009-10-03",
        "col5": "1945-9-23"
    },
    {
        "col0": "E. Field",
        "col1": "List of British light-heavyweight boxing champions",
        "col2": "Wakefield",
        "col3": "Wakefield",
        "col4": "2013-05-02",
        "col5": "1943-02-06"
    },
    {
        "col0": "E. Spalla",
        "col1": "Italy",
        "col2": "Italy",
        "col3": "Italy",
        "col4": "1971-08-14",
        "col5": "1897-07-07"
    },
    {
        "col0": "E. Griffith",
        "col1": "Americans",
        "col2": "Saint Thomas, U.S. Virgin Islands",
        "col3": "Hempstead, New York",
        "col4": "2013-07-23",
        "col5": "1938-02-03"
    },
    {
        "col0": "E. Alvarez",
        "col1": "Colombia",
        "col2": "Medellin",
        "col3": "Colombia",
        "col4": "1995-07-16",
        "col5": "1965-02-02"
    },
    {
        "col0": "E. Bennett",
        "col1": "Australians",
        "col2": "Pialba, Queensland",
        "col3": "Bundaberg, Queensland",
        "col4": "1981-08-31",
        "col5": "1924-04-03"
    },
    {
        "col0": "E. Rosario",
        "col1": "Puerto Ricans",
        "col2": "Toa Baja, Puerto Rico",
        "col3": "Puerto Rico",
        "col4": "1997-12-01",
        "col5": "1963-03-15"
    },
    {
        "col0": "E. Rollins",
        "col1": "Australia",
        "col2": "British Guiana",
        "col3": "Australia",
        "col4": "1939-02-01",
        "col5": "1852-01-01"
    },
    {
        "col0": "E. Machen",
        "col1": "United States",
        "col2": "Redding, California",
        "col3": "San Francisco, California",
        "col4": "1972-08-08",
        "col5": "1932-06-15"
    },
    {
        "col0": "E. Campagnuolo",
        "col1": "United States",
        "col2": "New Haven, Connecticut",
        "col3": "Lake Worth, Florida",
        "col4": "1998-01-03",
        "col5": "1927-01-04"
    },
    {
        "col0": "D. Loi",
        "col1": "Italian people",
        "col2": "Trieste",
        "col3": "Treviso",
        "col4": "2008-01-20",
        "col5": "1929-04-29"
    },
    {
        "col0": "D. Rodriguez",
        "col1": "Cuba",
        "col2": "Havana",
        "col3": "Havana",
        "col4": "2012-05-21",
        "col5": "1950-06-03"
    },
    {
        "col0": "D. Scott",
        "col1": "United Kingdom",
        "col2": "Derby",
        "col3": "Derby",
        "col4": "2013-2-13",
        "col5": "1928-7-23"
    },
    {
        "col0": "D. Cockell",
        "col1": "United Kingdom",
        "col2": "London Borough of Wandsworth",
        "col3": "Tooting",
        "col4": "1983-07-18",
        "col5": "1928-09-22"
    },
    {
        "col0": "D. Kid",
        "col1": "Americans",
        "col2": "Fulton, Missouri",
        "col3": "Los Angeles",
        "col4": "1934-04-06",
        "col5": "1883-12-23"
    },
    {
        "col0": "D. Moyer",
        "col1": "Americans",
        "col2": "Portland, Oregon",
        "col3": "Portland, Oregon",
        "col4": "2010-06-30",
        "col5": "1939-08-08"
    },
    {
        "col0": "D. Powell",
        "col1": "Wales",
        "col2": "Wales",
        "col3": "Wales",
        "col4": "1993-05-27",
        "col5": "1924-12-12"
    },
    {
        "col0": "D. Fontaine",
        "col1": "Canada",
        "col2": "Canada",
        "col3": "London",
        "col4": "1935-10-29",
        "col5": "1904-02-22"
    },
    {
        "col0": "D. Moore",
        "col1": "Americans",
        "col2": "Bronx, New York",
        "col3": "The Bronx",
        "col4": "1988-06-01",
        "col5": "1959-06-09"
    },
    {
        "col0": "D. Moore",
        "col1": "United States",
        "col2": "Lexington, Kentucky",
        "col3": "Los Angeles",
        "col4": "1963-03-25",
        "col5": "1933-11-01"
    },
    {
        "col0": "D. Shade",
        "col1": "Americans",
        "col2": "Vallejo, California",
        "col3": "Concord, California",
        "col4": "1983-06-23",
        "col5": "1902-03-01"
    },
    {
        "col0": "D. Sands",
        "col1": "Indigenous Australian",
        "col2": "New South Wales",
        "col3": "Australia",
        "col4": "1952-08-11",
        "col5": "1926-02-04"
    },
    {
        "col0": "D. Palitz",
        "col1": "Americans",
        "col2": "Bridgeport, Connecticut",
        "col3": "Connecticut",
        "col4": "1940-11-17",
        "col5": "1891-01-01"
    },
    {
        "col0": "D. Needham",
        "col1": "United Kingdom",
        "col2": "Nottingham",
        "col3": "Thailand",
        "col4": "2008-09-19",
        "col5": "1951-08-15"
    },
    {
        "col0": "D. Sutherland",
        "col1": "Irish people",
        "col2": "Republic of Ireland",
        "col3": "England",
        "col4": "2009-09-14",
        "col5": "1982-04-18"
    },
    {
        "col0": "D. Nardico",
        "col1": "Americans",
        "col2": "United States",
        "col3": "Sacramento, California",
        "col4": "2010-11-22",
        "col5": "1925-09-19"
    },
    {
        "col0": "D. Pozniakas",
        "col1": "Soviet Union",
        "col2": "Bialystok",
        "col3": "Vilnius",
        "col4": "2005-02-04",
        "col5": "1939-10-19"
    },
    {
        "col0": "D. S. John",
        "col1": "Wales",
        "col2": "Wales",
        "col3": "South Africa",
        "col4": "1899-11-23",
        "col5": "1871-04-01"
    },
    {
        "col0": "D. Marino",
        "col1": "United States",
        "col2": "Honolulu",
        "col3": "Honolulu",
        "col4": "1989-10-28",
        "col5": "1915-10-15"
    },
    {
        "col0": "C. O'Kelly",
        "col1": "Irish people",
        "col2": "County Cork",
        "col3": "Kingston upon Hull",
        "col4": "1947-11-03",
        "col5": "1886-10-29"
    },
    {
        "col0": "C. Henry",
        "col1": "Americans",
        "col2": "San Antonio, Texas",
        "col3": "California",
        "col4": "1999-02-28",
        "col5": "1895-6-24"
    },
    {
        "col0": "C. Battalino",
        "col1": "People of the United States",
        "col2": "Hartford, Connecticut",
        "col3": "Hartford, Connecticut",
        "col4": "1977-07-15",
        "col5": "1908-02-18"
    },
    {
        "col0": "C. Finnegan",
        "col1": "United Kingdom",
        "col2": "England",
        "col3": "London",
        "col4": "2009-03-02",
        "col5": "1944-06-05"
    },
    {
        "col0": "C. Yo-sam",
        "col1": "Korea",
        "col2": "Korea",
        "col3": "Seoul",
        "col4": "2008-01-03",
        "col5": "1972-03-01"
    },
    {
        "col0": "C. Chiteule",
        "col1": "Zambia",
        "col2": "Zambia",
        "col3": "Kabwe",
        "col4": "2008-05-06",
        "col5": "1953-10-10"
    },
    {
        "col0": "C. Pilkington",
        "col1": "United States",
        "col2": "New York City",
        "col3": "Meriden, Connecticut",
        "col4": "1974-05-20",
        "col5": "1897-09-22"
    },
    {
        "col0": "C. Zivic",
        "col1": "United States",
        "col2": "Pittsburgh",
        "col3": "Pittsburgh, Pennsylvania",
        "col4": "1984-11-27",
        "col5": "1925-01-31"
    },
    {
        "col0": "C. Burley",
        "col1": "United States",
        "col2": "Pittsburgh",
        "col3": "Pittsburgh",
        "col4": "1992-10-16",
        "col5": "1917-09-06"
    },
    {
        "col0": "C. P. Davey",
        "col1": "United States",
        "col2": "Michigan",
        "col3": "Michigan",
        "col4": "2002-12-04",
        "col5": "1925-05-03"
    },
    {
        "col0": "C. Wright",
        "col1": "United States",
        "col2": "Willcox, Arizona",
        "col3": "California",
        "col4": "1957-08-12",
        "col5": "1912-02-01"
    },
    {
        "col0": "C. Garcia",
        "col1": "Filipino people",
        "col2": "Manila",
        "col3": "California",
        "col4": "1981-01-01",
        "col5": "1906-08-26"
    },
    {
        "col0": "C. Monzon",
        "col1": "Argentine",
        "col2": "Argentina",
        "col3": "Argentina",
        "col4": "1995-01-08",
        "col5": "1942-08-07"
    },
    {
        "col0": "C. Williams",
        "col1": "United States",
        "col2": "United States",
        "col3": "New York City",
        "col4": "2013-04-07",
        "col5": "1959-11-11"
    },
    {
        "col0": "B. Mathis",
        "col1": "United States",
        "col2": "Sledge, Mississippi",
        "col3": "Grand Rapids, Michigan",
        "col4": "1995-09-06",
        "col5": "1943-06-11"
    },
    {
        "col0": "B. Baer",
        "col1": "United States",
        "col2": "Denver",
        "col3": "Martinez, California",
        "col4": "1986-07-18",
        "col5": "1915-06-11"
    },
    {
        "col0": "B. Wells",
        "col1": "England",
        "col2": "Middlesex",
        "col3": "Surrey",
        "col4": "2009-11-14",
        "col5": "1933-07-07"
    },
    {
        "col0": "B. Murphy",
        "col1": "New Zealanders",
        "col2": "Palmerston North",
        "col3": "Silverstream",
        "col4": "2000-11-09",
        "col5": "1924-02-26"
    },
    {
        "col0": "B. Kuznetsov",
        "col1": "Soviet Union",
        "col2": "Soviet Union",
        "col3": "Astrakhan",
        "col4": "2006-05-03",
        "col5": "1947-02-23"
    },
    {
        "col0": "B. B. Wells",
        "col1": "United Kingdom",
        "col2": "England",
        "col3": "Ealing",
        "col4": "1967-06-12",
        "col5": "1887-8-31"
    },
    {
        "col0": "B. Olson",
        "col1": "United States",
        "col2": "Honolulu, Hawaii",
        "col3": "Honolulu, Hawaii",
        "col4": "2002-01-16",
        "col5": "1928-07-11"
    },
    {
        "col0": "B. Armstrong",
        "col1": "Americans",
        "col2": "Rogersville, Tennessee",
        "col3": "Chicago, Illinois",
        "col4": "1933-01-05",
        "col5": "1873-09-04"
    },
    {
        "col0": "B. Ward",
        "col1": "Australians",
        "col2": "Bundaberg",
        "col3": "Gladstone, Queensland",
        "col4": "2013-08-04",
        "col5": "1993-07-16"
    },
    {
        "col0": "B. Conn",
        "col1": "Americans",
        "col2": "Pittsburgh",
        "col3": "Pittsburgh",
        "col4": "1993-05-29",
        "col5": "1917-10-08"
    },
    {
        "col0": "B. Lang",
        "col1": "Australia",
        "col2": "Melbourne",
        "col3": "Melbourne",
        "col4": "1952-09-03",
        "col5": "1882-07-06"
    }
]