[
    {
        "col0": "Tuber cinereum",
        "col1": "12827470",
        "col2": "376",
        "col3": "A08.186.211.730.385.357.352.870",
        "col4": "813"
    },
    {
        "col0": "Trigeminal nerve nuclei",
        "col1": "12583834",
        "col2": "1008020136",
        "col3": "A08.186.211.132.931",
        "col4": "787"
    },
    {
        "col0": "Trigeminal motor nucleus",
        "col1": "12581906",
        "col2": "551",
        "col3": "A08.186.211.132.931",
        "col4": "787"
    },
    {
        "col0": "Substantia innominata",
        "col1": "12766814",
        "col2": "256",
        "col3": "A08.186.211.577.820",
        "col4": "837"
    },
    {
        "col0": "Spinal trigeminal nucleus",
        "col1": "12583463",
        "col2": "1015266456",
        "col3": "A08.186.211.132.931.920",
        "col4": "787"
    },
    {
        "col0": "Rhombic lip",
        "col1": "12529123",
        "col2": "534",
        "col3": "A08.186.211.132.810.428",
        "col4": "785"
    },
    {
        "col0": "Rhinencephalon",
        "col1": "12708360",
        "col2": "241",
        "col3": "A08.186.211.577.699",
        "col4": "826"
    },
    {
        "col0": "Reticular formation",
        "col1": "12374790",
        "col2": "225",
        "col3": "A08.186.211.132.772",
        "col4": "784"
    },
    {
        "col0": "Red nucleus",
        "col1": "12583247",
        "col2": "496",
        "col3": "A08.186.211.132.659.822.642",
        "col4": "802"
    },
    {
        "col0": "Principal sensory nucleus of trigeminal nerve",
        "col1": "12582704",
        "col2": "552",
        "col3": "A08.186.211.132.931",
        "col4": "787"
    },
    {
        "col0": "Pituitary stalk",
        "col1": "12451615",
        "col2": "388",
        "col3": "A06.407.747",
        "col4": "813"
    },
    {
        "col0": "Periaqueductal gray",
        "col1": "12766787",
        "col2": "501",
        "col3": "A08.186.211.132.659.822.595",
        "col4": "806"
    },
    {
        "col0": "Olfactory bulb",
        "col1": "12200284",
        "col2": "261",
        "col3": "A08.186.211.577.699.573",
        "col4": "826"
    },
    {
        "col0": "Nucleus basalis of Meynert",
        "col1": "12580484",
        "col2": "257",
        "col3": "A08.186.211.730.885.105.880.100",
        "col4": "813"
    },
    {
        "col0": "Myelencephalon",
        "col1": "12553211",
        "col2": "695",
        "col3": "A08.186.211.132.810.406",
        "col4": "767"
    },
    {
        "col0": "Metencephalon",
        "col1": "12529123",
        "col2": "534",
        "col3": "A08.186.211.132.810.428",
        "col4": "785"
    },
    {
        "col0": "Mesencephalic nucleus of trigeminal nerve",
        "col1": "12581865",
        "col2": "550",
        "col3": "A08.186.211.132.931",
        "col4": "787"
    },
    {
        "col0": "Medulla oblongata",
        "col1": "12519731",
        "col2": "695",
        "col3": "A08.186.211.132.810.406",
        "col4": "767"
    },
    {
        "col0": "Hindbrain",
        "col1": "12709581",
        "col2": "531",
        "col3": "A08.186.211.132.810",
        "col4": "767"
    },
    {
        "col0": "Diagonal band of Broca",
        "col1": "12762750",
        "col2": "267",
        "col3": "A08.186.211.730.885.380",
        "col4": "868"
    },
    {
        "col0": "Cerebral peduncle",
        "col1": "12622555",
        "col2": "478",
        "col3": "A08.186.211.132.659",
        "col4": "800"
    },
    {
        "col0": "Arachnoid mater",
        "col1": "12149123",
        "col2": "561",
        "col3": "A08.186.566.166",
        "col4": "876"
    }
]