[
    {
        "col0": "Zdrelac Bridge",
        "col1": "Croatia",
        "col2": "Croatia",
        "col3": "68"
    },
    {
        "col0": "A are Viaduct",
        "col1": "Dalmatia",
        "col2": "Dalmatia",
        "col3": "33"
    },
    {
        "col0": "Sekerpinari Bridge",
        "col1": "Taurus Mountains",
        "col2": "Taurus Mountains",
        "col3": "10"
    },
    {
        "col0": "Swietokrzyski Bridge",
        "col1": "Poland",
        "col2": "Poland",
        "col3": "180"
    },
    {
        "col0": "Ota River Bridge",
        "col1": "Hiroshima",
        "col2": "Hiroshima",
        "col3": "116"
    },
    {
        "col0": "Onaruto Bridge",
        "col1": "Naruto, Tokushima",
        "col2": "Naruto, Tokushima",
        "col3": "876"
    },
    {
        "col0": "Durdevica Tara Bridge",
        "col1": "Zabljak",
        "col2": "Zabljak",
        "col3": "116"
    },
    {
        "col0": "Crni Kal Viaduct",
        "col1": "Gabrovica pri Crnem Kalu",
        "col2": "Slovenia",
        "col3": "140"
    },
    {
        "col0": "Oresund Bridge",
        "col1": "Copenhagen",
        "col2": "Malmo",
        "col3": "490"
    },
    {
        "col0": "Oland Bridge",
        "col1": "Farjestaden",
        "col2": "Farjestaden",
        "col3": "130"
    },
    {
        "col0": "Ile d'Orleans Bridge",
        "col1": "Quebec City",
        "col2": "Quebec City",
        "col3": "323"
    },
    {
        "col0": "Canakkale 1915 Bridge",
        "col1": "Canakkale Province",
        "col2": "Canakkale Province",
        "col3": "2023"
    },
    {
        "col0": "Aselistraumen Bridge",
        "col1": "Bodo",
        "col2": "Norway",
        "col3": "30"
    },
    {
        "col0": "Alvsborg Bridge",
        "col1": "Gothenburg",
        "col2": "Gothenburg",
        "col3": "417"
    },
    {
        "col0": "Arpad Bridge",
        "col1": "Budapest",
        "col2": "Budapest",
        "col3": "457"
    },
    {
        "col0": "Zarate-Brazo Largo Bridge",
        "col1": "Buenos Aires Province",
        "col2": "Buenos Aires Province",
        "col3": "330"
    },
    {
        "col0": "Zunyi Bridge",
        "col1": "China",
        "col2": "China",
        "col3": "288"
    },
    {
        "col0": "Zrinski Bridge",
        "col1": "Croatia",
        "col2": "Croatia",
        "col3": "48"
    },
    {
        "col0": "Zongqihe Bridge",
        "col1": "China",
        "col2": "China",
        "col3": "360"
    },
    {
        "col0": "Zolotoy Bridge",
        "col1": "Russia",
        "col2": "Russia",
        "col3": "737"
    },
    {
        "col0": "Zilwaukee Bridge",
        "col1": "Zilwaukee, Michigan",
        "col2": "Zilwaukee, Michigan",
        "col3": "119"
    },
    {
        "col0": "Zhuchanghe River Bridge",
        "col1": "Guizhou",
        "col2": "Guizhou",
        "col3": "200"
    },
    {
        "col0": "Zhongzhou Yangtze River Bridge",
        "col1": "China",
        "col2": "China",
        "col3": "460"
    },
    {
        "col0": "Zhongxian Yangtze River Bridge",
        "col1": "China",
        "col2": "China",
        "col3": "560"
    },
    {
        "col0": "Zhijing River Bridge",
        "col1": "Hubei",
        "col2": "China",
        "col3": "430"
    },
    {
        "col0": "Zhicheng Yangtze River Bridge",
        "col1": "Hubei",
        "col2": "Hubei",
        "col3": "160"
    },
    {
        "col0": "Zhaozhuang Bridge",
        "col1": "China",
        "col2": "China",
        "col3": "410"
    },
    {
        "col0": "Zhaoqing Bridge",
        "col1": "China",
        "col2": "China",
        "col3": "450"
    },
    {
        "col0": "Zhanjiang Bay Bridge",
        "col1": "China",
        "col2": "China",
        "col3": "480"
    },
    {
        "col0": "Zeceve Drage Viaduct",
        "col1": "Croatia",
        "col2": "Croatia",
        "col3": "50"
    },
    {
        "col0": "Zarate-Brazo Largo Bridge",
        "col1": "Buenos Aires Province",
        "col2": "Entre Rios Province",
        "col3": "330"
    },
    {
        "col0": "Yuzui Yangtze River Bridge",
        "col1": "China",
        "col2": "China",
        "col3": "616"
    },
    {
        "col0": "Yunyang Yangtze River Bridge",
        "col1": "China",
        "col2": "China",
        "col3": "318"
    },
    {
        "col0": "Yumemai Bridge",
        "col1": "Japan",
        "col2": "Japan",
        "col3": "280"
    },
    {
        "col0": "Yudong Yangtze River Bridge",
        "col1": "China",
        "col2": "China",
        "col3": "260"
    },
    {
        "col0": "Ypsilon",
        "col1": "Norway",
        "col2": "Norway",
        "col3": "90"
    },
    {
        "col0": "Yokohama Bay Bridge",
        "col1": "Kanagawa Prefecture",
        "col2": "Kanagawa Prefecture",
        "col3": "460"
    },
    {
        "col0": "Yingwuzhou Yangtze River Bridge",
        "col1": "Wuhan",
        "col2": "Wuhan",
        "col3": "850"
    },
    {
        "col0": "Yiling Yangtze River Bridge",
        "col1": "China",
        "col2": "China",
        "col3": "346"
    },
    {
        "col0": "Yichang Yangtze River Railway Bridge",
        "col1": "China",
        "col2": "China",
        "col3": "275"
    },
    {
        "col0": "Yi Sun-sin Bridge",
        "col1": "Korea",
        "col2": "Korea",
        "col3": "1545"
    },
    {
        "col0": "Yeongjong Bridge",
        "col1": "Korea",
        "col2": "Korea",
        "col3": "300"
    },
    {
        "col0": "Yavuz Sultan Selim Bridge",
        "col1": "Constantinople",
        "col2": "Constantinople",
        "col3": "1408"
    },
    {
        "col0": "Yaquina Bay Bridge",
        "col1": "Newport, Oregon",
        "col2": "Newport, Oregon",
        "col3": "182"
    },
    {
        "col0": "Yangpu Bridge",
        "col1": "China",
        "col2": "China",
        "col3": "602"
    },
    {
        "col0": "Yangmingtan Bridge",
        "col1": "Harbin",
        "col2": "Harbin",
        "col3": "250"
    },
    {
        "col0": "Yangluo Yangtze River Bridge",
        "col1": "China",
        "col2": "China",
        "col3": "1280"
    },
    {
        "col0": "Yajisha Bridge",
        "col1": "China",
        "col2": "China",
        "col3": "360"
    },
    {
        "col0": "Yachi River Bridge",
        "col1": "China",
        "col2": "China",
        "col3": "800"
    },
    {
        "col0": "Yachi Railway Bridge",
        "col1": "China",
        "col2": "China",
        "col3": "436"
    },
    {
        "col0": "Xupu Bridge",
        "col1": "China",
        "col2": "China",
        "col3": "590"
    },
    {
        "col0": "Xixi Bridge",
        "col1": "China",
        "col2": "China",
        "col3": "338"
    },
    {
        "col0": "Xisha Bridge",
        "col1": "Chongqing",
        "col2": "Chongqing",
        "col3": "190"
    },
    {
        "col0": "Xinguang Bridge",
        "col1": "China",
        "col2": "China",
        "col3": "428"
    },
    {
        "col0": "Xiling Yangtze River Bridge",
        "col1": "China",
        "col2": "China",
        "col3": "900"
    },
    {
        "col0": "Xihoumen Bridge",
        "col1": "Zhejiang",
        "col2": "Zhejiang",
        "col3": "1650"
    },
    {
        "col0": "Xianshen River Bridge",
        "col1": "Shanxi",
        "col2": "Shanxi",
        "col3": "136"
    },
    {
        "col0": "Xiangshan Harbor Bridge",
        "col1": "Ningbo",
        "col2": "Ningbo",
        "col3": "688"
    },
    {
        "col0": "Xiamen Zhangzhou Bridge",
        "col1": "Fujian",
        "col2": "Fujian",
        "col3": "780"
    },
    {
        "col0": "Wushan Yangtze River Bridge",
        "col1": "China",
        "col2": "China",
        "col3": "460"
    },
    {
        "col0": "Wulingshan Bridge",
        "col1": "Chongqing",
        "col2": "Chongqing",
        "col3": "360"
    },
    {
        "col0": "Wujiang Viaduct",
        "col1": "China",
        "col2": "China",
        "col3": "200"
    },
    {
        "col0": "Wuhu Yangtze River Bridge",
        "col1": "China",
        "col2": "China",
        "col3": "312"
    },
    {
        "col0": "Wuhan Yangtze River Bridge",
        "col1": "Wuhan",
        "col2": "Wuhan",
        "col3": "128"
    },
    {
        "col0": "Wuhan Junshan Yangtze River Bridge",
        "col1": "Wuhan",
        "col2": "Wuhan",
        "col3": "460"
    },
    {
        "col0": "Wittpenn Bridge",
        "col1": "Jersey City, New Jersey",
        "col2": "Jersey City, New Jersey",
        "col3": "25"
    },
    {
        "col0": "Wissahickon Memorial Bridge",
        "col1": "Philadelphia, Pennsylvania",
        "col2": "Philadelphia, Pennsylvania",
        "col3": "87"
    },
    {
        "col0": "Winant Avenue Bridge",
        "col1": "Ridgefield Park, New Jersey",
        "col2": "Ridgefield Park, New Jersey",
        "col3": "56"
    },
    {
        "col0": "Wilsonville railroad bridge",
        "col1": "Wilsonville, Oregon",
        "col2": "Wilsonville, Oregon",
        "col3": "152"
    },
    {
        "col0": "Wilson Creek Bridge",
        "col1": "Montgomery County, Virginia",
        "col2": "Montgomery County, Virginia",
        "col3": "143"
    },
    {
        "col0": "Willis Avenue Bridge",
        "col1": "Manhattan",
        "col2": "New York City",
        "col3": "92"
    },
    {
        "col0": "Williamsburg Bridge",
        "col1": "Brooklyn",
        "col2": "Brooklyn",
        "col3": "487"
    },
    {
        "col0": "William R. Bennett Bridge",
        "col1": "British Columbia",
        "col2": "British Columbia",
        "col3": "44"
    },
    {
        "col0": "William Jolly Bridge",
        "col1": "Brisbane",
        "col2": "Brisbane",
        "col3": "72"
    },
    {
        "col0": "William H. Harsha Bridge",
        "col1": "Aberdeen, Ohio",
        "col2": "Aberdeen, Ohio",
        "col3": "320"
    },
    {
        "col0": "Willemsbrug",
        "col1": "Rotterdam",
        "col2": "Rotterdam",
        "col3": "270"
    },
    {
        "col0": "Widnes-Runcorn Transporter Bridge",
        "col1": "Runcorn",
        "col2": "Runcorn",
        "col3": "300"
    },
    {
        "col0": "Whites Bridge",
        "col1": "Michigan",
        "col2": "Michigan",
        "col3": "35"
    },
    {
        "col0": "Whirlpool Rapids Bridge",
        "col1": "Niagara Falls, New York",
        "col2": "Niagara Falls, New York",
        "col3": "167"
    },
    {
        "col0": "Wheeling Suspension Bridge",
        "col1": "Wheeling, West Virginia",
        "col2": "Wheeling, West Virginia",
        "col3": "308"
    },
    {
        "col0": "Wharncliffe Viaduct",
        "col1": "Southall",
        "col2": "Southall",
        "col3": "21"
    },
    {
        "col0": "West Gate Bridge",
        "col1": "Australia",
        "col2": "Australia",
        "col3": "336"
    },
    {
        "col0": "West End Bridge",
        "col1": "Pittsburgh, Pennsylvania",
        "col2": "Pittsburgh, Pennsylvania",
        "col3": "237"
    },
    {
        "col0": "West Brownsville Junction Bridge",
        "col1": "West Brownsville, Pennsylvania",
        "col2": "West Brownsville, Pennsylvania",
        "col3": "122"
    },
    {
        "col0": "Weidendammer Bridge",
        "col1": "Berlin",
        "col2": "Berlin",
        "col3": "38"
    },
    {
        "col0": "Weaverland Bridge",
        "col1": "Terre Hill, Pennsylvania",
        "col2": "Terre Hill, Pennsylvania",
        "col3": "17"
    },
    {
        "col0": "Wearmouth Bridge",
        "col1": "England",
        "col2": "England",
        "col3": "114"
    },
    {
        "col0": "Waterloo Bridge, Betws-y-Coed",
        "col1": "Betws-y-Coed",
        "col2": "Betws-y-Coed",
        "col3": "32"
    },
    {
        "col0": "Waterloo Bridge",
        "col1": "London",
        "col2": "London",
        "col3": "71"
    },
    {
        "col0": "Washington Street Bridge",
        "col1": "Brainerd, Minnesota",
        "col2": "Minnesota",
        "col3": "37"
    },
    {
        "col0": "Washington Crossing Bridge",
        "col1": "Pittsburgh",
        "col2": "Pittsburgh",
        "col3": "109"
    },
    {
        "col0": "Washington Crossing Bridge",
        "col1": "Washington Crossing, New Jersey",
        "col2": "Washington Crossing, New Jersey",
        "col3": "43"
    },
    {
        "col0": "Washington Bridge",
        "col1": "Manhattan",
        "col2": "Manhattan",
        "col3": "155"
    },
    {
        "col0": "Washington Avenue Bridge",
        "col1": "Minneapolis, Minnesota",
        "col2": "Minneapolis, Minnesota",
        "col3": "76"
    },
    {
        "col0": "Warrington Transporter Bridge",
        "col1": "Warrington",
        "col2": "Warrington",
        "col3": "61"
    },
    {
        "col0": "Wards Island Bridge",
        "col1": "Manhattan",
        "col2": "Manhattan",
        "col3": "95"
    },
    {
        "col0": "Wanzhou Railway Bridge",
        "col1": "China",
        "col2": "Chongqing",
        "col3": "360"
    },
    {
        "col0": "Wanxian Bridge",
        "col1": "China",
        "col2": "Wanzhou",
        "col3": "420"
    },
    {
        "col0": "Wanette-Byars Bridge",
        "col1": "Wanette, Oklahoma",
        "col2": "Wanette, Oklahoma",
        "col3": "80"
    },
    {
        "col0": "Walter Taylor Bridge",
        "col1": "Brisbane",
        "col2": "Brisbane",
        "col3": "182"
    },
    {
        "col0": "Walt Whitman Bridge",
        "col1": "Philadelphia, Pennsylvania",
        "col2": "Philadelphia, Pennsylvania",
        "col3": "610"
    },
    {
        "col0": "Walnut Street Bridge",
        "col1": "Harrisburg, Pennsylvania",
        "col2": "Harrisburg, Pennsylvania",
        "col3": "73"
    },
    {
        "col0": "Walnut Lane Bridge",
        "col1": "Philadelphia, Pennsylvania",
        "col2": "Philadelphia, Pennsylvania",
        "col3": "71"
    }
]