[
    {
        "col0": "WMVT",
        "col1": "WMVS",
        "col2": "Milwaukee Vocational and Technical Schools",
        "col3": "354"
    },
    {
        "col0": "WMVS",
        "col1": "WMVT",
        "col2": "Milwaukee",
        "col3": "353"
    },
    {
        "col0": "WMVN",
        "col1": "WOLF",
        "col2": "Movin'",
        "col3": "100"
    },
    {
        "col0": "WMVL",
        "col1": "WLOA",
        "col2": "W \"MeadViLle\"",
        "col3": "169"
    },
    {
        "col0": "WMVE",
        "col1": "WCVE-TV",
        "col2": "play on parent WCVE calls",
        "col3": "113"
    },
    {
        "col0": "WMUZ",
        "col1": "WEXL",
        "col2": "MUZak",
        "col3": "142"
    },
    {
        "col0": "WMUV",
        "col1": "WSOS-FM",
        "col2": "(former format)",
        "col3": "449"
    },
    {
        "col0": "WMUS",
        "col1": "WOOD-FM",
        "col2": "WMUSkegon. Or MUSe kinda sounds like Moose.",
        "col3": "128"
    },
    {
        "col0": "WMUR-TV",
        "col1": "WCVB-TV",
        "col2": "GovernorFrancis P. MURphy(founder)",
        "col3": "314"
    },
    {
        "col0": "WMUM-TV",
        "col1": "WMUM-FM",
        "col2": "Mercer University Macon",
        "col3": "369"
    },
    {
        "col0": "WMUB-LD",
        "col1": "WBML",
        "col2": "W Mercer University Broadcasting",
        "col3": "182"
    },
    {
        "col0": "WMTX",
        "col1": "WDAE",
        "col2": "Tampa Bay's MiX 100.7 (transposed)",
        "col3": "472"
    },
    {
        "col0": "WMTT",
        "col1": "WPHD",
        "col2": "The Met (branding)",
        "col3": "147"
    },
    {
        "col0": "WMTS-FM",
        "col1": "WMOT",
        "col2": "We're Middle Tennessee State University",
        "col3": "42"
    },
    {
        "col0": "WMTC-FM",
        "col1": "WBFC",
        "col2": "Winning Men To Christ",
        "col3": "100"
    },
    {
        "col0": "WMSX",
        "col1": "WBLK",
        "col2": "WMSX (sounds like \"Mix\")",
        "col3": "154"
    },
    {
        "col0": "WMSR-FM",
        "col1": "WLAY",
        "col2": "W Muscle Shoals Radio or M uscle Shoals StaR",
        "col3": "181"
    },
    {
        "col0": "WMRY",
        "col1": "WMRA",
        "col2": "W (James) Madison Radio Y",
        "col3": "446"
    },
    {
        "col0": "WMRT",
        "col1": "WCMO",
        "col2": "MaRieTta",
        "col3": "62"
    },
    {
        "col0": "WMRR",
        "col1": "WOOD-FM",
        "col2": "Muskegon Rock Radio",
        "col3": "145"
    },
    {
        "col0": "WMRL",
        "col1": "WMRA",
        "col2": "W (James) Madison Radio Lexington",
        "col3": "-81"
    },
    {
        "col0": "WMRK-FM",
        "col1": "WALX",
        "col2": "named for MaRK Alexander",
        "col3": "100"
    },
    {
        "col0": "WMRA",
        "col1": "WMRL",
        "col2": "W (James) Madison Radio Associates",
        "col3": "318"
    },
    {
        "col0": "WMQA-FM",
        "col1": "WLKD",
        "col2": "W MinocQuA",
        "col3": "107"
    },
    {
        "col0": "WMOW",
        "col1": "WREX",
        "col2": "sister toMadison'sWKOW",
        "col3": "119"
    },
    {
        "col0": "WMOV-FM",
        "col1": "WHBT-FM",
        "col2": "W MOVin'",
        "col3": "130"
    },
    {
        "col0": "WMOT",
        "col1": "WMTS-FM",
        "col2": "Middle Of Tennessee",
        "col3": "206"
    },
    {
        "col0": "WMOS",
        "col1": "WELJ",
        "col2": "W MOhegan Sun",
        "col3": "100"
    },
    {
        "col0": "WMMY",
        "col1": "WATA",
        "col2": "WM MY Country 106 (former branding)",
        "col3": "155"
    },
    {
        "col0": "WMMX",
        "col1": "WCHD",
        "col2": "Miami Valley'sMiX 107.7",
        "col3": "200"
    },
    {
        "col0": "WMMS",
        "col1": "WAKS",
        "col2": "MetroMediaStereo",
        "col3": "183"
    },
    {
        "col0": "WMMR",
        "col1": "WPEN",
        "col2": "MetroMediaRadio",
        "col3": "264"
    },
    {
        "col0": "WMMO",
        "col1": "WFTV",
        "col2": "May mean More Music for Orlando, though the station took similar call signs from WMMS in Cleveland",
        "col3": "159"
    },
    {
        "col0": "WMMJ",
        "col1": "WYCB",
        "col2": "Washington and Maryland's MaJic",
        "col3": "146"
    },
    {
        "col0": "WMME-FM",
        "col1": "WJZN",
        "col2": "Moose MainE",
        "col3": "152"
    },
    {
        "col0": "WMLW-TV",
        "col1": "WYTU-LD",
        "col2": "MiLWaukee",
        "col3": "300"
    },
    {
        "col0": "WMLV",
        "col1": "WFLV",
        "col2": "W Miami LoVe",
        "col3": "309"
    },
    {
        "col0": "WMLU",
        "col1": "WMRA",
        "col2": "Music of Longwood University",
        "col3": "22"
    },
    {
        "col0": "WMLL",
        "col1": "WFEA",
        "col2": "MiLL",
        "col3": "285"
    },
    {
        "col0": "WMKS",
        "col1": "WTQR",
        "col2": "W M KisS",
        "col3": "316"
    },
    {
        "col0": "WMKC",
        "col1": "WGFN",
        "col2": "MacKinaC",
        "col3": "336"
    },
    {
        "col0": "WMJZ-FM",
        "col1": "WMJT",
        "col2": "MaJic 95 (previous format)",
        "col3": "150"
    },
    {
        "col0": "WMJX",
        "col1": "WROR-FM",
        "col2": "MJ = Magic",
        "col3": "235"
    },
    {
        "col0": "WMJO",
        "col1": "WKCQ",
        "col2": "W M JOe FM",
        "col3": "100"
    },
    {
        "col0": "WMJJ",
        "col1": "WERC-FM",
        "col2": "MJJ = Magic",
        "col3": "313"
    },
    {
        "col0": "WMJI",
        "col1": "WTAM",
        "col2": "MaJIc",
        "col3": "344"
    },
    {
        "col0": "WMIT",
        "col1": "WFGW",
        "col2": "Mount MITchell",
        "col3": "942"
    },
    {
        "col0": "WMIS-FM",
        "col1": "KKBJ-FM",
        "col2": "Mississippi River",
        "col3": "176"
    },
    {
        "col0": "WMIM",
        "col1": "WRQN",
        "col2": "MIchigan Monroe",
        "col3": "135"
    },
    {
        "col0": "WMIL-FM",
        "col1": "WISN",
        "col2": "W MILwaukee",
        "col3": "304"
    },
    {
        "col0": "WMIB-HD2",
        "col1": "WINZ",
        "col2": "MIami's Beat",
        "col3": "307"
    },
    {
        "col0": "WMIB",
        "col1": "WZTU",
        "col2": "MIami's Beat",
        "col3": "307"
    },
    {
        "col0": "WMIA-FM",
        "col1": "WINZ",
        "col2": "MIAmi",
        "col3": "307"
    },
    {
        "col0": "WMHX",
        "col1": "WMMM-FM",
        "col2": "MHX = \"Mix\"",
        "col3": "74"
    },
    {
        "col0": "WMHT",
        "col1": "WMHT-FM",
        "col2": "Hudson",
        "col3": "426"
    },
    {
        "col0": "WMHT-FM",
        "col1": "WEXT",
        "col2": "taken from WMHT-TV",
        "col3": "361"
    },
    {
        "col0": "WMGX",
        "col1": "WCLZ",
        "col2": "W MaGic X (former branding)",
        "col3": "135"
    },
    {
        "col0": "WMGU",
        "col1": "WFNC",
        "col2": "W MaGic U",
        "col3": "142"
    },
    {
        "col0": "WMGQ",
        "col1": "WCTC",
        "col2": "\"WMGQ\" from \"MaGic\"",
        "col3": "158"
    },
    {
        "col0": "WMGN",
        "col1": "WHIT",
        "col2": "From the \"MaGic Ninety-Eight\" branding",
        "col3": "176"
    },
    {
        "col0": "WMGM",
        "col1": "WBSS",
        "col2": "former call lettersof1050 AMinNew York City, which was once co-owned withMetro Goldwyn Mayer",
        "col3": "106"
    },
    {
        "col0": "WMGL",
        "col1": "WIWF",
        "col2": "MaGic",
        "col3": "125"
    },
    {
        "col0": "WMGK",
        "col1": "WMMR",
        "col2": "\"WMGK\" from \"MaGic\" (former adult contemporary format)",
        "col3": "350"
    },
    {
        "col0": "WMGH-FM",
        "col1": "WLSH",
        "col2": "W MaGicH",
        "col3": "148"
    },
    {
        "col0": "WMGF",
        "col1": "WYGM",
        "col2": "W MaGic Florida",
        "col3": "484"
    },
    {
        "col0": "WMGC-FM",
        "col1": "WCSX",
        "col2": "MaGiC 105.1 (former branding)",
        "col3": "150"
    },
    {
        "col0": "WMGB",
        "col1": "WMAC",
        "col2": "Macon, Georgia's B95.1",
        "col3": "119"
    },
    {
        "col0": "WMGA",
        "col1": "WXBW",
        "col2": "W MAGic (previous format)",
        "col3": "133"
    },
    {
        "col0": "WMFX",
        "col1": "WWDM",
        "col2": "\"W\"e're the  \"M\"idlands \"F\"o\"X\"",
        "col3": "100"
    },
    {
        "col0": "WMFT",
        "col1": "WRNF",
        "col2": "W Moody For Tuscaloosa",
        "col3": "159"
    },
    {
        "col0": "WMFD-TV",
        "col1": "WOHZ-CD",
        "col2": "MansFielD",
        "col3": "161"
    },
    {
        "col0": "WMFC",
        "col1": "WMFC",
        "col2": "Monroeville-Frisco City",
        "col3": "94"
    },
    {
        "col0": "WMEV-FM",
        "col1": "WOPI",
        "col2": "Wonderful Mountain Empire of Virginia",
        "col3": "452"
    },
    {
        "col0": "WMEU-CD",
        "col1": "WCIU-TV",
        "col2": "Disambiguation of sister stations WWME (Memorable Entertainment) and WCIU (branded as \"The U\")",
        "col3": "474"
    },
    {
        "col0": "WMEG",
        "col1": "WTCV",
        "col2": "MEGa",
        "col3": "594"
    },
    {
        "col0": "WMDV-LD",
        "col1": "WGSR-LD",
        "col2": "Wonderful Martinsville Danville, Virginia",
        "col3": "180"
    },
    {
        "col0": "WMDN",
        "col1": "WHPM-LD",
        "col2": "MeriDiaN",
        "col3": "182"
    },
    {
        "col0": "WMDE",
        "col1": "WACP",
        "col2": "Serving MarylanD and DElaware",
        "col3": "145"
    },
    {
        "col0": "WMDC",
        "col1": "WFDL-FM",
        "col2": "Mayville and Dodge County",
        "col3": "100"
    },
    {
        "col0": "WMCM",
        "col1": "WVQM",
        "col2": "Mid Coast Maine",
        "col3": "235"
    },
    {
        "col0": "WMCE-FM",
        "col1": "WMCE",
        "col2": "W Mercyhurst College Erie",
        "col3": "152"
    },
    {
        "col0": "WMBZ",
        "col1": "WBKV",
        "col2": "W M BuzZ",
        "col3": "164"
    },
    {
        "col0": "WMBX",
        "col1": "WIRK",
        "col2": "West PalM Beach's X102.3",
        "col3": "297"
    },
    {
        "col0": "WMBI-FM",
        "col1": "WMBI",
        "col2": "\"W Moody Bible Institute\"",
        "col3": "135"
    },
    {
        "col0": "WMBF-TV",
        "col1": "WCSC-TV",
        "col2": "Myrtle Beach / Florence",
        "col3": "183"
    },
    {
        "col0": "WMBD-TV",
        "col1": "WYZZ-TV",
        "col2": "World's Most Beautiful Drive",
        "col3": "193"
    },
    {
        "col0": "WMBB",
        "col1": "WDHN",
        "col2": "Beautiful Beaches",
        "col3": "434"
    },
    {
        "col0": "WMAX-FM",
        "col1": "WSRW-FM",
        "col2": "Max FM (previous format)",
        "col3": "150"
    },
    {
        "col0": "WMAS-FM",
        "col1": "WHLL",
        "col2": "(Station's original owner) or",
        "col3": "55"
    },
    {
        "col0": "WMAQ-TV",
        "col1": "Comcast SportsNet Chicago",
        "col2": "(now",
        "col3": "508"
    },
    {
        "col0": "WMAN-FM",
        "col1": "WNCO-FM",
        "col2": "\"W-MANsfield\"",
        "col3": "189"
    },
    {
        "col0": "WMAL-FM",
        "col1": "WMAL",
        "col2": "(founder of AM simulcastWMAL)",
        "col3": "198"
    },
    {
        "col0": "WMAG",
        "col1": "WTQR",
        "col2": "Magic (former branding)",
        "col3": "456"
    },
    {
        "col0": "WMAD",
        "col1": "WIBA",
        "col2": "MADison",
        "col3": "213"
    },
    {
        "col0": "WLZZ",
        "col1": "WLKI",
        "col2": "wheels",
        "col3": "100"
    },
    {
        "col0": "WLZW",
        "col1": "WIBX",
        "col2": "W Lite and EZ Favorites W",
        "col3": "201"
    },
    {
        "col0": "WLZN",
        "col1": "WMAC",
        "col2": "BLaZiN (branding)",
        "col3": "100"
    },
    {
        "col0": "WLZL",
        "col1": "WDCH-FM",
        "col2": "EL ZoL",
        "col3": "151"
    },
    {
        "col0": "WLYK",
        "col1": "CIKR-FM",
        "col2": "Sounds like \"lake\" (former branding)",
        "col3": "100"
    },
    {
        "col0": "WLYF",
        "col1": "WMXJ",
        "col2": "LYF = \"Life\"",
        "col3": "248"
    },
    {
        "col0": "WLXV",
        "col1": "WATT",
        "col2": "Lite 96 (prior format)",
        "col3": "184"
    },
    {
        "col0": "WLXT",
        "col1": "WATT",
        "col2": "LiTe 96 FM",
        "col3": "299"
    },
    {
        "col0": "WLXR-FM",
        "col1": "KQEG",
        "col2": "La Crosse Radio, X='Crosse'",
        "col3": "134"
    },
    {
        "col0": "WLXC",
        "col1": "WOMG",
        "col2": "Lexington (previous city of license)",
        "col3": "94"
    },
    {
        "col0": "WLVS-FM",
        "col1": "WXFL",
        "col2": "\"Elvis\"",
        "col3": "126"
    },
    {
        "col0": "WLVO",
        "col1": "WDLV",
        "col2": "LOVe (disambiguation, after the formerK-Loveformat)",
        "col3": "113"
    },
    {
        "col0": "WLVI",
        "col1": "WHDH",
        "col2": "LVI (56 inRoman numerals; former analog channel number and current PSIP number)",
        "col3": "346"
    },
    {
        "col0": "WLUS-FM",
        "col1": "WHLF",
        "col2": "WL United States",
        "col3": "119"
    },
    {
        "col0": "WLUP-FM",
        "col1": "WLS",
        "col2": "A play on the \"Loop\" branding, which is taken fromThe Loop, Chicago's downtown district",
        "col3": "425"
    },
    {
        "col0": "WLUM-FM",
        "col1": "WZTI",
        "col2": "We Love YoU, Milwaukee",
        "col3": "257"
    },
    {
        "col0": "WLUK-TV",
        "col1": "WCWF",
        "col2": "LUcKy Eleven (original on-air slogan)",
        "col3": "384"
    },
    {
        "col0": "WLTZ-DT2",
        "col1": "WNCF",
        "col2": "see WLTZ",
        "col3": "377"
    },
    {
        "col0": "WLTZ",
        "col1": "WNCF",
        "col2": "Lewis Television",
        "col3": "377"
    },
    {
        "col0": "WLTY",
        "col1": "WVOC",
        "col2": "LiTe (the previous format's moniker) CaYce",
        "col3": "132"
    },
    {
        "col0": "WLTW",
        "col1": "WKTU",
        "col2": "W LiTe FM NeW York",
        "col3": "415"
    },
    {
        "col0": "WLTV-DT",
        "col1": "WAMI-DT",
        "col2": "Latin American TeleVision",
        "col3": "297"
    },
    {
        "col0": "WLTU",
        "col1": "WCUB",
        "col2": "W-LighT  U (station formerly had asoft rockformat)",
        "col3": "128"
    },
    {
        "col0": "WLTO",
        "col1": "WLXX",
        "col2": "W LexingTOn",
        "col3": "113"
    },
    {
        "col0": "WLTN-FM",
        "col1": "WLTN",
        "col2": "We're LiTtletoN,NH(in reference toLittleton)",
        "col3": "90"
    },
    {
        "col0": "WLTL",
        "col1": "LT-TV",
        "col2": "Chosen to referenceLTHSwhen the station was formed",
        "col3": "42"
    },
    {
        "col0": "WLTJ",
        "col1": "WRRK-FM",
        "col2": "LiTe (former branding)",
        "col3": "260"
    },
    {
        "col0": "WLTF",
        "col1": "WEPM",
        "col2": "W LiTe F",
        "col3": "316"
    },
    {
        "col0": "WLSR",
        "col1": "WAAG",
        "col2": "LaSeR",
        "col3": "119"
    },
    {
        "col0": "WLS-TV",
        "col1": "WMVP",
        "col2": "* Derived from former sister station",
        "col3": "518"
    },
    {
        "col0": "WLS-FM",
        "col1": "WLS",
        "col2": "World's Largest Store (from AM sister station)",
        "col3": "468"
    },
    {
        "col0": "WLRQ-FM",
        "col1": "WMMB",
        "col2": "W Lite RoQ",
        "col3": "150"
    }
]