[
    {
        "col0": "Wardman Row",
        "col1": "H. Wardman",
        "col2": "1911",
        "col3": "4451"
    },
    {
        "col0": "Ward County Courthouse",
        "col1": "Toltz, King & Day",
        "col2": "1929",
        "col3": "6474"
    },
    {
        "col0": "Walter V. Smith House",
        "col1": "J. Jacobberger",
        "col2": "1898",
        "col3": "2023"
    },
    {
        "col0": "Walter S. Zimmerman House",
        "col1": "W. H. Pipes",
        "col2": "1931",
        "col3": "2711"
    },
    {
        "col0": "Walter Gale House",
        "col1": "F. L. Wright",
        "col2": "1893",
        "col3": "1618"
    },
    {
        "col0": "Walter Field House",
        "col1": "S. Hannaford",
        "col2": "1884",
        "col3": "4046"
    },
    {
        "col0": "Walsh County Courthouse",
        "col1": "T. Wells",
        "col2": "1940",
        "col3": "6879"
    },
    {
        "col0": "Walnut Hills United Presbyterian Church",
        "col1": "S. Hannaford",
        "col2": "1880",
        "col3": "4046"
    },
    {
        "col0": "Walnut Grove",
        "col1": "N. Vaught",
        "col2": "1858",
        "col3": "15378"
    },
    {
        "col0": "Wallowa Ranger Station",
        "col1": "Architects of the U.S. Forest Service",
        "col2": "1936",
        "col3": "4856"
    },
    {
        "col0": "Wales House",
        "col1": "C. F. McKim",
        "col2": "1898",
        "col3": "22257"
    }
]