[
    {
        "col0": "Schnitzer Steel Industries",
        "col1": "538551000",
        "col2": "190000000",
        "col3": "1915000000"
    },
    {
        "col0": "Schneider Electric DMS",
        "col1": "34400000",
        "col2": "3330000",
        "col3": "18190000"
    },
    {
        "col0": "Scansource",
        "col1": "802600000",
        "col2": "81800000",
        "col3": "2913000000"
    },
    {
        "col0": "Scania AB",
        "col1": "37837000000",
        "col2": "6753000000",
        "col3": "97792000000"
    },
    {
        "col0": "Sberbank Srbija",
        "col1": "188170000",
        "col2": "8850000",
        "col3": "66050000"
    },
    {
        "col0": "SaskPower",
        "col1": "1858",
        "col2": "153000000",
        "col3": "1862"
    },
    {
        "col0": "Sarawak Energy",
        "col1": "3504",
        "col2": "336200000",
        "col3": "1553"
    },
    {
        "col0": "Saras S.p.A.",
        "col1": "921200000",
        "col2": "271",
        "col3": "11230000000"
    },
    {
        "col0": "Sanyo",
        "col1": "77900000000",
        "col2": "35100000000",
        "col3": "1400000000000"
    },
    {
        "col0": "Sanrio",
        "col1": "48982",
        "col2": "12536",
        "col3": "74233"
    },
    {
        "col0": "Sanoma",
        "col1": "1376000000",
        "col2": "299600000",
        "col3": "2761000000"
    },
    {
        "col0": "Sanofi",
        "col1": "56890000000",
        "col2": "4390000000",
        "col3": "37050000000"
    },
    {
        "col0": "San Leon Energy",
        "col1": "121226592",
        "col2": "3976375",
        "col3": "592047"
    },
    {
        "col0": "Samsung Life Insurance",
        "col1": "18900000000",
        "col2": "850000000",
        "col3": "25700000000"
    },
    {
        "col0": "Samsung Fire & Marine Insurance",
        "col1": "7800000000",
        "col2": "700000000",
        "col3": "15600000000"
    },
    {
        "col0": "Samsung",
        "col1": "231200000000",
        "col2": "22100000000",
        "col3": "305000000000"
    },
    {
        "col0": "Salzgitter AG",
        "col1": "3846000000",
        "col2": "29800000",
        "col3": "8305000000"
    },
    {
        "col0": "Saipem",
        "col1": "3519000000",
        "col2": "-789000000",
        "col3": "11520000000"
    },
    {
        "col0": "Saint-Gobain",
        "col1": "17870000000",
        "col2": "595000000",
        "col3": "42025000000"
    },
    {
        "col0": "Saft Groupe S.A.",
        "col1": "1010000000",
        "col2": "75000000",
        "col3": "628700000"
    },
    {
        "col0": "Safran",
        "col1": "24700000000",
        "col2": "1482000000",
        "col3": "17414000000"
    },
    {
        "col0": "Saab Group",
        "col1": "14097000000",
        "col2": "1402000000",
        "col3": "24010000000"
    },
    {
        "col0": "SUNeVision",
        "col1": "3516",
        "col2": "569",
        "col3": "918"
    },
    {
        "col0": "STMicroelectronics",
        "col1": "7603000000",
        "col2": "500000000",
        "col3": "8082000000"
    },
    {
        "col0": "STADA Arzneimittel",
        "col1": "903300000",
        "col2": "64600000",
        "col3": "2060000000"
    },
    {
        "col0": "SSAB",
        "col1": "30080000000",
        "col2": "552000000",
        "col3": "39880000000"
    },
    {
        "col0": "SOCAR",
        "col1": "11",
        "col2": "1",
        "col3": "39"
    },
    {
        "col0": "SNS Reaal",
        "col1": "4833000000",
        "col2": "225000000",
        "col3": "7068000000"
    },
    {
        "col0": "SKF",
        "col1": "24404000000",
        "col2": "4750000000",
        "col3": "70975000000"
    },
    {
        "col0": "SIMPO",
        "col1": "0",
        "col2": "40960000",
        "col3": "57210000"
    },
    {
        "col0": "SGS S.A.",
        "col1": "1981000000",
        "col2": "584000000",
        "col3": "5712000000"
    },
    {
        "col0": "SGL Carbon",
        "col1": "877900000",
        "col2": "52200000",
        "col3": "1382000000"
    },
    {
        "col0": "SEB",
        "col1": "134540000000",
        "col2": "19219000000",
        "col3": "46940000000"
    },
    {
        "col0": "SCA",
        "col1": "75691000000",
        "col2": "7452000000",
        "col3": "115316000000"
    },
    {
        "col0": "SAS Group",
        "col1": "6339000000",
        "col2": "956000000",
        "col3": "39650000000"
    },
    {
        "col0": "SAP SE",
        "col1": "23300000000",
        "col2": "3056000000",
        "col3": "20790000000"
    },
    {
        "col0": "S&T Motiv",
        "col1": "660000000",
        "col2": "73200000",
        "col3": "1030000000"
    },
    {
        "col0": "S&T Dynamics",
        "col1": "650000000",
        "col2": "14900000",
        "col3": "564000000"
    },
    {
        "col0": "S&P Global",
        "col1": "1300000000",
        "col2": "1500000000",
        "col3": "4900000000"
    },
    {
        "col0": "Sudzucker",
        "col1": "3979000000",
        "col2": "281600000",
        "col3": "7735000000"
    },
    {
        "col0": "Ryman Hospitality Properties",
        "col1": "941492000",
        "col2": "111911000",
        "col3": "747723000"
    },
    {
        "col0": "Ryder",
        "col1": "1404000000",
        "col2": "218575000",
        "col3": "6938000000"
    },
    {
        "col0": "Ryanair",
        "col1": "4035000000",
        "col2": "866700000",
        "col3": "5654000000"
    },
    {
        "col0": "Rush Enterprises",
        "col1": "764300000",
        "col2": "79960000",
        "col3": "4727000000"
    },
    {
        "col0": "Ruby Tuesday",
        "col1": "465583000",
        "col2": "-3194000",
        "col3": "1126566000"
    },
    {
        "col0": "Rubis",
        "col1": "838900000",
        "col2": "75900000",
        "col3": "2120000000"
    },
    {
        "col0": "Rubin",
        "col1": "53310000",
        "col2": "4110000",
        "col3": "25450000"
    },
    {
        "col0": "Royal Wessanen",
        "col1": "166100000",
        "col2": "17100000",
        "col3": "706000000"
    },
    {
        "col0": "Royal Greenland",
        "col1": "1009",
        "col2": "136000000",
        "col3": "4976"
    },
    {
        "col0": "Royal Gold",
        "col1": "1",
        "col2": "29",
        "col3": "136"
    },
    {
        "col0": "Royal Dutch Shell",
        "col1": "162870000000",
        "col2": "1939000000",
        "col3": "264960000000"
    },
    {
        "col0": "Royal Caribbean Cruises Ltd.",
        "col1": "8280000000",
        "col2": "764000000",
        "col3": "8070000000"
    },
    {
        "col0": "Royal Canadian Mint",
        "col1": "303187000",
        "col2": "36230000",
        "col3": "3375"
    },
    {
        "col0": "Royal Boskalis Westminster",
        "col1": "1599000000",
        "col2": "310500000",
        "col3": "2674000000"
    },
    {
        "col0": "Rothschild & Co",
        "col1": "1419000000",
        "col2": "144000000",
        "col3": "1403000000"
    },
    {
        "col0": "Roth & Rau",
        "col1": "251400000",
        "col2": "25800000",
        "col3": "285400000"
    },
    {
        "col0": "Ross Dress for Less",
        "col1": "1770000000",
        "col2": "787000000",
        "col3": "9720000000"
    },
    {
        "col0": "Rosetta Stone",
        "col1": "131200000",
        "col2": "16",
        "col3": "264600000"
    },
    {
        "col0": "Rolls-Royce Power Systems",
        "col1": "735800000",
        "col2": "62800000",
        "col3": "2564000000"
    },
    {
        "col0": "Rogers Communications",
        "col1": "5745000000",
        "col2": "1490000000",
        "col3": "13414000000"
    },
    {
        "col0": "Robne kuce Beograd",
        "col1": "0",
        "col2": "72370000",
        "col3": "5830000"
    },
    {
        "col0": "Rite Aid",
        "col1": "-2113000000",
        "col2": "249410000",
        "col3": "30260000000"
    },
    {
        "col0": "Ridley Inc.",
        "col1": "120900000",
        "col2": "19200000",
        "col3": "574800000"
    },
    {
        "col0": "Richemont",
        "col1": "14420000000",
        "col2": "2227000000",
        "col3": "10410000000"
    },
    {
        "col0": "Rhon-Klinikum",
        "col1": "1495000000",
        "col2": "139700000",
        "col3": "2550000000"
    },
    {
        "col0": "Rhodia",
        "col1": "288000000",
        "col2": "259000000",
        "col3": "5226000000"
    },
    {
        "col0": "Rheinmetall",
        "col1": "1562",
        "col2": "160000000",
        "col3": "5183"
    },
    {
        "col0": "Rhon-Klinikum",
        "col1": "1495000000",
        "col2": "139700000",
        "col3": "2550000000"
    },
    {
        "col0": "Reynolds American",
        "col1": "5167000000",
        "col2": "1718000000",
        "col3": "8236000000"
    },
    {
        "col0": "Revoz",
        "col1": "220400000",
        "col2": "11500000",
        "col3": "654400000"
    },
    {
        "col0": "Resolute Forest Products",
        "col1": "2117000000",
        "col2": "277000000",
        "col3": "4256000000"
    }
]