[
    {
        "col0": "Church Hill Grammar School",
        "col1": "William R. Walker & Son",
        "col2": "1889",
        "col3": "1618"
    },
    {
        "col0": "Christopher Rhodes Greene House",
        "col1": "A. E. Stone",
        "col2": "1883",
        "col3": "6070"
    },
    {
        "col0": "Christ Church",
        "col1": "R. M. Upjohn",
        "col2": "1866",
        "col3": "4856"
    },
    {
        "col0": "Christ Church, Hyde Park",
        "col1": "R. A. Cram",
        "col2": "1893",
        "col3": "2023"
    },
    {
        "col0": "Children's Museum of Evansville",
        "col1": "W. a. Weeks",
        "col2": "1931",
        "col3": "4046"
    },
    {
        "col0": "Child of the Sun",
        "col1": "F. L. Wright",
        "col2": "1941",
        "col3": "404685"
    },
    {
        "col0": "Chicago, Milwaukee, St. Paul and Pacific Railroad Station",
        "col1": "J. U. Nettenstrom",
        "col2": "1903",
        "col3": "4451"
    },
    {
        "col0": "Chicago, Milwaukee, St. Paul and Pacific Railroad: South Cle Elum Yard",
        "col1": "Chicago, Milwaukee, St. Paul and Pacific Railroad",
        "col2": "1909",
        "col3": "97124"
    },
    {
        "col0": "Chesterwood",
        "col1": "D. C. French",
        "col2": "1896",
        "col3": "522044"
    },
    {
        "col0": "Chester County Courthouse",
        "col1": "T. U. Walter",
        "col2": "1846",
        "col3": "12140"
    },
    {
        "col0": "Cheekwood Botanical Garden and Museum of Art",
        "col1": "B. Fleming",
        "col2": "1929",
        "col3": "28327"
    },
    {
        "col0": "Chaves County Courthouse",
        "col1": "I. H. Rapp",
        "col2": "1911",
        "col3": "16187"
    },
    {
        "col0": "Chautauqua Institution",
        "col1": "L. Miller",
        "col2": "1874",
        "col3": "8376992"
    },
    {
        "col0": "Chatham Village",
        "col1": "C. Stein",
        "col2": "1932",
        "col3": "186155"
    },
    {
        "col0": "Chateau Crillon Apartment House",
        "col1": "H. Trumbauer",
        "col2": "1928",
        "col3": "1214"
    },
    {
        "col0": "Chateau-sur-Mer",
        "col1": "R. M. Hunt",
        "col2": "1851",
        "col3": "68796"
    },
    {
        "col0": "Charnwood Residential Historic District",
        "col1": "B. &. Klutz",
        "col2": "1870",
        "col3": "240787"
    },
    {
        "col0": "Charlestown Heights",
        "col1": "F. L. Olmsted",
        "col2": "1891",
        "col3": "15378"
    },
    {
        "col0": "Charles W. Stribley House",
        "col1": "Van Ryn & DeGelleke",
        "col2": "1910",
        "col3": "8093"
    },
    {
        "col0": "Charles Sumner School",
        "col1": "A. Cluss",
        "col2": "1872",
        "col3": "1214"
    },
    {
        "col0": "Charles River Reservation Parkways",
        "col1": "O. Brothers",
        "col2": "1895",
        "col3": "263045"
    },
    {
        "col0": "Charles O. Boynton House",
        "col1": "G. O. Garnsey",
        "col2": "1887",
        "col3": "400638"
    },
    {
        "col0": "Charles Morschauser House",
        "col1": "W. J. Beardsley",
        "col2": "1902",
        "col3": "9793"
    },
    {
        "col0": "Charles M. Pratt House",
        "col1": "Charles and Henry Greene",
        "col2": "1909",
        "col3": "21853"
    },
    {
        "col0": "Charles J. Martin House",
        "col1": "W. C. Whitney",
        "col2": "1903",
        "col3": "8093"
    },
    {
        "col0": "Charles H. Stickney House",
        "col1": "W. H. Wood",
        "col2": "1890",
        "col3": "1618"
    },
    {
        "col0": "Charles H. Murphy Sr. House",
        "col1": "C. L. Thompson",
        "col2": "1925",
        "col3": "24281"
    },
    {
        "col0": "Charles D. McIver School",
        "col1": "Starrett & Van Vleck",
        "col2": "1923",
        "col3": "26304"
    },
    {
        "col0": "Charles B. Russell House",
        "col1": "S. Hannaford",
        "col2": "1890",
        "col3": "4046"
    },
    {
        "col0": "Charles A. Miller House",
        "col1": "S. Hannaford",
        "col2": "1890",
        "col3": "4046"
    },
    {
        "col0": "Charles A. Lindbergh State Park",
        "col1": "N. P. Service",
        "col2": "1906",
        "col3": "36421"
    },
    {
        "col0": "Chapel Hill",
        "col1": "G. Howe",
        "col2": "1825",
        "col3": "1930350"
    },
    {
        "col0": "Chanticleer Garden",
        "col1": "Zantzinger, Borie and Medary",
        "col2": "1912",
        "col3": "109265"
    },
    {
        "col0": "Chalmers Knitting Mills",
        "col1": "C. R. Makepeace & Company",
        "col2": "1918",
        "col3": "10117"
    },
    {
        "col0": "Central Presbyterian Church",
        "col1": "W. H. Hayes",
        "col2": "1888",
        "col3": "4046"
    },
    {
        "col0": "Central Library",
        "col1": "A. E. Doyle",
        "col2": "1913",
        "col3": "4046"
    },
    {
        "col0": "Central Library",
        "col1": "R. F. Almirall",
        "col2": "1911",
        "col3": "11331"
    },
    {
        "col0": "Cedarmere-Clayton Estates",
        "col1": "O. C. Jr.",
        "col2": "1843",
        "col3": "696059"
    },
    {
        "col0": "Cedar Hill Cemetery",
        "col1": "J. Pollia",
        "col2": "1802",
        "col3": "101171"
    },
    {
        "col0": "Cathedral of the Nativity of the Blessed Virgin Mary",
        "col1": "T. Brune",
        "col2": "1902",
        "col3": "404"
    },
    {
        "col0": "Cathedral of the Madeleine",
        "col1": "C. M. Neuhausen",
        "col2": "1900",
        "col3": "4856"
    },
    {
        "col0": "Cathedral of the Immaculate Conception",
        "col1": "J. O'Rourke",
        "col2": "1864",
        "col3": "7284"
    },
    {
        "col0": "Catedral de Nuestra Senora de Guadalupe",
        "col1": "F. P. Doria",
        "col2": "1835",
        "col3": "2960"
    },
    {
        "col0": "Castle Clinton",
        "col1": "J. Williams",
        "col2": "1808",
        "col3": "4046"
    },
    {
        "col0": "Castillo Serralles",
        "col1": "Pedro Adolfo de Castro",
        "col2": "1930",
        "col3": "10117"
    },
    {
        "col0": "Cass County Court House, Jail, and Sheriff's House",
        "col1": "C. E. Bell",
        "col2": "1904",
        "col3": "4046"
    },
    {
        "col0": "Case Memorial-Seymour Library",
        "col1": "C. &. Hastings",
        "col2": "1898",
        "col3": "2832"
    },
    {
        "col0": "Cascade Locks Work Center",
        "col1": "Architects of the United States Forest Service",
        "col2": "1936",
        "col3": "7689"
    },
    {
        "col0": "Cascade Building",
        "col1": "A. E. Doyle",
        "col2": "1925",
        "col3": "809"
    },
    {
        "col0": "Casa Vives",
        "col1": "J. B. Calderoni",
        "col2": "1860",
        "col3": "1174"
    },
    {
        "col0": "Casa Salazar-Candal",
        "col1": "Blas C. Silva Boucher",
        "col2": "1911",
        "col3": "4046"
    },
    {
        "col0": "Casa Rio",
        "col1": "G. d. Gelleke",
        "col2": "1926",
        "col3": "9307"
    },
    {
        "col0": "Casa Paoli",
        "col1": "M. V. Domenech",
        "col2": "1864",
        "col3": "4046"
    },
    {
        "col0": "Casa Oppenheimer",
        "col1": "A. W. Pieretti",
        "col2": "1913",
        "col3": "4046"
    },
    {
        "col0": "Casa Font-Ubides",
        "col1": "Blas C. Silva Boucher",
        "col2": "1913",
        "col3": "4046"
    },
    {
        "col0": "Casa Fernando Luis Toro",
        "col1": "F. P. Doria",
        "col2": "1927",
        "col3": "2023"
    },
    {
        "col0": "Cary Historic District",
        "col1": "W. P. Administration",
        "col2": "1907",
        "col3": "72843"
    },
    {
        "col0": "Carter Hall",
        "col1": "H. T. Lindeberg",
        "col2": "1792",
        "col3": "364217"
    },
    {
        "col0": "Carroll County Courthouse",
        "col1": "E. E. Dunlap",
        "col2": "1888",
        "col3": "6070"
    },
    {
        "col0": "Carroll Building",
        "col1": "S. C. Earle",
        "col2": "1887",
        "col3": "404"
    },
    {
        "col0": "Caroline W. and M. Louise Flanders House",
        "col1": "J. K. Parker",
        "col2": "1926",
        "col3": "2023"
    },
    {
        "col0": "Carolina Inn",
        "col1": "A. C. Nash",
        "col2": "1923",
        "col3": "18210"
    },
    {
        "col0": "Carnegie Free Library of Braddock",
        "col1": "Longfellow, Alden & Harlow",
        "col2": "1888",
        "col3": "8093"
    },
    {
        "col0": "Carnegie Free Library of Beaver Falls",
        "col1": "F. J. Osterling",
        "col2": "1899",
        "col3": "4046"
    },
    {
        "col0": "Carnegie Free Library of Allegheny",
        "col1": "P. J. Pelz",
        "col2": "1886",
        "col3": "4046"
    },
    {
        "col0": "Carlton D. Wall House",
        "col1": "F. L. Wright",
        "col2": "1941",
        "col3": "20234"
    },
    {
        "col0": "Carlisle Armory",
        "col1": "T. H. Atherton",
        "col2": "1931",
        "col3": "145686"
    },
    {
        "col0": "Carlinville Chapter House",
        "col1": "Helfensteller, Hirsch and Watson",
        "col2": "1909",
        "col3": "404"
    },
    {
        "col0": "Carl Mackley Houses",
        "col1": "O. Stonorov",
        "col2": "1933",
        "col3": "18210"
    },
    {
        "col0": "Carl Herget Mansion",
        "col1": "H. &. Emerson",
        "col2": "1912",
        "col3": "4046"
    },
    {
        "col0": "Carl E. Nelson House",
        "col1": "J. Parker",
        "col2": "1924",
        "col3": "809"
    },
    {
        "col0": "Caramoor Center for Music and the Arts",
        "col1": "M. B. Schmidt",
        "col2": "1929",
        "col3": "327795"
    }
]