[
    {
        "col0": "M. Jackson",
        "col1": "United States",
        "col2": "University of Wisconsin-Green Bay",
        "col3": "Wisconsin",
        "col4": "1888-12-23"
    },
    {
        "col0": "L. Nosek",
        "col1": "United States",
        "col2": "University of Illinois at Urbana-Champaign",
        "col3": "People's Republic of Poland",
        "col4": "1995-0-0"
    },
    {
        "col0": "L. Maestri",
        "col1": "United States",
        "col2": "Boston University",
        "col3": "Rome",
        "col4": "1963-10-14"
    },
    {
        "col0": "K. Morse",
        "col1": "United States",
        "col2": "MIT",
        "col3": "Boston",
        "col4": "1946-10-06"
    },
    {
        "col0": "J. R. Cargill",
        "col1": "United States",
        "col2": "University of Minnesota",
        "col3": "Chicago",
        "col4": "1923-1-1"
    },
    {
        "col0": "D. Muilenburg",
        "col1": "United States",
        "col2": "Iowa State University",
        "col3": "Iowa",
        "col4": "1964-0-0"
    },
    {
        "col0": "D. Portnoy",
        "col1": "United States",
        "col2": "University of Michigan",
        "col3": "Massachusetts",
        "col4": "1977-03-22"
    },
    {
        "col0": "D. Sifry",
        "col1": "United States",
        "col2": "Johns Hopkins University",
        "col3": "Long Island",
        "col4": "1968-0-0"
    },
    {
        "col0": "B. Doo",
        "col1": "United States",
        "col2": "Boston University",
        "col3": "Cambridge, Massachusetts",
        "col4": "1930-05-29"
    },
    {
        "col0": "A. J. McKenna",
        "col1": "United States",
        "col2": "University of Notre Dame",
        "col3": "Chicago",
        "col4": "1929-09-17"
    },
    {
        "col0": "A. Gores",
        "col1": "United States",
        "col2": "Western Michigan University",
        "col3": "Nazareth, Israel",
        "col4": "1953-0-0"
    },
    {
        "col0": "A. F. Horn",
        "col1": "United States",
        "col2": "Harvard Business School",
        "col3": "New York City",
        "col4": "1943-02-28"
    },
    {
        "col0": "A. Lee",
        "col1": "United States",
        "col2": "Massachusetts Institute of Technology",
        "col3": "Staten Island",
        "col4": "1970"
    }
]