[
    {
        "Artist(s)": "Main show",
        "Song(s)": ""
    },
    {
        "Artist(s)": "Difa 'Idola Cilik'",
        "Song(s)": "\\Marilah Kemari\"\""
    },
    {
        "Artist(s)": "Choky Sitohang",
        "Song(s)": "\\Galih & Ratna\"\""
    },
    {
        "Artist(s)": "Chelsea 'Idola Cilik' Bagas 'Idola Cilik'",
        "Song(s)": "\\Jagoan\"\""
    },
    {
        "Artist(s)": "Bunga Citra Lestari",
        "Song(s)": "\\Cinta Sejati\"\""
    },
    {
        "Artist(s)": "Ahmad Dhani Bebi Romeo Rossa",
        "Song(s)": "\\Pupus\" \"Bukan Cinta Biasa\" \"Ayat-Ayat Cinta\"\""
    },
    {
        "Artist(s)": "3 Composer",
        "Song(s)": "\\Darah Muda\"\""
    },
    {
        "Artist(s)": "Acha Septriasa Tio Pakusadewo Maudy Ayunda Donny Damara",
        "Song(s)": "\\My Heart\" \"Perahu Kertas\" \"Anak Jalanan\"\""
    },
    {
        "Artist(s)": "Fatin Shidqia Alex Rudiart Shena Malsiana",
        "Song(s)": "\\Ada Apa Dengan Cinta\" \"Laskar Pelangi\" \"Badai Pasti Berlalu\" \"Garuda Didadaku\"\""
    }
]