[
    {
        "col0": "Roman Catholic Diocese of Santiago de Veraguas",
        "col1": "Roman Catholic Archdiocese of Panama",
        "col2": "Roman Catholic Archdiocese of Panama",
        "col3": "Roman Catholic Archdiocese of Panama",
        "col4": "11239000000",
        "col5": "11239000000"
    },
    {
        "col0": "Roman Catholic Diocese of Santiago de Maria",
        "col1": "Roman Catholic Archdiocese of San Salvador",
        "col2": "Roman Catholic Archdiocese of San Salvador",
        "col3": "Roman Catholic Archdiocese of San Salvador",
        "col4": "2866000000",
        "col5": "2866000000"
    },
    {
        "col0": "Roman Catholic Diocese of Santarem, Portugal",
        "col1": "Patriarchate of Lisbon",
        "col2": "Patriarchate of Lisbon",
        "col3": "Patriarchate of Lisbon",
        "col4": "3202000000",
        "col5": "3202000000"
    },
    {
        "col0": "Roman Catholic Diocese of Santarem, Brazil",
        "col1": "Roman Catholic Archdiocese of Belem do Para",
        "col2": "Roman Catholic Archdiocese of Belem do Para",
        "col3": "Roman Catholic Archdiocese of Belem do Para",
        "col4": "171906000000",
        "col5": "171906000000"
    },
    {
        "col0": "Roman Catholic Diocese of Santarem, Portugal",
        "col1": "Patriarchate of Lisbon",
        "col2": "Patriarchate of Lisbon",
        "col3": "Patriarchate of Lisbon",
        "col4": "3202000000",
        "col5": "3202000000"
    },
    {
        "col0": "Roman Catholic Diocese of Santarem, Brazil",
        "col1": "Roman Catholic Archdiocese of Belem do Para",
        "col2": "Roman Catholic Archdiocese of Belem do Para",
        "col3": "Roman Catholic Archdiocese of Belem do Para",
        "col4": "171906000000",
        "col5": "171906000000"
    },
    {
        "col0": "Roman Catholic Diocese of Santander",
        "col1": "Roman Catholic Archdiocese of Oviedo",
        "col2": "Roman Catholic Archdiocese of Oviedo",
        "col3": "Roman Catholic Archdiocese of Oviedo",
        "col4": "5527000000",
        "col5": "5527000000"
    },
    {
        "col0": "Roman Catholic Diocese of Santa Rosa in California",
        "col1": "Roman Catholic Archdiocese of San Francisco",
        "col2": "Roman Catholic Archdiocese of San Francisco",
        "col3": "Roman Catholic Archdiocese of San Francisco",
        "col4": "30331350000",
        "col5": "30331350000"
    },
    {
        "col0": "Roman Catholic Diocese of Santa Rosa in Argentina",
        "col1": "Roman Catholic Archdiocese of Bahia Blanca",
        "col2": "Roman Catholic Archdiocese of Bahia Blanca",
        "col3": "Roman Catholic Archdiocese of Bahia Blanca",
        "col4": "143440000000",
        "col5": "143440000000"
    },
    {
        "col0": "Roman Catholic Diocese of Santa Rosa de Osos",
        "col1": "Roman Catholic Archdiocese of Santa Fe de Antioquia",
        "col2": "Roman Catholic Archdiocese of Santa Fe de Antioquia",
        "col3": "Roman Catholic Archdiocese of Santa Fe de Antioquia",
        "col4": "24037000000",
        "col5": "24037000000"
    },
    {
        "col0": "Roman Catholic Diocese of Santa Rosa de Lima",
        "col1": "Roman Catholic Archdiocese of Guatemala",
        "col2": "Roman Catholic Archdiocese of Guatemala",
        "col3": "Roman Catholic Archdiocese of Guatemala",
        "col4": "2955000000",
        "col5": "2955000000"
    },
    {
        "col0": "Roman Catholic Diocese of Santa Rosa de Copan",
        "col1": "Roman Catholic Archdiocese of Tegucigalpa",
        "col2": "Roman Catholic Archdiocese of Tegucigalpa",
        "col3": "Roman Catholic Archdiocese of Tegucigalpa",
        "col4": "17360000000",
        "col5": "17360000000"
    },
    {
        "col0": "Roman Catholic Diocese of Santa Maria de Los Angeles",
        "col1": "Roman Catholic Archdiocese of Concepcion",
        "col2": "Roman Catholic Archdiocese of Concepcion",
        "col3": "Roman Catholic Archdiocese of Concepcion",
        "col4": "13454000000",
        "col5": "13454000000"
    },
    {
        "col0": "Roman Catholic Diocese of Santa Marta",
        "col1": "Roman Catholic Archdiocese of Barranquilla",
        "col2": "Roman Catholic Archdiocese of Barranquilla",
        "col3": "Roman Catholic Archdiocese of Barranquilla",
        "col4": "14216000000",
        "col5": "14216000000"
    },
    {
        "col0": "Roman Catholic Diocese of Santa Maria de Los Angeles",
        "col1": "Roman Catholic Archdiocese of Concepcion",
        "col2": "Roman Catholic Archdiocese of Concepcion",
        "col3": "Roman Catholic Archdiocese of Concepcion",
        "col4": "13454000000",
        "col5": "13454000000"
    },
    {
        "col0": "Roman Catholic Diocese of Santa Cruz do Sul",
        "col1": "Roman Catholic Archdiocese of Santa Maria",
        "col2": "Roman Catholic Archdiocese of Santa Maria",
        "col3": "Roman Catholic Archdiocese of Santa Maria",
        "col4": "17168000000",
        "col5": "17168000000"
    },
    {
        "col0": "Roman Catholic Diocese of Santa Clara",
        "col1": "Roman Catholic Archdiocese of Camaguey",
        "col2": "Roman Catholic Archdiocese of Camaguey",
        "col3": "Roman Catholic Archdiocese of Camaguey",
        "col4": "12754000000",
        "col5": "12754000000"
    },
    {
        "col0": "Roman Catholic Diocese of Santa Ana",
        "col1": "Roman Catholic Archdiocese of San Salvador",
        "col2": "Roman Catholic Archdiocese of San Salvador",
        "col3": "Roman Catholic Archdiocese of San Salvador",
        "col4": "3272000000",
        "col5": "3272000000"
    },
    {
        "col0": "Roman Catholic Diocese of Sant Feliu de Llobregat",
        "col1": "Roman Catholic Archdiocese of Barcelona",
        "col2": "Roman Catholic Archdiocese of Barcelona",
        "col3": "Roman Catholic Archdiocese of Barcelona",
        "col4": "1400000000",
        "col5": "1400000000"
    },
    {
        "col0": "Roman Catholic Diocese of Santissima Conceicao do Araguaia",
        "col1": "Roman Catholic Archdiocese of Belem do Para",
        "col2": "Roman Catholic Archdiocese of Belem do Para",
        "col3": "Roman Catholic Archdiocese of Belem do Para",
        "col4": "52500000000",
        "col5": "52500000000"
    },
    {
        "col0": "Roman Catholic Diocese of Santisimo Salvador de Bayamo y Manzanillo",
        "col1": "Roman Catholic Archdiocese of Santiago de Cuba",
        "col2": "Roman Catholic Archdiocese of Santiago de Cuba",
        "col3": "Roman Catholic Archdiocese of Santiago de Cuba",
        "col4": "8362000000",
        "col5": "8362000000"
    },
    {
        "col0": "Roman Catholic Diocese of Sankt Polten",
        "col1": "Archdiocese of Vienna",
        "col2": "Archdiocese of Vienna",
        "col3": "Archdiocese of Vienna",
        "col4": "10450000000",
        "col5": "10450000000"
    },
    {
        "col0": "Roman Catholic Diocese of Sanggau",
        "col1": "Roman Catholic Archdiocese of Pontianak",
        "col2": "Roman Catholic Archdiocese of Pontianak",
        "col3": "Roman Catholic Archdiocese of Pontianak",
        "col4": "18302000000",
        "col5": "18302000000"
    },
    {
        "col0": "Roman Catholic Diocese of Sandomierz",
        "col1": "Roman Catholic Archdiocese of Lublin",
        "col2": "Roman Catholic Archdiocese of Lublin",
        "col3": "Roman Catholic Archdiocese of Lublin",
        "col4": "7850000000",
        "col5": "7850000000"
    },
    {
        "col0": "Roman Catholic Diocese of Sandakan",
        "col1": "Archdiocese of Kota Kinabalu",
        "col2": "Archdiocese of Kota Kinabalu",
        "col3": "Archdiocese of Kota Kinabalu",
        "col4": "43657000000",
        "col5": "43657000000"
    },
    {
        "col0": "Roman Catholic Diocese of San Vicente",
        "col1": "Roman Catholic Archdiocese of San Salvador",
        "col2": "Roman Catholic Archdiocese of San Salvador",
        "col3": "Roman Catholic Archdiocese of San Salvador",
        "col4": "4993000000",
        "col5": "4993000000"
    },
    {
        "col0": "Roman Catholic Diocese of San Severo",
        "col1": "Roman Catholic Archdiocese of Foggia-Bovino",
        "col2": "Roman Catholic Archdiocese of Foggia-Bovino",
        "col3": "Roman Catholic Archdiocese of Foggia-Bovino",
        "col4": "1270000000",
        "col5": "1270000000"
    },
    {
        "col0": "Roman Catholic Diocese of San Sebastian",
        "col1": "Roman Catholic Archdiocese of Pamplona y Tudela",
        "col2": "Roman Catholic Archdiocese of Pamplona y Tudela",
        "col3": "Roman Catholic Archdiocese of Pamplona y Tudela",
        "col4": "1977000000",
        "col5": "1977000000"
    },
    {
        "col0": "Roman Catholic Diocese of San Roque de Presidencia Roque Saenz Pena",
        "col1": "Roman Catholic Archdiocese of Resistencia",
        "col2": "Roman Catholic Archdiocese of Resistencia",
        "col3": "Roman Catholic Archdiocese of Resistencia",
        "col4": "71303000000",
        "col5": "71303000000"
    },
    {
        "col0": "Roman Catholic Diocese of San Rafael",
        "col1": "Roman Catholic Archdiocese of Mendoza",
        "col2": "Roman Catholic Archdiocese of Mendoza",
        "col3": "Roman Catholic Archdiocese of Mendoza",
        "col4": "87286000000",
        "col5": "87286000000"
    },
    {
        "col0": "Roman Catholic Diocese of San Pedro de Macoris",
        "col1": "Roman Catholic Archdiocese of Santo Domingo",
        "col2": "Roman Catholic Archdiocese of Santo Domingo",
        "col3": "Roman Catholic Archdiocese of Santo Domingo",
        "col4": "2588000000",
        "col5": "2588000000"
    },
    {
        "col0": "Roman Catholic Diocese of San Pedro Sula",
        "col1": "Roman Catholic Archdiocese of Tegucigalpa",
        "col2": "Roman Catholic Archdiocese of Tegucigalpa",
        "col3": "Roman Catholic Archdiocese of Tegucigalpa",
        "col4": "3923000000",
        "col5": "3923000000"
    },
    {
        "col0": "Roman Catholic Diocese of San Pablo",
        "col1": "Roman Catholic Archdiocese of Manila",
        "col2": "Roman Catholic Archdiocese of Manila",
        "col3": "Roman Catholic Archdiocese of Manila",
        "col4": "1203000000",
        "col5": "1203000000"
    },
    {
        "col0": "Roman Catholic Diocese of San Nicolas de los Arroyos",
        "col1": "Roman Catholic Archdiocese of Rosario",
        "col2": "Roman Catholic Archdiocese of Rosario",
        "col3": "Roman Catholic Archdiocese of Rosario",
        "col4": "14500000000",
        "col5": "14500000000"
    },
    {
        "col0": "Roman Catholic Diocese of San Miniato",
        "col1": "Roman Catholic Archdiocese of Florence",
        "col2": "Roman Catholic Archdiocese of Florence",
        "col3": "Roman Catholic Archdiocese of Florence",
        "col4": "691000000",
        "col5": "691000000"
    },
    {
        "col0": "Roman Catholic Diocese of San Miguel",
        "col1": "Roman Catholic Archdiocese of San Salvador",
        "col2": "Roman Catholic Archdiocese of San Salvador",
        "col3": "Roman Catholic Archdiocese of San Salvador",
        "col4": "4993000000",
        "col5": "4993000000"
    },
    {
        "col0": "Roman Catholic Diocese of San Miguel",
        "col1": "Roman Catholic Archdiocese of Buenos Aires",
        "col2": "Roman Catholic Archdiocese of Buenos Aires",
        "col3": "Roman Catholic Archdiocese of Buenos Aires",
        "col4": "206000000",
        "col5": "206000000"
    },
    {
        "col0": "Roman Catholic Diocese of San Martin",
        "col1": "Roman Catholic Archdiocese of Buenos Aires",
        "col2": "Roman Catholic Archdiocese of Buenos Aires",
        "col3": "Roman Catholic Archdiocese of Buenos Aires",
        "col4": "102000000",
        "col5": "102000000"
    },
    {
        "col0": "Roman Catholic Diocese of San Marino-Montefeltro",
        "col1": "Roman Catholic Archdiocese of Ravenna-Cervia",
        "col2": "Roman Catholic Archdiocese of Ravenna-Cervia",
        "col3": "Roman Catholic Archdiocese of Ravenna-Cervia",
        "col4": "800000000",
        "col5": "800000000"
    },
    {
        "col0": "Roman Catholic Diocese of San Marcos",
        "col1": "Roman Catholic Archdiocese of Los Altos Quetzaltenango-Totonicapan",
        "col2": "Roman Catholic Archdiocese of Los Altos Quetzaltenango-Totonicapan",
        "col3": "Roman Catholic Archdiocese of Los Altos Quetzaltenango-Totonicapan",
        "col4": "3791000000",
        "col5": "3791000000"
    },
    {
        "col0": "Roman Catholic Diocese of San Marco Argentano-Scalea",
        "col1": "Roman Catholic Archdiocese of Cosenza-Bisignano",
        "col2": "Roman Catholic Archdiocese of Cosenza-Bisignano",
        "col3": "Roman Catholic Archdiocese of Cosenza-Bisignano",
        "col4": "1147364732",
        "col5": "1147364732"
    },
    {
        "col0": "Roman Catholic Diocese of San Luis",
        "col1": "Roman Catholic Archdiocese of San Juan de Cuyo",
        "col2": "Roman Catholic Archdiocese of San Juan de Cuyo",
        "col3": "Roman Catholic Archdiocese of San Juan de Cuyo",
        "col4": "76748000000",
        "col5": "76748000000"
    },
    {
        "col0": "Roman Catholic Diocese of San Justo",
        "col1": "Roman Catholic Archdiocese of Buenos Aires",
        "col2": "Roman Catholic Archdiocese of Buenos Aires",
        "col3": "Roman Catholic Archdiocese of Buenos Aires",
        "col4": "130000000",
        "col5": "130000000"
    },
    {
        "col0": "Roman Catholic Diocese of San Juan de la Maguana",
        "col1": "Roman Catholic Archdiocese of Santo Domingo",
        "col2": "Roman Catholic Archdiocese of Santo Domingo",
        "col3": "Roman Catholic Archdiocese of Santo Domingo",
        "col4": "7476000000",
        "col5": "7476000000"
    },
    {
        "col0": "Roman Catholic Diocese of San Juan de Calama",
        "col1": "Roman Catholic Archdiocese of Antofagasta",
        "col2": "Roman Catholic Archdiocese of Antofagasta",
        "col3": "Roman Catholic Archdiocese of Antofagasta",
        "col4": "43000000000",
        "col5": "43000000000"
    },
    {
        "col0": "Roman Catholic Diocese of San Jose del Guaviare",
        "col1": "Roman Catholic Archdiocese of Villavicencio",
        "col2": "Roman Catholic Archdiocese of Villavicencio",
        "col3": "Roman Catholic Archdiocese of Villavicencio",
        "col4": "42327000000",
        "col5": "42327000000"
    },
    {
        "col0": "Roman Catholic Diocese of San Jose de Mayo",
        "col1": "Roman Catholic Archdiocese of Montevideo",
        "col2": "Roman Catholic Archdiocese of Montevideo",
        "col3": "Roman Catholic Archdiocese of Montevideo",
        "col4": "11482000000",
        "col5": "11482000000"
    },
    {
        "col0": "Roman Catholic Diocese of San Jose in the Philippines",
        "col1": "Roman Catholic Archdiocese of Lingayen-Dagupan",
        "col2": "Roman Catholic Archdiocese of Lingayen-Dagupan",
        "col3": "Roman Catholic Archdiocese of Lingayen-Dagupan",
        "col4": "2540000000",
        "col5": "2540000000"
    },
    {
        "col0": "Roman Catholic Diocese of San Jose de Antique",
        "col1": "Roman Catholic Archdiocese of Jaro",
        "col2": "Roman Catholic Archdiocese of Jaro",
        "col3": "Roman Catholic Archdiocese of Jaro",
        "col4": "2552000000",
        "col5": "2552000000"
    },
    {
        "col0": "Roman Catholic Diocese of San Jose del Guaviare",
        "col1": "Roman Catholic Archdiocese of Villavicencio",
        "col2": "Roman Catholic Archdiocese of Villavicencio",
        "col3": "Roman Catholic Archdiocese of Villavicencio",
        "col4": "42327000000",
        "col5": "42327000000"
    },
    {
        "col0": "Roman Catholic Diocese of San Jose de Mayo",
        "col1": "Roman Catholic Archdiocese of Montevideo",
        "col2": "Roman Catholic Archdiocese of Montevideo",
        "col3": "Roman Catholic Archdiocese of Montevideo",
        "col4": "11482000000",
        "col5": "11482000000"
    },
    {
        "col0": "Roman Catholic Diocese of San Jacinto de Yaguachi",
        "col1": "Roman Catholic Archdiocese of Guayaquil",
        "col2": "Roman Catholic Archdiocese of Guayaquil",
        "col3": "Roman Catholic Archdiocese of Guayaquil",
        "col4": "6265000000",
        "col5": "6265000000"
    },
    {
        "col0": "Roman Catholic Diocese of San Isidro de El General",
        "col1": "Roman Catholic Archdiocese of San Jose de Costa Rica",
        "col2": "Roman Catholic Archdiocese of San Jose de Costa Rica",
        "col3": "Roman Catholic Archdiocese of San Jose de Costa Rica",
        "col4": "10346000000",
        "col5": "10346000000"
    },
    {
        "col0": "Roman Catholic Diocese of San Isidro",
        "col1": "Roman Catholic Archdiocese of Buenos Aires",
        "col2": "Roman Catholic Archdiocese of Buenos Aires",
        "col3": "Roman Catholic Archdiocese of Buenos Aires",
        "col4": "1379000000",
        "col5": "1379000000"
    },
    {
        "col0": "Roman Catholic Diocese of San Ignacio de Velasco",
        "col1": "Roman Catholic Archdiocese of Santa Cruz de la Sierra",
        "col2": "Roman Catholic Archdiocese of Santa Cruz de la Sierra",
        "col3": "Roman Catholic Archdiocese of Santa Cruz de la Sierra",
        "col4": "197000000000",
        "col5": "197000000000"
    },
    {
        "col0": "Roman Catholic Diocese of San Francisco de Macoris",
        "col1": "Roman Catholic Archdiocese of Santiago de los Caballeros",
        "col2": "Roman Catholic Archdiocese of Santiago de los Caballeros",
        "col3": "Roman Catholic Archdiocese of Santiago de los Caballeros",
        "col4": "3682000000",
        "col5": "3682000000"
    },
    {
        "col0": "Roman Catholic Diocese of San Francisco",
        "col1": "Roman Catholic Archdiocese of Cordoba",
        "col2": "Roman Catholic Archdiocese of Cordoba",
        "col3": "Roman Catholic Archdiocese of Cordoba",
        "col4": "19611000000",
        "col5": "19611000000"
    },
    {
        "col0": "Roman Catholic Diocese of San Fernando de La Union",
        "col1": "Roman Catholic Archdiocese of Lingayen-Dagupan",
        "col2": "Roman Catholic Archdiocese of Lingayen-Dagupan",
        "col3": "Roman Catholic Archdiocese of Lingayen-Dagupan",
        "col4": "1493000000",
        "col5": "1493000000"
    },
    {
        "col0": "Roman Catholic Diocese of San Fernando de Apure",
        "col1": "Roman Catholic Archdiocese of Calabozo",
        "col2": "Roman Catholic Archdiocese of Calabozo",
        "col3": "Roman Catholic Archdiocese of Calabozo",
        "col4": "76500000000",
        "col5": "76500000000"
    },
    {
        "col0": "Roman Catholic Diocese of San Felipe, Chile",
        "col1": "Roman Catholic Archdiocese of Santiago de Chile",
        "col2": "Roman Catholic Archdiocese of Santiago de Chile",
        "col3": "Roman Catholic Archdiocese of Santiago de Chile",
        "col4": "10223000000",
        "col5": "10223000000"
    },
    {
        "col0": "Roman Catholic Diocese of San Cristobal de Venezuela",
        "col1": "Roman Catholic Archdiocese of Merida in Venezuela",
        "col2": "Roman Catholic Archdiocese of Merida in Venezuela",
        "col3": "Roman Catholic Archdiocese of Merida in Venezuela",
        "col4": "11000000000",
        "col5": "11000000000"
    },
    {
        "col0": "Roman Catholic Diocese of San Cristobal de Las Casas",
        "col1": "Roman Catholic Archdiocese of Tuxtla",
        "col2": "Roman Catholic Archdiocese of Tuxtla",
        "col3": "Roman Catholic Archdiocese of Tuxtla",
        "col4": "22636496084",
        "col5": "22636496084"
    },
    {
        "col0": "Roman Catholic Diocese of San Cristobal de La Laguna",
        "col1": "Roman Catholic Archdiocese of Sevilla",
        "col2": "Roman Catholic Archdiocese of Sevilla",
        "col3": "Roman Catholic Archdiocese of Sevilla",
        "col4": "3381000000",
        "col5": "3381000000"
    }
]