[
    {
        "col0": "A. H. Oria",
        "col1": "Madrid",
        "col2": "Spain",
        "col3": "1886-12-19",
        "col4": "1968-07-28"
    },
    {
        "col0": "Z. Olesnicki",
        "col1": "Sandomierz",
        "col2": "Poland",
        "col3": "1389-12-05",
        "col4": "1455-04-01"
    },
    {
        "col0": "W. W. Baum",
        "col1": "Washington, D.C.",
        "col2": "United States",
        "col3": "1926-11-21",
        "col4": "2015-07-23"
    },
    {
        "col0": "W. v. Enckevoirt",
        "col1": "Rome",
        "col2": "Netherlands",
        "col3": "1464-1-22",
        "col4": "1534-7-19"
    },
    {
        "col0": "V. Moretti",
        "col1": "Bologna",
        "col2": "Italy",
        "col3": "1815-11-14",
        "col4": "1881-10-6"
    },
    {
        "col0": "V. Razafimahatratra",
        "col1": "Antananarivo",
        "col2": "Madagascar",
        "col3": "1921-9-8",
        "col4": "1993-10-6"
    },
    {
        "col0": "V. Deschamps",
        "col1": "Mechelen",
        "col2": "Belgian people",
        "col3": "1810-12-06",
        "col4": "1883-09-29"
    },
    {
        "col0": "V. Vithayathil",
        "col1": "Ernakulam",
        "col2": "India",
        "col3": "1927-05-29",
        "col4": "2011-04-01"
    },
    {
        "col0": "T. Weld",
        "col1": "Rome",
        "col2": "English people",
        "col3": "1773-01-22",
        "col4": "1837-04-10"
    },
    {
        "col0": "T. T. Ken-sin",
        "col1": "Taipei",
        "col2": "China",
        "col3": "1890-10-24",
        "col4": "1967-07-24"
    },
    {
        "col0": "T. Cooke",
        "col1": "New York City",
        "col2": "United States",
        "col3": "1921-03-01",
        "col4": "1983-10-06"
    },
    {
        "col0": "S. Vardai",
        "col1": "Kalocsa",
        "col2": "Hungary",
        "col3": "1425-0-0",
        "col4": "1471-02-22"
    },
    {
        "col0": "S. Langton",
        "col1": "Sussex",
        "col2": "English people",
        "col3": "1150-1-1",
        "col4": "1228-07-09"
    },
    {
        "col0": "S. I. Bancsa",
        "col1": "Rome",
        "col2": "Hungary",
        "col3": "1201-0-0",
        "col4": "1270-07-09"
    },
    {
        "col0": "S. Hosius",
        "col1": "Capranica Prenestina",
        "col2": "Poles",
        "col3": "1504-05-05",
        "col4": "1579-08-05"
    },
    {
        "col0": "S. Oddi",
        "col1": "Cortemaggiore",
        "col2": "Italian people",
        "col3": "1910-11-14",
        "col4": "2001-06-29"
    },
    {
        "col0": "Sebastiao da Silveira Cintra",
        "col1": "Rio de Janeiro",
        "col2": "Brazil",
        "col3": "1882-01-20",
        "col4": "1942-10-17"
    },
    {
        "col0": "S. Borghese",
        "col1": "Rome",
        "col2": "Italy",
        "col3": "1576-1-1",
        "col4": "1633-10-02"
    },
    {
        "col0": "S. Copello",
        "col1": "Rome",
        "col2": "Argentine",
        "col3": "1880-01-07",
        "col4": "1967-02-09"
    },
    {
        "col0": "R. Santos",
        "col1": "Manila",
        "col2": "Philippines",
        "col3": "1908-08-26",
        "col4": "1973-09-03"
    },
    {
        "col0": "Rosalio Jose Castillo Lara",
        "col1": "Caracas",
        "col2": "Venezuelan",
        "col3": "1922-09-04",
        "col4": "2007-10-16"
    },
    {
        "col0": "Rodolfo Pio da Carpi",
        "col1": "Rome",
        "col2": "Italy",
        "col3": "1500-02-22",
        "col4": "1564-05-02"
    },
    {
        "col0": "R. o. Courcon",
        "col1": "Damietta",
        "col2": "English people",
        "col3": "1160-0-0",
        "col4": "1219-02-06"
    },
    {
        "col0": "R. Delargey",
        "col1": "Auckland",
        "col2": "New Zealanders",
        "col3": "1914-12-10",
        "col4": "1979-01-29"
    },
    {
        "col0": "P. Pazmany",
        "col1": "Kingdom of Hungary",
        "col2": "Hungary",
        "col3": "1570-10-04",
        "col4": "1637-03-19"
    },
    {
        "col0": "P. L. Fontaine",
        "col1": "Treviso",
        "col2": "Italy",
        "col3": "1860-11-29",
        "col4": "1935-07-09"
    },
    {
        "col0": "P. Giannelli",
        "col1": "Rome",
        "col2": "Italy",
        "col3": "1807-8-11",
        "col4": "1881-11-5"
    },
    {
        "col0": "P. Gasparri",
        "col1": "Rome",
        "col2": "Italy",
        "col3": "1852-05-05",
        "col4": "1934-11-18"
    },
    {
        "col0": "P. Capocci",
        "col1": "Rome",
        "col2": "Italy",
        "col3": "1200-0-0",
        "col4": "1259-1-1"
    },
    {
        "col0": "Pierre de Foix, le jeune",
        "col1": "Rome",
        "col2": "French people",
        "col3": "1449-02-07",
        "col4": "1490-08-10"
    },
    {
        "col0": "Pierre Aycelin de Montaigut",
        "col1": "Reims",
        "col2": "France",
        "col3": "1400-1-1",
        "col4": "1388-11-8"
    },
    {
        "col0": "P. Gerlier",
        "col1": "Lyon",
        "col2": "France",
        "col3": "1880-01-14",
        "col4": "1965-01-17"
    },
    {
        "col0": "P. Goossens",
        "col1": "Mechelen",
        "col2": "Belgian people",
        "col3": "1827-07-18",
        "col4": "1906-01-25"
    },
    {
        "col0": "P. Carafa",
        "col1": "Rome",
        "col2": "Italians",
        "col3": "1677-07-04",
        "col4": "1755-12-15"
    },
    {
        "col0": "P. Krementz",
        "col1": "Cologne",
        "col2": "Germany",
        "col3": "1819-12-01",
        "col4": "1899-05-06"
    },
    {
        "col0": "P. Zoungrana",
        "col1": "Ouagadougou",
        "col2": "Burkina Faso",
        "col3": "1917-09-03",
        "col4": "2000-06-04"
    },
    {
        "col0": "P. Y. Pin",
        "col1": "Rome",
        "col2": "China",
        "col3": "1901-04-13",
        "col4": "1978-08-16"
    },
    {
        "col0": "Paul Joseph Pham Dinh Tung",
        "col1": "Hanoi",
        "col2": "Vietnamese people",
        "col3": "1919-06-15",
        "col4": "2009-02-22"
    },
    {
        "col0": "P. Pazmany",
        "col1": "Kingdom of Hungary",
        "col2": "Hungary",
        "col3": "1570-10-04",
        "col4": "1637-03-19"
    },
    {
        "col0": "M. I. Lubachivsky",
        "col1": "Lviv",
        "col2": "Ukrainian people",
        "col3": "1914-6-24",
        "col4": "1918-06-24"
    },
    {
        "col0": "M. Koliqi",
        "col1": "Shkoder",
        "col2": "Albanians",
        "col3": "1900-09-29",
        "col4": "1997-01-28"
    },
    {
        "col0": "Miguel Dario Miranda y Gomez",
        "col1": "Leon, Guanajuato",
        "col2": "Mexico",
        "col3": "1895-12-19",
        "col4": "1986-03-15"
    },
    {
        "col0": "Maximilian Joseph von Tarnoczy",
        "col1": "Salzburg",
        "col2": "Austrians",
        "col3": "1806-10-24",
        "col4": "1876-04-04"
    },
    {
        "col0": "M. Fossati",
        "col1": "Turin",
        "col2": "Italy",
        "col3": "1876-05-24",
        "col4": "1965-03-30"
    },
    {
        "col0": "M. Cointerel",
        "col1": "Rome",
        "col2": "French people",
        "col3": "1519-1-1",
        "col4": "1585-1-1"
    },
    {
        "col0": "M. G. Cerejeira",
        "col1": "Lisbon",
        "col2": "Portugal",
        "col3": "1888-11-29",
        "col4": "1977-08-02"
    },
    {
        "col0": "L. Paskai",
        "col1": "Esztergom",
        "col2": "Hungary",
        "col3": "1927-05-08",
        "col4": "2015-08-17"
    },
    {
        "col0": "L. Bonaparte",
        "col1": "Rome",
        "col2": "Italy",
        "col3": "1828-11-15",
        "col4": "1895-11-19"
    },
    {
        "col0": "L. d. Montmorency-Laval",
        "col1": "Germany",
        "col2": "French people",
        "col3": "1724-12-11",
        "col4": "1808-06-17"
    },
    {
        "col0": "Leopold Karl von Kollonitsch",
        "col1": "Vienna",
        "col2": "Hungarian language",
        "col3": "1631-10-26",
        "col4": "1707-01-20"
    },
    {
        "col0": "L. Haynald",
        "col1": "Kalocsa",
        "col2": "Hungary",
        "col3": "1816-10-03",
        "col4": "1891-07-04"
    },
    {
        "col0": "L. Paskai",
        "col1": "Esztergom",
        "col2": "Hungary",
        "col3": "1927-05-08",
        "col4": "2015-08-17"
    },
    {
        "col0": "K. v. Preysing",
        "col1": "Berlin",
        "col2": "Germany",
        "col3": "1880-08-30",
        "col4": "1950-12-21"
    },
    {
        "col0": "K. F. Vaszary",
        "col1": "Balatonfured",
        "col2": "Hungarian people",
        "col3": "1832-02-12",
        "col4": "1915-09-03"
    },
    {
        "col0": "K. Swiatek",
        "col1": "Pinsk",
        "col2": "Estonian people",
        "col3": "1914-10-21",
        "col4": "2011-07-21"
    },
    {
        "col0": "K. J. Schulte",
        "col1": "Cologne",
        "col2": "Germany",
        "col3": "1871-09-14",
        "col4": "1941-03-11"
    },
    {
        "col0": "K. KaA!par",
        "col1": "Prague",
        "col2": "Czechoslovakia",
        "col3": "1870-05-16",
        "col4": "1941-04-21"
    },
    {
        "col0": "J. G. Seredi",
        "col1": "Esztergom",
        "col2": "Hungarian people",
        "col3": "1884-04-23",
        "col4": "1945-03-29"
    },
    {
        "col0": "J. Darmojuwono",
        "col1": "Semarang",
        "col2": "Dutch East Indies",
        "col3": "1914-11-02",
        "col4": "1994-02-03"
    },
    {
        "col0": "J. Haulik",
        "col1": "Zagreb",
        "col2": "Slovak people",
        "col3": "1788-04-20",
        "col4": "1869-05-11"
    },
    {
        "col0": "J. Draskovic",
        "col1": "Vienna",
        "col2": "Croat",
        "col3": "1525-02-05",
        "col4": "1587-01-31"
    },
    {
        "col0": "J. Dopfner",
        "col1": "Munich",
        "col2": "Germans",
        "col3": "1913-08-26",
        "col4": "1976-07-24"
    },
    {
        "col0": "J. Ries",
        "col1": "Tournai",
        "col2": "Belgians",
        "col3": "1920-04-19",
        "col4": "2013-02-23"
    },
    {
        "col0": "J. d. Castro",
        "col1": "Rome",
        "col2": "Spanish people",
        "col3": "1431-03-22",
        "col4": "1506-09-29"
    },
    {
        "col0": "Juan Soldevilla y Romero",
        "col1": "Zaragoza",
        "col2": "Spain",
        "col3": "1843-10-20",
        "col4": "1923-06-04"
    },
    {
        "col0": "Juan Francisco Marco y Catalan",
        "col1": "Rome",
        "col2": "Spain",
        "col3": "1771-10-24",
        "col4": "1841-03-16"
    },
    {
        "col0": "J. C. Aramburu",
        "col1": "Buenos Aires",
        "col2": "Argentine",
        "col3": "1912-02-11",
        "col4": "2004-11-18"
    },
    {
        "col0": "J. v. Roey",
        "col1": "Mechelen",
        "col2": "Belgian people",
        "col3": "1874-01-13",
        "col4": "1961-08-06"
    },
    {
        "col0": "Jose Sebastiao de Almeida Neto",
        "col1": "Spain",
        "col2": "Portuguese people",
        "col3": "1841-02-08",
        "col4": "1920-12-07"
    },
    {
        "col0": "J. Policarpo",
        "col1": "Lisbon",
        "col2": "Portuguese people",
        "col3": "1936-02-26",
        "col4": "2014-03-12"
    },
    {
        "col0": "Jose Cos y Macho",
        "col1": "Valladolid",
        "col2": "Spanish people",
        "col3": "1838-08-06",
        "col4": "1919-12-17"
    },
    {
        "col0": "J. Mihalovic",
        "col1": "Zagreb",
        "col2": "Croat",
        "col3": "1814-01-16",
        "col4": "1891-02-19"
    },
    {
        "col0": "J. Wendel",
        "col1": "Munich",
        "col2": "Germany",
        "col3": "1901-05-27",
        "col4": "1960-12-31"
    },
    {
        "col0": "J. Parecattil",
        "col1": "India",
        "col2": "India",
        "col3": "1912-04-01",
        "col4": "1987-02-20"
    },
    {
        "col0": "J. O. Rauscher",
        "col1": "Vienna",
        "col2": "Austrians",
        "col3": "1797-10-06",
        "col4": "1875-11-24"
    },
    {
        "col0": "J. Fesch",
        "col1": "Rome",
        "col2": "France",
        "col3": "1763-01-03",
        "col4": "1839-05-13"
    },
    {
        "col0": "Joseph-Marie Trinh Van Can",
        "col1": "Hanoi",
        "col2": "Vietnamese people",
        "col3": "1921-03-19",
        "col4": "1990-05-18"
    },
    {
        "col0": "Joseph-Marie Trinh Nhu Khue",
        "col1": "Hanoi",
        "col2": "Vietnamese people",
        "col3": "1898-12-11",
        "col4": "1978-11-27"
    },
    {
        "col0": "Joseph-Marie Trinh Van Can",
        "col1": "Hanoi",
        "col2": "Vietnamese people",
        "col3": "1921-03-19",
        "col4": "1990-05-18"
    },
    {
        "col0": "Joseph-Marie Trinh Nhu Khue",
        "col1": "Hanoi",
        "col2": "Vietnamese people",
        "col3": "1898-12-11",
        "col4": "1978-11-27"
    },
    {
        "col0": "J. Frings",
        "col1": "Cologne",
        "col2": "Germany",
        "col3": "1887-02-06",
        "col4": "1978-12-17"
    },
    {
        "col0": "Jose Sebastiao de Almeida Neto",
        "col1": "Spain",
        "col2": "Portuguese people",
        "col3": "1841-02-08",
        "col4": "1920-12-07"
    },
    {
        "col0": "J. Policarpo",
        "col1": "Lisbon",
        "col2": "Portuguese people",
        "col3": "1936-02-26",
        "col4": "2014-03-12"
    },
    {
        "col0": "Jose Cos y Macho",
        "col1": "Valladolid",
        "col2": "Spanish people",
        "col3": "1838-08-06",
        "col4": "1919-12-17"
    },
    {
        "col0": "J. Vitez",
        "col1": "Esztergom",
        "col2": "Kingdom of Hungary",
        "col3": "1408-1-1",
        "col4": "1472-08-08"
    },
    {
        "col0": "J. Kemp",
        "col1": "Canterbury",
        "col2": "English people",
        "col3": "1380-1-1",
        "col4": "1454-03-22"
    },
    {
        "col0": "J. v. Geissel",
        "col1": "Cologne",
        "col2": "Germany",
        "col3": "1796-02-05",
        "col4": "1864-09-08"
    },
    {
        "col0": "J. d. Jong",
        "col1": "Amersfoort",
        "col2": "Netherlands",
        "col3": "1885-09-10",
        "col4": "1955-9-8"
    },
    {
        "col0": "J. Katschthaler",
        "col1": "Salzburg",
        "col2": "Austrians",
        "col3": "1832-05-29",
        "col4": "1914-02-27"
    },
    {
        "col0": "J. J. Degenhardt",
        "col1": "Paderborn",
        "col2": "Germany",
        "col3": "1926-01-31",
        "col4": "2002-07-25"
    },
    {
        "col0": "Joaquim Arcoverde de Albuquerque Cavalcanti",
        "col1": "Rio de Janeiro",
        "col2": "Brazil",
        "col3": "1850-01-17",
        "col4": "1930-04-18"
    },
    {
        "col0": "J. d'Isoard",
        "col1": "Paris",
        "col2": "France",
        "col3": "1766-10-23",
        "col4": "1839-10-07"
    },
    {
        "col0": "J. Verdier",
        "col1": "Paris",
        "col2": "France",
        "col3": "1864-02-19",
        "col4": "1940-04-09"
    },
    {
        "col0": "J. Villot",
        "col1": "Rome",
        "col2": "France",
        "col3": "1905-10-11",
        "col4": "1979-03-09"
    },
    {
        "col0": "J. Turcotte",
        "col1": "Montreal",
        "col2": "Canadians",
        "col3": "1936-06-26",
        "col4": "2015-04-08"
    },
    {
        "col0": "J. C. McGuigan",
        "col1": "Toronto",
        "col2": "Canadians",
        "col3": "1894-11-26",
        "col4": "1974-04-08"
    },
    {
        "col0": "J. Sin",
        "col1": "Metro Manila",
        "col2": "Philippines",
        "col3": "1928-08-31",
        "col4": "2005-06-21"
    },
    {
        "col0": "I. o. Kiev",
        "col1": "Rome",
        "col2": "Greece",
        "col3": "1385-1-1",
        "col4": "1463-04-27"
    },
    {
        "col0": "I. Ferrieri",
        "col1": "Rome",
        "col2": "Italy",
        "col3": "1810-9-14",
        "col4": "1887-1-13"
    },
    {
        "col0": "I. Masotti",
        "col1": "Rome",
        "col2": "Italy",
        "col3": "1817-1-16",
        "col4": "1888-10-31"
    },
    {
        "col0": "I. K. Pin-Mei",
        "col1": "Stamford, Connecticut",
        "col2": "China",
        "col3": "1901-08-02",
        "col4": "2000-03-12"
    },
    {
        "col0": "H. Vaughan",
        "col1": "Middlesex",
        "col2": "United Kingdom",
        "col3": "1832-04-15",
        "col4": "1903-06-19"
    },
    {
        "col0": "H. d. Lubac",
        "col1": "Paris",
        "col2": "France",
        "col3": "1896-02-20",
        "col4": "1991-09-04"
    },
    {
        "col0": "H. H. Groer",
        "col1": "Sankt Polten",
        "col2": "Austria",
        "col3": "1919-10-13",
        "col4": "2003-03-24"
    }
]