[
    {
        "col0": "3771 Alexejtolstoj",
        "col1": "1974-09-20",
        "col2": "276696221646",
        "col3": "14"
    },
    {
        "col0": "376 Geometria",
        "col1": "1893-09-18",
        "col2": "283296479702",
        "col3": "9"
    },
    {
        "col0": "37655 Illapa",
        "col1": "1994-08-01",
        "col2": "54758804591",
        "col3": "17"
    },
    {
        "col0": "375 Ursula",
        "col1": "1893-09-18",
        "col2": "417228461382",
        "col3": "7"
    },
    {
        "col0": "3757 Anagolay",
        "col1": "1982-12-14",
        "col2": "152170954076",
        "col3": "18"
    },
    {
        "col0": "3754 Kathleen",
        "col1": "1931-03-16",
        "col2": "421267603891",
        "col3": "10"
    },
    {
        "col0": "3753 Cruithne",
        "col1": "1986-10-10",
        "col2": "72402377461",
        "col3": "15"
    },
    {
        "col0": "3752 Camillo",
        "col1": "1985-08-15",
        "col2": "147657586317",
        "col3": "15"
    },
    {
        "col0": "374 Burgundia",
        "col1": "1893-09-18",
        "col2": "382461916231",
        "col3": "8"
    },
    {
        "col0": "3749 Balam",
        "col1": "1982-01-24",
        "col2": "297939119286",
        "col3": "13"
    },
    {
        "col0": "37432 Piszkesteto",
        "col1": "2002-01-11",
        "col2": "296233703560",
        "col3": "15"
    },
    {
        "col0": "373 Melusina",
        "col1": "1893-09-15",
        "col2": "399997778635",
        "col3": "9"
    },
    {
        "col0": "3737 Beckman",
        "col1": "1983-08-08",
        "col2": "217178319834",
        "col3": "12"
    },
    {
        "col0": "372 Palma",
        "col1": "1893-08-19",
        "col2": "349049231810",
        "col3": "7"
    },
    {
        "col0": "3728 IRAS",
        "col1": "1983-08-23",
        "col2": "311911560409",
        "col3": "11"
    },
    {
        "col0": "3724 Annenskij",
        "col1": "1979-12-23",
        "col2": "345141391352",
        "col3": "11"
    },
    {
        "col0": "371 Bohemia",
        "col1": "1893-07-16",
        "col2": "381619680219",
        "col3": "8"
    },
    {
        "col0": "3710 Bogoslovskij",
        "col1": "1978-09-13",
        "col2": "343357032830",
        "col3": "12"
    },
    {
        "col0": "370 Modestia",
        "col1": "1893-07-14",
        "col2": "316193051468",
        "col3": "10"
    },
    {
        "col0": "3709 Polypoites",
        "col1": "1985-10-14",
        "col2": "737188387235",
        "col3": "9"
    },
    {
        "col0": "3703 Volkonskaya",
        "col1": "1978-08-09",
        "col2": "302277457536",
        "col3": "14"
    },
    {
        "col0": "37022 Robertovittori",
        "col1": "2000-10-22",
        "col2": "396875536435",
        "col3": "14"
    },
    {
        "col0": "3700 Geowilliams",
        "col1": "1984-10-23",
        "col2": "279805553550",
        "col3": "12"
    },
    {
        "col0": "36 Atalante",
        "col1": "1855-10-05",
        "col2": "286217000000",
        "col3": "8"
    },
    {
        "col0": "369 Aeria",
        "col1": "1893-07-04",
        "col2": "357658589269",
        "col3": "8"
    },
    {
        "col0": "3697 Guyhurst",
        "col1": "1984-03-06",
        "col2": "338952557361",
        "col3": "13"
    },
    {
        "col0": "3691 Bede",
        "col1": "1982-03-29",
        "col2": "190038489389",
        "col3": "14"
    },
    {
        "col0": "368 Haidea",
        "col1": "1893-05-19",
        "col2": "367921003199",
        "col3": "9"
    },
    {
        "col0": "3689 Yeates",
        "col1": "1981-05-05",
        "col2": "394495179996",
        "col3": "12"
    },
    {
        "col0": "3688 Navajo",
        "col1": "1981-03-30",
        "col2": "251161361096",
        "col3": "14"
    },
    {
        "col0": "3687 Dzus",
        "col1": "1908-10-07",
        "col2": "326392634293",
        "col3": "11"
    },
    {
        "col0": "3682 Welther",
        "col1": "1923-07-12",
        "col2": "279480238020",
        "col3": "11"
    },
    {
        "col0": "367 Amicitia",
        "col1": "1893-05-19",
        "col2": "300317725430",
        "col3": "10"
    },
    {
        "col0": "367943 Duende",
        "col1": "2012-02-23",
        "col2": "124004666980",
        "col3": "24"
    },
    {
        "col0": "3674 Erbisbuhl",
        "col1": "1963-09-13",
        "col2": "220372623328",
        "col3": "12"
    },
    {
        "col0": "3673 Levy",
        "col1": "1985-08-22",
        "col2": "286270485371",
        "col3": "12"
    },
    {
        "col0": "3671 Dionysus",
        "col1": "1984-05-27",
        "col2": "150832857969",
        "col3": "16"
    },
    {
        "col0": "366 Vincentina",
        "col1": "1893-03-21",
        "col2": "444307171957",
        "col3": "8"
    },
    {
        "col0": "3669 Vertinskij",
        "col1": "1982-10-21",
        "col2": "307964270993",
        "col3": "13"
    },
    {
        "col0": "365 Corduba",
        "col1": "1893-03-21",
        "col2": "353167661191",
        "col3": "9"
    },
    {
        "col0": "36446 Cinodapistoia",
        "col1": "2000-08-22",
        "col2": "296054186115",
        "col3": "15"
    },
    {
        "col0": "3642 Frieden",
        "col1": "1953-12-04",
        "col2": "382671353250",
        "col3": "11"
    },
    {
        "col0": "3640 Gostin",
        "col1": "1985-10-11",
        "col2": "304150751992",
        "col3": "12"
    },
    {
        "col0": "363 Padua",
        "col1": "1893-03-17",
        "col2": "382536715166",
        "col3": "9"
    },
    {
        "col0": "3635 Kreutz",
        "col1": "1981-11-21",
        "col2": "245816019739",
        "col3": "14"
    },
    {
        "col0": "362 Havnia",
        "col1": "1893-03-12",
        "col2": "369182113249",
        "col3": "9"
    },
    {
        "col0": "3628 Boznemcova",
        "col1": "1979-11-25",
        "col2": "266134611975",
        "col3": "12"
    },
    {
        "col0": "361 Bononia",
        "col1": "1893-03-11",
        "col2": "465669747893",
        "col3": "8"
    },
    {
        "col0": "360 Carlova",
        "col1": "1893-03-11",
        "col2": "369218016738",
        "col3": "8"
    },
    {
        "col0": "35 Leukothea",
        "col1": "1855-04-19",
        "col2": "345074000000",
        "col3": "8"
    },
    {
        "col0": "359 Georgia",
        "col1": "1893-03-10",
        "col2": "344060142822",
        "col3": "8"
    },
    {
        "col0": "3596 Meriones",
        "col1": "1985-11-14",
        "col2": "716088654758",
        "col3": "9"
    },
    {
        "col0": "358 Apollonia",
        "col1": "1893-03-08",
        "col2": "364415925089",
        "col3": "9"
    },
    {
        "col0": "3581 Alvarez",
        "col1": "1985-04-23",
        "col2": "246191360797",
        "col3": "12"
    },
    {
        "col0": "357 Ninina",
        "col1": "1893-02-11",
        "col2": "437232688652",
        "col3": "8"
    },
    {
        "col0": "3578 Carestia",
        "col1": "1977-02-11",
        "col2": "380696661357",
        "col3": "10"
    },
    {
        "col0": "356 Liguria",
        "col1": "1893-01-21",
        "col2": "314726992336",
        "col3": "8"
    },
    {
        "col0": "3568 ASCII",
        "col1": "1936-10-17",
        "col2": "357310370305",
        "col3": "11"
    },
    {
        "col0": "3567 Alvema",
        "col1": "1930-11-15",
        "col2": "287153112808",
        "col3": "12"
    },
    {
        "col0": "3564 Talthybius",
        "col1": "1985-10-15",
        "col2": "747132157700",
        "col3": "9"
    },
    {
        "col0": "3563 Canterbury",
        "col1": "1985-03-23",
        "col2": "342055531355",
        "col3": "12"
    },
    {
        "col0": "355 Gabriella",
        "col1": "1893-01-20",
        "col2": "339109949281",
        "col3": "10"
    },
    {
        "col0": "3554 Amun",
        "col1": "1986-03-04",
        "col2": "104804977059",
        "col3": "15"
    },
    {
        "col0": "3553 Mera",
        "col1": "1985-05-14",
        "col2": "167258710592",
        "col3": "16"
    },
    {
        "col0": "3552 Don Quixote",
        "col1": "1983-09-26",
        "col2": "182569241402",
        "col3": "12"
    },
    {
        "col0": "3551 Verenia",
        "col1": "1983-09-12",
        "col2": "160337501837",
        "col3": "16"
    },
    {
        "col0": "354 Eleonora",
        "col1": "1893-01-17",
        "col2": "370518022234",
        "col3": "6"
    },
    {
        "col0": "3548 Eurybates",
        "col1": "1973-09-19",
        "col2": "706900802333",
        "col3": "9"
    },
    {
        "col0": "3544 Borodino",
        "col1": "1977-09-07",
        "col2": "279598420338",
        "col3": "12"
    },
    {
        "col0": "3540 Protesilaos",
        "col1": "1973-10-27",
        "col2": "695764736838",
        "col3": "9"
    },
    {
        "col0": "353 Ruperto-Carola",
        "col1": "1893-01-16",
        "col2": "275433615618",
        "col3": "11"
    },
    {
        "col0": "3537 Jurgen",
        "col1": "1982-11-15",
        "col2": "326243036422",
        "col3": "12"
    },
    {
        "col0": "352 Gisela",
        "col1": "1893-01-12",
        "col2": "279200490002",
        "col3": "10"
    },
    {
        "col0": "3529 Dowling",
        "col1": "1981-03-02",
        "col2": "290474185538",
        "col3": "14"
    },
    {
        "col0": "351 Yrsa",
        "col1": "1892-12-16",
        "col2": "350824958535",
        "col3": "8"
    },
    {
        "col0": "350 Ornamenta",
        "col1": "1892-12-14",
        "col2": "390996474755",
        "col3": "8"
    },
    {
        "col0": "34 Circe",
        "col1": "1855-04-06",
        "col2": "359966884414",
        "col3": "8"
    },
    {
        "col0": "349 Dembowska",
        "col1": "1892-12-09",
        "col2": "397384303833",
        "col3": "5"
    },
    {
        "col0": "3494 Purple Mountain",
        "col1": "1980-12-07",
        "col2": "305568610691",
        "col3": "12"
    },
    {
        "col0": "348 May",
        "col1": "1892-11-28",
        "col2": "414264927563",
        "col3": "9"
    },
    {
        "col0": "347 Pariana",
        "col1": "1892-11-28",
        "col2": "325394816495",
        "col3": "8"
    },
    {
        "col0": "346 Hermentaria",
        "col1": "1892-11-25",
        "col2": "376153374024",
        "col3": "7"
    },
    {
        "col0": "345 Tercidina",
        "col1": "1892-11-23",
        "col2": "326627502950",
        "col3": "8"
    },
    {
        "col0": "3451 Mentor",
        "col1": "1984-04-19",
        "col2": "713192888775",
        "col3": "8"
    },
    {
        "col0": "344 Desiderata",
        "col1": "1892-11-15",
        "col2": "266858665669",
        "col3": "8"
    },
    {
        "col0": "343 Ostara",
        "col1": "1892-11-15",
        "col2": "278235583736",
        "col3": "11"
    },
    {
        "col0": "34351 Decatur",
        "col1": "2000-09-03",
        "col2": "409898165718",
        "col3": "14"
    },
    {
        "col0": "3430 Bradfield",
        "col1": "1980-10-09",
        "col2": "372427160341",
        "col3": "12"
    },
    {
        "col0": "342 Endymion",
        "col1": "1892-10-17",
        "col2": "335217412685",
        "col3": "10"
    },
    {
        "col0": "3428 Roberts",
        "col1": "1952-05-01",
        "col2": "332235927122",
        "col3": "12"
    },
    {
        "col0": "342843 Davidbowie",
        "col1": "2008-12-21",
        "col2": "374593068232",
        "col3": "17"
    },
    {
        "col0": "3425 Hurukawa",
        "col1": "1929-01-29",
        "col2": "410930391025",
        "col3": "10"
    },
    {
        "col0": "341 California",
        "col1": "1892-09-25",
        "col2": "265067979157",
        "col3": "10"
    },
    {
        "col0": "341520 Mors-Somnus",
        "col1": "2007-10-14",
        "col2": "4314402590988",
        "col3": "6"
    },
    {
        "col0": "3412 Kafka",
        "col1": "1983-01-10",
        "col2": "298313113962",
        "col3": "13"
    },
    {
        "col0": "340 Eduarda",
        "col1": "1892-09-25",
        "col2": "363826509478",
        "col3": "9"
    },
    {
        "col0": "3409 Abramov",
        "col1": "1977-09-09",
        "col2": "391602346131",
        "col3": "12"
    },
    {
        "col0": "3406 Omsk",
        "col1": "1969-02-21",
        "col2": "363044112614",
        "col3": "11"
    },
    {
        "col0": "3402 Wisdom",
        "col1": "1981-08-05",
        "col2": "229641976672",
        "col3": "15"
    },
    {
        "col0": "3401 Vanphilos",
        "col1": "1981-08-01",
        "col2": "226682885911",
        "col3": "12"
    },
    {
        "col0": "33 Polyhymnia",
        "col1": "1854-10-28",
        "col2": "284409487860",
        "col3": "8"
    },
    {
        "col0": "339 Dorothea",
        "col1": "1892-09-25",
        "col2": "406811961645",
        "col3": "9"
    },
    {
        "col0": "3391 Sinon",
        "col1": "1977-02-18",
        "col2": "727853480103",
        "col3": "10"
    },
    {
        "col0": "338 Budrosa",
        "col1": "1892-09-25",
        "col2": "425963481052",
        "col3": "8"
    },
    {
        "col0": "337 Devosa",
        "col1": "1892-09-22",
        "col2": "307492439309",
        "col3": "8"
    },
    {
        "col0": "336 Lacadiera",
        "col1": "1892-09-19",
        "col2": "304775741977",
        "col3": "9"
    },
    {
        "col0": "3367 Alex",
        "col1": "1983-02-15",
        "col2": "387563203622",
        "col3": "12"
    },
    {
        "col0": "3362 Khufu",
        "col1": "1984-08-30",
        "col2": "78672024222",
        "col3": "18"
    },
    {
        "col0": "3361 Orpheus",
        "col1": "1982-04-24",
        "col2": "122510184252",
        "col3": "19"
    },
    {
        "col0": "3360 Syrinx",
        "col1": "1981-11-04",
        "col2": "93933998991",
        "col3": "15"
    },
    {
        "col0": "335 Roberta",
        "col1": "1892-09-01",
        "col2": "306564932510",
        "col3": "8"
    },
    {
        "col0": "3353 Jarvis",
        "col1": "1981-12-20",
        "col2": "255114021076",
        "col3": "13"
    },
    {
        "col0": "3351 Smith",
        "col1": "1980-09-07",
        "col2": "331820419036",
        "col3": "12"
    },
    {
        "col0": "3350 Scobee",
        "col1": "1980-08-08",
        "col2": "274603347435",
        "col3": "14"
    },
    {
        "col0": "334 Chicago",
        "col1": "1892-08-23",
        "col2": "569689635327",
        "col3": "7"
    },
    {
        "col0": "3345 Tarkovskij",
        "col1": "1982-12-23",
        "col2": "299524856715",
        "col3": "11"
    },
    {
        "col0": "3343 Nedzel",
        "col1": "1982-04-28",
        "col2": "242061906053",
        "col3": "13"
    },
    {
        "col0": "333 Badenia",
        "col1": "1892-08-22",
        "col2": "393677268597",
        "col3": "9"
    },
    {
        "col0": "3333 Schaber",
        "col1": "1980-10-09",
        "col2": "363214654187",
        "col3": "11"
    },
    {
        "col0": "332 Siri",
        "col1": "1892-03-19",
        "col2": "378018859471",
        "col3": "9"
    },
    {
        "col0": "3325 TARDIS",
        "col1": "1984-05-03",
        "col2": "469662515062",
        "col3": "11"
    },
    {
        "col0": "3322 Lidiya",
        "col1": "1975-12-01",
        "col2": "280321097732",
        "col3": "12"
    },
    {
        "col0": "331 Etheridgea",
        "col1": "1892-04-01",
        "col2": "406988487132",
        "col3": "9"
    },
    {
        "col0": "3318 Blixen",
        "col1": "1985-04-23",
        "col2": "427864869989",
        "col3": "11"
    },
    {
        "col0": "3317 Paris",
        "col1": "1984-05-26",
        "col2": "682854440597",
        "col3": "8"
    },
    {
        "col0": "330 Adalberta",
        "col1": "1910-02-02",
        "col2": "275663996338",
        "col3": "12"
    },
    {
        "col0": "32 Pomona",
        "col1": "1854-10-26",
        "col2": "354967000000",
        "col3": "7"
    },
    {
        "col0": "329 Svea",
        "col1": "1892-03-21",
        "col2": "361169651294",
        "col3": "9"
    },
    {
        "col0": "3290 Azabu",
        "col1": "1973-09-19",
        "col2": "517657012573",
        "col3": "12"
    },
    {
        "col0": "328 Gudrun",
        "col1": "1892-03-18",
        "col2": "416070573863",
        "col3": "8"
    },
    {
        "col0": "3288 Seleucus",
        "col1": "1982-02-28",
        "col2": "165370823172",
        "col3": "15"
    },
    {
        "col0": "3281 Maupertuis",
        "col1": "1938-02-24",
        "col2": "317255136511",
        "col3": "12"
    },
    {
        "col0": "327 Columbia",
        "col1": "1892-03-22",
        "col2": "389446640814",
        "col3": "10"
    },
    {
        "col0": "3277 Aaronson",
        "col1": "1984-01-08",
        "col2": "342579123903",
        "col3": "11"
    },
    {
        "col0": "326 Tamara",
        "col1": "1892-03-19",
        "col2": "280890945941",
        "col3": "9"
    },
    {
        "col0": "3267 Glo",
        "col1": "1981-01-03",
        "col2": "245809512232",
        "col3": "12"
    },
    {
        "col0": "325 Heidelberga",
        "col1": "1892-03-04",
        "col2": "403911258932",
        "col3": "8"
    },
    {
        "col0": "3255 Tholen",
        "col1": "1980-09-02",
        "col2": "225683347738",
        "col3": "13"
    },
    {
        "col0": "324 Bamberga",
        "col1": "1892-02-25",
        "col2": "264822638649",
        "col3": "6"
    },
    {
        "col0": "3247 Di Martino",
        "col1": "1981-12-30",
        "col2": "309911317199",
        "col3": "13"
    },
    {
        "col0": "3240 Laocoon",
        "col1": "1978-11-07",
        "col2": "684589775897",
        "col3": "10"
    },
    {
        "col0": "323 Brucia",
        "col1": "1891-12-22",
        "col2": "249215092799",
        "col3": "9"
    },
    {
        "col0": "322 Phaeo",
        "col1": "1891-11-27",
        "col2": "313636423858",
        "col3": "9"
    },
    {
        "col0": "3225 Hoag",
        "col1": "1982-08-20",
        "col2": "266278225931",
        "col3": "13"
    },
    {
        "col0": "32226 Vikulgupta",
        "col1": "2000-07-23",
        "col2": "308455849596",
        "col3": "14"
    },
    {
        "col0": "321 Florentina",
        "col1": "1891-10-15",
        "col2": "412037415269",
        "col3": "10"
    },
    {
        "col0": "32145 Katberman",
        "col1": "2000-06-07",
        "col2": "297699762693",
        "col3": "14"
    },
    {
        "col0": "3212 Agricola",
        "col1": "1938-02-19",
        "col2": "286390163668",
        "col3": "13"
    },
    {
        "col0": "320 Katharina",
        "col1": "1891-10-11",
        "col2": "397855537126",
        "col3": "10"
    },
    {
        "col0": "3204 Lindgren",
        "col1": "1978-09-01",
        "col2": "340439874351",
        "col3": "12"
    },
    {
        "col0": "3202 Graff",
        "col1": "1908-01-03",
        "col2": "521064343435",
        "col3": "10"
    },
    {
        "col0": "3201 Sijthoff",
        "col1": "1960-09-24",
        "col2": "308246203140",
        "col3": "13"
    },
    {
        "col0": "3200 Phaethon",
        "col1": "1983-10-11",
        "col2": "20942220879",
        "col3": "14"
    },
    {
        "col0": "32008 Adriangalad",
        "col1": "2000-04-29",
        "col2": "264593753907",
        "col3": "14"
    },
    {
        "col0": "31 Euphrosyne",
        "col1": "1854-09-01",
        "col2": "364719608766",
        "col3": "6"
    },
    {
        "col0": "319 Leona",
        "col1": "1891-10-08",
        "col2": "398738164563",
        "col3": "10"
    },
    {
        "col0": "3199 Nefertiti",
        "col1": "1982-09-13",
        "col2": "168625072476",
        "col3": "14"
    },
    {
        "col0": "3198 Wallonia",
        "col1": "1981-12-30",
        "col2": "248503096693",
        "col3": "13"
    },
    {
        "col0": "3192 A'Hearn",
        "col1": "1982-01-30",
        "col2": "295560513141",
        "col3": "13"
    },
    {
        "col0": "318 Magdalena",
        "col1": "1891-09-24",
        "col2": "437005299888",
        "col3": "9"
    },
    {
        "col0": "3184 Raab",
        "col1": "1949-08-22",
        "col2": "293369278330",
        "col3": "12"
    },
    {
        "col0": "3181 Ahnert",
        "col1": "1964-03-08",
        "col2": "311806841900",
        "col3": "12"
    },
    {
        "col0": "317 Roxane",
        "col1": "1891-09-11",
        "col2": "312674509550",
        "col3": "10"
    },
    {
        "col0": "3176 Paolicchi",
        "col1": "1980-11-13",
        "col2": "417452858188",
        "col3": "11"
    },
    {
        "col0": "3174 Alcock",
        "col1": "1984-10-26",
        "col2": "388595428930",
        "col3": "11"
    },
    {
        "col0": "316 Goberta",
        "col1": "1891-09-08",
        "col2": "410765833368",
        "col3": "10"
    },
    {
        "col0": "3169 Ostro",
        "col1": "1981-06-04",
        "col2": "264130000507",
        "col3": "12"
    },
    {
        "col0": "31641 Cevasco",
        "col1": "1999-04-06",
        "col2": "317626199070",
        "col3": "14"
    },
    {
        "col0": "315 Constantia",
        "col1": "1891-09-04",
        "col2": "278597610583",
        "col3": "12"
    },
    {
        "col0": "314 Rosalia",
        "col1": "1891-09-01",
        "col2": "388415911485",
        "col3": "10"
    },
    {
        "col0": "313 Chaldaea",
        "col1": "1891-08-30",
        "col2": "291057617233",
        "col3": "8"
    },
    {
        "col0": "3137 Horky",
        "col1": "1982-09-16",
        "col2": "291162335743",
        "col3": "13"
    },
    {
        "col0": "3133 Sendai",
        "col1": "1907-10-04",
        "col2": "273734183806",
        "col3": "12"
    }
]