[
    {
        "col0": "Arusha",
        "col1": "1387",
        "col2": "27",
        "col3": "3"
    },
    {
        "col0": "Mosul",
        "col1": "223",
        "col2": "60",
        "col3": "3"
    },
    {
        "col0": "Pelham, Georgia",
        "col1": "110",
        "col2": "229",
        "col3": "-4"
    },
    {
        "col0": "Tanjung Pinang",
        "col1": "18",
        "col2": "+62 771",
        "col3": "7"
    },
    {
        "col0": "Serang",
        "col1": "39",
        "col2": "+62 254",
        "col3": "7"
    },
    {
        "col0": "Yuzhne",
        "col1": "34",
        "col2": "+380-4842",
        "col3": "2"
    },
    {
        "col0": "Ganderbal district",
        "col1": "1616",
        "col2": "1942",
        "col3": "+5:30"
    },
    {
        "col0": "Kodarma",
        "col1": "397",
        "col2": "6534",
        "col3": "+5:30"
    },
    {
        "col0": "Szolnok",
        "col1": "68",
        "col2": "56",
        "col3": "1"
    },
    {
        "col0": "Szekszard",
        "col1": "83",
        "col2": "74",
        "col3": "1"
    },
    {
        "col0": "Szekesfehervar",
        "col1": "118",
        "col2": "22",
        "col3": "1"
    },
    {
        "col0": "Veszprem",
        "col1": "266",
        "col2": "88",
        "col3": "1"
    },
    {
        "col0": "Tatabanya",
        "col1": "167",
        "col2": "34",
        "col3": "1"
    },
    {
        "col0": "Godollo",
        "col1": "207",
        "col2": "28",
        "col3": "1"
    },
    {
        "col0": "Salgotarjan",
        "col1": "299",
        "col2": "32",
        "col3": "1"
    },
    {
        "col0": "Eger",
        "col1": "165",
        "col2": "36",
        "col3": "1"
    },
    {
        "col0": "Nyiregyhaza",
        "col1": "116",
        "col2": "42",
        "col3": "1"
    },
    {
        "col0": "Debrecen",
        "col1": "121",
        "col2": "52",
        "col3": "2"
    },
    {
        "col0": "Bekescsaba",
        "col1": "89",
        "col2": "66",
        "col3": "1"
    },
    {
        "col0": "Szeged",
        "col1": "75",
        "col2": "62",
        "col3": "1"
    },
    {
        "col0": "Kecskemet",
        "col1": "105",
        "col2": "76",
        "col3": "1"
    },
    {
        "col0": "Pecs",
        "col1": "153",
        "col2": "72",
        "col3": "1"
    },
    {
        "col0": "Kaposvar",
        "col1": "153",
        "col2": "82",
        "col3": "1"
    },
    {
        "col0": "Zalaegerszeg",
        "col1": "166",
        "col2": "92",
        "col3": "1"
    },
    {
        "col0": "Szombathely",
        "col1": "209",
        "col2": "94",
        "col3": "1"
    },
    {
        "col0": "Gyor",
        "col1": "108",
        "col2": "96",
        "col3": "1"
    },
    {
        "col0": "Kaohsiung",
        "col1": "9",
        "col2": "(0)7",
        "col3": "8"
    }
]