[
    {
        "col0": "Shishmaref, Alaska",
        "col1": "4",
        "col2": "907",
        "col3": "-8"
    },
    {
        "col0": "Agcab@di",
        "col1": "16",
        "col2": "+994 113",
        "col3": "4"
    },
    {
        "col0": "Shaktoolik, Alaska",
        "col1": "7",
        "col2": "907",
        "col3": "-8"
    },
    {
        "col0": "Shageluk, Alaska",
        "col1": "18",
        "col2": "907",
        "col3": "-8"
    },
    {
        "col0": "Agdash, Azerbaijan",
        "col1": "40",
        "col2": "+994 193",
        "col3": "4"
    },
    {
        "col0": "Seward, Alaska",
        "col1": "0",
        "col2": "907",
        "col3": "-8"
    },
    {
        "col0": "Seldovia, Alaska",
        "col1": "15",
        "col2": "907",
        "col3": "-8"
    },
    {
        "col0": "Selawik, Alaska",
        "col1": "0",
        "col2": "907",
        "col3": "-8"
    },
    {
        "col0": "Agstafa",
        "col1": "340",
        "col2": "+992 244",
        "col3": "4"
    },
    {
        "col0": "Scammon Bay, Alaska",
        "col1": "4",
        "col2": "907",
        "col3": "-8"
    },
    {
        "col0": "Savoonga, Alaska",
        "col1": "0",
        "col2": "907",
        "col3": "-8"
    },
    {
        "col0": "Agsu Rayon",
        "col1": "680",
        "col2": "+994 198",
        "col3": "4"
    },
    {
        "col0": "Sand Point, Alaska",
        "col1": "11",
        "col2": "907",
        "col3": "-8"
    },
    {
        "col0": "St. Paul, Alaska",
        "col1": "7",
        "col2": "907",
        "col3": "-8"
    },
    {
        "col0": "St. Michael, Alaska",
        "col1": "7",
        "col2": "907",
        "col3": "-8"
    },
    {
        "col0": "St. George, Alaska",
        "col1": "60",
        "col2": "907",
        "col3": "-8"
    },
    {
        "col0": "Russian Mission, Alaska",
        "col1": "15",
        "col2": "907",
        "col3": "-8"
    },
    {
        "col0": "Ruby, Alaska",
        "col1": "75",
        "col2": "907",
        "col3": "-8"
    },
    {
        "col0": "Quinhagak, Alaska",
        "col1": "4",
        "col2": "907",
        "col3": "-8"
    },
    {
        "col0": "Prospect Creek, Alaska",
        "col1": "309",
        "col2": "907",
        "col3": "-8"
    },
    {
        "col0": "Portage Creek, Alaska",
        "col1": "12",
        "col2": "907",
        "col3": "-8"
    },
    {
        "col0": "Port Lions, Alaska",
        "col1": "29",
        "col2": "907",
        "col3": "-8"
    },
    {
        "col0": "Port Heiden, Alaska",
        "col1": "28",
        "col2": "907",
        "col3": "-8"
    },
    {
        "col0": "Port Clarence, Alaska",
        "col1": "4",
        "col2": "907",
        "col3": "-8"
    }
]