[
    {
        "col0": "Concrete, Washington",
        "col1": "84",
        "col2": "360",
        "col3": "-7"
    },
    {
        "col0": "Colville, Washington",
        "col1": "491",
        "col2": "509",
        "col3": "-7"
    },
    {
        "col0": "College Place, Washington",
        "col1": "242",
        "col2": "509",
        "col3": "-7"
    },
    {
        "col0": "Colfax, Washington",
        "col1": "601",
        "col2": "509",
        "col3": "-7"
    },
    {
        "col0": "Clyde Hill, Washington",
        "col1": "89",
        "col2": "425",
        "col3": "-7"
    },
    {
        "col0": "Cle Elum, Washington",
        "col1": "583",
        "col2": "509",
        "col3": "-7"
    },
    {
        "col0": "Clarkston, Washington",
        "col1": "245",
        "col2": "509",
        "col3": "-7"
    },
    {
        "col0": "Chinook, Washington",
        "col1": "3",
        "col2": "360",
        "col3": "-7"
    },
    {
        "col0": "Chewelah, Washington",
        "col1": "508",
        "col2": "509",
        "col3": "-7"
    },
    {
        "col0": "Cheney, Washington",
        "col1": "716",
        "col2": "509",
        "col3": "-7"
    },
    {
        "col0": "Chelan, Washington",
        "col1": "344",
        "col2": "509",
        "col3": "-7"
    },
    {
        "col0": "Chehalis, Washington",
        "col1": "74",
        "col2": "360",
        "col3": "-7"
    },
    {
        "col0": "Centralia, Washington",
        "col1": "56",
        "col2": "360",
        "col3": "-7"
    },
    {
        "col0": "Cathlamet, Washington",
        "col1": "24",
        "col2": "360",
        "col3": "-7"
    },
    {
        "col0": "Castle Rock, Washington",
        "col1": "17",
        "col2": "360",
        "col3": "-7"
    },
    {
        "col0": "Cashmere, Washington",
        "col1": "241",
        "col2": "509",
        "col3": "-7"
    },
    {
        "col0": "Carnation, Washington",
        "col1": "24",
        "col2": "425",
        "col3": "-7"
    },
    {
        "col0": "Camas, Washington",
        "col1": "22",
        "col2": "360",
        "col3": "-7"
    },
    {
        "col0": "Burlington, Washington",
        "col1": "9",
        "col2": "360",
        "col3": "-7"
    },
    {
        "col0": "Burien, Washington",
        "col1": "114",
        "col2": "206",
        "col3": "-7"
    },
    {
        "col0": "Burbank, Washington",
        "col1": "113",
        "col2": "509",
        "col3": "-7"
    },
    {
        "col0": "Buckley, Washington",
        "col1": "220",
        "col2": "360",
        "col3": "-7"
    },
    {
        "col0": "Brush Prairie, Washington",
        "col1": "92",
        "col2": "360",
        "col3": "-7"
    },
    {
        "col0": "Brier, Washington",
        "col1": "128",
        "col2": "425",
        "col3": "-7"
    },
    {
        "col0": "Bridgeport, Washington",
        "col1": "259",
        "col2": "509",
        "col3": "-7"
    },
    {
        "col0": "Brewster, Washington",
        "col1": "248",
        "col2": "509",
        "col3": "-7"
    },
    {
        "col0": "Bremerton, Washington",
        "col1": "11",
        "col2": "360",
        "col3": "-7"
    },
    {
        "col0": "Bothell, Washington",
        "col1": "22",
        "col2": "425",
        "col3": "-7"
    },
    {
        "col0": "Bonney Lake, Washington",
        "col1": "174",
        "col2": "253",
        "col3": "-7"
    },
    {
        "col0": "Blaine, Washington",
        "col1": "16",
        "col2": "360",
        "col3": "-7"
    },
    {
        "col0": "Black Diamond, Washington",
        "col1": "199",
        "col2": "360",
        "col3": "-7"
    },
    {
        "col0": "Bingen, Washington",
        "col1": "39",
        "col2": "509",
        "col3": "-7"
    },
    {
        "col0": "Benton City, Washington",
        "col1": "152",
        "col2": "509",
        "col3": "-7"
    },
    {
        "col0": "Bellingham, Washington",
        "col1": "21",
        "col2": "360",
        "col3": "-7"
    },
    {
        "col0": "Bellevue, Washington",
        "col1": "25",
        "col2": "425",
        "col3": "-7"
    },
    {
        "col0": "Battle Ground, Washington",
        "col1": "89",
        "col2": "360",
        "col3": "-7"
    },
    {
        "col0": "Basin City, Washington",
        "col1": "213",
        "col2": "509",
        "col3": "-7"
    },
    {
        "col0": "Auburn, Washington",
        "col1": "25",
        "col2": "253",
        "col3": "-7"
    },
    {
        "col0": "Asotin, Washington",
        "col1": "244",
        "col2": "509",
        "col3": "-7"
    },
    {
        "col0": "Arlington, Washington",
        "col1": "35",
        "col2": "360",
        "col3": "-7"
    },
    {
        "col0": "Anacortes, Washington",
        "col1": "7",
        "col2": "360",
        "col3": "-7"
    },
    {
        "col0": "Almira, Washington",
        "col1": "584",
        "col2": "509",
        "col3": "-7"
    },
    {
        "col0": "Algona, Washington",
        "col1": "24",
        "col2": "253",
        "col3": "-7"
    },
    {
        "col0": "Airway Heights, Washington",
        "col1": "730",
        "col2": "509",
        "col3": "-7"
    },
    {
        "col0": "Aberdeen, Washington",
        "col1": "7",
        "col2": "360",
        "col3": "-7"
    },
    {
        "col0": "Woods Cross, Utah",
        "col1": "1334",
        "col2": "385, 801",
        "col3": "-6"
    },
    {
        "col0": "Woodruff, Utah",
        "col1": "1932",
        "col2": "435",
        "col3": "-6"
    },
    {
        "col0": "Woodland Hills, Utah",
        "col1": "1624",
        "col2": "385801",
        "col3": "-6"
    },
    {
        "col0": "Willard, Utah",
        "col1": "1325",
        "col2": "435",
        "col3": "-6"
    },
    {
        "col0": "West Valley City, Utah",
        "col1": "1311",
        "col2": "385, 801",
        "col3": "-6"
    },
    {
        "col0": "West Point, Utah",
        "col1": "1314",
        "col2": "385, 801",
        "col3": "-6"
    },
    {
        "col0": "West Jordan, Utah",
        "col1": "1332",
        "col2": "385, 801",
        "col3": "-6"
    },
    {
        "col0": "West Haven, Utah",
        "col1": "1302",
        "col2": "385, 801",
        "col3": "-6"
    },
    {
        "col0": "West Bountiful, Utah",
        "col1": "1300",
        "col2": "385, 801",
        "col3": "-6"
    },
    {
        "col0": "Wendover, Utah",
        "col1": "1307",
        "col2": "435",
        "col3": "-6"
    },
    {
        "col0": "Washington Terrace, Utah",
        "col1": "1405",
        "col2": "385, 801",
        "col3": "-6"
    },
    {
        "col0": "Vernon, Utah",
        "col1": "1680",
        "col2": "435",
        "col3": "-6"
    },
    {
        "col0": "Vernal, Utah",
        "col1": "1623",
        "col2": "435",
        "col3": "-6"
    },
    {
        "col0": "Uintah, Utah",
        "col1": "1382",
        "col2": "385, 801",
        "col3": "-6"
    },
    {
        "col0": "Tremonton, Utah",
        "col1": "1317",
        "col2": "435",
        "col3": "-6"
    },
    {
        "col0": "Tooele, Utah",
        "col1": "1537",
        "col2": "435",
        "col3": "-6"
    },
    {
        "col0": "Taylorsville, Utah",
        "col1": "1309",
        "col2": "385, 801",
        "col3": "-6"
    },
    {
        "col0": "Tabiona, Utah",
        "col1": "1986",
        "col2": "435",
        "col3": "-6"
    },
    {
        "col0": "Syracuse, Utah",
        "col1": "1306",
        "col2": "385, 801",
        "col3": "-6"
    },
    {
        "col0": "Sunset, Utah",
        "col1": "1374",
        "col2": "385, 801",
        "col3": "-6"
    },
    {
        "col0": "Stockton, Utah",
        "col1": "1559",
        "col2": "435",
        "col3": "-6"
    },
    {
        "col0": "Springville, Utah",
        "col1": "1395",
        "col2": "385, 801",
        "col3": "-6"
    },
    {
        "col0": "Spanish Fork, Utah",
        "col1": "1395",
        "col2": "385, 801",
        "col3": "-6"
    },
    {
        "col0": "South Weber, Utah",
        "col1": "1374",
        "col2": "385, 801",
        "col3": "-6"
    },
    {
        "col0": "South Salt Lake, Utah",
        "col1": "1296",
        "col2": "385, 801",
        "col3": "-6"
    },
    {
        "col0": "South Ogden, Utah",
        "col1": "1356",
        "col2": "385, 801",
        "col3": "-6"
    },
    {
        "col0": "South Jordan, Utah",
        "col1": "1353",
        "col2": "385, 801",
        "col3": "-6"
    },
    {
        "col0": "Snowville, Utah",
        "col1": "1385",
        "col2": "435",
        "col3": "-6"
    },
    {
        "col0": "Smithfield, Utah",
        "col1": "1402",
        "col2": "435",
        "col3": "-6"
    },
    {
        "col0": "Saratoga Springs, Utah",
        "col1": "1373",
        "col2": "385, 801",
        "col3": "-6"
    },
    {
        "col0": "Sandy, Utah",
        "col1": "1356",
        "col2": "385, 801",
        "col3": "-6"
    },
    {
        "col0": "Salt Lake City",
        "col1": "1288",
        "col2": "385, 801",
        "col3": "-6"
    },
    {
        "col0": "Rush Valley, Utah",
        "col1": "1537",
        "col2": "435",
        "col3": "-6"
    },
    {
        "col0": "Roy, Utah",
        "col1": "1384",
        "col2": "385, 801",
        "col3": "-6"
    },
    {
        "col0": "Roosevelt, Utah",
        "col1": "1552",
        "col2": "435",
        "col3": "-6"
    },
    {
        "col0": "Riverton, Utah",
        "col1": "1353",
        "col2": "385, 801",
        "col3": "-6"
    },
    {
        "col0": "Riverdale, Utah",
        "col1": "1331",
        "col2": "385, 801",
        "col3": "-6"
    },
    {
        "col0": "River Heights, Utah",
        "col1": "1395",
        "col2": "435",
        "col3": "-6"
    },
    {
        "col0": "Richmond, Utah",
        "col1": "1405",
        "col2": "435",
        "col3": "-6"
    },
    {
        "col0": "Randolph, Utah",
        "col1": "1915",
        "col2": "435",
        "col3": "-6"
    },
    {
        "col0": "Randlett, Utah",
        "col1": "1467",
        "col2": "435",
        "col3": "-6"
    },
    {
        "col0": "Provo, Utah",
        "col1": "1387",
        "col2": "385, 801",
        "col3": "-6"
    },
    {
        "col0": "Providence, Utah",
        "col1": "1400",
        "col2": "435",
        "col3": "-6"
    },
    {
        "col0": "Pleasant View, Utah",
        "col1": "1341",
        "col2": "385, 801",
        "col3": "-6"
    },
    {
        "col0": "Pleasant Grove, Utah",
        "col1": "1409",
        "col2": "385, 801",
        "col3": "-6"
    },
    {
        "col0": "Plain City, Utah",
        "col1": "1292",
        "col2": "385, 801",
        "col3": "-6"
    },
    {
        "col0": "Perry, Utah",
        "col1": "1331",
        "col2": "435",
        "col3": "-6"
    },
    {
        "col0": "Payson, Utah",
        "col1": "1418",
        "col2": "385, 801",
        "col3": "-6"
    },
    {
        "col0": "Park City, Utah",
        "col1": "2133",
        "col2": "435",
        "col3": "-6"
    },
    {
        "col0": "Ouray, Utah",
        "col1": "1424",
        "col2": "435",
        "col3": "-6"
    },
    {
        "col0": "Orem, Utah",
        "col1": "1455",
        "col2": "385, 801",
        "col3": "-6"
    },
    {
        "col0": "Ogden, Utah",
        "col1": "1310",
        "col2": "385, 801",
        "col3": "-6"
    },
    {
        "col0": "Oakley, Utah",
        "col1": "1961",
        "col2": "435",
        "col3": "-6"
    },
    {
        "col0": "North Salt Lake, Utah",
        "col1": "1321",
        "col2": "385, 801",
        "col3": "-6"
    },
    {
        "col0": "North Ogden, Utah",
        "col1": "1371",
        "col2": "385, 801",
        "col3": "-6"
    },
    {
        "col0": "North Logan, Utah",
        "col1": "1430",
        "col2": "435",
        "col3": "-6"
    },
    {
        "col0": "Nibley, Utah",
        "col1": "1388",
        "col2": "435",
        "col3": "-6"
    },
    {
        "col0": "Naples, Utah",
        "col1": "1594",
        "col2": "435",
        "col3": "-6"
    },
    {
        "col0": "Myton, Utah",
        "col1": "1549",
        "col2": "435",
        "col3": "-6"
    },
    {
        "col0": "Murray, Utah",
        "col1": "1310",
        "col2": "385, 801",
        "col3": "-6"
    },
    {
        "col0": "Morgan, Utah",
        "col1": "1545",
        "col2": "385, 801",
        "col3": "-6"
    },
    {
        "col0": "Millville, Utah",
        "col1": "1406",
        "col2": "435",
        "col3": "-6"
    },
    {
        "col0": "Midway, Utah",
        "col1": "1702",
        "col2": "435",
        "col3": "-6"
    },
    {
        "col0": "Midvale, Utah",
        "col1": "1335",
        "col2": "385, 801",
        "col3": "-6"
    },
    {
        "col0": "Mendon, Utah",
        "col1": "1370",
        "col2": "435",
        "col3": "-6"
    },
    {
        "col0": "Mapleton, Utah",
        "col1": "1442",
        "col2": "385, 801",
        "col3": "-6"
    },
    {
        "col0": "Magna, Utah",
        "col1": "1303",
        "col2": "385, 801",
        "col3": "-6"
    },
    {
        "col0": "Logan, Utah",
        "col1": "1381",
        "col2": "435",
        "col3": "-6"
    },
    {
        "col0": "Lindon, Utah",
        "col1": "1414",
        "col2": "801",
        "col3": "-6"
    },
    {
        "col0": "Lewiston, Utah",
        "col1": "1374",
        "col2": "435",
        "col3": "-6"
    },
    {
        "col0": "Lehi, Utah",
        "col1": "1391",
        "col2": "385, 801",
        "col3": "-6"
    },
    {
        "col0": "Layton, Utah",
        "col1": "1325",
        "col2": "385, 801",
        "col3": "-6"
    },
    {
        "col0": "Kearns, Utah",
        "col1": "1380",
        "col2": "385, 801",
        "col3": "-6"
    },
    {
        "col0": "Kaysville, Utah",
        "col1": "1328",
        "col2": "385, 801",
        "col3": "-6"
    },
    {
        "col0": "Kamas, Utah",
        "col1": "1976",
        "col2": "435",
        "col3": "-6"
    },
    {
        "col0": "Ibapah, Utah",
        "col1": "1609",
        "col2": "435",
        "col3": "-6"
    },
    {
        "col0": "Hyrum, Utah",
        "col1": "1431",
        "col2": "435",
        "col3": "-6"
    },
    {
        "col0": "Hyde Park, Utah",
        "col1": "1382",
        "col2": "435",
        "col3": "-6"
    },
    {
        "col0": "Howell, Utah",
        "col1": "1389",
        "col2": "435",
        "col3": "-6"
    },
    {
        "col0": "Hooper, Utah",
        "col1": "1292",
        "col2": "385, 801",
        "col3": "-6"
    },
    {
        "col0": "Honeyville, Utah",
        "col1": "1310",
        "col2": "435",
        "col3": "-6"
    },
    {
        "col0": "Holladay, Utah",
        "col1": "1360",
        "col2": "385, 801",
        "col3": "-6"
    },
    {
        "col0": "Highland, Utah",
        "col1": "1516",
        "col2": "385, 801",
        "col3": "-6"
    },
    {
        "col0": "Herriman, Utah",
        "col1": "1524",
        "col2": "385, 801",
        "col3": "-6"
    },
    {
        "col0": "Heber City, Utah",
        "col1": "1708",
        "col2": "435",
        "col3": "-6"
    },
    {
        "col0": "Harrisville, Utah",
        "col1": "1307",
        "col2": "385, 801",
        "col3": "-6"
    },
    {
        "col0": "Grantsville, Utah",
        "col1": "1311",
        "col2": "435",
        "col3": "-6"
    },
    {
        "col0": "Garland, Utah",
        "col1": "1322",
        "col2": "435",
        "col3": "-6"
    },
    {
        "col0": "Fruit Heights, Utah",
        "col1": "1431",
        "col2": "385, 801",
        "col3": "-6"
    },
    {
        "col0": "Farr West, Utah",
        "col1": "1299",
        "col2": "385, 801",
        "col3": "-6"
    },
    {
        "col0": "Farmington, Utah",
        "col1": "1311",
        "col2": "385, 801",
        "col3": "-6"
    },
    {
        "col0": "Elk Ridge, Utah",
        "col1": "1631",
        "col2": "385, 801",
        "col3": "-6"
    },
    {
        "col0": "East Layton, Utah",
        "col1": "1449",
        "col2": "801",
        "col3": "-6"
    },
    {
        "col0": "Eagle Mountain, Utah",
        "col1": "1488",
        "col2": "385, 801",
        "col3": "-6"
    },
    {
        "col0": "Duchesne, Utah",
        "col1": "1681",
        "col2": "435",
        "col3": "-6"
    },
    {
        "col0": "Draper, Utah",
        "col1": "1373",
        "col2": "385, 801",
        "col3": "-6"
    },
    {
        "col0": "Cottonwood Heights, Utah",
        "col1": "1470",
        "col2": "385, 801",
        "col3": "-6"
    },
    {
        "col0": "Corinne, Utah",
        "col1": "1288",
        "col2": "435",
        "col3": "-6"
    },
    {
        "col0": "Coalville, Utah",
        "col1": "1699",
        "col2": "435",
        "col3": "-6"
    },
    {
        "col0": "Clinton, Utah",
        "col1": "1338",
        "col2": "385, 801",
        "col3": "-6"
    },
    {
        "col0": "Clearfield, Utah",
        "col1": "1360",
        "col2": "385, 801",
        "col3": "-6"
    },
    {
        "col0": "Centerville, Utah",
        "col1": "1334",
        "col2": "385, 801",
        "col3": "-6"
    },
    {
        "col0": "Cedar Hills, Utah",
        "col1": "1510",
        "col2": "385, 801",
        "col3": "-6"
    },
    {
        "col0": "Brigham City, Utah",
        "col1": "1352",
        "col2": "435",
        "col3": "-6"
    },
    {
        "col0": "Bountiful, Utah",
        "col1": "1462",
        "col2": "385, 801",
        "col3": "-6"
    },
    {
        "col0": "Bonanza, Utah",
        "col1": "1666",
        "col2": "435",
        "col3": "-4"
    },
    {
        "col0": "Bluffdale, Utah",
        "col1": "1352",
        "col2": "385, 801",
        "col3": "-6"
    },
    {
        "col0": "Bear River City, Utah",
        "col1": "1297",
        "col2": "435",
        "col3": "-6"
    },
    {
        "col0": "Ballard, Utah",
        "col1": "1538",
        "col2": "435",
        "col3": "-6"
    },
    {
        "col0": "Alpine, Utah",
        "col1": "1509",
        "col2": "385, 801",
        "col3": "-6"
    },
    {
        "col0": "Whitewood, South Dakota",
        "col1": "1114",
        "col2": "605",
        "col3": "-6"
    },
    {
        "col0": "White River, South Dakota",
        "col1": "651",
        "col2": "605",
        "col3": "-5"
    },
    {
        "col0": "Wall, South Dakota",
        "col1": "861",
        "col2": "605",
        "col3": "-6"
    },
    {
        "col0": "Timber Lake, South Dakota",
        "col1": "661",
        "col2": "605",
        "col3": "-6"
    },
    {
        "col0": "Sturgis, South Dakota",
        "col1": "1043",
        "col2": "605",
        "col3": "-6"
    },
    {
        "col0": "Spearfish, South Dakota",
        "col1": "1111",
        "col2": "605",
        "col3": "-6"
    },
    {
        "col0": "Selby, South Dakota",
        "col1": "580",
        "col2": "605",
        "col3": "-5"
    },
    {
        "col0": "Rapid City, South Dakota",
        "col1": "975",
        "col2": "605",
        "col3": "-6"
    },
    {
        "col0": "Presho, South Dakota",
        "col1": "541",
        "col2": "605",
        "col3": "-5"
    },
    {
        "col0": "Porcupine, South Dakota",
        "col1": "972",
        "col2": "605",
        "col3": "-6"
    },
    {
        "col0": "Pine Ridge, South Dakota",
        "col1": "987",
        "col2": "605",
        "col3": "-6"
    },
    {
        "col0": "Pierre, South Dakota",
        "col1": "442",
        "col2": "605",
        "col3": "-5"
    },
    {
        "col0": "Piedmont, South Dakota",
        "col1": "1064",
        "col2": "605",
        "col3": "-5"
    },
    {
        "col0": "Philip, South Dakota",
        "col1": "659",
        "col2": "605",
        "col3": "-6"
    },
    {
        "col0": "Onida, South Dakota",
        "col1": "570",
        "col2": "605",
        "col3": "-5"
    },
    {
        "col0": "Newell, South Dakota",
        "col1": "864",
        "col2": "605",
        "col3": "-6"
    },
    {
        "col0": "New Underwood, South Dakota",
        "col1": "866",
        "col2": "605",
        "col3": "-6"
    },
    {
        "col0": "Murdo, South Dakota",
        "col1": "705",
        "col2": "605",
        "col3": "-5"
    },
    {
        "col0": "Mobridge, South Dakota",
        "col1": "505",
        "col2": "605",
        "col3": "-5"
    },
    {
        "col0": "Mission, South Dakota",
        "col1": "786",
        "col2": "605",
        "col3": "-5"
    },
    {
        "col0": "McLaughlin, South Dakota",
        "col1": "609",
        "col2": "605",
        "col3": "-6"
    },
    {
        "col0": "McIntosh, South Dakota",
        "col1": "705",
        "col2": "605",
        "col3": "-6"
    },
    {
        "col0": "Martin, South Dakota",
        "col1": "1008",
        "col2": "605",
        "col3": "-6"
    },
    {
        "col0": "Little Eagle, South Dakota",
        "col1": "502",
        "col2": "605",
        "col3": "-6"
    },
    {
        "col0": "Lemmon, South Dakota",
        "col1": "783",
        "col2": "605",
        "col3": "-6"
    },
    {
        "col0": "Lead, South Dakota",
        "col1": "1588",
        "col2": "605",
        "col3": "-6"
    },
    {
        "col0": "Kyle, South Dakota",
        "col1": "886",
        "col2": "605",
        "col3": "-6"
    },
    {
        "col0": "Keystone, South Dakota",
        "col1": "1320",
        "col2": "605",
        "col3": "-6"
    }
]