[
    {
        "col0": "Fort Pitt Elementary School",
        "col1": "1986-09-30",
        "col2": "8093",
        "col3": "8093"
    },
    {
        "col0": "Fort Ligonier",
        "col1": "1975-01-21",
        "col2": "60702",
        "col3": "60702"
    },
    {
        "col0": "Fitler School",
        "col1": "1986-12-04",
        "col2": "4046",
        "col3": "4046"
    },
    {
        "col0": "Fairmount Park",
        "col1": "1972-02-07",
        "col2": "16592111",
        "col3": "16592111"
    },
    {
        "col0": "Ethan Allen School",
        "col1": "1988-11-18",
        "col2": "16187",
        "col3": "16187"
    },
    {
        "col0": "Easton Cemetery",
        "col1": "1990-10-25",
        "col2": "236741",
        "col3": "236741"
    },
    {
        "col0": "Cook Forest State Park",
        "col1": "1987-02-12",
        "col2": "27518",
        "col3": "27518"
    },
    {
        "col0": "Burnt Cabins, Pennsylvania",
        "col1": "1998-05-20",
        "col2": "202342",
        "col3": "202342"
    },
    {
        "col0": "Allegheny Cemetery",
        "col1": "1980-12-10",
        "col2": "1214056",
        "col3": "1214056"
    },
    {
        "col0": "The Mall",
        "col1": "1975-06-10",
        "col2": "105218",
        "col3": "105218"
    },
    {
        "col0": "Ohio State Reformatory",
        "col1": "1983-04-14",
        "col2": "161874",
        "col3": "161874"
    },
    {
        "col0": "Mull Covered Bridge",
        "col1": "1974-10-15",
        "col2": "4046",
        "col3": "4046"
    },
    {
        "col0": "Minster Elementary School",
        "col1": "1979-07-26",
        "col2": "4046",
        "col3": "4046"
    },
    {
        "col0": "Marsh Foundation School",
        "col1": "1980-11-28",
        "col2": "1214056",
        "col3": "1214056"
    },
    {
        "col0": "Lockington Locks",
        "col1": "1969-12-17",
        "col2": "182108",
        "col3": "182108"
    },
    {
        "col0": "Forest Hill, Ohio",
        "col1": "1986-08-14",
        "col2": "101171",
        "col3": "101171"
    },
    {
        "col0": "Federal Reserve Bank of Cleveland",
        "col1": "1976-10-08",
        "col2": "4046",
        "col3": "4046"
    },
    {
        "col0": "Vanderbilt Mansion National Historic Site",
        "col1": "1966-10-15",
        "col2": "853886",
        "col3": "853886"
    },
    {
        "col0": "South Street Seaport",
        "col1": "1972-10-18",
        "col2": "14163",
        "col3": "14163"
    },
    {
        "col0": "SoHo, Manhattan",
        "col1": "1978-06-29",
        "col2": "295420",
        "col3": "295420"
    },
    {
        "col0": "Rockefeller Center",
        "col1": "1987-12-23",
        "col2": "89030",
        "col3": "89030"
    },
    {
        "col0": "Pollepel Island",
        "col1": "1982-11-23",
        "col2": "54227",
        "col3": "54227"
    },
    {
        "col0": "Playland",
        "col1": "1980-07-04",
        "col2": "1133119",
        "col3": "1133119"
    },
    {
        "col0": "Oakwood Cemetery",
        "col1": "1991-05-09",
        "col2": "647497",
        "col3": "647497"
    },
    {
        "col0": "Hall of Fame for Great Americans",
        "col1": "1979-09-07",
        "col2": "8093",
        "col3": "8093"
    },
    {
        "col0": "Green-Wood Cemetery",
        "col1": "1997-03-08",
        "col2": "1934397",
        "col3": "1934397"
    },
    {
        "col0": "Governors Island",
        "col1": "1985-02-04",
        "col2": "696059",
        "col3": "696059"
    },
    {
        "col0": "Goodrich School",
        "col1": "2000-09-22",
        "col2": "49776",
        "col3": "49776"
    },
    {
        "col0": "Fort Tryon Park",
        "col1": "1978-12-19",
        "col2": "269115",
        "col3": "269115"
    },
    {
        "col0": "Fort Ticonderoga",
        "col1": "1966-10-15",
        "col2": "88828498",
        "col3": "88828498"
    },
    {
        "col0": "Fort Stanwix",
        "col1": "1966-10-15",
        "col2": "64749",
        "col3": "64749"
    },
    {
        "col0": "Fort Niagara",
        "col1": "1966-10-15",
        "col2": "1011714",
        "col3": "1011714"
    },
    {
        "col0": "Fort Crown Point",
        "col1": "1968-11-24",
        "col2": "47752905",
        "col3": "47752905"
    },
    {
        "col0": "First Shearith Israel Graveyard",
        "col1": "1980-04-17",
        "col2": "4046",
        "col3": "4046"
    },
    {
        "col0": "Federal Hall",
        "col1": "1966-10-15",
        "col2": "1821",
        "col3": "1821"
    },
    {
        "col0": "Crotona Park",
        "col1": "2015-04-28",
        "col2": "37716",
        "col3": "37716"
    },
    {
        "col0": "Arden",
        "col1": "1966-11-13",
        "col2": "1821085",
        "col3": "1821085"
    },
    {
        "col0": "Castle Clinton",
        "col1": "1966-10-15",
        "col2": "4046",
        "col3": "4046"
    },
    {
        "col0": "Verizon Building",
        "col1": "2009-04-30",
        "col2": "3642",
        "col3": "3642"
    },
    {
        "col0": "Albany Rural Cemetery",
        "col1": "1979-10-25",
        "col2": "1889881",
        "col3": "1889881"
    },
    {
        "col0": "Van Vorst Park",
        "col1": "1984-10-11",
        "col2": "311607",
        "col3": "311607"
    },
    {
        "col0": "Saint-Gaudens National Historic Site",
        "col1": "1966-10-15",
        "col2": "708199",
        "col3": "708199"
    },
    {
        "col0": "New Hampshire Farm Museum",
        "col1": "1979-03-23",
        "col2": "121405",
        "col3": "121405"
    },
    {
        "col0": "Dame School",
        "col1": "1980-10-30",
        "col2": "36421",
        "col3": "36421"
    },
    {
        "col0": "Chesham, New Hampshire",
        "col1": "1986-12-29",
        "col2": "60702",
        "col3": "60702"
    },
    {
        "col0": "Ashland Junior High School",
        "col1": "1983-04-08",
        "col2": "1214",
        "col3": "1214"
    },
    {
        "col0": "John G. Neihardt State Historic Site",
        "col1": "1970-07-28",
        "col2": "2023",
        "col3": "2023"
    },
    {
        "col0": "Soudan Underground Mine State Park",
        "col1": "1966-11-13",
        "col2": "1218103",
        "col3": "1218103"
    },
    {
        "col0": "Scenic State Park",
        "col1": "1992-06-08",
        "col2": "64749",
        "col3": "64749"
    },
    {
        "col0": "Oliver H. Kelley Homestead",
        "col1": "1966-10-15",
        "col2": "764855",
        "col3": "764855"
    },
    {
        "col0": "Old Mill State Park",
        "col1": "1989-10-25",
        "col2": "101171",
        "col3": "101171"
    },
    {
        "col0": "Lakewood Cemetery",
        "col1": "1983-10-20",
        "col2": "1011714",
        "col3": "1011714"
    },
    {
        "col0": "Lake Bronson State Park",
        "col1": "1989-10-25",
        "col2": "14560589",
        "col3": "14560589"
    },
    {
        "col0": "Fort Ridgely State Park",
        "col1": "1989-10-25",
        "col2": "890308",
        "col3": "890308"
    },
    {
        "col0": "Forestville, Minnesota",
        "col1": "1973-04-13",
        "col2": "1719913",
        "col3": "1719913"
    },
    {
        "col0": "Camden State Park",
        "col1": "1991-04-19",
        "col2": "97124",
        "col3": "97124"
    },
    {
        "col0": "Idlewild, Michigan",
        "col1": "1979-06-07",
        "col2": "5260913",
        "col3": "5260913"
    },
    {
        "col0": "Fort Wayne",
        "col1": "1971-05-06",
        "col2": "388498",
        "col3": "388498"
    },
    {
        "col0": "East Ward School",
        "col1": "1980-05-12",
        "col2": "16187",
        "col3": "16187"
    },
    {
        "col0": "Schoodic Peninsula",
        "col1": "2007-06-29",
        "col2": "4382745",
        "col3": "4382745"
    },
    {
        "col0": "Portland City Hall",
        "col1": "1973-05-07",
        "col2": "4552",
        "col3": "4552"
    },
    {
        "col0": "Old York Gaol",
        "col1": "1968-11-24",
        "col2": "2023",
        "col3": "2023"
    },
    {
        "col0": "Katahdin Iron Works",
        "col1": "1969-12-23",
        "col2": "72034",
        "col3": "72034"
    },
    {
        "col0": "Fort Gorges",
        "col1": "1973-08-28",
        "col2": "24281",
        "col3": "24281"
    },
    {
        "col0": "Fort George",
        "col1": "1969-12-30",
        "col2": "28327",
        "col3": "28327"
    },
    {
        "col0": "Spring Brook Cemetery",
        "col1": "2007-12-06",
        "col2": "89030",
        "col3": "89030"
    },
    {
        "col0": "Searles Castle",
        "col1": "1982-04-15",
        "col2": "258998",
        "col3": "258998"
    },
    {
        "col0": "Salem Maritime National Historic Site",
        "col1": "1976-09-01",
        "col2": "36421",
        "col3": "36421"
    },
    {
        "col0": "Newton Upper Falls",
        "col1": "1986-09-04",
        "col2": "283279",
        "col3": "283279"
    },
    {
        "col0": "Nantucket Historic District",
        "col1": "1966-12-13",
        "col2": "121405692",
        "col3": "121405692"
    },
    {
        "col0": "Middlesex Canal",
        "col1": "1972-08-21",
        "col2": "991479",
        "col3": "991479"
    },
    {
        "col0": "Massachusetts Museum of Contemporary Art",
        "col1": "1985-10-25",
        "col2": "97124",
        "col3": "97124"
    },
    {
        "col0": "Kennedy Compound",
        "col1": "1972-11-28",
        "col2": "24281",
        "col3": "24281"
    },
    {
        "col0": "Fort Warren",
        "col1": "1970-08-29",
        "col2": "161874",
        "col3": "161874"
    },
    {
        "col0": "Fort Independence",
        "col1": "1970-10-15",
        "col2": "60702",
        "col3": "60702"
    },
    {
        "col0": "Cape Ann Light Station",
        "col1": "1971-10-07",
        "col2": "202342",
        "col3": "202342"
    },
    {
        "col0": "Cambridge Common",
        "col1": "1987-01-26",
        "col2": "34398",
        "col3": "34398"
    },
    {
        "col0": "Boston Common",
        "col1": "1972-07-12",
        "col2": "202342",
        "col3": "202342"
    },
    {
        "col0": "Arrowhead",
        "col1": "1966-10-15",
        "col2": "181740",
        "col3": "181740"
    },
    {
        "col0": "Arnold Arboretum",
        "col1": "1966-10-15",
        "col2": "1137166",
        "col3": "1137166"
    },
    {
        "col0": "Arlington Street Church",
        "col1": "1973-05-04",
        "col2": "2023",
        "col3": "2023"
    },
    {
        "col0": "Adams National Historical Park",
        "col1": "1966-10-15",
        "col2": "34398",
        "col3": "34398"
    },
    {
        "col0": "Mounds State Park",
        "col1": "1973-01-18",
        "col2": "1018998",
        "col3": "1018998"
    },
    {
        "col0": "Lindenwood Cemetery",
        "col1": "1978-02-17",
        "col2": "728434",
        "col3": "728434"
    },
    {
        "col0": "Unity Temple",
        "col1": "1970-04-17",
        "col2": "2023",
        "col3": "2023"
    },
    {
        "col0": "Stolp Island",
        "col1": "1986-09-10",
        "col2": "77699",
        "col3": "77699"
    },
    {
        "col0": "Springdale Cemetery",
        "col1": "2004-12-10",
        "col2": "902448",
        "col3": "902448"
    },
    {
        "col0": "Pettit Memorial Chapel",
        "col1": "1978-12-01",
        "col2": "4046",
        "col3": "4046"
    },
    {
        "col0": "Peoria City Hall",
        "col1": "1973-02-06",
        "col2": "3237",
        "col3": "3237"
    },
    {
        "col0": "Marshall Field Garden Apartments",
        "col1": "1991-12-17",
        "col2": "20234",
        "col3": "20234"
    },
    {
        "col0": "Main Street Historic District",
        "col1": "1982-06-03",
        "col2": "9307",
        "col3": "9307"
    },
    {
        "col0": "Julien Dubuque Bridge",
        "col1": "1999-08-27",
        "col2": "15378",
        "col3": "15378"
    },
    {
        "col0": "Frank Lloyd Wright Home and Studio",
        "col1": "1972-09-14",
        "col2": "1618",
        "col3": "1618"
    },
    {
        "col0": "Terrace Hill",
        "col1": "1972-06-14",
        "col2": "32374",
        "col3": "32374"
    },
    {
        "col0": "Motor, Iowa",
        "col1": "1977-08-02",
        "col2": "68796",
        "col3": "68796"
    },
    {
        "col0": "Iowa State Capitol",
        "col1": "1976-10-21",
        "col2": "68796",
        "col3": "68796"
    },
    {
        "col0": "Atlantic High School",
        "col1": "2002-10-24",
        "col2": "152566",
        "col3": "152566"
    },
    {
        "col0": "American Gothic House",
        "col1": "1974-10-01",
        "col2": "46",
        "col3": "46"
    },
    {
        "col0": "Wilcox, Crittenden Mill",
        "col1": "1986-12-03",
        "col2": "68796",
        "col3": "68796"
    },
    {
        "col0": "Wauregan, Connecticut",
        "col1": "1979-08-24",
        "col2": "364217",
        "col3": "364217"
    },
    {
        "col0": "Taftville, Connecticut",
        "col1": "1978-12-01",
        "col2": "445154",
        "col3": "445154"
    },
    {
        "col0": "Rockville, Connecticut",
        "col1": "1984-09-13",
        "col2": "2225771",
        "col3": "2225771"
    },
    {
        "col0": "Newington Junction",
        "col1": "1987-06-02",
        "col2": "32374",
        "col3": "32374"
    },
    {
        "col0": "Israel Putnam School",
        "col1": "1984-12-13",
        "col2": "10926",
        "col3": "10926"
    },
    {
        "col0": "Grove Street Cemetery",
        "col1": "1997-08-08",
        "col2": "72843",
        "col3": "72843"
    },
    {
        "col0": "Greens Farms School",
        "col1": "1991-04-19",
        "col2": "36421",
        "col3": "36421"
    },
    {
        "col0": "Gillette Castle State Park",
        "col1": "1986-07-31",
        "col2": "493716",
        "col3": "493716"
    },
    {
        "col0": "Gales Ferry, Connecticut",
        "col1": "1992-12-14",
        "col2": "52609",
        "col3": "52609"
    },
    {
        "col0": "Farmington Historic District",
        "col1": "1972-03-17",
        "col2": "1112885",
        "col3": "1112885"
    },
    {
        "col0": "Falls Village, Connecticut",
        "col1": "1979-06-14",
        "col2": "283279",
        "col3": "283279"
    },
    {
        "col0": "Eli Whitney Museum",
        "col1": "1974-08-13",
        "col2": "40063",
        "col3": "40063"
    },
    {
        "col0": "Terrace, Minnesota",
        "col1": "1982-04-01",
        "col2": "169967",
        "col3": "169967"
    },
    {
        "col0": "Connecticut Valley Hospital",
        "col1": "1985-08-29",
        "col2": "404685",
        "col3": "404685"
    },
    {
        "col0": "Barton Academy",
        "col1": "1970-02-16",
        "col2": "7284",
        "col3": "7284"
    },
    {
        "col0": "Auburn University Historic District",
        "col1": "1976-06-03",
        "col2": "58679",
        "col3": "58679"
    },
    {
        "col0": "Auburn City Hall",
        "col1": "1983-06-21",
        "col2": "2832",
        "col3": "2832"
    },
    {
        "col0": "United States Post Office",
        "col1": "1983-06-21",
        "col2": "1618",
        "col3": "1618"
    },
    {
        "col0": "United States Post Office",
        "col1": "1983-06-21",
        "col2": "2832",
        "col3": "2832"
    },
    {
        "col0": "Adams Grove Presbyterian Church",
        "col1": "1986-06-05",
        "col2": "31565",
        "col3": "31565"
    },
    {
        "col0": "Reckart Mill",
        "col1": "1980-06-03",
        "col2": "1214",
        "col3": "1214"
    },
    {
        "col0": "Yeocomico Church",
        "col1": "1969-11-12",
        "col2": "60702",
        "col3": "60702"
    },
    {
        "col0": "Weyanoke, Virginia",
        "col1": "1980-03-10",
        "col2": "4957399",
        "col3": "4957399"
    },
    {
        "col0": "Salem Veterans Affairs Medical Center",
        "col1": "2012-09-04",
        "col2": "833652",
        "col3": "833652"
    },
    {
        "col0": "Virginia State Capitol",
        "col1": "1966-10-15",
        "col2": "57060",
        "col3": "57060"
    },
    {
        "col0": "Seven Pines",
        "col1": "1995-10-26",
        "col2": "7689",
        "col3": "7689"
    },
    {
        "col0": "Scotchtown",
        "col1": "1966-10-15",
        "col2": "165921",
        "col3": "165921"
    },
    {
        "col0": "Phoebus, Virginia",
        "col1": "2006-12-01",
        "col2": "348029",
        "col3": "348029"
    },
    {
        "col0": "Parkfairfax, Virginia",
        "col1": "1999-02-22",
        "col2": "534185",
        "col3": "534185"
    },
    {
        "col0": "McLean House",
        "col1": "1966-10-15",
        "col2": "7284341",
        "col3": "7284341"
    },
    {
        "col0": "McCormick Observatory",
        "col1": "2004-11-19",
        "col2": "5260",
        "col3": "5260"
    },
    {
        "col0": "Mary Washington House",
        "col1": "1975-06-05",
        "col2": "4046",
        "col3": "4046"
    },
    {
        "col0": "Malvern Hill",
        "col1": "1969-11-12",
        "col2": "0",
        "col3": "0"
    },
    {
        "col0": "Lyon Village, Arlington, Virginia",
        "col1": "2002-05-10",
        "col2": "772949",
        "col3": "772949"
    },
    {
        "col0": "Lorton Reformatory",
        "col1": "2006-02-16",
        "col2": "2069157",
        "col3": "2069157"
    },
    {
        "col0": "Kenmore",
        "col1": "1969-06-04",
        "col2": "4046",
        "col3": "4046"
    },
    {
        "col0": "Hungry Mother State Park",
        "col1": "2007-04-12",
        "col2": "8963786",
        "col3": "8963786"
    },
    {
        "col0": "Hollywood Cemetery",
        "col1": "1969-11-12",
        "col2": "526091",
        "col3": "526091"
    },
    {
        "col0": "Holley Graded School",
        "col1": "1990-12-19",
        "col2": "8093",
        "col3": "8093"
    },
    {
        "col0": "High Bridge",
        "col1": "2008-09-12",
        "col2": "64749",
        "col3": "64749"
    },
    {
        "col0": "Greenway Court, Virginia",
        "col1": "1966-10-15",
        "col2": "20234",
        "col3": "20234"
    },
    {
        "col0": "Ghent",
        "col1": "1980-07-04",
        "col2": "311607",
        "col3": "311607"
    },
    {
        "col0": "Four Mile Tree",
        "col1": "1970-12-18",
        "col2": "1011714",
        "col3": "1011714"
    },
    {
        "col0": "Flowerdew Hundred Plantation",
        "col1": "1975-08-01",
        "col2": "5665598",
        "col3": "5665598"
    },
    {
        "col0": "Evelynton Plantation",
        "col1": "1989-08-17",
        "col2": "194249",
        "col3": "194249"
    },
    {
        "col0": "Downtown Norfolk, Virginia",
        "col1": "1987-03-20",
        "col2": "175228",
        "col3": "175228"
    },
    {
        "col0": "Dismal Swamp Canal",
        "col1": "1988-06-06",
        "col2": "4868368",
        "col3": "4868368"
    },
    {
        "col0": "Chrysler Museum of Art",
        "col1": "1970-02-16",
        "col2": "40063",
        "col3": "40063"
    },
    {
        "col0": "Colonial Place",
        "col1": "2002-05-22",
        "col2": "817464",
        "col3": "817464"
    },
    {
        "col0": "Chatham Manor",
        "col1": "1966-10-15",
        "col2": "18619991",
        "col3": "18619991"
    },
    {
        "col0": "Carlyle House",
        "col1": "1969-11-12",
        "col2": "4046",
        "col3": "4046"
    },
    {
        "col0": "Booker T. Washington National Monument",
        "col1": "1966-10-15",
        "col2": "804515",
        "col3": "804515"
    },
    {
        "col0": "Bob White Covered Bridge",
        "col1": "1973-05-22",
        "col2": "40468",
        "col3": "40468"
    },
    {
        "col0": "Big Meadows",
        "col1": "1985-12-13",
        "col2": "404",
        "col3": "404"
    },
    {
        "col0": "Bermuda Hundred, Virginia",
        "col1": "2006-11-08",
        "col2": "65559",
        "col3": "65559"
    },
    {
        "col0": "Berkley, Virginia",
        "col1": "2000-11-22",
        "col2": "348029",
        "col3": "348029"
    },
    {
        "col0": "Bellona Arsenal",
        "col1": "1971-05-06",
        "col2": "404685",
        "col3": "404685"
    },
    {
        "col0": "Belle Isle",
        "col1": "1995-03-17",
        "col2": "2185302",
        "col3": "2185302"
    },
    {
        "col0": "Belle Grove",
        "col1": "1973-04-11",
        "col2": "1537805",
        "col3": "1537805"
    },
    {
        "col0": "Agecroft Hall",
        "col1": "1978-12-13",
        "col2": "93482",
        "col3": "93482"
    },
    {
        "col0": "Aberdeen Gardens",
        "col1": "1994-05-26",
        "col2": "445154",
        "col3": "445154"
    },
    {
        "col0": "Willow-Spence Streets Historic District",
        "col1": "1985-09-17",
        "col2": "72843",
        "col3": "72843"
    },
    {
        "col0": "Texas State Capitol",
        "col1": "1970-06-22",
        "col2": "208008",
        "col3": "208008"
    },
    {
        "col0": "Tarrant County Courthouse",
        "col1": "1970-10-15",
        "col2": "9307",
        "col3": "9307"
    },
    {
        "col0": "Spanish Fort, Texas",
        "col1": "1975-04-14",
        "col2": "404685",
        "col3": "404685"
    },
    {
        "col0": "San Jacinto Monument",
        "col1": "1966-10-15",
        "col2": "1841319",
        "col3": "1841319"
    },
    {
        "col0": "Pillot Building",
        "col1": "1974-06-13",
        "col2": "404",
        "col3": "404"
    },
    {
        "col0": "Julia Ideson Building",
        "col1": "1977-11-23",
        "col2": "6070",
        "col3": "6070"
    },
    {
        "col0": "Bayou Bend Collection and Gardens",
        "col1": "1979-12-06",
        "col2": "60702",
        "col3": "60702"
    },
    {
        "col0": "Highland Park Village",
        "col1": "1997-11-17",
        "col2": "40468",
        "col3": "40468"
    },
    {
        "col0": "Giddings-Stone Mansion",
        "col1": "1976-06-24",
        "col2": "4046",
        "col3": "4046"
    },
    {
        "col0": "Fort McIntosh, Texas",
        "col1": "1975-06-25",
        "col2": "1214056",
        "col3": "1214056"
    },
    {
        "col0": "Dealey Plaza",
        "col1": "1993-04-19",
        "col2": "60702",
        "col3": "60702"
    },
    {
        "col0": "Dallas Arboretum and Botanical Garden",
        "col1": "1978-12-28",
        "col2": "267092",
        "col3": "267092"
    },
    {
        "col0": "Mount Bonnell",
        "col1": "2015-09-17",
        "col2": "21691",
        "col3": "21691"
    },
    {
        "col0": "1884 Houston Cotton Exchange Building",
        "col1": "1971-05-06",
        "col2": "809",
        "col3": "809"
    },
    {
        "col0": "Walnut Street Bridge",
        "col1": "1990-02-23",
        "col2": "6474",
        "col3": "6474"
    },
    {
        "col0": "Vardy Community School",
        "col1": "1984-11-08",
        "col2": "28327",
        "col3": "28327"
    },
    {
        "col0": "Tennessee State Capitol",
        "col1": "1970-07-08",
        "col2": "19829",
        "col3": "19829"
    },
    {
        "col0": "Rugby, Tennessee",
        "col1": "1972-04-26",
        "col2": "2124599",
        "col3": "2124599"
    },
    {
        "col0": "Graceland",
        "col1": "1991-11-07",
        "col2": "54988",
        "col3": "54988"
    },
    {
        "col0": "Elizabethton Covered Bridge",
        "col1": "1973-03-14",
        "col2": "250905",
        "col3": "250905"
    },
    {
        "col0": "Durham's Chapel School",
        "col1": "2006-11-08",
        "col2": "6070",
        "col3": "6070"
    },
    {
        "col0": "Calderwood Dam",
        "col1": "1989-08-21",
        "col2": "121405",
        "col3": "121405"
    },
    {
        "col0": "Santee Canal",
        "col1": "1982-08-11",
        "col2": "202342",
        "col3": "202342"
    },
    {
        "col0": "Pompion Hill Chapel",
        "col1": "1970-04-15",
        "col2": "20234",
        "col3": "20234"
    },
    {
        "col0": "McMaster School",
        "col1": "1997-07-25",
        "col2": "8093",
        "col3": "8093"
    },
    {
        "col0": "Mary H. Wright Elementary School",
        "col1": "2007-08-03",
        "col2": "36017",
        "col3": "36017"
    },
    {
        "col0": "Gray Court-Owings School",
        "col1": "2004-04-21",
        "col2": "29137",
        "col3": "29137"
    },
    {
        "col0": "Fort Motte",
        "col1": "1972-11-09",
        "col2": "20234",
        "col3": "20234"
    },
    {
        "col0": "Dennis High School",
        "col1": "2005-01-26",
        "col2": "4856",
        "col3": "4856"
    },
    {
        "col0": "Bishopville High School",
        "col1": "2004-10-01",
        "col2": "13354",
        "col3": "13354"
    },
    {
        "col0": "Panteon Nacional Roman Baldorioty de Castro",
        "col1": "1984-01-05",
        "col2": "14973",
        "col3": "14973"
    },
    {
        "col0": "Casa Paoli",
        "col1": "2009-10-01",
        "col2": "4046",
        "col3": "4046"
    },
    {
        "col0": "Thaddeus Kosciuszko National Memorial",
        "col1": "1970-12-18",
        "col2": "80",
        "col3": "80"
    },
    {
        "col0": "Parkesburg School",
        "col1": "1995-04-27",
        "col2": "8903",
        "col3": "8903"
    },
    {
        "col0": "Mortonville, Pennsylvania",
        "col1": "1985-09-18",
        "col2": "4046",
        "col3": "4046"
    },
    {
        "col0": "Haddington, Philadelphia",
        "col1": "1988-09-29",
        "col2": "32374",
        "col3": "32374"
    },
    {
        "col0": "Furness High School",
        "col1": "1986-12-01",
        "col2": "8093",
        "col3": "8093"
    },
    {
        "col0": "Franklin Square",
        "col1": "1981-09-14",
        "col2": "30351",
        "col3": "30351"
    }
]