[
    {
        "col0": "North Fork Sol Duc Shelter",
        "col1": "National Park Service",
        "col2": "U. F. Service",
        "col3": "1932"
    },
    {
        "col0": "Nightingale-Brown House",
        "col1": "Brown University",
        "col2": "C. Ormsbee",
        "col3": "1792"
    },
    {
        "col0": "New York State Armory",
        "col1": "New York Army National Guard",
        "col2": "I. G. Perry",
        "col3": "1891"
    },
    {
        "col0": "New York State Armory",
        "col1": "Orange County, New York",
        "col2": "J. A. Wood",
        "col3": "19"
    },
    {
        "col0": "New Orleans Mint",
        "col1": "Louisiana",
        "col2": "W. Strickland",
        "col3": "1835"
    },
    {
        "col0": "New Mexico Supreme Court Building",
        "col1": "New Mexico",
        "col2": "W. P. Administration",
        "col3": "1937"
    },
    {
        "col0": "New Bedford Whaling National Historical Park",
        "col1": "National Park Service",
        "col2": "R. Upjohn",
        "col3": "1790"
    },
    {
        "col0": "New Bedford Historic District",
        "col1": "National Park Service",
        "col2": "R. Mills",
        "col3": "1790"
    },
    {
        "col0": "National Park Service Southwest Regional Office",
        "col1": "General Services Administration",
        "col2": "C. Doty",
        "col3": "1937"
    },
    {
        "col0": "National Building Museum",
        "col1": "General Services Administration",
        "col2": "M. C. Meigs",
        "col3": "1887"
    },
    {
        "col0": "Mystic Valley Parkway",
        "col1": "Department of Conservation and Recreation",
        "col2": "O. Brothers",
        "col3": "1936"
    },
    {
        "col0": "Music Building",
        "col1": "University of Pittsburgh",
        "col2": "Longfellow, Alden & Harlow",
        "col3": "1884"
    },
    {
        "col0": "Museum of Newport History",
        "col1": "Newport Historical Society",
        "col2": "P. Harrison",
        "col3": "1762"
    },
    {
        "col0": "Museo de la Masacre de Ponce",
        "col1": "Puerto Rico",
        "col2": "B. Silva",
        "col3": "1910"
    },
    {
        "col0": "Munson Valley Historic District",
        "col1": "National Park Service",
        "col2": "N. P. Service",
        "col3": "1926"
    },
    {
        "col0": "Multnomah Falls",
        "col1": "United States Forest Service",
        "col2": "A. E. Doyle",
        "col3": "1915"
    },
    {
        "col0": "Mount de Chantal Visitation Academy",
        "col1": "Private school",
        "col2": "C. Bartberger",
        "col3": "1865"
    },
    {
        "col0": "Mount Holly Mausoleum",
        "col1": "Little Rock",
        "col2": "T. a. Harding",
        "col3": "1917"
    }
]