[
    {
        "col0": "Bowers Mansion",
        "col1": "Washoe County, Nevada",
        "col2": "J. N. Johnson",
        "col3": "1863"
    },
    {
        "col0": "Boulder Bridge",
        "col1": "National Park Service",
        "col2": "United States Army Corps of Engineers",
        "col3": "1902"
    },
    {
        "col0": "Boston College Main Campus Historic District",
        "col1": "Boston College",
        "col2": "C. D. Maginnis",
        "col3": "1913"
    },
    {
        "col0": "Boston Building",
        "col1": "AIMCO",
        "col2": "Andrews, Jacques and Rantoul",
        "col3": "1890"
    },
    {
        "col0": "Bocock-Isbell House",
        "col1": "National Park Service",
        "col2": "N. P. Service",
        "col3": "1850"
    },
    {
        "col0": "Black Hawk Statue",
        "col1": "Illinois Department of Natural Resources",
        "col2": "L. Taft",
        "col3": "1908"
    },
    {
        "col0": "Bishop's Palace, Galveston",
        "col1": "Roman Catholic Archdiocese of Galveston-Houston",
        "col2": "N. J. Clayton",
        "col3": "1887"
    },
    {
        "col0": "Bexar County Courthouse",
        "col1": "Bexar County, Texas",
        "col2": "J. R. Gordon",
        "col3": "1891"
    },
    {
        "col0": "Berkley Square",
        "col1": "United States Bureau of Reclamation",
        "col2": "P. R. Williams",
        "col3": "1954"
    },
    {
        "col0": "Berkhimer Bridge",
        "col1": "Humboldt County, Iowa",
        "col2": "C. Iowa",
        "col3": "1899"
    },
    {
        "col0": "Berger Park",
        "col1": "Chicago Park District",
        "col2": "W. C. Zimmerman",
        "col3": "1906"
    },
    {
        "col0": "Bent's Old Fort National Historic Site",
        "col1": "National Park Service",
        "col2": "C. Bent",
        "col3": "1833"
    },
    {
        "col0": "Bell Laboratories Building",
        "col1": "Westbeth Artists Community",
        "col2": "Cyrus L. W. Eidlitz",
        "col3": "1896"
    },
    {
        "col0": "Battle Hall",
        "col1": "University of Texas at Austin",
        "col2": "C. Gilbert",
        "col3": "1911"
    },
    {
        "col0": "Bastrop County Courthouse and Jail Complex",
        "col1": "Bastrop County, Texas",
        "col2": "C. H. Page",
        "col3": "1890"
    },
    {
        "col0": "Basilica of the Sacred Heart of Jesus",
        "col1": "Roman Catholic Archdiocese of Atlanta",
        "col2": "W. T. Downing",
        "col3": "1898"
    },
    {
        "col0": "Basilica of St. Fidelis",
        "col1": "Roman Catholic Diocese of Salina",
        "col2": "J. T. Comes",
        "col3": "1908"
    },
    {
        "col0": "Basilica of Saint Mary",
        "col1": "Roman Catholic Archdiocese of Saint Paul and Minneapolis",
        "col2": "E. L. Masqueray",
        "col3": "1907"
    },
    {
        "col0": "Barracks, Virginia Military Institute",
        "col1": "Virginia Military Institute",
        "col2": "A. J. Davis",
        "col3": "1848"
    },
    {
        "col0": "Bank Lofts",
        "col1": "Aimco",
        "col2": "W. E. Fisher",
        "col3": "1921"
    },
    {
        "col0": "Balsam Lake Mountain Fire Observation Station",
        "col1": "New York State Department of Environmental Conservation",
        "col2": "A. Corporation",
        "col3": "1930"
    },
    {
        "col0": "Ballard Locks",
        "col1": "United States Army Corps of Engineers",
        "col2": "B. a. Gould",
        "col3": "1911"
    },
    {
        "col0": "Bagby Stationhouse, Water Tanks and Turntable",
        "col1": "National Park Service",
        "col2": "Y. V. Railroad",
        "col3": "1907"
    },
    {
        "col0": "B Reactor",
        "col1": "United States Department of Energy",
        "col2": "DuPont",
        "col3": "1943"
    },
    {
        "col0": "B'nai Jacob Synagogue",
        "col1": "State Historical Society of Iowa",
        "col2": "G. M. Kerns",
        "col3": "1915"
    },
    {
        "col0": "Aubrey R. Watzek House",
        "col1": "University of Oregon",
        "col2": "J. Yeon",
        "col3": "1936"
    },
    {
        "col0": "Athens Lunatic Asylum",
        "col1": "Ohio University",
        "col2": "L. T. Scofield",
        "col3": "1868"
    },
    {
        "col0": "Atascosa County Courthouse",
        "col1": "Atascosa County, Texas",
        "col2": "H. T. Phelps",
        "col3": "1912"
    },
    {
        "col0": "Astronomical Observatory",
        "col1": "University of Illinois at Urbana-Champaign",
        "col2": "C. A. Gunn",
        "col3": "1896"
    },
    {
        "col0": "Art Annex",
        "col1": "University of New Mexico",
        "col2": "T. &. Trost",
        "col3": "1926"
    },
    {
        "col0": "Arnold Arboretum",
        "col1": "Harvard University",
        "col2": "F. L. Olmsted",
        "col3": "1872"
    },
    {
        "col0": "Armstrong Manual Training School",
        "col1": "District of Columbia Public Schools",
        "col2": "W. B. Wood",
        "col3": "1902"
    },
    {
        "col0": "Arlington Memorial Bridge",
        "col1": "National Park Service",
        "col2": "McKim, Mead, and White",
        "col3": "1932"
    },
    {
        "col0": "Arlington House, The Robert E. Lee Memorial",
        "col1": "National Park Service",
        "col2": "G. Hadfield",
        "col3": "1803"
    },
    {
        "col0": "Arden",
        "col1": "Open Space Institute",
        "col2": "C. a. Hastings",
        "col3": "1886"
    },
    {
        "col0": "Archbishop Quigley Preparatory Seminary",
        "col1": "Private school",
        "col2": "Z. T. Davis",
        "col3": "1917"
    },
    {
        "col0": "Appellate Division Courthouse of New York State",
        "col1": "New York State",
        "col2": "J. B. Lord",
        "col3": "1896"
    },
    {
        "col0": "Apostle Islands Lighthouses",
        "col1": "Bureau of Land Management",
        "col2": "U. L. Service",
        "col3": "1857"
    },
    {
        "col0": "Andrew Johnson Building",
        "col1": "Knox County, Tennessee",
        "col2": "B. family",
        "col3": "1926"
    },
    {
        "col0": "Andrew Carnegie Mansion",
        "col1": "Smithsonian Institution",
        "col2": "Babb, Cook & Willard",
        "col3": "1899"
    },
    {
        "col0": "Anderson Hall",
        "col1": "University of Florida",
        "col2": "W. A. Edwards",
        "col3": "1912"
    }
]