[
    {
        "col0": "V. Hatulevs",
        "col1": "Riga",
        "col2": "Cleveland Crusaders",
        "col3": "1994-10-07"
    },
    {
        "col0": "T. Lysiak",
        "col1": "Alberta",
        "col2": "Houston Aeros",
        "col3": "2016-05-30"
    },
    {
        "col0": "R. Lapointe",
        "col1": "British Columbia",
        "col2": "Toronto Toros",
        "col3": "1999-10-17"
    },
    {
        "col0": "R. Blight",
        "col1": "Canada",
        "col2": "Michigan Stags",
        "col3": "2005-04-03"
    },
    {
        "col0": "M. Hagman",
        "col1": "Finland",
        "col2": "New England Whalers",
        "col3": "2016-10-11"
    },
    {
        "col0": "J. McDill",
        "col1": "Canada",
        "col2": "Cleveland Crusaders",
        "col3": "2012-11-03"
    },
    {
        "col0": "G. Bilodeau",
        "col1": "Canada",
        "col2": "Toronto Toros",
        "col3": "2008-08-12"
    },
    {
        "col0": "D. Ashby",
        "col1": "British Columbia",
        "col2": "Michigan Stags",
        "col3": "1981-05-30"
    },
    {
        "col0": "D. Hoyda",
        "col1": "Alberta",
        "col2": "Edmonton Oilers",
        "col3": "2015-02-08"
    },
    {
        "col0": "D. Hinton",
        "col1": "Canada",
        "col2": "Houston Aeros",
        "col3": "1994-06-01"
    },
    {
        "col0": "C. Hanmer",
        "col1": "Minnesota",
        "col2": "Indianapolis Racers",
        "col3": "2011-01-02"
    },
    {
        "col0": "B. Suter",
        "col1": "Madison, Wisconsin",
        "col2": "Birmingham Bulls",
        "col3": "2014-09-09"
    },
    {
        "col0": "B. Stumpf",
        "col1": "Alberta",
        "col2": "Quebec Nordiques",
        "col3": "2013-02-17"
    },
    {
        "col0": "B. Gassoff",
        "col1": "British Columbia",
        "col2": "Minnesota Fighting Saints",
        "col3": "1977-05-27"
    },
    {
        "col0": "B. Dailey",
        "col1": "Canada",
        "col2": "Toronto Toros",
        "col3": "2016-09-07"
    },
    {
        "col0": "B. Smith",
        "col1": "British Columbia",
        "col2": "Edmonton Oilers",
        "col3": "2013-09-07"
    }
]