[
    {
        "col0": "3D Systems",
        "col1": "1293000000",
        "col2": "11600000",
        "col3": "653000000"
    },
    {
        "col0": "2waytraffic",
        "col1": "104014193",
        "col2": "2923396",
        "col3": "29308539"
    },
    {
        "col0": "21st Century Fox",
        "col1": "17220000000",
        "col2": "8300000000",
        "col3": "28980000000"
    },
    {
        "col0": "1st Source",
        "col1": "570000000",
        "col2": "19100000",
        "col3": "286000000"
    },
    {
        "col0": "1-800-Flowers",
        "col1": "134000000",
        "col2": "-98400000",
        "col3": "714000000"
    },
    {
        "col0": "Zelezara Smederevo",
        "col1": "77930000",
        "col2": "94970000",
        "col3": "240810000"
    },
    {
        "col0": "A tark",
        "col1": "8190000",
        "col2": "6800000",
        "col3": "73240000"
    },
    {
        "col0": "Ceske drahy",
        "col1": "38000000000",
        "col2": "-2000000000",
        "col3": "33000000000"
    },
    {
        "col0": "Cacanska banka",
        "col1": "43530000",
        "col2": "760000",
        "col3": "31690000"
    },
    {
        "col0": "CD Cargo",
        "col1": "6",
        "col2": "-2",
        "col3": "14"
    },
    {
        "col0": "Osterreichische Post",
        "col1": "702000000",
        "col2": "146000000",
        "col3": "2370000000"
    },
    {
        "col0": "Ossur",
        "col1": "448000000",
        "col2": "41000000",
        "col3": "436000000"
    },
    {
        "col0": "Islandsbanki",
        "col1": "167318000000",
        "col2": "23069000000",
        "col3": "68148000000"
    },
    {
        "col0": "Electricite de France",
        "col1": "40610000000",
        "col2": "3701000000",
        "col3": "72874000000"
    }
]