[
    {
        "col0": "R. Drummond",
        "col1": "Princeton, New Jersey",
        "col2": "James Roscoe Drummond",
        "col3": "1983"
    },
    {
        "col0": "R. Reguly",
        "col1": "Ontario",
        "col2": "Robert Joseph Reguly",
        "col3": "2011"
    },
    {
        "col0": "Q. Crewe",
        "col1": "Oxfordshire",
        "col2": "Quentin Hugh Dodds",
        "col3": "1998"
    },
    {
        "col0": "J. Nichols",
        "col1": "New York City",
        "col2": "Giuseppe Fappiano",
        "col3": "1984"
    },
    {
        "col0": "J. Donaldson",
        "col1": "Canada",
        "col2": "Joan Marsha Donaldson",
        "col3": "2006"
    },
    {
        "col0": "J. Perry",
        "col1": "Brighton",
        "col2": "John Pirie",
        "col3": "1821"
    },
    {
        "col0": "D. Goad",
        "col1": "United States",
        "col2": "Debra Susan Rosalie",
        "col3": "2000"
    },
    {
        "col0": "D. L. Child",
        "col1": "Massachusetts",
        "col2": "David Lee Child",
        "col3": "1874"
    },
    {
        "col0": "B. Garvey",
        "col1": "Canada",
        "col2": "Bruce Noble Garvey",
        "col3": "2010"
    },
    {
        "col0": "A. Christiansen",
        "col1": "Norwich",
        "col2": "Arthur Robin Christiansen",
        "col3": "1963"
    },
    {
        "col0": "A. H. Weiler",
        "col1": "New York",
        "col2": "Abe H. Weiler",
        "col3": "2002"
    }
]