[
    {
        "col0": "Lake Michigan-Huron",
        "col1": "Chicago",
        "col2": "117326461398",
        "col3": "5230368",
        "col4": "175"
    },
    {
        "col0": "Lake Mendota",
        "col1": "Madison, Wisconsin",
        "col2": "39416381",
        "col3": "34761",
        "col4": "259"
    },
    {
        "col0": "Lake Massawippi",
        "col1": "North Hatley, Quebec",
        "col2": "18700000",
        "col3": "38300",
        "col4": "161"
    },
    {
        "col0": "Lake Manapouri",
        "col1": "Manapouri",
        "col2": "142000000",
        "col3": "170000",
        "col4": "177"
    },
    {
        "col0": "Lake Mainit",
        "col1": "Alegria, Surigao del Norte",
        "col2": "173400000",
        "col3": "62100",
        "col4": "42"
    },
    {
        "col0": "Lake Macquarie",
        "col1": "City of Lake Macquarie",
        "col2": "110000000",
        "col3": "174000",
        "col4": "0"
    },
    {
        "col0": "Lake Maardu",
        "col1": "Maardu",
        "col2": "1600000",
        "col3": "5794",
        "col4": "33"
    },
    {
        "col0": "Lake Lucerne",
        "col1": "Kussnacht",
        "col2": "113600000",
        "col3": "143700",
        "col4": "434"
    },
    {
        "col0": "Lake Livingston",
        "col1": "Riverside, Texas",
        "col2": "336000000",
        "col3": "724204",
        "col4": "39"
    },
    {
        "col0": "Lake Lawtonka",
        "col1": "Lawton, Oklahoma",
        "col2": "9408941",
        "col3": "30899",
        "col4": "410"
    },
    {
        "col0": "Lake Lashaway",
        "col1": "East Brookfield, Massachusetts",
        "col2": "1185728",
        "col3": "8207",
        "col4": "187"
    },
    {
        "col0": "Lake Lanao",
        "col1": "Ganassi, Lanao del Sur",
        "col2": "340000000",
        "col3": "115000",
        "col4": "700"
    },
    {
        "col0": "Lake Kyyjarvi",
        "col1": "Kyyjarvi",
        "col2": "16340000",
        "col3": "51400",
        "col4": "150"
    },
    {
        "col0": "Lake Kuttara",
        "col1": "Shiraoi, Hokkaido",
        "col2": "4680000",
        "col3": "8000",
        "col4": "258"
    },
    {
        "col0": "Lake Kussharo",
        "col1": "Teshikaga, Hokkaido",
        "col2": "79300000",
        "col3": "57000",
        "col4": "121"
    },
    {
        "col0": "Lake Kuorevesi",
        "col1": "Vilppula",
        "col2": "23805000",
        "col3": "172320",
        "col4": "98"
    },
    {
        "col0": "Lake Kolima",
        "col1": "Viitasaari",
        "col2": "101080000",
        "col3": "257210",
        "col4": "111"
    },
    {
        "col0": "Lake Kizaki",
        "col1": "Omachi, Nagano",
        "col2": "1400000",
        "col3": "7000",
        "col4": "764"
    },
    {
        "col0": "Lake Kivijarvi",
        "col1": "Luumaki",
        "col2": "76365000",
        "col3": "365270",
        "col4": "75"
    },
    {
        "col0": "Lake Kivijarvi",
        "col1": "Kinnula",
        "col2": "154030000",
        "col3": "544500",
        "col4": "130"
    },
    {
        "col0": "Lake Kivijarvi",
        "col1": "Luumaki",
        "col2": "76365000",
        "col3": "365270",
        "col4": "75"
    },
    {
        "col0": "Lake Kivijarvi",
        "col1": "Kinnula",
        "col2": "154030000",
        "col3": "544500",
        "col4": "130"
    },
    {
        "col0": "Lake Kiuruvesi",
        "col1": "Kiuruvesi",
        "col2": "14316000",
        "col3": "65440",
        "col4": "88"
    },
    {
        "col0": "Lake Kero",
        "col1": "Kuusamo",
        "col2": "20925000",
        "col3": "51730",
        "col4": "236"
    },
    {
        "col0": "Lake Keowee",
        "col1": "Clemson, South Carolina",
        "col2": "74866843",
        "col3": "482803",
        "col4": "243"
    },
    {
        "col0": "Lake Keitele",
        "col1": "Aanekoski",
        "col2": "498410000",
        "col3": "1461000",
        "col4": "99"
    },
    {
        "col0": "Lake Kasumigaura",
        "col1": "Tsuchiura, Ibaraki",
        "col2": "220000000",
        "col3": "252000",
        "col4": "0"
    },
    {
        "col0": "Lake Kampeska",
        "col1": "Watertown, South Dakota",
        "col2": "21245996",
        "col3": "21726",
        "col4": "522"
    },
    {
        "col0": "Lake Jocassee",
        "col1": "Clemson, South Carolina",
        "col2": "30351423",
        "col3": "120700",
        "col4": "335"
    },
    {
        "col0": "Lake Inari",
        "col1": "Inari, Finland",
        "col2": "1040280000",
        "col3": "3308000",
        "col4": "118"
    },
    {
        "col0": "Lake Iijarvi",
        "col1": "Ristijarvi",
        "col2": "21969000",
        "col3": "101900",
        "col4": "134"
    },
    {
        "col0": "Lake Idro",
        "col1": "Bagolino",
        "col2": "11400000",
        "col3": "24000",
        "col4": "368"
    },
    {
        "col0": "Lake Huron",
        "col1": "Michigan",
        "col2": "23007000000",
        "col3": "2977286",
        "col4": "175"
    },
    {
        "col0": "Lake Hopatcong",
        "col1": "Landing",
        "col2": "10359952",
        "col3": "48280",
        "col4": "289"
    },
    {
        "col0": "Lake Holiday",
        "col1": "Lake Holiday, Illinois",
        "col2": "1327368",
        "col3": "13035",
        "col4": "192"
    },
    {
        "col0": "Lake George",
        "col1": "Ticonderoga, New York",
        "col2": "113959476",
        "col3": "175418",
        "col4": "97"
    },
    {
        "col0": "Lake Galena",
        "col1": "Galena, Illinois",
        "col2": "890308",
        "col3": "11265",
        "col4": "217"
    },
    {
        "col0": "Lake Erie",
        "col1": "Buffalo, New York",
        "col2": "25666782173",
        "col3": "1285865",
        "col4": "173"
    },
    {
        "col0": "Lake Elsinore",
        "col1": "Lake Elsinore, California",
        "col2": "12112241",
        "col3": "22530",
        "col4": "377"
    },
    {
        "col0": "Lake Elmer",
        "col1": "Kingfisher, Oklahoma",
        "col2": "242811",
        "col3": "5471",
        "col4": "361"
    },
    {
        "col0": "Lake Ellsworth",
        "col1": "Elgin, Oklahoma",
        "col2": "22662395",
        "col3": "86099",
        "col4": "367"
    },
    {
        "col0": "Lake Eden",
        "col1": "Stony Plain, Alberta",
        "col2": "161000",
        "col3": "4500",
        "col4": "735"
    },
    {
        "col0": "Lake Dambovita",
        "col1": "Bucharest",
        "col2": "550000",
        "col3": "1000",
        "col4": "78"
    },
    {
        "col0": "Lake DuBay",
        "col1": "Knowlton",
        "col2": "27113938",
        "col3": "68075",
        "col4": "339"
    },
    {
        "col0": "Lake Diefenbaker",
        "col1": "Elbow, Saskatchewan",
        "col2": "430000000",
        "col3": "800000",
        "col4": "556"
    },
    {
        "col0": "Lake Dambovita",
        "col1": "Bucharest",
        "col2": "550000",
        "col3": "1000",
        "col4": "78"
    },
    {
        "col0": "Lake Como",
        "col1": "Como",
        "col2": "146000000",
        "col3": "160000",
        "col4": "198"
    },
    {
        "col0": "Lake Chehaw",
        "col1": "Albany, Georgia",
        "col2": "5665598",
        "col3": "57936",
        "col4": "67"
    },
    {
        "col0": "Lake Cecebe",
        "col1": "Cecebe, Ontario",
        "col2": "7000000",
        "col3": "15000",
        "col4": "281"
    },
    {
        "col0": "Lake Caliraya",
        "col1": "Cavinti, Laguna",
        "col2": "10500000",
        "col3": "157000",
        "col4": "300"
    },
    {
        "col0": "Lake Cadillac",
        "col1": "Cadillac, Michigan",
        "col2": "4653884",
        "col3": "12504",
        "col4": "392"
    },
    {
        "col0": "Lake Bridgeport",
        "col1": "Runaway Bay, Texas",
        "col2": "48376121",
        "col3": "207605",
        "col4": "836"
    },
    {
        "col0": "Lake Biwa",
        "col1": "Hikone, Shiga",
        "col2": "670400000",
        "col3": "235200",
        "col4": "85"
    },
    {
        "col0": "Lake Billy Chinook",
        "col1": "Culver, Oregon",
        "col2": "16187425",
        "col3": "115872",
        "col4": "592"
    },
    {
        "col0": "Lake Balaton",
        "col1": "Balatonfured",
        "col2": "592000000",
        "col3": "236000",
        "col4": "104"
    },
    {
        "col0": "Lake Balanan",
        "col1": "Siaton, Negros Oriental",
        "col2": "250000",
        "col3": "3500",
        "col4": "237"
    },
    {
        "col0": "Lake Baikal",
        "col1": "Irkutsk",
        "col2": "31722000000",
        "col3": "2100000",
        "col4": "455"
    },
    {
        "col0": "Lake Athapapuskow",
        "col1": "Bakers Narrows",
        "col2": "269000000",
        "col3": "786000",
        "col4": "291"
    },
    {
        "col0": "Lake Athabasca",
        "col1": "Fort Chipewyan, Alberta",
        "col2": "7850000000",
        "col3": "1900000",
        "col4": "213"
    },
    {
        "col0": "Lake Arbi",
        "col1": "Elva, Estonia",
        "col2": "60000",
        "col3": "1475",
        "col4": "42"
    },
    {
        "col0": "Lake Altus-Lugert",
        "col1": "Oklahoma",
        "col2": "25333321",
        "col3": "78857",
        "col4": "471"
    },
    {
        "col0": "Lake Akan",
        "col1": "Kushiro, Hokkaido",
        "col2": "13000000",
        "col3": "25900",
        "col4": "420"
    },
    {
        "col0": "Lake Abashiri",
        "col1": "Abashiri, Hokkaido",
        "col2": "33000000",
        "col3": "44000",
        "col4": "0"
    },
    {
        "col0": "Lake Ulemiste",
        "col1": "Tallinn",
        "col2": "9436000",
        "col3": "15219",
        "col4": "35"
    },
    {
        "col0": "Lahnavesi",
        "col1": "Pertunmaa",
        "col2": "13131000",
        "col3": "53740",
        "col4": "79"
    },
    {
        "col0": "Laguna de Bay",
        "col1": "Bay, Laguna",
        "col2": "911000000",
        "col3": "220000",
        "col4": "2"
    },
    {
        "col0": "Lago di Viverone",
        "col1": "Viverone",
        "col2": "5800000",
        "col3": "10500",
        "col4": "230"
    },
    {
        "col0": "Lago di Mezzola",
        "col1": "Province of Como",
        "col2": "5900000",
        "col3": "13600",
        "col4": "200"
    },
    {
        "col0": "Lago di Mergozzo",
        "col1": "Verbania",
        "col2": "1810000",
        "col3": "6200",
        "col4": "195"
    },
    {
        "col0": "Lago di Candia",
        "col1": "Candia Canavese",
        "col2": "1520000",
        "col3": "5500",
        "col4": "226"
    },
    {
        "col0": "Lacul Morii",
        "col1": "Bucharest",
        "col2": "2460000",
        "col3": "7000",
        "col4": "78"
    },
    {
        "col0": "Lac la Ronge",
        "col1": "La Ronge",
        "col2": "1413000000",
        "col3": "1015000",
        "col4": "364"
    },
    {
        "col0": "Langsjon, Alvsjo",
        "col1": "Stockholm",
        "col2": "290000",
        "col3": "4940",
        "col4": "30"
    },
    {
        "col0": "Langelmavesi",
        "col1": "Langelmaki",
        "col2": "133040000",
        "col3": "496950",
        "col4": "84"
    },
    {
        "col0": "Kyrosjarvi",
        "col1": "Hameenkyro",
        "col2": "96066000",
        "col3": "353450",
        "col4": "83"
    },
    {
        "col0": "Kuybyshev Reservoir",
        "col1": "Kazan",
        "col2": "6450000000",
        "col3": "2604000",
        "col4": "53"
    },
    {
        "col0": "Kuvansi",
        "col1": "Suonenjoki",
        "col2": "16029000",
        "col3": "105280",
        "col4": "98"
    },
    {
        "col0": "Kuuhankavesi",
        "col1": "Hankasalmi",
        "col2": "18372000",
        "col3": "49840",
        "col4": "98"
    },
    {
        "col0": "Kulovesi",
        "col1": "Nokia, Finland",
        "col2": "36422000",
        "col3": "152770",
        "col4": "57"
    },
    {
        "col0": "Kulkwitzer See",
        "col1": "Leipzig",
        "col2": "1700000",
        "col3": "8000",
        "col4": "114"
    },
    {
        "col0": "Kukkarahalli lake",
        "col1": "Mysore",
        "col2": "620000",
        "col3": "5000",
        "col4": "755"
    },
    {
        "col0": "Korpijarvi",
        "col1": "Mantyharju",
        "col2": "31219000",
        "col3": "101060",
        "col4": "82"
    },
    {
        "col0": "Konnivesi",
        "col1": "Heinola",
        "col2": "49596000",
        "col3": "319880",
        "col4": "77"
    },
    {
        "col0": "Konawa Reservoir",
        "col1": "Konawa, Oklahoma",
        "col2": "5463256",
        "col3": "32186",
        "col4": "281"
    },
    {
        "col0": "Kolkonjarvi",
        "col1": "Rantasalmi",
        "col2": "20921000",
        "col3": "42230",
        "col4": "98"
    },
    {
        "col0": "Kodaikanal Lake",
        "col1": "Kodaikanal",
        "col2": "240000",
        "col3": "9000",
        "col4": "2133"
    },
    {
        "col0": "Kochelsee",
        "col1": "Kochel am See",
        "col2": "6000000",
        "col3": "15000",
        "col4": "600"
    },
    {
        "col0": "Kleiner Ploner See",
        "col1": "Plon",
        "col2": "2390000",
        "col3": "112000",
        "col4": "20"
    },
    {
        "col0": "Kivesjarvi",
        "col1": "Paltamo",
        "col2": "25743000",
        "col3": "88740",
        "col4": "135"
    },
    {
        "col0": "Kirwin Reservoir",
        "col1": "Glade, Kansas",
        "col2": "20553983",
        "col3": "59545",
        "col4": "522"
    },
    {
        "col0": "Kiantajarvi",
        "col1": "Suomussalmi",
        "col2": "187933000",
        "col3": "527719",
        "col4": "199"
    },
    {
        "col0": "Keyritty",
        "col1": "Rautavaara",
        "col2": "18292000",
        "col3": "74970",
        "col4": "120"
    },
    {
        "col0": "Keuka Lake",
        "col1": "Hammondsport, New York",
        "col2": "47469625",
        "col3": "96560",
        "col4": "217"
    },
    {
        "col0": "Kernaalanjarvi",
        "col1": "Janakkala",
        "col2": "4448000",
        "col3": "14580",
        "col4": "79"
    },
    {
        "col0": "Kermajarvi",
        "col1": "Heinavesi",
        "col2": "85570000",
        "col3": "452550",
        "col4": "80"
    },
    {
        "col0": "Keoka Lake",
        "col1": "Waterford, Maine",
        "col2": "1861553",
        "col3": "7242",
        "col4": "150"
    },
    {
        "col0": "Keith Sebelius Lake",
        "col1": "Norton, Kansas",
        "col2": "8826193",
        "col3": "51499",
        "col4": "697"
    },
    {
        "col0": "Kaw Lake",
        "col1": "Oklahoma",
        "col2": "68796559",
        "col3": "270369",
        "col4": "307"
    },
    {
        "col0": "Karijarvi",
        "col1": "Jaala",
        "col2": "20558000",
        "col3": "71790",
        "col4": "77"
    },
    {
        "col0": "Karankajarvi",
        "col1": "Saarijarvi",
        "col2": "11012000",
        "col3": "46080",
        "col4": "148"
    },
    {
        "col0": "Kanopolis Lake",
        "col1": "Kanopolis, Kansas",
        "col2": "13783592",
        "col3": "65983",
        "col4": "445"
    },
    {
        "col0": "Kandy Lake",
        "col1": "Kandy",
        "col2": "190100",
        "col3": "3400",
        "col4": "529"
    },
    {
        "col0": "Kamloops Lake",
        "col1": "Savona, British Columbia",
        "col2": "52000000",
        "col3": "60500",
        "col4": "335"
    },
    {
        "col0": "Kalterer See",
        "col1": "Kaltern an der Weinstrasse",
        "col2": "1400000",
        "col3": "5300",
        "col4": "216"
    },
    {
        "col0": "Kallavesi",
        "col1": "Mantyharju",
        "col2": "13967000",
        "col3": "122410",
        "col4": "81"
    },
    {
        "col0": "Kalamalka Lake",
        "col1": "Lake Country, British Columbia",
        "col2": "25700000",
        "col3": "42400",
        "col4": "392"
    },
    {
        "col0": "Kalajarvi Reservoir",
        "col1": "Seinajoki",
        "col2": "11038000",
        "col3": "43360",
        "col4": "105"
    },
    {
        "col0": "Kaavinjarvi",
        "col1": "Kaavi",
        "col2": "21047000",
        "col3": "126560",
        "col4": "101"
    },
    {
        "col0": "Juurusvesi-Akonvesi",
        "col1": "Siilinjarvi",
        "col2": "156871000",
        "col3": "797550",
        "col4": "81"
    },
    {
        "col0": "Joutsjarvi",
        "col1": "Sysma",
        "col2": "10123000",
        "col3": "53600",
        "col4": "85"
    },
    {
        "col0": "Joutsijarvi",
        "col1": "Ulvila",
        "col2": "10388000",
        "col3": "63120",
        "col4": "44"
    },
    {
        "col0": "John Redmond Reservoir",
        "col1": "Burlington, Kansas",
        "col2": "38040450",
        "col3": "94951",
        "col4": "317"
    },
    {
        "col0": "John Martin Reservoir",
        "col1": "Las Animas, Colorado",
        "col2": "47178252",
        "col3": "35405",
        "col4": "1170"
    },
    {
        "col0": "John C. Boyle Reservoir",
        "col1": "Klamath Falls, Oregon",
        "col2": "1541852",
        "col3": "12231",
        "col4": "1157"
    },
    {
        "col0": "Issyk-Kul",
        "col1": "Karakol",
        "col2": "6236000000",
        "col3": "669000",
        "col4": "1607"
    },
    {
        "col0": "Isojarvi",
        "col1": "Pomarkku",
        "col2": "38824000",
        "col3": "199390",
        "col4": "34"
    },
    {
        "col0": "Island Lake",
        "col1": "Klamath Falls, Oregon",
        "col2": "165921",
        "col3": "3218",
        "col4": "1804"
    },
    {
        "col0": "Island Lake",
        "col1": "Garden Hill, Manitoba",
        "col2": "1223000000",
        "col3": "745000",
        "col4": "227"
    },
    {
        "col0": "Irondequoit Bay",
        "col1": "Irondequoit, New York",
        "col2": "6717781",
        "col3": "28485",
        "col4": "76"
    },
    {
        "col0": "Immalanjarvi",
        "col1": "Imatra",
        "col2": "19957000",
        "col3": "45070",
        "col4": "69"
    },
    {
        "col0": "Iijarvi",
        "col1": "Kuusamo",
        "col2": "20537000",
        "col3": "110080",
        "col4": "254"
    },
    {
        "col0": "Hugo Lake",
        "col1": "Hugo, Oklahoma",
        "col2": "53620847",
        "col3": "177027",
        "col4": "123"
    },
    {
        "col0": "Houghton Lake",
        "col1": "Houghton Lake, Michigan",
        "col2": "81115190",
        "col3": "48280",
        "col4": "346"
    },
    {
        "col0": "Hostovatnet",
        "col1": "Hoston, Sor-Trondelag",
        "col2": "3140000",
        "col3": "10310",
        "col4": "199"
    },
    {
        "col0": "Hosmer Lake",
        "col1": "Bend, Oregon",
        "col2": "801277",
        "col3": "8046",
        "col4": "1513"
    },
    {
        "col0": "Horn Pond",
        "col1": "Wakefield, NH",
        "col2": "918636",
        "col3": "7724",
        "col4": "167"
    },
    {
        "col0": "Hills Creek Reservoir",
        "col1": "Oakridge, Oregon",
        "col2": "11068152",
        "col3": "51499",
        "col4": "470"
    },
    {
        "col0": "Hiirenvesi",
        "col1": "Eno, Finland",
        "col2": "12983000",
        "col3": "63160",
        "col4": "93"
    },
    {
        "col0": "Hiidenvesi",
        "col1": "Lohja",
        "col2": "29090000",
        "col3": "100870",
        "col4": "32"
    },
    {
        "col0": "Herefossfjorden",
        "col1": "Herefoss",
        "col2": "3710000",
        "col3": "20420",
        "col4": "79"
    },
    {
        "col0": "Hasse Lake",
        "col1": "Spring Lake, Alberta",
        "col2": "900000",
        "col3": "5800",
        "col4": "728"
    },
    {
        "col0": "Hainer See",
        "col1": "Borna, Leipzig",
        "col2": "4000000",
        "col3": "12000",
        "col4": "126"
    },
    {
        "col0": "Haidersee",
        "col1": "Graun im Vinschgau",
        "col2": "890000",
        "col3": "4500",
        "col4": "1450"
    },
    {
        "col0": "Hacksjon",
        "col1": "Botkyrka",
        "col2": "133000",
        "col3": "1590",
        "col4": "50"
    },
    {
        "col0": "Gommaren",
        "col1": "Huddinge",
        "col2": "210000",
        "col3": "4030",
        "col4": "46"
    },
    {
        "col0": "Gurudongmar Lake",
        "col1": "Lachen, Sikkim",
        "col2": "1180000",
        "col3": "5340",
        "col4": "5182"
    },
    {
        "col0": "Gull Lake",
        "col1": "East Gull Lake, Minnesota",
        "col2": "40254202",
        "col3": "61155",
        "col4": "381"
    },
    {
        "col0": "Gruza Lake",
        "col1": "Kragujevac",
        "col2": "9190000",
        "col3": "42000",
        "col4": "273"
    },
    {
        "col0": "Grosser Ploner See",
        "col1": "Plon",
        "col2": "29970000",
        "col3": "49600",
        "col4": "21"
    },
    {
        "col0": "Gross Glienicker See",
        "col1": "Berlin",
        "col2": "660000",
        "col3": "5200",
        "col4": "31"
    },
    {
        "col0": "Grosser Ploner See",
        "col1": "Plon",
        "col2": "29970000",
        "col3": "49600",
        "col4": "21"
    },
    {
        "col0": "Gross Glienicker See",
        "col1": "Berlin",
        "col2": "660000",
        "col3": "5200",
        "col4": "31"
    },
    {
        "col0": "Green Lake",
        "col1": "Ellsworth, Maine",
        "col2": "12674754",
        "col3": "46349",
        "col4": "48"
    },
    {
        "col0": "Great Slave Lake",
        "col1": "Yellowknife",
        "col2": "27200000000",
        "col3": "3057000",
        "col4": "156"
    },
    {
        "col0": "Great Pond",
        "col1": "Rome, Maine",
        "col2": "34531825",
        "col3": "74190",
        "col4": "75"
    },
    {
        "col0": "Great East Lake",
        "col1": "Acton, Maine",
        "col2": "7385512",
        "col3": "29000",
        "col4": "174"
    },
    {
        "col0": "Great Bear Lake",
        "col1": "Deline, Northwest Territories",
        "col2": "31153000000",
        "col3": "2719000",
        "col4": "156"
    },
    {
        "col0": "Grapevine Lake",
        "col1": "Grapevine, Texas",
        "col2": "29461114",
        "col3": "96560",
        "col4": "163"
    },
    {
        "col0": "Grand Lake",
        "col1": "Grand Lake, Colorado",
        "col2": "2051756",
        "col3": "6437",
        "col4": "2550"
    },
    {
        "col0": "Graham Lake",
        "col1": "Ellsworth, Maine",
        "col2": "37971653",
        "col3": "144519",
        "col4": "32"
    },
    {
        "col0": "Goose Lake",
        "col1": "Fairport, California",
        "col2": "380728252",
        "col3": "110000",
        "col4": "1434"
    },
    {
        "col0": "Gods Lake",
        "col1": "Gods Lake Narrows, Manitoba",
        "col2": "1060000000",
        "col3": "474000",
        "col4": "178"
    },
    {
        "col0": "Gibson Lake",
        "col1": "Mount Carmel, Illinois",
        "col2": "11735883",
        "col3": "9656",
        "col4": "106"
    },
    {
        "col0": "Ghost Lake",
        "col1": "Cochrane, Alberta",
        "col2": "11600000",
        "col3": "32000",
        "col4": "1188"
    },
    {
        "col0": "Gaspereau Lake",
        "col1": "Nova Scotia",
        "col2": "22000000",
        "col3": "55000",
        "col4": "185"
    },
    {
        "col0": "Gommaren",
        "col1": "Huddinge",
        "col2": "210000",
        "col3": "4030",
        "col4": "46"
    },
    {
        "col0": "Frobisher Lake",
        "col1": "Turnor Lake, Saskatchewan",
        "col2": "516000000",
        "col3": "424000",
        "col4": "421"
    },
    {
        "col0": "Floras Lake",
        "col1": "Port Orford, Oregon",
        "col2": "955058",
        "col3": "8368",
        "col4": "3"
    },
    {
        "col0": "Flathead Lake",
        "col1": "Kalispell, Montana",
        "col2": "510227657",
        "col3": "259748",
        "col4": "882"
    },
    {
        "col0": "Flaten",
        "col1": "Stockholm",
        "col2": "630000",
        "col3": "5460",
        "col4": "21"
    },
    {
        "col0": "Finsevatnet",
        "col1": "Finse",
        "col2": "3140000",
        "col3": "11710",
        "col4": "1214"
    },
    {
        "col0": "Fateh Sagar Lake",
        "col1": "Udaipur",
        "col2": "4000000",
        "col3": "8500",
        "col4": "578"
    },
    {
        "col0": "Fall Creek Lake",
        "col1": "Lowell, Oregon",
        "col2": "6944405",
        "col3": "35405",
        "col4": "254"
    },
    {
        "col0": "Evangervatnet",
        "col1": "Evanger",
        "col2": "2960000",
        "col3": "15400",
        "col4": "11"
    },
    {
        "col0": "Enonvesi",
        "col1": "Enonkoski",
        "col2": "196676000",
        "col3": "1310170",
        "col4": "75"
    },
    {
        "col0": "Engervannet",
        "col1": "Sandvika",
        "col2": "180000",
        "col3": "2610",
        "col4": "4"
    },
    {
        "col0": "Elk Lake",
        "col1": "Bend, Oregon",
        "col2": "1638976",
        "col3": "8207",
        "col4": "1488"
    },
    {
        "col0": "El Dorado Lake",
        "col1": "El Dorado, Kansas",
        "col2": "32374851",
        "col3": "157715",
        "col4": "407"
    },
    {
        "col0": "Einfelder See",
        "col1": "Neumunster",
        "col2": "1780000",
        "col3": "8700",
        "col4": "26"
    },
    {
        "col0": "Eikesdalsvatnet",
        "col1": "Eikesdalen",
        "col2": "23150000",
        "col3": "44000",
        "col4": "22"
    },
    {
        "col0": "Eel Lake",
        "col1": "Lakeview, Oregon",
        "col2": "1436634",
        "col3": "18507",
        "col4": "20"
    },
    {
        "col0": "Echo Lake",
        "col1": "Bigfork, Montana",
        "col2": "2772096",
        "col3": "24944",
        "col4": "913"
    },
    {
        "col0": "Eau d'Heure lakes",
        "col1": "Cerfontaine, Belgium",
        "col2": "6170000",
        "col3": "50000",
        "col4": "243"
    },
    {
        "col0": "Dryvyaty",
        "col1": "Braslaw",
        "col2": "36100000",
        "col3": "37600",
        "col4": "141"
    },
    {
        "col0": "Driedmeat Lake",
        "col1": "Tillicum Beach",
        "col2": "16500000",
        "col3": "41200",
        "col4": "684"
    },
    {
        "col0": "Doris Lake",
        "col1": "Bend, Oregon",
        "col2": "279233",
        "col3": "2735",
        "col4": "1617"
    },
    {
        "col0": "Dingevatn",
        "col1": "Dingja",
        "col2": "2840000",
        "col3": "13970",
        "col4": "26"
    },
    {
        "col0": "Dexter Reservoir",
        "col1": "Lowell, Oregon",
        "col2": "4148027",
        "col3": "11265",
        "col4": "211"
    },
    {
        "col0": "Detroit Lake",
        "col1": "Detroit, Oregon",
        "col2": "14163997",
        "col3": "51499",
        "col4": "477"
    },
    {
        "col0": "Deschambault Lake",
        "col1": "Deschambault Lake, Saskatchewan",
        "col2": "542000000",
        "col3": "680000",
        "col4": "324"
    },
    {
        "col0": "Curlew Lake",
        "col1": "Republic, Washington",
        "col2": "3727154",
        "col3": "25427",
        "col4": "711"
    },
    {
        "col0": "Cross Lake",
        "col1": "Cross Lake First Nation",
        "col2": "755000000",
        "col3": "1330000",
        "col4": "207"
    },
    {
        "col0": "Cranberry Lake",
        "col1": "Cranberry Lake, New York",
        "col2": "28226823",
        "col3": "88513",
        "col4": "451"
    },
    {
        "col0": "Council Grove Lake",
        "col1": "Council Grove, Kansas",
        "col2": "13091580",
        "col3": "64373",
        "col4": "388"
    },
    {
        "col0": "Cougar Reservoir",
        "col1": "Rainbow, Oregon",
        "col2": "5179976",
        "col3": "28968",
        "col4": "474"
    },
    {
        "col0": "Cooper Creek Reservoir",
        "col1": "Sutherlin, Oregon",
        "col2": "671778",
        "col3": "8207",
        "col4": "205"
    },
    {
        "col0": "Conway Lake",
        "col1": "Conway, New Hampshire",
        "col2": "5325663",
        "col3": "30899",
        "col4": "133"
    },
    {
        "col0": "Cobbosseecontee Lake",
        "col1": "Manchester, Maine",
        "col2": "22431725",
        "col3": "99779",
        "col4": "50"
    },
    {
        "col0": "Clinton Lake",
        "col1": "Lawrence, Kansas",
        "col2": "28327994",
        "col3": "136794",
        "col4": "266"
    },
    {
        "col0": "Clinton Lake",
        "col1": "Clinton, Illinois",
        "col2": "19829596",
        "col3": "219000",
        "col4": "210"
    },
    {
        "col0": "Clear Lake",
        "col1": "Reedsport, Oregon",
        "col2": "1282853",
        "col3": "14001",
        "col4": "71"
    },
    {
        "col0": "Clear Lake",
        "col1": "Kelseyville, California",
        "col2": "176119191",
        "col3": "160934",
        "col4": "405"
    },
    {
        "col0": "Churchill Lake",
        "col1": "Buffalo Narrows",
        "col2": "559000000",
        "col3": "212000",
        "col4": "421"
    },
    {
        "col0": "Cheney Reservoir",
        "col1": "Cheney, Kansas",
        "col2": "38647478",
        "col3": "107826",
        "col4": "433"
    },
    {
        "col0": "Chautauqua Lake",
        "col1": "Jamestown, New York",
        "col2": "52609133",
        "col3": "65983",
        "col4": "398"
    },
    {
        "col0": "Cedar Bluff Reservoir",
        "col1": "Brownell, Kansas",
        "col2": "27797856",
        "col3": "80467",
        "col4": "645"
    },
    {
        "col0": "Caspian Sea",
        "col1": "Baku",
        "col2": "371000000000",
        "col3": "7000000",
        "col4": "-28"
    },
    {
        "col0": "Carlyle Lake",
        "col1": "Carlyle, Illinois",
        "col2": "105218266",
        "col3": "136794",
        "col4": "135"
    },
    {
        "col0": "Canyon Lake",
        "col1": "Canyon Lake, California",
        "col2": "2124599",
        "col3": "23979",
        "col4": "416"
    },
    {
        "col0": "Canton Lake",
        "col1": "Canton, Illinois",
        "col2": "1015760",
        "col3": "20921",
        "col4": "174"
    }
]