[
    {
        "Film": "Night Zoo (Un Zoo la nuit)",
        "Producer(s)": "Roger Frappier, Pierre Gendron"
    },
    {
        "Film": "Family Viewing",
        "Producer(s)": "Atom Egoyan"
    },
    {
        "Film": "I've Heard the Mermaids Singing",
        "Producer(s)": "Patricia Rozema, Alexandra Raffe"
    },
    {
        "Film": "Life Classes",
        "Producer(s)": "Stephen Reynolds"
    },
    {
        "Film": "Train of Dreams",
        "Producer(s)": "Sam Grana"
    }
]