[
    {
        "Name": "Neal Ardley",
        "Role": "Manager"
    },
    {
        "Name": "Neil Cox",
        "Role": "Assistant Manager"
    },
    {
        "Name": "Simon Bassey",
        "Role": "First Team Coach"
    },
    {
        "Name": "Jason Moriarty",
        "Role": "Fitness Coach"
    },
    {
        "Name": "Ashley Bayes",
        "Role": "Goalkeeping Coach"
    },
    {
        "Name": "Stuart Douglas",
        "Role": "Physiotherapist"
    }
]