[
    {
        "Country": "China",
        "City": "Urumqi",
        "Airport": "Diwopu International Airport",
        "Notes": "",
        "Ref": "[4]"
    },
    {
        "Country": "Kyrgyzstan",
        "City": "Bishkek",
        "Airport": "Manas International Airport",
        "Notes": "",
        "Ref": "[4]"
    },
    {
        "Country": "Kyrgyzstan",
        "City": "Osh",
        "Airport": "Osh Airport",
        "Notes": "",
        "Ref": "[4]"
    },
    {
        "Country": "Pakistan",
        "City": "Islamabad",
        "Airport": "Benazir Bhutto International Airport",
        "Notes": "Terminated",
        "Ref": "[5]"
    },
    {
        "Country": "Russia",
        "City": "Belgorod",
        "Airport": "Belgorod International Airport",
        "Notes": "",
        "Ref": "[4]"
    },
    {
        "Country": "Russia",
        "City": "Krasnodar",
        "Airport": "Krasnodar Airport",
        "Notes": "",
        "Ref": "[4]"
    },
    {
        "Country": "Russia",
        "City": "Krasnoyarsk",
        "Airport": "Yemelyanovo Airport",
        "Notes": "",
        "Ref": "[4]"
    },
    {
        "Country": "Russia",
        "City": "Novosibirsk",
        "Airport": "Tolmachevo Airport",
        "Notes": "",
        "Ref": "[4]"
    },
    {
        "Country": "Russia",
        "City": "Surgut",
        "Airport": "Surgut Airport",
        "Notes": "",
        "Ref": "[4]"
    },
    {
        "Country": "Russia",
        "City": "Yekaterinburg",
        "Airport": "Koltsovo Airport",
        "Notes": "",
        "Ref": "[4]"
    },
    {
        "Country": "Tajikistan",
        "City": "Dushanbe",
        "Airport": "Dushanbe Airport",
        "Notes": "Terminated",
        "Ref": "[5]"
    },
    {
        "Country": "United Arab Emirates",
        "City": "Dubai",
        "Airport": "Al Maktoum International Airport",
        "Notes": "Terminated",
        "Ref": "[6]"
    },
    {
        "Country": "Uzbekistan",
        "City": "Tashkent",
        "Airport": "Tashkent International Airport",
        "Notes": "",
        "Ref": "[4]"
    }
]