[
    {
        "Club": "Club",
        "Season": "Season",
        "League": "League",
        "FA Cup": "FA Cup",
        "Total": "Total",
        "NO-HEADER5": "",
        "NO-HEADER6": "",
        "NO-HEADER7": "",
        "NO-HEADER8": ""
    },
    {
        "Club": "Club",
        "Season": "Season",
        "League": "Division",
        "FA Cup": "Apps",
        "Total": "Goals",
        "NO-HEADER5": "Apps",
        "NO-HEADER6": "Goals",
        "NO-HEADER7": "Apps",
        "NO-HEADER8": "Goals"
    },
    {
        "Club": "Stoke",
        "Season": "1902AC/EUR\"03",
        "League": "First Division",
        "FA Cup": "1",
        "Total": "0",
        "NO-HEADER5": "0",
        "NO-HEADER6": "0",
        "NO-HEADER7": "1",
        "NO-HEADER8": "0"
    },
    {
        "Club": "Stoke",
        "Season": "1903AC/EUR\"04",
        "League": "First Division",
        "FA Cup": "3",
        "Total": "0",
        "NO-HEADER5": "0",
        "NO-HEADER6": "0",
        "NO-HEADER7": "3",
        "NO-HEADER8": "0"
    },
    {
        "Club": "Stoke",
        "Season": "1904AC/EUR\"05",
        "League": "First Division",
        "FA Cup": "9",
        "Total": "0",
        "NO-HEADER5": "0",
        "NO-HEADER6": "0",
        "NO-HEADER7": "9",
        "NO-HEADER8": "0"
    },
    {
        "Club": "Stoke",
        "Season": "1905AC/EUR\"06",
        "League": "First Division",
        "FA Cup": "37",
        "Total": "0",
        "NO-HEADER5": "2",
        "NO-HEADER6": "1",
        "NO-HEADER7": "39",
        "NO-HEADER8": "1"
    },
    {
        "Club": "Stoke",
        "Season": "1906AC/EUR\"07",
        "League": "First Division",
        "FA Cup": "37",
        "Total": "2",
        "NO-HEADER5": "3",
        "NO-HEADER6": "0",
        "NO-HEADER7": "40",
        "NO-HEADER8": "2"
    },
    {
        "Club": "Stoke",
        "Season": "1907AC/EUR\"08",
        "League": "Second Division",
        "FA Cup": "37",
        "Total": "1",
        "NO-HEADER5": "6",
        "NO-HEADER6": "0",
        "NO-HEADER7": "43",
        "NO-HEADER8": "1"
    },
    {
        "Club": "Stoke",
        "Season": "Total",
        "League": "124",
        "FA Cup": "3",
        "Total": "11",
        "NO-HEADER5": "0",
        "NO-HEADER6": "135",
        "NO-HEADER7": "3",
        "NO-HEADER8": ""
    },
    {
        "Club": "Sheffield United",
        "Season": "1908AC/EUR\"09",
        "League": "First Division",
        "FA Cup": "29",
        "Total": "0",
        "NO-HEADER5": "1",
        "NO-HEADER6": "0",
        "NO-HEADER7": "30",
        "NO-HEADER8": "0"
    },
    {
        "Club": "Sheffield United",
        "Season": "1909AC/EUR\"10",
        "League": "First Division",
        "FA Cup": "38",
        "Total": "1",
        "NO-HEADER5": "1",
        "NO-HEADER6": "0",
        "NO-HEADER7": "39",
        "NO-HEADER8": "1"
    },
    {
        "Club": "Sheffield United",
        "Season": "1910AC/EUR\"11",
        "League": "First Division",
        "FA Cup": "32",
        "Total": "0",
        "NO-HEADER5": "1",
        "NO-HEADER6": "0",
        "NO-HEADER7": "33",
        "NO-HEADER8": "0"
    },
    {
        "Club": "Sheffield United",
        "Season": "1911AC/EUR\"12",
        "League": "First Division",
        "FA Cup": "32",
        "Total": "3",
        "NO-HEADER5": "1",
        "NO-HEADER6": "0",
        "NO-HEADER7": "33",
        "NO-HEADER8": "3"
    },
    {
        "Club": "Sheffield United",
        "Season": "1912AC/EUR\"13",
        "League": "First Division",
        "FA Cup": "29",
        "Total": "0",
        "NO-HEADER5": "0",
        "NO-HEADER6": "0",
        "NO-HEADER7": "29",
        "NO-HEADER8": "0"
    },
    {
        "Club": "Sheffield United",
        "Season": "1913AC/EUR\"14",
        "League": "First Division",
        "FA Cup": "28",
        "Total": "0",
        "NO-HEADER5": "7",
        "NO-HEADER6": "0",
        "NO-HEADER7": "35",
        "NO-HEADER8": "0"
    },
    {
        "Club": "Sheffield United",
        "Season": "1914AC/EUR\"15",
        "League": "First Division",
        "FA Cup": "36",
        "Total": "1",
        "NO-HEADER5": "7",
        "NO-HEADER6": "0",
        "NO-HEADER7": "43",
        "NO-HEADER8": "1"
    },
    {
        "Club": "Sheffield United",
        "Season": "1919AC/EUR\"20",
        "League": "First Division",
        "FA Cup": "42",
        "Total": "0",
        "NO-HEADER5": "2",
        "NO-HEADER6": "0",
        "NO-HEADER7": "44",
        "NO-HEADER8": "0"
    },
    {
        "Club": "Sheffield United",
        "Season": "1920AC/EUR\"21",
        "League": "First Division",
        "FA Cup": "31",
        "Total": "0",
        "NO-HEADER5": "0",
        "NO-HEADER6": "0",
        "NO-HEADER7": "31",
        "NO-HEADER8": "0"
    },
    {
        "Club": "Sheffield United",
        "Season": "1921AC/EUR\"22",
        "League": "First Division",
        "FA Cup": "36",
        "Total": "0",
        "NO-HEADER5": "1",
        "NO-HEADER6": "0",
        "NO-HEADER7": "37",
        "NO-HEADER8": "0"
    },
    {
        "Club": "Sheffield United",
        "Season": "1922AC/EUR\"23",
        "League": "First Division",
        "FA Cup": "20",
        "Total": "0",
        "NO-HEADER5": "1",
        "NO-HEADER6": "0",
        "NO-HEADER7": "21",
        "NO-HEADER8": "0"
    },
    {
        "Club": "Sheffield United",
        "Season": "Total",
        "League": "353",
        "FA Cup": "5",
        "Total": "22",
        "NO-HEADER5": "0",
        "NO-HEADER6": "375",
        "NO-HEADER7": "5",
        "NO-HEADER8": ""
    },
    {
        "Club": "Norwich City",
        "Season": "1923AC/EUR\"24",
        "League": "Third Division South",
        "FA Cup": "32",
        "Total": "0",
        "NO-HEADER5": "3",
        "NO-HEADER6": "0",
        "NO-HEADER7": "35",
        "NO-HEADER8": "0"
    },
    {
        "Club": "Norwich City",
        "Season": "1924AC/EUR\"25",
        "League": "Third Division South",
        "FA Cup": "15",
        "Total": "0",
        "NO-HEADER5": "2",
        "NO-HEADER6": "0",
        "NO-HEADER7": "17",
        "NO-HEADER8": "0"
    },
    {
        "Club": "Norwich City",
        "Season": "Total",
        "League": "47",
        "FA Cup": "0",
        "Total": "5",
        "NO-HEADER5": "0",
        "NO-HEADER6": "52",
        "NO-HEADER7": "0",
        "NO-HEADER8": ""
    },
    {
        "Club": "Career Total",
        "Season": "524",
        "League": "8",
        "FA Cup": "38",
        "Total": "0",
        "NO-HEADER5": "562",
        "NO-HEADER6": "8",
        "NO-HEADER7": "",
        "NO-HEADER8": ""
    }
]