[
    {
        "Year": "2012",
        "Title": "Moths",
        "Role": "Noble",
        "Notes": "Short film"
    },
    {
        "Year": "2013",
        "Title": "Mickey & Michaela Bury Their Dad",
        "Role": "Mickey",
        "Notes": "Short film"
    },
    {
        "Year": "2014",
        "Title": "The Salvation",
        "Role": "Voichek",
        "Notes": ""
    },
    {
        "Year": "2014",
        "Title": "Apprehension",
        "Role": "",
        "Notes": "Short film"
    },
    {
        "Year": "2014",
        "Title": "Nighthawks",
        "Role": "Jack",
        "Notes": "Short film"
    },
    {
        "Year": "2015",
        "Title": "The Son",
        "Role": "The Kid",
        "Notes": "Short film"
    },
    {
        "Year": "2015",
        "Title": "The Removal",
        "Role": "Mick",
        "Notes": "Short flm"
    }
]