[
    {
        "Season": "2013AC/EUR\"2014 [5][16]",
        "Short program": "Sarabande performed by Escala choreo. by Sergei Komolov, Alexei Zhelezniakov",
        "Free skating": "Les Feuilles Mortes (Autumn Leaves) performed by Andre Rieu choreo. by Sergei Komolov, Alexei Zhelezniakov Milord by Marguerite Monnot",
        "Exhibition": ""
    },
    {
        "Season": "2012AC/EUR\"2013 [17]",
        "Short program": "Cornish Rhapsody by Hubert Bath",
        "Free skating": "The Mission by Ennio Morricone",
        "Exhibition": "Hello by Lionel Richie"
    },
    {
        "Season": "2011AC/EUR\"2012",
        "Short program": "Winter by Antonio Vivaldi",
        "Free skating": "Leningrad by William Joseph Ange et Demon by Maxime Rodriguez",
        "Exhibition": ""
    },
    {
        "Season": "2010AC/EUR\"2011 [18]",
        "Short program": "Flamenco by unknown",
        "Free skating": "The Sleeping Beauty by Pyotr Tchaikovsky",
        "Exhibition": ""
    },
    {
        "Season": "2009AC/EUR\"2010",
        "Short program": "Flamenco by unknown",
        "Free skating": "The Sleeping Beauty by Pyotr Tchaikovsky",
        "Exhibition": ""
    },
    {
        "Season": "2008AC/EUR\"2009 [19]",
        "Short program": "Korobushka (Russian folk music) performed by Bond",
        "Free skating": "The Nutcracker by Pyotr Tchaikovsky",
        "Exhibition": "Pajaro Campana by Raul Di Blasio"
    }
]