[
    {
        "Sire Storm Cat (USA) 1983": "Sire Storm Cat (USA) 1983",
        "Storm Bird 1978APSEUREUR": "Storm Bird 1978APSEUREUR",
        "Northern Dancer": "Northern Dancer",
        "Nearctic": "Natalma"
    },
    {
        "Sire Storm Cat (USA) 1983": "Sire Storm Cat (USA) 1983",
        "Storm Bird 1978APSEUREUR": "Storm Bird 1978APSEUREUR",
        "Northern Dancer": "South Ocean",
        "Nearctic": "New Providence"
    },
    {
        "Sire Storm Cat (USA) 1983": "Sire Storm Cat (USA) 1983",
        "Storm Bird 1978APSEUREUR": "Storm Bird 1978APSEUREUR",
        "Northern Dancer": "South Ocean",
        "Nearctic": "Shining Sun"
    },
    {
        "Sire Storm Cat (USA) 1983": "Sire Storm Cat (USA) 1983",
        "Storm Bird 1978APSEUREUR": "Terlingua 1976APSEUREUR",
        "Northern Dancer": "Secretariat",
        "Nearctic": "Bold Ruler"
    },
    {
        "Sire Storm Cat (USA) 1983": "Sire Storm Cat (USA) 1983",
        "Storm Bird 1978APSEUREUR": "Terlingua 1976APSEUREUR",
        "Northern Dancer": "Secretariat",
        "Nearctic": "Somethingroyal"
    },
    {
        "Sire Storm Cat (USA) 1983": "Sire Storm Cat (USA) 1983",
        "Storm Bird 1978APSEUREUR": "Terlingua 1976APSEUREUR",
        "Northern Dancer": "Crimson Saint",
        "Nearctic": "Crimson Satan"
    },
    {
        "Sire Storm Cat (USA) 1983": "Sire Storm Cat (USA) 1983",
        "Storm Bird 1978APSEUREUR": "Terlingua 1976APSEUREUR",
        "Northern Dancer": "Crimson Saint",
        "Nearctic": "Bolero Rose"
    },
    {
        "Sire Storm Cat (USA) 1983": "Dam Sierra Madre (FR) 1991",
        "Storm Bird 1978APSEUREUR": "Baillamont 1982APSEUREUR",
        "Northern Dancer": "Blushing Groom",
        "Nearctic": "Red God"
    },
    {
        "Sire Storm Cat (USA) 1983": "Dam Sierra Madre (FR) 1991",
        "Storm Bird 1978APSEUREUR": "Baillamont 1982APSEUREUR",
        "Northern Dancer": "Blushing Groom",
        "Nearctic": "Runaway Bride"
    },
    {
        "Sire Storm Cat (USA) 1983": "Dam Sierra Madre (FR) 1991",
        "Storm Bird 1978APSEUREUR": "Baillamont 1982APSEUREUR",
        "Northern Dancer": "Lodeve",
        "Nearctic": "Shoemaker"
    },
    {
        "Sire Storm Cat (USA) 1983": "Dam Sierra Madre (FR) 1991",
        "Storm Bird 1978APSEUREUR": "Baillamont 1982APSEUREUR",
        "Northern Dancer": "Lodeve",
        "Nearctic": "Locust Time"
    },
    {
        "Sire Storm Cat (USA) 1983": "Dam Sierra Madre (FR) 1991",
        "Storm Bird 1978APSEUREUR": "Marie dIrlande 1979",
        "Northern Dancer": "Kalamoun",
        "Nearctic": "Zeddaan"
    },
    {
        "Sire Storm Cat (USA) 1983": "Dam Sierra Madre (FR) 1991",
        "Storm Bird 1978APSEUREUR": "Marie dIrlande 1979",
        "Northern Dancer": "Kalamoun",
        "Nearctic": "Khairunessa"
    },
    {
        "Sire Storm Cat (USA) 1983": "Dam Sierra Madre (FR) 1991",
        "Storm Bird 1978APSEUREUR": "Marie dIrlande 1979",
        "Northern Dancer": "La Ferte Milon",
        "Nearctic": "Timmy Lad"
    },
    {
        "Sire Storm Cat (USA) 1983": "Dam Sierra Madre (FR) 1991",
        "Storm Bird 1978APSEUREUR": "Marie dIrlande 1979",
        "Northern Dancer": "La Ferte Milon",
        "Nearctic": "Salamine (Family: 3-d)"
    }
]