[
    {
        "Racial composition": "White",
        "2010[41]": "66.0%",
        "1990[42]": "80.7%",
        "1970[42]": "87.2%",
        "1950[42]": "97.2%"
    },
    {
        "Racial composition": "AC/EUR\"Non-Hispanic",
        "2010[41]": "62.6%",
        "1990[42]": "78.7%",
        "1970[42]": "n\\/a",
        "1950[42]": "n\\/a"
    },
    {
        "Racial composition": "Black or African American",
        "2010[41]": "5.6%",
        "1990[42]": "6.4%",
        "1970[42]": "5.9%",
        "1950[42]": "n\\/a"
    },
    {
        "Racial composition": "Native American or Alaska Native",
        "2010[41]": "7.9%",
        "1990[42]": "6.4%",
        "1970[42]": "1.8%",
        "1950[42]": "1.2%"
    },
    {
        "Racial composition": "Hispanic or Latino (of any race)",
        "2010[41]": "7.6%",
        "1990[42]": "4.1%",
        "1970[42]": "2.4%[43]",
        "1950[42]": "n\\/a"
    },
    {
        "Racial composition": "Asian",
        "2010[41]": "8.1%",
        "1990[42]": "4.8%",
        "1970[42]": "1.0%",
        "1950[42]": "n\\/a"
    }
]