[
    {
        "Mountain": "Richland Balsam",
        "Elevation": "6,410 ft\\/1,950 m",
        "Range": "Great Balsam Mtns.",
        "State(s)": "N.C.",
        "Surface": "Grassy"
    },
    {
        "Mountain": "Black Balsam Knob",
        "Elevation": "6,214 ft\\/1,894 m",
        "Range": "Great Balsam Mtns.",
        "State(s)": "N.C.",
        "Surface": "Grassy"
    },
    {
        "Mountain": "Grassy Ridge Bald",
        "Elevation": "6,189 ft\\/1,886 m",
        "Range": "Roan Highlands",
        "State(s)": "N.C.",
        "Surface": "Grassy"
    },
    {
        "Mountain": "Andrews Bald",
        "Elevation": "5,920 ft\\/1,804 m",
        "Range": "Great Smoky Mtns.",
        "State(s)": "N.C.",
        "Surface": "Grassy"
    },
    {
        "Mountain": "Round Bald",
        "Elevation": "5,826 ft\\/1,775 m",
        "Range": "Roan Highlands",
        "State(s)": "Tenn.\\/N.C.",
        "Surface": "Grassy"
    },
    {
        "Mountain": "Jane Bald",
        "Elevation": "5,820 ft\\/1,773 m",
        "Range": "Roan Highlands",
        "State(s)": "Tenn.\\/N.C.",
        "Surface": "Heath\\/Grassy"
    },
    {
        "Mountain": "Silers Bald",
        "Elevation": "5,607 ft\\/1,709 m",
        "Range": "Great Smoky Mtns.",
        "State(s)": "Tenn.\\/N.C.",
        "Surface": "Grassy\\/Young forest"
    },
    {
        "Mountain": "Hump Mountain",
        "Elevation": "5,587 ft\\/1,703 m",
        "Range": "Roan Highlands",
        "State(s)": "Tenn.\\/N.C.",
        "Surface": "Grassy"
    },
    {
        "Mountain": "Buck Bald",
        "Elevation": "5,560 ft\\/1,609 m",
        "Range": "Great Balsam Mtns.",
        "State(s)": "N.C.",
        "Surface": "Grassy"
    },
    {
        "Mountain": "Huckleberry Knob",
        "Elevation": "5,560 ft\\/1,609 m",
        "Range": "Unicoi Mtns.",
        "State(s)": "N.C.",
        "Surface": "Grassy"
    },
    {
        "Mountain": "Whitetop Mountain",
        "Elevation": "5,540 ft\\/1,688 m",
        "Range": "Grayson Highlands",
        "State(s)": "Virginia",
        "Surface": "Grassy"
    },
    {
        "Mountain": "Big Bald",
        "Elevation": "5,516 ft\\/1,681 m",
        "Range": "Bald Mtns.",
        "State(s)": "Tenn.\\/N.C.",
        "Surface": "Grassy"
    },
    {
        "Mountain": "Thunderhead Mountain (middle summit)",
        "Elevation": "5,485 ft\\/1,672 m",
        "Range": "Great Smoky Mtns.",
        "State(s)": "Tenn.\\/N.C.",
        "Surface": "Heath"
    },
    {
        "Mountain": "Hooper Bald",
        "Elevation": "5,429 ft\\/1,655 m",
        "Range": "Unicoi Mtns.",
        "State(s)": "N.C.",
        "Surface": "Grassy"
    },
    {
        "Mountain": "Yellow Mountain",
        "Elevation": "5,420 ft\\/1,652 m",
        "Range": "Roan Highlands",
        "State(s)": "Tenn.\\/N.C.",
        "Surface": "Grassy"
    },
    {
        "Mountain": "Hemphill Bald",
        "Elevation": "5,400 ft\\/1,646 m",
        "Range": "Great Smoky Mtns.",
        "State(s)": "N.C.",
        "Surface": "Grassy"
    },
    {
        "Mountain": "Bob Stratton Bald",
        "Elevation": "5,360 ft\\/1,634 m",
        "Range": "Unicoi Mtns.",
        "State(s)": "N.C.",
        "Surface": "Grassy"
    },
    {
        "Mountain": "Wayah Bald",
        "Elevation": "5,342 ft\\/1,628 m",
        "Range": "Nantahala Mtns.",
        "State(s)": "N.C.",
        "Surface": "Heath"
    },
    {
        "Mountain": "Tusquitee Bald",
        "Elevation": "5,240 ft\\/1,597 m",
        "Range": "Nantahala Mtns.",
        "State(s)": "N.C.",
        "Surface": "Grassy"
    },
    {
        "Mountain": "Maddron Bald",
        "Elevation": "5,200 ft\\/1,585 m",
        "Range": "Great Smoky Mtns.",
        "State(s)": "Tennessee",
        "Surface": "Heath"
    },
    {
        "Mountain": "Siler Bald",
        "Elevation": "5,200 ft\\/1,585 m",
        "Range": "Nantahala Mtns.",
        "State(s)": "N.C.",
        "Surface": "Grassy"
    },
    {
        "Mountain": "Sandymush Bald",
        "Elevation": "5,152 ft\\/1,507 m",
        "Range": "Central Blue Ridge Mtns.",
        "State(s)": "N.C.",
        "Surface": "Grassy"
    },
    {
        "Mountain": "Cheoah Bald",
        "Elevation": "5,062 ft\\/1,543 m",
        "Range": "Cheoah Mtns.",
        "State(s)": "N.C.",
        "Surface": "Grassy"
    },
    {
        "Mountain": "Gregory Bald",
        "Elevation": "4,949 ft\\/1,508 m",
        "Range": "Great Smoky Mtns.",
        "State(s)": "Tenn.\\/N.C.",
        "Surface": "Grassy"
    },
    {
        "Mountain": "Spence Field",
        "Elevation": "4,920 ft\\/1,500 m",
        "Range": "Great Smoky Mtns.",
        "State(s)": "Tenn.\\/N.C.",
        "Surface": "Grassy\\/Young forest"
    },
    {
        "Mountain": "Brasstown Bald",
        "Elevation": "4,784 ft\\/1,458 m",
        "Range": "Southern Blue Ridge Mtns.",
        "State(s)": "Georgia",
        "Surface": "Heath"
    },
    {
        "Mountain": "Ben Parton Lookout",
        "Elevation": "4,754\\/1,449 m",
        "Range": "Great Smoky Mtns.",
        "State(s)": "Tennessee",
        "Surface": "Heath"
    },
    {
        "Mountain": "Parson Bald",
        "Elevation": "4,732 ft\\/1,442 m",
        "Range": "Great Smoky Mtns.",
        "State(s)": "Tenn.\\/N.C.",
        "Surface": "Grassy"
    },
    {
        "Mountain": "Rabun Bald",
        "Elevation": "4,696 ft\\/1,431 m",
        "Range": "Southern Blue Ridge Mtns.",
        "State(s)": "Georgia",
        "Surface": "Heath"
    },
    {
        "Mountain": "Max Patch Mountain",
        "Elevation": "4,629 ft\\/ 1,411 m",
        "Range": "Bald Mtns.",
        "State(s)": "N.C.",
        "Surface": "Grassy"
    },
    {
        "Mountain": "Russell Field",
        "Elevation": "4,455 ft\\/1,358 m",
        "Range": "Great Smoky Mtns.",
        "State(s)": "Tenn.\\/N.C.",
        "Surface": "Grassy\\/Young forest"
    },
    {
        "Mountain": "Elk Garden",
        "Elevation": "4,450 ft\\/1,356 m",
        "Range": "Grayson Highlands",
        "State(s)": "Virginia",
        "Surface": "Grassy"
    },
    {
        "Mountain": "Beauty Spot",
        "Elevation": "4,437 ft\\/1,352 m",
        "Range": "Unaka Mtns.",
        "State(s)": "Tenn.\\/N.C.",
        "Surface": "Grassy"
    },
    {
        "Mountain": "Big Bald Mountain",
        "Elevation": "4,075 ft\\/1,242 m",
        "Range": "Southern Blue Ridge Mtns.",
        "State(s)": "Georgia",
        "Surface": "Grassy"
    }
]