[
    {
        "Views\\/Day": "68",
        "Quality": "1.0",
        "Title": "Single bond (talk)",
        "Content": "0.0",
        "Headings": "0.0",
        "Images": "2.0",
        "Links": "0.0",
        "Sources": "0.0",
        "Tagged withAC/EURA|": "Add sources"
    },
    {
        "Views\\/Day": "113",
        "Quality": "1.0",
        "Title": "Angelica Costello (talk)",
        "Content": "0.0",
        "Headings": "0.0",
        "Images": "0.0",
        "Links": "0.0",
        "Sources": "0.0",
        "Tagged withAC/EURA|": "Add sources"
    },
    {
        "Views\\/Day": "477",
        "Quality": "2.0",
        "Title": "Brianna Love (talk)",
        "Content": "0.0",
        "Headings": "0.0",
        "Images": "0.0",
        "Links": "0.0",
        "Sources": "0.0",
        "Tagged withAC/EURA|": "Add sources"
    },
    {
        "Views\\/Day": "2,774",
        "Quality": "2.0",
        "Title": "The World's End (film) (talk)",
        "Content": "2.0",
        "Headings": "2.0",
        "Images": "0.0",
        "Links": "2.0",
        "Sources": "0.0",
        "Tagged withAC/EURA|": "Add sources"
    },
    {
        "Views\\/Day": "1,100",
        "Quality": "2.0",
        "Title": "Pornography in Japan (talk)",
        "Content": "2.0",
        "Headings": "2.0",
        "Images": "0.0",
        "Links": "2.0",
        "Sources": "0.0",
        "Tagged withAC/EURA|": "Add sources"
    },
    {
        "Views\\/Day": "119",
        "Quality": "1.0",
        "Title": "Alexandra Quinn (talk)",
        "Content": "0.0",
        "Headings": "0.0",
        "Images": "0.0",
        "Links": "0.0",
        "Sources": "0.0",
        "Tagged withAC/EURA|": "Add sources"
    },
    {
        "Views\\/Day": "29",
        "Quality": "1.0",
        "Title": "Agnews Developmental Center (talk)",
        "Content": "0.0",
        "Headings": "0.0",
        "Images": "2.0",
        "Links": "2.0",
        "Sources": "0.0",
        "Tagged withAC/EURA|": "Cleanup"
    },
    {
        "Views\\/Day": "841",
        "Quality": "3.0",
        "Title": "School shooting (talk)",
        "Content": "2.0",
        "Headings": "2.0",
        "Images": "0.0",
        "Links": "2.0",
        "Sources": "2.0",
        "Tagged withAC/EURA|": "Cleanup"
    },
    {
        "Views\\/Day": "36",
        "Quality": "2.0",
        "Title": "LGBT history in Singapore (talk)",
        "Content": "2.0",
        "Headings": "2.0",
        "Images": "2.0",
        "Links": "2.0",
        "Sources": "0.0",
        "Tagged withAC/EURA|": "Cleanup"
    },
    {
        "Views\\/Day": "723",
        "Quality": "2.0",
        "Title": "Sexual revolution (talk)",
        "Content": "2.0",
        "Headings": "2.0",
        "Images": "0.0",
        "Links": "2.0",
        "Sources": "0.0",
        "Tagged withAC/EURA|": "Expand"
    },
    {
        "Views\\/Day": "1,433",
        "Quality": "3.0",
        "Title": "Kung Fu Panda (talk)",
        "Content": "2.0",
        "Headings": "2.0",
        "Images": "2.0",
        "Links": "2.0",
        "Sources": "2.0",
        "Tagged withAC/EURA|": "Expand"
    },
    {
        "Views\\/Day": "13",
        "Quality": "2.0",
        "Title": "Park golf (talk)",
        "Content": "0.0",
        "Headings": "2.0",
        "Images": "2.0",
        "Links": "0.0",
        "Sources": "0.0",
        "Tagged withAC/EURA|": "Expand"
    },
    {
        "Views\\/Day": "154",
        "Quality": "2.0",
        "Title": "Editing of anime in American distribution (talk)",
        "Content": "2.0",
        "Headings": "2.0",
        "Images": "2.0",
        "Links": "2.0",
        "Sources": "0.0",
        "Tagged withAC/EURA|": "Unencyclopaedic"
    },
    {
        "Views\\/Day": "591",
        "Quality": "3.0",
        "Title": "Sean Paul Lockhart (talk)",
        "Content": "2.0",
        "Headings": "2.0",
        "Images": "0.0",
        "Links": "2.0",
        "Sources": "2.0",
        "Tagged withAC/EURA|": "Unencyclopaedic"
    },
    {
        "Views\\/Day": "260",
        "Quality": "1.0",
        "Title": "Militia movement (talk)",
        "Content": "2.0",
        "Headings": "0.0",
        "Images": "0.0",
        "Links": "2.0",
        "Sources": "0.0",
        "Tagged withAC/EURA|": "Unencyclopaedic"
    },
    {
        "Views\\/Day": "148",
        "Quality": "1.0",
        "Title": "Anal vibrator (talk)",
        "Content": "0.0",
        "Headings": "0.0",
        "Images": "0.0",
        "Links": "0.0",
        "Sources": "0.0",
        "Tagged withAC/EURA|": "Merge"
    },
    {
        "Views\\/Day": "110",
        "Quality": "2.0",
        "Title": "International cybercrime (talk)",
        "Content": "2.0",
        "Headings": "2.0",
        "Images": "0.0",
        "Links": "2.0",
        "Sources": "0.0",
        "Tagged withAC/EURA|": "Merge"
    },
    {
        "Views\\/Day": "41",
        "Quality": "3.0",
        "Title": "Anti-pedophile activism (talk)",
        "Content": "0.0",
        "Headings": "2.0",
        "Images": "0.0",
        "Links": "2.0",
        "Sources": "0.0",
        "Tagged withAC/EURA|": "Merge"
    },
    {
        "Views\\/Day": "44",
        "Quality": "1.0",
        "Title": "Sam and Twitch (talk)",
        "Content": "0.0",
        "Headings": "2.0",
        "Images": "0.0",
        "Links": "2.0",
        "Sources": "0.0",
        "Tagged withAC/EURA|": "Wikify"
    },
    {
        "Views\\/Day": "31",
        "Quality": "1.0",
        "Title": "1997 in home video (talk)",
        "Content": "0.0",
        "Headings": "2.0",
        "Images": "2.0",
        "Links": "2.0",
        "Sources": "0.0",
        "Tagged withAC/EURA|": "Wikify"
    },
    {
        "Views\\/Day": "98",
        "Quality": "1.0",
        "Title": "Mobile phone overuse (talk)",
        "Content": "0.0",
        "Headings": "0.0",
        "Images": "0.0",
        "Links": "0.0",
        "Sources": "0.0",
        "Tagged withAC/EURA|": "Wikify"
    },
    {
        "Views\\/Day": "94",
        "Quality": "1.0",
        "Title": "Anja Juliette Laval (talk)",
        "Content": "0.0",
        "Headings": "0.0",
        "Images": "0.0",
        "Links": "0.0",
        "Sources": "0.0",
        "Tagged withAC/EURA|": "Orphan"
    },
    {
        "Views\\/Day": "174",
        "Quality": "1.0",
        "Title": "Sabrina Blond (talk)",
        "Content": "0.0",
        "Headings": "0.0",
        "Images": "0.0",
        "Links": "0.0",
        "Sources": "0.0",
        "Tagged withAC/EURA|": "Orphan"
    },
    {
        "Views\\/Day": "69",
        "Quality": "1.0",
        "Title": "Amber Sym (talk)",
        "Content": "0.0",
        "Headings": "0.0",
        "Images": "0.0",
        "Links": "0.0",
        "Sources": "0.0",
        "Tagged withAC/EURA|": "Orphan"
    },
    {
        "Views\\/Day": "78",
        "Quality": "1.0",
        "Title": "Eric Edwards (pornographic actor) (talk)",
        "Content": "0.0",
        "Headings": "0.0",
        "Images": "0.0",
        "Links": "0.0",
        "Sources": "0.0",
        "Tagged withAC/EURA|": "Stub"
    },
    {
        "Views\\/Day": "292",
        "Quality": "1.0",
        "Title": "Roxy Jezel (talk)",
        "Content": "0.0",
        "Headings": "0.0",
        "Images": "0.0",
        "Links": "0.0",
        "Sources": "0.0",
        "Tagged withAC/EURA|": "Stub"
    },
    {
        "Views\\/Day": "26",
        "Quality": "1.0",
        "Title": "Adultcon (talk)",
        "Content": "0.0",
        "Headings": "0.0",
        "Images": "0.0",
        "Links": "0.0",
        "Sources": "0.0",
        "Tagged withAC/EURA|": "Stub"
    },
    {
        "Views\\/Day": "33",
        "Quality": "1.0",
        "Title": "Sin City (studio) (talk)",
        "Content": "0.0",
        "Headings": "0.0",
        "Images": "0.0",
        "Links": "0.0",
        "Sources": "0.0",
        "Tagged withAC/EURA|": "Stub"
    },
    {
        "Views\\/Day": "390",
        "Quality": "3.0",
        "Title": "Alexis Love (talk)",
        "Content": "0.0",
        "Headings": "0.0",
        "Images": "0.0",
        "Links": "0.0",
        "Sources": "0.0",
        "Tagged withAC/EURA|": "Stub"
    },
    {
        "Views\\/Day": "657",
        "Quality": "1.0",
        "Title": "Adrianna Luna (talk)",
        "Content": "0.0",
        "Headings": "0.0",
        "Images": "0.0",
        "Links": "0.0",
        "Sources": "0.0",
        "Tagged withAC/EURA|": "Stub"
    }
]