[
    {
        "City": "El Oro",
        "State": "Mexico State",
        "Code": "711"
    },
    {
        "City": "Santa Rosa de Lima",
        "State": "Mexico State",
        "Code": "711"
    },
    {
        "City": "Santiago Oxtempan",
        "State": "Mexico State",
        "Code": "711"
    },
    {
        "City": "Tlalpujahua",
        "State": "Michoacan",
        "Code": "711"
    },
    {
        "City": "Atlacomulco",
        "State": "Mexico State",
        "Code": "712"
    },
    {
        "City": "Chosto de los Jarros",
        "State": "Mexico State",
        "Code": "712"
    },
    {
        "City": "Ixtlahuaca",
        "State": "Mexico State",
        "Code": "712"
    },
    {
        "City": "Jiquipilco",
        "State": "Mexico State",
        "Code": "712"
    },
    {
        "City": "Jocotitlan",
        "State": "Mexico State",
        "Code": "712"
    },
    {
        "City": "San Andres Timilpan",
        "State": "Mexico State",
        "Code": "712"
    },
    {
        "City": "San Bartolo Morelos",
        "State": "Mexico State",
        "Code": "712"
    },
    {
        "City": "San Felipe del Progreso",
        "State": "Mexico State",
        "Code": "712"
    },
    {
        "City": "San Francisco Cheje",
        "State": "Mexico State",
        "Code": "712"
    },
    {
        "City": "San Jeronimo Ixtapantongo",
        "State": "Mexico State",
        "Code": "712"
    },
    {
        "City": "San Jose del Rincon",
        "State": "Mexico State",
        "Code": "712"
    },
    {
        "City": "San Lorenzo Malacota",
        "State": "Mexico State",
        "Code": "712"
    },
    {
        "City": "San Lorenzo Toxico",
        "State": "EstMexico State",
        "Code": "712"
    },
    {
        "City": "San Miguel Tenochtitlan",
        "State": "Mexico State",
        "Code": "712"
    },
    {
        "City": "San Pedro los Banos",
        "State": "Mexico State",
        "Code": "712"
    },
    {
        "City": "San Sebastian Buenos Aires",
        "State": "Mexico State",
        "Code": "712"
    },
    {
        "City": "Santa Cruz Tepexpan",
        "State": "Mexico State",
        "Code": "712"
    },
    {
        "City": "Santiago Acutzilapan",
        "State": "Mexico State",
        "Code": "712"
    },
    {
        "City": "Santiago Yeche",
        "State": "Mexico State",
        "Code": "712"
    },
    {
        "City": "San Nicolas Tlazala",
        "State": "Mexico State",
        "Code": "713"
    },
    {
        "City": "Santa Cruz Atizapan",
        "State": "Mexico State",
        "Code": "713"
    },
    {
        "City": "Santiago Tianguistenco",
        "State": "Mexico State",
        "Code": "713"
    },
    {
        "City": "Xalatlaco",
        "State": "Mexico State",
        "Code": "713"
    },
    {
        "City": "Chalma",
        "State": "Mexico State",
        "Code": "714"
    },
    {
        "City": "Joquicingo de Leon Guzman",
        "State": "Mexico State",
        "Code": "714"
    },
    {
        "City": "Malinalco",
        "State": "Mexico State",
        "Code": "714"
    },
    {
        "City": "Ocuilan de Arteaga",
        "State": "Mexico State",
        "Code": "714"
    },
    {
        "City": "San Juan Xochiaca",
        "State": "Mexico State",
        "Code": "714"
    },
    {
        "City": "San Miguel",
        "State": "Mexico State",
        "Code": "714"
    },
    {
        "City": "San Simon El Alto",
        "State": "Mexico State",
        "Code": "714"
    },
    {
        "City": "Santa Maria Aranza",
        "State": "Mexico State",
        "Code": "714"
    },
    {
        "City": "Santa Martha",
        "State": "Mexico State",
        "Code": "714"
    },
    {
        "City": "Santiago Oxtotitlan",
        "State": "Mexico State",
        "Code": "714"
    },
    {
        "City": "San Miguel Tecomatlan",
        "State": "Mexico State",
        "Code": "714"
    },
    {
        "City": "Tenancingo",
        "State": "Mexico State",
        "Code": "714"
    },
    {
        "City": "Villa Guerrero",
        "State": "Mexico State",
        "Code": "714"
    },
    {
        "City": "Zumpahuacan",
        "State": "Mexico State",
        "Code": "714"
    },
    {
        "City": "Angangueo",
        "State": "Michoacan",
        "Code": "715"
    },
    {
        "City": "Jungapeo",
        "State": "Michoacan",
        "Code": "715"
    },
    {
        "City": "Ocampo",
        "State": "Michoacan",
        "Code": "715"
    },
    {
        "City": "Zirahuato de Los Bernal",
        "State": "Michoacan",
        "Code": "715"
    },
    {
        "City": "Zitacuaro",
        "State": "Michoacan",
        "Code": "715"
    },
    {
        "City": "Almoloya de Alquisiras",
        "State": "Mexico State",
        "Code": "716"
    },
    {
        "City": "Amatepec",
        "State": "Mexico State",
        "Code": "716"
    },
    {
        "City": "El Cerro del Campo",
        "State": "Mexico State",
        "Code": "716"
    },
    {
        "City": "El Salitre Palmarillos",
        "State": "Mexico State",
        "Code": "716"
    },
    {
        "City": "Palmar Chico",
        "State": "Mexico State",
        "Code": "716"
    },
    {
        "City": "San Francisco de Asis",
        "State": "Mexico State",
        "Code": "716"
    },
    {
        "City": "San Pedro Limon",
        "State": "Mexico State",
        "Code": "716"
    },
    {
        "City": "San Simon de Guerrero",
        "State": "Mexico State",
        "Code": "716"
    },
    {
        "City": "San Simon",
        "State": "Mexico State",
        "Code": "716"
    },
    {
        "City": "Santa Ana Zicatecoyan",
        "State": "Mexico State",
        "Code": "716"
    },
    {
        "City": "Sultepec",
        "State": "Mexico State",
        "Code": "716"
    },
    {
        "City": "Temascaltepec",
        "State": "Mexico State",
        "Code": "716"
    },
    {
        "City": "Texcaltitlan",
        "State": "Mexico State",
        "Code": "716"
    },
    {
        "City": "Tlatlaya",
        "State": "Mexico State",
        "Code": "716"
    },
    {
        "City": "Atlatlahuca",
        "State": "Mexico State",
        "Code": "717"
    },
    {
        "City": "San Antonio la Isla",
        "State": "Mexico State",
        "Code": "717"
    },
    {
        "City": "San Miguel Balderas",
        "State": "Mexico State",
        "Code": "717"
    },
    {
        "City": "Santa Maria Jajalpa",
        "State": "Mexico State",
        "Code": "717"
    },
    {
        "City": "Tenango de Arista",
        "State": "Mexico State",
        "Code": "717"
    },
    {
        "City": "Acambay",
        "State": "Mexico State",
        "Code": "718"
    },
    {
        "City": "Aculco",
        "State": "Mexico State",
        "Code": "718"
    },
    {
        "City": "Ahuacatitlan Centro",
        "State": "Mexico State",
        "Code": "718"
    },
    {
        "City": "Arroyo Zarco",
        "State": "Mexico State",
        "Code": "718"
    },
    {
        "City": "San Jose Agostadero",
        "State": "Mexico State",
        "Code": "718"
    },
    {
        "City": "Ex-hacienda de Solis",
        "State": "Mexico State",
        "Code": "718"
    },
    {
        "City": "La Loma",
        "State": "Mexico State",
        "Code": "718"
    },
    {
        "City": "San Francisco Tepeolulco",
        "State": "Mexico State",
        "Code": "718"
    },
    {
        "City": "San Lucas Totolmaloya",
        "State": "Mexico State",
        "Code": "718"
    },
    {
        "City": "Santa Ana Matlabat",
        "State": "Mexico State",
        "Code": "718"
    },
    {
        "City": "Santa Maria Canchesda",
        "State": "Mexico State",
        "Code": "718"
    },
    {
        "City": "Santiago Coachochitlan",
        "State": "Mexico State",
        "Code": "718"
    },
    {
        "City": "Temascalcingo",
        "State": "Mexico State",
        "Code": "718"
    },
    {
        "City": "Tuxmadeje Grande (Santa Maria T)",
        "State": "Mexico State",
        "Code": "718"
    },
    {
        "City": "Jiquipilco El Viejo",
        "State": "Mexico State",
        "Code": "719"
    },
    {
        "City": "San Francisco Xonacatlan",
        "State": "Mexico State",
        "Code": "719"
    },
    {
        "City": "San Miguel Mimiapan",
        "State": "Mexico State",
        "Code": "719"
    },
    {
        "City": "Santa Ana Jilotzingo",
        "State": "Mexico State",
        "Code": "719"
    },
    {
        "City": "Santiago Tejocotillos (Tejocoti)",
        "State": "Mexico State",
        "Code": "719"
    },
    {
        "City": "Temoaya",
        "State": "Mexico State",
        "Code": "719"
    },
    {
        "City": "Villa Cuauhtemoc",
        "State": "Mexico State",
        "Code": "719"
    },
    {
        "City": "Ixtapan de la Sal",
        "State": "Mexico State",
        "Code": "721"
    },
    {
        "City": "La Puerta de santiago",
        "State": "Mexico State",
        "Code": "721"
    },
    {
        "City": "Tonatico",
        "State": "Mexico State",
        "Code": "721"
    },
    {
        "City": "Zacualpan",
        "State": "Mexico State",
        "Code": "721"
    },
    {
        "City": "Pilcaya",
        "State": "Guerrero",
        "Code": "721"
    },
    {
        "City": "Tetipac",
        "State": "Guerrero",
        "Code": "721"
    },
    {
        "City": "Calimaya de Diaz Gonzalez",
        "State": "Mexico State",
        "Code": "722"
    },
    {
        "City": "Calixtlahuaca",
        "State": "Mexico State",
        "Code": "722"
    },
    {
        "City": "Capardillas (Rancho Santa Lugarda)",
        "State": "Mexico State",
        "Code": "722"
    },
    {
        "City": "Colonia Agricola Alvaro Obregon",
        "State": "Mexico State",
        "Code": "722"
    },
    {
        "City": "El Cerrillo Piedras Blancas (El Cerrillo)",
        "State": "Mexico State",
        "Code": "722"
    },
    {
        "City": "Loma de San Luis Mextepec",
        "State": "Mexico State",
        "Code": "722"
    },
    {
        "City": "Metepec",
        "State": "Mexico State",
        "Code": "722"
    },
    {
        "City": "Mexicaltzingo",
        "State": "Mexico State",
        "Code": "722"
    },
    {
        "City": "San Andres Cuexcontitlan",
        "State": "Mexico State",
        "Code": "722"
    },
    {
        "City": "San Juan de las Huertas",
        "State": "Mexico State",
        "Code": "722"
    },
    {
        "City": "San Juan Tilapa",
        "State": "Mexico State",
        "Code": "722"
    },
    {
        "City": "San Mateo Otzacatipan",
        "State": "Mexico State",
        "Code": "722"
    },
    {
        "City": "San Miguel Zinacantepec",
        "State": "Mexico State",
        "Code": "722"
    },
    {
        "City": "San Pablo Autopan",
        "State": "Mexico State",
        "Code": "722"
    },
    {
        "City": "San Pedro Totoltepec",
        "State": "Mexico State",
        "Code": "722"
    },
    {
        "City": "Tlachaloya",
        "State": "Mexico State",
        "Code": "722"
    },
    {
        "City": "Toluca",
        "State": "Mexico State",
        "Code": "722"
    },
    {
        "City": "Chiltepec de Hidalgo",
        "State": "Mexico State",
        "Code": "723"
    },
    {
        "City": "Coatepec Harinas",
        "State": "Mexico State",
        "Code": "723"
    },
    {
        "City": "Cochisquila",
        "State": "Mexico State",
        "Code": "723"
    },
    {
        "City": "Ixtlahuaca de Villada",
        "State": "Mexico State",
        "Code": "723"
    },
    {
        "City": "Almoloya de las Granadas",
        "State": "Mexico State",
        "Code": "724"
    },
    {
        "City": "Bejucos",
        "State": "Mexico State",
        "Code": "724"
    },
    {
        "City": "El Estanco",
        "State": "Mexico State",
        "Code": "724"
    },
    {
        "City": "Hermiltepec (Pena Blanca)",
        "State": "Mexico State",
        "Code": "724"
    },
    {
        "City": "Luvianos",
        "State": "Mexico State",
        "Code": "724"
    },
    {
        "City": "San Juan Acatitlan",
        "State": "Mexico State",
        "Code": "724"
    },
    {
        "City": "San Miguel Ixtapan",
        "State": "Mexico State",
        "Code": "724"
    },
    {
        "City": "Tejupilco de Hidalgo",
        "State": "Mexico State",
        "Code": "724"
    },
    {
        "City": "Almoloya de Juarez",
        "State": "Mexico State",
        "Code": "725"
    },
    {
        "City": "Cieneguillas",
        "State": "Mexico State",
        "Code": "725"
    },
    {
        "City": "Mina Mexico",
        "State": "Mexico State",
        "Code": "725"
    },
    {
        "City": "San Francisco Tlalcilalcalpan",
        "State": "Mexico State",
        "Code": "725"
    },
    {
        "City": "Santa Maria del Monte",
        "State": "Mexico State",
        "Code": "725"
    },
    {
        "City": "Amanalco de Becerra",
        "State": "Mexico State",
        "Code": "726"
    },
    {
        "City": "Colonia Dr. Gustavo Baz",
        "State": "Mexico State",
        "Code": "726"
    },
    {
        "City": "Colorines",
        "State": "Mexico State",
        "Code": "726"
    },
    {
        "City": "Ixtapan del Oro",
        "State": "Mexico State",
        "Code": "726"
    },
    {
        "City": "Loma de Juarez",
        "State": "Mexico State",
        "Code": "726"
    },
    {
        "City": "Otzoloapan",
        "State": "Mexico State",
        "Code": "726"
    },
    {
        "City": "Santa Maria Pipioltepec",
        "State": "Mexico State",
        "Code": "726"
    },
    {
        "City": "Rancho Avandaro",
        "State": "Mexico State",
        "Code": "726"
    },
    {
        "City": "San Felipe Santiago",
        "State": "Mexico State",
        "Code": "726"
    },
    {
        "City": "San Gaspar",
        "State": "Mexico State",
        "Code": "726"
    },
    {
        "City": "San Jose Villa de Allende",
        "State": "Mexico State",
        "Code": "726"
    },
    {
        "City": "San Juan Atezcapan",
        "State": "Mexico State",
        "Code": "726"
    },
    {
        "City": "Tenantongo (Avandaro)",
        "State": "Mexico State",
        "Code": "726"
    },
    {
        "City": "Valle de Bravo",
        "State": "Mexico State",
        "Code": "726"
    },
    {
        "City": "Villa Victoria",
        "State": "Mexico State",
        "Code": "726"
    },
    {
        "City": "Zacazonapan",
        "State": "Mexico State",
        "Code": "726"
    },
    {
        "City": "Atenango del Rio",
        "State": "Guerrero",
        "Code": "727"
    },
    {
        "City": "Buenavista de Cuellar",
        "State": "Guerrero",
        "Code": "727"
    },
    {
        "City": "Chaucingo",
        "State": "Guerrero",
        "Code": "727"
    },
    {
        "City": "Copalillo",
        "State": "Guerrero",
        "Code": "727"
    },
    {
        "City": "Huitzuco",
        "State": "Guerrero",
        "Code": "727"
    },
    {
        "City": "Paso Morelos (Cuetlajuchi)",
        "State": "Guerrero",
        "Code": "727"
    },
    {
        "City": "Quetzalapa",
        "State": "Guerrero",
        "Code": "727"
    },
    {
        "City": "Tlaxmalac",
        "State": "Guerrero",
        "Code": "727"
    },
    {
        "City": "Tuliman",
        "State": "Guerrero",
        "Code": "727"
    },
    {
        "City": "Zacapalco",
        "State": "Guerrero",
        "Code": "727"
    },
    {
        "City": "La Unidad Huitzizilapan",
        "State": "Mexico State",
        "Code": "728"
    },
    {
        "City": "Lerma",
        "State": "Mexico State",
        "Code": "728"
    },
    {
        "City": "Ocoyoacac",
        "State": "Mexico State",
        "Code": "728"
    },
    {
        "City": "San Lorenzo Huitzizilapan",
        "State": "Mexico State",
        "Code": "728"
    },
    {
        "City": "San Mateo Atenco",
        "State": "Mexico State",
        "Code": "728"
    },
    {
        "City": "San Pedro Atlapulco",
        "State": "Mexico State",
        "Code": "728"
    },
    {
        "City": "Santa Maria Tlalmimilolpan",
        "State": "Mexico State",
        "Code": "728"
    },
    {
        "City": "Santa Mateo Atarasquillo",
        "State": "Mexico State",
        "Code": "728"
    },
    {
        "City": "Amayuca",
        "State": "Morelos",
        "Code": "731"
    },
    {
        "City": "Chalcatzingo",
        "State": "Morelos",
        "Code": "731"
    },
    {
        "City": "Huecahuasco",
        "State": "Morelos",
        "Code": "731"
    },
    {
        "City": "Huejotengo (San Marcos)",
        "State": "Morelos",
        "Code": "731"
    },
    {
        "City": "San Andres Hueyapan",
        "State": "Morelos",
        "Code": "731"
    },
    {
        "City": "Jumiltepec",
        "State": "Morelos",
        "Code": "731"
    },
    {
        "City": "Ocuituco",
        "State": "Morelos",
        "Code": "731"
    },
    {
        "City": "Tecajec",
        "State": "Morelos",
        "Code": "731"
    },
    {
        "City": "Tetela del Volcan",
        "State": "Morelos",
        "Code": "731"
    },
    {
        "City": "Tlacotepec",
        "State": "Morelos",
        "Code": "731"
    },
    {
        "City": "Yecapixtla",
        "State": "Morelos",
        "Code": "731"
    },
    {
        "City": "Zacualpan",
        "State": "Morelos",
        "Code": "731"
    },
    {
        "City": "Acuchillan del Progreso",
        "State": "Guerrero",
        "Code": "732"
    },
    {
        "City": "Arcelia",
        "State": "Guerrero",
        "Code": "732"
    },
    {
        "City": "Arroyo Grande",
        "State": "Guerrero",
        "Code": "732"
    },
    {
        "City": "Changata",
        "State": "Guerrero",
        "Code": "732"
    },
    {
        "City": "Cutzamala de Pinzon",
        "State": "Guerrero",
        "Code": "732"
    },
    {
        "City": "El Escondido",
        "State": "Guerrero",
        "Code": "732"
    },
    {
        "City": "Nuevo Galeana",
        "State": "Guerrero",
        "Code": "732"
    },
    {
        "City": "Presa Palos Altos",
        "State": "Guerrero",
        "Code": "732"
    },
    {
        "City": "San Jose Poliutla",
        "State": "Guerrero",
        "Code": "732"
    },
    {
        "City": "San Miguel Totolapan",
        "State": "Guerrero",
        "Code": "732"
    },
    {
        "City": "Santa Ana del Aguila",
        "State": "Guerrero",
        "Code": "732"
    },
    {
        "City": "Tamacuaro",
        "State": "Guerrero",
        "Code": "732"
    },
    {
        "City": "Tlalchapa",
        "State": "Guerrero",
        "Code": "732"
    },
    {
        "City": "Tlapehuala",
        "State": "Guerrero",
        "Code": "732"
    },
    {
        "City": "Villa Hidalgo (El Cubo)",
        "State": "Guerrero",
        "Code": "732"
    },
    {
        "City": "Villa Nicolas Bravo",
        "State": "Guerrero",
        "Code": "732"
    },
    {
        "City": "Zacapuato",
        "State": "Guerrero",
        "Code": "732"
    },
    {
        "City": "Ahuehuepan",
        "State": "Guerrero",
        "Code": "733"
    },
    {
        "City": "Coacoyula de Alvarez",
        "State": "Guerrero",
        "Code": "733"
    },
    {
        "City": "El Crucero de Pololcingo",
        "State": "Guerrero",
        "Code": "733"
    },
    {
        "City": "El Naranjo",
        "State": "Guerrero",
        "Code": "733"
    },
    {
        "City": "Iguala",
        "State": "Guerrero",
        "Code": "733"
    },
    {
        "City": "Maxela",
        "State": "Guerrero",
        "Code": "733"
    },
    {
        "City": "Mayanalan",
        "State": "Guerrero",
        "Code": "733"
    },
    {
        "City": "Mezcala",
        "State": "Guerrero",
        "Code": "733"
    },
    {
        "City": "Sabana Grande",
        "State": "Guerrero",
        "Code": "733"
    },
    {
        "City": "San Juan Tetelcingo",
        "State": "Guerrero",
        "Code": "733"
    },
    {
        "City": "San Miguel Tecuixiapan",
        "State": "Guerrero",
        "Code": "733"
    },
    {
        "City": "San Vicente Palapa",
        "State": "Guerrero",
        "Code": "733"
    },
    {
        "City": "Santa Teresa",
        "State": "Guerrero",
        "Code": "733"
    },
    {
        "City": "Tepecoacuilco de Trujano",
        "State": "Guerrero",
        "Code": "733"
    },
    {
        "City": "Tonalapa del Sur",
        "State": "Guerrero",
        "Code": "733"
    },
    {
        "City": "Tuxpan",
        "State": "Guerrero",
        "Code": "733"
    },
    {
        "City": "Zacacoyuca",
        "State": "Guerrero",
        "Code": "733"
    },
    {
        "City": "Acamilpa",
        "State": "Morelos",
        "Code": "734"
    },
    {
        "City": "Ahuehuetzingo",
        "State": "Morelos",
        "Code": "734"
    },
    {
        "City": "Jojutla",
        "State": "Morelos",
        "Code": "734"
    },
    {
        "City": "Nexpa",
        "State": "Morelos",
        "Code": "734"
    },
    {
        "City": "Pedro Amaro",
        "State": "Morelos",
        "Code": "734"
    },
    {
        "City": "San Jose Vistahermosa",
        "State": "Morelos",
        "Code": "734"
    },
    {
        "City": "Santa Rosa Treinta",
        "State": "Morelos",
        "Code": "734"
    },
    {
        "City": "Tehuixtla",
        "State": "Morelos",
        "Code": "734"
    },
    {
        "City": "Tequesquitengo",
        "State": "Morelos",
        "Code": "734"
    },
    {
        "City": "Ticuman",
        "State": "Morelos",
        "Code": "734"
    },
    {
        "City": "Tlaltizapan",
        "State": "Morelos",
        "Code": "734"
    },
    {
        "City": "Tlaquiltenango",
        "State": "Morelos",
        "Code": "734"
    },
    {
        "City": "Tlatenchi",
        "State": "Morelos",
        "Code": "734"
    },
    {
        "City": "U. H. J. Ma. Morelos y Pavon",
        "State": "Morelos",
        "Code": "734"
    },
    {
        "City": "Xoxocotla",
        "State": "Morelos",
        "Code": "734"
    },
    {
        "City": "Zacatepec de Hidalgo",
        "State": "Morelos",
        "Code": "734"
    },
    {
        "City": "Atlatlahucan",
        "State": "Morelos",
        "Code": "735"
    },
    {
        "City": "Chinameca",
        "State": "Morelos",
        "Code": "735"
    },
    {
        "City": "Ciudad Ayala",
        "State": "Morelos",
        "Code": "735"
    },
    {
        "City": "Cocoyoc",
        "State": "Morelos",
        "Code": "735"
    },
    {
        "City": "Cuautla",
        "State": "Morelos",
        "Code": "735"
    },
    {
        "City": "Felipe Neri (Cuatepec)",
        "State": "Morelos",
        "Code": "735"
    },
    {
        "City": "Kunetzin de los Volcanes",
        "State": "Morelos",
        "Code": "735"
    },
    {
        "City": "Jonacatepec",
        "State": "Morelos",
        "Code": "735"
    },
    {
        "City": "Juan Morales",
        "State": "Morelos",
        "Code": "735"
    },
    {
        "City": "Lazaro Cardenas (El Empalme)",
        "State": "Morelos",
        "Code": "735"
    },
    {
        "City": "Moyotepec",
        "State": "Morelos",
        "Code": "735"
    },
    {
        "City": "Oacalco",
        "State": "Morelos",
        "Code": "735"
    },
    {
        "City": "Oaxtepec",
        "State": "Morelos",
        "Code": "735"
    },
    {
        "City": "Parque Industrial Cuautla",
        "State": "Morelos",
        "Code": "735"
    },
    {
        "City": "San Isidro",
        "State": "Morelos",
        "Code": "735"
    },
    {
        "City": "San Vicente de Juarez (Las Piedras)",
        "State": "Morelos",
        "Code": "735"
    },
    {
        "City": "Tenextepango",
        "State": "Morelos",
        "Code": "735"
    },
    {
        "City": "Tlalnepantla",
        "State": "Morelos",
        "Code": "735"
    },
    {
        "City": "Tlayacapan",
        "State": "Morelos",
        "Code": "735"
    },
    {
        "City": "Tlayca",
        "State": "Morelos",
        "Code": "735"
    },
    {
        "City": "Tlayecac",
        "State": "Morelos",
        "Code": "735"
    },
    {
        "City": "Totolapan",
        "State": "Morelos",
        "Code": "735"
    },
    {
        "City": "Xaloxtoc",
        "State": "Morelos",
        "Code": "735"
    },
    {
        "City": "Yautepec",
        "State": "Morelos",
        "Code": "735"
    },
    {
        "City": "Acapetlahuaya",
        "State": "Guerrero",
        "Code": "736"
    },
    {
        "City": "Acatempan",
        "State": "Guerrero",
        "Code": "736"
    },
    {
        "City": "Apaxtla de Castrejon",
        "State": "Guerrero",
        "Code": "736"
    },
    {
        "City": "Apipilulco",
        "State": "Guerrero",
        "Code": "736"
    },
    {
        "City": "Chilacachapa",
        "State": "Guerrero",
        "Code": "736"
    },
    {
        "City": "Cocula",
        "State": "Guerrero",
        "Code": "736"
    },
    {
        "City": "Cuetzala del Progreso",
        "State": "Guerrero",
        "Code": "736"
    },
    {
        "City": "Ixcapuzalco",
        "State": "Guerrero",
        "Code": "736"
    },
    {
        "City": "Ixcateopan de Cuauhtemoc",
        "State": "Guerrero",
        "Code": "736"
    },
    {
        "City": "Los Sauces",
        "State": "Guerrero",
        "Code": "736"
    },
    {
        "City": "Nuevo Balsas",
        "State": "Guerrero",
        "Code": "736"
    },
    {
        "City": "Oxtotitlan",
        "State": "Guerrero",
        "Code": "736"
    },
    {
        "City": "San Martin Pachivia",
        "State": "Guerrero",
        "Code": "736"
    },
    {
        "City": "Teloloapan",
        "State": "Guerrero",
        "Code": "736"
    },
    {
        "City": "Tlacotepec",
        "State": "Guerrero",
        "Code": "736"
    },
    {
        "City": "Tonalapa del Rio",
        "State": "Hidalgo",
        "Code": "736"
    },
    {
        "City": "Coatetelco",
        "State": "Morelos",
        "Code": "737"
    },
    {
        "City": "El Rodeo",
        "State": "Morelos",
        "Code": "737"
    },
    {
        "City": "Miacatlan",
        "State": "Morelos",
        "Code": "737"
    },
    {
        "City": "Palpan de Baranda",
        "State": "Morelos",
        "Code": "737"
    },
    {
        "City": "Xochicalco (Cirenio Longares)",
        "State": "Morelos",
        "Code": "737"
    },
    {
        "City": "Alfajayucan",
        "State": "Hidalgo",
        "Code": "738"
    },
    {
        "City": "Chilcuautla",
        "State": "Hidalgo",
        "Code": "738"
    },
    {
        "City": "Colonia Morelos",
        "State": "Hidalgo",
        "Code": "738"
    },
    {
        "City": "Dextho de Victoria",
        "State": "Hidalgo",
        "Code": "738"
    },
    {
        "City": "El Mejay",
        "State": "Hidalgo",
        "Code": "738"
    },
    {
        "City": "El Rosario",
        "State": "Hidalgo",
        "Code": "738"
    },
    {
        "City": "El Tothie",
        "State": "Hidalgo",
        "Code": "738"
    },
    {
        "City": "Huitexcalco de Morelos",
        "State": "Hidalgo",
        "Code": "738"
    },
    {
        "City": "Jaguey Blanco",
        "State": "Hidalgo",
        "Code": "738"
    },
    {
        "City": "Mixquiahuala",
        "State": "Hidalgo",
        "Code": "738"
    },
    {
        "City": "Progreso",
        "State": "Hidalgo",
        "Code": "738"
    },
    {
        "City": "San Salvador",
        "State": "Hidalgo",
        "Code": "738"
    },
    {
        "City": "Tenhe",
        "State": "Hidalgo",
        "Code": "738"
    },
    {
        "City": "Tepatepec",
        "State": "Hidalgo",
        "Code": "738"
    },
    {
        "City": "Xochitlan",
        "State": "Hidalgo",
        "Code": "738"
    },
    {
        "City": "Amatlan de Quetzalcoatl",
        "State": "Morelos",
        "Code": "739"
    },
    {
        "City": "Coajomulco",
        "State": "Morelos",
        "Code": "739"
    },
    {
        "City": "Huitzilac",
        "State": "Morelos",
        "Code": "739"
    },
    {
        "City": "San Juan Tlacotenco",
        "State": "Morelos",
        "Code": "739"
    },
    {
        "City": "Santa Catarina, Morelos",
        "State": "Morelos",
        "Code": "739"
    },
    {
        "City": "Tepoztlan",
        "State": "Morelos",
        "Code": "739"
    },
    {
        "City": "Acatepec",
        "State": "Guerrero",
        "Code": "741"
    },
    {
        "City": "Azoyu",
        "State": "Guerrero",
        "Code": "741"
    },
    {
        "City": "Cochoapa",
        "State": "Guerrero",
        "Code": "741"
    },
    {
        "City": "Comaltepec (Comal)",
        "State": "Guerrero",
        "Code": "741"
    },
    {
        "City": "Copala",
        "State": "Guerrero",
        "Code": "741"
    },
    {
        "City": "Cuajinicuilapa",
        "State": "Guerrero",
        "Code": "741"
    },
    {
        "City": "Cuanacastitlan",
        "State": "Guerrero",
        "Code": "741"
    },
    {
        "City": "El Pitahayo",
        "State": "Guerrero",
        "Code": "741"
    },
    {
        "City": "Huajintepec",
        "State": "Guerrero",
        "Code": "741"
    },
    {
        "City": "Huehuetan",
        "State": "Guerrero",
        "Code": "741"
    },
    {
        "City": "Huixtepec",
        "State": "Guerrero",
        "Code": "741"
    },
    {
        "City": "Igualapa",
        "State": "Guerrero",
        "Code": "741"
    },
    {
        "City": "Juchitan",
        "State": "Guerrero",
        "Code": "741"
    },
    {
        "City": "Maldonado",
        "State": "Guerrero",
        "Code": "741"
    },
    {
        "City": "Marquelia",
        "State": "Guerrero",
        "Code": "741"
    },
    {
        "City": "Ojo de Agua (Las Salinas)",
        "State": "Guerrero",
        "Code": "741"
    },
    {
        "City": "Ometepec",
        "State": "Guerrero",
        "Code": "741"
    },
    {
        "City": "Quetzalapa",
        "State": "Guerrero",
        "Code": "741"
    },
    {
        "City": "San Juan de los Lanos",
        "State": "Guerrero",
        "Code": "741"
    },
    {
        "City": "San Luis Acatlan",
        "State": "Guerrero",
        "Code": "741"
    },
    {
        "City": "San Nicolas",
        "State": "Guerrero",
        "Code": "741"
    },
    {
        "City": "Santa Maria Asuncion",
        "State": "Guerrero",
        "Code": "741"
    },
    {
        "City": "Tlacoachistlahuaca",
        "State": "Guerrero",
        "Code": "741"
    },
    {
        "City": "Xochistlahuaca",
        "State": "Guerrero",
        "Code": "741"
    },
    {
        "City": "Yoloxochitl",
        "State": "Guerrero",
        "Code": "741"
    },
    {
        "City": "Santo Domingo Armenta",
        "State": "Oaxaca",
        "Code": "741"
    },
    {
        "City": "Atoyac de Alvarez",
        "State": "Guerrero",
        "Code": "742"
    },
    {
        "City": "Coyuquilla Norte",
        "State": "Guerrero",
        "Code": "742"
    },
    {
        "City": "El Ciruelar",
        "State": "Guerrero",
        "Code": "742"
    },
    {
        "City": "El Paraiso",
        "State": "Guerrero",
        "Code": "742"
    },
    {
        "City": "El Suchil",
        "State": "Guerrero",
        "Code": "742"
    },
    {
        "City": "Nuxco",
        "State": "Guerrero",
        "Code": "742"
    },
    {
        "City": "Papanoa",
        "State": "Guerrero",
        "Code": "742"
    },
    {
        "City": "San Luis de la Loma",
        "State": "Guerrero",
        "Code": "742"
    },
    {
        "City": "Tecpan de Galeana",
        "State": "Guerrero",
        "Code": "742"
    },
    {
        "City": "Tenexpa",
        "State": "Guerrero",
        "Code": "742"
    },
    {
        "City": "Tetitlan",
        "State": "Guerrero",
        "Code": "742"
    },
    {
        "City": "Zacualpan",
        "State": "Guerrero",
        "Code": "742"
    },
    {
        "City": "Santa Maria Aticpac",
        "State": "Mexico State",
        "Code": "743"
    },
    {
        "City": "Acayuca",
        "State": "Hidalgo",
        "Code": "743"
    },
    {
        "City": "General Felipe Angeles",
        "State": "Hidalgo",
        "Code": "743"
    },
    {
        "City": "Jaguey de Tellez (Estacion Tellez)",
        "State": "Hidalgo",
        "Code": "743"
    },
    {
        "City": "San Agustin Tlaxiaca",
        "State": "Hidalgo",
        "Code": "743"
    },
    {
        "City": "San Agustin Zapotlan",
        "State": "Hidalgo",
        "Code": "743"
    },
    {
        "City": "San Juan Solis",
        "State": "Hidalgo",
        "Code": "743"
    },
    {
        "City": "San Pedro Tlaquilpan",
        "State": "Hidalgo",
        "Code": "743"
    },
    {
        "City": "Santiago Tepeyahualco",
        "State": "Hidalgo",
        "Code": "743"
    },
    {
        "City": "Santo Tomas",
        "State": "Hidalgo",
        "Code": "743"
    },
    {
        "City": "Tolcayuca",
        "State": "Hidalgo",
        "Code": "743"
    },
    {
        "City": "Villa Tezontepec",
        "State": "Hidalgo",
        "Code": "743"
    },
    {
        "City": "Zapotlan de Juarez",
        "State": "Hidalgo",
        "Code": "743"
    },
    {
        "City": "Zempoala",
        "State": "Hidalgo",
        "Code": "743"
    },
    {
        "City": "Acapulco",
        "State": "Guerrero",
        "Code": "744"
    },
    {
        "City": "Amatillo",
        "State": "Guerrero",
        "Code": "744"
    },
    {
        "City": "Barra Vieja",
        "State": "Guerrero",
        "Code": "744"
    },
    {
        "City": "Dos Arroyos",
        "State": "Guerrero",
        "Code": "744"
    },
    {
        "City": "Ejido Nuevo",
        "State": "Guerrero",
        "Code": "744"
    },
    {
        "City": "Kilometro 21",
        "State": "Guerrero",
        "Code": "744"
    },
    {
        "City": "Kilometro 30",
        "State": "Guerrero",
        "Code": "744"
    },
    {
        "City": "La Providencia",
        "State": "Guerrero",
        "Code": "744"
    },
    {
        "City": "Los Mogotes",
        "State": "Guerrero",
        "Code": "744"
    },
    {
        "City": "Luces del Mar",
        "State": "Guerrero",
        "Code": "744"
    },
    {
        "City": "San Pedro las Playas",
        "State": "Guerrero",
        "Code": "744"
    },
    {
        "City": "Texca",
        "State": "Guerrero",
        "Code": "744"
    },
    {
        "City": "Xaltianguis",
        "State": "Guerrero",
        "Code": "744"
    },
    {
        "City": "Ayutla de los Libres",
        "State": "Guerrero",
        "Code": "745"
    },
    {
        "City": "Colotepec",
        "State": "Guerrero",
        "Code": "745"
    },
    {
        "City": "Cruz Grande",
        "State": "Guerrero",
        "Code": "745"
    },
    {
        "City": "Cruz Quemada",
        "State": "Guerrero",
        "Code": "745"
    },
    {
        "City": "El Ocotito",
        "State": "Guerrero",
        "Code": "745"
    },
    {
        "City": "La Azozuca",
        "State": "Guerrero",
        "Code": "745"
    },
    {
        "City": "Las Cruces",
        "State": "Guerrero",
        "Code": "745"
    },
    {
        "City": "Las Mesas",
        "State": "Guerrero",
        "Code": "745"
    },
    {
        "City": "Las Vigas",
        "State": "Guerrero",
        "Code": "745"
    },
    {
        "City": "Llano Grande",
        "State": "Guerrero",
        "Code": "745"
    },
    {
        "City": "San Juan del Reparo (San Juan D)",
        "State": "Guerrero",
        "Code": "745"
    },
    {
        "City": "San Marcos",
        "State": "Guerrero",
        "Code": "745"
    },
    {
        "City": "Tecoanapa",
        "State": "Guerrero",
        "Code": "745"
    },
    {
        "City": "Tierra Colorada",
        "State": "Guerrero",
        "Code": "745"
    },
    {
        "City": "Cuautepec",
        "State": "Hidalgo",
        "Code": "745"
    },
    {
        "City": "Jalapa",
        "State": "Hidalgo",
        "Code": "745"
    },
    {
        "City": "Tonala",
        "State": "Hidalgo",
        "Code": "745"
    },
    {
        "City": "Huautla",
        "State": "Hidalgo",
        "Code": "746"
    },
    {
        "City": "Mecapalapa",
        "State": "Puebla",
        "Code": "746"
    },
    {
        "City": "Metlaltoyuca",
        "State": "Puebla",
        "Code": "746"
    },
    {
        "City": "Pantepec",
        "State": "Puebla",
        "Code": "746"
    },
    {
        "City": "Venustiano Carranza",
        "State": "Puebla",
        "Code": "746"
    },
    {
        "City": "Villa Lazaro Cardenas (La Uno)",
        "State": "Puebla",
        "Code": "746"
    },
    {
        "City": "Benito Juarez",
        "State": "Veracruz",
        "Code": "746"
    },
    {
        "City": "Castillo de Teayo",
        "State": "Veracruz",
        "Code": "746"
    },
    {
        "City": "Chicontepec",
        "State": "Veracruz",
        "Code": "746"
    },
    {
        "City": "Colatlan",
        "State": "Veracruz",
        "Code": "746"
    },
    {
        "City": "El Palmar (Mpio. Tihuatlan)",
        "State": "Veracruz",
        "Code": "746"
    },
    {
        "City": "Enrique Rodriguez Cano (Zapotal)",
        "State": "Veracruz",
        "Code": "746"
    },
    {
        "City": "Ixhuatlan de Madero",
        "State": "Veracruz",
        "Code": "746"
    },
    {
        "City": "La Concepcion",
        "State": "Veracruz",
        "Code": "746"
    },
    {
        "City": "La Guadalupe",
        "State": "Veracruz",
        "Code": "746"
    },
    {
        "City": "Llano Enmedio",
        "State": "Veracruz",
        "Code": "746"
    },
    {
        "City": "Tihuatlan",
        "State": "Veracruz",
        "Code": "746"
    },
    {
        "City": "Tlacolula",
        "State": "Veracruz",
        "Code": "746"
    },
    {
        "City": "Zacate Colorado",
        "State": "Veracruz",
        "Code": "746"
    },
    {
        "City": "Chichihualco",
        "State": "Guerrero",
        "Code": "747"
    },
    {
        "City": "Chilpancingo",
        "State": "Guerrero",
        "Code": "747"
    },
    {
        "City": "El Palmar",
        "State": "Guerrero",
        "Code": "747"
    },
    {
        "City": "Las Petaquillas",
        "State": "Guerrero",
        "Code": "747"
    },
    {
        "City": "Mazatlan",
        "State": "Guerrero",
        "Code": "747"
    },
    {
        "City": "Palo Blanco",
        "State": "Guerrero",
        "Code": "747"
    },
    {
        "City": "Xochipala",
        "State": "Guerrero",
        "Code": "747"
    },
    {
        "City": "Zumpango del Rio",
        "State": "Guerrero",
        "Code": "747"
    },
    {
        "City": "Almoloya",
        "State": "Hidalgo",
        "Code": "748"
    },
    {
        "City": "Apan",
        "State": "Hidalgo",
        "Code": "748"
    },
    {
        "City": "Chimalpa y Tlalayote",
        "State": "Hidalgo",
        "Code": "748"
    },
    {
        "City": "Emiliano Zapata",
        "State": "Hidalgo",
        "Code": "748"
    },
    {
        "City": "Jose Maria Morelos (San Jose)",
        "State": "Hidalgo",
        "Code": "748"
    },
    {
        "City": "Lazaro Cardenas",
        "State": "Hidalgo",
        "Code": "748"
    },
    {
        "City": "Benito Juarez",
        "State": "Tlaxcala",
        "Code": "748"
    },
    {
        "City": "Nanacamilpa",
        "State": "Tlaxcala",
        "Code": "748"
    },
    {
        "City": "Sanctorum Lazaro Cardenas",
        "State": "Tlaxcala",
        "Code": "748"
    },
    {
        "City": "Calpulalpan",
        "State": "Tlaxcala",
        "Code": "749"
    },
    {
        "City": "Santiago Cuaula",
        "State": "Tlaxcala",
        "Code": "749"
    },
    {
        "City": "Amacuzac",
        "State": "Morelos",
        "Code": "751"
    },
    {
        "City": "Coahuixtla",
        "State": "Morelos",
        "Code": "751"
    },
    {
        "City": "Coatlan del Rio",
        "State": "Morelos",
        "Code": "751"
    },
    {
        "City": "Cuahuchichinola",
        "State": "Morelos",
        "Code": "751"
    },
    {
        "City": "Huajintlan",
        "State": "Morelos",
        "Code": "751"
    },
    {
        "City": "Michapa",
        "State": "Morelos",
        "Code": "751"
    },
    {
        "City": "Puente de Ixtla",
        "State": "Morelos",
        "Code": "751"
    },
    {
        "City": "San Gabriel Las Palmas",
        "State": "Morelos",
        "Code": "751"
    },
    {
        "City": "Tetecala",
        "State": "Morelos",
        "Code": "751"
    },
    {
        "City": "Tilzapotla",
        "State": "Morelos",
        "Code": "751"
    },
    {
        "City": "Petacalco",
        "State": "Guerrero",
        "Code": "753"
    },
    {
        "City": "Acalpican de Morelos",
        "State": "Michoacan",
        "Code": "753"
    },
    {
        "City": "Arteaga",
        "State": "Michoacan",
        "Code": "753"
    },
    {
        "City": "Bahia Bufadero",
        "State": "Michoacan",
        "Code": "753"
    },
    {
        "City": "Buenos Aires",
        "State": "Michoacan",
        "Code": "753"
    },
    {
        "City": "Ciudad Lazaro Cardenas",
        "State": "Michoacan",
        "Code": "753"
    },
    {
        "City": "Morelos de Infiernillo",
        "State": "Michoacan",
        "Code": "753"
    },
    {
        "City": "La Mira",
        "State": "Michoacan",
        "Code": "753"
    },
    {
        "City": "Las Guacamayas",
        "State": "Michoacan",
        "Code": "753"
    },
    {
        "City": "Playa Azul",
        "State": "Michoacan",
        "Code": "753"
    },
    {
        "City": "Apango",
        "State": "Guerrero",
        "Code": "754"
    },
    {
        "City": "Atliaca",
        "State": "Guerrero",
        "Code": "754"
    },
    {
        "City": "Mochitlan",
        "State": "Guerrero",
        "Code": "754"
    },
    {
        "City": "Tixtla",
        "State": "Guerrero",
        "Code": "754"
    },
    {
        "City": "Coacoyul",
        "State": "Guerrero",
        "Code": "755"
    },
    {
        "City": "Ixtapa Zihuatanejo",
        "State": "Guerrero",
        "Code": "755"
    },
    {
        "City": "La Union",
        "State": "Guerrero",
        "Code": "755"
    },
    {
        "City": "Lagunillas",
        "State": "Guerrero",
        "Code": "755"
    },
    {
        "City": "Los Achotes",
        "State": "Guerrero",
        "Code": "755"
    },
    {
        "City": "Troncones (Emiliano Zapata)",
        "State": "Guerrero",
        "Code": "755"
    },
    {
        "City": "Zihuatanejo",
        "State": "Guerrero",
        "Code": "755"
    },
    {
        "City": "Ahuacuotzingo",
        "State": "Guerrero",
        "Code": "756"
    },
    {
        "City": "Atlixtac",
        "State": "Guerrero",
        "Code": "756"
    },
    {
        "City": "Chilapa",
        "State": "Guerrero",
        "Code": "756"
    },
    {
        "City": "Colotlipa",
        "State": "Guerrero",
        "Code": "756"
    },
    {
        "City": "Olinala",
        "State": "Guerrero",
        "Code": "756"
    },
    {
        "City": "Pochahuizco",
        "State": "Guerrero",
        "Code": "756"
    },
    {
        "City": "Quechultenango",
        "State": "Guerrero",
        "Code": "756"
    },
    {
        "City": "Temalacatzingo",
        "State": "Guerrero",
        "Code": "756"
    },
    {
        "City": "Zitlala",
        "State": "Guerrero",
        "Code": "756"
    },
    {
        "City": "Alcozauca de Guerrero",
        "State": "Guerrero",
        "Code": "757"
    },
    {
        "City": "Alpoyeca",
        "State": "Guerrero",
        "Code": "757"
    },
    {
        "City": "Copanatoyac",
        "State": "Guerrero",
        "Code": "757"
    },
    {
        "City": "Cualac",
        "State": "Guerrero",
        "Code": "757"
    },
    {
        "City": "Huamuxtitlan",
        "State": "Guerrero",
        "Code": "757"
    },
    {
        "City": "San Jose Buenavista",
        "State": "Guerrero",
        "Code": "757"
    },
    {
        "City": "Santa Cruz",
        "State": "Guerrero",
        "Code": "757"
    },
    {
        "City": "Tlalixtaquilla",
        "State": "Guerrero",
        "Code": "757"
    },
    {
        "City": "Tlalquetzala",
        "State": "Guerrero",
        "Code": "757"
    },
    {
        "City": "Tlapa de Comonfort",
        "State": "Guerrero",
        "Code": "757"
    },
    {
        "City": "Xochihuehuetlan",
        "State": "Guerrero",
        "Code": "757"
    },
    {
        "City": "Zacatipa",
        "State": "Guerrero",
        "Code": "757"
    },
    {
        "City": "Zapotitlan Lagunas",
        "State": "Oaxaca",
        "Code": "757"
    },
    {
        "City": "Petatlan",
        "State": "Guerrero",
        "Code": "758"
    },
    {
        "City": "San Jeronimito (San Jeronimo)",
        "State": "Guerrero",
        "Code": "758"
    },
    {
        "City": "Caltimacan",
        "State": "Hidalgo",
        "Code": "759"
    },
    {
        "City": "Cardonal",
        "State": "Hidalgo",
        "Code": "759"
    },
    {
        "City": "El Alberto",
        "State": "Hidalgo",
        "Code": "759"
    },
    {
        "City": "El Deca",
        "State": "Hidalgo",
        "Code": "759"
    },
    {
        "City": "El Tephe",
        "State": "Hidalgo",
        "Code": "759"
    },
    {
        "City": "Ixmiquilpan",
        "State": "Hidalgo",
        "Code": "759"
    },
    {
        "City": "La Loma Julian Villagran",
        "State": "Hidalgo",
        "Code": "759"
    },
    {
        "City": "Lazaro Cardenas (Remedios)",
        "State": "Hidalgo",
        "Code": "759"
    },
    {
        "City": "Los Remedios",
        "State": "Hidalgo",
        "Code": "759"
    },
    {
        "City": "Orizabita",
        "State": "Hidalgo",
        "Code": "759"
    },
    {
        "City": "San Antonio Sabanillas",
        "State": "Hidalgo",
        "Code": "759"
    },
    {
        "City": "Santuario Mapethe",
        "State": "Hidalgo",
        "Code": "759"
    },
    {
        "City": "Tasquillo",
        "State": "Hidalgo",
        "Code": "759"
    },
    {
        "City": "Taxadho",
        "State": "Hidalgo",
        "Code": "759"
    },
    {
        "City": "Zimapan",
        "State": "Hidalgo",
        "Code": "759"
    },
    {
        "City": "Calpulalpan",
        "State": "Mexico State",
        "Code": "761"
    },
    {
        "City": "Canalejas",
        "State": "Mexico State",
        "Code": "761"
    },
    {
        "City": "Jilotepec",
        "State": "Mexico State",
        "Code": "761"
    },
    {
        "City": "San Francisco Soyaniquilpan",
        "State": "Mexico State",
        "Code": "761"
    },
    {
        "City": "El Jaguey",
        "State": "Hidalgo",
        "Code": "761"
    },
    {
        "City": "El Saucillo",
        "State": "Hidalgo",
        "Code": "761"
    },
    {
        "City": "Gandho",
        "State": "Hidalgo",
        "Code": "761"
    },
    {
        "City": "Huichapan",
        "State": "Hidalgo",
        "Code": "761"
    },
    {
        "City": "Llano Largo",
        "State": "Hidalgo",
        "Code": "761"
    },
    {
        "City": "Maravillas",
        "State": "Hidalgo",
        "Code": "761"
    },
    {
        "City": "Nopala",
        "State": "Hidalgo",
        "Code": "761"
    },
    {
        "City": "San Sebastian Tenochtitlan",
        "State": "Hidalgo",
        "Code": "761"
    },
    {
        "City": "Tecozautla",
        "State": "Hidalgo",
        "Code": "761"
    },
    {
        "City": "Zothe",
        "State": "Hidalgo",
        "Code": "761"
    },
    {
        "City": "Bella Vista del Rio",
        "State": "Queretaro",
        "Code": "761"
    },
    {
        "City": "Acamixtla",
        "State": "Guerrero",
        "Code": "762"
    },
    {
        "City": "El Fraile",
        "State": "Guerrero",
        "Code": "762"
    },
    {
        "City": "Huixtac",
        "State": "Guerrero",
        "Code": "762"
    },
    {
        "City": "Paintla",
        "State": "Guerrero",
        "Code": "762"
    },
    {
        "City": "Taxco El Viejo",
        "State": "Guerrero",
        "Code": "762"
    },
    {
        "City": "Taxco",
        "State": "Guerrero",
        "Code": "762"
    },
    {
        "City": "Tlamacazapa",
        "State": "Guerrero",
        "Code": "762"
    },
    {
        "City": "Chapantongo",
        "State": "Hidalgo",
        "Code": "763"
    },
    {
        "City": "La Cruz",
        "State": "Hidalgo",
        "Code": "763"
    },
    {
        "City": "Munitepec de Madero",
        "State": "Hidalgo",
        "Code": "763"
    },
    {
        "City": "Santa Maria Amealco",
        "State": "Hidalgo",
        "Code": "763"
    },
    {
        "City": "Sayula Pueblo",
        "State": "Hidalgo",
        "Code": "763"
    },
    {
        "City": "Tezontepec de Aldama",
        "State": "Hidalgo",
        "Code": "763"
    },
    {
        "City": "Tlahuelilpan",
        "State": "Hidalgo",
        "Code": "763"
    },
    {
        "City": "Ahuacatlan",
        "State": "Puebla",
        "Code": "764"
    },
    {
        "City": "Necaxa",
        "State": "Puebla",
        "Code": "764"
    },
    {
        "City": "Tepango de Rodriguez",
        "State": "Puebla",
        "Code": "764"
    },
    {
        "City": "Villa Avila Camacho (La Ceiba)",
        "State": "Puebla",
        "Code": "764"
    },
    {
        "City": "Xicotepec de Juarez",
        "State": "Puebla",
        "Code": "764"
    },
    {
        "City": "Alamo Temapache",
        "State": "Veracruz",
        "Code": "765"
    },
    {
        "City": "La Camelia (Palo Blanco)",
        "State": "Veracruz",
        "Code": "765"
    },
    {
        "City": "Potrero del Llano",
        "State": "Veracruz",
        "Code": "765"
    },
    {
        "City": "Temapache (H. Temapache de G. Z)",
        "State": "Veracruz",
        "Code": "765"
    },
    {
        "City": "Gutierrez Zamora",
        "State": "Veracruz",
        "Code": "766"
    },
    {
        "City": "Lomas de Arena",
        "State": "Veracruz",
        "Code": "766"
    },
    {
        "City": "Tecolutla",
        "State": "Veracruz",
        "Code": "766"
    },
    {
        "City": "San Antonio del Rosario",
        "State": "Mexico State",
        "Code": "767"
    },
    {
        "City": "Amuco de la Reforma",
        "State": "Guerrero",
        "Code": "767"
    },
    {
        "City": "Anonas",
        "State": "Guerrero",
        "Code": "767"
    },
    {
        "City": "Aratichanguio",
        "State": "Guerrero",
        "Code": "767"
    },
    {
        "City": "Ciudad Altamirano",
        "State": "Guerrero",
        "Code": "767"
    },
    {
        "City": "Coyuca de Catalan",
        "State": "Guerrero",
        "Code": "767"
    },
    {
        "City": "Guayameo",
        "State": "Guerrero",
        "Code": "767"
    },
    {
        "City": "Paso de Arena",
        "State": "Guerrero",
        "Code": "767"
    },
    {
        "City": "Placeres del Oro",
        "State": "Guerrero",
        "Code": "767"
    },
    {
        "City": "Tanganhuato",
        "State": "Guerrero",
        "Code": "767"
    },
    {
        "City": "Zirandaro",
        "State": "Guerrero",
        "Code": "767"
    },
    {
        "City": "Amatlan",
        "State": "Veracruz",
        "Code": "768"
    },
    {
        "City": "Naranjos",
        "State": "Veracruz",
        "Code": "768"
    },
    {
        "City": "Saladero",
        "State": "Veracruz",
        "Code": "768"
    },
    {
        "City": "Tamalin",
        "State": "Veracruz",
        "Code": "768"
    },
    {
        "City": "Tamiahua",
        "State": "Veracruz",
        "Code": "768"
    },
    {
        "City": "Axochiapan",
        "State": "Morelos",
        "Code": "769"
    },
    {
        "City": "Huitchila",
        "State": "Morelos",
        "Code": "769"
    },
    {
        "City": "Ixtlilco El Grande",
        "State": "Morelos",
        "Code": "769"
    },
    {
        "City": "Marcelino Rodriguez (San Ignacio)",
        "State": "Morelos",
        "Code": "769"
    },
    {
        "City": "Quebrantadero (San Jose)",
        "State": "Morelos",
        "Code": "769"
    },
    {
        "City": "Telixtac",
        "State": "Morelos",
        "Code": "769"
    },
    {
        "City": "Tepalcingo",
        "State": "Morelos",
        "Code": "769"
    },
    {
        "City": "El Venado",
        "State": "Hidalgo",
        "Code": "771"
    },
    {
        "City": "Epazoyucan",
        "State": "Hidalgo",
        "Code": "771"
    },
    {
        "City": "Fraccionamiento La Reforma",
        "State": "Hidalgo",
        "Code": "771"
    },
    {
        "City": "Huasca de Ocampo",
        "State": "Hidalgo",
        "Code": "771"
    },
    {
        "City": "La Estanzuela",
        "State": "Hidalgo",
        "Code": "771"
    },
    {
        "City": "La Providencia",
        "State": "Hidalgo",
        "Code": "771"
    },
    {
        "City": "Mineral del Monte",
        "State": "Hidalgo",
        "Code": "771"
    },
    {
        "City": "Omitlan de Juarez",
        "State": "Hidalgo",
        "Code": "771"
    },
    {
        "City": "Pachuca de Soto",
        "State": "Hidalgo",
        "Code": "771"
    },
    {
        "City": "San Juan Tilcuautla",
        "State": "Hidalgo",
        "Code": "771"
    },
    {
        "City": "San Juan Tizahuapan",
        "State": "Hidalgo",
        "Code": "771"
    },
    {
        "City": "Santa Maria la Calera",
        "State": "Hidalgo",
        "Code": "771"
    },
    {
        "City": "Santa Matilde",
        "State": "Hidalgo",
        "Code": "771"
    },
    {
        "City": "Santa Monica",
        "State": "Hidalgo",
        "Code": "771"
    },
    {
        "City": "Santiago Tlapacoya",
        "State": "Hidalgo",
        "Code": "771"
    },
    {
        "City": "Xochihuacan (Las Palomas)",
        "State": "Hidalgo",
        "Code": "771"
    },
    {
        "City": "Actopan",
        "State": "Hidalgo",
        "Code": "772"
    },
    {
        "City": "Caxuxi",
        "State": "Hidalgo",
        "Code": "772"
    },
    {
        "City": "Chicavasco",
        "State": "Hidalgo",
        "Code": "772"
    },
    {
        "City": "Dajiedhi",
        "State": "Hidalgo",
        "Code": "772"
    },
    {
        "City": "El Arenal",
        "State": "Hidalgo",
        "Code": "772"
    },
    {
        "City": "El Mezquital",
        "State": "Hidalgo",
        "Code": "772"
    },
    {
        "City": "La Estancia",
        "State": "Hidalgo",
        "Code": "772"
    },
    {
        "City": "Santiago de Anaya",
        "State": "Hidalgo",
        "Code": "772"
    },
    {
        "City": "Yolotepec",
        "State": "Hidalgo",
        "Code": "772"
    },
    {
        "City": "Bomintzha",
        "State": "Hidalgo",
        "Code": "773"
    },
    {
        "City": "Cruz Azul San Miguel Vindho",
        "State": "Hidalgo",
        "Code": "773"
    },
    {
        "City": "General Pedro Maria Anaya (San Mateo)",
        "State": "Hidalgo",
        "Code": "773"
    },
    {
        "City": "Melchor Ocampo (El Salto)",
        "State": "Hidalgo",
        "Code": "773"
    },
    {
        "City": "San Buenaventura",
        "State": "Hidalgo",
        "Code": "773"
    },
    {
        "City": "Santa Ana Ahuehuepan",
        "State": "Hidalgo",
        "Code": "773"
    },
    {
        "City": "Santiago Tlautla",
        "State": "Hidalgo",
        "Code": "773"
    },
    {
        "City": "Tepeji de Ocampo",
        "State": "Hidalgo",
        "Code": "773"
    },
    {
        "City": "Tinajas",
        "State": "Hidalgo",
        "Code": "773"
    },
    {
        "City": "Tula",
        "State": "Hidalgo",
        "Code": "773"
    },
    {
        "City": "Xiteje de Zapata",
        "State": "Hidalgo",
        "Code": "773"
    },
    {
        "City": "Agua Blanca Iturbide",
        "State": "Hidalgo",
        "Code": "774"
    },
    {
        "City": "Atotonilco El Grande",
        "State": "Hidalgo",
        "Code": "774"
    },
    {
        "City": "Calnali",
        "State": "Hidalgo",
        "Code": "774"
    },
    {
        "City": "Cerro Colorado",
        "State": "Hidalgo",
        "Code": "774"
    },
    {
        "City": "Ejido Alcholoya",
        "State": "Hidalgo",
        "Code": "774"
    },
    {
        "City": "El Contadero",
        "State": "Hidalgo",
        "Code": "774"
    },
    {
        "City": "Estacion de Apulco",
        "State": "Hidalgo",
        "Code": "774"
    },
    {
        "City": "Metepec",
        "State": "Hidalgo",
        "Code": "774"
    },
    {
        "City": "Metztitlan",
        "State": "Hidalgo",
        "Code": "774"
    },
    {
        "City": "Mezquititlan",
        "State": "Hidalgo",
        "Code": "774"
    },
    {
        "City": "Molango",
        "State": "Hidalgo",
        "Code": "774"
    },
    {
        "City": "San Bartolo Tutotepec",
        "State": "Hidalgo",
        "Code": "774"
    },
    {
        "City": "San Martin",
        "State": "Hidalgo",
        "Code": "774"
    },
    {
        "City": "Tenango",
        "State": "Hidalgo",
        "Code": "774"
    },
    {
        "City": "Tepehuacan de Guerrero",
        "State": "Hidalgo",
        "Code": "774"
    },
    {
        "City": "Tianguistengo",
        "State": "Hidalgo",
        "Code": "774"
    },
    {
        "City": "San Francisco Tlahuelompa",
        "State": "Hidalgo",
        "Code": "774"
    },
    {
        "City": "Tlanchinol",
        "State": "Hidalgo",
        "Code": "774"
    },
    {
        "City": "Xochicoatlan",
        "State": "Hidalgo",
        "Code": "774"
    },
    {
        "City": "Zacualtipan",
        "State": "Hidalgo",
        "Code": "774"
    },
    {
        "City": "Huayacocotla",
        "State": "Veracruz",
        "Code": "774"
    },
    {
        "City": "Acatlan",
        "State": "Hidalgo",
        "Code": "775"
    },
    {
        "City": "Colonia 28 de Mayo (Santa Rosa)",
        "State": "Hidalgo",
        "Code": "775"
    },
    {
        "City": "Cuautepec de Hinojosa",
        "State": "Hidalgo",
        "Code": "775"
    },
    {
        "City": "El Pedregal San Jose",
        "State": "Hidalgo",
        "Code": "775"
    },
    {
        "City": "Jaltepec",
        "State": "Hidalgo",
        "Code": "775"
    },
    {
        "City": "La Lagunilla",
        "State": "Hidalgo",
        "Code": "775"
    },
    {
        "City": "Napateco",
        "State": "Hidalgo",
        "Code": "775"
    },
    {
        "City": "San Juan Hueyapan",
        "State": "Hidalgo",
        "Code": "775"
    },
    {
        "City": "San Lorenzo Sayula",
        "State": "Hidalgo",
        "Code": "775"
    },
    {
        "City": "Santa Ana de Allende",
        "State": "Hidalgo",
        "Code": "775"
    },
    {
        "City": "Santa Ana Hueytlalpan",
        "State": "Hidalgo",
        "Code": "775"
    },
    {
        "City": "Santa Elena Paliseca",
        "State": "Hidalgo",
        "Code": "775"
    },
    {
        "City": "Santiago Tulantepec",
        "State": "Hidalgo",
        "Code": "775"
    },
    {
        "City": "Singuilucan",
        "State": "Hidalgo",
        "Code": "775"
    },
    {
        "City": "Tulancingo",
        "State": "Hidalgo",
        "Code": "775"
    },
    {
        "City": "Acaxochitlan",
        "State": "Hidalgo",
        "Code": "776"
    },
    {
        "City": "San Pedro Tlachichilco",
        "State": "Hidalgo",
        "Code": "776"
    },
    {
        "City": "Santa Ana Tzacuala",
        "State": "Hidalgo",
        "Code": "776"
    },
    {
        "City": "Tenango de Doria",
        "State": "Hidalgo",
        "Code": "776"
    },
    {
        "City": "Ahuazotepec",
        "State": "Puebla",
        "Code": "776"
    },
    {
        "City": "Honey",
        "State": "Puebla",
        "Code": "776"
    },
    {
        "City": "Huauchinango",
        "State": "Puebla",
        "Code": "776"
    },
    {
        "City": "Pahuatlan de Valle",
        "State": "Puebla",
        "Code": "776"
    },
    {
        "City": "San Pablito",
        "State": "Puebla",
        "Code": "776"
    },
    {
        "City": "Venta Grande",
        "State": "Puebla",
        "Code": "776"
    },
    {
        "City": "Cuentepec",
        "State": "Morelos",
        "Code": "777"
    },
    {
        "City": "Cuernavaca",
        "State": "Morelos",
        "Code": "777"
    },
    {
        "City": "Emiliano Zapata",
        "State": "Morelos",
        "Code": "777"
    },
    {
        "City": "Jiutepec",
        "State": "Morelos",
        "Code": "777"
    },
    {
        "City": "La Joya",
        "State": "Morelos",
        "Code": "777"
    },
    {
        "City": "Monte Casino (Piamonte y Ensuen)",
        "State": "Morelos",
        "Code": "777"
    },
    {
        "City": "San Agustin Tetlama",
        "State": "Morelos",
        "Code": "777"
    },
    {
        "City": "Santa Fe",
        "State": "Morelos",
        "Code": "777"
    },
    {
        "City": "Temixco",
        "State": "Morelos",
        "Code": "777"
    },
    {
        "City": "Tetecalita",
        "State": "Morelos",
        "Code": "777"
    },
    {
        "City": "Xochitepec",
        "State": "Morelos",
        "Code": "777"
    },
    {
        "City": "Ajacuba",
        "State": "Hidalgo",
        "Code": "778"
    },
    {
        "City": "Atitalaquia",
        "State": "Hidalgo",
        "Code": "778"
    },
    {
        "City": "Atotonilco de Tula",
        "State": "Hidalgo",
        "Code": "778"
    },
    {
        "City": "San Nicolas Tecomatlan",
        "State": "Hidalgo",
        "Code": "778"
    },
    {
        "City": "Santiago Tezontlale",
        "State": "Hidalgo",
        "Code": "778"
    },
    {
        "City": "Tlaxcoapan",
        "State": "Hidalgo",
        "Code": "778"
    },
    {
        "City": "Las Plazas",
        "State": "Hidalgo",
        "Code": "779"
    },
    {
        "City": "Tizayuca",
        "State": "Hidalgo",
        "Code": "779"
    },
    {
        "City": "Bajos del Ejido",
        "State": "Guerrero",
        "Code": "781"
    },
    {
        "City": "Coyuca de Benitez",
        "State": "Guerrero",
        "Code": "781"
    },
    {
        "City": "El Espinalillo",
        "State": "Guerrero",
        "Code": "781"
    },
    {
        "City": "El Papayo",
        "State": "Guerrero",
        "Code": "781"
    },
    {
        "City": "Hacienda de Cabanas",
        "State": "Guerrero",
        "Code": "781"
    },
    {
        "City": "San Jeronimo de Juarez",
        "State": "Guerrero",
        "Code": "781"
    },
    {
        "City": "Tepetixtla",
        "State": "Guerrero",
        "Code": "781"
    },
    {
        "City": "Tixtlancingo",
        "State": "Guerrero",
        "Code": "781"
    },
    {
        "City": "Coatzintla",
        "State": "Veracruz",
        "Code": "782"
    },
    {
        "City": "Nuevo Progreso (El Doce)",
        "State": "Veracruz",
        "Code": "782"
    },
    {
        "City": "Palma Sola",
        "State": "Veracruz",
        "Code": "782"
    },
    {
        "City": "Poza Rica",
        "State": "Veracruz",
        "Code": "782"
    },
    {
        "City": "Praxedis Guerrero (Kilometro Di)",
        "State": "Veracruz",
        "Code": "783"
    },
    {
        "City": "Santiago de la Pena",
        "State": "Veracruz",
        "Code": "783"
    },
    {
        "City": "Tuxpan",
        "State": "Veracruz",
        "Code": "783"
    },
    {
        "City": "Adolfo Ruiz Cortines",
        "State": "Veracruz",
        "Code": "784"
    },
    {
        "City": "Agua Dulce Papantla",
        "State": "Veracruz",
        "Code": "784"
    },
    {
        "City": "Barra de Cazones",
        "State": "Veracruz",
        "Code": "784"
    },
    {
        "City": "Carrizal",
        "State": "Veracruz",
        "Code": "784"
    },
    {
        "City": "Cazones de Herrera",
        "State": "Veracruz",
        "Code": "784"
    },
    {
        "City": "Comalteco",
        "State": "Veracruz",
        "Code": "784"
    },
    {
        "City": "Coxquihui",
        "State": "Veracruz",
        "Code": "784"
    },
    {
        "City": "Coyutla",
        "State": "Veracruz",
        "Code": "784"
    },
    {
        "City": "El Chote",
        "State": "Veracruz",
        "Code": "784"
    },
    {
        "City": "El Volador",
        "State": "Veracruz",
        "Code": "784"
    },
    {
        "City": "Entabladero",
        "State": "Veracruz",
        "Code": "784"
    },
    {
        "City": "La Union",
        "State": "Veracruz",
        "Code": "784"
    },
    {
        "City": "Mecatlan",
        "State": "Veracruz",
        "Code": "784"
    },
    {
        "City": "Melchor Ocampo",
        "State": "Veracruz",
        "Code": "784"
    },
    {
        "City": "Miguel Aeman Valdes",
        "State": "Veracruz",
        "Code": "784"
    },
    {
        "City": "Papantla",
        "State": "Veracruz",
        "Code": "784"
    },
    {
        "City": "Progreso de Zaragoza",
        "State": "Veracruz",
        "Code": "784"
    },
    {
        "City": "Pueblillo",
        "State": "Veracruz",
        "Code": "784"
    },
    {
        "City": "Zozocolco de Hidalgo",
        "State": "Veracruz",
        "Code": "784"
    },
    {
        "City": "Cerro Azul",
        "State": "Veracruz",
        "Code": "785"
    },
    {
        "City": "Chontla",
        "State": "Veracruz",
        "Code": "785"
    },
    {
        "City": "Citlaltepec",
        "State": "Veracruz",
        "Code": "785"
    },
    {
        "City": "Ixcatepec",
        "State": "Veracruz",
        "Code": "785"
    },
    {
        "City": "Tancoco",
        "State": "Veracruz",
        "Code": "785"
    },
    {
        "City": "Tepetzintla",
        "State": "Veracruz",
        "Code": "785"
    },
    {
        "City": "Zacamixtle",
        "State": "Veracruz",
        "Code": "785"
    },
    {
        "City": "Agostitlan",
        "State": "Michoacan",
        "Code": "786"
    },
    {
        "City": "Aporo",
        "State": "Michoacan",
        "Code": "786"
    },
    {
        "City": "Benito Juarez",
        "State": "Michoacan",
        "Code": "786"
    },
    {
        "City": "Ciudad Hidalgo",
        "State": "Michoacan",
        "Code": "786"
    },
    {
        "City": "Huajumbaro",
        "State": "Michoacan",
        "Code": "786"
    },
    {
        "City": "Irimbo",
        "State": "Michoacan",
        "Code": "786"
    },
    {
        "City": "Las Grutas",
        "State": "Michoacan",
        "Code": "786"
    },
    {
        "City": "Melchor Ocampo (Paso de Tierra)",
        "State": "Michoacan",
        "Code": "786"
    },
    {
        "City": "Paricuaro",
        "State": "Michoacan",
        "Code": "786"
    },
    {
        "City": "Puente de Tierra",
        "State": "Michoacan",
        "Code": "786"
    },
    {
        "City": "Rincon de San Jeronimo",
        "State": "Michoacan",
        "Code": "786"
    },
    {
        "City": "San Andres La Venta",
        "State": "Michoacan",
        "Code": "786"
    },
    {
        "City": "San Antonio Villalongin",
        "State": "Michoacan",
        "Code": "786"
    },
    {
        "City": "San Bartolo Cuitareo (Cuitareo)",
        "State": "Michoacan",
        "Code": "786"
    },
    {
        "City": "San Lucas Huarirapeo",
        "State": "Michoacan",
        "Code": "786"
    },
    {
        "City": "San Matias Grande",
        "State": "Michoacan",
        "Code": "786"
    },
    {
        "City": "San Pedro Jacuaro (Las Joyas)",
        "State": "Michoacan",
        "Code": "786"
    },
    {
        "City": "Senguio",
        "State": "Michoacan",
        "Code": "786"
    },
    {
        "City": "Susupuato de Guerrero",
        "State": "Michoacan",
        "Code": "786"
    },
    {
        "City": "Tupataro",
        "State": "Michoacan",
        "Code": "786"
    },
    {
        "City": "Tuxpan",
        "State": "Michoacan",
        "Code": "786"
    },
    {
        "City": "Tuzantla",
        "State": "Michoacan",
        "Code": "786"
    },
    {
        "City": "Tzintzingareo",
        "State": "Michoacan",
        "Code": "786"
    },
    {
        "City": "Atlapexco",
        "State": "Hidalgo",
        "Code": "789"
    },
    {
        "City": "Huejutla de Reyes",
        "State": "Hidalgo",
        "Code": "789"
    },
    {
        "City": "Jaltocan",
        "State": "Hidalgo",
        "Code": "789"
    },
    {
        "City": "La Capilla",
        "State": "Hidalgo",
        "Code": "789"
    },
    {
        "City": "Tehuetlan",
        "State": "Hidalgo",
        "Code": "789"
    },
    {
        "City": "Chalma",
        "State": "Veracruz",
        "Code": "789"
    },
    {
        "City": "Chapopote Chico (Tlachinolapa)",
        "State": "Veracruz",
        "Code": "789"
    },
    {
        "City": "Corozal",
        "State": "Veracruz",
        "Code": "789"
    },
    {
        "City": "Platon Sanchez",
        "State": "Veracruz",
        "Code": "789"
    },
    {
        "City": "Tantoyuca",
        "State": "Veracruz",
        "Code": "789"
    },
    {
        "City": "Tempoal de Sanchez",
        "State": "Veracruz",
        "Code": "789"
    },
    {
        "City": "Ciudad Sahagun",
        "State": "Hidalgo",
        "Code": "791"
    },
    {
        "City": "Colonia 20 de Noviembre",
        "State": "Hidalgo",
        "Code": "791"
    },
    {
        "City": "Los Cides",
        "State": "Hidalgo",
        "Code": "791"
    },
    {
        "City": "Tepeapulco",
        "State": "Hidalgo",
        "Code": "791"
    },
    {
        "City": "Aquixtla",
        "State": "Puebla",
        "Code": "797"
    },
    {
        "City": "Chignahuapan",
        "State": "Puebla",
        "Code": "797"
    },
    {
        "City": "Loma Alta",
        "State": "Puebla",
        "Code": "797"
    },
    {
        "City": "Tetela de Ocampo",
        "State": "Puebla",
        "Code": "797"
    },
    {
        "City": "Tomatlan",
        "State": "Puebla",
        "Code": "797"
    },
    {
        "City": "Tonalapa",
        "State": "Puebla",
        "Code": "797"
    },
    {
        "City": "Zacatlan",
        "State": "Puebla",
        "Code": "797"
    }
]