[
    {
        "Country": "Ireland[17]",
        "Release date": "28 October 2011",
        "Format(s)": "Digital download"
    },
    {
        "Country": "United Kingdom",
        "Release date": "31 October 2011",
        "Format(s)": "Digital download[18]"
    },
    {
        "Country": "United Kingdom",
        "Release date": "31 October 2011",
        "Format(s)": "CD[19]"
    }
]