[
    {
        "Nat": "",
        "No": "5",
        "Midfielders": "Osorio",
        "Age": "31",
        "Pos": "MF"
    },
    {
        "Nat": "",
        "No": "6",
        "Midfielders": "Mano",
        "Age": "21",
        "Pos": "MF"
    },
    {
        "Nat": "",
        "No": "8",
        "Midfielders": "Chara",
        "Age": "31",
        "Pos": "MF"
    },
    {
        "Nat": "",
        "No": "10",
        "Midfielders": "Felix Katongo",
        "Age": "28",
        "Pos": "MF"
    },
    {
        "Nat": "",
        "No": "11",
        "Midfielders": "Job",
        "Age": "25",
        "Pos": "MF"
    },
    {
        "Nat": "",
        "No": "14",
        "Midfielders": "Mateus",
        "Age": "19",
        "Pos": "MF"
    },
    {
        "Nat": "",
        "No": "21",
        "Midfielders": "Mabina",
        "Age": "29",
        "Pos": "MF"
    },
    {
        "Nat": "",
        "No": "26",
        "Midfielders": "Dany",
        "Age": "23",
        "Pos": "MF"
    },
    {
        "Nat": "",
        "No": "28",
        "Midfielders": "Day Day",
        "Age": "21",
        "Pos": "MF"
    }
]