[
    {
        "Year": "1970 24th",
        "Actor": "",
        "Film": "",
        "Character": ""
    },
    {
        "Year": "1970 24th",
        "Actor": "David Bradley",
        "Film": "Kes",
        "Character": "David Syverton"
    },
    {
        "Year": "1970 24th",
        "Actor": "Liza Minnelli",
        "Film": "Pookie",
        "Character": "Mary Ann \\Pookie\" Adams\""
    },
    {
        "Year": "1970 24th",
        "Actor": "Michael Sarrazin",
        "Film": "They Shoot Horses, Don't They?",
        "Character": "Robert Syverton"
    },
    {
        "Year": "1970 24th",
        "Actor": "Sally Thomsett",
        "Film": "The Railway Children",
        "Character": "Phyllis Waterbury"
    },
    {
        "Year": "1971 25th",
        "Actor": "",
        "Film": "",
        "Character": ""
    },
    {
        "Year": "1971 25th",
        "Actor": "Dominic Guard",
        "Film": "The Go-Between",
        "Character": "Leo Colston"
    },
    {
        "Year": "1971 25th",
        "Actor": "Gary Grimes",
        "Film": "Summer of '42",
        "Character": "Hermie"
    },
    {
        "Year": "1971 25th",
        "Actor": "Carrie Snodgress",
        "Film": "Diary of a Mad Housewife",
        "Character": "Tina Balser"
    },
    {
        "Year": "1971 25th",
        "Actor": "Janet Suzman",
        "Film": "Nicholas and Alexandra",
        "Character": "Alexandra"
    },
    {
        "Year": "1972 26th",
        "Actor": "",
        "Film": "",
        "Character": ""
    },
    {
        "Year": "1972 26th",
        "Actor": "Joel Gray",
        "Film": "Cabaret",
        "Character": "Emcee"
    },
    {
        "Year": "1972 26th",
        "Actor": "Bud Cort",
        "Film": "Harold and Maude",
        "Character": "Harold Parker Chason"
    },
    {
        "Year": "1972 26th",
        "Actor": "Al Pacino",
        "Film": "The Godfather",
        "Character": "Michael Corleone"
    },
    {
        "Year": "1972 26th",
        "Actor": "Simon Ward",
        "Film": "Young Winston",
        "Character": "Winston Churchill"
    },
    {
        "Year": "1973 27th",
        "Actor": "",
        "Film": "",
        "Character": ""
    },
    {
        "Year": "1973 27th",
        "Actor": "Peter Egan",
        "Film": "The Hireling",
        "Character": "Captain Hugh Cantrip"
    },
    {
        "Year": "1973 27th",
        "Actor": "Jim Dale",
        "Film": "Adolf Hitler: My Part in his Downfall",
        "Character": "Terence \\Spike\" Milligan\""
    },
    {
        "Year": "1973 27th",
        "Actor": "David Essex",
        "Film": "That'll Be the Day",
        "Character": "Jim MacLain"
    },
    {
        "Year": "1973 27th",
        "Actor": "Kris Kristofferson",
        "Film": "Pat Garrett and Billy the Kid",
        "Character": "Billy the Kid"
    },
    {
        "Year": "1974 28th",
        "Actor": "",
        "Film": "",
        "Character": ""
    },
    {
        "Year": "1974 28th",
        "Actor": "Georgina Hale",
        "Film": "Mahler",
        "Character": "Alma Werfel"
    },
    {
        "Year": "1974 28th",
        "Actor": "Cleavon Little",
        "Film": "Blazing Saddles",
        "Character": "Sheriff Bart"
    },
    {
        "Year": "1974 28th",
        "Actor": "Sissy Spacek",
        "Film": "Badlands",
        "Character": "Holly Sargis"
    },
    {
        "Year": "1975 29th",
        "Actor": "",
        "Film": "",
        "Character": ""
    },
    {
        "Year": "1975 29th",
        "Actor": "Valerie Perrine",
        "Film": "Lenny",
        "Character": "Honey Bruce"
    },
    {
        "Year": "1975 29th",
        "Actor": "Robert De Niro",
        "Film": "The Godfather Part II",
        "Character": "Vito Corleone"
    },
    {
        "Year": "1975 29th",
        "Actor": "Alfred Lutter",
        "Film": "Alice Doesn't Live Here Anymore",
        "Character": "Tommy"
    },
    {
        "Year": "1975 29th",
        "Actor": "Lily Tomlin",
        "Film": "Nashville",
        "Character": "Linnea Reese"
    },
    {
        "Year": "1976 30th",
        "Actor": "",
        "Film": "",
        "Character": ""
    },
    {
        "Year": "1976 30th",
        "Actor": "Jodie Foster",
        "Film": "Bugsy Malone \\/ Taxi Driver",
        "Character": "Tallulah \\/ Iris Steensma"
    },
    {
        "Year": "1976 30th",
        "Actor": "No other Nominees",
        "Film": "",
        "Character": ""
    },
    {
        "Year": "1977 31st",
        "Actor": "",
        "Film": "",
        "Character": ""
    },
    {
        "Year": "1977 31st",
        "Actor": "Isabelle Huppert",
        "Film": "The Lacemaker",
        "Character": "Pomme"
    },
    {
        "Year": "1977 31st",
        "Actor": "Olimpia Carlisi",
        "Film": "The Middle of the World",
        "Character": "Adriana"
    },
    {
        "Year": "1977 31st",
        "Actor": "Jeannette Clift",
        "Film": "The Hiding Place",
        "Character": "Corrie ten Boom"
    },
    {
        "Year": "1977 31st",
        "Actor": "Saverio Marconi",
        "Film": "Padre Padrone",
        "Character": "Gavino"
    },
    {
        "Year": "1978 32nd",
        "Actor": "",
        "Film": "",
        "Character": ""
    },
    {
        "Year": "1978 32nd",
        "Actor": "Christopher Reeve",
        "Film": "Superman",
        "Character": "Clark Kent \\/ Superman"
    },
    {
        "Year": "1978 32nd",
        "Actor": "Brad Davis",
        "Film": "Midnight Express",
        "Character": "Billy Hayes"
    },
    {
        "Year": "1978 32nd",
        "Actor": "Mary Beth Hurt",
        "Film": "Interiors",
        "Character": "Joey"
    },
    {
        "Year": "1978 32nd",
        "Actor": "Melanie Mayron",
        "Film": "Girlfriends",
        "Character": "Susan Weinblatt"
    },
    {
        "Year": "1979 33rd",
        "Actor": "",
        "Film": "",
        "Character": ""
    },
    {
        "Year": "1979 33rd",
        "Actor": "Dennis Christopher",
        "Film": "Breaking Away",
        "Character": "Dave Stoller"
    },
    {
        "Year": "1979 33rd",
        "Actor": "Gary Busey",
        "Film": "The Buddy Holly Story",
        "Character": "Buddy Holly"
    },
    {
        "Year": "1979 33rd",
        "Actor": "Ray Winstone",
        "Film": "That Summer!",
        "Character": "Steve Brody"
    },
    {
        "Year": "1979 33rd",
        "Actor": "Sigourney Weaver",
        "Film": "Alien",
        "Character": "Ellen Ripley"
    }
]