[
    {
        "Date": "3 March 1970",
        "Location": "Panama(N)",
        "Opponents": "Netherlands Antilles",
        "Score[A]": "1 AC/EUR\" 8",
        "Competition": "Friendly",
        "Att.": "",
        "Bahamas scorers": "?"
    },
    {
        "Date": "8 March 1970",
        "Location": "Panama(N)",
        "Opponents": "Puerto Rico",
        "Score[A]": "0 AC/EUR\" 3",
        "Competition": "Friendly",
        "Att.": "",
        "Bahamas scorers": ""
    },
    {
        "Date": "28 February 1974",
        "Location": "Dominican Republic(N)",
        "Opponents": "Panama",
        "Score[A]": "1 AC/EUR\" 0",
        "Competition": "1974 Central American and Caribbean Games",
        "Att.": "",
        "Bahamas scorers": "?"
    },
    {
        "Date": "4 March 1974",
        "Location": "Dominican Republic(N)",
        "Opponents": "Dominican Republic",
        "Score[A]": "0 AC/EUR\" 2",
        "Competition": "1974 Central American and Caribbean Games",
        "Att.": "",
        "Bahamas scorers": ""
    },
    {
        "Date": "6 March 1974",
        "Location": "Dominican Republic(N)",
        "Opponents": "Bermuda",
        "Score[A]": "0 AC/EUR\" 3",
        "Competition": "1974 Central American and Caribbean Games",
        "Att.": "",
        "Bahamas scorers": ""
    },
    {
        "Date": "2 August 1982",
        "Location": "Cuba(N)",
        "Opponents": "Puerto Rico",
        "Score[A]": "1 AC/EUR\" 4",
        "Competition": "1982 Central American and Caribbean Games",
        "Att.": "",
        "Bahamas scorers": "?"
    },
    {
        "Date": "6 August 1982",
        "Location": "Cuba(N)",
        "Opponents": "Bermuda",
        "Score[A]": "0 AC/EUR\" 3",
        "Competition": "1982 Central American and Caribbean Games",
        "Att.": "",
        "Bahamas scorers": ""
    },
    {
        "Date": "10 August 1982",
        "Location": "Cuba(A)",
        "Opponents": "Cuba",
        "Score[A]": "0 AC/EUR\" 1",
        "Competition": "1982 Central American and Caribbean Games",
        "Att.": "",
        "Bahamas scorers": ""
    },
    {
        "Date": "30 June 30 1986",
        "Location": "Dominican Republic(N)",
        "Opponents": "Cuba",
        "Score[A]": "0 AC/EUR\" 1",
        "Competition": "Friendly",
        "Att.": "",
        "Bahamas scorers": ""
    },
    {
        "Date": "29 March 1987",
        "Location": "Bahamas(H)",
        "Opponents": "Mexico",
        "Score[A]": "0 AC/EUR\" 3",
        "Competition": "Friendly",
        "Att.": "",
        "Bahamas scorers": ""
    },
    {
        "Date": "28 April 1987",
        "Location": "Mexico(A)",
        "Opponents": "Mexico",
        "Score[A]": "0 AC/EUR\" 13",
        "Competition": "Friendly",
        "Att.": "",
        "Bahamas scorers": ""
    },
    {
        "Date": "24 February 1999",
        "Location": "Bahamas(H)",
        "Opponents": "Turks and Caicos Islands",
        "Score[A]": "3 AC/EUR\" 0",
        "Competition": "1999 Caribbean Nations Cup Preliminary round",
        "Att.": "",
        "Bahamas scorers": "?"
    },
    {
        "Date": "28 February 1999",
        "Location": "Bahamas(H)",
        "Opponents": "U.S. Virgin Islands",
        "Score[A]": "0 AC/EUR\" 0",
        "Competition": "1999 Caribbean Nations Cup Preliminary round",
        "Att.": "",
        "Bahamas scorers": ""
    },
    {
        "Date": "5 May 1999",
        "Location": "Bermuda(A)",
        "Opponents": "Bermuda",
        "Score[A]": "0 AC/EUR\" 6",
        "Competition": "1999 Caribbean Nations Cup Qualifying round",
        "Att.": "",
        "Bahamas scorers": ""
    },
    {
        "Date": "7 May 1999",
        "Location": "Bermuda(N)",
        "Opponents": "Cuba",
        "Score[A]": "0 AC/EUR\" 7",
        "Competition": "1999 Caribbean Nations Cup Qualifying round",
        "Att.": "",
        "Bahamas scorers": ""
    },
    {
        "Date": "9 May 1999",
        "Location": "Bermuda(N)",
        "Opponents": "Cayman Islands",
        "Score[A]": "1 AC/EUR\" 4",
        "Competition": "1999 Caribbean Nations Cup Qualifying round",
        "Att.": "",
        "Bahamas scorers": "?"
    },
    {
        "Date": "23 September 1999",
        "Location": "Cayman Islands(A)",
        "Opponents": "Cayman Islands",
        "Score[A]": "0 AC/EUR\" 4",
        "Competition": "Friendly",
        "Att.": "",
        "Bahamas scorers": ""
    },
    {
        "Date": "5 March 2000",
        "Location": "Anguilla(A)",
        "Opponents": "Anguilla",
        "Score[A]": "3 AC/EUR\" 1",
        "Competition": "2002 FIFA World Cup qualification",
        "Att.": "",
        "Bahamas scorers": "Haven 12' Moussis 29' Davies 32'"
    },
    {
        "Date": "19 March 2000",
        "Location": "Bahamas(H)",
        "Opponents": "Anguilla",
        "Score[A]": "2 AC/EUR\" 1",
        "Competition": "2002 FIFA World Cup qualification",
        "Att.": "",
        "Bahamas scorers": "Haven 16' Davies 77'"
    },
    {
        "Date": "1 April 2000",
        "Location": "Haiti(A)",
        "Opponents": "Haiti",
        "Score[A]": "0 AC/EUR\" 9",
        "Competition": "2002 FIFA World Cup qualification",
        "Att.": "",
        "Bahamas scorers": ""
    },
    {
        "Date": "16 April 2000",
        "Location": "Bahamas(H)",
        "Opponents": "Haiti",
        "Score[A]": "0 AC/EUR\" 4",
        "Competition": "2002 FIFA World Cup qualification",
        "Att.": "",
        "Bahamas scorers": ""
    },
    {
        "Date": "21 October 2001",
        "Location": "Bahamas(H)",
        "Opponents": "Haiti",
        "Score[A]": "0 AC/EUR\" 2",
        "Competition": "Friendly",
        "Att.": "",
        "Bahamas scorers": ""
    },
    {
        "Date": "27 December 2003",
        "Location": "United States(N)",
        "Opponents": "Haiti",
        "Score[A]": "0 AC/EUR\" 6",
        "Competition": "Friendly",
        "Att.": "",
        "Bahamas scorers": ""
    },
    {
        "Date": "26 March 2004",
        "Location": "Bahamas(H)",
        "Opponents": "Dominica",
        "Score[A]": "1 AC/EUR\" 1",
        "Competition": "2006 FIFA World Cup qualification",
        "Att.": "",
        "Bahamas scorers": "Horton 66'"
    },
    {
        "Date": "28 March 2004",
        "Location": "Bahamas(H)",
        "Opponents": "Dominica",
        "Score[A]": "1 AC/EUR\" 3",
        "Competition": "2006 FIFA World Cup qualification",
        "Att.": "",
        "Bahamas scorers": "Jean 67'"
    },
    {
        "Date": "2 September 2006",
        "Location": "Cuba(N)",
        "Opponents": "Cayman Islands",
        "Score[A]": "3 AC/EUR\" 1",
        "Competition": "2006AC/EUR\"07 Caribbean Nations Cup First qualifying round",
        "Att.": "",
        "Bahamas scorers": "Rivers 6' (o.g.) R. Moseley 35' Thompson 80'"
    },
    {
        "Date": "4 September 2006",
        "Location": "Cuba(A)",
        "Opponents": "Cuba",
        "Score[A]": "0 AC/EUR\" 6",
        "Competition": "2006AC/EUR\"07 Caribbean Nations Cup First qualifying round",
        "Att.": "",
        "Bahamas scorers": ""
    },
    {
        "Date": "6 September 2006",
        "Location": "Cuba(N)",
        "Opponents": "Turks and Caicos Islands",
        "Score[A]": "3 AC/EUR\" 2",
        "Competition": "2006AC/EUR\"07 Caribbean Nations Cup First qualifying round",
        "Att.": "",
        "Bahamas scorers": "Nassies 59' Hall 63' Jean 87'"
    },
    {
        "Date": "19 November 2006",
        "Location": "Barbados(A)",
        "Opponents": "Barbados",
        "Score[A]": "1 AC/EUR\" 2",
        "Competition": "2006AC/EUR\"07 Caribbean Nations Cup Second qualifying round",
        "Att.": "",
        "Bahamas scorers": "Jean 76' (pen.)"
    },
    {
        "Date": "21 November 2006",
        "Location": "Barbados(N)",
        "Opponents": "Bermuda",
        "Score[A]": "0 AC/EUR\" 4",
        "Competition": "2006AC/EUR\"07 Caribbean Nations Cup Second qualifying round",
        "Att.": "",
        "Bahamas scorers": ""
    },
    {
        "Date": "23 November 2006",
        "Location": "Barbados(N)",
        "Opponents": "Saint Vincent and the Grenadines",
        "Score[A]": "2 AC/EUR\" 3",
        "Competition": "2006AC/EUR\"07 Caribbean Nations Cup Second qualifying round",
        "Att.": "",
        "Bahamas scorers": "Christie 55' J. Moseley 65'"
    },
    {
        "Date": "26 March 2008",
        "Location": "Bahamas(H)",
        "Opponents": "British Virgin Islands",
        "Score[A]": "1 AC/EUR\" 1",
        "Competition": "2010 FIFA World Cup qualification",
        "Att.": "",
        "Bahamas scorers": "St.Fleur 47'"
    },
    {
        "Date": "30 March 2008",
        "Location": "Bahamas(H)",
        "Opponents": "British Virgin Islands",
        "Score[A]": "2 AC/EUR\" 2",
        "Competition": "2010 FIFA World Cup qualification",
        "Att.": "",
        "Bahamas scorers": "Bethel 40' Mitchell 52'"
    },
    {
        "Date": "15 June 2008",
        "Location": "Jamaica(A)",
        "Opponents": "Jamaica",
        "Score[A]": "0 AC/EUR\" 7",
        "Competition": "2010 FIFA World Cup qualification",
        "Att.": "",
        "Bahamas scorers": ""
    },
    {
        "Date": "18 June 2008",
        "Location": "Jamaica(A)",
        "Opponents": "Jamaica",
        "Score[A]": "0 AC/EUR\" 6",
        "Competition": "2010 FIFA World Cup qualification",
        "Att.": "",
        "Bahamas scorers": ""
    },
    {
        "Date": "2 July 2011",
        "Location": "Turks and Caicos Islands(A)",
        "Opponents": "Turks and Caicos Islands",
        "Score[A]": "4 AC/EUR\" 0",
        "Competition": "2014 FIFA World Cup qualification",
        "Att.": "",
        "Bahamas scorers": "Jean 32', 60' Hepple 34' (pen.) Louis 90+2'"
    },
    {
        "Date": "9 July 2011",
        "Location": "Bahamas(H)",
        "Opponents": "Turks and Caicos Islands",
        "Score[A]": "6 AC/EUR\" 0",
        "Competition": "2014 FIFA World Cup qualification",
        "Att.": "",
        "Bahamas scorers": "Gibson 4' (o.g.) St.Fleur 17', 64', 73', 86', 90'"
    },
    {
        "Date": "25 March 2015",
        "Location": "Bahamas(H)",
        "Opponents": "Bermuda",
        "Score[A]": "0 AC/EUR\" 5",
        "Competition": "2018 FIFA World Cup qualification",
        "Att.": "",
        "Bahamas scorers": ""
    },
    {
        "Date": "29 March 2015",
        "Location": "Bermuda(A)",
        "Opponents": "Bermuda",
        "Score[A]": "0 AC/EUR\" 3",
        "Competition": "2018 FIFA World Cup qualification",
        "Att.": "",
        "Bahamas scorers": ""
    }
]