[
    {
        "Rank": "1",
        "Destination city": "Philadelphia",
        "Passengers": "73,020",
        "Carriers": "US Airways"
    },
    {
        "Rank": "2",
        "Destination city": "New York City (LaGuardia)",
        "Passengers": "38,094",
        "Carriers": "Delta"
    },
    {
        "Rank": "3",
        "Destination city": "Detroit",
        "Passengers": "35,065",
        "Carriers": "Delta"
    },
    {
        "Rank": "4",
        "Destination city": "Washington, D.C. (National)",
        "Passengers": "30,021",
        "Carriers": "US Airways"
    },
    {
        "Rank": "5",
        "Destination city": "Orlando\\/Sanford",
        "Passengers": "27,022",
        "Carriers": "Allegiant"
    },
    {
        "Rank": "6",
        "Destination city": "St. Petersburg\\/Clearwater",
        "Passengers": "19,052",
        "Carriers": "Allegiant"
    },
    {
        "Rank": "7",
        "Destination city": "Chicago",
        "Passengers": "12012",
        "Carriers": "United"
    },
    {
        "Rank": "8",
        "Destination city": "Newark",
        "Passengers": "370",
        "Carriers": "N\\/A"
    },
    {
        "Rank": "9",
        "Destination city": "Pittsburgh",
        "Passengers": "160",
        "Carriers": "N\\/A"
    },
    {
        "Rank": "10",
        "Destination city": "New York City (JFK)",
        "Passengers": "100",
        "Carriers": "N\\/A"
    }
]