[
    {
        "Year": "1981",
        "Film": "Family Reunion",
        "Role": "Jamcie Lyman",
        "Notes": "(TV)"
    },
    {
        "Year": "1981",
        "Film": "CBS Children's Mystery Theatre",
        "Role": "Dah Littlewood",
        "Notes": "Episode:\\Mystery at Fire Island\"\""
    },
    {
        "Year": "1983",
        "Film": "The Wilder Summer",
        "Role": "unknown",
        "Notes": "(TV)"
    },
    {
        "Year": "",
        "Film": "In Defense of Kids",
        "Role": "unknown",
        "Notes": "(TV)"
    },
    {
        "Year": "1983",
        "Film": "The Hunger",
        "Role": "Alice",
        "Notes": ""
    },
    {
        "Year": "1984",
        "Film": "Things Are Looking Up",
        "Role": "Mia Braithwaite",
        "Notes": ""
    },
    {
        "Year": "1985",
        "Film": "The Best Times",
        "Role": "Mia Braithwaite",
        "Notes": ""
    },
    {
        "Year": "1987",
        "Film": "Hiding Out",
        "Role": "Chloe",
        "Notes": ""
    },
    {
        "Year": "1987AC/EUR\"1993,1997,1997AC/EUR\"2008",
        "Film": "Guiding Light",
        "Role": "Harley Cooper",
        "Notes": "Role From: September 1987-September 28, 1993, January 21-January 30, 1997, May 29, 1997 to June 23, 2008"
    },
    {
        "Year": "1993",
        "Film": "The Maury Povich Show",
        "Role": "Herself",
        "Notes": "Episode:\\The Soap Opera Update Awards (1993)\"\""
    },
    {
        "Year": "1999",
        "Film": "The 15th Annual Soap Opera Digest Awards",
        "Role": "Herself",
        "Notes": ""
    },
    {
        "Year": "1999",
        "Film": "The 26th Annual Daytime Emmy Awards",
        "Role": "Nominee",
        "Notes": "Herself"
    },
    {
        "Year": "2001",
        "Film": "Supertalk",
        "Role": "unknown",
        "Notes": ""
    },
    {
        "Year": "2002",
        "Film": "A Wedding Story: Josh and Reva",
        "Role": "Harley Cooper",
        "Notes": ""
    },
    {
        "Year": "2003",
        "Film": "Crossing Over with John Edward",
        "Role": "Herself Herself||Episode Dated:\\November 12\"\"",
        "Notes": ""
    },
    {
        "Year": "2004",
        "Film": "The 31st Annual Daytime Emmy Awards",
        "Role": "Herself",
        "Notes": ""
    },
    {
        "Year": "2004",
        "Film": "Law & Order: Special Victims Unit",
        "Role": "Mrs. Kester",
        "Notes": "Episode:\\Home\"\""
    },
    {
        "Year": "2005",
        "Film": "The 32nd Annual Daytime Emmy Awards",
        "Role": "Herself",
        "Notes": ""
    },
    {
        "Year": "2006",
        "Film": "Martha",
        "Role": "Herself",
        "Notes": "Episode Dated:\\February 23\""
    },
    {
        "Year": "2006",
        "Film": "The 33rd Annual Daytime Emmy Awards",
        "Role": "",
        "Notes": "Herself"
    },
    {
        "Year": "2008",
        "Film": "The View",
        "Role": "Herself",
        "Notes": "Episode Dated:\\December 5\"\""
    },
    {
        "Year": "2008",
        "Film": "All My Children",
        "Role": "Taylor Thompson",
        "Notes": "Role From: July 24, 2008-September 21, 2009"
    },
    {
        "Year": "2012",
        "Film": "River Ridge",
        "Role": "Coryn Foster",
        "Notes": ""
    }
]