[
    {
        "Chart": "US Billboard 200",
        "Peak position": "34",
        "Certification": "AC/EUR\""
    },
    {
        "Chart": "Australian Albums Chart",
        "Peak position": "3",
        "Certification": "Gold"
    },
    {
        "Chart": "UK Albums Chart[8]",
        "Peak position": "6",
        "Certification": "AC/EUR\""
    }
]