[
    {
        "No": "1",
        "State\\/UT": "Gujarat",
        "NDA govt. Since": "28 February 1998",
        "Chief Minister": "Anandiben Patel",
        "CM's Party": "Bharatiya Janata Party",
        "CM Since": "22 May 2014",
        "Seats in Assembly": "121\\/182",
        "Ref(s)": "[108]"
    },
    {
        "No": "2",
        "State\\/UT": "Chhattisgarh",
        "NDA govt. Since": "4 December 2003",
        "Chief Minister": "Raman Singh",
        "CM's Party": "Bharatiya Janata Party",
        "CM Since": "7 December 2003",
        "Seats in Assembly": "49\\/90",
        "Ref(s)": "[109]"
    },
    {
        "No": "3",
        "State\\/UT": "Madhya Pradesh",
        "NDA govt. Since": "4 December 2003",
        "Chief Minister": "Shivraj Singh Chouhan",
        "CM's Party": "Bharatiya Janata Party",
        "CM Since": "29 November 2005",
        "Seats in Assembly": "165\\/230",
        "Ref(s)": "[110]"
    },
    {
        "No": "4",
        "State\\/UT": "Punjab",
        "NDA govt. Since": "13 February 2007",
        "Chief Minister": "Prakash Singh Badal",
        "CM's Party": "Shiromani Akali Dal",
        "CM Since": "1 March 2007",
        "Seats in Assembly": "68\\/117",
        "Ref(s)": "[111]"
    },
    {
        "No": "5",
        "State\\/UT": "Nagaland",
        "NDA govt. Since": "8 March 2008",
        "Chief Minister": "T. R. Zeliang",
        "CM's Party": "Naga People's Front",
        "CM Since": "24 May 2014",
        "Seats in Assembly": "39\\/60",
        "Ref(s)": "[112]"
    },
    {
        "No": "6",
        "State\\/UT": "Puducherry",
        "NDA govt. Since": "13 May 2011",
        "Chief Minister": "N. Rangaswamy",
        "CM's Party": "All India N.R. Congress",
        "CM Since": "16 May 2011",
        "Seats in Assembly": "15\\/30",
        "Ref(s)": "[113]"
    },
    {
        "No": "7",
        "State\\/UT": "Goa",
        "NDA govt. Since": "6 March 2012",
        "Chief Minister": "Laxmikant Parsekar",
        "CM's Party": "Bharatiya Janata Party",
        "CM Since": "8 November 2014",
        "Seats in Assembly": "24\\/40",
        "Ref(s)": "[114]"
    },
    {
        "No": "8",
        "State\\/UT": "Rajasthan",
        "NDA govt. Since": "8 December 2013",
        "Chief Minister": "Vasundhara Raje",
        "CM's Party": "Bharatiya Janata Party",
        "CM Since": "13 December 2013",
        "Seats in Assembly": "160\\/200",
        "Ref(s)": "[115]"
    },
    {
        "No": "9",
        "State\\/UT": "Andhra Pradesh",
        "NDA govt. Since": "16 May 2014",
        "Chief Minister": "N. Chandrababu Naidu",
        "CM's Party": "Telugu Desam Party",
        "CM Since": "8 June 2014",
        "Seats in Assembly": "106\\/175",
        "Ref(s)": "[116]"
    },
    {
        "No": "10",
        "State\\/UT": "Haryana",
        "NDA govt. Since": "19 October 2014",
        "Chief Minister": "Manohar Lal Khattar",
        "CM's Party": "Bharatiya Janata Party",
        "CM Since": "26 October 2014",
        "Seats in Assembly": "47\\/90",
        "Ref(s)": "[117]"
    },
    {
        "No": "11",
        "State\\/UT": "Maharashtra",
        "NDA govt. Since": "19 October 2014",
        "Chief Minister": "Devendra Fadnavis",
        "CM's Party": "Bharatiya Janata Party",
        "CM Since": "31 October 2014",
        "Seats in Assembly": "186\\/288",
        "Ref(s)": "[118]"
    },
    {
        "No": "12",
        "State\\/UT": "Jharkhand",
        "NDA govt. Since": "23 December 2014",
        "Chief Minister": "Raghubar Das",
        "CM's Party": "Bharatiya Janata Party",
        "CM Since": "28 December 2014",
        "Seats in Assembly": "48\\/81",
        "Ref(s)": "[119]"
    },
    {
        "No": "13",
        "State\\/UT": "Jammu and Kashmir",
        "NDA govt. Since": "23 December 2014",
        "Chief Minister": "Mufti Mohammad Sayeed",
        "CM's Party": "People's Democratic Party",
        "CM Since": "1 March 2015",
        "Seats in Assembly": "55\\/87",
        "Ref(s)": "[120]"
    }
]