[
    {
        "Chart title": "Hot Dance Club Songs",
        "Chart type": "reports from DJs",
        "Number of positions": "50",
        "Description": "Compiled exclusively from playlists submitted by nightclub disc jockeys, who must apply and meet certain criteria to become Billboard-reporting DJs"
    },
    {
        "Chart title": "Dance\\/Electronic Songs",
        "Chart type": "Continuous airplay, single sales, digital downloads, online streaming, reports from DJs",
        "Number of positions": "50",
        "Description": "A chart which uses the same methodology as the Hot 100, which tracks the top Dance\\/Electronic singles based on club play reports, monitored airplay, single sales, digital downloads and monitored online streaming. The songs will be used to determine eligibility for entry into the Hot 100. Criteria will be based on the song's tempo. Remixed versions of Pop, Rock, R&B, Hip-Hop and\\/or songs of other genres are ineligible for this chart. This chart uses the components of the Club Play, Dance\\/Mix Show, Digital Songs and Streaming Songs chart."
    },
    {
        "Chart title": "Dance\\/Mix Show Airplay",
        "Chart type": "Continuous airplay (Spins from exclusive reporters) Mix show airplay (Spins from Mainstream and Rhythmic stations)",
        "Number of positions": "40",
        "Description": "Originally called Hot Dance Airplay when it was launched in 2003. A monitored dance music radio chart of 6 dance stations that came about as a result of the small but influential impact of dance music on the radio and the stations that program it. Renamed Dance\\/Mix Show Airplay chart on November 19, 2011. The chart now includes the 157 Mainstream Top 40 and 67 Rhythmic Top 40 reporters that features mix shows in their programming. Expanded to 40 positions, effective with the December 6, 2014 issue."
    },
    {
        "Chart title": "Dance\\/Electronic Digital Songs",
        "Chart type": "",
        "Number of positions": "50",
        "Description": "A chart that tracks the digital download of dance music singles, including tracks that are exclusively available online only. This chart also includes previously released dance and disco songs that became available for downloading."
    },
    {
        "Chart title": "Dance\\/Electronic Digital Streaming Songs",
        "Chart type": "",
        "Number of positions": "25",
        "Description": "A chart that tracks the week's top Dance\\/Electronic streamed radio songs and on-demand songs and videos on leading online music services."
    }
]