[
    {
        "Cast": "Ching Hor Wai",
        "Role": "Lau Suet Ling A|z--ASSZ%0AY=A<<A>>",
        "Description": "Age 50 Tsui Ping and Tsui On's mother Tsui Sum's adopted mother"
    },
    {
        "Cast": "Raymond Cho",
        "Role": "Tsui Ping AY=A 3/4 AY=A1A3",
        "Description": "Age 30 Lau Suet Ling's son Tsui Sum and Tsui On's older brother"
    },
    {
        "Cast": "Claire Yiu",
        "Role": "Wun You A|AoA<<A|Y\"",
        "Description": "Age 29 Tsui Ping's wife"
    },
    {
        "Cast": "Niki Chow",
        "Role": "Tsui Sum AY=A 3/4 A\"A-",
        "Description": "Age 26 Lau Suet Ling's adopted daughter Tsui Ping and Tsui On's sister"
    },
    {
        "Cast": "Vin Choi",
        "Role": "Tsui On AY=A 3/4 AY=A(r)",
        "Description": "Lau Suet Ling's son Tsui Sum and Tsui Ping's brother The youngest son of the Tsui family, who is educated. He does not take part in the family's sauce manufacturing factory, as he tries to make money in the stock market, which later causes a crisis for the family."
    }
]