[
    {
        "District": "District",
        "Name": "Name",
        "Party": "Party",
        "First Elected": "First Elected",
        "Area(s) of Brazoria County Represented": "Area(s) of Brazoria County Represented",
        "NO-HEADER5": ""
    },
    {
        "District": "",
        "Name": "25",
        "Party": "Dennis Bonnen",
        "First Elected": "Republican",
        "Area(s) of Brazoria County Represented": "1996",
        "NO-HEADER5": "Lake Jackson, Angleton, Freeport"
    },
    {
        "District": "",
        "Name": "29",
        "Party": "Ed Thompson",
        "First Elected": "Republican",
        "Area(s) of Brazoria County Represented": "2008",
        "NO-HEADER5": "Pearland, Alvin, Manvel"
    }
]