[
    {
        "Season": "1981",
        "Winner": "CSKA Sofia",
        "Result": "1AC/EUR\"0",
        "Runner-up": "Slavia Sofia",
        "Date": "6 June 1981",
        "Venue": "Vasil Levski National Stadium, Sofia",
        "Attendance": "25,000"
    },
    {
        "Season": "1982",
        "Winner": "Levski Sofia",
        "Result": "4AC/EUR\"0",
        "Runner-up": "CSKA Sofia",
        "Date": "16 June 1982",
        "Venue": "Vasil Levski National Stadium, Sofia",
        "Attendance": "30,000"
    }
]