[
    {
        "County": "San Francisco",
        "Garamendi": "74.15%",
        "Votes": "175,882",
        "McClintock": "17.65%",
        "Votes 4": "41,871",
        "Warren": "5.32%",
        "Votes 6": "12,629",
        "Others": "2.87%",
        "Votes 8": "6,828"
    },
    {
        "County": "Alameda",
        "Garamendi": "68.48%",
        "Votes": "270,885",
        "McClintock": "25.46%",
        "Votes 4": "100,689",
        "Warren": "4.49%",
        "Votes 6": "17,777",
        "Others": "2.72%",
        "Votes 8": "10,741"
    },
    {
        "County": "Marin",
        "Garamendi": "64.85%",
        "Votes": "67,170",
        "McClintock": "28.94%",
        "Votes 4": "29,978",
        "Warren": "3.98%",
        "Votes 6": "4,126",
        "Others": "3.05%",
        "Votes 8": "3,159"
    },
    {
        "County": "Santa Cruz",
        "Garamendi": "63.30%",
        "Votes": "55,352",
        "McClintock": "28.59%",
        "Votes 4": "25,001",
        "Warren": "5.64%",
        "Votes 6": "4,935",
        "Others": "3.56%",
        "Votes 8": "3,117"
    },
    {
        "County": "San Mateo",
        "Garamendi": "62.67%",
        "Votes": "125,199",
        "McClintock": "32.50%",
        "Votes 4": "64,934",
        "Warren": "3.52%",
        "Votes 6": "7,033",
        "Others": "2.24%",
        "Votes 8": "4,482"
    },
    {
        "County": "Sonoma",
        "Garamendi": "60.70%",
        "Votes": "103,019",
        "McClintock": "32.59%",
        "Votes 4": "55,320",
        "Warren": "4.60%",
        "Votes 6": "7,808",
        "Others": "3.51%",
        "Votes 8": "5,962"
    },
    {
        "County": "Los Angeles",
        "Garamendi": "58.82%",
        "Votes": "1,116,151",
        "McClintock": "37.03%",
        "Votes 4": "702,553",
        "Warren": "2.50%",
        "Votes 6": "47,463",
        "Others": "3.19%",
        "Votes 8": "60,531"
    },
    {
        "County": "Santa Clara",
        "Garamendi": "57.61%",
        "Votes": "238,352",
        "McClintock": "37.56%",
        "Votes 4": "155,389",
        "Warren": "2.91%",
        "Votes 6": "12,050",
        "Others": "3.27%",
        "Votes 8": "13,509"
    },
    {
        "County": "Contra Costa",
        "Garamendi": "56.90%",
        "Votes": "167,965",
        "McClintock": "38.81%",
        "Votes 4": "114,567",
        "Warren": "2.84%",
        "Votes 6": "8,387",
        "Others": "2.62%",
        "Votes 8": "7,751"
    },
    {
        "County": "Yolo",
        "Garamendi": "54.05%",
        "Votes": "28,845",
        "McClintock": "40.83%",
        "Votes 4": "21,793",
        "Warren": "3.72%",
        "Votes 6": "1,983",
        "Others": "1.94%",
        "Votes 8": "1,035"
    },
    {
        "County": "Mendocino",
        "Garamendi": "54.09%",
        "Votes": "16,179",
        "McClintock": "35.58%",
        "Votes 4": "10,641",
        "Warren": "7.11%",
        "Votes 6": "2,128",
        "Others": "4.76%",
        "Votes 8": "1,422"
    },
    {
        "County": "Monterey",
        "Garamendi": "53.67%",
        "Votes": "45,809",
        "McClintock": "41.29%",
        "Votes 4": "35,239",
        "Warren": "3.21%",
        "Votes 6": "2,742",
        "Others": "3.34%",
        "Votes 8": "2,852"
    },
    {
        "County": "Solano",
        "Garamendi": "53.22%",
        "Votes": "54,105",
        "McClintock": "42.87%",
        "Votes 4": "43,590",
        "Warren": "2.45%",
        "Votes 6": "2,493",
        "Others": "2.61%",
        "Votes 8": "2,653"
    },
    {
        "County": "Napa",
        "Garamendi": "52.81%",
        "Votes": "21,858",
        "McClintock": "41.89%",
        "Votes 4": "17,337",
        "Warren": "3.62%",
        "Votes 6": "1,500",
        "Others": "2.88%",
        "Votes 8": "1,195"
    },
    {
        "County": "Humboldt",
        "Garamendi": "50.21%",
        "Votes": "23,595",
        "McClintock": "39.56%",
        "Votes 4": "18,592",
        "Warren": "7.31%",
        "Votes 6": "3,435",
        "Others": "4.27%",
        "Votes 8": "2,005"
    },
    {
        "County": "Alpine",
        "Garamendi": "48.95%",
        "Votes": "257",
        "McClintock": "42.67%",
        "Votes 4": "224",
        "Warren": "4.76%",
        "Votes 6": "25",
        "Others": "3.81%",
        "Votes 8": "20"
    },
    {
        "County": "Imperial",
        "Garamendi": "49.16%",
        "Votes": "10,334",
        "McClintock": "44.58%",
        "Votes 4": "9,372",
        "Warren": "4.10%",
        "Votes 6": "862",
        "Others": "5.47%",
        "Votes 8": "1,151"
    },
    {
        "County": "San Benito",
        "Garamendi": "48.32%",
        "Votes": "6,745",
        "McClintock": "47.31%",
        "Votes 4": "6,604",
        "Warren": "2.62%",
        "Votes 6": "366",
        "Others": "3.51%",
        "Votes 8": "489"
    },
    {
        "County": "San Joaquin",
        "Garamendi": "47.97%",
        "Votes": "65,145",
        "McClintock": "48.43%",
        "Votes 4": "65,762",
        "Warren": "2.01%",
        "Votes 6": "2,731",
        "Others": "2.84%",
        "Votes 8": "3,857"
    },
    {
        "County": "Lake",
        "Garamendi": "47.51%",
        "Votes": "9,018",
        "McClintock": "45.55%",
        "Votes 4": "8,647",
        "Warren": "4.27%",
        "Votes 6": "811",
        "Others": "4.58%",
        "Votes 8": "867"
    },
    {
        "County": "Sacramento",
        "Garamendi": "47.19%",
        "Votes": "165,252",
        "McClintock": "48.34%",
        "Votes 4": "169,300",
        "Warren": "2.89%",
        "Votes 6": "10,129",
        "Others": "2.89%",
        "Votes 8": "10,124"
    },
    {
        "County": "Santa Barbara",
        "Garamendi": "44.69%",
        "Votes": "53,443",
        "McClintock": "50.41%",
        "Votes 4": "60,275",
        "Warren": "3.03%",
        "Votes 6": "3,625",
        "Others": "2.92%",
        "Votes 8": "3,489"
    },
    {
        "County": "Mono",
        "Garamendi": "44.58%",
        "Votes": "1,636",
        "McClintock": "49.65%",
        "Votes 4": "1,822",
        "Warren": "3.16%",
        "Votes 6": "116",
        "Others": "3.96%",
        "Votes 8": "145"
    },
    {
        "County": "Merced",
        "Garamendi": "44.50%",
        "Votes": "18,089",
        "McClintock": "51.61%",
        "Votes 4": "20,977",
        "Warren": "2.01%",
        "Votes 6": "817",
        "Others": "3.83%",
        "Votes 8": "1,559"
    },
    {
        "County": "Stanislaus",
        "Garamendi": "43.19%",
        "Votes": "44,106",
        "McClintock": "53.75%",
        "Votes 4": "54,885",
        "Warren": "1.84%",
        "Votes 6": "1,878",
        "Others": "2.29%",
        "Votes 8": "2,330"
    },
    {
        "County": "Del Norte",
        "Garamendi": "42.58%",
        "Votes": "2,761",
        "McClintock": "51.62%",
        "Votes 4": "3,347",
        "Warren": "3.01%",
        "Votes 6": "195",
        "Others": "4.85%",
        "Votes 8": "315"
    },
    {
        "County": "Calaveras",
        "Garamendi": "42.21%",
        "Votes": "7,513",
        "McClintock": "53.67%",
        "Votes 4": "9,553",
        "Warren": "2.38%",
        "Votes 6": "424",
        "Others": "2.82%",
        "Votes 8": "502"
    },
    {
        "County": "San Diego",
        "Garamendi": "41.60%",
        "Votes": "311,988",
        "McClintock": "54.10%",
        "Votes 4": "405,673",
        "Warren": "2.58%",
        "Votes 6": "19,369",
        "Others": "2.94%",
        "Votes 8": "22,008"
    },
    {
        "County": "Ventura",
        "Garamendi": "41.32%",
        "Votes": "89,988",
        "McClintock": "55.14%",
        "Votes 4": "120,089",
        "Warren": "2.03%",
        "Votes 6": "4,429",
        "Others": "2.48%",
        "Votes 8": "5,397"
    },
    {
        "County": "San Bernardino",
        "Garamendi": "41.45%",
        "Votes": "138,032",
        "McClintock": "54.29%",
        "Votes 4": "180,824",
        "Warren": "2.37%",
        "Votes 6": "7,909",
        "Others": "3.64%",
        "Votes 8": "12,126"
    },
    {
        "County": "Tuolumne",
        "Garamendi": "40.65%",
        "Votes": "8,491",
        "McClintock": "55.14%",
        "Votes 4": "11,517",
        "Warren": "2.56%",
        "Votes 6": "534",
        "Others": "2.66%",
        "Votes 8": "555"
    },
    {
        "County": "San Luis Obispo",
        "Garamendi": "39.68%",
        "Votes": "37,591",
        "McClintock": "55.46%",
        "Votes 4": "52,536",
        "Warren": "3.13%",
        "Votes 6": "2,964",
        "Others": "2.69%",
        "Votes 8": "2,545"
    },
    {
        "County": "Nevada",
        "Garamendi": "39.07%",
        "Votes": "16,613",
        "McClintock": "54.73%",
        "Votes 4": "23,275",
        "Warren": "4.11%",
        "Votes 6": "1,749",
        "Others": "2.60%",
        "Votes 8": "1,105"
    },
    {
        "County": "Fresno",
        "Garamendi": "39.14%",
        "Votes": "67,506",
        "McClintock": "57.15%",
        "Votes 4": "98,580",
        "Warren": "2.20%",
        "Votes 6": "3,792",
        "Others": "2.84%",
        "Votes 8": "4,882"
    },
    {
        "County": "Trinity",
        "Garamendi": "38.74%",
        "Votes": "2,199",
        "McClintock": "51.92%",
        "Votes 4": "2,947",
        "Warren": "5.39%",
        "Votes 6": "306",
        "Others": "5.06%",
        "Votes 8": "287"
    },
    {
        "County": "Amador",
        "Garamendi": "38.72%",
        "Votes": "5,697",
        "McClintock": "57.41%",
        "Votes 4": "8,448",
        "Warren": "2.26%",
        "Votes 6": "333",
        "Others": "2.78%",
        "Votes 8": "409"
    },
    {
        "County": "Riverside",
        "Garamendi": "38.72%",
        "Votes": "144,014",
        "McClintock": "57.42%",
        "Votes 4": "213,564",
        "Warren": "2.07%",
        "Votes 6": "7,712",
        "Others": "3.52%",
        "Votes 8": "13,119"
    },
    {
        "County": "Butte",
        "Garamendi": "37.53%",
        "Votes": "25,282",
        "McClintock": "56.07%",
        "Votes 4": "37,774",
        "Warren": "4.15%",
        "Votes 6": "2,797",
        "Others": "3.70%",
        "Votes 8": "2,497"
    },
    {
        "County": "Mariposa",
        "Garamendi": "36.81%",
        "Votes": "2,749",
        "McClintock": "57.97%",
        "Votes 4": "4,330",
        "Warren": "3.07%",
        "Votes 6": "229",
        "Others": "3.54%",
        "Votes 8": "264"
    },
    {
        "County": "Kings",
        "Garamendi": "35.59%",
        "Votes": "7,925",
        "McClintock": "61.11%",
        "Votes 4": "13,608",
        "Warren": "1.90%",
        "Votes 6": "422",
        "Others": "3.04%",
        "Votes 8": "678"
    },
    {
        "County": "Siskiyou",
        "Garamendi": "35.12%",
        "Votes": "5,700",
        "McClintock": "59.16%",
        "Votes 4": "9,602",
        "Warren": "3.04%",
        "Votes 6": "493",
        "Others": "4.32%",
        "Votes 8": "700"
    },
    {
        "County": "Plumas",
        "Garamendi": "35.01%",
        "Votes": "3,047",
        "McClintock": "60.00%",
        "Votes 4": "5,221",
        "Warren": "2.86%",
        "Votes 6": "249",
        "Others": "3.51%",
        "Votes 8": "305"
    },
    {
        "County": "Orange",
        "Garamendi": "34.41%",
        "Votes": "244,176",
        "McClintock": "61.94%",
        "Votes 4": "439,549",
        "Warren": "2.10%",
        "Votes 6": "14,911",
        "Others": "2.69%",
        "Votes 8": "19,038"
    },
    {
        "County": "Inyo",
        "Garamendi": "34.55%",
        "Votes": "2,165",
        "McClintock": "59.14%",
        "Votes 4": "3,706",
        "Warren": "3.42%",
        "Votes 6": "214",
        "Others": "4.90%",
        "Votes 8": "307"
    },
    {
        "County": "El Dorado",
        "Garamendi": "33.96%",
        "Votes": "22,634",
        "McClintock": "61.48%",
        "Votes 4": "40,982",
        "Warren": "2.77%",
        "Votes 6": "1,845",
        "Others": "2.71%",
        "Votes 8": "1,808"
    },
    {
        "County": "Placer",
        "Garamendi": "33.58%",
        "Votes": "40,770",
        "McClintock": "62.67%",
        "Votes 4": "76,098",
        "Warren": "2.27%",
        "Votes 6": "2,759",
        "Others": "2.31%",
        "Votes 8": "2,795"
    },
    {
        "County": "Madera",
        "Garamendi": "33.67%",
        "Votes": "9,988",
        "McClintock": "62.92%",
        "Votes 4": "18,665",
        "Warren": "1.85%",
        "Votes 6": "550",
        "Others": "2.83%",
        "Votes 8": "839"
    },
    {
        "County": "Tulare",
        "Garamendi": "32.83%",
        "Votes": "22,240",
        "McClintock": "64.29%",
        "Votes 4": "43,553",
        "Warren": "1.66%",
        "Votes 6": "1,122",
        "Others": "2.55%",
        "Votes 8": "1,722"
    },
    {
        "County": "Yuba",
        "Garamendi": "31.70%",
        "Votes": "4,283",
        "McClintock": "62.69%",
        "Votes 4": "8,470",
        "Warren": "3.42%",
        "Votes 6": "462",
        "Others": "3.96%",
        "Votes 8": "534"
    },
    {
        "County": "Lassen",
        "Garamendi": "30.97%",
        "Votes": "2,613",
        "McClintock": "63.71%",
        "Votes 4": "5,376",
        "Warren": "2.89%",
        "Votes 6": "244",
        "Others": "3.65%",
        "Votes 8": "308"
    },
    {
        "County": "Sutter",
        "Garamendi": "30.81%",
        "Votes": "7,166",
        "McClintock": "65.99%",
        "Votes 4": "15,347",
        "Warren": "1.80%",
        "Votes 6": "419",
        "Others": "2.80%",
        "Votes 8": "653"
    },
    {
        "County": "Colusa",
        "Garamendi": "30.42%",
        "Votes": "1,470",
        "McClintock": "66.73%",
        "Votes 4": "3,225",
        "Warren": "1.82%",
        "Votes 6": "88",
        "Others": "2.44%",
        "Votes 8": "118"
    },
    {
        "County": "Kern",
        "Garamendi": "30.36%",
        "Votes": "44,516",
        "McClintock": "66.17%",
        "Votes 4": "97,035",
        "Warren": "1.96%",
        "Votes 6": "2,869",
        "Others": "2.94%",
        "Votes 8": "4,319"
    },
    {
        "County": "Tehama",
        "Garamendi": "30.55%",
        "Votes": "5,345",
        "McClintock": "65.47%",
        "Votes 4": "11,454",
        "Warren": "1.85%",
        "Votes 6": "324",
        "Others": "4.15%",
        "Votes 8": "726"
    },
    {
        "County": "Shasta",
        "Garamendi": "30.08%",
        "Votes": "17,231",
        "McClintock": "65.76%",
        "Votes 4": "37,668",
        "Warren": "2.18%",
        "Votes 6": "1,249",
        "Others": "3.52%",
        "Votes 8": "2,016"
    },
    {
        "County": "Sierra",
        "Garamendi": "29.60%",
        "Votes": "462",
        "McClintock": "63.61%",
        "Votes 4": "993",
        "Warren": "4.16%",
        "Votes 6": "65",
        "Others": "4.16%",
        "Votes 8": "65"
    },
    {
        "County": "Glenn",
        "Garamendi": "28.00%",
        "Votes": "2,052",
        "McClintock": "68.27%",
        "Votes 4": "5,003",
        "Warren": "1.87%",
        "Votes 6": "137",
        "Others": "3.36%",
        "Votes 8": "246"
    },
    {
        "County": "Modoc",
        "Garamendi": "26.87%",
        "Votes": "986",
        "McClintock": "67.68%",
        "Votes 4": "2,484",
        "Warren": "2.56%",
        "Votes 6": "94",
        "Others": "4.22%",
        "Votes 8": "155"
    }
]