[
    {
        "Builder": "EMD",
        "Model": "F40PH-2",
        "Locomotive Numbers": "902, 903, 907, 910, 914",
        "Years of Service": "1985AC/EUR\"present",
        "Notes": "Ordered new by Caltrans; Overhauled by Alstom in 1999; HEP generators retained original gear drive from main engine.",
        "Image": ""
    },
    {
        "Builder": "EMD",
        "Model": "F40PH-2CAT",
        "Locomotive Numbers": "900, 901, 904AC/EUR\"906, 908, 909, 911AC/EUR\"913, 915AC/EUR\"919",
        "Years of Service": "1985AC/EUR\"present",
        "Notes": "Originally F40PH-2s; ordered new by Caltrans; overhauled by Alstom in 1999 and HEP generators were converted to separate Caterpillar 6-cylinder engines. Units 918 and 919 entered service in 1987.",
        "Image": ""
    },
    {
        "Builder": "MPI",
        "Model": "F40PH-2C",
        "Locomotive Numbers": "920AC/EUR\"922",
        "Years of Service": "1998AC/EUR\"present",
        "Notes": "Cummins-powered HEP generators. No. 920 is the Operation Lifesaver unit.",
        "Image": ""
    },
    {
        "Builder": "MPI",
        "Model": "MP36PH-3C",
        "Locomotive Numbers": "923AC/EUR\"928",
        "Years of Service": "2003AC/EUR\"present",
        "Notes": "Primarily used for \\Baby Bullet\" service.\"",
        "Image": ""
    },
    {
        "Builder": "EMD",
        "Model": "GP9",
        "Locomotive Numbers": "500, 501",
        "Years of Service": "2000AC/EUR\"2013",
        "Notes": "Work train\\/yard switcher service. Sold to Motive Power Resources late 2012, left Caltrain on March 8, 2013.",
        "Image": ""
    },
    {
        "Builder": "EMD",
        "Model": "MP15DC",
        "Locomotive Numbers": "503, 504",
        "Years of Service": "2003AC/EUR\"present",
        "Notes": "Work train\\/yard switcher service.",
        "Image": ""
    }
]