[
    {
        "1600 Vyssotsky": "1685 Toro",
        "October 22, 1947": "July 17, 1948"
    },
    {
        "1600 Vyssotsky": "1747 Wright",
        "October 22, 1947": "July 14, 1947"
    },
    {
        "1600 Vyssotsky": "1863 Antinous",
        "October 22, 1947": "March 7, 1948"
    },
    {
        "1600 Vyssotsky": "1951 Lick",
        "October 22, 1947": "July 26, 1949"
    },
    {
        "1600 Vyssotsky": "2044 Wirt",
        "October 22, 1947": "November 8, 1950"
    },
    {
        "1600 Vyssotsky": "6107 Osterbrock",
        "October 22, 1947": "January 14, 1948"
    },
    {
        "1600 Vyssotsky": "(29075) 1950 DA",
        "October 22, 1947": "February 22, 1950"
    }
]