[
    {
        "Guinevere Planitia": "Guinevere Planitia",
        "Sedna Planitia": "Sedna Planitia",
        "Niobe Planitia": "Niobe Planitia"
    },
    {
        "Guinevere Planitia": "Helen Planitia",
        "Sedna Planitia": "Lavinia Planitia",
        "Niobe Planitia": "Aphrodite Terra"
    },
    {
        "Guinevere Planitia": "Lada Terra",
        "Sedna Planitia": "",
        "Niobe Planitia": ""
    }
]