[
    {
        "Rank": "Rank",
        "Men[5]": "Men[5]",
        "Women[6]": "Women[6]",
        "NO-HEADER3": "",
        "NO-HEADER4": "",
        "NO-HEADER5": "",
        "NO-HEADER6": ""
    },
    {
        "Rank": "Rank",
        "Men[5]": "Province",
        "Women[6]": "Skip",
        "NO-HEADER3": "Points",
        "NO-HEADER4": "Province",
        "NO-HEADER5": "Skip",
        "NO-HEADER6": "Points"
    },
    {
        "Rank": "1",
        "Men[5]": "Ontario",
        "Women[6]": "Glenn Howard",
        "NO-HEADER3": "312.15",
        "NO-HEADER4": "Alberta",
        "NO-HEADER5": "Shannon Kleibrink",
        "NO-HEADER6": "239.75"
    },
    {
        "Rank": "2",
        "Men[5]": "Alberta",
        "Women[6]": "Kevin Martin",
        "NO-HEADER3": "307.25",
        "NO-HEADER4": "Manitoba",
        "NO-HEADER5": "Jennifer Jones",
        "NO-HEADER6": "203.40"
    },
    {
        "Rank": "3",
        "Men[5]": "Alberta",
        "Women[6]": "Randy Ferbey",
        "NO-HEADER3": "207.80",
        "NO-HEADER4": "Quebec",
        "NO-HEADER5": "Marie-France Larouche",
        "NO-HEADER6": "183.30"
    },
    {
        "Rank": "4",
        "Men[5]": "Newfoundland and Labrador",
        "Women[6]": "Brad Gushue",
        "NO-HEADER3": "205.15",
        "NO-HEADER4": "Alberta",
        "NO-HEADER5": "Cheryl Bernard",
        "NO-HEADER6": "181.00"
    },
    {
        "Rank": "5",
        "Men[5]": "Ontario",
        "Women[6]": "Wayne Middaugh",
        "NO-HEADER3": "195.15",
        "NO-HEADER4": "Saskatchewan",
        "NO-HEADER5": "Stefanie Lawton",
        "NO-HEADER6": "150.00"
    },
    {
        "Rank": "6",
        "Men[5]": "Manitoba",
        "Women[6]": "Jeff Stoughton",
        "NO-HEADER3": "193.70",
        "NO-HEADER4": "British Columbia",
        "NO-HEADER5": "Kelly Scott",
        "NO-HEADER6": "114.45"
    },
    {
        "Rank": "7",
        "Men[5]": "Manitoba",
        "Women[6]": "Mike McEwen",
        "NO-HEADER3": "178.95",
        "NO-HEADER4": "Ontario",
        "NO-HEADER5": "Sherry Middaugh",
        "NO-HEADER6": "112.25"
    },
    {
        "Rank": "8",
        "Men[5]": "Manitoba",
        "Women[6]": "Kerry Burtnyk",
        "NO-HEADER3": "167.00",
        "NO-HEADER4": "Saskatchewan",
        "NO-HEADER5": "Michelle Englot",
        "NO-HEADER6": "100.25"
    },
    {
        "Rank": "9",
        "Men[5]": "Alberta",
        "Women[6]": "Kevin Koe",
        "NO-HEADER3": "165.25",
        "NO-HEADER4": "Alberta",
        "NO-HEADER5": "Heather Rankin",
        "NO-HEADER6": "92.80"
    },
    {
        "Rank": "10",
        "Men[5]": "Saskatchewan",
        "Women[6]": "Joel Jordison",
        "NO-HEADER3": "105.60",
        "NO-HEADER4": "Ontario",
        "NO-HEADER5": "Rachel Homan",
        "NO-HEADER6": "89.90"
    },
    {
        "Rank": "11",
        "Men[5]": "Quebec",
        "Women[6]": "Jean-Michel Menard",
        "NO-HEADER3": "99.50",
        "NO-HEADER4": "Alberta",
        "NO-HEADER5": "Crystal Webster",
        "NO-HEADER6": "83.45"
    },
    {
        "Rank": "12",
        "Men[5]": "Alberta",
        "Women[6]": "Ted Appelman",
        "NO-HEADER3": "98.15",
        "NO-HEADER4": "British Columbia",
        "NO-HEADER5": "Marla Mallett",
        "NO-HEADER6": "81.60"
    },
    {
        "Rank": "13",
        "Men[5]": "British Columbia",
        "Women[6]": "Sean Geall",
        "NO-HEADER3": "89.15",
        "NO-HEADER4": "Alberta",
        "NO-HEADER5": "Cathy King",
        "NO-HEADER6": "81.35"
    },
    {
        "Rank": "14",
        "Men[5]": "Alberta",
        "Women[6]": "Chris Schille",
        "NO-HEADER3": "79.05",
        "NO-HEADER4": "Ontario",
        "NO-HEADER5": "Krista McCarville",
        "NO-HEADER6": "81.10"
    },
    {
        "Rank": "15",
        "Men[5]": "Ontario",
        "Women[6]": "Dale Matchett",
        "NO-HEADER3": "78.85",
        "NO-HEADER4": "Manitoba",
        "NO-HEADER5": "Barb Spencer",
        "NO-HEADER6": "75.15"
    },
    {
        "Rank": "16",
        "Men[5]": "British Columbia",
        "Women[6]": "Bob Ursel",
        "NO-HEADER3": "77.30",
        "NO-HEADER4": "Saskatchewan",
        "NO-HEADER5": "Amber Holland",
        "NO-HEADER6": "67.95"
    },
    {
        "Rank": "17",
        "Men[5]": "Ontario",
        "Women[6]": "Brad Jacobs",
        "NO-HEADER3": "70.00",
        "NO-HEADER4": "Quebec",
        "NO-HEADER5": "Eve Belisle",
        "NO-HEADER6": "60.40"
    },
    {
        "Rank": "18",
        "Men[5]": "Saskatchewan",
        "Women[6]": "Brad Heidt",
        "NO-HEADER3": "64.05",
        "NO-HEADER4": "Nova Scotia",
        "NO-HEADER5": "Mary-Anne Arsenault",
        "NO-HEADER6": "54.70"
    },
    {
        "Rank": "19",
        "Men[5]": "Saskatchewan",
        "Women[6]": "Pat Simmons",
        "NO-HEADER3": "61.75",
        "NO-HEADER4": "British Columbia",
        "NO-HEADER5": "Allison MacInnes",
        "NO-HEADER6": "49.40"
    },
    {
        "Rank": "20",
        "Men[5]": "Manitoba",
        "Women[6]": "Reid Carruthers",
        "NO-HEADER3": "58.60",
        "NO-HEADER4": "Alberta",
        "NO-HEADER5": "Renee Sonnenberg",
        "NO-HEADER6": "45.35"
    },
    {
        "Rank": "21",
        "Men[5]": "Alberta",
        "Women[6]": "Steve Petryk",
        "NO-HEADER3": "54.60",
        "NO-HEADER4": "Newfoundland and Labrador",
        "NO-HEADER5": "Heather Strong",
        "NO-HEADER6": "44.40"
    },
    {
        "Rank": "22",
        "Men[5]": "New Brunswick",
        "Women[6]": "Russ Howard",
        "NO-HEADER3": "53.80",
        "NO-HEADER4": "Ontario",
        "NO-HEADER5": "Julie Reddick",
        "NO-HEADER6": "44.35"
    },
    {
        "Rank": "23",
        "Men[5]": "Quebec",
        "Women[6]": "Guy Hemmings",
        "NO-HEADER3": "51.05",
        "NO-HEADER4": "Saskatchewan",
        "NO-HEADER5": "Chantelle Eberle",
        "NO-HEADER6": "43.10"
    },
    {
        "Rank": "24",
        "Men[5]": "British Columbia",
        "Women[6]": "Greg McAulay",
        "NO-HEADER3": "45.60",
        "NO-HEADER4": "Saskatchewan",
        "NO-HEADER5": "Sherry Anderson",
        "NO-HEADER6": "42.60"
    },
    {
        "Rank": "25",
        "Men[5]": "Saskatchewan",
        "Women[6]": "Warren Hassall",
        "NO-HEADER3": "45.30",
        "NO-HEADER4": "Alberta",
        "NO-HEADER5": "Kristie Moore",
        "NO-HEADER6": "39.80"
    }
]