[
    {
        "Sheet F": "Waterloo Warriors (Walker)",
        "1": "3",
        "2": "0",
        "3": "0",
        "4": "2",
        "5": "0",
        "6": "1",
        "7": "0",
        "8": "0",
        "9": "0",
        "10": "2",
        "Final": "8"
    },
    {
        "Sheet F": "Brock Badgers (Brandon)",
        "1": "0",
        "2": "0",
        "3": "1",
        "4": "0",
        "5": "2",
        "6": "0",
        "7": "1",
        "8": "1",
        "9": "0",
        "10": "0",
        "Final": "5"
    }
]