[
    {
        "Year": "2014",
        "Winner": "I Do"
    },
    {
        "Year": "2013",
        "Winner": "Survived"
    },
    {
        "Year": "2012",
        "Winner": "Ocean Park"
    },
    {
        "Year": "2011",
        "Winner": "Mufhasa"
    },
    {
        "Year": "2010",
        "Winner": "Keep The Peace"
    },
    {
        "Year": "2009",
        "Winner": "Tavistock"
    },
    {
        "Year": "2008",
        "Winner": "Fritzy Boy"
    },
    {
        "Year": "2007",
        "Winner": "Seachange"
    },
    {
        "Year": "2006",
        "Winner": "Seachange"
    },
    {
        "Year": "2005",
        "Winner": "Xcellent"
    },
    {
        "Year": "2004",
        "Winner": "Starcraft"
    },
    {
        "Year": "2003",
        "Winner": "Miss Potential"
    },
    {
        "Year": "2002",
        "Winner": "Sunline"
    },
    {
        "Year": "2001",
        "Winner": "Fritz"
    },
    {
        "Year": "2000",
        "Winner": "Cent Home"
    }
]