[
    {
        "Club": "Club",
        "Season": "Season",
        "League": "League",
        "FA Cup": "FA Cup",
        "Total": "Total",
        "NO-HEADER5": "",
        "NO-HEADER6": "",
        "NO-HEADER7": ""
    },
    {
        "Club": "Club",
        "Season": "Season",
        "League": "Apps",
        "FA Cup": "Goals",
        "Total": "Apps",
        "NO-HEADER5": "Goals",
        "NO-HEADER6": "Apps",
        "NO-HEADER7": "Goals"
    },
    {
        "Club": "Stoke",
        "Season": "1913AC/EUR\"14",
        "League": "9",
        "FA Cup": "0",
        "Total": "0",
        "NO-HEADER5": "0",
        "NO-HEADER6": "9",
        "NO-HEADER7": "0"
    },
    {
        "Club": "Stoke",
        "Season": "1914AC/EUR\"15",
        "League": "22",
        "FA Cup": "1",
        "Total": "4",
        "NO-HEADER5": "1",
        "NO-HEADER6": "26",
        "NO-HEADER7": "2"
    },
    {
        "Club": "Stoke",
        "Season": "1919AC/EUR\"20",
        "League": "34",
        "FA Cup": "2",
        "Total": "1",
        "NO-HEADER5": "0",
        "NO-HEADER6": "35",
        "NO-HEADER7": "2"
    },
    {
        "Club": "Stoke",
        "Season": "1920AC/EUR\"21",
        "League": "9",
        "FA Cup": "1",
        "Total": "0",
        "NO-HEADER5": "0",
        "NO-HEADER6": "9",
        "NO-HEADER7": "1"
    },
    {
        "Club": "Stoke",
        "Season": "Total",
        "League": "74",
        "FA Cup": "4",
        "Total": "5",
        "NO-HEADER5": "1",
        "NO-HEADER6": "79",
        "NO-HEADER7": "5"
    },
    {
        "Club": "Sunderland",
        "Season": "1920AC/EUR\"21",
        "League": "31",
        "FA Cup": "3",
        "Total": "1",
        "NO-HEADER5": "0",
        "NO-HEADER6": "32",
        "NO-HEADER7": "3"
    },
    {
        "Club": "Sunderland",
        "Season": "1921AC/EUR\"22",
        "League": "39",
        "FA Cup": "4",
        "Total": "0",
        "NO-HEADER5": "0",
        "NO-HEADER6": "39",
        "NO-HEADER7": "4"
    },
    {
        "Club": "Sunderland",
        "Season": "1922AC/EUR\"23",
        "League": "39",
        "FA Cup": "1",
        "Total": "2",
        "NO-HEADER5": "0",
        "NO-HEADER6": "41",
        "NO-HEADER7": "1"
    },
    {
        "Club": "Sunderland",
        "Season": "1923AC/EUR\"24",
        "League": "22",
        "FA Cup": "0",
        "Total": "1",
        "NO-HEADER5": "0",
        "NO-HEADER6": "23",
        "NO-HEADER7": "0"
    },
    {
        "Club": "Sunderland",
        "Season": "1924AC/EUR\"25",
        "League": "40",
        "FA Cup": "3",
        "Total": "3",
        "NO-HEADER5": "0",
        "NO-HEADER6": "43",
        "NO-HEADER7": "3"
    },
    {
        "Club": "Sunderland",
        "Season": "1925AC/EUR\"26",
        "League": "30",
        "FA Cup": "1",
        "Total": "4",
        "NO-HEADER5": "0",
        "NO-HEADER6": "34",
        "NO-HEADER7": "1"
    },
    {
        "Club": "Sunderland",
        "Season": "1926AC/EUR\"27",
        "League": "22",
        "FA Cup": "0",
        "Total": "0",
        "NO-HEADER5": "0",
        "NO-HEADER6": "22",
        "NO-HEADER7": "0"
    },
    {
        "Club": "Sunderland",
        "Season": "1927AC/EUR\"28",
        "League": "13",
        "FA Cup": "0",
        "Total": "0",
        "NO-HEADER5": "0",
        "NO-HEADER6": "13",
        "NO-HEADER7": "0"
    },
    {
        "Club": "Sunderland",
        "Season": "1928AC/EUR\"29",
        "League": "9",
        "FA Cup": "0",
        "Total": "0",
        "NO-HEADER5": "0",
        "NO-HEADER6": "9",
        "NO-HEADER7": "0"
    },
    {
        "Club": "Sunderland",
        "Season": "Total",
        "League": "245",
        "FA Cup": "12",
        "Total": "11",
        "NO-HEADER5": "0",
        "NO-HEADER6": "256",
        "NO-HEADER7": "12"
    },
    {
        "Club": "Carlisle United",
        "Season": "1929AC/EUR\"30",
        "League": "9",
        "FA Cup": "1",
        "Total": "0",
        "NO-HEADER5": "0",
        "NO-HEADER6": "9",
        "NO-HEADER7": "1"
    },
    {
        "Club": "Carlisle United",
        "Season": "Total",
        "League": "9",
        "FA Cup": "1",
        "Total": "0",
        "NO-HEADER5": "0",
        "NO-HEADER6": "9",
        "NO-HEADER7": "1"
    },
    {
        "Club": "Career Total",
        "Season": "328",
        "League": "17",
        "FA Cup": "16",
        "Total": "1",
        "NO-HEADER5": "344",
        "NO-HEADER6": "18",
        "NO-HEADER7": ""
    }
]