[
    {
        "Preceded by: Manfred": "Preceded by: Manfred",
        "King of Sicily 1266AC/EUR\"1282": "King of Sicily 1266AC/EUR\"1282",
        "Succeeded by: Peter I": "Succeeded by: Peter I"
    },
    {
        "Preceded by: Manfred": "Preceded by: Manfred",
        "King of Sicily 1266AC/EUR\"1282": "King of Naples 1266AC/EUR\"1285",
        "Succeeded by: Peter I": "Charles II"
    },
    {
        "Preceded by: Manfred": "New creation",
        "King of Sicily 1266AC/EUR\"1282": "King of Albania 1272AC/EUR\"1285",
        "Succeeded by: Peter I": "Charles II"
    },
    {
        "Preceded by: Manfred": "William II",
        "King of Sicily 1266AC/EUR\"1282": "Prince of Achaea 1278AC/EUR\"1285",
        "Succeeded by: Peter I": "Charles II"
    },
    {
        "Preceded by: Manfred": "Ramon Berenguer IV",
        "King of Sicily 1266AC/EUR\"1282": "Count of Provence and Forcalquier 1246AC/EUR\"1285",
        "Succeeded by: Peter I": "Charles II"
    },
    {
        "Preceded by: Manfred": "John I (John Tristan), Count of Anjou",
        "King of Sicily 1266AC/EUR\"1282": "Count of Anjou and Maine 1247AC/EUR\"1285",
        "Succeeded by: Peter I": "Charles II"
    }
]