[
    {
        "S.No": "1.",
        "Stations": "Bangalore City railway station",
        "Arrival": "Terminus",
        "Departure": "14:30"
    },
    {
        "S.No": "2.",
        "Stations": "Bangalore Cantonment railway station",
        "Arrival": "14:40",
        "Departure": "14:42"
    },
    {
        "S.No": "3.",
        "Stations": "Krishnarajapuram",
        "Arrival": "14:51",
        "Departure": "14:53"
    },
    {
        "S.No": "4.",
        "Stations": "Bangarapet",
        "Arrival": "15:33",
        "Departure": "15:35"
    },
    {
        "S.No": "5.",
        "Stations": "Jolarpettai",
        "Arrival": "16:48",
        "Departure": "16:50"
    },
    {
        "S.No": "6.",
        "Stations": "Ambur",
        "Arrival": "17:18",
        "Departure": "17:20"
    },
    {
        "S.No": "7.",
        "Stations": "Katpadi",
        "Arrival": "18:03",
        "Departure": "18:05"
    },
    {
        "S.No": "8.",
        "Stations": "Arakkonam",
        "Arrival": "18:53",
        "Departure": "18:55"
    },
    {
        "S.No": "9.",
        "Stations": "Perambur",
        "Arrival": "19:43",
        "Departure": "19:45"
    },
    {
        "S.No": "10.",
        "Stations": "Chennai Central",
        "Arrival": "20:35",
        "Departure": "Terminus"
    }
]