[
    {
        "Club": "Club",
        "Season": "Season",
        "League": "League",
        "Federation Cup": "Federation Cup",
        "Other[10]": "Other[10]",
        "Continental": "Continental",
        "Total": "Total",
        "NO-HEADER7": "",
        "NO-HEADER8": "",
        "NO-HEADER9": "",
        "NO-HEADER10": "",
        "NO-HEADER11": "",
        "NO-HEADER12": ""
    },
    {
        "Club": "Club",
        "Season": "Season",
        "League": "Division",
        "Federation Cup": "Apps",
        "Other[10]": "Goals",
        "Continental": "Apps",
        "Total": "Goals",
        "NO-HEADER7": "Apps",
        "NO-HEADER8": "Goals",
        "NO-HEADER9": "Apps",
        "NO-HEADER10": "Goals",
        "NO-HEADER11": "Apps",
        "NO-HEADER12": "Goals"
    },
    {
        "Club": "Chirag United Kerala",
        "Season": "2009",
        "League": "I-League 2nd Division",
        "Federation Cup": "3",
        "Other[10]": "3",
        "Continental": "0",
        "Total": "0",
        "NO-HEADER7": "AC/EUR\"",
        "NO-HEADER8": "AC/EUR\"",
        "NO-HEADER9": "AC/EUR\"",
        "NO-HEADER10": "AC/EUR\"",
        "NO-HEADER11": "3",
        "NO-HEADER12": "3"
    },
    {
        "Club": "Chirag United Kerala",
        "Season": "2009AC/EUR\"10",
        "League": "I-League",
        "Federation Cup": "3",
        "Other[10]": "3",
        "Continental": "3",
        "Total": "0",
        "NO-HEADER7": "AC/EUR\"",
        "NO-HEADER8": "AC/EUR\"",
        "NO-HEADER9": "AC/EUR\"",
        "NO-HEADER10": "AC/EUR\"",
        "NO-HEADER11": "6",
        "NO-HEADER12": "3"
    },
    {
        "Club": "Chirag United Kerala",
        "Season": "2010AC/EUR\"11",
        "League": "I-League",
        "Federation Cup": "4",
        "Other[10]": "3",
        "Continental": "3",
        "Total": "2",
        "NO-HEADER7": "AC/EUR\"",
        "NO-HEADER8": "AC/EUR\"",
        "NO-HEADER9": "AC/EUR\"",
        "NO-HEADER10": "AC/EUR\"",
        "NO-HEADER11": "7",
        "NO-HEADER12": "5"
    },
    {
        "Club": "Pailan Arrows",
        "Season": "2011AC/EUR\"12",
        "League": "I-League",
        "Federation Cup": "16",
        "Other[10]": "9",
        "Continental": "3",
        "Total": "1",
        "NO-HEADER7": "0",
        "NO-HEADER8": "0",
        "NO-HEADER9": "AC/EUR\"",
        "NO-HEADER10": "AC/EUR\"",
        "NO-HEADER11": "19",
        "NO-HEADER12": "10"
    },
    {
        "Club": "Mohun Bagan",
        "Season": "2012AC/EUR\"13",
        "League": "I-League",
        "Federation Cup": "17",
        "Other[10]": "1",
        "Continental": "3",
        "Total": "1",
        "NO-HEADER7": "0",
        "NO-HEADER8": "0",
        "NO-HEADER9": "AC/EUR\"",
        "NO-HEADER10": "AC/EUR\"",
        "NO-HEADER11": "20",
        "NO-HEADER12": "2"
    },
    {
        "Club": "Mohun Bagan",
        "Season": "2013AC/EUR\"14",
        "League": "I-League",
        "Federation Cup": "21",
        "Other[10]": "4",
        "Continental": "2",
        "Total": "0",
        "NO-HEADER7": "4",
        "NO-HEADER8": "3",
        "NO-HEADER9": "AC/EUR\"",
        "NO-HEADER10": "AC/EUR\"",
        "NO-HEADER11": "27",
        "NO-HEADER12": "3"
    },
    {
        "Club": "Kerala Blasters (loan)",
        "Season": "2014",
        "League": "Indian Super League",
        "Federation Cup": "8",
        "Other[10]": "1",
        "Continental": "AC/EUR\"",
        "Total": "AC/EUR\"",
        "NO-HEADER7": "AC/EUR\"",
        "NO-HEADER8": "AC/EUR\"",
        "NO-HEADER9": "AC/EUR\"",
        "NO-HEADER10": "AC/EUR\"",
        "NO-HEADER11": "8",
        "NO-HEADER12": "1"
    },
    {
        "Club": "Mohun Bagan",
        "Season": "2014AC/EUR\"15",
        "League": "I-League",
        "Federation Cup": "3",
        "Other[10]": "0",
        "Continental": "4",
        "Total": "0",
        "NO-HEADER7": "3",
        "NO-HEADER8": "1",
        "NO-HEADER9": "AC/EUR\"",
        "NO-HEADER10": "AC/EUR\"",
        "NO-HEADER11": "10",
        "NO-HEADER12": "1"
    },
    {
        "Club": "East Bengal",
        "Season": "2015AC/EUR\"16",
        "League": "I-League",
        "Federation Cup": "0",
        "Other[10]": "0",
        "Continental": "0",
        "Total": "0",
        "NO-HEADER7": "0",
        "NO-HEADER8": "0",
        "NO-HEADER9": "AC/EUR\"",
        "NO-HEADER10": "AC/EUR\"",
        "NO-HEADER11": "0",
        "NO-HEADER12": "0"
    },
    {
        "Club": "FC Goa (loan)",
        "Season": "2015",
        "League": "Indian Super League",
        "Federation Cup": "8",
        "Other[10]": "0",
        "Continental": "AC/EUR\"",
        "Total": "AC/EUR\"",
        "NO-HEADER7": "AC/EUR\"",
        "NO-HEADER8": "AC/EUR\"",
        "NO-HEADER9": "AC/EUR\"",
        "NO-HEADER10": "AC/EUR\"",
        "NO-HEADER11": "8",
        "NO-HEADER12": "0"
    },
    {
        "Club": "Career total",
        "Season": "83",
        "League": "24",
        "Federation Cup": "18",
        "Other[10]": "4",
        "Continental": "7",
        "Total": "4",
        "NO-HEADER7": "AC/EUR\"",
        "NO-HEADER8": "AC/EUR\"",
        "NO-HEADER9": "108",
        "NO-HEADER10": "32",
        "NO-HEADER11": "",
        "NO-HEADER12": ""
    }
]