[
    {
        "National team": "Wales",
        "Year": "2007",
        "Apps": "3",
        "Goals": "0"
    },
    {
        "National team": "Wales",
        "Year": "2008",
        "Apps": "8",
        "Goals": "0"
    },
    {
        "National team": "Wales",
        "Year": "2009",
        "Apps": "9",
        "Goals": "0"
    },
    {
        "National team": "Wales",
        "Year": "2010",
        "Apps": "5",
        "Goals": "0"
    },
    {
        "National team": "Wales",
        "Year": "2011",
        "Apps": "10",
        "Goals": "0"
    },
    {
        "National team": "Wales",
        "Year": "2012",
        "Apps": "7",
        "Goals": "0"
    },
    {
        "National team": "Wales",
        "Year": "2013",
        "Apps": "9",
        "Goals": "0"
    },
    {
        "National team": "Wales",
        "Year": "2014",
        "Apps": "6",
        "Goals": "0"
    },
    {
        "National team": "Wales",
        "Year": "2015",
        "Apps": "7",
        "Goals": "0"
    },
    {
        "National team": "Total",
        "Year": "64",
        "Apps": "0",
        "Goals": ""
    }
]