[
    {
        "Athlete": "Duilio Beretta (PER) Juan Sebastian Gomez (COL)",
        "Event": "Boys' Doubles",
        "Round 1": "Acosta (ECU) Quiroz (ECU) L 0AC/EUR\"2 (0AC/EUR\"6, 6AC/EUR\"7)",
        "Quarterfinals": "Did not advance",
        "Semifinals": "",
        "Final": "",
        "Rank": ""
    }
]