[
    {
        "Name": "Aegisub",
        "License": "GPL (but code is ISC or BSD3c)",
        "Platform": "Cross platform",
        "Multilanguage": "Yes Available in English, Czech, German, Spanish, Finnish, French, Hungarian, Japanese, Catalan, Brazilian Portuguese, Traditional Chinese, Simplified Chinese, Russian and Serbian",
        "Audio waveform": "Yes",
        "Formats supported": "SSA\\/ASS, MicroDVD, .srt (Full support) AdobeEncore, EBU STL (Write Only) JacoSUB (Read Only)[1]",
        "Website": "www.aegisub.org",
        "Extra Information": "Limited support for RTL languages. It's mainly used for creating ASS subtitles. Uses libass, making the ASS effects appear correctly in the internal media player."
    },
    {
        "Name": "Belle Nuit Subtitler[2]",
        "License": "Commercial",
        "Platform": "OS X",
        "Multilanguage": "Yes",
        "Audio waveform": "?",
        "Formats supported": "35+",
        "Website": "www.belle-nuit.com",
        "Extra Information": ""
    },
    {
        "Name": "DivXLand Media Subtitler[3]",
        "License": "Freeware",
        "Platform": "Windows",
        "Multilanguage": "Yes",
        "Audio waveform": "Interactive",
        "Formats supported": "35",
        "Website": "www.divxland.org\\/en\\/media-subtitler\\/",
        "Extra Information": "Allows subtitle embedding in AVI"
    },
    {
        "Name": "EZTitles[4]",
        "License": "Commercial",
        "Platform": "Windows",
        "Multilanguage": "Yes",
        "Audio waveform": "Yes",
        "Formats supported": "54",
        "Website": "www.eztitles.com",
        "Extra Information": "Broadcast & authoring tool"
    },
    {
        "Name": "Kijio[5]",
        "License": "Freeware",
        "Platform": "Windows",
        "Multilanguage": "No",
        "Audio waveform": "sound peaks",
        "Formats supported": "20",
        "Website": "www.kijio.org",
        "Extra Information": "Control of subtitles via timeline"
    },
    {
        "Name": "Ninsight Ayato[6]",
        "License": "Commercial",
        "Platform": "Windows",
        "Multilanguage": "Yes",
        "Audio waveform": "Yes",
        "Formats supported": "18",
        "Website": "[1]",
        "Extra Information": "Broadcast & authoring tool"
    },
    {
        "Name": "Poliscript[7]",
        "License": "Commercial",
        "Platform": "Windows",
        "Multilanguage": "Yes",
        "Audio waveform": "Yes",
        "Formats supported": "most professional formats",
        "Website": "www.screensystems.tv",
        "Extra Information": "Broadcast & authoring tool, manual cue output, fully supported"
    },
    {
        "Name": "SubEdit-Player[8]",
        "License": "Freeware",
        "Platform": "Windows",
        "Multilanguage": "Yes",
        "Audio waveform": "No",
        "Formats supported": "?",
        "Website": "subedit.com.pl",
        "Extra Information": "Movie player with subtitle editing capabilities"
    },
    {
        "Name": "Subtitle Edit",
        "License": "GPL",
        "Platform": "Windows",
        "Multilanguage": "Yes",
        "Audio waveform": "Yes",
        "Formats supported": "50+",
        "Website": "nikse.dk\\/SubtitleEdit\\/",
        "Extra Information": "Requires .NET Framework"
    },
    {
        "Name": "Subtitle Editor[9]",
        "License": "GPLv3",
        "Platform": "Linux",
        "Multilanguage": "Yes",
        "Audio waveform": "Yes",
        "Formats supported": "?",
        "Website": "home.gna.org\\/subtitleeditor\\/",
        "Extra Information": ""
    },
    {
        "Name": "Subtitle Workshop[10]",
        "License": "GPLv3",
        "Platform": "Cross platform",
        "Multilanguage": "Yes",
        "Audio waveform": "No",
        "Formats supported": "65",
        "Website": "subworkshop.sourceforge.net",
        "Extra Information": ""
    },
    {
        "Name": "Wincaps Qu4ntum[11]",
        "License": "Commercial",
        "Platform": "Windows",
        "Multilanguage": "Yes",
        "Audio waveform": "Yes",
        "Formats supported": "most professional formats",
        "Website": "www.screensystems.tv",
        "Extra Information": "Broadcast & authoring tool, speech input, live and offline, fully supported"
    },
    {
        "Name": "fiveLoadSub",
        "License": "GPLv3",
        "Platform": "Cross platform",
        "Multilanguage": "Yes",
        "Audio waveform": "Yes",
        "Formats supported": "srt\\/fls input,fls,srt,sbv,xml for premiere\\/fcp7\\/fcpx output",
        "Website": "wilsonlmh.github.io\\/fiveLoadSub\\/",
        "Extra Information": "Pure HTML+JS, run directly on browser, from Macau,China"
    }
]