[
    {
        "Year": "2004",
        "Winners": "St. Catherine's",
        "Score": "1-11",
        "Runners-up": "Courcey Rovers",
        "Score 4": "1-8",
        "Venue": "",
        "NO-HEADER6": ""
    },
    {
        "Year": "2005",
        "Winners": "Ballinhassig",
        "Score": "1-16",
        "Runners-up": "Aghada",
        "Score 4": "1-11",
        "Venue": "Pairc Ui Rinn, Cork",
        "NO-HEADER6": ""
    },
    {
        "Year": "2006",
        "Winners": "Bishopstown",
        "Score": "0-20",
        "Runners-up": "Carrigtwohill",
        "Score 4": "1-11",
        "Venue": "Pairc Ui Chaoimh, Cork",
        "NO-HEADER6": ""
    },
    {
        "Year": "2007",
        "Winners": "Carrigtwohill",
        "Score": "3-14",
        "Runners-up": "Watergrasshill",
        "Score 4": "3-12",
        "Venue": "Pairc Ui Chaoimh, Cork",
        "NO-HEADER6": ""
    },
    {
        "Year": "2008",
        "Winners": "Blarney",
        "Score": "0-13",
        "Runners-up": "Courcey Rovers",
        "Score 4": "1-9",
        "Venue": "Pairc Ui Chaoimh, Cork",
        "NO-HEADER6": "[1]"
    },
    {
        "Year": "2009",
        "Winners": "Douglas",
        "Score": "0-20",
        "Runners-up": "Ballymartle",
        "Score 4": "0-16",
        "Venue": "Pairc Ui Chaoimh, Cork",
        "NO-HEADER6": "[2]"
    },
    {
        "Year": "2010",
        "Winners": "Ballymartle",
        "Score": "2-14",
        "Runners-up": "Tracton",
        "Score 4": "0-13",
        "Venue": "Pairc Ui Chaoimh, Cork",
        "NO-HEADER6": "[3]"
    },
    {
        "Year": "2011",
        "Winners": "Courcey Rovers",
        "Score": "0-15",
        "Runners-up": "Youghal",
        "Score 4": "1-9",
        "Venue": "Pairc Ui Rinn, Cork",
        "NO-HEADER6": "[4]"
    },
    {
        "Year": "2012",
        "Winners": "Ballinhassig",
        "Score": "1-19",
        "Runners-up": "Bandon",
        "Score 4": "1-12",
        "Venue": "Pairc Ui Chaoimh, Cork",
        "NO-HEADER6": ""
    },
    {
        "Year": "2013",
        "Winners": "Youghal",
        "Score": "0-11",
        "Runners-up": "Castlelyons",
        "Score 4": "0-10",
        "Venue": "Pairc Ui Rinn, Cork",
        "NO-HEADER6": "[5]"
    },
    {
        "Year": "2014",
        "Winners": "Ballyhea",
        "Score": "1-17",
        "Runners-up": "Newcestown",
        "Score 4": "0-16",
        "Venue": "Pairc Ui Chaoimh, Cork",
        "NO-HEADER6": "[6]"
    },
    {
        "Year": "2015",
        "Winners": "Newcestown",
        "Score": "1-23",
        "Runners-up": "Valley Rovers",
        "Score 4": "0-8",
        "Venue": "Pairc Ui Rinn, Cork",
        "NO-HEADER6": "[7]"
    }
]