[
    {
        "Name": "Henry I 1517AC/EUR\"1555",
        "Portrait": "",
        "Birth": "18 April 1503 Sanguesa third son of John II and Catherine",
        "Marriages": "Margaret of Angouleme 24 January 1527 Saint-Germain-en-Laye two children",
        "Death": "25 May 1555 Hagetmau aged 52"
    },
    {
        "Name": "Joan 1555AC/EUR\"1572 with Anthony",
        "Portrait": "",
        "Birth": "7 January 1528 Saint-Germain-en-Laye only daughter of Henry I and Margaret of Angouleme",
        "Marriages": "(1) William, Duke of Julich-Cleves-Berg 14 June 1541 Chateau de Chatellerault no issues (2) Anthony of Navarre 20 October 1548 Moulins en Bourbonnais, Allier five children",
        "Death": "9 June 1572 Paris aged 44"
    },
    {
        "Name": "Anthony 1555-1562 with Joan",
        "Portrait": "",
        "Birth": "22 April 1518 La Fere, Picardy second son of Charles, Duke of Vendome and Francoise of Alencon",
        "Marriages": "Joan 20 October 1548 Moulins en Bourbonnais, Allier five children",
        "Death": "17 November 1562 Les Andelys, Eure aged 44"
    }
]