[
    {
        "National team": "Scotland",
        "Year": "2011",
        "Apps": "5",
        "Goals": "1"
    },
    {
        "National team": "Scotland",
        "Year": "2012",
        "Apps": "2",
        "Goals": "0"
    },
    {
        "National team": "Total",
        "Year": "7",
        "Apps": "1",
        "Goals": ""
    }
]