[
    {
        "Date": "2006",
        "Title": "Crashcarburn EP"
    },
    {
        "Date": "2007",
        "Title": "This City Needs a Hero"
    },
    {
        "Date": "2010",
        "Title": "Long Live Tonight"
    },
    {
        "Date": "2012",
        "Title": "Gravity"
    },
    {
        "Date": "2013",
        "Title": "Kings of Summer Single"
    }
]