[
    {
        "Rank": "1",
        "Nation": "Soviet Union",
        "Gold": "2",
        "Silver": "0",
        "Bronze": "1",
        "Total": "3"
    },
    {
        "Rank": "2",
        "Nation": "West Germany",
        "Gold": "1",
        "Silver": "0",
        "Bronze": "1",
        "Total": "2"
    },
    {
        "Rank": "3",
        "Nation": "Denmark",
        "Gold": "1",
        "Silver": "0",
        "Bronze": "0",
        "Total": "1"
    },
    {
        "Rank": "3",
        "Nation": "France",
        "Gold": "1",
        "Silver": "0",
        "Bronze": "0",
        "Total": "1"
    },
    {
        "Rank": "3",
        "Nation": "Netherlands",
        "Gold": "1",
        "Silver": "0",
        "Bronze": "0",
        "Total": "1"
    },
    {
        "Rank": "3",
        "Nation": "Norway",
        "Gold": "1",
        "Silver": "0",
        "Bronze": "0",
        "Total": "1"
    },
    {
        "Rank": "7",
        "Nation": "Australia",
        "Gold": "0",
        "Silver": "3",
        "Bronze": "0",
        "Total": "3"
    },
    {
        "Rank": "8",
        "Nation": "East Germany",
        "Gold": "0",
        "Silver": "2",
        "Bronze": "1",
        "Total": "3"
    },
    {
        "Rank": "9",
        "Nation": "Poland",
        "Gold": "0",
        "Silver": "1",
        "Bronze": "1",
        "Total": "2"
    },
    {
        "Rank": "10",
        "Nation": "Switzerland",
        "Gold": "0",
        "Silver": "1",
        "Bronze": "0",
        "Total": "1"
    },
    {
        "Rank": "11",
        "Nation": "Great Britain",
        "Gold": "0",
        "Silver": "0",
        "Bronze": "1",
        "Total": "1"
    }
]