[
    {
        "Preceding station": "Bethel toward South Norwalk or Grand Central",
        "NO-HEADER1": "",
        "Metro-North Railroad": "Danbury Branch",
        "NO-HEADER3": "",
        "Following station": "Terminus"
    }
]