[
    {
        "Goal": "1",
        "Date": "16 May 2007",
        "Venue": "Estadio Ruben Marcos Peralta, Osorno, Chile",
        "Opponent": "Cuba",
        "Score": "2AC/EUR\"0",
        "Result": "2AC/EUR\"0",
        "Competition": "Friendly"
    }
]