[
    {
        "Award": "2nd Pakistan Media Awards",
        "Category\\/Recipient(s)": "Best Drama",
        "Result": "Won"
    },
    {
        "Award": "2nd Pakistan Media Awards",
        "Category\\/Recipient(s)": "Haissam Hussain for Best Drama Director",
        "Result": "Won"
    },
    {
        "Award": "2nd Pakistan Media Awards",
        "Category\\/Recipient(s)": "Sanam Baloch for Best Actress",
        "Result": "Won"
    },
    {
        "Award": "2nd Pakistan Media Awards",
        "Category\\/Recipient(s)": "Fawad Khan for Best TV Actor",
        "Result": "Won"
    },
    {
        "Award": "2nd Pakistan Media Awards",
        "Category\\/Recipient(s)": "Saba Qamar for Best Supporting Actress",
        "Result": "Won"
    },
    {
        "Award": "2nd Pakistan Media Awards",
        "Category\\/Recipient(s)": "Ahsan Khan for Best Supporting Actor",
        "Result": "Won"
    },
    {
        "Award": "10th Annual Lux Style Awards",
        "Category\\/Recipient(s)": "Best TV Serial (Satellite)",
        "Result": "Nominated"
    },
    {
        "Award": "10th Annual Lux Style Awards",
        "Category\\/Recipient(s)": "Fawad Khan for Best TV Actor (Satellite)",
        "Result": "Nominated"
    },
    {
        "Award": "10th Annual Lux Style Awards",
        "Category\\/Recipient(s)": "Sanam Baloch for Best TV Actress (Satellite)",
        "Result": "Nominated"
    },
    {
        "Award": "10th Annual Lux Style Awards",
        "Category\\/Recipient(s)": "Haissam Hussain for Best TV Director",
        "Result": "Won"
    },
    {
        "Award": "1st Hum Awards",
        "Category\\/Recipient(s)": "Razia Butt for Most Challenging Subject.",
        "Result": "Won"
    },
    {
        "Award": "1st Hum Awards",
        "Category\\/Recipient(s)": "Momina Duraid for Most Challenging Subject.",
        "Result": "Won"
    },
    {
        "Award": "1st Hum Awards",
        "Category\\/Recipient(s)": "Haissam Hussain for Most Challenging Subject.",
        "Result": "Won"
    },
    {
        "Award": "1st Hum Awards",
        "Category\\/Recipient(s)": "Samira Fazal for Most Challenging Subject.",
        "Result": "Won"
    }
]