[
    {
        "Year": "2000",
        "Title": "As You Like It",
        "Role": "Orlando",
        "Radio station": "BBC Radio 3, broadcast on 23 April 2000[34]"
    },
    {
        "Year": "2001",
        "Title": "The Trials and Tribulations of Armitage Shanks",
        "Role": "Armitage Shanks",
        "Radio station": "BBC Radio 4, Afternoon Play, broadcast on 31 January 2001"
    },
    {
        "Year": "2002",
        "Title": "Small Earthquake",
        "Role": "Mike",
        "Radio station": "BBC Radio 4, Friday Play, broadcast on 3 May 2002"
    },
    {
        "Year": "2002",
        "Title": "Wild Things!",
        "Role": "Robert",
        "Radio station": "BBC Radio 4, broadcast 19 AugustAC/EUR\"9 September 2002"
    },
    {
        "Year": "2004",
        "Title": "Shut Eye",
        "Role": "Billy Rucker",
        "Radio station": "BBC Radio 4, broadcast 9AC/EUR\"30 March 2004"
    },
    {
        "Year": "2005",
        "Title": "Hold Back the Night",
        "Role": "Billy Rucker",
        "Radio station": "BBC Radio 4, broadcast 22 NovemberAC/EUR\"13 December 2005"
    },
    {
        "Year": "2009",
        "Title": "Becket",
        "Role": "Becket",
        "Radio station": "BBC Radio 3, broadcast 4 October 2009[35]"
    },
    {
        "Year": "2013",
        "Title": "Kermode and Mayo's Film Review",
        "Role": "Himself",
        "Radio station": "BBC Radio 5 Live, broadcast 01 November 2013"
    }
]