[
    {
        "parent nuclide": "238U",
        "historic name (short) [citation needed]": "UI",
        "historic name (long)": "Uranium I",
        "atomic mass [RS 1]": "238.051",
        "decay mode [RS 2]": "a",
        "branch chance [RS 2]": "100 %",
        "half life [RS 2]": "9.654.468*109 a",
        "energy released, MeV [RS 2]": "4.26975",
        "daughter nuclide [RS 2]": "234Th",
        "Subtotal MeV": "4.2698"
    },
    {
        "parent nuclide": "234Th",
        "historic name (short) [citation needed]": "UX1",
        "historic name (long)": "Uranium X1",
        "atomic mass [RS 1]": "234.044",
        "decay mode [RS 2]": "AZA2AC/^'",
        "branch chance [RS 2]": "100 %",
        "half life [RS 2]": "-1.1824.10 d",
        "energy released, MeV [RS 2]": "0.273088",
        "daughter nuclide [RS 2]": "234mPa",
        "Subtotal MeV": "4.5428"
    },
    {
        "parent nuclide": "234mPa",
        "historic name (short) [citation needed]": "UX2",
        "historic name (long)": "Uranium X2, Brevium",
        "atomic mass [RS 1]": "234.043",
        "decay mode [RS 2]": "IT",
        "branch chance [RS 2]": "0.16 %",
        "half life [RS 2]": "-5.661.159 min",
        "energy released, MeV [RS 2]": "0.07392",
        "daughter nuclide [RS 2]": "234Pa",
        "Subtotal MeV": "4.6168"
    },
    {
        "parent nuclide": "234mPa",
        "historic name (short) [citation needed]": "UX2",
        "historic name (long)": "Uranium X2, Brevium",
        "atomic mass [RS 1]": "234.043",
        "decay mode [RS 2]": "AZA2AC/^'",
        "branch chance [RS 2]": "99.84 %",
        "half life [RS 2]": "-5.661.159 min",
        "energy released, MeV [RS 2]": "2.268205",
        "daughter nuclide [RS 2]": "234U",
        "Subtotal MeV": "6.8110"
    },
    {
        "parent nuclide": "234Pa",
        "historic name (short) [citation needed]": "UZ",
        "historic name (long)": "Uranium Z",
        "atomic mass [RS 1]": "234.043",
        "decay mode [RS 2]": "AZA2AC/^'",
        "branch chance [RS 2]": "100 %",
        "half life [RS 2]": "-3.126.70 h",
        "energy released, MeV [RS 2]": "2.194285",
        "daughter nuclide [RS 2]": "234U",
        "Subtotal MeV": "6.8110"
    },
    {
        "parent nuclide": "234U",
        "historic name (short) [citation needed]": "UII",
        "historic name (long)": "Uranium II",
        "atomic mass [RS 1]": "234.041",
        "decay mode [RS 2]": "a",
        "branch chance [RS 2]": "100 %",
        "half life [RS 2]": "5.392.455*105 a",
        "energy released, MeV [RS 2]": "4.8598",
        "daughter nuclide [RS 2]": "230Th",
        "Subtotal MeV": "11.6708"
    },
    {
        "parent nuclide": "230Th",
        "historic name (short) [citation needed]": "Io",
        "historic name (long)": "Ionium",
        "atomic mass [RS 1]": "230.033",
        "decay mode [RS 2]": "a",
        "branch chance [RS 2]": "100 %",
        "half life [RS 2]": "4.887.54*104 a",
        "energy released, MeV [RS 2]": "4.76975",
        "daughter nuclide [RS 2]": "226Ra",
        "Subtotal MeV": "16.4406"
    },
    {
        "parent nuclide": "226Ra",
        "historic name (short) [citation needed]": "Ra",
        "historic name (long)": "Radium",
        "atomic mass [RS 1]": "226.025",
        "decay mode [RS 2]": "a",
        "branch chance [RS 2]": "100 %",
        "half life [RS 2]": "3.201600 a",
        "energy released, MeV [RS 2]": "4.87062",
        "daughter nuclide [RS 2]": "222Rn",
        "Subtotal MeV": "21.3112"
    },
    {
        "parent nuclide": "222Rn",
        "historic name (short) [citation needed]": "Rn",
        "historic name (long)": "Radon, Radium Emanation",
        "atomic mass [RS 1]": "222.018",
        "decay mode [RS 2]": "a",
        "branch chance [RS 2]": "100 %",
        "half life [RS 2]": "-1.983.8235 d",
        "energy released, MeV [RS 2]": "5.59031",
        "daughter nuclide [RS 2]": "218Po",
        "Subtotal MeV": "26.9015"
    },
    {
        "parent nuclide": "218Po",
        "historic name (short) [citation needed]": "RaA",
        "historic name (long)": "Radium A",
        "atomic mass [RS 1]": "218.009",
        "decay mode [RS 2]": "AZA2AC/^'",
        "branch chance [RS 2]": "0.020 %",
        "half life [RS 2]": "-5.233.098 min",
        "energy released, MeV [RS 2]": "0.259913",
        "daughter nuclide [RS 2]": "218At",
        "Subtotal MeV": "27.1614"
    },
    {
        "parent nuclide": "218Po",
        "historic name (short) [citation needed]": "RaA",
        "historic name (long)": "Radium A",
        "atomic mass [RS 1]": "218.009",
        "decay mode [RS 2]": "a",
        "branch chance [RS 2]": "99.980 %",
        "half life [RS 2]": "-5.233.098 min",
        "energy released, MeV [RS 2]": "6.11468",
        "daughter nuclide [RS 2]": "214Pb",
        "Subtotal MeV": "33.0162"
    },
    {
        "parent nuclide": "218At",
        "historic name (short) [citation needed]": "",
        "historic name (long)": "",
        "atomic mass [RS 1]": "218.009",
        "decay mode [RS 2]": "AZA2AC/^'",
        "branch chance [RS 2]": "0.1 %",
        "half life [RS 2]": "-7.321.5 s",
        "energy released, MeV [RS 2]": "2.881314",
        "daughter nuclide [RS 2]": "218Rn",
        "Subtotal MeV": "30.0428"
    },
    {
        "parent nuclide": "218At",
        "historic name (short) [citation needed]": "",
        "historic name (long)": "",
        "atomic mass [RS 1]": "218.009",
        "decay mode [RS 2]": "a",
        "branch chance [RS 2]": "99.9 %",
        "half life [RS 2]": "-7.321.5 s",
        "energy released, MeV [RS 2]": "6.874",
        "daughter nuclide [RS 2]": "214Bi",
        "Subtotal MeV": "34.0354"
    },
    {
        "parent nuclide": "218Rn",
        "historic name (short) [citation needed]": "",
        "historic name (long)": "",
        "atomic mass [RS 1]": "218.006",
        "decay mode [RS 2]": "a",
        "branch chance [RS 2]": "100 %",
        "half life [RS 2]": "-8.9635 ms",
        "energy released, MeV [RS 2]": "7.26254",
        "daughter nuclide [RS 2]": "214Po",
        "Subtotal MeV": "37.3053"
    },
    {
        "parent nuclide": "214Pb",
        "historic name (short) [citation needed]": "RaB",
        "historic name (long)": "Radium B",
        "atomic mass [RS 1]": "214.000",
        "decay mode [RS 2]": "AZA2AC/^'",
        "branch chance [RS 2]": "100 %",
        "half life [RS 2]": "-4.2926.8 min",
        "energy released, MeV [RS 2]": "1.019237",
        "daughter nuclide [RS 2]": "214Bi",
        "Subtotal MeV": "34.0354"
    },
    {
        "parent nuclide": "214Bi",
        "historic name (short) [citation needed]": "RaC",
        "historic name (long)": "Radium C",
        "atomic mass [RS 1]": "213.999",
        "decay mode [RS 2]": "AZA2AC/^'",
        "branch chance [RS 2]": "99.979 %",
        "half life [RS 2]": "-4.4219.9 min",
        "energy released, MeV [RS 2]": "3.269857",
        "daughter nuclide [RS 2]": "214Po",
        "Subtotal MeV": "37.3053"
    },
    {
        "parent nuclide": "214Bi",
        "historic name (short) [citation needed]": "RaC",
        "historic name (long)": "Radium C",
        "atomic mass [RS 1]": "213.999",
        "decay mode [RS 2]": "a",
        "branch chance [RS 2]": "0.021 %",
        "half life [RS 2]": "-4.4219.9 min",
        "energy released, MeV [RS 2]": "5.62119",
        "daughter nuclide [RS 2]": "210Tl",
        "Subtotal MeV": "39.6566"
    },
    {
        "parent nuclide": "214Po",
        "historic name (short) [citation needed]": "RaC'",
        "historic name (long)": "Radium C'",
        "atomic mass [RS 1]": "213.995",
        "decay mode [RS 2]": "a",
        "branch chance [RS 2]": "100 %",
        "half life [RS 2]": "-11.28164.3 ms",
        "energy released, MeV [RS 2]": "7.83346",
        "daughter nuclide [RS 2]": "210Pb",
        "Subtotal MeV": "45.1388"
    },
    {
        "parent nuclide": "210Tl",
        "historic name (short) [citation needed]": "RaC\",Radium C\"\"",
        "historic name (long)": "209.990",
        "atomic mass [RS 1]": "AZA2AC/^'",
        "decay mode [RS 2]": "100 %",
        "branch chance [RS 2]": "-5.611.30 min",
        "half life [RS 2]": "5.48213",
        "energy released, MeV [RS 2]": "210Pb",
        "daughter nuclide [RS 2]": "45.1388",
        "Subtotal MeV": ""
    },
    {
        "parent nuclide": "210Pb",
        "historic name (short) [citation needed]": "RaD",
        "historic name (long)": "Radium D",
        "atomic mass [RS 1]": "209.984",
        "decay mode [RS 2]": "AZA2AC/^'",
        "branch chance [RS 2]": "100 %",
        "half life [RS 2]": "1.3522.20 a",
        "energy released, MeV [RS 2]": "0.063487",
        "daughter nuclide [RS 2]": "210Bi",
        "Subtotal MeV": "45.2022"
    },
    {
        "parent nuclide": "210Pb",
        "historic name (short) [citation needed]": "RaD",
        "historic name (long)": "Radium D",
        "atomic mass [RS 1]": "209.984",
        "decay mode [RS 2]": "a",
        "branch chance [RS 2]": "0.0000019%1.9A'A*10AC/^'6 %",
        "half life [RS 2]": "1.3522.20 a",
        "energy released, MeV [RS 2]": "3.7923",
        "daughter nuclide [RS 2]": "206Hg",
        "Subtotal MeV": "48.9311"
    },
    {
        "parent nuclide": "210Bi",
        "historic name (short) [citation needed]": "RaE",
        "historic name (long)": "Radium E",
        "atomic mass [RS 1]": "209.984",
        "decay mode [RS 2]": "AZA2AC/^'",
        "branch chance [RS 2]": "100 %",
        "half life [RS 2]": "-1.865.012 d",
        "energy released, MeV [RS 2]": "1.161234",
        "daughter nuclide [RS 2]": "210Po",
        "Subtotal MeV": "46.3635"
    },
    {
        "parent nuclide": "210Bi",
        "historic name (short) [citation needed]": "RaE",
        "historic name (long)": "Radium E",
        "atomic mass [RS 1]": "209.984",
        "decay mode [RS 2]": "a",
        "branch chance [RS 2]": "0.000133%13.2A'A*10AC/^'5 %",
        "half life [RS 2]": "-1.865.012 d",
        "energy released, MeV [RS 2]": "5.03647",
        "daughter nuclide [RS 2]": "206Tl",
        "Subtotal MeV": "50.2387"
    },
    {
        "parent nuclide": "210Po",
        "historic name (short) [citation needed]": "RaF",
        "historic name (long)": "Radium F",
        "atomic mass [RS 1]": "209.983",
        "decay mode [RS 2]": "a",
        "branch chance [RS 2]": "100 %",
        "half life [RS 2]": "-0.42138.376 d",
        "energy released, MeV [RS 2]": "5.40745",
        "daughter nuclide [RS 2]": "206Pb",
        "Subtotal MeV": "51.7709"
    },
    {
        "parent nuclide": "206Hg",
        "historic name (short) [citation needed]": "",
        "historic name (long)": "",
        "atomic mass [RS 1]": "205.978",
        "decay mode [RS 2]": "AZA2AC/^'",
        "branch chance [RS 2]": "100 %",
        "half life [RS 2]": "-4.808.32 min",
        "energy released, MeV [RS 2]": "1.307649",
        "daughter nuclide [RS 2]": "206Tl",
        "Subtotal MeV": "50.2387"
    },
    {
        "parent nuclide": "206Tl",
        "historic name (short) [citation needed]": "RaE\",Radium E\"\"",
        "historic name (long)": "205.976",
        "atomic mass [RS 1]": "AZA2AC/^'",
        "decay mode [RS 2]": "100 %",
        "branch chance [RS 2]": "-5.104.202 min",
        "half life [RS 2]": "1.532221",
        "energy released, MeV [RS 2]": "206Pb",
        "daughter nuclide [RS 2]": "51.7709",
        "Subtotal MeV": ""
    },
    {
        "parent nuclide": "206Pb",
        "historic name (short) [citation needed]": "RaG",
        "historic name (long)": "Radium G",
        "atomic mass [RS 1]": "205.974",
        "decay mode [RS 2]": "stable",
        "branch chance [RS 2]": "-",
        "half life [RS 2]": "999-",
        "energy released, MeV [RS 2]": "-",
        "daughter nuclide [RS 2]": "-",
        "Subtotal MeV": "51.7709"
    }
]