[
    {
        "Preceding station": "Bowery toward Broad Street",
        "NO-HEADER1": "",
        "New York City Subway": "BMT Nassau Street Line J Z",
        "NO-HEADER3": "",
        "Following station": "Marcy Avenue toward Parsons\\/Archer or Metropolitan Avenue"
    },
    {
        "Preceding station": "Broadway AC/EUR\" Lafayette Street toward 71st Avenue",
        "NO-HEADER1": "",
        "New York City Subway": "Chrystie Street Connection M",
        "NO-HEADER3": "",
        "Following station": "Marcy Avenue toward Parsons\\/Archer or Metropolitan Avenue"
    },
    {
        "Preceding station": "Terminus",
        "NO-HEADER1": "",
        "New York City Subway": "M",
        "NO-HEADER3": "",
        "Following station": "Marcy Avenue toward Parsons\\/Archer or Metropolitan Avenue"
    }
]