[
    {
        "Denominations": "Catholicism",
        "Population": "3,871,922",
        "% of total": "38.9"
    },
    {
        "Denominations": "Roman Catholics",
        "Population": "3,691,389",
        "% of total": "37.1"
    },
    {
        "Denominations": "Greek Catholics",
        "Population": "179,176",
        "% of total": "1.8"
    },
    {
        "Denominations": "Protestantism",
        "Population": "1,368,547",
        "% of total": "13.8"
    },
    {
        "Denominations": "Calvinists",
        "Population": "1,153,454",
        "% of total": "11.6"
    },
    {
        "Denominations": "Lutherans",
        "Population": "215,093",
        "% of total": ""
    },
    {
        "Denominations": "Orthodox Christianity",
        "Population": "13,710",
        "% of total": "0.1"
    },
    {
        "Denominations": "Judaism",
        "Population": "10,968",
        "% of total": "0.1"
    },
    {
        "Denominations": "Other religions",
        "Population": "167,231",
        "% of total": "1.7"
    },
    {
        "Denominations": "Total religions",
        "Population": "5,432,375",
        "% of total": "54.7"
    },
    {
        "Denominations": "No religion",
        "Population": "1,806,409",
        "% of total": "18.2"
    },
    {
        "Denominations": "Did not wish to answer",
        "Population": "2,698,844",
        "% of total": "27.1"
    },
    {
        "Denominations": "total",
        "Population": "9,937,628",
        "% of total": "100.00"
    }
]