[
    {
        "Minister": "John Whittingdale MP",
        "Rank": "Secretary of State",
        "Portfolio": "Overall responsibility for the work of DCMS and the digital economy"
    },
    {
        "Minister": "The Hon Ed Vaizey MP",
        "Rank": "Minister of State (Minister for Culture, Communications and Creative Industries)",
        "Portfolio": "Broadband, Spectrum and Telecoms; Culture; Heritage and Built Environment; Internet and Creative Industries; Libraries; Media; Museums and Galleries"
    },
    {
        "Minister": "Tracey Crouch MP",
        "Rank": "Parliamentary Under Secretary of State for Sport and Tourism",
        "Portfolio": "Sport; Olympic and Paralympic Legacy; Tourism AC/EUR\" including GREAT campaign; Gambling and Licensing; National Lottery; Ceremonial"
    },
    {
        "Minister": "Joanna Shields, Baroness Shields, OBE",
        "Rank": "Parliamentary Under Secretary of State for Internet Safety and Security",
        "Portfolio": "Making the internet a safer place for children by curbing online abuse, exploitation, bullying and access to harmful content; working with the Home Office to remove terrorist, radicalising, and extremist content from the internet; and promoting safe, open access to the internet for everyone."
    },
    {
        "Minister": "Baroness Neville-Rolfe DBE CMG",
        "Rank": "Parliamentary Under Secretary of State and Minister for Intellectual Property",
        "Portfolio": "Lords Business (except Internet Safety)"
    }
]