[
    {
        "DVD Name": "DVD Name",
        "Release Date": "Release Date",
        "Ep #": "Ep #",
        "Additional Content": "Additional Content"
    },
    {
        "DVD Name": "The Complete First Season",
        "Release Date": "Region 1: August 21, 2007 Region 2: May 19, 2008 Region 4: February 14, 2008[64]",
        "Ep #": "12",
        "Additional Content": "2 Episode Audio Commentaries by the Cast The Academy of Blood: A Killer Course! Witnessed in Blood: A True Murder Investigation N Technology 2 episodes of Showtime's Brotherhood"
    },
    {
        "DVD Name": "The Complete Second Season",
        "Release Date": "Region 1: August 19, 2008 Region 2: March 30, 2009 Region 4: August 21, 2008",
        "Ep #": "12",
        "Additional Content": "2 episodes of Showtime's Brotherhood, Season 2 Via E-Bridge Technology 2 episodes from The Tudors, Season 2 & Californication"
    },
    {
        "DVD Name": "The Complete Third Season",
        "Release Date": "Region 1: August 18, 2009 Region 2: August 16, 2010 Region 4: August 20, 2009[65]",
        "Ep #": "12",
        "Additional Content": "Cast Interviews with Michael C. Hall, Lauren Velez, C.S Lee, David Zayas, Jennifer Carpenter, Julie Benz Victims Match Inside the Writers Room Bringing Miami to LA Miami's Finest Photo Gallery First two Episodes of United States of Tara, Season 1"
    },
    {
        "DVD Name": "The Complete Fourth Season",
        "Release Date": "Region 1: August 17, 2010 Region 2: November 29, 2010 Region 4: November 4, 2010[66]",
        "Ep #": "12",
        "Additional Content": "Californication: Season 3: Episodes 1 & 2 Lock 'N Load: Season 1 AC/EUR\" Episode 1 The Tudors: Season 4 AC/EUR\" Episode 1 & 2 Via E-Bridge Technology Cast Interviews with Michael C. Hall, Clyde Phillips, David Zayas, John Lithgow, C.S Lee, Julie Benz, Lauren Velez, Jennifer Carpenter, James Remar"
    },
    {
        "DVD Name": "The Complete Fifth Season",
        "Release Date": "Region 1: August 16, 2011 Region 2: September 5, 2011 Region 4: August 18, 2011",
        "Ep #": "12",
        "Additional Content": "Californication: Season 4 AC/EUR\" Episodes 1 & 2 Interviews with: Michael C. Hall, Jennifer Carpenter, C.S. Lee, Lauren VAfA(c)lez, Julia Stiles, James Remar, Desmond Harrington, Chip Johannessen and David Zayas Reflecting on Season 5: Julia Stiles The Borgias: Season 1 AC/EUR\" Episodes 1 & 2 Episodes: Season 1 AC/EUR\" Episodes 1 & 2 Homeland: Trailer"
    },
    {
        "DVD Name": "The Complete Sixth Season",
        "Release Date": "Region 1 : August 14, 2012",
        "Ep #": "12",
        "Additional Content": "House of Lies Episodes 1 & 2 Interviews with David Zayas, Michael C. Hall, Jennifer Carpenter, Lauren Velez, CS Lee, Colin Hanks and Desmond Harrington."
    },
    {
        "DVD Name": "The Complete Seventh Season",
        "Release Date": "Region 1: May 14, 2013 June 3, 2013",
        "Ep #": "12",
        "Additional Content": "To be added"
    },
    {
        "DVD Name": "The Complete Eighth and Final Season",
        "Release Date": "Region 1: November 14, 2013",
        "Ep #": "12",
        "Additional Content": "From Cop To Killer, featurette Behind the Scenes With the Creators Dissecting a Scene Ray Donovan: Season 1 - Episodes 1 & 2"
    },
    {
        "DVD Name": "Blu-ray Name",
        "Release Date": "Release Date",
        "Ep #": "Ep #",
        "Additional Content": "Additional Content"
    },
    {
        "DVD Name": "The Complete First Season",
        "Release Date": "Region A: January 6, 2009[67] Region B: June 18, 2012",
        "Ep #": "12",
        "Additional Content": "2 Episode Audio Commentaries by the Cast The Academy of Blood: A Killer Course! Witnessed in Blood: A True Murder Investigation Podcast First Episode of Dexter, Season 3 First two Episodes of United States of Tara, Season 1"
    },
    {
        "DVD Name": "The Complete Second Season",
        "Release Date": "Region A: May 5, 2009[68] Region B: June 18, 2012",
        "Ep #": "12",
        "Additional Content": "Tools of the Trade Podcasts Featurette: \\Blood Fountains\" Featurette: \"Dark Defender\" One episode of the upcoming Showtime series Nurse Jackie One episode of the new Showtime series United States of Tara\""
    },
    {
        "DVD Name": "The Complete Third Season",
        "Release Date": "Region A: August 18, 2009[69] Region B: June 18, 2012",
        "Ep #": "12",
        "Additional Content": "First two Episodes of The Tudors, Season 3 Dexter By Design AC/EUR\" Book Experts Cast Interviews with Michael C. Hall, Lauren Velez, C.S Lee, David Zayas, Jennifer Carpenter, Julie Benz First two Episodes of United States of Tara, Season 1"
    },
    {
        "DVD Name": "The Complete Fourth Season",
        "Release Date": "Region A: August 17, 2010[70] Region B: November 4, 2010[71]",
        "Ep #": "12",
        "Additional Content": "Californication: Season 3 AC/EUR\" Episodes 1 & 2 The Tudors: Season 4 AC/EUR\" Episodes 1 & 2 2009 Comic Con Panel (Best Buy Exclusive)"
    },
    {
        "DVD Name": "The Complete Fifth Season",
        "Release Date": "Region A: August 16, 2011 Region B: August 18, 2011",
        "Ep #": "12",
        "Additional Content": "The Borgias: Season 1 AC/EUR\" Episodes 1 & 2 Episodes: Season 1 AC/EUR\" Episodes 1 & 2 Interviews with: Michael C. Hall, Jennifer Carpenter, C.S. Lee, Lauren VAfA(c)lez, Julia Stiles, James Remar, Desmond Harrington, Chip Johannessen and David Zayas Reflecting on Season 5: Julia Stiles"
    },
    {
        "DVD Name": "The Complete Sixth Season",
        "Release Date": "Region A: August 15, 2012 Region B: June 18, 2012",
        "Ep #": "12",
        "Additional Content": "To be added"
    },
    {
        "DVD Name": "The Complete Seventh Season",
        "Release Date": "Region A: May 14, 2013 Region B: June 3, 2013",
        "Ep #": "12",
        "Additional Content": "To be added"
    }
]