[
    {
        "CGESP": "National",
        "Programa": "Globo Esporte",
        "Descricao": "A daily sports news program with the roundup of the day's sporting events and football matches, broadcasts from Monday to Saturday, at 12:50, with several presenters, immediately after its local news bulletins."
    },
    {
        "CGESP": "RJ",
        "Programa": "Esporte Espetacular",
        "Descricao": "Weekly magazine that broadcasts reports, interviews and news about sports, broadcasts on Sunday mornings, with Alex Escobar and Glenda Kozlowski."
    },
    {
        "CGESP": "SP",
        "Programa": "Auto Esporte",
        "Descricao": "Program that is dedicated to motorsports and covers motor racing. Broadcasts on Sunday mornings, with Millena Machado."
    },
    {
        "CGESP": "RJ",
        "Programa": "Corujao do Esporte",
        "Descricao": "A late night sports program that brings special reports on sports, with guests. Broadcasts in the early hours of Wednesday and Thursday, with Flavio Canto."
    }
]