[
    {
        "NO-HEADER0": "NO-HEADER0",
        "Batting": "Batting",
        "Bowling": "Bowling",
        "NO-HEADER3": "",
        "NO-HEADER4": "",
        "NO-HEADER5": "",
        "NO-HEADER6": "",
        "NO-HEADER7": "",
        "NO-HEADER8": ""
    },
    {
        "NO-HEADER0": "",
        "Batting": "Score",
        "Bowling": "Fixture",
        "NO-HEADER3": "Venue",
        "NO-HEADER4": "Season",
        "NO-HEADER5": "Score",
        "NO-HEADER6": "Fixture",
        "NO-HEADER7": "Venue",
        "NO-HEADER8": "Season"
    },
    {
        "NO-HEADER0": "FC",
        "Batting": "133",
        "Bowling": "Oxford MCCU v Lancashire",
        "NO-HEADER3": "Oxford",
        "NO-HEADER4": "2011",
        "NO-HEADER5": "2AC/EUR\"23",
        "NO-HEADER6": "Gloucestershire v Kent",
        "NO-HEADER7": "Canterbury",
        "NO-HEADER8": "2012"
    },
    {
        "NO-HEADER0": "LA",
        "Batting": "50",
        "Bowling": "Gloucestershire Gladiators v Nottinghamshire Outlaws",
        "NO-HEADER3": "Nottingham",
        "NO-HEADER4": "2011",
        "NO-HEADER5": "3AC/EUR\"25",
        "NO-HEADER6": "Gloucestershire Gladiators v Lancashire Lightning",
        "NO-HEADER7": "Bristol",
        "NO-HEADER8": "2012"
    },
    {
        "NO-HEADER0": "T20",
        "Batting": "28",
        "Bowling": "Gloucestershire Gladiators v Surrey Lions",
        "NO-HEADER3": "The Oval",
        "NO-HEADER4": "2011",
        "NO-HEADER5": "3-21",
        "NO-HEADER6": "Gloucestershire Gladiators v Glamorgan",
        "NO-HEADER7": "Cheltenham",
        "NO-HEADER8": "2013"
    }
]