[
    {
        "Japanese Title": "Eggerland Mystery",
        "Western Title": "Eggerland Mystery",
        "Regions": "JP, EU",
        "Release": "1985",
        "Platform(s)": "MSX"
    },
    {
        "Japanese Title": "MeikyA<< Shinwa (lit. \\Labyrinth Myth\") Eggerland\"",
        "Western Title": "Eggerland 2",
        "Regions": "JP, EU",
        "Release": "1986",
        "Platform(s)": "MSX, MSX2, Famicom Disk System"
    },
    {
        "Japanese Title": "Eggerland AC/EUR\" Revival of the Labyrinth",
        "Western Title": "-",
        "Regions": "JP",
        "Release": "1988",
        "Platform(s)": "Famicom"
    },
    {
        "Japanese Title": "Eggerland AC/EUR\" Departure to Creation",
        "Western Title": "-",
        "Regions": "JP",
        "Release": "1988",
        "Platform(s)": "Famicom Disk System"
    },
    {
        "Japanese Title": "Adventures of Lolo",
        "Western Title": "-",
        "Regions": "JP",
        "Release": "1990",
        "Platform(s)": "NES"
    },
    {
        "Japanese Title": "Adventures of Lolo 2",
        "Western Title": "-",
        "Regions": "JP",
        "Release": "1990",
        "Platform(s)": "Famicom"
    },
    {
        "Japanese Title": "Lolo's Great Adventure",
        "Western Title": "Adventures of Lolo (Game Boy)",
        "Regions": "JP, EU",
        "Release": "1994",
        "Platform(s)": "Super Game Boy"
    },
    {
        "Japanese Title": "Eggerland Episode 0: Quest of Lala",
        "Western Title": "-",
        "Regions": "JP",
        "Release": "1996",
        "Platform(s)": "Windows"
    },
    {
        "Japanese Title": "Revival! Eggerland",
        "Western Title": "-",
        "Regions": "JP",
        "Release": "2000 & 2001",
        "Platform(s)": "Windows"
    },
    {
        "Japanese Title": "Developed in USA",
        "Western Title": "",
        "Regions": "",
        "Release": "",
        "Platform(s)": ""
    },
    {
        "Japanese Title": "-",
        "Western Title": "Adventures of Lolo",
        "Regions": "NA, EU",
        "Release": "1989",
        "Platform(s)": "NES"
    },
    {
        "Japanese Title": "-",
        "Western Title": "Adventures of Lolo 2",
        "Regions": "NA, EU",
        "Release": "1990",
        "Platform(s)": "NES"
    },
    {
        "Japanese Title": "-",
        "Western Title": "Adventures of Lolo 3",
        "Regions": "NA, EU",
        "Release": "1991",
        "Platform(s)": "NES"
    }
]