[
    {
        "Year": "2005",
        "Competition": "World Youth Championships",
        "Venue": "Marrakech, Morocco",
        "Position": "5th",
        "Notes": "50.53 m"
    },
    {
        "Year": "2006",
        "Competition": "World Junior Championships",
        "Venue": "Beijing, China",
        "Position": "12th",
        "Notes": "48.08 m"
    },
    {
        "Year": "2008",
        "Competition": "NACAC U-23 Championships",
        "Venue": "Toluca, Mexico",
        "Position": "1st",
        "Notes": "51.76 m A"
    },
    {
        "Year": "2009",
        "Competition": "Universiade",
        "Venue": "Belgrade, Serbia",
        "Position": "6th",
        "Notes": "58.21 m"
    },
    {
        "Year": "2010",
        "Competition": "NACAC U23 Championships",
        "Venue": "Miramar, Florida, United States",
        "Position": "1st",
        "Notes": "53.72 m"
    },
    {
        "Year": "2012",
        "Competition": "Olympic Games",
        "Venue": "London, United Kingdom",
        "Position": "12th",
        "Notes": "58.78 m"
    },
    {
        "Year": "2015",
        "Competition": "Pan American Games",
        "Venue": "Toronto, Canada",
        "Position": "1st",
        "Notes": "62.83 m"
    },
    {
        "Year": "2015",
        "Competition": "World Championships",
        "Venue": "Beijing, China",
        "Position": "11th",
        "Notes": "59.82 m"
    }
]