[
    {
        "Year": "2003",
        "Title": "La hija del jardinero",
        "Character": "Clara \\Clarita\"\"",
        "Notes": "Supporting cast"
    },
    {
        "Year": "2004",
        "Title": "La vida es una cancion",
        "Character": "Angelica",
        "Notes": "Supporting cast"
    },
    {
        "Year": "2007",
        "Title": "Se busca un hombre",
        "Character": "Tania Wilkins",
        "Notes": "Supporting cast"
    },
    {
        "Year": "2007",
        "Title": "Lo que callamos las mujeres",
        "Character": "",
        "Notes": "Episode: \\Secretos de familia\"\""
    },
    {
        "Year": "2008",
        "Title": "Cambio de vida",
        "Character": "Cristina",
        "Notes": "2 episodes"
    },
    {
        "Year": "2008",
        "Title": "Deseo prohibido",
        "Character": "Mayte Wilson",
        "Notes": "Supporting cast"
    },
    {
        "Year": "2009",
        "Title": "Cada quien su santo",
        "Character": "",
        "Notes": "Episode: \\Desde arriba\"\""
    },
    {
        "Year": "2009",
        "Title": "Pasion Morena",
        "Character": "Isela Teran",
        "Notes": "Supporting cast"
    },
    {
        "Year": "2011",
        "Title": "Emperatriz",
        "Character": "Dr. Ximena",
        "Notes": "Supporting cast"
    },
    {
        "Year": "2013",
        "Title": "La Patrona[2]",
        "Character": "Irene Montemar",
        "Notes": "Antagonist \\/ Co-Protagonist"
    },
    {
        "Year": "2014",
        "Title": "El Senor de los Cielos",
        "Character": "Elsa Marin",
        "Notes": "Season 2 (recurring antagonist; 64 episodes)"
    },
    {
        "Year": "2015-16",
        "Title": "Bajo el mismo cielo",
        "Character": "Felicia Mendez",
        "Notes": "Main antagonist"
    },
    {
        "Year": "2016",
        "Title": "Eva la trailera",
        "Character": "Marlene Palacios",
        "Notes": "Main antagonist"
    }
]