[
    {
        "Year": "2011-2012",
        "Title": "Apartmenti 2xl",
        "Role": "Himself",
        "Notes": "(season 1-6)"
    },
    {
        "Year": "2009",
        "Title": "Portokalli",
        "Role": "Himself",
        "Notes": "(season 1-)"
    },
    {
        "Year": "2012",
        "Title": "Plus",
        "Role": "Himself",
        "Notes": "TV Commercial in Albania"
    },
    {
        "Year": "2013",
        "Title": "Femrat-the movie",
        "Role": "Riku(protagonist)",
        "Notes": "Movie"
    },
    {
        "Year": "2014",
        "Title": "6 Dite Pa Ermalin",
        "Role": "himself\\/host",
        "Notes": "Talk Show"
    }
]