[
    {
        "Place": "1st",
        "Name": "Mads Andersen",
        "Prize": "kr2,548,040 ($413,442)"
    },
    {
        "Place": "2nd",
        "Name": "Edgar Skjervold",
        "Prize": "kr1,401,422 ($227,393)"
    },
    {
        "Place": "3rd",
        "Name": "Marc Naalden",
        "Prize": "kr716,636 ($116,281)"
    },
    {
        "Place": "4th",
        "Name": "Philip Hilm",
        "Prize": "kr557,384 ($90,441)"
    },
    {
        "Place": "5th",
        "Name": "Markus Gonsalves",
        "Prize": "kr447,757 ($72,653)"
    },
    {
        "Place": "6th",
        "Name": "Anina Gundesen",
        "Prize": "kr398,131 ($64,600)"
    },
    {
        "Place": "7th",
        "Name": "Shek Chi Hung",
        "Prize": "kr318,505 ($51,680)"
    },
    {
        "Place": "8th",
        "Name": "Johan Bergqvist",
        "Prize": "kr238,879 ($38,760)"
    }
]