[
    {
        "Electoral region": "East Midlands",
        "Representation in 2009": "5",
        "Representation before and after the 2014 election": "5",
        "Net Gain\\/Loss": ""
    },
    {
        "Electoral region": "East of England",
        "Representation in 2009": "7",
        "Representation before and after the 2014 election": "7",
        "Net Gain\\/Loss": ""
    },
    {
        "Electoral region": "London",
        "Representation in 2009": "8",
        "Representation before and after the 2014 election": "8",
        "Net Gain\\/Loss": ""
    },
    {
        "Electoral region": "North East England",
        "Representation in 2009": "3",
        "Representation before and after the 2014 election": "3",
        "Net Gain\\/Loss": ""
    },
    {
        "Electoral region": "North West England",
        "Representation in 2009": "8",
        "Representation before and after the 2014 election": "8",
        "Net Gain\\/Loss": ""
    },
    {
        "Electoral region": "South East England",
        "Representation in 2009": "10",
        "Representation before and after the 2014 election": "10",
        "Net Gain\\/Loss": ""
    },
    {
        "Electoral region": "South West England1",
        "Representation in 2009": "6",
        "Representation before and after the 2014 election": "6",
        "Net Gain\\/Loss": ""
    },
    {
        "Electoral region": "West Midlands",
        "Representation in 2009": "6",
        "Representation before and after the 2014 election": "7",
        "Net Gain\\/Loss": "+1"
    },
    {
        "Electoral region": "Yorkshire and the Humber",
        "Representation in 2009": "6",
        "Representation before and after the 2014 election": "6",
        "Net Gain\\/Loss": ""
    },
    {
        "Electoral region": "Wales",
        "Representation in 2009": "4",
        "Representation before and after the 2014 election": "4",
        "Net Gain\\/Loss": ""
    },
    {
        "Electoral region": "Scotland",
        "Representation in 2009": "6",
        "Representation before and after the 2014 election": "6",
        "Net Gain\\/Loss": ""
    },
    {
        "Electoral region": "Northern Ireland",
        "Representation in 2009": "3",
        "Representation before and after the 2014 election": "3",
        "Net Gain\\/Loss": ""
    }
]