[
    {
        "Title": "The Bloodline Chronicles",
        "Type": "Adventure Pack",
        "Released date": "21 March 2005"
    },
    {
        "Title": "The Splitpaw Saga",
        "Type": "Adventure Pack",
        "Released date": "28 June 2005"
    },
    {
        "Title": "Desert of Flames",
        "Type": "Expansion",
        "Released date": "13 September 2005"
    },
    {
        "Title": "Kingdom of Sky",
        "Type": "Expansion",
        "Released date": "21 February 2006"
    },
    {
        "Title": "The Fallen Dynasty",
        "Type": "Adventure Pack",
        "Released date": "14 June 2006"
    },
    {
        "Title": "Echoes of Faydwer",
        "Type": "Expansion",
        "Released date": "14 November 2006"
    },
    {
        "Title": "Rise of Kunark",
        "Type": "Expansion",
        "Released date": "13 November 2007"
    },
    {
        "Title": "The Shadow Odyssey[5]",
        "Type": "Expansion",
        "Released date": "18 November 2008"
    },
    {
        "Title": "Sentinel's Fate[6]",
        "Type": "Expansion",
        "Released date": "16 February 2010"
    },
    {
        "Title": "Destiny of Velious",
        "Type": "Expansion",
        "Released date": "22 February 2011"
    },
    {
        "Title": "Age of Discovery",
        "Type": "Feature Expansion",
        "Released date": "6 December 2011"
    },
    {
        "Title": "Chains of Eternity",
        "Type": "Expansion",
        "Released date": "13 November 2012"
    },
    {
        "Title": "Tears of Veeshan",
        "Type": "Expansion",
        "Released date": "12 November 2013"
    },
    {
        "Title": "Altar of Malice",
        "Type": "Expansion",
        "Released date": "11 November 2014[7]"
    },
    {
        "Title": "Terrors of Thalumbra",
        "Type": "Expansion",
        "Released date": "17 November 2015"
    }
]