[
    {
        "Auburn University": "Auburn University",
        "Carleton University": "Carleton University",
        "Concordia University": "Concordia University",
        "Dresden University of Technology": "Dresden University of Technology"
    },
    {
        "Auburn University": "Af%0cole de technologie supAfA(c)rieure",
        "Carleton University": "Helwan University",
        "Concordia University": "Technical Military Academy of Bucharest",
        "Dresden University of Technology": "Milwaukee School of Engineering"
    },
    {
        "Auburn University": "National Society for Earthquake Technology",
        "Carleton University": "National University of Singapore",
        "Concordia University": "Northeastern University",
        "Dresden University of Technology": "North Carolina State University"
    },
    {
        "Auburn University": "Pennsylvania State University",
        "Carleton University": "Portuguese Military Academy",
        "Concordia University": "Purdue University",
        "Dresden University of Technology": "Royal Military Academy (Belgium)"
    },
    {
        "Auburn University": "Rutgers University",
        "Carleton University": "Technical University of Cluj-Napoca",
        "Concordia University": "Tokyo Institute of Technology",
        "Dresden University of Technology": "United States Military Academy"
    },
    {
        "Auburn University": "University of Bristol",
        "Carleton University": "University of Connecticut",
        "Concordia University": "University of California",
        "Dresden University of Technology": "University of Miami"
    },
    {
        "Auburn University": "University of Missouri",
        "Carleton University": "University of MissouriAC/EUR\"Kansas City",
        "Concordia University": "University of Oxford",
        "Dresden University of Technology": "University of Texas at Austin"
    },
    {
        "Auburn University": "University of Wollongong",
        "Carleton University": "",
        "Concordia University": "",
        "Dresden University of Technology": ""
    }
]