[
    {
        "Season": "1996AC/EUR\"97",
        "Competition": "UEFA Cup Winners' Cup",
        "Round": "QR",
        "NO-HEADER3": "",
        "Club": "KR Reykjavik",
        "1st Leg": "2AC/EUR\"2 (H)",
        "2nd Leg": "0AC/EUR\"1 (A)"
    },
    {
        "Season": "1997AC/EUR\"98",
        "Competition": "UEFA Champions League",
        "Round": "1Q",
        "NO-HEADER3": "",
        "Club": "Constructorul ChiA...YinA\"fu",
        "1st Leg": "1AC/EUR\"1 (A)",
        "2nd Leg": "3AC/EUR\"2 (H)"
    },
    {
        "Season": "1997AC/EUR\"98",
        "Competition": "UEFA Champions League",
        "Round": "2Q",
        "NO-HEADER3": "",
        "Club": "Olympiacos",
        "1st Leg": "0AC/EUR\"5 (A)",
        "2nd Leg": "2AC/EUR\"2 (H)"
    },
    {
        "Season": "1997AC/EUR\"98",
        "Competition": "UEFA Cup",
        "Round": "1R",
        "NO-HEADER3": "",
        "Club": "Dinamo Tbilisi",
        "1st Leg": "1AC/EUR\"1 (H)",
        "2nd Leg": "0AC/EUR\"1 (A)"
    },
    {
        "Season": "2000AC/EUR\"01",
        "Competition": "UEFA Cup",
        "Round": "1Q",
        "NO-HEADER3": "",
        "Club": "Maccabi Haifa",
        "1st Leg": "1AC/EUR\"1 (H)",
        "2nd Leg": "0AC/EUR\"0 (A)"
    },
    {
        "Season": "2001AC/EUR\"02",
        "Competition": "UEFA Champions League",
        "Round": "1Q",
        "NO-HEADER3": "",
        "Club": "VB Vagur",
        "1st Leg": "0AC/EUR\"0 (A)",
        "2nd Leg": "5AC/EUR\"0 (H)"
    },
    {
        "Season": "2001AC/EUR\"02",
        "Competition": "UEFA Champions League",
        "Round": "2Q",
        "NO-HEADER3": "",
        "Club": "Inter Bratislava",
        "1st Leg": "0AC/EUR\"1 (H)",
        "2nd Leg": "0AC/EUR\"1 (A)"
    }
]