[
    {
        "District": "I Federal Electoral District of Quintana Roo",
        "Head town": "Playa del Carmen"
    },
    {
        "District": "II Federal Electoral District of Quintana Roo",
        "Head town": "Chetumal"
    },
    {
        "District": "III Federal Electoral District of Quintana Roo",
        "Head town": "Cancun"
    }
]