[
    {
        "Rank": "",
        "Name": "Marco Fichera",
        "NOC": "Italy",
        "Team": "Europe 1"
    },
    {
        "Rank": "",
        "Name": "Nikolaus Bodoczi",
        "NOC": "Germany",
        "Team": "Europe 2"
    },
    {
        "Rank": "",
        "Name": "Alexandre Lyssov",
        "NOC": "Canada",
        "Team": "Americas 1"
    },
    {
        "Rank": "4",
        "Name": "Byeong Hun Na",
        "NOC": "South Korea",
        "Team": "Asia 1"
    },
    {
        "Rank": "5",
        "Name": "Kirill Zhakupov",
        "NOC": "Kazakhstan",
        "Team": "Asia 2"
    },
    {
        "Rank": "6",
        "Name": "Tomasz Kruk",
        "NOC": "Poland",
        "Team": "Europe 3"
    },
    {
        "Rank": "7",
        "Name": "Lucian Ciovica",
        "NOC": "Romania",
        "Team": "Europe 4"
    },
    {
        "Rank": "8",
        "Name": "Lim Wei Hao",
        "NOC": "Singapore",
        "Team": ""
    },
    {
        "Rank": "9",
        "Name": "Ondrej Novotny",
        "NOC": "Czech Republic",
        "Team": ""
    },
    {
        "Rank": "10",
        "Name": "Saleh Saleh",
        "NOC": "Egypt",
        "Team": "Africa"
    },
    {
        "Rank": "11",
        "Name": "Guilherme Melaragno",
        "NOC": "Brazil",
        "Team": "Americas 2"
    },
    {
        "Rank": "12",
        "Name": "Roman Svichkar",
        "NOC": "Ukraine",
        "Team": ""
    },
    {
        "Rank": "13",
        "Name": "Julian Godoy",
        "NOC": "Costa Rica",
        "Team": ""
    }
]