[
    {
        "Preceding station": "Preceding station",
        "Disused railways": "Disused railways",
        "Following station": "Following station",
        "NO-HEADER3": "",
        "NO-HEADER4": ""
    },
    {
        "Preceding station": "Droitwich Spa Station and Line Open",
        "Disused railways": "",
        "Following station": "Oxford, Worcester and Wolverhampton Railway Great Western Railway",
        "NO-HEADER3": "",
        "NO-HEADER4": "Blackpole Halt Station Closed and Line Open"
    }
]