[
    {
        "Country": "Azerbaijan",
        "Stores": "1",
        "Location": "Baku"
    },
    {
        "Country": "Bahrain",
        "Stores": "1",
        "Location": "Manama"
    },
    {
        "Country": "Greece",
        "Stores": "1",
        "Location": "Athens"
    },
    {
        "Country": "Italy",
        "Stores": "5",
        "Location": "Maranello Milan Museo Ferrari Fiumicino airport (2)"
    },
    {
        "Country": "Kuwait",
        "Stores": "1",
        "Location": "Kuwait City"
    },
    {
        "Country": "Macau",
        "Stores": "1",
        "Location": "Macau"
    },
    {
        "Country": "Philippines",
        "Stores": "1",
        "Location": "Manila"
    },
    {
        "Country": "Romania",
        "Stores": "1",
        "Location": "Bucharest"
    },
    {
        "Country": "Russia",
        "Stores": "2",
        "Location": "Saint Petersburg Sochi"
    },
    {
        "Country": "Saudi Arabia",
        "Stores": "2",
        "Location": "Al Khobar Jeddah"
    },
    {
        "Country": "Singapore",
        "Stores": "1",
        "Location": "Singapore"
    },
    {
        "Country": "South Africa",
        "Stores": "2",
        "Location": "Johannesburg Sandton City"
    },
    {
        "Country": "Ukraine",
        "Stores": "1",
        "Location": "Kiev"
    },
    {
        "Country": "United Arab Emirates",
        "Stores": "3",
        "Location": "Abu Dhabi Dubai Ferrari World"
    },
    {
        "Country": "United States",
        "Stores": "5",
        "Location": "Honolulu Las Vegas Los Angeles Miami New York City"
    },
    {
        "Country": "India",
        "Stores": "1",
        "Location": "Gurgaon"
    },
    {
        "Country": "Total",
        "Stores": "29",
        "Location": ""
    }
]