[
    {
        "Team": "Argentina",
        "Pts": "3",
        "Pld": "3",
        "W": "0",
        "D": "0",
        "L": "30",
        "GF": "1",
        "GA": "+29",
        "GD": "9"
    },
    {
        "Team": "Trinidad and Tobago",
        "Pts": "3",
        "Pld": "2",
        "W": "0",
        "D": "1",
        "L": "11",
        "GF": "9",
        "GA": "+2",
        "GD": "6"
    },
    {
        "Team": "Cuba",
        "Pts": "3",
        "Pld": "1",
        "W": "0",
        "D": "2",
        "L": "10",
        "GF": "6",
        "GA": "+4",
        "GD": "3"
    },
    {
        "Team": "Brazil",
        "Pts": "3",
        "Pld": "0",
        "W": "0",
        "D": "3",
        "L": "1",
        "GF": "36",
        "GA": "AC/EUR\"35",
        "GD": "0"
    }
]