[
    {
        "Season": "2011",
        "Date": "December 29, 2011",
        "Bowl": "Champs Sports Bowl",
        "Winner": "Florida State 18",
        "Loser": "Notre Dame 14"
    },
    {
        "Season": "2012",
        "Date": "January 1, 2013",
        "Bowl": "Orange Bowl",
        "Winner": "Florida State 31",
        "Loser": "Northern Illinois 10"
    },
    {
        "Season": "2013",
        "Date": "January 6, 2014",
        "Bowl": "BCS National Championship Game",
        "Winner": "Florida State 34",
        "Loser": "Auburn 31"
    },
    {
        "Season": "2014",
        "Date": "January 1, 2015",
        "Bowl": "Rose Bowl",
        "Winner": "Oregon 59",
        "Loser": "Florida State 20"
    },
    {
        "Season": "2015",
        "Date": "December 31, 2015",
        "Bowl": "Peach Bowl",
        "Winner": "Houston 38",
        "Loser": "Florida State 24"
    }
]