[
    {
        "Team": "Peru",
        "Pts": "8",
        "Pld": "4",
        "W": "4",
        "D": "0",
        "L": "0",
        "GF": "18",
        "GA": "4"
    },
    {
        "Team": "Bolivia",
        "Pts": "5",
        "Pld": "4",
        "W": "2",
        "D": "1",
        "L": "1",
        "GF": "6",
        "GA": "6"
    },
    {
        "Team": "Ecuador",
        "Pts": "5",
        "Pld": "4",
        "W": "2",
        "D": "1",
        "L": "1",
        "GF": "9",
        "GA": "13"
    },
    {
        "Team": "Colombia",
        "Pts": "2",
        "Pld": "4",
        "W": "1",
        "D": "0",
        "L": "3",
        "GF": "6",
        "GA": "8"
    },
    {
        "Team": "Venezuela",
        "Pts": "0",
        "Pld": "4",
        "W": "0",
        "D": "0",
        "L": "4",
        "GF": "4",
        "GA": "12"
    }
]