[
    {
        "Actor": "Ann-Margret",
        "Character": "Amanda \\Maggie\" Wyatt\""
    },
    {
        "Actor": "Douglas Wert",
        "Character": "Alex Wyatt"
    },
    {
        "Actor": "Megan Ward",
        "Character": "Kate Wyatt"
    },
    {
        "Actor": "Sonia Braga",
        "Character": "Carlotta Alvarez"
    },
    {
        "Actor": "Kamar de los Reyes",
        "Character": "Tomas Alvarez"
    },
    {
        "Actor": "Dahlia Waingort",
        "Character": "Eva Alvarez"
    },
    {
        "Actor": "Raymond J. Barry",
        "Character": "Sam Haskell"
    },
    {
        "Actor": "Justin Chambers",
        "Character": "Caleb Haskell"
    },
    {
        "Actor": "Tim Carhart",
        "Character": "Sheriff"
    }
]