[
    {
        "Year": "1986",
        "Winner": "Susan Anderson",
        "Hometown": "Deming, WA",
        "College": "Texas"
    },
    {
        "Year": "1987",
        "Winner": "Kris Durham",
        "Hometown": "Scotch Plains, NJ",
        "College": "Seton Hall"
    },
    {
        "Year": "1988",
        "Winner": "Vicki Hall",
        "Hometown": "Indianapolis, IN",
        "College": "Texas"
    },
    {
        "Year": "1989",
        "Winner": "Lisa Harrison",
        "Hometown": "Louisville, KY",
        "College": "Tennessee"
    },
    {
        "Year": "1990",
        "Winner": "Lisa Leslie",
        "Hometown": "Inglewood, CA",
        "College": "USC"
    },
    {
        "Year": "1991",
        "Winner": "Michelle Marciniak",
        "Hometown": "Allentown, PA",
        "College": "Notre Dame \\/ Tennessee"
    },
    {
        "Year": "1992",
        "Winner": "Katie Smith",
        "Hometown": "Logan, OH",
        "College": "Ohio State"
    },
    {
        "Year": "1993",
        "Winner": "La'Keshia Frett",
        "Hometown": "Hampton, VA",
        "College": "Georgia"
    },
    {
        "Year": "1994",
        "Winner": "Monick Foote",
        "Hometown": "Wilmington, DE",
        "College": "Virginia"
    },
    {
        "Year": "1995",
        "Winner": "Stephanie White",
        "Hometown": "West Lebanon, IN",
        "College": "Purdue"
    },
    {
        "Year": "1996",
        "Winner": "Jamie Walz",
        "Hometown": "Fort Thomas, KY",
        "College": "Western Kentucky"
    },
    {
        "Year": "1997",
        "Winner": "Nikki Teasley",
        "Hometown": "Frederick, MD",
        "College": "North Carolina"
    },
    {
        "Year": "1998",
        "Winner": "Tamika Williams",
        "Hometown": "Dayton, OH",
        "College": "Connecticut"
    },
    {
        "Year": "1999",
        "Winner": "Nicole Kaczmarski",
        "Hometown": "Middle Island, NY",
        "College": "UCLA"
    },
    {
        "Year": "2000",
        "Winner": "Shereka Wright",
        "Hometown": "Copperas Cove, TX",
        "College": "Purdue"
    },
    {
        "Year": "2001",
        "Winner": "Shyra Ely",
        "Hometown": "Indianapolis, IN",
        "College": "Tennessee"
    },
    {
        "Year": "2002",
        "Winner": "Ann Strother",
        "Hometown": "Highlands Ranch, CO",
        "College": "Connecticut"
    },
    {
        "Year": "2003",
        "Winner": "Candace Parker",
        "Hometown": "Naperville, IL",
        "College": "Tennessee"
    },
    {
        "Year": "2004",
        "Winner": "Candace Parker",
        "Hometown": "Naperville, IL",
        "College": "Tennessee"
    },
    {
        "Year": "2005",
        "Winner": "Abby Waner",
        "Hometown": "Highlands Ranch, CO",
        "College": "Duke"
    },
    {
        "Year": "2006",
        "Winner": "Tina Charles",
        "Hometown": "Middle Village, NY",
        "College": "Connecticut"
    },
    {
        "Year": "2007",
        "Winner": "Maya Moore",
        "Hometown": "Lawrenceville, GA",
        "College": "Connecticut"
    },
    {
        "Year": "2008",
        "Winner": "Nneka Ogwumike",
        "Hometown": "Cypress, TX",
        "College": "Stanford"
    },
    {
        "Year": "2009",
        "Winner": "Skylar Diggins",
        "Hometown": "South Bend, IN",
        "College": "Notre Dame"
    },
    {
        "Year": "2010",
        "Winner": "Chiney Ogwumike",
        "Hometown": "Cypress, TX",
        "College": "Stanford"
    },
    {
        "Year": "2011",
        "Winner": "Kaleena Mosqueda-Lewis",
        "Hometown": "Santa Ana, CA",
        "College": "Connecticut"
    },
    {
        "Year": "2012",
        "Winner": "Stewart, BreannaBreanna Stewart",
        "Hometown": "North Syracuse, NY",
        "College": "Connecticut"
    },
    {
        "Year": "2013",
        "Winner": "Russell, MercedesMercedes Russell",
        "Hometown": "Springfield, OR",
        "College": "Tennessee"
    },
    {
        "Year": "2014",
        "Winner": "Turner, BriannaBrianna Turner",
        "Hometown": "Manvel, TX",
        "College": "Notre Dame"
    },
    {
        "Year": "2015",
        "Winner": "Samuelson, KatieKatie Samuelson",
        "Hometown": "Huntington Beach, CA",
        "College": "Connecticut"
    }
]