[
    {
        "Year": "2012",
        "Title": "Dark Horse Motion Comics",
        "Created by": "Dark Horse",
        "Notes": "Videos based on comics published by Dark Horse Comics [14]",
        "Status": "On Hiatus"
    },
    {
        "Year": "2013AC/EUR\"present",
        "Title": "Spellslingers",
        "Created by": "Sean Plott",
        "Notes": "Sean \\Day9\" Plott plays Magic: The Gathering with a different guest per episode.[15]\"",
        "Status": "On-Air"
    },
    {
        "Year": "2012AC/EUR\"2013, 2015AC/EUR\"Present",
        "Title": "The Flog",
        "Created by": "Felicia Day",
        "Notes": "A Vlog done by Felicia Day each week.[16]",
        "Status": "On-Air"
    },
    {
        "Year": "2012AC/EUR\"2013",
        "Title": "The Guild",
        "Created by": "Felicia Day",
        "Notes": "Revolves around the lives of a gamers' online guild, The Knights of Good, who play countless hours of a fantasy MMORPG video game entitled The Game.[17]",
        "Status": "On Hiatus"
    },
    {
        "Year": "2012",
        "Title": "Sword & Laser",
        "Created by": "Veronica Belmont and Tom Merritt",
        "Notes": "A book club\\/video podcast based around elements of sci-fi and fantasy.[18]",
        "Status": "On Hiatus"
    },
    {
        "Year": "2012AC/EUR\"Present",
        "Title": "TableTop",
        "Created by": "Felicia Day and Wil Wheaton",
        "Notes": "In each episode, one or more boardgames are explained briefly by Wil Wheaton and then he and his guests, usually web or TV personalities, play the game.[19]",
        "Status": "On-Air"
    },
    {
        "Year": "2012",
        "Title": "Written By A Kid",
        "Created by": "",
        "Notes": "In each episode, a child tells a story, which is used as the script in order to produce a short video.[1][20]",
        "Status": "On Hiatus"
    },
    {
        "Year": "2012",
        "Title": "LearningTown",
        "Created by": "Paul and Storm",
        "Notes": "A sitcom starring Paul and Storm as fictional versions of themselves taking over a classic children's show.[21]",
        "Status": "On Hiatus"
    },
    {
        "Year": "2012-2013",
        "Title": "On the Table",
        "Created by": "",
        "Notes": "A wargames show originally run on Beasts of War before moving to Geek and Sundry.[22][23]",
        "Status": "On Hiatus"
    },
    {
        "Year": "2012",
        "Title": "The Storyboard",
        "Created by": "",
        "Notes": "Pat Rothfuss Authors Roundtable[24][25]",
        "Status": "On Hiatus"
    },
    {
        "Year": "2012AC/EUR\"2014",
        "Title": "Vaginal Fantasy",
        "Created by": "Felicia Day",
        "Notes": "Book club based around romance, novels, and alcohol. It stars Felicia Day, Bonnie Burton, Kiala Kazbee, and Veronica Belmont, as they review romance novels and drink alcohol.[26]",
        "Status": "Moved to its own channel"
    },
    {
        "Year": "2012AC/EUR\"Present",
        "Title": "Space Janitors",
        "Created by": "Davin Lengyel and Geoff Lapaire",
        "Notes": "A live-action comedy series about a group of janitors, who work for an evil overlord.[27]",
        "Status": "On-Air"
    },
    {
        "Year": "2012",
        "Title": "MetaDating",
        "Created by": "",
        "Notes": "Sean Plott and friends drink beer and play online romance simulators.[28]",
        "Status": "On Hiatus"
    },
    {
        "Year": "2012",
        "Title": "#Parent",
        "Created by": "",
        "Notes": "Kristen Rutherford and Mike Phirman discuss topics relevant to the interests of geek parents.[29][30]",
        "Status": "On Hiatus"
    },
    {
        "Year": "2013",
        "Title": "Felicias Ark",
        "Created by": "Felicia Day",
        "Notes": "An interactive comedy that stars Felicia Day saving animals from video games, with viewers helping her decide which animals will make it onto her Ark.[11][31]",
        "Status": "On Hiatus"
    },
    {
        "Year": "2013",
        "Title": "Fetch Quest",
        "Created by": "Jordan Allen Dutton",
        "Notes": "An animated, musical comedy about video-game culture created by Jordan Allen Dutton of Robot Chicken.[11][32]",
        "Status": "On Hiatus"
    },
    {
        "Year": "2013",
        "Title": "The Player One[s]",
        "Created by": "",
        "Notes": "A sketch-comedy show that stars the sketch team of the same name finding humour in video-games.[11][33]",
        "Status": "On Hiatus"
    },
    {
        "Year": "2013AC/EUR\"Present",
        "Title": "Co-Optitude",
        "Created by": "Felicia Day",
        "Notes": "In each episode, Felicia Day and her brother Ryon Day play old games from the Genesis, Super Nintendo, and Nintendo 64 so you don't have to.[34]",
        "Status": "On-Air"
    },
    {
        "Year": "2013",
        "Title": "Outlands",
        "Created by": "Adam de la Pena",
        "Notes": "Brought to you by Adam de la Pena (Codemonkeys), this brave group is exploring the deep reaches of space, uncharted planets... in order to build intergalactic convenience stores.",
        "Status": "Unavailable"
    },
    {
        "Year": "2014AC/EUR\"Present",
        "Title": "Talkin Comics Weekly",
        "Created by": "Amy Dallen",
        "Notes": "Amy Dallen takes on her favorite comic of the week, going on adventures with a variety of exciting guests and making sure you won't leave your local comic shop empty handed![35]",
        "Status": "On-Air"
    },
    {
        "Year": "2014",
        "Title": "Caper",
        "Created by": "Amy Berg & Mike Sizemore",
        "Notes": "Four superhero housemates (Penny, Dagr, Alexia, and Luke) turn to crime when the economic realities of herodom hit home.[36]",
        "Status": "On Hiatus"
    },
    {
        "Year": "2014AC/EUR\"Present",
        "Title": "Unplugged",
        "Created by": "",
        "Notes": "Ashly Burch helps turn video games into real life thrill rides.[37]",
        "Status": "On Hiatus"
    },
    {
        "Year": "2014",
        "Title": "Spooked",
        "Created by": "",
        "Notes": "A paranormal comedy featuring the world's cheapest ghost hunters.[38]",
        "Status": "Season 1 completed"
    },
    {
        "Year": "2014",
        "Title": "Arcade Arms",
        "Created by": "",
        "Notes": "A series in which Nika Harper explores fantasy game weapons, creating and testing replicas.[39]",
        "Status": "On Hiatus"
    },
    {
        "Year": "2014AC/EUR\"Present",
        "Title": "LARPs",
        "Created by": "Julian Stamboulieh and Jon Verrall",
        "Notes": "A live-action comedy series about a group of friends who LARP, and their interactions in and out of the game.[40] The series was picked up by Geek & Sundry after the first season had been shown in early 2014: those episodes were removed from the original channel and re-released by G&S in preparation for the second season.[41]",
        "Status": "On-Air"
    },
    {
        "Year": "2015AC/EUR\"Present",
        "Title": "Critical Role",
        "Created by": "",
        "Notes": "Voice actor Matthew Mercer acts as the Dungeon Master for a series of Dungeons & Dragons campaigns with fellow voice actors Laura Bailey (Vex), Taliesin Jaffe (Percy), Ashley Johnson (Pike), Liam O'Brien (Vax), Marisha Ray (Keyleth), Sam Riegel (Scanlan), and Travis Willingham (Grog).[42]",
        "Status": "On-Air"
    },
    {
        "Year": "2015AC/EUR\"Present",
        "Title": "Titansgrave",
        "Created by": "Wil Wheaton",
        "Notes": "Wil Wheaton takes a group of 4 celebrity role players and their characters through a life-threatening adventure in a world far from our own where goblins wield laser rifles, dragons destroy hovercrafts, and great war machines plunder the land.[43]",
        "Status": "Season 1 completed"
    }
]