[
    {
        "Player": "Corben Bone",
        "Age": "21",
        "Pos": "M",
        "Home Town": "Plano, TX",
        "College\\/Prior": "Wake Forest",
        "Drafting Team": "Chicago Fire",
        "Graduated": ""
    },
    {
        "Player": "Teal Bunbury",
        "Age": "19",
        "Pos": "F",
        "Home Town": "Prior Lake, MN",
        "College\\/Prior": "Akron",
        "Drafting Team": "Kansas City Wizards",
        "Graduated": "2011"
    },
    {
        "Player": "Dilly Duka",
        "Age": "20",
        "Pos": "M",
        "Home Town": "Montville, NJ",
        "College\\/Prior": "Rutgers",
        "Drafting Team": "Columbus Crew",
        "Graduated": "2011"
    },
    {
        "Player": "Blair Gavin",
        "Age": "20",
        "Pos": "M",
        "Home Town": "Louisville, KY",
        "College\\/Prior": "Akron",
        "Drafting Team": "Chivas USA",
        "Graduated": "2011"
    },
    {
        "Player": "Luis Gil",
        "Age": "16",
        "Pos": "M",
        "Home Town": "Garden Grove, CA",
        "College\\/Prior": "US Under-17",
        "Drafting Team": "Kansas City Wizards",
        "Graduated": ""
    },
    {
        "Player": "Zachary Herold",
        "Age": "17",
        "Pos": "D",
        "Home Town": "Port St. Lucie, FL",
        "College\\/Prior": "US Under-17",
        "Drafting Team": "Toronto FC",
        "Graduated": "Retired"
    },
    {
        "Player": "Sean Johnson",
        "Age": "20",
        "Pos": "GK",
        "Home Town": "Lilburn, GA",
        "College\\/Prior": "UCF",
        "Drafting Team": "Chicago Fire",
        "Graduated": "2011"
    },
    {
        "Player": "Jack McInerney",
        "Age": "17",
        "Pos": "F",
        "Home Town": "Alpharetta, GA",
        "College\\/Prior": "US Under-17",
        "Drafting Team": "Philadelphia Union",
        "Graduated": "2012"
    },
    {
        "Player": "Danny Mwanga",
        "Age": "18",
        "Pos": "F",
        "Home Town": "Kinshasa, DR Congo",
        "College\\/Prior": "Oregon State",
        "Drafting Team": "Philadelphia Union",
        "Graduated": "2011"
    },
    {
        "Player": "Amobi Okugo",
        "Age": "18",
        "Pos": "M",
        "Home Town": "Sacramento, CA",
        "College\\/Prior": "UCLA",
        "Drafting Team": "Philadelphia Union",
        "Graduated": "2012"
    },
    {
        "Player": "Ike Opara",
        "Age": "20",
        "Pos": "D",
        "Home Town": "Durham, NC",
        "College\\/Prior": "Wake Forest",
        "Drafting Team": "San Jose Earthquakes",
        "Graduated": ""
    },
    {
        "Player": "Tony Tchani",
        "Age": "20",
        "Pos": "M",
        "Home Town": "Norfolk, VA",
        "College\\/Prior": "Virginia",
        "Drafting Team": "New York Red Bulls",
        "Graduated": "2011"
    },
    {
        "Player": "Andrew Wiedeman",
        "Age": "20",
        "Pos": "F",
        "Home Town": "San Ramon, CA",
        "College\\/Prior": "California",
        "Drafting Team": "FC Dallas",
        "Graduated": ""
    }
]