[
    {
        "Territory": "Bonaire",
        "Country": "Netherlands",
        "National association": "Bonaire Football Federation",
        "N.F.": "",
        "ConIFA": "",
        "IGA": ""
    },
    {
        "Territory": "Cascadia",
        "Country": "Canada AC/EUR\" United States",
        "National association": "Cascadia Association Football Federation",
        "N.F.": "",
        "ConIFA": "",
        "IGA": ""
    },
    {
        "Territory": "Easter Island",
        "Country": "Chile",
        "National association": "Asociacion de Futbol Amateur de la Isla de Pascua",
        "N.F.": "",
        "ConIFA": "",
        "IGA": ""
    },
    {
        "Territory": "Falkland Islands",
        "Country": "United Kingdom",
        "National association": "Falkland Islands Football League",
        "N.F.": "",
        "ConIFA": "",
        "IGA": ""
    },
    {
        "Territory": "French Guiana",
        "Country": "France",
        "National association": "Ligue de Football de la Guyane",
        "N.F.": "",
        "ConIFA": "",
        "IGA": ""
    },
    {
        "Territory": "Greenland",
        "Country": "Denmark",
        "National association": "Gronlands Boldspil-Union",
        "N.F.": "",
        "ConIFA": "",
        "IGA": ""
    },
    {
        "Territory": "Guadeloupe",
        "Country": "France",
        "National association": "Ligue Guadeloupeenne de Football",
        "N.F.": "",
        "ConIFA": "",
        "IGA": ""
    },
    {
        "Territory": "Kiribati",
        "Country": "Kiribati",
        "National association": "Kiribati Islands Football Association",
        "N.F.": "",
        "ConIFA": "",
        "IGA": ""
    },
    {
        "Territory": "Micronesia",
        "Country": "Micronesia",
        "National association": "Federated States of Micronesia Football Association",
        "N.F.": "",
        "ConIFA": "",
        "IGA": ""
    },
    {
        "Territory": "Niue",
        "Country": "Niue",
        "National association": "Niue Soccer Federation",
        "N.F.": "",
        "ConIFA": "",
        "IGA": ""
    },
    {
        "Territory": "Palau",
        "Country": "Palau",
        "National association": "Palau Football Association",
        "N.F.": "",
        "ConIFA": "",
        "IGA": ""
    },
    {
        "Territory": "Quebec",
        "Country": "Canada",
        "National association": "Quebec Soccer Federation",
        "N.F.": "",
        "ConIFA": "",
        "IGA": ""
    },
    {
        "Territory": "Saint Barthelemy",
        "Country": "France",
        "National association": "Saint Barthelemy Football Association",
        "N.F.": "",
        "ConIFA": "",
        "IGA": ""
    },
    {
        "Territory": "Saint Martin",
        "Country": "France",
        "National association": "ComitAfA(c) de Football des AfZles du Nord",
        "N.F.": "",
        "ConIFA": "",
        "IGA": ""
    },
    {
        "Territory": "Saint Pierre and Miquelon",
        "Country": "France",
        "National association": "Federation de Football de Saint-Pierre-et-Miquelon",
        "N.F.": "",
        "ConIFA": "",
        "IGA": ""
    },
    {
        "Territory": "Sint Maarten",
        "Country": "Netherlands",
        "National association": "Sint Maarten Soccer Association",
        "N.F.": "",
        "ConIFA": "",
        "IGA": ""
    },
    {
        "Territory": "Wallis and Futuna",
        "Country": "France",
        "National association": "Wallis and Futuna Soccer Federation",
        "N.F.": "",
        "ConIFA": "",
        "IGA": ""
    },
    {
        "Territory": "West Indies",
        "Country": "None",
        "National association": "West Indies Football Association",
        "N.F.": "",
        "ConIFA": "",
        "IGA": ""
    },
    {
        "Territory": "Yap",
        "Country": "Micronesia",
        "National association": "Yap Soccer Association",
        "N.F.": "",
        "ConIFA": "",
        "IGA": ""
    }
]