[
    {
        "Points": "63",
        "Opponent": "New Orleans Jazz",
        "Home\\/Away": "Away",
        "Date": "April 9, 1978",
        "FGM": "23",
        "FGA": "49",
        "FTM": "17",
        "FTA": "20",
        "3PM": "AC/EUR\""
    },
    {
        "Points": "55",
        "Opponent": "Indiana Pacers",
        "Home\\/Away": "Away",
        "Date": "January 23, 1980",
        "FGM": "21",
        "FGA": "32",
        "FTM": "12",
        "FTA": "",
        "3PM": "1"
    },
    {
        "Points": "53",
        "Opponent": "Denver Nuggets",
        "Home\\/Away": "Home",
        "Date": "January 8, 1980",
        "FGM": "23",
        "FGA": "40",
        "FTM": "7",
        "FTA": "",
        "3PM": "0"
    },
    {
        "Points": "52",
        "Opponent": "San Diego Clippers",
        "Home\\/Away": "Home",
        "Date": "January 11, 1979",
        "FGM": "24",
        "FGA": "33",
        "FTM": "4",
        "FTA": "",
        "3PM": "AC/EUR\""
    },
    {
        "Points": "50 (3 OT)",
        "Opponent": "Milwaukee Bucks",
        "Home\\/Away": "Home",
        "Date": "March 6, 1982",
        "FGM": "21",
        "FGA": "31",
        "FTM": "8",
        "FTA": "",
        "3PM": "0"
    },
    {
        "Points": "49",
        "Opponent": "Boston Celtics",
        "Home\\/Away": "Home",
        "Date": "February 17, 1981",
        "FGM": "17",
        "FGA": "",
        "FTM": "15",
        "FTA": "",
        "3PM": "0"
    },
    {
        "Points": "49",
        "Opponent": "Detroit Pistons",
        "Home\\/Away": "Home",
        "Date": "February 17, 1982",
        "FGM": "22",
        "FGA": "29",
        "FTM": "5",
        "FTA": "",
        "3PM": "0"
    },
    {
        "Points": "48",
        "Opponent": "Boston Celtics",
        "Home\\/Away": "Home",
        "Date": "March 4, 1982",
        "FGM": "17",
        "FGA": "",
        "FTM": "14",
        "FTA": "",
        "3PM": "0"
    },
    {
        "Points": "47",
        "Opponent": "Cleveland Cavaliers",
        "Home\\/Away": "Away",
        "Date": "October 18, 1979",
        "FGM": "21",
        "FGA": "35",
        "FTM": "4",
        "FTA": "",
        "3PM": "1"
    },
    {
        "Points": "47 (OT)",
        "Opponent": "Golden State Warriors",
        "Home\\/Away": "Home",
        "Date": "November 13, 1979",
        "FGM": "22",
        "FGA": "33",
        "FTM": "3",
        "FTA": "",
        "3PM": "0"
    },
    {
        "Points": "47",
        "Opponent": "Seattle SuperSonics",
        "Home\\/Away": "Away",
        "Date": "November 13, 1981",
        "FGM": "15",
        "FGA": "",
        "FTM": "17",
        "FTA": "18",
        "3PM": "0"
    },
    {
        "Points": "47",
        "Opponent": "Portland Trail Blazers",
        "Home\\/Away": "Away",
        "Date": "January 5, 1982",
        "FGM": "19",
        "FGA": "30",
        "FTM": "8",
        "FTA": "9",
        "3PM": "1"
    },
    {
        "Points": "47",
        "Opponent": "Utah Jazz",
        "Home\\/Away": "Away",
        "Date": "March 27, 1982",
        "FGM": "18",
        "FGA": "",
        "FTM": "11",
        "FTA": "",
        "3PM": "0"
    },
    {
        "Points": "47",
        "Opponent": "Phoenix Suns",
        "Home\\/Away": "Home",
        "Date": "November 7, 1982",
        "FGM": "16",
        "FGA": "31",
        "FTM": "14",
        "FTA": "14",
        "3PM": "1"
    },
    {
        "Points": "47",
        "Opponent": "New Jersey Nets",
        "Home\\/Away": "Home",
        "Date": "January 29, 1985",
        "FGM": "16",
        "FGA": "25",
        "FTM": "15",
        "FTA": "18",
        "3PM": "0"
    },
    {
        "Points": "46",
        "Opponent": "San Diego Clippers",
        "Home\\/Away": "Away",
        "Date": "October 18, 1978",
        "FGM": "16",
        "FGA": "",
        "FTM": "14",
        "FTA": "",
        "3PM": "AC/EUR\""
    },
    {
        "Points": "46",
        "Opponent": "Houston Rockets",
        "Home\\/Away": "Home",
        "Date": "March 30, 1979",
        "FGM": "15",
        "FGA": "",
        "FTM": "16",
        "FTA": "18",
        "3PM": "AC/EUR\""
    },
    {
        "Points": "46",
        "Opponent": "Cleveland Cavaliers",
        "Home\\/Away": "Away",
        "Date": "April 3, 1979",
        "FGM": "18",
        "FGA": "27",
        "FTM": "10",
        "FTA": "",
        "3PM": "AC/EUR\""
    },
    {
        "Points": "46",
        "Opponent": "Philadelphia 76ers",
        "Home\\/Away": "Home",
        "Date": "December 27, 1979",
        "FGM": "14",
        "FGA": "",
        "FTM": "18",
        "FTA": "21",
        "3PM": "0"
    },
    {
        "Points": "46",
        "Opponent": "San Diego Clippers",
        "Home\\/Away": "Home",
        "Date": "December 29, 1981",
        "FGM": "21",
        "FGA": "31",
        "FTM": "4",
        "FTA": "",
        "3PM": "0"
    },
    {
        "Points": "46",
        "Opponent": "Washington Bullets",
        "Home\\/Away": "Home",
        "Date": "April 18, 1978",
        "FGM": "17",
        "FGA": "32",
        "FTM": "12",
        "FTA": "15",
        "3PM": "AC/EUR\""
    },
    {
        "Points": "45",
        "Opponent": "Portland Trail Blazers",
        "Home\\/Away": "Home",
        "Date": "December 4, 1981",
        "FGM": "20",
        "FGA": "30",
        "FTM": "5",
        "FTA": "",
        "3PM": "0"
    },
    {
        "Points": "45",
        "Opponent": "Golden State Warriors",
        "Home\\/Away": "Away",
        "Date": "January 7, 1982",
        "FGM": "15",
        "FGA": "",
        "FTM": "15",
        "FTA": "",
        "3PM": "0"
    },
    {
        "Points": "45",
        "Opponent": "Dallas Mavericks",
        "Home\\/Away": "Away",
        "Date": "November 27, 1982",
        "FGM": "18",
        "FGA": "39",
        "FTM": "9",
        "FTA": "",
        "3PM": "0"
    },
    {
        "Points": "45",
        "Opponent": "Dallas Mavericks",
        "Home\\/Away": "Away",
        "Date": "January 27, 1986",
        "FGM": "15",
        "FGA": "29",
        "FTM": "15",
        "FTA": "16",
        "3PM": "0"
    },
    {
        "Points": "44",
        "Opponent": "Chicago Bulls",
        "Home\\/Away": "Home",
        "Date": "November 26, 1982",
        "FGM": "17",
        "FGA": "31",
        "FTM": "10",
        "FTA": "12",
        "3PM": "0"
    },
    {
        "Points": "44",
        "Opponent": "Kansas City Kings",
        "Home\\/Away": "Home",
        "Date": "December 29, 1983",
        "FGM": "16",
        "FGA": "27",
        "FTM": "12",
        "FTA": "13",
        "3PM": "0"
    },
    {
        "Points": "44",
        "Opponent": "Houston Rockets",
        "Home\\/Away": "Home",
        "Date": "April 4, 1980",
        "FGM": "",
        "FGA": "",
        "FTM": "",
        "FTA": "",
        "3PM": ""
    },
    {
        "Points": "43",
        "Opponent": "Detroit Pistons",
        "Home\\/Away": "Home",
        "Date": "October 28, 1978",
        "FGM": "16",
        "FGA": "",
        "FTM": "11",
        "FTA": "",
        "3PM": "AC/EUR\""
    },
    {
        "Points": "43",
        "Opponent": "Los Angeles Lakers",
        "Home\\/Away": "Away",
        "Date": "December 16, 1979",
        "FGM": "20",
        "FGA": "40",
        "FTM": "2",
        "FTA": "",
        "3PM": "1"
    },
    {
        "Points": "43 (OT)",
        "Opponent": "Washington Bullets",
        "Home\\/Away": "Away",
        "Date": "December 20, 1983",
        "FGM": "20",
        "FGA": "33",
        "FTM": "3",
        "FTA": "7",
        "3PM": "0"
    },
    {
        "Points": "43",
        "Opponent": "Philadelphia 76ers",
        "Home\\/Away": "Away",
        "Date": "December 21, 1983",
        "FGM": "16",
        "FGA": "26",
        "FTM": "11",
        "FTA": "15",
        "3PM": "0"
    },
    {
        "Points": "42 (OT)",
        "Opponent": "Seattle SuperSonics",
        "Home\\/Away": "Away",
        "Date": "January 30, 1977",
        "FGM": "14",
        "FGA": "",
        "FTM": "14",
        "FTA": "",
        "3PM": "AC/EUR\""
    },
    {
        "Points": "42",
        "Opponent": "Kansas City Kings",
        "Home\\/Away": "Away",
        "Date": "January 29, 1978",
        "FGM": "19",
        "FGA": "25",
        "FTM": "4",
        "FTA": "",
        "3PM": "AC/EUR\""
    },
    {
        "Points": "42",
        "Opponent": "Washington Bullets",
        "Home\\/Away": "Home",
        "Date": "May 11, 1979",
        "FGM": "19",
        "FGA": "31",
        "FTM": "4",
        "FTA": "6",
        "3PM": "AC/EUR\""
    },
    {
        "Points": "42",
        "Opponent": "Washington Bullets",
        "Home\\/Away": "Away",
        "Date": "May 18, 1979",
        "FGM": "16",
        "FGA": "31",
        "FTM": "10",
        "FTA": "13",
        "3PM": "AC/EUR\""
    },
    {
        "Points": "42",
        "Opponent": "Philadelphia 76ers",
        "Home\\/Away": "Away",
        "Date": "December 5, 1979",
        "FGM": "17",
        "FGA": "",
        "FTM": "7",
        "FTA": "",
        "3PM": "1"
    },
    {
        "Points": "42",
        "Opponent": "Phoenix Suns",
        "Home\\/Away": "Home",
        "Date": "January 2, 1980",
        "FGM": "18",
        "FGA": "",
        "FTM": "6",
        "FTA": "",
        "3PM": "0"
    },
    {
        "Points": "42",
        "Opponent": "Cleveland Cavaliers",
        "Home\\/Away": "Away",
        "Date": "January 17, 1980",
        "FGM": "16",
        "FGA": "",
        "FTM": "8",
        "FTA": "",
        "3PM": "2"
    },
    {
        "Points": "42",
        "Opponent": "Washington Bullets",
        "Home\\/Away": "Home",
        "Date": "January 19, 1980",
        "FGM": "18",
        "FGA": "34",
        "FTM": "6",
        "FTA": "7",
        "3PM": "0"
    },
    {
        "Points": "42",
        "Opponent": "Milwaukee Bucks",
        "Home\\/Away": "Home",
        "Date": "February 17, 1980",
        "FGM": "18",
        "FGA": "",
        "FTM": "6",
        "FTA": "",
        "3PM": "0"
    },
    {
        "Points": "42",
        "Opponent": "Golden State Warriors",
        "Home\\/Away": "Away",
        "Date": "November 1, 1980",
        "FGM": "16",
        "FGA": "",
        "FTM": "10",
        "FTA": "",
        "3PM": "0"
    },
    {
        "Points": "42",
        "Opponent": "Washington Bullets",
        "Home\\/Away": "Away",
        "Date": "December 1, 1981",
        "FGM": "17",
        "FGA": "30",
        "FTM": "8",
        "FTA": "10",
        "3PM": "0"
    },
    {
        "Points": "42",
        "Opponent": "Houston Rockets",
        "Home\\/Away": "Home",
        "Date": "December 30, 1981",
        "FGM": "17",
        "FGA": "",
        "FTM": "8",
        "FTA": "",
        "3PM": "0"
    },
    {
        "Points": "42",
        "Opponent": "Washington Bullets",
        "Home\\/Away": "Home",
        "Date": "February 9, 1982",
        "FGM": "16",
        "FGA": "28",
        "FTM": "10",
        "FTA": "13",
        "3PM": "0"
    },
    {
        "Points": "42",
        "Opponent": "San Diego Clippers",
        "Home\\/Away": "Away",
        "Date": "November 11, 1982",
        "FGM": "16",
        "FGA": "27",
        "FTM": "9",
        "FTA": "10",
        "3PM": "1"
    },
    {
        "Points": "42",
        "Opponent": "Kansas City Kings",
        "Home\\/Away": "Away",
        "Date": "February 25, 1983",
        "FGM": "12",
        "FGA": "",
        "FTM": "18",
        "FTA": "22",
        "3PM": "0"
    },
    {
        "Points": "42",
        "Opponent": "Denver Nuggets",
        "Home\\/Away": "Home",
        "Date": "April 26, 1983",
        "FGM": "17",
        "FGA": "22",
        "FTM": "8",
        "FTA": "8",
        "3PM": "0"
    },
    {
        "Points": "42",
        "Opponent": "San Diego Clippers",
        "Home\\/Away": "Away",
        "Date": "March 18, 1984",
        "FGM": "14",
        "FGA": "29",
        "FTM": "14",
        "FTA": "15",
        "3PM": "0"
    },
    {
        "Points": "42",
        "Opponent": "Cleveland Cavaliers",
        "Home\\/Away": "Home",
        "Date": "November 10, 1984",
        "FGM": "18",
        "FGA": "23",
        "FTM": "6",
        "FTA": "6",
        "3PM": "0"
    },
    {
        "Points": "42",
        "Opponent": "Houston Rockets",
        "Home\\/Away": "Away",
        "Date": "January 25, 1985",
        "FGM": "21",
        "FGA": "26",
        "FTM": "0",
        "FTA": "0",
        "3PM": "0"
    },
    {
        "Points": "41",
        "Opponent": "Portland Trail Blazers",
        "Home\\/Away": "Home",
        "Date": "January 23, 1977",
        "FGM": "14",
        "FGA": "",
        "FTM": "13",
        "FTA": "",
        "3PM": "AC/EUR\""
    },
    {
        "Points": "41",
        "Opponent": "Seattle SuperSonics",
        "Home\\/Away": "Home",
        "Date": "March 8, 1978",
        "FGM": "15",
        "FGA": "",
        "FTM": "11",
        "FTA": "",
        "3PM": "AC/EUR\""
    },
    {
        "Points": "41",
        "Opponent": "Detroit Pistons",
        "Home\\/Away": "Away",
        "Date": "October 26, 1979",
        "FGM": "17",
        "FGA": "",
        "FTM": "6",
        "FTA": "7",
        "3PM": "1"
    },
    {
        "Points": "41",
        "Opponent": "Denver Nuggets",
        "Home\\/Away": "Away",
        "Date": "December 11, 1979",
        "FGM": "14",
        "FGA": "",
        "FTM": "12",
        "FTA": "",
        "3PM": "1"
    },
    {
        "Points": "41",
        "Opponent": "Houston Rockets",
        "Home\\/Away": "Home",
        "Date": "February 12, 1980",
        "FGM": "15",
        "FGA": "",
        "FTM": "8",
        "FTA": "",
        "3PM": "3"
    },
    {
        "Points": "41",
        "Opponent": "New Jersey Nets",
        "Home\\/Away": "Away",
        "Date": "February 24, 1980",
        "FGM": "16",
        "FGA": "27",
        "FTM": "9",
        "FTA": "9",
        "3PM": "0"
    },
    {
        "Points": "41",
        "Opponent": "Washington Bullets",
        "Home\\/Away": "Away",
        "Date": "March 11, 1980",
        "FGM": "16",
        "FGA": "30",
        "FTM": "9",
        "FTA": "10",
        "3PM": "0"
    },
    {
        "Points": "41",
        "Opponent": "Indiana Pacers",
        "Home\\/Away": "Home",
        "Date": "March 21, 1980",
        "FGM": "15",
        "FGA": "",
        "FTM": "11",
        "FTA": "",
        "3PM": "0"
    },
    {
        "Points": "41",
        "Opponent": "Portland Trail Blazers",
        "Home\\/Away": "Away",
        "Date": "December 7, 1980",
        "FGM": "17",
        "FGA": "",
        "FTM": "7",
        "FTA": "",
        "3PM": "0"
    },
    {
        "Points": "41",
        "Opponent": "Cleveland Cavaliers",
        "Home\\/Away": "Away",
        "Date": "March 20, 1982",
        "FGM": "16",
        "FGA": "",
        "FTM": "6",
        "FTA": "",
        "3PM": "3"
    },
    {
        "Points": "41 (OT)",
        "Opponent": "Detroit Pistons",
        "Home\\/Away": "Home",
        "Date": "February 8, 1983",
        "FGM": "19",
        "FGA": "31",
        "FTM": "3",
        "FTA": "4",
        "3PM": "0"
    },
    {
        "Points": "41",
        "Opponent": "New York Knicks",
        "Home\\/Away": "Home",
        "Date": "January 31, 1984",
        "FGM": "19",
        "FGA": "31",
        "FTM": "3",
        "FTA": "6",
        "3PM": "0"
    },
    {
        "Points": "41",
        "Opponent": "Denver Nuggets",
        "Home\\/Away": "Away",
        "Date": "April 20, 1985",
        "FGM": "16",
        "FGA": "25",
        "FTM": "9",
        "FTA": "11",
        "3PM": "0"
    },
    {
        "Points": "40",
        "Opponent": "Kansas City Kings",
        "Home\\/Away": "Away",
        "Date": "March 25, 1978",
        "FGM": "15",
        "FGA": "",
        "FTM": "10",
        "FTA": "",
        "3PM": "AC/EUR\""
    },
    {
        "Points": "40",
        "Opponent": "New York Knicks",
        "Home\\/Away": "Home",
        "Date": "March 7, 1980",
        "FGM": "15",
        "FGA": "",
        "FTM": "8",
        "FTA": "12",
        "3PM": "2"
    },
    {
        "Points": "40",
        "Opponent": "Utah Jazz",
        "Home\\/Away": "Home",
        "Date": "December 12, 1981",
        "FGM": "18",
        "FGA": "33",
        "FTM": "4",
        "FTA": "",
        "3PM": "0"
    },
    {
        "Points": "40",
        "Opponent": "Detroit Pistons",
        "Home\\/Away": "Away",
        "Date": "February 25, 1982",
        "FGM": "18",
        "FGA": "31",
        "FTM": "4",
        "FTA": "",
        "3PM": "0"
    },
    {
        "Points": "40",
        "Opponent": "San Diego Clippers",
        "Home\\/Away": "Away",
        "Date": "March 9, 1982",
        "FGM": "14",
        "FGA": "",
        "FTM": "12",
        "FTA": "",
        "3PM": "0"
    },
    {
        "Points": "40",
        "Opponent": "Washington Bullets",
        "Home\\/Away": "Away",
        "Date": "November 17, 1982",
        "FGM": "14",
        "FGA": "29",
        "FTM": "12",
        "FTA": "15",
        "3PM": "0"
    },
    {
        "Points": "40",
        "Opponent": "Los Angeles Lakers",
        "Home\\/Away": "Away",
        "Date": "February 15, 1983",
        "FGM": "16",
        "FGA": "24",
        "FTM": "8",
        "FTA": "9",
        "3PM": "0"
    },
    {
        "Points": "40",
        "Opponent": "Dallas Mavericks",
        "Home\\/Away": "Away",
        "Date": "April 16, 1983",
        "FGM": "15",
        "FGA": "",
        "FTM": "10",
        "FTA": "",
        "3PM": "0"
    },
    {
        "Points": "40",
        "Opponent": "Houston Rockets",
        "Home\\/Away": "Home",
        "Date": "January 13, 1984",
        "FGM": "15",
        "FGA": "26",
        "FTM": "10",
        "FTA": "12",
        "3PM": "0"
    },
    {
        "Points": "40",
        "Opponent": "Golden State Warriors",
        "Home\\/Away": "Away",
        "Date": "February 2, 1984",
        "FGM": "17",
        "FGA": "31",
        "FTM": "6",
        "FTA": "6",
        "3PM": "0"
    }
]