[
    {
        "NO-HEADER0": "f",
        "Period valid": "to 1923",
        "Meaning": "Stalls for race horses (Luxuspferde)"
    },
    {
        "NO-HEADER0": "g",
        "Period valid": "from 1951 (DB)",
        "Meaning": "Floor hatches for unloading bulk material"
    },
    {
        "NO-HEADER0": "i",
        "Period valid": "1911 to 1927 (?)",
        "Meaning": "End platforms, suitable for passengers"
    },
    {
        "NO-HEADER0": "k",
        "Period valid": "1924 to 1944",
        "Meaning": "Refrigerated (Kuhleinrichtung') (from 1945 several formed the main letter class T, see above)"
    },
    {
        "NO-HEADER0": "k",
        "Period valid": "from 1951 (DR)",
        "Meaning": "Refrigerator van (Kuhlwagen), old type"
    },
    {
        "NO-HEADER0": "ll",
        "Period valid": "from 1933",
        "Meaning": "Pair of close-coupled vans for part-load goods, known as a Leig-Einheit"
    },
    {
        "NO-HEADER0": "p",
        "Period valid": "from 1924 (DB only to 1950)",
        "Meaning": "Six-wheeled, dead weight 16 tons"
    },
    {
        "NO-HEADER0": "t",
        "Period valid": "from 1924",
        "Meaning": "End doors (Stirnwandturen)"
    },
    {
        "NO-HEADER0": "trieb",
        "Period valid": "from 1933 to 1960",
        "Meaning": "Goods railbuses (Gutertriebwagen) (all were left with the DB after the war)"
    },
    {
        "NO-HEADER0": "v",
        "Period valid": "1924 to 1932",
        "Meaning": "End loading doors and special ventilation for livestock transportation (Viehbeforderung)"
    },
    {
        "NO-HEADER0": "v",
        "Period valid": "from 1933",
        "Meaning": "Stable wagon with groom compartment"
    },
    {
        "NO-HEADER0": "x",
        "Period valid": "from 1951 (DR)",
        "Meaning": "Fixed (internal?) walls for grain transportation"
    }
]