[
    {
        "Year": "2001",
        "Competition": "International Festival \\School of Muses\"[5]\"",
        "City": "Moscow",
        "Result": "Laureate",
        "Additional Prizes": ""
    },
    {
        "Year": "2002",
        "Competition": "International Frederic Chopin Piano Competition[6]",
        "City": "Narva",
        "Result": "Grand Prix",
        "Additional Prizes": ""
    },
    {
        "Year": "2003",
        "Competition": "International Mikalojus Konstantinas A\"OEiurlionis Piano and Organ Competition",
        "City": "Vilnius",
        "Result": "Final Diploma",
        "Additional Prizes": ""
    },
    {
        "Year": "2004",
        "Competition": "Montreal International Musical Competition[7]",
        "City": "Montreal",
        "Result": "Final Diploma",
        "Additional Prizes": ""
    },
    {
        "Year": "2005",
        "Competition": "Yamaha Piano Competition",
        "City": "Vilnius",
        "Result": "1st Prize",
        "Additional Prizes": ""
    },
    {
        "Year": "2006",
        "Competition": "International Tallinn Piano Competition[8]",
        "City": "Tallinn",
        "Result": "Final Diploma",
        "Additional Prizes": ""
    },
    {
        "Year": "2007",
        "Competition": "International Competition \\Piano Campus\"[9]\"",
        "City": "Pontoise",
        "Result": "3rd Prize",
        "Additional Prizes": "Audience Award, Orchestra Award & Composer Award"
    },
    {
        "Year": "2007",
        "Competition": "International Mikalojus Konstantinas A\"OEiurlionis Piano and Organ Competition[10][11]",
        "City": "Vilnius",
        "Result": "3rd Prize",
        "Additional Prizes": "Special Prize, established be the A\"OEiurlionis Quartet"
    },
    {
        "Year": "2008",
        "Competition": "International Rhodos Piano Competition",
        "City": "Rhodos",
        "Result": "Final Diploma",
        "Additional Prizes": ""
    },
    {
        "Year": "2010",
        "Competition": "International Pinerolo Piano Competition[12]",
        "City": "Pinerolo",
        "Result": "2nd Prize",
        "Additional Prizes": "Special Prize for the best performance of a Beethoven Sonata, established by Patrizia Cerutti"
    },
    {
        "Year": "2010",
        "Competition": "International Piano Competition \\Neue Sterne\" [13]\"",
        "City": "Wernigerode",
        "Result": "2nd Prize",
        "Additional Prizes": ""
    },
    {
        "Year": "2010",
        "Competition": "International Piano Competition \\Palma de Mallorca\"[14]\"",
        "City": "Palma, Majorca",
        "Result": "1st Prize",
        "Additional Prizes": ""
    },
    {
        "Year": "2010",
        "Competition": "International Ibiza Piano Competition[15]",
        "City": "Cala de Sant Vicent",
        "Result": "2nd Prize",
        "Additional Prizes": ""
    },
    {
        "Year": "2011",
        "Competition": "International Frederic Chopin Piano Society Competition[16]",
        "City": "Hanover",
        "Result": "1st Prize",
        "Additional Prizes": ""
    },
    {
        "Year": "2011",
        "Competition": "Arthur Rubinstein International Piano Master Competition[17]",
        "City": "Tel-Aviv",
        "Result": "Semi-Final",
        "Additional Prizes": ""
    },
    {
        "Year": "2011",
        "Competition": "International Shenzhen Piano Concerto Competition",
        "City": "Shenzhen",
        "Result": "Semi-Final",
        "Additional Prizes": "Special Prize for an Outstanding Semi-Final Performance"
    }
]