[
    {
        "Tournament": "2012 Glory 70kg Slam Tournament",
        "Date": "November 3, 2012",
        "Weight class": "Lightweight (-70 kg\\/154.3 lb)",
        "Champion": "Giorgio Petrosyan",
        "Runner-up": "Robin van Roosmalen"
    },
    {
        "Tournament": "2012 Glory Heavyweight Grand Slam Tournament",
        "Date": "December 31, 2012",
        "Weight class": "Heavyweight (+95 kg\\/209.4 lb)",
        "Champion": "Semmy Schilt",
        "Runner-up": "Daniel GhiA...APSA\"f"
    },
    {
        "Tournament": "2013 Glory 65kg Slam Tournament",
        "Date": "May 3, 2013",
        "Weight class": "Featherweight (-65 kg\\/143.3 lb)",
        "Champion": "Yuta Kubo",
        "Runner-up": "Masaaki Noiri"
    },
    {
        "Tournament": "2013 Glory 95kg Slam Tournament",
        "Date": "June 22, 2013",
        "Weight class": "Light Heavyweight (-95 kg\\/209.4 lb)",
        "Champion": "Tyrone Spong",
        "Runner-up": "Danyo Ilunga"
    },
    {
        "Tournament": "2013 Glory Middleweight World Championship Tournament",
        "Date": "September 28, 2013",
        "Weight class": "Middleweight (-85 kg\\/187.4 lb)",
        "Champion": "Joe Schilling",
        "Runner-up": "Artem Levin"
    },
    {
        "Tournament": "2013 Glory Heavyweight World Championship Tournament",
        "Date": "October 12, 2013",
        "Weight class": "Heavyweight (+95 kg\\/209.4 lb)",
        "Champion": "Rico Verhoeven",
        "Runner-up": "Daniel GhiA^>A\"f"
    },
    {
        "Tournament": "2013 Glory Lightweight World Championship Tournament",
        "Date": "November 23, 2013",
        "Weight class": "Lightweight (-70 kg\\/154.3 lb)",
        "Champion": "Andy Ristie",
        "Runner-up": "Robin van Roosmalen"
    },
    {
        "Tournament": "2013 Glory Welterweight World Championship Tournament",
        "Date": "December 21, 2013",
        "Weight class": "Welterweight (-77 kg\\/169.8 lb)",
        "Champion": "Nieky Holzken",
        "Runner-up": "Joseph Valtellini"
    },
    {
        "Tournament": "2014 Glory Light Heavyweight World Championship Tournament",
        "Date": "April 12, 2014",
        "Weight class": "Light Heavyweight (-95 kg\\/209.4 lb)",
        "Champion": "Gokhan Saki",
        "Runner-up": "Tyrone Spong"
    },
    {
        "Tournament": "2014 Glory Middleweight Last Man Standing Tournament",
        "Date": "June 21, 2014",
        "Weight class": "Middleweight (-85 kg\\/187.4 lb)",
        "Champion": "Artem Levin",
        "Runner-up": "Joe Schilling"
    }
]