[
    {
        "Year": "2002",
        "International title": "The Cuckoo#",
        "Original title": "AAAAoAAAAoAAdeg",
        "Transliterated title (per BGN\\/PCGN standard)": "Kukushka",
        "Director(s)": "Rogozhkin, AleksandrAleksandr Rogozhkin",
        "Producer(s)": "Sergey Selyanov",
        "Ref(s)": "[2]"
    },
    {
        "Year": "2002",
        "International title": "War",
        "Original title": "AAA 3/4 AA1AA 1/2 AAdeg",
        "Transliterated title (per BGN\\/PCGN standard)": "Voyna",
        "Director(s)": "Balabanov, AlekseiAleksei Balabanov",
        "Producer(s)": "Sergey Selyanov",
        "Ref(s)": "[2]"
    },
    {
        "Year": "2002",
        "International title": "House of Fools",
        "Original title": "AAA 3/4 AA 1/4  AA'AAAAdegAAoAA 3/4 AA2",
        "Transliterated title (per BGN\\/PCGN standard)": "Dom durakov",
        "Director(s)": "Konchalovsky, AndreiAndrei Konchalovsky",
        "Producer(s)": "Felix Kleyman, Andrei Konchalovsky",
        "Ref(s)": "[2]"
    },
    {
        "Year": "2002",
        "International title": "The Star",
        "Original title": "AAA2AAuAA*AA'AAdeg",
        "Transliterated title (per BGN\\/PCGN standard)": "Zvezda",
        "Director(s)": "Lebedev, NikolayNikolay Lebedev",
        "Producer(s)": "Karen Shakhnazarov, Alexandr Litvinov",
        "Ref(s)": "[2]"
    },
    {
        "Year": "2002",
        "International title": "Letters to Else",
        "Original title": "AAA,AAAA 1/4 AAdeg AAo AAAA>>AAA*AAu",
        "Transliterated title (per BGN\\/PCGN standard)": "Pis'ma k El'ze",
        "Director(s)": "Maslennikov, IgorIgor Maslennikov",
        "Producer(s)": "Igor Maslennikov, Andrey Razumovskiy",
        "Ref(s)": "[2]"
    },
    {
        "Year": "2003",
        "International title": "The Return#",
        "Original title": "AAA 3/4 AA*AA2AAAdegAAAuAA 1/2 AA,AAu",
        "Transliterated title (per BGN\\/PCGN standard)": "Vozvrashchenie",
        "Director(s)": "Zvyagintsev, AndreyAndrey Zvyagintsev",
        "Producer(s)": "Dmitry Lesnevsky",
        "Ref(s)": "[4]"
    },
    {
        "Year": "2003",
        "International title": "Poor, Poor Pavel",
        "Original title": "AAAuAA'AA 1/2 AAA1 AA+-AAuAA'AA 1/2 AAA1 AAAdegAA2AAuAA>>",
        "Transliterated title (per BGN\\/PCGN standard)": "Bednyy, bednyy Pavel",
        "Director(s)": "Melnikov, VitalyVitaly Melnikov",
        "Producer(s)": "Andrey Zertsalov",
        "Ref(s)": "[4]"
    },
    {
        "Year": "2003",
        "International title": "Roads to Koktebel",
        "Original title": "AAA 3/4 AAoAAAuAA+-AAuAA>>A",
        "Transliterated title (per BGN\\/PCGN standard)": "Koktebel'",
        "Director(s)": "Hlebnikov, BorisBoris Hlebnikov, Popogrebski, AlexeiAlexei Popogrebski",
        "Producer(s)": "Roman Borisevich",
        "Ref(s)": "[4]"
    },
    {
        "Year": "2003",
        "International title": "Magnetic Storms",
        "Original title": "AAAdegAA3AA 1/2 AA,AAA 1/2 AAAu AA+-AAAA,",
        "Transliterated title (per BGN\\/PCGN standard)": "Magnitny*e buri",
        "Director(s)": "Abdrashitov, VadimVadim Abdrashitov",
        "Producer(s)": "Alexandr Potemkin",
        "Ref(s)": "[4]"
    },
    {
        "Year": "2003",
        "International title": "The Stroll",
        "Original title": "AAAA 3/4 AA3AAA>>AAoAAdeg",
        "Transliterated title (per BGN\\/PCGN standard)": "Progulka",
        "Director(s)": "Uchitel, AlexeiAlexei Uchitel",
        "Producer(s)": "Alexei Uchitel",
        "Ref(s)": "[4]"
    },
    {
        "Year": "2004",
        "International title": "72 Meters#",
        "Original title": "72 AA 1/4 AAuAAAAdeg",
        "Transliterated title (per BGN\\/PCGN standard)": "72 metra",
        "Director(s)": "Khotinenko, VladimirVladimir Khotinenko",
        "Producer(s)": "Anatolij Maximov, Konstantin Ernst, Leonid Bereshagin",
        "Ref(s)": "[5]"
    },
    {
        "Year": "2004",
        "International title": "A Driver for Vera",
        "Original title": "AAA 3/4 AA'AA,AAAuAA>>A AA'AA>>A AAAuAA",
        "Transliterated title (per BGN\\/PCGN standard)": "Voditel' dlya Very'",
        "Director(s)": "Chukhrai, PavelPavel Chukhrai",
        "Producer(s)": "Igor Tolstunov, Alexander Rodnyansky",
        "Ref(s)": "[5]"
    },
    {
        "Year": "2004",
        "International title": "My Step Brother Frankenstein",
        "Original title": "AAA 3/4 AA1 AAA2AA 3/4 AA'AA 1/2 AAA1 AA+-AAAdegA AA$?AAAdegAA 1/2 AAoAAuAA 1/2 AAAAuAA1AA 1/2 ",
        "Transliterated title (per BGN\\/PCGN standard)": "Moy Cvodnyy Brat Frankenshteyn",
        "Director(s)": "Todorovsky, ValeriValeri Todorovsky",
        "Producer(s)": "Leonid Yarmolnik",
        "Ref(s)": "[5]"
    },
    {
        "Year": "2004",
        "International title": "Daddy",
        "Original title": "AAAdegAA?AAdeg",
        "Transliterated title (per BGN\\/PCGN standard)": "Papa",
        "Director(s)": "Mashkov, VladimirVladimir Mashkov",
        "Producer(s)": "Igor Tolstunov, Vladimir Mashkov",
        "Ref(s)": "[5]"
    },
    {
        "Year": "2004",
        "International title": "Our Own",
        "Original title": "Svoi",
        "Transliterated title (per BGN\\/PCGN standard)": "Svoi",
        "Director(s)": "Meshiev, DmitryDmitry Meshiev",
        "Producer(s)": "Viktor Glukov, Sergey Melkumov, Elena Yacura",
        "Ref(s)": "[5]"
    },
    {
        "Year": "2005",
        "International title": "The 9th Company#",
        "Original title": "9 AAA 3/4 AAAdeg",
        "Transliterated title (per BGN\\/PCGN standard)": "9 rota",
        "Director(s)": "Bondarchuk, FedorFedor Bondarchuk",
        "Producer(s)": "Elena Yakura, Sergey Melkumov, Alexandr Rodnyansky",
        "Ref(s)": "[6]"
    },
    {
        "Year": "2005",
        "International title": "The Italian",
        "Original title": "AAAAdegAA>>AAAA 1/2 AAuA",
        "Transliterated title (per BGN\\/PCGN standard)": "Ital'yanets",
        "Director(s)": "Kravchuk, AndreyAndrey Kravchuk",
        "Producer(s)": "Andrey Zertsalov",
        "Ref(s)": "[6]"
    },
    {
        "Year": "2005",
        "International title": "Dreaming of Space",
        "Original title": "AAA 3/4 AAA 1/4 AA 3/4 A AAoAAdegAAo AA?AAAuAA'AAAA2AAAA2AA,AAu",
        "Transliterated title (per BGN\\/PCGN standard)": "Kosmos kak predchuvstvie",
        "Director(s)": "Uchitel, AlexeiAlexei Uchitel",
        "Producer(s)": "Alexei Uchitel",
        "Ref(s)": "[6]"
    },
    {
        "Year": "2005",
        "International title": "The State Counsellor",
        "Original title": "AA!AAAdegAAAAoAA,AA1 AAA 3/4 AA2AAuAAA 1/2 AA,AAo",
        "Transliterated title (per BGN\\/PCGN standard)": "Statskiy sovetnik",
        "Director(s)": "Yankovsky, FilippFilipp Yankovsky",
        "Producer(s)": "Nikita Mikhalkov, Leonid Bereshagin",
        "Ref(s)": "[6]"
    },
    {
        "Year": "2005",
        "International title": "The Turkish Gambit",
        "Original title": "AAC/AAAAuAAAoAA,AA1 AA3AAdegAA 1/4 AA+-AA,A",
        "Transliterated title (per BGN\\/PCGN standard)": "Tureckiy gambit",
        "Director(s)": "Faisiev, DjanikDjanik Faisiev",
        "Producer(s)": "Anatoly Maximov, Konstantin Ernst, Leonid Bereshagin",
        "Ref(s)": "[6]"
    },
    {
        "Year": "2006",
        "International title": "The Island#",
        "Original title": "AAAAAA 3/4 AA2",
        "Transliterated title (per BGN\\/PCGN standard)": "Ostrov",
        "Director(s)": "Lungin, PavelPavel Lungin",
        "Producer(s)": "Pavel Lungin, Sergey Shumakov",
        "Ref(s)": "[7]"
    },
    {
        "Year": "2006",
        "International title": "Day Watch",
        "Original title": "AAA 1/2 AAuAA2AA 1/2 AA 3/4 AA1 AA'AA 3/4 AA*AA 3/4 A",
        "Transliterated title (per BGN\\/PCGN standard)": "Dnevnoy dozor",
        "Director(s)": "Bekmambetov, TimurTimur Bekmambetov",
        "Producer(s)": "Anatoly Maximov, Konstantin Ernst",
        "Ref(s)": "[7]"
    },
    {
        "Year": "2006",
        "International title": "Alive",
        "Original title": "AAA,AA2AA 3/4 AA1",
        "Transliterated title (per BGN\\/PCGN standard)": "Zhivoy",
        "Director(s)": "Veledinsky, AlexandrAlexandr Veledinsky",
        "Producer(s)": "Sergey Chliyants",
        "Ref(s)": "[7]"
    },
    {
        "Year": "2006",
        "International title": "Playing the Victim",
        "Original title": "AAA*AA 3/4 AA+-AAAdegAAPAAdegA AAPAAuAAAA2A",
        "Transliterated title (per BGN\\/PCGN standard)": "Izobrazhaya zhertvu",
        "Director(s)": "Serebrennikov, KirillKirill Serebrennikov",
        "Producer(s)": "Natalia Mokritskaya, Ulyana Saveleva, Leonid Sagalsky",
        "Ref(s)": "[7]"
    },
    {
        "Year": "2006",
        "International title": "It Doesn't Hurt Me",
        "Original title": "AAA 1/2 AAu AA 1/2 AAu AA+-AA 3/4 AA>>AAA 1/2 AA 3/4 ",
        "Transliterated title (per BGN\\/PCGN standard)": "Mne ne bol'no",
        "Director(s)": "Selyanov, SergeySergey Selyanov",
        "Producer(s)": "Alexey Balabanov",
        "Ref(s)": "[7]"
    },
    {
        "Year": "2007",
        "International title": "12#",
        "Original title": "12",
        "Transliterated title (per BGN\\/PCGN standard)": "12",
        "Director(s)": "Mikhalkov, NikitaNikita Mikhalkov",
        "Producer(s)": "Nikita Mikhalkov, Leonid Bereshagin",
        "Ref(s)": "[8]"
    },
    {
        "Year": "2007",
        "International title": "Artistka",
        "Original title": "AAAAA,AAAAoAAdeg",
        "Transliterated title (per BGN\\/PCGN standard)": "Artistka",
        "Director(s)": "Govoruhin, StanislavStanislav Govoruhin",
        "Producer(s)": "Ekaterina Maskina",
        "Ref(s)": "[8]"
    },
    {
        "Year": "2007",
        "International title": "Mongol",
        "Original title": "Mongol",
        "Transliterated title (per BGN\\/PCGN standard)": "Mongol",
        "Director(s)": "Bodrov, SergeySergey Bodrov",
        "Producer(s)": "Sergey Selyanov, Sergey Bodrov, Anton Melnik",
        "Ref(s)": "[8]"
    },
    {
        "Year": "2007",
        "International title": "Simple Things",
        "Original title": "AAAA 3/4 AAAAAu AA2AAuAAA,",
        "Transliterated title (per BGN\\/PCGN standard)": "Prosty'e veshhi",
        "Director(s)": "Popogrevski, AlexeiAlexei Popogrevski",
        "Producer(s)": "Roman Borisevich",
        "Ref(s)": "[8]"
    },
    {
        "Year": "2007",
        "International title": "Travelling with Pets",
        "Original title": "AAAAAuAAAuAAAA2AA,AAu A AA'AA 3/4 AA 1/4 AAdegAAA 1/2 AA,AA 1/4 AA, AAPAA,AA2AA 3/4 AAA 1/2 AAA 1/4 AA,",
        "Transliterated title (per BGN\\/PCGN standard)": "Puteshestvie s domashnimi zhivotn*ymi",
        "Director(s)": "Storoshcheva, VeraVera Storoshcheva",
        "Producer(s)": "Sabina Eremeeva, Igor Tolstunov",
        "Ref(s)": "[8]"
    },
    {
        "Year": "2008",
        "International title": "Wild Field#",
        "Original title": "AAA,AAoAA 3/4 AAu AA?AA 3/4 AA>>AAu",
        "Transliterated title (per BGN\\/PCGN standard)": "Dikoe pole",
        "Director(s)": "Kalatozishvili, MikheilMikheil Kalatozishvili",
        "Producer(s)": "Sergey Sneshchkin, Andrey Bondarenko, Mikheil Kalatozishvili",
        "Ref(s)": "[9]"
    },
    {
        "Year": "2008",
        "International title": "Admiral",
        "Original title": "AAA'AA 1/4 AA,AAAdegAA>>A",
        "Transliterated title (per BGN\\/PCGN standard)": "AdmiralAC/",
        "Director(s)": "Kravchuk, AndreyAndrey Kravchuk",
        "Producer(s)": "Djanik Faisiev, Anatoly Maximov",
        "Ref(s)": "[9]"
    },
    {
        "Year": "2008",
        "International title": "Paper Soldier",
        "Original title": "AAAA 1/4 AAdegAAPAA 1/2 AAA1 AAA 3/4 AA>>AA'AAdegA",
        "Transliterated title (per BGN\\/PCGN standard)": "Bumazhnyy soldat",
        "Director(s)": "German, sen., AlexeiAlexei German, sen.",
        "Producer(s)": "Aretem Vasiliev, Sergey Shumakov",
        "Ref(s)": "[9]"
    },
    {
        "Year": "2008",
        "International title": "Everybody Dies But Me",
        "Original title": "AAAAu AAA 1/4 AAA, AAdeg A oAAAAdegAA 1/2 AAA",
        "Transliterated title (per BGN\\/PCGN standard)": "Vse umrut, a ya ostanus'",
        "Director(s)": "Germanika, Valeria GayValeria Gay Germanika",
        "Producer(s)": "Igor Tolstunov",
        "Ref(s)": "[9]"
    },
    {
        "Year": "2008",
        "International title": "Vanished Empire",
        "Original title": "AAAAAuAA*AA 1/2 AAA2AAAdegA AA,AA 1/4 AA?AAuAAA,A",
        "Transliterated title (per BGN\\/PCGN standard)": "Ischeznuvshaya imperiya",
        "Director(s)": "Shakhnazarov, KarenKaren Shakhnazarov",
        "Producer(s)": "Karen Shakhnazarov",
        "Ref(s)": "[9]"
    },
    {
        "Year": "2009",
        "International title": "Stilyagi#",
        "Original title": "AA!AAA,AA>>AAA3AA,",
        "Transliterated title (per BGN\\/PCGN standard)": "Stilyagi",
        "Director(s)": "Todorovsky, ValeryValery Todorovsky",
        "Producer(s)": "Leonid Lebedev, Leonid Yarmolnik, Vadim Goryanov, Valery Todorovsky",
        "Ref(s)": "[10]"
    },
    {
        "Year": "2009",
        "International title": "Anna Karenina",
        "Original title": "AAA 1/2 AA 1/2 AAdeg AAAdegAAAuAA 1/2 AA,AA 1/2 AAdeg",
        "Transliterated title (per BGN\\/PCGN standard)": "Anna Karenina",
        "Director(s)": "Soloviev, SergeySergey Soloviev",
        "Producer(s)": "Sergey Soloviev, Oleg Urushev",
        "Ref(s)": "[10]"
    },
    {
        "Year": "2009",
        "International title": "Ward No. 6",
        "Original title": "AAAdegAA>>AAdegAAAdeg AC/6",
        "Transliterated title (per BGN\\/PCGN standard)": "Palata No. 6",
        "Director(s)": "Shakhnazarov, KarenKaren Shakhnazarov",
        "Producer(s)": "Karen Shakhnazarov",
        "Ref(s)": "[10]"
    },
    {
        "Year": "2009",
        "International title": "Pete on the Way to Heaven",
        "Original title": "AAAuAA AA?AA 3/4  AA'AA 3/4 AAA 3/4 AA3AAu AA2 AAAdegAAAAA2AA,AAu AA 1/2 AAuAA+-AAuAAA 1/2 AA 3/4 AAu",
        "Transliterated title (per BGN\\/PCGN standard)": "Petya po doroge v tsarstvie nebesnoe",
        "Director(s)": "Dostal, NikolayNikolay Dostal",
        "Producer(s)": "Fedor Popov",
        "Ref(s)": "[10]"
    },
    {
        "Year": "2009",
        "International title": "Tsar",
        "Original title": "AA|AAdegAA",
        "Transliterated title (per BGN\\/PCGN standard)": "Tsar'",
        "Director(s)": "Lungin, PavelPavel Lungin",
        "Producer(s)": "Pavel Lungin",
        "Ref(s)": "[10]"
    },
    {
        "Year": "2010",
        "International title": "How I Ended This Summer#",
        "Original title": "AAAdegAAo A AA?AAA 3/4 AA2AAA>> AAAA,AA 1/4  AA>>AAuAAA 3/4 AA 1/4 ",
        "Transliterated title (per BGN\\/PCGN standard)": "Kak ya provyol etim letom",
        "Director(s)": "Popogrebski, AlexeiAlexei Popogrebski",
        "Producer(s)": "Roman Barisevich, Alexandr Kushaev",
        "Ref(s)": "[11]"
    },
    {
        "Year": "2010",
        "International title": "Brest Fortress",
        "Original title": "AAAAuAAAAAoAAdegA AAAAuAA?AA 3/4 AAA",
        "Transliterated title (per BGN\\/PCGN standard)": "Brestskaya Krepost'",
        "Director(s)": "Kott, AlexandrAlexandr Kott",
        "Producer(s)": "Igor Ugolnikov, Ruben Dishdishyan, Vladimir Zametalin",
        "Ref(s)": "[11]"
    },
    {
        "Year": "2010",
        "International title": "Kandagar",
        "Original title": "AAAdegAA 1/2 AA'AAdegAA3AAdegA",
        "Transliterated title (per BGN\\/PCGN standard)": "Kandagar",
        "Director(s)": "Kavun, AndreyAndrey Kavun",
        "Producer(s)": "Valery Todorovsky, Ilya Neretin",
        "Ref(s)": "[11]"
    },
    {
        "Year": "2010",
        "International title": "The Edge",
        "Original title": "AAAAdegAA1",
        "Transliterated title (per BGN\\/PCGN standard)": "Kray",
        "Director(s)": "Uchitel, AlexeiAlexei Uchitel",
        "Producer(s)": "Konstantin Ernst",
        "Ref(s)": "[11]"
    },
    {
        "Year": "2010",
        "International title": "Silent Souls",
        "Original title": "AAA2AAAA 1/2 AAoAA,",
        "Transliterated title (per BGN\\/PCGN standard)": "Ovsyanki",
        "Director(s)": "Fedorchenko, AlexeyAlexey Fedorchenko",
        "Producer(s)": "Igor Mishin, Maria Nasari",
        "Ref(s)": "[11]"
    },
    {
        "Year": "2011",
        "International title": "Elena#",
        "Original title": "AAA>>AAuAA 1/2 AAdeg",
        "Transliterated title (per BGN\\/PCGN standard)": "Yelyena",
        "Director(s)": "Zvyagintsev, AndreyAndrey Zvyagintsev",
        "Producer(s)": "Alexander Rodnyansky",
        "Ref(s)": "[12]"
    },
    {
        "Year": "2011",
        "International title": "Sundays",
        "Original title": "A AAAA+-AA+-AA 3/4 AA",
        "Transliterated title (per BGN\\/PCGN standard)": "V subbotu",
        "Director(s)": "Mindadze, AleksandrAleksandr Mindadze",
        "Producer(s)": "Dmitry Efremov, Oleg Kokhan, Alexander Rodnyansky, Mathias Esche",
        "Ref(s)": "[12]"
    },
    {
        "Year": "2011",
        "International title": "Two Days",
        "Original title": "AAA2AAdeg AA'AA 1/2 A",
        "Transliterated title (per BGN\\/PCGN standard)": "Dva dnya",
        "Director(s)": "Smirnova, AvdotiyaAvdotiya Smirnova",
        "Producer(s)": "Fedor Bondarchuk, Dmitry Rudovsky, Ruben Dishdishyan",
        "Ref(s)": "[12]"
    },
    {
        "Year": "2011",
        "International title": "The House",
        "Original title": "AAA 3/4 AA 1/4 ",
        "Transliterated title (per BGN\\/PCGN standard)": "Dom",
        "Director(s)": "Pogodin, OlegOleg Pogodin",
        "Producer(s)": "Sergey Selyanikov, Denis Frolov, Sergey Daniyelyan",
        "Ref(s)": "[12]"
    },
    {
        "Year": "2011",
        "International title": "Shapito Show",
        "Original title": "AA\"AAdegAA?AA,AAA 3/4 -AAA 3/4 A",
        "Transliterated title (per BGN\\/PCGN standard)": "Shapito-shou",
        "Director(s)": "Loban, SergeySergey Loban",
        "Producer(s)": "Ekaterina Gerasicheva, Aleksey Ageyev, Mikhail Sinyov",
        "Ref(s)": "[12]"
    },
    {
        "Year": "2012",
        "International title": "White Tiger#",
        "Original title": "AAAuAA>>AAA1 AAA,AA3A",
        "Transliterated title (per BGN\\/PCGN standard)": "Belyy tigr",
        "Director(s)": "Shakhnazarov, KarenKaren Shakhnazarov",
        "Producer(s)": "Karen Shakhnazarov, Galina Shadur",
        "Ref(s)": "[13]"
    },
    {
        "Year": "2012",
        "International title": "Vysotsky. Thank You For Being Alive",
        "Original title": "AAAAA 3/4 AAAoAA,AA1. AA!AA?AAdegAAA,AA+-AA 3/4 , AAAA 3/4  AAPAA,AA2AA 3/4 AA1",
        "Transliterated title (per BGN\\/PCGN standard)": "Vysotskiy. Spasibo, chto zhivoy",
        "Director(s)": "Buslov, PyotrPyotr Buslov",
        "Producer(s)": "Konstantin Ernst, Anatoly Maksimov, Michael Schlicht, Nikita Vysotsky",
        "Ref(s)": "[13]"
    },
    {
        "Year": "2012",
        "International title": "Soulless",
        "Original title": "AAA less",
        "Transliterated title (per BGN\\/PCGN standard)": "Dukhless",
        "Director(s)": "Prygunov, RomanRoman Prygunov",
        "Producer(s)": "Petr Anurov, Dmitriy Rudovskiy, Fedor Bondarchuk",
        "Ref(s)": "[13]"
    },
    {
        "Year": "2012",
        "International title": "The Horde",
        "Original title": "AAAA'AAdeg",
        "Transliterated title (per BGN\\/PCGN standard)": "Orda",
        "Director(s)": "Proshkin, AndreiAndrei Proshkin",
        "Producer(s)": "Natalya Gostyushina, Sergey Kravets",
        "Ref(s)": "[13]"
    },
    {
        "Year": "2012",
        "International title": "Spy",
        "Original title": "Shpion",
        "Transliterated title (per BGN\\/PCGN standard)": "Shpion",
        "Director(s)": "Andrianov, AlexeyAlexey Andrianov",
        "Producer(s)": "Leonid Vereshchagin, Sergey Shumakov",
        "Ref(s)": "[13]"
    },
    {
        "Year": "2013",
        "International title": "Legend AC/\"- 17#",
        "Original title": "AAAuAA3AAuAA 1/2 AA'AAdeg AC/ 17",
        "Transliterated title (per BGN\\/PCGN standard)": "Legenda AC/\"- 17",
        "Director(s)": "Lebedev, NikolayNikolay Lebedev",
        "Producer(s)": "Leonid Vereshchagin, Anton Zlatopolsky, Nikita Mikhalkov",
        "Ref(s)": "[14]"
    },
    {
        "Year": "2013",
        "International title": "The Geographer Drank His Globe Away",
        "Original title": "AAAuAA 3/4 AA3AAAdegA AA3AA>>AA 3/4 AA+-AA AA?AAA 3/4 AA?AA,AA>>",
        "Transliterated title (per BGN\\/PCGN standard)": "Geograf globus propil",
        "Director(s)": "Veledinsky, AlexanderAlexander Veledinsky",
        "Producer(s)": "Vadim Goryanov, Leonid Lebedev, Valery Todorovsky",
        "Ref(s)": "[14]"
    },
    {
        "Year": "2013",
        "International title": "Gorko!",
        "Original title": "AAA 3/4 AAAAoAA 3/4 !",
        "Transliterated title (per BGN\\/PCGN standard)": "Gor'ko!",
        "Director(s)": "Kryzhovnikov, ZhoraZhora Kryzhovnikov",
        "Producer(s)": "Ilya Burets, Dmitry Nelidov, Sergey Svetlakov, Timur Bekmambetov",
        "Ref(s)": "[14]"
    },
    {
        "Year": "2013",
        "International title": "Ku! Kin-dza-dza",
        "Original title": "AA! AAA,AA 1/2 -AA'AA*AAdeg-AA'AA*AAdeg",
        "Transliterated title (per BGN\\/PCGN standard)": "Ku! Kin-dza-dza",
        "Director(s)": "Danelia, GeorgyGeorgy Danelia, Ilyina, TatianaTatiana Ilyina",
        "Producer(s)": "Yuri Kushnerev, Sergey Selyanov, Oleg Urushev, Leonid Yarmolnik, Konstantin Ernst",
        "Ref(s)": "[14]"
    },
    {
        "Year": "2013",
        "International title": "Stalingrad",
        "Original title": "AA!AAAdegAA>>AA,AA 1/2 AA3AAAdegAA'",
        "Transliterated title (per BGN\\/PCGN standard)": "Stalingrad",
        "Director(s)": "Bondarchuk, FyodorFyodor Bondarchuk",
        "Producer(s)": "Alexander Rodnyansky, Anton Zlatopolsky, Dmitry Rudovsky, Sergey Melkumov",
        "Ref(s)": "[14]"
    },
    {
        "Year": "2014",
        "International title": "Sunstroke#",
        "Original title": "AA!AA 3/4 AA>>AA 1/2 AAuAAA 1/2 AAA1 AAA'AAdegA",
        "Transliterated title (per BGN\\/PCGN standard)": "Solnechny udar",
        "Director(s)": "Mikhalkov, NikitaNikita Mikhalkov",
        "Producer(s)": "Leonid Vereshchagin, Anton Zlatopolsky, Nikita Mikhalkov",
        "Ref(s)": "[15]"
    },
    {
        "Year": "2014",
        "International title": "The Postman's White Nights",
        "Original title": "AAAuAA>>AAAu AA 1/2 AA 3/4 AAA, AA?AA 3/4 AAAAdegAA>>AAA 3/4 AA 1/2 AAdeg AAA>>AAuAAoAAAuA AAC/AAAA?AA,AAAA 1/2 AAdeg",
        "Transliterated title (per BGN\\/PCGN standard)": "Belye nochi pochtalyona Alekseya Tryapitsyna",
        "Director(s)": "Konchalovsky, AndreyAndrey Konchalovsky",
        "Producer(s)": "Andrey Konchalovsky",
        "Ref(s)": "[15]"
    },
    {
        "Year": "2014",
        "International title": "The Star",
        "Original title": "AAA2AAuAA*AA'AAdeg",
        "Transliterated title (per BGN\\/PCGN standard)": "Zvezda",
        "Director(s)": "Melikyan, AnnaAnna Melikyan",
        "Producer(s)": "Anna Melikyan, Ruben Dishidishyan",
        "Ref(s)": "[15]"
    },
    {
        "Year": "2014",
        "International title": "Leviathan",
        "Original title": "AAAuAA2AA,AAdegAAAdegAA 1/2 ",
        "Transliterated title (per BGN\\/PCGN standard)": "Leviafan",
        "Director(s)": "Zvyagintsev, AndreyAndrey Zvyagintsev",
        "Producer(s)": "Alexaner Rodnyansky, Sergey Melkumov",
        "Ref(s)": "[15]"
    },
    {
        "Year": "2014",
        "International title": "Weekend",
        "Original title": "Weekend",
        "Transliterated title (per BGN\\/PCGN standard)": "AC/EUR\"",
        "Director(s)": "Govorukhin, StanislavStanislav Govorukhin",
        "Producer(s)": "Stanislav Govorukhin, Ekaterina Maskina",
        "Ref(s)": "[15]"
    }
]