[
    {
        "Feature": "Currently available",
        "GT Force": "no",
        "Driving Force": "no",
        "Driving Force EX": "no",
        "Driving Force Pro": "no",
        "Driving Force GT": "yes",
        "G25 Racing Wheel": "no",
        "G27 Racing Wheel": "yes"
    },
    {
        "Feature": "Clutch pedal",
        "GT Force": "no",
        "Driving Force": "no",
        "Driving Force EX": "no",
        "Driving Force Pro": "no",
        "Driving Force GT": "no",
        "G25 Racing Wheel": "yes",
        "G27 Racing Wheel": "yes"
    },
    {
        "Feature": "Gear stick",
        "GT Force": "no",
        "Driving Force": "no",
        "Driving Force EX": "no",
        "Driving Force Pro": "yes",
        "Driving Force GT": "yes",
        "G25 Racing Wheel": "yes",
        "G27 Racing Wheel": "yes"
    },
    {
        "Feature": "Six-speed shifter",
        "GT Force": "no",
        "Driving Force": "no",
        "Driving Force EX": "no",
        "Driving Force Pro": "no",
        "Driving Force GT": "no",
        "G25 Racing Wheel": "yes",
        "G27 Racing Wheel": "yes"
    },
    {
        "Feature": "Sequential shifter",
        "GT Force": "yes",
        "Driving Force": "yes",
        "Driving Force EX": "yes",
        "Driving Force Pro": "yes",
        "Driving Force GT": "yes",
        "G25 Racing Wheel": "yes",
        "G27 Racing Wheel": "no"
    },
    {
        "Feature": "Real-Time Adjustments Dial",
        "GT Force": "no",
        "Driving Force": "no",
        "Driving Force EX": "no",
        "Driving Force Pro": "no",
        "Driving Force GT": "yes",
        "G25 Racing Wheel": "no",
        "G27 Racing Wheel": "no"
    },
    {
        "Feature": "Wheel size",
        "GT Force": "TBC",
        "Driving Force": "TBC",
        "Driving Force EX": "25 cm (10-inch)",
        "Driving Force Pro": "25 cm (10-inch)",
        "Driving Force GT": "28 cm (11-inch)",
        "G25 Racing Wheel": "28 cm (11-inch)",
        "G27 Racing Wheel": "28 cm (11-inch)"
    },
    {
        "Feature": "Steering range (degrees)",
        "GT Force": "200",
        "Driving Force": "200",
        "Driving Force EX": "200",
        "Driving Force Pro": "900",
        "Driving Force GT": "900",
        "G25 Racing Wheel": "900",
        "G27 Racing Wheel": "900"
    },
    {
        "Feature": "Steering wheel cover",
        "GT Force": "Rubber",
        "Driving Force": "Rubber",
        "Driving Force EX": "Rubber",
        "Driving Force Pro": "Rubber",
        "Driving Force GT": "Rubber",
        "G25 Racing Wheel": "Leather",
        "G27 Racing Wheel": "Leather"
    },
    {
        "Feature": "D-pad \\/ action buttons",
        "GT Force": "yes",
        "Driving Force": "yes",
        "Driving Force EX": "yes",
        "Driving Force Pro": "yes",
        "Driving Force GT": "yes",
        "G25 Racing Wheel": "12",
        "G27 Racing Wheel": "16"
    }
]