[
    {
        "[6]": "[6]",
        "Name": "Name",
        "Vote": "Vote",
        "%": "%"
    },
    {
        "[6]": "",
        "Name": "Bill Braden",
        "Vote": "274",
        "%": "35.72%"
    },
    {
        "[6]": "",
        "Name": "Suzette Montreuil",
        "Vote": "152",
        "%": "19.82%"
    },
    {
        "[6]": "",
        "Name": "Marie Coe",
        "Vote": "150",
        "%": "19.56%"
    },
    {
        "[6]": "",
        "Name": "Bill Enge",
        "Vote": "144",
        "%": "18.78%"
    },
    {
        "[6]": "",
        "Name": "Roy Desjarlais",
        "Vote": "47",
        "%": "6.12%"
    },
    {
        "[6]": "Total",
        "Name": "767",
        "Vote": "100%",
        "%": ""
    },
    {
        "[6]": "Voter Turnout 62.11%",
        "Name": "Rejected Ballots 5",
        "Vote": "",
        "%": ""
    }
]