[
    {
        "Year": "2005",
        "Team Name": "Greenville Bombers",
        "Wins": "72",
        "Losses": "66",
        "W-L %": ".522",
        "Manager": "Chad Epperson"
    },
    {
        "Year": "2006",
        "Team Name": "Greenville Drive",
        "Wins": "67",
        "Losses": "73",
        "W-L %": ".479",
        "Manager": "Luis Alicea"
    },
    {
        "Year": "2007",
        "Team Name": "Greenville Drive",
        "Wins": "58",
        "Losses": "81",
        "W-L %": ".417",
        "Manager": "Gabe Kapler"
    },
    {
        "Year": "2008",
        "Team Name": "Greenville Drive",
        "Wins": "70",
        "Losses": "69",
        "W-L %": ".504",
        "Manager": "Kevin Boles"
    },
    {
        "Year": "2009",
        "Team Name": "Greenville Drive",
        "Wins": "73",
        "Losses": "65",
        "W-L %": ".529",
        "Manager": "Kevin Boles"
    },
    {
        "Year": "2010",
        "Team Name": "Greenville Drive",
        "Wins": "77",
        "Losses": "62",
        "W-L %": ".554",
        "Manager": "Billy McMillon"
    },
    {
        "Year": "2011",
        "Team Name": "Greenville Drive",
        "Wins": "78",
        "Losses": "62",
        "W-L %": ".557",
        "Manager": "Billy McMillon"
    },
    {
        "Year": "2012",
        "Team Name": "Greenville Drive",
        "Wins": "66",
        "Losses": "73",
        "W-L %": ".475",
        "Manager": "Carlos Febles"
    },
    {
        "Year": "2013",
        "Team Name": "Greenville Drive",
        "Wins": "51",
        "Losses": "87",
        "W-L %": ".370",
        "Manager": "Carlos Febles"
    },
    {
        "Year": "2014",
        "Team Name": "Greenville Drive",
        "Wins": "60",
        "Losses": "79",
        "W-L %": ".432",
        "Manager": "Darren Fenster"
    },
    {
        "Year": "2015",
        "Team Name": "Greenville Drive",
        "Wins": "72",
        "Losses": "68",
        "W-L %": ".514",
        "Manager": "Darren Fenster"
    }
]