[
    {
        "Riding": "Bas-RichelieuAC/EUR\"NicoletAC/EUR\"BAfA(c)cancour",
        "Candidate's Name": "Rebecca Laplante",
        "Notes": "Laplante was eighteen years old at the time of the election and was a student in Quebec City.[2]",
        "Gender": "F",
        "Residence": "",
        "Occupation": "Student",
        "Votes": "1,334",
        "%": "2.72",
        "Rank": "5th"
    },
    {
        "Riding": "BromeAC/EUR\"Missisquoi",
        "Candidate's Name": "Brassard, PierrePierre Brassard",
        "Notes": "Brassard was born in Montreal and has a diploma in financial administration from the Universite du Quebec aMontreal.[3] He worked for Hydro Quebec from 1960 to 1996.[4] He was elected to the Bromont city council in a 2000 by-election and served for two years before being defeated in 2002. He later attempted to return to council in 2005 and 2009.[5][6]",
        "Gender": "M",
        "Residence": "",
        "Occupation": "",
        "Votes": "1,784",
        "%": "3.58",
        "Rank": "5th"
    },
    {
        "Riding": "Outremont",
        "Candidate's Name": "Francois Pilon",
        "Notes": "Pilon was a Green Party candidate in 2006, 2007 (by-election), 2008, and 2011.",
        "Gender": "M",
        "Residence": "",
        "Occupation": "",
        "Votes": "1,566",
        "%": "4.31",
        "Rank": "5th"
    },
    {
        "Riding": "Shefford",
        "Candidate's Name": "Champagne, MichelMichel Champagne",
        "Notes": "Champagne is an organic farmer and veteran member of Canada's environmental movement.[7] He has studied at the University of Montreal.[8] He ran for the Canadian House of Commons as a Natural Law candidate in a 1995 by-election, later joined the Green Party, and has stood as a party candidate in two elections.[9] He has also sought election at the municipal level.[10]",
        "Gender": "M",
        "Residence": "",
        "Occupation": "",
        "Votes": "1,848",
        "%": "3.66",
        "Rank": "5th"
    }
]