[
    {
        "Preceding station": "Success Hill Zone 2 towards Perth",
        "NO-HEADER1": "",
        "Transperth Trains network": "Midland Line All, A, P",
        "NO-HEADER3": "",
        "Following station": "East Guildford Zone 2 towards Midland"
    }
]