[
    {
        "George Bush Intercontinental Airport": "Louis Armstrong New Orleans International Airport",
        "Argentina, Bahamas, Belize, Bonaire, Brazil, Canada, China, Chile, Colombia, Costa Rica, Dominican Republic, Ecuador, El Salvador, France, Germany, Cayman Islands, Guatemala, Honduras, Jamaica, Japan, Mexico, Netherlands, Nicaragua, Nigeria, Norway, Panama, Peru, Qatar, Russia, Singapore, South Korea, Trinidad and Tobago,Turks and Caicos Islands, Turkey, UAE, United Kingdom, Venezuela": "Canada, Cuba[11]"
    },
    {
        "George Bush Intercontinental Airport": "Southwest Florida International Airport",
        "Argentina, Bahamas, Belize, Bonaire, Brazil, Canada, China, Chile, Colombia, Costa Rica, Dominican Republic, Ecuador, El Salvador, France, Germany, Cayman Islands, Guatemala, Honduras, Jamaica, Japan, Mexico, Netherlands, Nicaragua, Nigeria, Norway, Panama, Peru, Qatar, Russia, Singapore, South Korea, Trinidad and Tobago,Turks and Caicos Islands, Turkey, UAE, United Kingdom, Venezuela": "Canada, Germany"
    },
    {
        "George Bush Intercontinental Airport": "Tampa International Airport",
        "Argentina, Bahamas, Belize, Bonaire, Brazil, Canada, China, Chile, Colombia, Costa Rica, Dominican Republic, Ecuador, El Salvador, France, Germany, Cayman Islands, Guatemala, Honduras, Jamaica, Japan, Mexico, Netherlands, Nicaragua, Nigeria, Norway, Panama, Peru, Qatar, Russia, Singapore, South Korea, Trinidad and Tobago,Turks and Caicos Islands, Turkey, UAE, United Kingdom, Venezuela": "Canada, Cayman Islands, United Kingdom, Panama, Switzerland, Cuba[12]"
    }
]