[
    {
        "Year": "USC Trojans (Independent) (1919AC/EUR\"1921)",
        "Team": "",
        "Overall": "",
        "Conference": "",
        "Standing": "",
        "Bowl\\/playoffs": ""
    },
    {
        "Year": "1919",
        "Team": "USC",
        "Overall": "4AC/EUR\"1",
        "Conference": "",
        "Standing": "",
        "Bowl\\/playoffs": ""
    },
    {
        "Year": "1920",
        "Team": "USC",
        "Overall": "6AC/EUR\"0",
        "Conference": "",
        "Standing": "",
        "Bowl\\/playoffs": ""
    },
    {
        "Year": "1921",
        "Team": "USC",
        "Overall": "10AC/EUR\"1",
        "Conference": "",
        "Standing": "",
        "Bowl\\/playoffs": ""
    },
    {
        "Year": "USC Trojans (Pacific Coast Conference) (1922AC/EUR\"1924)",
        "Team": "",
        "Overall": "",
        "Conference": "",
        "Standing": "",
        "Bowl\\/playoffs": ""
    },
    {
        "Year": "1922",
        "Team": "USC",
        "Overall": "10AC/EUR\"1",
        "Conference": "3AC/EUR\"1",
        "Standing": "4th",
        "Bowl\\/playoffs": "W Rose"
    },
    {
        "Year": "1923",
        "Team": "USC",
        "Overall": "6AC/EUR\"2",
        "Conference": "2AC/EUR\"2",
        "Standing": "TAC/EUR\"3rd",
        "Bowl\\/playoffs": ""
    },
    {
        "Year": "1924",
        "Team": "USC",
        "Overall": "9AC/EUR\"2",
        "Conference": "2AC/EUR\"1",
        "Standing": "5th",
        "Bowl\\/playoffs": "W Los Angeles Christmas Festival"
    },
    {
        "Year": "USC:",
        "Team": "45AC/EUR\"7",
        "Overall": "",
        "Conference": "",
        "Standing": "",
        "Bowl\\/playoffs": ""
    },
    {
        "Year": "Tulsa Golden Hurricane (Oklahoma Intercollegiate Conference) (1925AC/EUR\"1928)",
        "Team": "",
        "Overall": "",
        "Conference": "",
        "Standing": "",
        "Bowl\\/playoffs": ""
    },
    {
        "Year": "1925",
        "Team": "Tulsa",
        "Overall": "6AC/EUR\"2",
        "Conference": "4AC/EUR\"0",
        "Standing": "1st",
        "Bowl\\/playoffs": ""
    },
    {
        "Year": "1926",
        "Team": "Tulsa",
        "Overall": "7AC/EUR\"2",
        "Conference": "",
        "Standing": "",
        "Bowl\\/playoffs": ""
    },
    {
        "Year": "1927",
        "Team": "Tulsa",
        "Overall": "8AC/EUR\"1",
        "Conference": "",
        "Standing": "",
        "Bowl\\/playoffs": ""
    },
    {
        "Year": "1928",
        "Team": "Tulsa",
        "Overall": "7AC/EUR\"2AC/EUR\"1",
        "Conference": "",
        "Standing": "",
        "Bowl\\/playoffs": ""
    },
    {
        "Year": "Tulsa Golden Hurricane (Big 4 Conference) (1929AC/EUR\"1932)",
        "Team": "",
        "Overall": "",
        "Conference": "",
        "Standing": "",
        "Bowl\\/playoffs": ""
    },
    {
        "Year": "1929",
        "Team": "Tulsa",
        "Overall": "6AC/EUR\"3AC/EUR\"1",
        "Conference": "4AC/EUR\"0AC/EUR\"1",
        "Standing": "1st",
        "Bowl\\/playoffs": ""
    },
    {
        "Year": "1930",
        "Team": "Tulsa",
        "Overall": "7AC/EUR\"2",
        "Conference": "3AC/EUR\"0",
        "Standing": "1st",
        "Bowl\\/playoffs": ""
    },
    {
        "Year": "1931",
        "Team": "Tulsa",
        "Overall": "8AC/EUR\"3",
        "Conference": "",
        "Standing": "",
        "Bowl\\/playoffs": ""
    },
    {
        "Year": "1932",
        "Team": "Tulsa",
        "Overall": "7AC/EUR\"1AC/EUR\"1",
        "Conference": "3AC/EUR\"0",
        "Standing": "1st",
        "Bowl\\/playoffs": ""
    },
    {
        "Year": "Tulsa Golden Hurricane (Independent) (1933AC/EUR\"1934)",
        "Team": "",
        "Overall": "",
        "Conference": "",
        "Standing": "",
        "Bowl\\/playoffs": ""
    },
    {
        "Year": "1933",
        "Team": "Tulsa",
        "Overall": "6AC/EUR\"1",
        "Conference": "",
        "Standing": "",
        "Bowl\\/playoffs": ""
    },
    {
        "Year": "1934",
        "Team": "Tulsa",
        "Overall": "5AC/EUR\"2AC/EUR\"1",
        "Conference": "",
        "Standing": "",
        "Bowl\\/playoffs": ""
    },
    {
        "Year": "Tulsa Golden Hurricane (Missouri Valley Conference) (1935)",
        "Team": "",
        "Overall": "",
        "Conference": "",
        "Standing": "",
        "Bowl\\/playoffs": ""
    },
    {
        "Year": "1935",
        "Team": "Tulsa",
        "Overall": "3AC/EUR\"6AC/EUR\"1",
        "Conference": "3AC/EUR\"0",
        "Standing": "TAC/EUR\"1st",
        "Bowl\\/playoffs": ""
    },
    {
        "Year": "Tulsa:",
        "Team": "70AC/EUR\"25AC/EUR\"5",
        "Overall": "",
        "Conference": "",
        "Standing": "",
        "Bowl\\/playoffs": ""
    },
    {
        "Year": "Occidental Tigers (Southern California Intercollegiate Athletic Conference) (1940AC/EUR\"1942)",
        "Team": "",
        "Overall": "",
        "Conference": "",
        "Standing": "",
        "Bowl\\/playoffs": ""
    },
    {
        "Year": "1940",
        "Team": "Occidental",
        "Overall": "3AC/EUR\"4AC/EUR\"1",
        "Conference": "2AC/EUR\"2",
        "Standing": "",
        "Bowl\\/playoffs": ""
    },
    {
        "Year": "1941",
        "Team": "Occidental",
        "Overall": "5AC/EUR\"2AC/EUR\"1",
        "Conference": "3AC/EUR\"1",
        "Standing": "",
        "Bowl\\/playoffs": ""
    },
    {
        "Year": "1942",
        "Team": "Occidental",
        "Overall": "3AC/EUR\"4",
        "Conference": "2AC/EUR\"1",
        "Standing": "",
        "Bowl\\/playoffs": ""
    },
    {
        "Year": "Occidental:",
        "Team": "11AC/EUR\"10AC/EUR\"2",
        "Overall": "7AC/EUR\"4",
        "Conference": "",
        "Standing": "",
        "Bowl\\/playoffs": ""
    },
    {
        "Year": "Total:",
        "Team": "126AC/EUR\"42AC/EUR\"7",
        "Overall": "",
        "Conference": "",
        "Standing": "",
        "Bowl\\/playoffs": ""
    },
    {
        "Year": "National championship Conference title Conference division title",
        "Team": "",
        "Overall": "",
        "Conference": "",
        "Standing": "",
        "Bowl\\/playoffs": ""
    }
]