[
    {
        "Year": "2014[14]",
        "Host": "Lexington, KY USA",
        "Winners": "Portland",
        "Score": "13-5",
        "Runners-up": "Milwaukee",
        "Third Place": "Lexington, Boston"
    },
    {
        "Year": "2015",
        "Host": "Guadalajara Mexico",
        "Winners": "",
        "Score": "",
        "Runners-up": "",
        "Third Place": ""
    }
]