[
    {
        "No.": "1",
        "Matches": "The Hardys (Matt Hardy and Jeff Hardy) and Davey Richards defeated The Revolution (Manik, Abyss and Khoya)",
        "Stipulations": "Street Fight match",
        "Times": "9:42"
    },
    {
        "No.": "2",
        "Matches": "Kenny King defeated Rockstar Spud (c), Tigre Uno and Mandrews",
        "Stipulations": "Ladder match for the TNA X Division Championship",
        "Times": "7:56"
    },
    {
        "No.": "3",
        "Matches": "Taryn Terrell (c) defeated Brooke",
        "Stipulations": "Singles match for the TNA Knockouts Championship",
        "Times": "6:16"
    },
    {
        "No.": "4",
        "Matches": "Drew Galloway defeated Low Ki",
        "Stipulations": "Pipe on a Pole match",
        "Times": "7:23"
    },
    {
        "No.": "5",
        "Matches": "Eric Young defeated Kurt Angle",
        "Stipulations": "Stretcher match",
        "Times": "13:09"
    },
    {
        "No.": "(c) - refers to the champion(s) heading into the match",
        "Matches": "",
        "Stipulations": "",
        "Times": ""
    }
]