[
    {
        "City": "London",
        "Airport(s)": "Heathrow Airport, Luton Airport, Stansted Airport",
        "Weekly Departures (November 2015)": "60",
        "Airlines": "Blue Air, British Airways, Ryanair, TAROM, Wizz Air"
    },
    {
        "City": "Rome",
        "Airport(s)": "Fiumicino Airport, Ciampino Airport",
        "Weekly Departures (November 2015)": "43",
        "Airlines": "Alitalia, Blue Air, Ryanair, TAROM, Wizz Air"
    },
    {
        "City": "IaA^(tm)i",
        "Airport(s)": "IaA^(tm)i Airport",
        "Weekly Departures (November 2015)": "42",
        "Airlines": "Blue Air, TAROM"
    },
    {
        "City": "Vienna",
        "Airport(s)": "Vienna Airport",
        "Weekly Departures (November 2015)": "42",
        "Airlines": "Austrian Airlines, TAROM"
    },
    {
        "City": "Cluj-Napoca",
        "Airport(s)": "Cluj-Napoca Airport",
        "Weekly Departures (November 2015)": "41",
        "Airlines": "TAROM"
    },
    {
        "City": "Paris",
        "Airport(s)": "BeauvaisAC/EUR\"TillAfA(c) Airport, Charles de Gaulle Airport",
        "Weekly Departures (November 2015)": "41",
        "Airlines": "Air France, Blue Air, TAROM, Wizz Air"
    },
    {
        "City": "Istanbul",
        "Airport(s)": "Ataturk Airport, Sabiha Gokcen Airport",
        "Weekly Departures (November 2015)": "38",
        "Airlines": "Pegasus Airlines, TAROM, Turkish Airlines"
    },
    {
        "City": "Munich",
        "Airport(s)": "Munich Airport",
        "Weekly Departures (November 2015)": "33",
        "Airlines": "Lufthansa, Lufthansa Cityline, TAROM"
    },
    {
        "City": "Amsterdam",
        "Airport(s)": "Amsterdam Schiphol Airport",
        "Weekly Departures (November 2015)": "28",
        "Airlines": "KLM, TAROM"
    },
    {
        "City": "Frankfurt",
        "Airport(s)": "Frankfurt Airport",
        "Weekly Departures (November 2015)": "27",
        "Airlines": "Lufthansa, TAROM"
    },
    {
        "City": "TimiA^(tm)oara",
        "Airport(s)": "Traian Vuia Airport",
        "Weekly Departures (November 2015)": "26",
        "Airlines": "TAROM"
    },
    {
        "City": "Madrid",
        "Airport(s)": "Madrid Airport",
        "Weekly Departures (November 2015)": "24",
        "Airlines": "Blue Air, Ryanair, TAROM, Vueling, Wizz Air"
    },
    {
        "City": "ChiA^(tm)inA\"fu",
        "Airport(s)": "ChiA^(tm)inA\"fu Airport",
        "Weekly Departures (November 2015)": "21",
        "Airlines": "TAROM"
    },
    {
        "City": "Tel Aviv",
        "Airport(s)": "Tel Aviv Airport",
        "Weekly Departures (November 2015)": "19",
        "Airlines": "El Al, TAROM, Wizzair"
    },
    {
        "City": "Warsaw",
        "Airport(s)": "Warsaw Chopin Airport",
        "Weekly Departures (November 2015)": "17",
        "Airlines": "LOT Polish Airlines"
    },
    {
        "City": "Barcelona",
        "Airport(s)": "Barcelona Airport",
        "Weekly Departures (November 2015)": "15",
        "Airlines": "Blue Air, TAROM, Vueling, Wizz Air"
    }
]