[
    {
        "Award": "Cyrus H. McLean Trophy (leading scorer)",
        "Year": "2008, 2009, 2010, 2012[66]"
    },
    {
        "Award": "Cyclone Taylor Trophy (MVP)",
        "Year": "2010, 2012[66]"
    },
    {
        "Award": "Molson Cup (most three-star selections)",
        "Year": "2010[66]"
    }
]