[
    {
        "No.": "1F",
        "Results": "Marc Mero (with Sable) defeated The 1-2-3 Kid (with Ted DiBiase) by disqualification",
        "Stipulations": "Singles match",
        "Times[1]": "07:17"
    },
    {
        "No.": "2",
        "Results": "Owen Hart and the British Bulldog defeated Jake Roberts and Ahmed Johnson",
        "Stipulations": "Tag team match",
        "Times[1]": "13:47"
    },
    {
        "No.": "3",
        "Results": "The Ultimate Warrior defeated Goldust (c) (with Marlena and Mr. Hallick) by countout",
        "Stipulations": "Singles match for the WWF Intercontinental Championship",
        "Times[1]": "07:38"
    },
    {
        "No.": "4",
        "Results": "Vader (with Jim Cornette) defeated Razor Ramon",
        "Stipulations": "Singles match",
        "Times[1]": "14:49"
    },
    {
        "No.": "5",
        "Results": "The Bodydonnas (Skip and Zip) (c) (with Sunny) defeated The Godwinns (Henry O. Godwinn and Phineas I. Godwinn) (with Hillbilly Jim)",
        "Stipulations": "Tag team match for the WWF Tag Team Championship",
        "Times[1]": "07:17"
    },
    {
        "No.": "6",
        "Results": "Shawn Michaels (with Jose Lothario) (c) defeated Diesel",
        "Stipulations": "No Holds Barred match for the WWF Championship",
        "Times[1]": "17:53"
    },
    {
        "No.": "7D",
        "Results": "Savio Vega defeated Stone Cold Steve Austin",
        "Stipulations": "Singles match",
        "Times[1]": "10:21"
    },
    {
        "No.": "8D",
        "Results": "Hunter Hearst Helmsley defeated Marc Mero",
        "Stipulations": "Singles match",
        "Times[1]": "12:09"
    },
    {
        "No.": "9D",
        "Results": "The Undertaker defeated Mankind",
        "Stipulations": "Singles match",
        "Times[1]": "13:04"
    },
    {
        "No.": "(c) AC/EUR\" refers to the champion(s) heading into the match D AC/EUR\" indicates the match was a dark match F AC/EUR\" indicates the match was broadcast prior to the pay-per-view on Free for All",
        "Results": "",
        "Stipulations": "",
        "Times[1]": ""
    }
]