[
    {
        "Athlete": "Robin Seymour",
        "Event": "Men's cross-country",
        "Time": "2:28:32",
        "Rank": "30"
    },
    {
        "Athlete": "Jenny McCauley",
        "Event": "Women's cross-country",
        "Time": "LAP (1 lap)",
        "Rank": "30"
    }
]