[
    {
        "NO-HEADER0": "NO-HEADER0",
        "Athlete": "Athlete",
        "Sport": "Sport",
        "Born": "Born",
        "Period": "Period",
        "Olympics": "Olympics",
        "World Ch.": "World Ch.",
        "Total": "Total",
        "NO-HEADER8": "",
        "NO-HEADER9": "",
        "NO-HEADER10": "",
        "NO-HEADER11": "",
        "NO-HEADER12": "",
        "NO-HEADER13": "",
        "NO-HEADER14": "",
        "NO-HEADER15": "",
        "NO-HEADER16": ""
    },
    {
        "NO-HEADER0": "",
        "Athlete": "Athlete",
        "Sport": "Sport",
        "Born": "Born",
        "Period": "Period",
        "Olympics": "",
        "World Ch.": "",
        "Total": "",
        "NO-HEADER8": "Tot.",
        "NO-HEADER9": "",
        "NO-HEADER10": "",
        "NO-HEADER11": "",
        "NO-HEADER12": "Tot.",
        "NO-HEADER13": "",
        "NO-HEADER14": "",
        "NO-HEADER15": "",
        "NO-HEADER16": "Tot."
    },
    {
        "NO-HEADER0": "1",
        "Athlete": "Valentina Vezzali[6]",
        "Sport": "Fencing",
        "Born": "1974",
        "Period": "1994AC/EUR\"2012",
        "Olympics": "3",
        "World Ch.": "1",
        "Total": "1",
        "NO-HEADER8": "5",
        "NO-HEADER9": "6",
        "NO-HEADER10": "2",
        "NO-HEADER11": "3",
        "NO-HEADER12": "11",
        "NO-HEADER13": "9",
        "NO-HEADER14": "3",
        "NO-HEADER15": "4",
        "NO-HEADER16": "16"
    },
    {
        "NO-HEADER0": "2",
        "Athlete": "Josefa Idem[7]",
        "Sport": "Canoeing",
        "Born": "1964",
        "Period": "1990AC/EUR\"2009",
        "Olympics": "1",
        "World Ch.": "2",
        "Total": "1",
        "NO-HEADER8": "4",
        "NO-HEADER9": "5",
        "NO-HEADER10": "9",
        "NO-HEADER11": "6",
        "NO-HEADER12": "20",
        "NO-HEADER13": "6",
        "NO-HEADER14": "11",
        "NO-HEADER15": "7",
        "NO-HEADER16": "24"
    },
    {
        "NO-HEADER0": "3",
        "Athlete": "Stefania Belmondo[8]",
        "Sport": "Cross-country skiing",
        "Born": "1969",
        "Period": "1992AC/EUR\"2002",
        "Olympics": "2",
        "World Ch.": "3",
        "Total": "2",
        "NO-HEADER8": "7",
        "NO-HEADER9": "4",
        "NO-HEADER10": "4",
        "NO-HEADER11": "1",
        "NO-HEADER12": "9",
        "NO-HEADER13": "6",
        "NO-HEADER14": "5",
        "NO-HEADER15": "3",
        "NO-HEADER16": "16"
    },
    {
        "NO-HEADER0": "4",
        "Athlete": "Deborah Compagnoni",
        "Sport": "Alpine skiing",
        "Born": "1970",
        "Period": "1992AC/EUR\"1998",
        "Olympics": "3",
        "World Ch.": "1",
        "Total": "0",
        "NO-HEADER8": "4",
        "NO-HEADER9": "3",
        "NO-HEADER10": "0",
        "NO-HEADER11": "0",
        "NO-HEADER12": "3",
        "NO-HEADER13": "6",
        "NO-HEADER14": "1",
        "NO-HEADER15": "0",
        "NO-HEADER16": "7"
    },
    {
        "NO-HEADER0": "5",
        "Athlete": "Alessandra Sensini",
        "Sport": "Windsurf",
        "Born": "1970",
        "Period": "1996AC/EUR\"2012",
        "Olympics": "1",
        "World Ch.": "1",
        "Total": "2",
        "NO-HEADER8": "4",
        "NO-HEADER9": "4",
        "NO-HEADER10": "3",
        "NO-HEADER11": "1",
        "NO-HEADER12": "8",
        "NO-HEADER13": "5",
        "NO-HEADER14": "4",
        "NO-HEADER15": "3",
        "NO-HEADER16": "12"
    },
    {
        "NO-HEADER0": "6",
        "Athlete": "Federica Pellegrini[9]",
        "Sport": "Swimming",
        "Born": "1988",
        "Period": "2004AC/EUR\"2011",
        "Olympics": "1",
        "World Ch.": "1",
        "Total": "0",
        "NO-HEADER8": "2",
        "NO-HEADER9": "4",
        "NO-HEADER10": "1",
        "NO-HEADER11": "1",
        "NO-HEADER12": "6",
        "NO-HEADER13": "5",
        "NO-HEADER14": "2",
        "NO-HEADER15": "1",
        "NO-HEADER16": "8"
    },
    {
        "NO-HEADER0": "7",
        "Athlete": "Paola Pezzo[10]",
        "Sport": "Mountain bike",
        "Born": "1969",
        "Period": "1993AC/EUR\"2000",
        "Olympics": "2",
        "World Ch.": "0",
        "Total": "0",
        "NO-HEADER8": "2",
        "NO-HEADER9": "2",
        "NO-HEADER10": "0",
        "NO-HEADER11": "2",
        "NO-HEADER12": "4",
        "NO-HEADER13": "4",
        "NO-HEADER14": "0",
        "NO-HEADER15": "2",
        "NO-HEADER16": "6"
    },
    {
        "NO-HEADER0": "8",
        "Athlete": "Giovanna Trillini[11]",
        "Sport": "Fencing",
        "Born": "1970",
        "Period": "1992AC/EUR\"2007",
        "Olympics": "1",
        "World Ch.": "1",
        "Total": "2",
        "NO-HEADER8": "4",
        "NO-HEADER9": "2",
        "NO-HEADER10": "2",
        "NO-HEADER11": "3",
        "NO-HEADER12": "7",
        "NO-HEADER13": "3",
        "NO-HEADER14": "3",
        "NO-HEADER15": "5",
        "NO-HEADER16": "11"
    },
    {
        "NO-HEADER0": "9",
        "Athlete": "Gerda Weissensteiner[12][13]",
        "Sport": "Luge",
        "Born": "1969",
        "Period": "1993AC/EUR\"2006",
        "Olympics": "1",
        "World Ch.": "0",
        "Total": "0",
        "NO-HEADER8": "1",
        "NO-HEADER9": "1",
        "NO-HEADER10": "1",
        "NO-HEADER11": "2",
        "NO-HEADER12": "4",
        "NO-HEADER13": "2",
        "NO-HEADER14": "1",
        "NO-HEADER15": "2",
        "NO-HEADER16": "5"
    },
    {
        "NO-HEADER0": "10",
        "Athlete": "Irene Camber[14]",
        "Sport": "Fencing",
        "Born": "1926",
        "Period": "1952AC/EUR\"1960",
        "Olympics": "1",
        "World Ch.": "0",
        "Total": "0",
        "NO-HEADER8": "1",
        "NO-HEADER9": "1",
        "NO-HEADER10": "0",
        "NO-HEADER11": "1",
        "NO-HEADER12": "2",
        "NO-HEADER13": "2",
        "NO-HEADER14": "0",
        "NO-HEADER15": "1",
        "NO-HEADER16": "3"
    },
    {
        "NO-HEADER0": "10",
        "Athlete": "Chiara Cainero[15]",
        "Sport": "Shooting",
        "Born": "1978",
        "Period": "2006AC/EUR\"2008",
        "Olympics": "1",
        "World Ch.": "0",
        "Total": "0",
        "NO-HEADER8": "1",
        "NO-HEADER9": "1",
        "NO-HEADER10": "0",
        "NO-HEADER11": "1",
        "NO-HEADER12": "2",
        "NO-HEADER13": "2",
        "NO-HEADER14": "0",
        "NO-HEADER15": "1",
        "NO-HEADER16": "3"
    },
    {
        "NO-HEADER0": "Others notables (at least one gold medal at the Olympics or World Championships and at least one medal in the other competition)",
        "Athlete": "",
        "Sport": "",
        "Born": "",
        "Period": "",
        "Olympics": "",
        "World Ch.": "",
        "Total": "",
        "NO-HEADER8": "",
        "NO-HEADER9": "",
        "NO-HEADER10": "",
        "NO-HEADER11": "",
        "NO-HEADER12": "",
        "NO-HEADER13": "",
        "NO-HEADER14": "",
        "NO-HEADER15": "",
        "NO-HEADER16": ""
    },
    {
        "NO-HEADER0": "12",
        "Athlete": "Deborah Gelisio[16]",
        "Sport": "Shooting",
        "Born": "1976",
        "Period": "1993AC/EUR\"2007",
        "Olympics": "0",
        "World Ch.": "1",
        "Total": "0",
        "NO-HEADER8": "1",
        "NO-HEADER9": "4",
        "NO-HEADER10": "1",
        "NO-HEADER11": "0",
        "NO-HEADER12": "5",
        "NO-HEADER13": "4",
        "NO-HEADER14": "2",
        "NO-HEADER15": "0",
        "NO-HEADER16": "6"
    },
    {
        "NO-HEADER0": "13",
        "Athlete": "Manuela Di Centa[17][18]",
        "Sport": "Cross-country skiing",
        "Born": "1964",
        "Period": "1991AC/EUR\"1995",
        "Olympics": "2",
        "World Ch.": "2",
        "Total": "0",
        "NO-HEADER8": "4",
        "NO-HEADER9": "0",
        "NO-HEADER10": "2",
        "NO-HEADER11": "3",
        "NO-HEADER12": "5",
        "NO-HEADER13": "2",
        "NO-HEADER14": "4",
        "NO-HEADER15": "3",
        "NO-HEADER16": "9"
    },
    {
        "NO-HEADER0": "14",
        "Athlete": "Isolde Kostner",
        "Sport": "Alpine skiing",
        "Born": "1975",
        "Period": "1994AC/EUR\"2002",
        "Olympics": "0",
        "World Ch.": "1",
        "Total": "2",
        "NO-HEADER8": "3",
        "NO-HEADER9": "1",
        "NO-HEADER10": "2",
        "NO-HEADER11": "0",
        "NO-HEADER12": "3",
        "NO-HEADER13": "2",
        "NO-HEADER14": "2",
        "NO-HEADER15": "2",
        "NO-HEADER16": "6"
    },
    {
        "NO-HEADER0": "15",
        "Athlete": "Fiona May[19]",
        "Sport": "Athletics",
        "Born": "1969",
        "Period": "1995AC/EUR\"2001",
        "Olympics": "0",
        "World Ch.": "2",
        "Total": "0",
        "NO-HEADER8": "2",
        "NO-HEADER9": "2",
        "NO-HEADER10": "1",
        "NO-HEADER11": "1",
        "NO-HEADER12": "3",
        "NO-HEADER13": "2",
        "NO-HEADER14": "3",
        "NO-HEADER15": "1",
        "NO-HEADER16": "6"
    },
    {
        "NO-HEADER0": "16",
        "Athlete": "Antonella Bellutti",
        "Sport": "Track cycling",
        "Born": "1968",
        "Period": "1995AC/EUR\"2000",
        "Olympics": "2",
        "World Ch.": "0",
        "Total": "0",
        "NO-HEADER8": "2",
        "NO-HEADER9": "0",
        "NO-HEADER10": "2",
        "NO-HEADER11": "0",
        "NO-HEADER12": "2",
        "NO-HEADER13": "2",
        "NO-HEADER14": "2",
        "NO-HEADER15": "0",
        "NO-HEADER16": "4"
    },
    {
        "NO-HEADER0": "17",
        "Athlete": "Sara Simeoni[20][21]",
        "Sport": "Athletics",
        "Born": "1953",
        "Period": "1976AC/EUR\"1984",
        "Olympics": "1",
        "World Ch.": "2",
        "Total": "0",
        "NO-HEADER8": "3",
        "NO-HEADER9": "0",
        "NO-HEADER10": "0",
        "NO-HEADER11": "0",
        "NO-HEADER12": "0",
        "NO-HEADER13": "1",
        "NO-HEADER14": "2",
        "NO-HEADER15": "0",
        "NO-HEADER16": "3"
    },
    {
        "NO-HEADER0": "18",
        "Athlete": "Novella Calligaris[22]",
        "Sport": "Swimming",
        "Born": "1954",
        "Period": "1968AC/EUR\"1973",
        "Olympics": "0",
        "World Ch.": "1",
        "Total": "2",
        "NO-HEADER8": "3",
        "NO-HEADER9": "1",
        "NO-HEADER10": "0",
        "NO-HEADER11": "2",
        "NO-HEADER12": "3",
        "NO-HEADER13": "1",
        "NO-HEADER14": "1",
        "NO-HEADER15": "4",
        "NO-HEADER16": "6"
    },
    {
        "NO-HEADER0": "19",
        "Athlete": "Antonella Ragno[23]",
        "Sport": "Fencing",
        "Born": "1940",
        "Period": "1960AC/EUR\"197",
        "Olympics": "1",
        "World Ch.": "0",
        "Total": "1",
        "NO-HEADER8": "2",
        "NO-HEADER9": "0",
        "NO-HEADER10": "1",
        "NO-HEADER11": "0",
        "NO-HEADER12": "1",
        "NO-HEADER13": "1",
        "NO-HEADER14": "1",
        "NO-HEADER15": "1",
        "NO-HEADER16": "3"
    }
]