[
    {
        "Season": "1992AC/EUR\"93",
        "Player": "Sylvain Fleury",
        "Position": "Centre",
        "Team": "Oklahoma City Blazers",
        "Point Total": "101"
    },
    {
        "Season": "1993AC/EUR\"94",
        "Player": "Paul Jackson",
        "Position": "Centre",
        "Team": "Wichita Thunder",
        "Point Total": "135"
    },
    {
        "Season": "1994AC/EUR\"95",
        "Player": "Brian Shantz",
        "Position": "Centre",
        "Team": "San Antonio Iguanas",
        "Point Total": "119"
    },
    {
        "Season": "1995AC/EUR\"96",
        "Player": "Brian Shantz (2)",
        "Position": "Centre",
        "Team": "San Antonio Iguanas",
        "Point Total": "139"
    },
    {
        "Season": "1996AC/EUR\"97",
        "Player": "Trevor Jobe",
        "Position": "Centre",
        "Team": "Wichita Thunder",
        "Point Total": "125"
    },
    {
        "Season": "1997AC/EUR\"98",
        "Player": "Luc Beausoleil",
        "Position": "Right Wing",
        "Team": "Tulsa Oilers",
        "Point Total": "127"
    },
    {
        "Season": "1998AC/EUR\"99",
        "Player": "Derek Grant",
        "Position": "Centre",
        "Team": "Memphis Riverkings",
        "Point Total": "123"
    },
    {
        "Season": "1999AC/EUR\"00",
        "Player": "Chris MacKenzie",
        "Position": "Centre",
        "Team": "Indianapolis Ice",
        "Point Total": "127"
    },
    {
        "Season": "2000AC/EUR\"01",
        "Player": "Yvan Corbin",
        "Position": "Left Wing",
        "Team": "Indianapolis Ice",
        "Point Total": "129"
    },
    {
        "Season": "2001AC/EUR\"02",
        "Player": "Dan Price",
        "Position": "Right Wing",
        "Team": "Austin Ice Bats",
        "Point Total": "97"
    },
    {
        "Season": "2002AC/EUR\"03",
        "Player": "Don Parsons",
        "Position": "Right Wing",
        "Team": "Memphis Riverkings",
        "Point Total": "106"
    },
    {
        "Season": "2003AC/EUR\"04",
        "Player": "Jeff Bes",
        "Position": "Centre",
        "Team": "Laredo Bucks",
        "Point Total": "117"
    },
    {
        "Season": "2004AC/EUR\"05",
        "Player": "Jason Duda",
        "Position": "Left Wing",
        "Team": "Wichita Thunder",
        "Point Total": "96"
    },
    {
        "Season": "2005AC/EUR\"06",
        "Player": "Derek Hahn",
        "Position": "Centre",
        "Team": "Amarillo Gorillas",
        "Point Total": "114"
    },
    {
        "Season": "2008AC/EUR\"07",
        "Player": "Jeff Christian",
        "Position": "Left Wing",
        "Team": "Youngstown Steelhounds",
        "Point Total": "116"
    },
    {
        "Season": "2007AC/EUR\"08",
        "Player": "Alex Leavitt",
        "Position": "Centre",
        "Team": "Arizona Sundogs",
        "Point Total": "128"
    },
    {
        "Season": "2008AC/EUR\"09",
        "Player": "Sebastien Thinel",
        "Position": "Right Wing",
        "Team": "Odessa Jackalopes",
        "Point Total": "97"
    },
    {
        "Season": "2009AC/EUR\"10",
        "Player": "Kevin Ulanski",
        "Position": "Forward",
        "Team": "Colorado Eagles",
        "Point Total": "109"
    },
    {
        "Season": "2010AC/EUR\"11",
        "Player": "Sebastien Thinel (2)",
        "Position": "Right Wing",
        "Team": "Odessa Jackalopes",
        "Point Total": "110"
    }
]