[
    {
        "Film": "Chillu",
        "Director": "Lenin Rajendran",
        "Year": "1982"
    },
    {
        "Film": "Oru Kochu Swapnam",
        "Director": "Vipin Das",
        "Year": "1984"
    },
    {
        "Film": "Aa Neram Alpadooram",
        "Director": "Thampi Kannanthanam",
        "Year": "1985"
    },
    {
        "Film": "Aviduthe pole Ivideyum",
        "Director": "K. S. Sethumadhavan",
        "Year": "1985"
    },
    {
        "Film": "Ayanam",
        "Director": "Harikumar",
        "Year": "1985"
    }
]