[
    {
        "Games": "1981 Santa Clara",
        "Gold": "Ludwig Kotzebue (NED)",
        "Silver": "Chen Chien (TPE)",
        "Bronze": "Claudio Guazzaroni (ITA) Francisco Torres (ESP)"
    },
    {
        "Games": "1985 London",
        "Gold": "Geoff Thompson (GBR)",
        "Silver": "Leslie Jensen (SWE)",
        "Bronze": "Karl Daggfeldt (SWE) Massimo di Luigi (ITA)"
    },
    {
        "Games": "1989 Karlsruhe",
        "Gold": "Claudio Guazzaroni (ITA)",
        "Silver": "Ralf Brachmann (FRG)",
        "Bronze": "Ian Cole (GBR) Juan Antonio Hernandez (ESP)"
    },
    {
        "Games": "1993 Den Haag",
        "Gold": "Marc Hamon (CAN)",
        "Silver": "Ian Cole (GBR)",
        "Bronze": "Pierre Amman (SUI) Hans Roovers (NED)"
    },
    {
        "Games": "1997 Lahti",
        "Gold": "Leon Walters (GBR)",
        "Silver": "Davide Benetello (ITA)",
        "Bronze": "Andrey Anikin (RUS) Gabriel Berg (SWE)"
    },
    {
        "Games": "2001 Akita",
        "Gold": "Seydina Balde (FRA)",
        "Silver": "Stefano Maniscalco (ITA)",
        "Bronze": "Leon Walters (GBR)"
    },
    {
        "Games": "2005 Duisburg",
        "Gold": "Alexander Gerunov (RUS)",
        "Silver": "Felix Kuhnle (GER)",
        "Bronze": "Alen Zamlic (CRO)"
    },
    {
        "Games": "2009 Kaohsiung",
        "Gold": "Jonathan Horne (GER)",
        "Silver": "Spyridon Margaritopoulos (GRE)",
        "Bronze": "Almir Cecunjanin (MNE)"
    }
]