[
    {
        "Club performance": "Club performance",
        "League": "League",
        "Cup": "Cup",
        "Continental": "Continental",
        "Total": "Total",
        "NO-HEADER5": "",
        "NO-HEADER6": "",
        "NO-HEADER7": "",
        "NO-HEADER8": "",
        "NO-HEADER9": "",
        "NO-HEADER10": ""
    },
    {
        "Club performance": "Season",
        "League": "Club",
        "Cup": "League",
        "Continental": "Apps",
        "Total": "Goals",
        "NO-HEADER5": "Apps",
        "NO-HEADER6": "Goals",
        "NO-HEADER7": "Apps",
        "NO-HEADER8": "Goals",
        "NO-HEADER9": "Apps",
        "NO-HEADER10": "Goals"
    },
    {
        "Club performance": "Iran",
        "League": "League",
        "Cup": "Hazfi Cup",
        "Continental": "Asia",
        "Total": "Total",
        "NO-HEADER5": "",
        "NO-HEADER6": "",
        "NO-HEADER7": "",
        "NO-HEADER8": "",
        "NO-HEADER9": "",
        "NO-HEADER10": ""
    },
    {
        "Club performance": "2006AC/EUR\"07",
        "League": "Zob Ahan",
        "Cup": "Pro League",
        "Continental": "18",
        "Total": "6",
        "NO-HEADER5": "0",
        "NO-HEADER6": "0",
        "NO-HEADER7": "AC/EUR\"",
        "NO-HEADER8": "AC/EUR\"",
        "NO-HEADER9": "18",
        "NO-HEADER10": "6"
    },
    {
        "Club performance": "2007AC/EUR\"08",
        "League": "Zob Ahan",
        "Cup": "Pro League",
        "Continental": "29",
        "Total": "7",
        "NO-HEADER5": "2",
        "NO-HEADER6": "0",
        "NO-HEADER7": "AC/EUR\"",
        "NO-HEADER8": "AC/EUR\"",
        "NO-HEADER9": "31",
        "NO-HEADER10": "7"
    },
    {
        "Club performance": "2008AC/EUR\"09",
        "League": "Zob Ahan",
        "Cup": "Pro League",
        "Continental": "4",
        "Total": "0",
        "NO-HEADER5": "0",
        "NO-HEADER6": "0",
        "NO-HEADER7": "AC/EUR\"",
        "NO-HEADER8": "AC/EUR\"",
        "NO-HEADER9": "4",
        "NO-HEADER10": "0"
    },
    {
        "Club performance": "2009AC/EUR\"10",
        "League": "Zob Ahan",
        "Cup": "Pro League",
        "Continental": "19",
        "Total": "1",
        "NO-HEADER5": "0",
        "NO-HEADER6": "0",
        "NO-HEADER7": "1",
        "NO-HEADER8": "0",
        "NO-HEADER9": "20",
        "NO-HEADER10": "1"
    },
    {
        "Club performance": "2010AC/EUR\"11",
        "League": "Mes Kerman",
        "Cup": "Pro League",
        "Continental": "21",
        "Total": "2",
        "NO-HEADER5": "0",
        "NO-HEADER6": "0",
        "NO-HEADER7": "AC/EUR\"",
        "NO-HEADER8": "AC/EUR\"",
        "NO-HEADER9": "21",
        "NO-HEADER10": "2"
    },
    {
        "Club performance": "2011AC/EUR\"12",
        "League": "Mes Kerman",
        "Cup": "27",
        "Continental": "Pro League",
        "Total": "3",
        "NO-HEADER5": "",
        "NO-HEADER6": "",
        "NO-HEADER7": "AC/EUR\"",
        "NO-HEADER8": "AC/EUR\"",
        "NO-HEADER9": "27",
        "NO-HEADER10": "3"
    },
    {
        "Club performance": "2012AC/EUR\"13",
        "League": "Mes Kerman",
        "Cup": "19",
        "Continental": "Pro League",
        "Total": "1",
        "NO-HEADER5": "0",
        "NO-HEADER6": "0",
        "NO-HEADER7": "AC/EUR\"",
        "NO-HEADER8": "AC/EUR\"",
        "NO-HEADER9": "20",
        "NO-HEADER10": "1"
    },
    {
        "Club performance": "2013AC/EUR\"14",
        "League": "Saba Qom",
        "Cup": "Pro League",
        "Continental": "16",
        "Total": "1",
        "NO-HEADER5": "0",
        "NO-HEADER6": "0",
        "NO-HEADER7": "AC/EUR\"",
        "NO-HEADER8": "AC/EUR\"",
        "NO-HEADER9": "16",
        "NO-HEADER10": "1"
    },
    {
        "Club performance": "2014AC/EUR\"15",
        "League": "Padideh",
        "Cup": "Pro League",
        "Continental": "1",
        "Total": "0",
        "NO-HEADER5": "0",
        "NO-HEADER6": "0",
        "NO-HEADER7": "AC/EUR\"",
        "NO-HEADER8": "AC/EUR\"",
        "NO-HEADER9": "1",
        "NO-HEADER10": "0"
    },
    {
        "Club performance": "Career total",
        "League": "154",
        "Cup": "21",
        "Continental": "2",
        "Total": "0",
        "NO-HEADER5": "1",
        "NO-HEADER6": "0",
        "NO-HEADER7": "157",
        "NO-HEADER8": "21",
        "NO-HEADER9": "",
        "NO-HEADER10": ""
    }
]