[
    {
        "Years": "Years",
        "Term": "Term",
        "Electorate": "Electorate",
        "List": "List",
        "Party": "Party"
    },
    {
        "Years": "2004AC/EUR\"2005",
        "Term": "47th",
        "Electorate": "List",
        "List": "10",
        "Party": "ACT"
    }
]