[
    {
        "Preceding station": "Mehar Shah",
        "NO-HEADER1": "",
        "Khanewal Junction railway station": "Line Lodhran-Khanewal railway line",
        "NO-HEADER3": "",
        "Following station": "Dera Taj"
    },
    {
        "Preceding station": "Shamkote",
        "NO-HEADER1": "",
        "Khanewal Junction railway station": "Line KarachiAC/EUR\"Peshawar Main Line",
        "NO-HEADER3": "",
        "Following station": "Dera Taj"
    }
]