[
    {
        "ProjeKcts": "ProjeKct One",
        "Year": "1998",
        "Album": "Live at the Jazz Cafe",
        "Notes": "Live album, Japan-only Release",
        "Box": "The ProjeKcts"
    },
    {
        "ProjeKcts": "ProjeKct One",
        "Year": "2003",
        "Album": "Jazz Cafe Suite",
        "Notes": "Live album, King Crimson Collector's Club No.22",
        "Box": "Collectors' King Crimson Box 6 ProjeKcts"
    },
    {
        "ProjeKcts": "ProjeKct One",
        "Year": "2007",
        "Album": "London, Jazz CafAfA(c), England AC/EUR\" December 1, 1997",
        "Notes": "DGM Live",
        "Box": ""
    },
    {
        "ProjeKcts": "ProjeKct One",
        "Year": "2007",
        "Album": "London, Jazz CafAfA(c), England AC/EUR\" December 2, 1997",
        "Notes": "DGM Live",
        "Box": ""
    },
    {
        "ProjeKcts": "ProjeKct One",
        "Year": "2007",
        "Album": "London, Jazz CafAfA(c), England AC/EUR\" December 3, 1997",
        "Notes": "DGM Live",
        "Box": ""
    },
    {
        "ProjeKcts": "ProjeKct One",
        "Year": "2005",
        "Album": "London, Jazz CafAfA(c), England AC/EUR\" December 4, 1997",
        "Notes": "DGM Live",
        "Box": ""
    },
    {
        "ProjeKcts": "ProjeKct Two",
        "Year": "1998",
        "Album": "Space Groove",
        "Notes": "Studio Album",
        "Box": ""
    },
    {
        "ProjeKcts": "ProjeKct Two",
        "Year": "1999",
        "Album": "Live Groove",
        "Notes": "Live album, Japan-only Release",
        "Box": "The ProjeKcts"
    },
    {
        "ProjeKcts": "ProjeKct Two",
        "Year": "2001",
        "Album": "Live in Northampton, MA, July 1, 1998",
        "Notes": "Live album, King Crimson Collector's Club No.17",
        "Box": "Collectors' King Crimson Box 6 ProjeKcts"
    },
    {
        "ProjeKcts": "ProjeKct Two",
        "Year": "2007",
        "Album": "Live in Chicago, IL, June 04-05, 1998",
        "Notes": "Live album, King Crimson Collector's Club No.33",
        "Box": "Collectors' King Crimson Box 6 ProjeKcts"
    },
    {
        "ProjeKcts": "ProjeKct Two",
        "Year": "2011",
        "Album": "Ventura Theatre AC/EUR\" Ventura, CA, March 18, 1998",
        "Notes": "DGM Live",
        "Box": ""
    },
    {
        "ProjeKcts": "ProjeKct Two",
        "Year": "2011",
        "Album": "Palookaville AC/EUR\" Santa Cruz, CA, March 20, 1998",
        "Notes": "DGM Live",
        "Box": ""
    },
    {
        "ProjeKcts": "ProjeKct Two",
        "Year": "2010",
        "Album": "Great American Music Hall AC/EUR\" San Francisco, CA, March 21, 1998",
        "Notes": "DGM Live",
        "Box": ""
    },
    {
        "ProjeKcts": "ProjeKct Two",
        "Year": "2010",
        "Album": "Great American Music Hall AC/EUR\" San Francisco, CA, March 22, 1998",
        "Notes": "DGM Live",
        "Box": ""
    },
    {
        "ProjeKcts": "ProjeKct Two",
        "Year": "2011",
        "Album": "House of Blues AC/EUR\" Los Angeles, CA, March 24, 1998",
        "Notes": "DGM Live",
        "Box": ""
    },
    {
        "ProjeKcts": "ProjeKct Two",
        "Year": "2011",
        "Album": "Diamond Hall AC/EUR\" Nagoya, Japan, April 07, 1998",
        "Notes": "DGM Live",
        "Box": ""
    },
    {
        "ProjeKcts": "ProjeKct Two",
        "Year": "2011",
        "Album": "Heart Beat AC/EUR\" Osaka, April 08, 1998",
        "Notes": "DGM Live",
        "Box": ""
    },
    {
        "ProjeKcts": "ProjeKct Two",
        "Year": "2011",
        "Album": "Blitz AC/EUR\" Tokyo, Japan, April 09, 1998",
        "Notes": "DGM Live",
        "Box": ""
    },
    {
        "ProjeKcts": "ProjeKct Two",
        "Year": "2011",
        "Album": "Blitz AC/EUR\" Tokyo, Japan, April 10, 1998",
        "Notes": "DGM Live",
        "Box": ""
    },
    {
        "ProjeKcts": "ProjeKct Two",
        "Year": "2007",
        "Album": "Jazz Cafe AC/EUR\" London, England, April 16, 1998",
        "Notes": "DGM Live",
        "Box": ""
    },
    {
        "ProjeKcts": "ProjeKct Two",
        "Year": "2011",
        "Album": "Ronnie Scotts AC/EUR\" Birmingham, England, April 18, 1998",
        "Notes": "DGM Live",
        "Box": ""
    },
    {
        "ProjeKcts": "ProjeKct Two",
        "Year": "2011",
        "Album": "Ronnie Scotts AC/EUR\" Birmingham, England, April 19, 1998",
        "Notes": "DGM Live",
        "Box": ""
    },
    {
        "ProjeKcts": "ProjeKct Two",
        "Year": "2011",
        "Album": "9.30 Club AC/EUR\" Washington D.C., May 01, 1998",
        "Notes": "DGM Live",
        "Box": ""
    },
    {
        "ProjeKcts": "ProjeKct Two",
        "Year": "2011",
        "Album": "Bohager's AC/EUR\" Baltimore, MD., May 02, 1998",
        "Notes": "DGM Live",
        "Box": ""
    },
    {
        "ProjeKcts": "ProjeKct Two",
        "Year": "2011",
        "Album": "Ballroom At The Bellvue AC/EUR\" Philadelphia, PA., May 03, 1998",
        "Notes": "DGM Live",
        "Box": ""
    },
    {
        "ProjeKcts": "ProjeKct Two",
        "Year": "2011",
        "Album": "Toad's Place AC/EUR\" New Haven, CT., May 04, 1998",
        "Notes": "DGM Live",
        "Box": ""
    },
    {
        "ProjeKcts": "ProjeKct Two",
        "Year": "2010",
        "Album": "Irving Plaza AC/EUR\" New York, NY, May 06, 1998",
        "Notes": "DGM Live",
        "Box": ""
    },
    {
        "ProjeKcts": "ProjeKct Two",
        "Year": "2010",
        "Album": "Irving Plaza AC/EUR\" New York, NY, May 07, 1998",
        "Notes": "DGM Live",
        "Box": ""
    },
    {
        "ProjeKcts": "ProjeKct Two",
        "Year": "2011",
        "Album": "Valentines AC/EUR\" Albany, NY, USA., May 08, 1998",
        "Notes": "DGM Live",
        "Box": ""
    },
    {
        "ProjeKcts": "ProjeKct Two",
        "Year": "2011",
        "Album": "Inter-Media Arts Centre AC/EUR\" Huntington, NY, May 09, 1998",
        "Notes": "DGM Live",
        "Box": ""
    },
    {
        "ProjeKcts": "ProjeKct Two",
        "Year": "2005",
        "Album": "I.C. Light Music Tent AC/EUR\" Pittsburgh, Pennsylvania, Jun. 01, 1998",
        "Notes": "DGM Live",
        "Box": ""
    },
    {
        "ProjeKcts": "ProjeKct Two",
        "Year": "2008",
        "Album": "Odeon AC/EUR\" Cleveland, Ohio, June 02, 1998",
        "Notes": "DGM Live",
        "Box": ""
    },
    {
        "ProjeKcts": "ProjeKct Two",
        "Year": "2008",
        "Album": "Park West AC/EUR\" Chicago, Illinois, June 05, 1998",
        "Notes": "DGM Live",
        "Box": ""
    },
    {
        "ProjeKcts": "ProjeKct Two",
        "Year": "2009",
        "Album": "Majestic Theatre AC/EUR\" Detroit, MI, June 07, 1998",
        "Notes": "DGM Live",
        "Box": ""
    },
    {
        "ProjeKcts": "ProjeKct Two",
        "Year": "2007",
        "Album": "Somerville Theatre AC/EUR\" Somerville, MA., USA, June 28, 1998",
        "Notes": "DGM Live",
        "Box": ""
    },
    {
        "ProjeKcts": "ProjeKct Two",
        "Year": "2007",
        "Album": "Old Lantern AC/EUR\" Charlotte, Vermont, June 30, 1998",
        "Notes": "DGM Live",
        "Box": ""
    },
    {
        "ProjeKcts": "ProjeKct Two",
        "Year": "2013",
        "Album": "18 And 19 February Rehearsals 1998 AC/EUR\" Nashville, Tennessee",
        "Notes": "DGM Live",
        "Box": ""
    },
    {
        "ProjeKcts": "ProjeKct Three",
        "Year": "1999",
        "Album": "Masque",
        "Notes": "Live album, Japan-only Release",
        "Box": "The ProjeKcts"
    },
    {
        "ProjeKcts": "ProjeKct Three",
        "Year": "2004",
        "Album": "Live in Austin, TX, 1999",
        "Notes": "Live album, King Crimson Collectors' Club No.27",
        "Box": "Collectors' King Crimson Box 6 ProjeKcts"
    },
    {
        "ProjeKcts": "ProjeKct Three",
        "Year": "2007",
        "Album": "Live in Alexandria, Virginia, VA, March 3, 2003",
        "Notes": "Live album, King Crimson Collectors' Club No.34",
        "Box": "Collectors' King Crimson Box 6 ProjeKcts"
    },
    {
        "ProjeKcts": "ProjeKct Three",
        "Year": "2009",
        "Album": "Electric Lounge AC/EUR\" Austin, Texas, March 21, 1999",
        "Notes": "DGM Live",
        "Box": ""
    },
    {
        "ProjeKcts": "ProjeKct Three",
        "Year": "2014",
        "Album": "Cactus Cafe AC/EUR\" Austin, Texas, March 22, 1999",
        "Notes": "DGM Live",
        "Box": ""
    },
    {
        "ProjeKcts": "ProjeKct Three",
        "Year": "2005",
        "Album": "Cactus Cafe AC/EUR\" Ausin, Texas, March 23, 1999",
        "Notes": "DGM Live",
        "Box": ""
    },
    {
        "ProjeKcts": "ProjeKct Three",
        "Year": "2007",
        "Album": "Poor David's AC/EUR\" Dallas, Texas, March 24, 1999",
        "Notes": "DGM Live",
        "Box": ""
    },
    {
        "ProjeKcts": "ProjeKct Three",
        "Year": "2014",
        "Album": "Antone's AC/EUR\" Dallas, Texas, March 25, 1999",
        "Notes": "DGM Live",
        "Box": ""
    },
    {
        "ProjeKcts": "ProjeKct Four",
        "Year": "1999",
        "Album": "West Coast Live",
        "Notes": "Live album, Japan-only Release",
        "Box": "The ProjeKcts"
    },
    {
        "ProjeKcts": "ProjeKct Four",
        "Year": "1999",
        "Album": "Live in San Francisco\\/The Roar of P4",
        "Notes": "Live album, King Crimson Collectors' Club No.07",
        "Box": "Collectors' King Crimson Box 6 ProjeKcts"
    },
    {
        "ProjeKcts": "ProjeKct Four",
        "Year": "2005",
        "Album": "Fox Theatre AC/EUR\" Boulder, Colorado, Oct. 23, 1998",
        "Notes": "DGM Live",
        "Box": ""
    },
    {
        "ProjeKcts": "ProjeKct Four",
        "Year": "2011",
        "Album": "Fox Theatre AC/EUR\" Boulder, Colorado, Oct. 24, 1998",
        "Notes": "DGM Live",
        "Box": ""
    },
    {
        "ProjeKcts": "ProjeKct Four",
        "Year": "2008",
        "Album": "Richard's On Richards AC/EUR\" Vancouver, British Columbia, October 27, 1998",
        "Notes": "DGM Live",
        "Box": ""
    },
    {
        "ProjeKcts": "ProjeKct Four",
        "Year": "2011",
        "Album": "The Fenix AC/EUR\" Seattle, WA, Oct. 28, 1998",
        "Notes": "DGM Live",
        "Box": ""
    },
    {
        "ProjeKcts": "ProjeKct Four",
        "Year": "2008",
        "Album": "Crystal Ballroom AC/EUR\" Portland, OR, October 30, 1998",
        "Notes": "DGM Live",
        "Box": ""
    },
    {
        "ProjeKcts": "ProjeKct Four",
        "Year": "2011",
        "Album": "7th Note AC/EUR\" San Francisco, California, Nov. 01, 1998",
        "Notes": "DGM Live",
        "Box": ""
    },
    {
        "ProjeKcts": "ProjeKct Four",
        "Year": "2006",
        "Album": "7th Note AC/EUR\" San Francisco, California, Nov. 02, 1998",
        "Notes": "DGM Live",
        "Box": ""
    },
    {
        "ProjeKcts": "ProjeKct X",
        "Year": "2000",
        "Album": "Heaven and Earth",
        "Notes": "Studio Album",
        "Box": ""
    },
    {
        "ProjeKcts": "ProjeKct Six",
        "Year": "2006",
        "Album": "East Coast Live",
        "Notes": "DGM Live",
        "Box": ""
    },
    {
        "ProjeKcts": "ProjeKct Six",
        "Year": "2012",
        "Album": "Berklee Performance Centre AC/EUR\" Boston, MA, USA, Oct. 05, 2006",
        "Notes": "DGM Live",
        "Box": ""
    },
    {
        "ProjeKcts": "ProjeKct Six",
        "Year": "2012",
        "Album": "Nokia Theatre AC/EUR\" New York, NY, USA, Oct. 06, 2006",
        "Notes": "DGM Live",
        "Box": ""
    },
    {
        "ProjeKcts": "ProjeKct Six",
        "Year": "2012",
        "Album": "Keswick Theatre AC/EUR\" Glenside, PA, USA, Oct. 07, 2006",
        "Notes": "DGM Live",
        "Box": ""
    },
    {
        "ProjeKcts": "ProjeKct Six",
        "Year": "2012",
        "Album": "State Theatre AC/EUR\" Falls Church, VA, USA, Oct. 08, 2006",
        "Notes": "DGM Live",
        "Box": ""
    },
    {
        "ProjeKcts": "Jakszyk, Fripp and Collins",
        "Year": "2011",
        "Album": "A Scarcity of Miracles AC/EUR\" A King Crimson ProjeKct",
        "Notes": "Studio Album, with Tony Levin & Gavin Harrison",
        "Box": ""
    }
]