[
    {
        "Rank": "1",
        "Name": "Girls' Generation",
        "Profession": "Girl group"
    },
    {
        "Rank": "2",
        "Name": "Big Bang",
        "Profession": "Boy band"
    },
    {
        "Rank": "3",
        "Name": "IU",
        "Profession": "Singer"
    },
    {
        "Rank": "4",
        "Name": "Kara",
        "Profession": "Girl group"
    },
    {
        "Rank": "5",
        "Name": "Kim Yuna",
        "Profession": "Figure skater"
    },
    {
        "Rank": "6",
        "Name": "Lee Seung-gi",
        "Profession": "Singer, actor, TV show host"
    },
    {
        "Rank": "7",
        "Name": "Park Ji-sung",
        "Profession": "Footballer"
    },
    {
        "Rank": "8",
        "Name": "Kim Tae-hee",
        "Profession": "Actress"
    },
    {
        "Rank": "9",
        "Name": "Beast*",
        "Profession": "Boy band"
    },
    {
        "Rank": "10",
        "Name": "Park Tae-Hwan",
        "Profession": "Swimmer"
    }
]