[
    {
        "Year": "1991",
        "Play": "",
        "Writer": ""
    },
    {
        "Year": "1991",
        "Play": "Dancing at Lughnasa",
        "Writer": "Brian Friel"
    },
    {
        "Year": "1991",
        "Play": "Singer",
        "Writer": "Peter Flannery"
    },
    {
        "Year": "1991",
        "Play": "The Trackers of Oxyrhynchus",
        "Writer": "Tony Harrison"
    },
    {
        "Year": "1991",
        "Play": "White Chameleon",
        "Writer": "Christopher Hampton"
    },
    {
        "Year": "1992",
        "Play": "",
        "Writer": ""
    },
    {
        "Year": "1992",
        "Play": "Death and the Maiden",
        "Writer": "Ariel Dorfman"
    },
    {
        "Year": "1992",
        "Play": "Angels in America",
        "Writer": "Tony Kushner"
    },
    {
        "Year": "1992",
        "Play": "The Madness of George III",
        "Writer": "Alan Bennett"
    },
    {
        "Year": "1992",
        "Play": "Three Birds Alighting on a Field",
        "Writer": "Timberlake Wertenbaker"
    },
    {
        "Year": "1993",
        "Play": "",
        "Writer": ""
    },
    {
        "Year": "1993",
        "Play": "Six Degrees of Separation",
        "Writer": "John Guare"
    },
    {
        "Year": "1993",
        "Play": "Someone Who'll Watch Over Me",
        "Writer": "Frank McGuinness"
    },
    {
        "Year": "1993",
        "Play": "The Gift of the Gorgon",
        "Writer": "Peter Shaffer"
    },
    {
        "Year": "1993",
        "Play": "The Street of Crocodiles",
        "Writer": "Bruno Schulz and Theatre de Complicite"
    },
    {
        "Year": "1994",
        "Play": "",
        "Writer": ""
    },
    {
        "Year": "1994",
        "Play": "Arcadia",
        "Writer": "Tom Stoppard"
    },
    {
        "Year": "1994",
        "Play": "Oleanna",
        "Writer": "David Mamet"
    },
    {
        "Year": "1994",
        "Play": "Angels in America: Perestroika",
        "Writer": "Tony Kushner"
    },
    {
        "Year": "1994",
        "Play": "The Last Yankee",
        "Writer": "Arthur Miller"
    },
    {
        "Year": "1995",
        "Play": "",
        "Writer": ""
    },
    {
        "Year": "1995",
        "Play": "Broken Glass",
        "Writer": "Arthur Miller"
    },
    {
        "Year": "1995",
        "Play": "Dealer's Choice",
        "Writer": "Patrick Marber"
    },
    {
        "Year": "1995",
        "Play": "900 Oneonta",
        "Writer": "David Beaird"
    },
    {
        "Year": "1995",
        "Play": "Three Tall Women",
        "Writer": "Edward Albee"
    },
    {
        "Year": "1996",
        "Play": "",
        "Writer": ""
    },
    {
        "Year": "1996",
        "Play": "Skylight",
        "Writer": "David Hare"
    },
    {
        "Year": "1996",
        "Play": "Pentecost",
        "Writer": "David Edgar"
    },
    {
        "Year": "1996",
        "Play": "The Steward of Christendom",
        "Writer": "Sebastian Barry"
    },
    {
        "Year": "1996",
        "Play": "Taking Sides",
        "Writer": "Ronald Harwood"
    },
    {
        "Year": "1997",
        "Play": "",
        "Writer": ""
    },
    {
        "Year": "1997",
        "Play": "Stanley",
        "Writer": "Pam Gems"
    },
    {
        "Year": "1997",
        "Play": "The Beauty Queen of Leenane",
        "Writer": "Martin McDonagh"
    },
    {
        "Year": "1997",
        "Play": "Blinded by the Sun",
        "Writer": "Stephen Poliakoff"
    },
    {
        "Year": "1997",
        "Play": "The Herbal Bed",
        "Writer": "Peter Whelan"
    },
    {
        "Year": "1998",
        "Play": "",
        "Writer": ""
    },
    {
        "Year": "1998",
        "Play": "Closer",
        "Writer": "Patrick Marber"
    },
    {
        "Year": "1998",
        "Play": "Amy's View",
        "Writer": "David Hare"
    },
    {
        "Year": "1998",
        "Play": "Hurlyburly",
        "Writer": "David Rabe"
    },
    {
        "Year": "1998",
        "Play": "The Invention of Love",
        "Writer": "Tom Stoppard"
    },
    {
        "Year": "1998",
        "Play": "Tom & Clem",
        "Writer": "Stephen Churchett"
    },
    {
        "Year": "1999",
        "Play": "",
        "Writer": ""
    },
    {
        "Year": "1999",
        "Play": "The Weir",
        "Writer": "Conor McPherson"
    },
    {
        "Year": "1999",
        "Play": "The Blue Room",
        "Writer": "David Hare"
    },
    {
        "Year": "1999",
        "Play": "Copenhagen",
        "Writer": "Michael Frayn"
    },
    {
        "Year": "1999",
        "Play": "The Unexpected Man",
        "Writer": "Yasmina Reza"
    }
]