[
    {
        "Club": "Club",
        "Season": "Season",
        "League": "League",
        "FA Cup": "FA Cup",
        "League Cup": "League Cup",
        "Other": "Other",
        "Total": "Total",
        "NO-HEADER7": "",
        "NO-HEADER8": "",
        "NO-HEADER9": "",
        "NO-HEADER10": "",
        "NO-HEADER11": "",
        "NO-HEADER12": ""
    },
    {
        "Club": "Club",
        "Season": "Season",
        "League": "Division",
        "FA Cup": "Apps",
        "League Cup": "Goals",
        "Other": "Apps",
        "Total": "Goals",
        "NO-HEADER7": "Apps",
        "NO-HEADER8": "Goals",
        "NO-HEADER9": "Apps",
        "NO-HEADER10": "Goals",
        "NO-HEADER11": "Apps",
        "NO-HEADER12": "Goals"
    },
    {
        "Club": "Coventry City",
        "Season": "2005AC/EUR\"06[12]",
        "League": "Championship",
        "FA Cup": "2",
        "League Cup": "0",
        "Other": "0",
        "Total": "0",
        "NO-HEADER7": "0",
        "NO-HEADER8": "0",
        "NO-HEADER9": "AC/EUR\"",
        "NO-HEADER10": "2",
        "NO-HEADER11": "0",
        "NO-HEADER12": ""
    },
    {
        "Club": "Coventry City",
        "Season": "2006AC/EUR\"07[13]",
        "League": "Championship",
        "FA Cup": "3",
        "League Cup": "0",
        "Other": "0",
        "Total": "0",
        "NO-HEADER7": "0",
        "NO-HEADER8": "0",
        "NO-HEADER9": "AC/EUR\"",
        "NO-HEADER10": "3",
        "NO-HEADER11": "0",
        "NO-HEADER12": ""
    },
    {
        "Club": "Coventry City",
        "Season": "2007AC/EUR\"08[14]",
        "League": "Championship",
        "FA Cup": "6",
        "League Cup": "0",
        "Other": "1",
        "Total": "0",
        "NO-HEADER7": "0",
        "NO-HEADER8": "0",
        "NO-HEADER9": "AC/EUR\"",
        "NO-HEADER10": "7",
        "NO-HEADER11": "0",
        "NO-HEADER12": ""
    },
    {
        "Club": "Coventry City",
        "Season": "Total",
        "League": "11",
        "FA Cup": "0",
        "League Cup": "1",
        "Other": "0",
        "Total": "0",
        "NO-HEADER7": "0",
        "NO-HEADER8": "AC/EUR\"",
        "NO-HEADER9": "12",
        "NO-HEADER10": "0",
        "NO-HEADER11": "",
        "NO-HEADER12": ""
    },
    {
        "Club": "Peterborough United (loan)",
        "Season": "2006AC/EUR\"07[13]",
        "League": "League Two",
        "FA Cup": "7",
        "League Cup": "0",
        "Other": "0",
        "Total": "0",
        "NO-HEADER7": "1",
        "NO-HEADER8": "0",
        "NO-HEADER9": "0",
        "NO-HEADER10": "0",
        "NO-HEADER11": "8",
        "NO-HEADER12": "0"
    },
    {
        "Club": "Northampton Town",
        "Season": "2008AC/EUR\"09[15]",
        "League": "League One",
        "FA Cup": "29",
        "League Cup": "4",
        "Other": "2",
        "Total": "0",
        "NO-HEADER7": "2",
        "NO-HEADER8": "0",
        "NO-HEADER9": "1[a]",
        "NO-HEADER10": "0",
        "NO-HEADER11": "34",
        "NO-HEADER12": "4"
    },
    {
        "Club": "Northampton Town",
        "Season": "2009AC/EUR\"10[16]",
        "League": "League Two",
        "FA Cup": "17",
        "League Cup": "2",
        "Other": "1",
        "Total": "0",
        "NO-HEADER7": "0",
        "NO-HEADER8": "0",
        "NO-HEADER9": "1[a]",
        "NO-HEADER10": "0",
        "NO-HEADER11": "19",
        "NO-HEADER12": "2"
    },
    {
        "Club": "Northampton Town",
        "Season": "2010AC/EUR\"11[17]",
        "League": "League Two",
        "FA Cup": "33",
        "League Cup": "2",
        "Other": "2",
        "Total": "0",
        "NO-HEADER7": "2",
        "NO-HEADER8": "1",
        "NO-HEADER9": "1[a]",
        "NO-HEADER10": "0",
        "NO-HEADER11": "38",
        "NO-HEADER12": "3"
    },
    {
        "Club": "Northampton Town",
        "Season": "Total",
        "League": "79",
        "FA Cup": "8",
        "League Cup": "5",
        "Other": "0",
        "Total": "4",
        "NO-HEADER7": "1",
        "NO-HEADER8": "3",
        "NO-HEADER9": "0",
        "NO-HEADER10": "91",
        "NO-HEADER11": "9",
        "NO-HEADER12": ""
    },
    {
        "Club": "Oxford United",
        "Season": "2011AC/EUR\"12[18]",
        "League": "League Two",
        "FA Cup": "44",
        "League Cup": "2",
        "Other": "0",
        "Total": "0",
        "NO-HEADER7": "1",
        "NO-HEADER8": "0",
        "NO-HEADER9": "1[a]",
        "NO-HEADER10": "0",
        "NO-HEADER11": "46",
        "NO-HEADER12": "2"
    },
    {
        "Club": "Oxford United",
        "Season": "2012AC/EUR\"13[19]",
        "League": "League Two",
        "FA Cup": "23",
        "League Cup": "1",
        "Other": "2",
        "Total": "0",
        "NO-HEADER7": "0",
        "NO-HEADER8": "0",
        "NO-HEADER9": "2[a]",
        "NO-HEADER10": "0",
        "NO-HEADER11": "27",
        "NO-HEADER12": "1"
    },
    {
        "Club": "Oxford United",
        "Season": "Total",
        "League": "67",
        "FA Cup": "3",
        "League Cup": "2",
        "Other": "0",
        "Total": "1",
        "NO-HEADER7": "0",
        "NO-HEADER8": "3",
        "NO-HEADER9": "0",
        "NO-HEADER10": "73",
        "NO-HEADER11": "3",
        "NO-HEADER12": ""
    },
    {
        "Club": "Yeovil Town",
        "Season": "2013AC/EUR\"14[20]",
        "League": "Championship",
        "FA Cup": "27",
        "League Cup": "1",
        "Other": "1",
        "Total": "0",
        "NO-HEADER7": "2",
        "NO-HEADER8": "0",
        "NO-HEADER9": "AC/EUR\"",
        "NO-HEADER10": "30",
        "NO-HEADER11": "1",
        "NO-HEADER12": ""
    },
    {
        "Club": "Yeovil Town",
        "Season": "2014AC/EUR\"15[21]",
        "League": "League One",
        "FA Cup": "8",
        "League Cup": "0",
        "Other": "1",
        "Total": "0",
        "NO-HEADER7": "0",
        "NO-HEADER8": "0",
        "NO-HEADER9": "0",
        "NO-HEADER10": "0",
        "NO-HEADER11": "9",
        "NO-HEADER12": "0"
    },
    {
        "Club": "Yeovil Town",
        "Season": "Total",
        "League": "35",
        "FA Cup": "1",
        "League Cup": "2",
        "Other": "0",
        "Total": "2",
        "NO-HEADER7": "0",
        "NO-HEADER8": "0",
        "NO-HEADER9": "0",
        "NO-HEADER10": "39",
        "NO-HEADER11": "1",
        "NO-HEADER12": ""
    },
    {
        "Club": "Career totals",
        "Season": "199",
        "League": "12",
        "FA Cup": "10",
        "League Cup": "0",
        "Other": "8",
        "Total": "1",
        "NO-HEADER7": "6",
        "NO-HEADER8": "0",
        "NO-HEADER9": "223",
        "NO-HEADER10": "12",
        "NO-HEADER11": "",
        "NO-HEADER12": ""
    }
]