[
    {
        "War": "Greco-Persian Wars\\/ Persian Wars",
        "Start of the war": "499 BC",
        "Finish of the war": "449 BC",
        "Name of conflict": "",
        "Start of the conflict": "",
        "Finish of the conflict": "",
        "Battle \\/ siege": "Siege of Naxos",
        "Years of battle \\/ siege": "499 BC"
    },
    {
        "War": "Greco-Persian Wars\\/ Persian Wars",
        "Start of the war": "499 BC",
        "Finish of the war": "449 BC",
        "Name of conflict": "Ionian Revolt",
        "Start of the conflict": "499 BC",
        "Finish of the conflict": "488 BC",
        "Battle \\/ siege": "Siege of Sardis",
        "Years of battle \\/ siege": "498 BC"
    },
    {
        "War": "Greco-Persian Wars\\/ Persian Wars",
        "Start of the war": "499 BC",
        "Finish of the war": "449 BC",
        "Name of conflict": "Ionian Revolt",
        "Start of the conflict": "499 BC",
        "Finish of the conflict": "488 BC",
        "Battle \\/ siege": "Battle of Ephesus",
        "Years of battle \\/ siege": "498 BC"
    },
    {
        "War": "Greco-Persian Wars\\/ Persian Wars",
        "Start of the war": "499 BC",
        "Finish of the war": "449 BC",
        "Name of conflict": "Ionian Revolt",
        "Start of the conflict": "499 BC",
        "Finish of the conflict": "488 BC",
        "Battle \\/ siege": "Battle of Lade",
        "Years of battle \\/ siege": "494 BC"
    },
    {
        "War": "Greco-Persian Wars\\/ Persian Wars",
        "Start of the war": "499 BC",
        "Finish of the war": "449 BC",
        "Name of conflict": "Ionian Revolt",
        "Start of the conflict": "499 BC",
        "Finish of the conflict": "488 BC",
        "Battle \\/ siege": "Battle of Miletus",
        "Years of battle \\/ siege": "494 BC"
    },
    {
        "War": "Greco-Persian Wars\\/ Persian Wars",
        "Start of the war": "499 BC",
        "Finish of the war": "449 BC",
        "Name of conflict": "Ionian Revolt",
        "Start of the conflict": "499 BC",
        "Finish of the conflict": "488 BC",
        "Battle \\/ siege": "Battle of Malene",
        "Years of battle \\/ siege": "493 BC"
    },
    {
        "War": "Greco-Persian Wars\\/ Persian Wars",
        "Start of the war": "499 BC",
        "Finish of the war": "449 BC",
        "Name of conflict": "First Persian invasion of Greece",
        "Start of the conflict": "492 BC",
        "Finish of the conflict": "490 BC",
        "Battle \\/ siege": "Siege of Lindos",
        "Years of battle \\/ siege": "490 BC"
    },
    {
        "War": "Greco-Persian Wars\\/ Persian Wars",
        "Start of the war": "499 BC",
        "Finish of the war": "449 BC",
        "Name of conflict": "First Persian invasion of Greece",
        "Start of the conflict": "492 BC",
        "Finish of the conflict": "490 BC",
        "Battle \\/ siege": "Siege of Naxos",
        "Years of battle \\/ siege": "490 BC"
    },
    {
        "War": "Greco-Persian Wars\\/ Persian Wars",
        "Start of the war": "499 BC",
        "Finish of the war": "449 BC",
        "Name of conflict": "First Persian invasion of Greece",
        "Start of the conflict": "492 BC",
        "Finish of the conflict": "490 BC",
        "Battle \\/ siege": "Siege of Karystos",
        "Years of battle \\/ siege": "490 BC"
    },
    {
        "War": "Greco-Persian Wars\\/ Persian Wars",
        "Start of the war": "499 BC",
        "Finish of the war": "449 BC",
        "Name of conflict": "First Persian invasion of Greece",
        "Start of the conflict": "492 BC",
        "Finish of the conflict": "490 BC",
        "Battle \\/ siege": "Siege of Eretria",
        "Years of battle \\/ siege": "490 BC"
    },
    {
        "War": "Greco-Persian Wars\\/ Persian Wars",
        "Start of the war": "499 BC",
        "Finish of the war": "449 BC",
        "Name of conflict": "First Persian invasion of Greece",
        "Start of the conflict": "492 BC",
        "Finish of the conflict": "490 BC",
        "Battle \\/ siege": "Battle of Marathon",
        "Years of battle \\/ siege": "490 BC"
    },
    {
        "War": "Greco-Persian Wars\\/ Persian Wars",
        "Start of the war": "499 BC",
        "Finish of the war": "449 BC",
        "Name of conflict": "Second Persian invasion of Greece",
        "Start of the conflict": "480 BC",
        "Finish of the conflict": "479 BC",
        "Battle \\/ siege": "Battle of Thermopylae",
        "Years of battle \\/ siege": "480 BC"
    },
    {
        "War": "Greco-Persian Wars\\/ Persian Wars",
        "Start of the war": "499 BC",
        "Finish of the war": "449 BC",
        "Name of conflict": "Second Persian invasion of Greece",
        "Start of the conflict": "480 BC",
        "Finish of the conflict": "479 BC",
        "Battle \\/ siege": "Battle of Artemisium",
        "Years of battle \\/ siege": "480 BC"
    },
    {
        "War": "Greco-Persian Wars\\/ Persian Wars",
        "Start of the war": "499 BC",
        "Finish of the war": "449 BC",
        "Name of conflict": "Second Persian invasion of Greece",
        "Start of the conflict": "480 BC",
        "Finish of the conflict": "479 BC",
        "Battle \\/ siege": "Battle of Salamis",
        "Years of battle \\/ siege": "480 BC"
    },
    {
        "War": "Greco-Persian Wars\\/ Persian Wars",
        "Start of the war": "499 BC",
        "Finish of the war": "449 BC",
        "Name of conflict": "Second Persian invasion of Greece",
        "Start of the conflict": "480 BC",
        "Finish of the conflict": "479 BC",
        "Battle \\/ siege": "Siege of Potidea",
        "Years of battle \\/ siege": "480 BC"
    },
    {
        "War": "Greco-Persian Wars\\/ Persian Wars",
        "Start of the war": "499 BC",
        "Finish of the war": "449 BC",
        "Name of conflict": "Second Persian invasion of Greece",
        "Start of the conflict": "480 BC",
        "Finish of the conflict": "479 BC",
        "Battle \\/ siege": "Siege of Olynthus",
        "Years of battle \\/ siege": "479 BC"
    },
    {
        "War": "Greco-Persian Wars\\/ Persian Wars",
        "Start of the war": "499 BC",
        "Finish of the war": "449 BC",
        "Name of conflict": "Second Persian invasion of Greece",
        "Start of the conflict": "480 BC",
        "Finish of the conflict": "479 BC",
        "Battle \\/ siege": "Battle of Plataea",
        "Years of battle \\/ siege": "479 BC"
    },
    {
        "War": "Greco-Persian Wars\\/ Persian Wars",
        "Start of the war": "499 BC",
        "Finish of the war": "449 BC",
        "Name of conflict": "Second Persian invasion of Greece",
        "Start of the conflict": "480 BC",
        "Finish of the conflict": "479 BC",
        "Battle \\/ siege": "Battle of Mycale",
        "Years of battle \\/ siege": "479 BC"
    },
    {
        "War": "Greco-Persian Wars\\/ Persian Wars",
        "Start of the war": "499 BC",
        "Finish of the war": "449 BC",
        "Name of conflict": "Greek counterattack",
        "Start of the conflict": "479 BC",
        "Finish of the conflict": "478 BC",
        "Battle \\/ siege": "Siege of Sestos",
        "Years of battle \\/ siege": "479 BC-478 BC"
    },
    {
        "War": "Greco-Persian Wars\\/ Persian Wars",
        "Start of the war": "499 BC",
        "Finish of the war": "449 BC",
        "Name of conflict": "Greek counterattack",
        "Start of the conflict": "479 BC",
        "Finish of the conflict": "478 BC",
        "Battle \\/ siege": "Siege of Byzantium",
        "Years of battle \\/ siege": "478 BC"
    },
    {
        "War": "Greco-Persian Wars\\/ Persian Wars",
        "Start of the war": "499 BC",
        "Finish of the war": "449 BC",
        "Name of conflict": "Delian League against Persian Empire (Wars of the Delian League)",
        "Start of the conflict": "477 BC",
        "Finish of the conflict": "449 BC",
        "Battle \\/ siege": "Siege of Eion",
        "Years of battle \\/ siege": "477 BCAC/EUR\"476 BC or 476 BCAC/EUR\"475 BC"
    },
    {
        "War": "Greco-Persian Wars\\/ Persian Wars",
        "Start of the war": "499 BC",
        "Finish of the war": "449 BC",
        "Name of conflict": "Delian League against Persian Empire (Wars of the Delian League)",
        "Start of the conflict": "477 BC",
        "Finish of the conflict": "449 BC",
        "Battle \\/ siege": "Battle of the Eurymedon",
        "Years of battle \\/ siege": "466 BC"
    },
    {
        "War": "Greco-Persian Wars\\/ Persian Wars",
        "Start of the war": "499 BC",
        "Finish of the war": "449 BC",
        "Name of conflict": "Delian League against Persian Empire (Wars of the Delian League)",
        "Start of the conflict": "477 BC",
        "Finish of the conflict": "449 BC",
        "Battle \\/ siege": "Battle of Pampremis",
        "Years of battle \\/ siege": ""
    },
    {
        "War": "Greco-Persian Wars\\/ Persian Wars",
        "Start of the war": "499 BC",
        "Finish of the war": "449 BC",
        "Name of conflict": "Delian League against Persian Empire (Wars of the Delian League)",
        "Start of the conflict": "477 BC",
        "Finish of the conflict": "449 BC",
        "Battle \\/ siege": "Siege of Memphis",
        "Years of battle \\/ siege": "455 BC"
    },
    {
        "War": "Greco-Persian Wars\\/ Persian Wars",
        "Start of the war": "499 BC",
        "Finish of the war": "449 BC",
        "Name of conflict": "Delian League against Persian Empire (Wars of the Delian League)",
        "Start of the conflict": "477 BC",
        "Finish of the conflict": "449 BC",
        "Battle \\/ siege": "Siege of Prosopitis",
        "Years of battle \\/ siege": ""
    },
    {
        "War": "Greco-Persian Wars\\/ Persian Wars",
        "Start of the war": "499 BC",
        "Finish of the war": "449 BC",
        "Name of conflict": "Delian League against Persian Empire (Wars of the Delian League)",
        "Start of the conflict": "477 BC",
        "Finish of the conflict": "449 BC",
        "Battle \\/ siege": "Battle of Mendesium",
        "Years of battle \\/ siege": ""
    },
    {
        "War": "Greco-Persian Wars\\/ Persian Wars",
        "Start of the war": "499 BC",
        "Finish of the war": "449 BC",
        "Name of conflict": "Delian League against Persian Empire (Wars of the Delian League)",
        "Start of the conflict": "477 BC",
        "Finish of the conflict": "449 BC",
        "Battle \\/ siege": "Siege of Kition",
        "Years of battle \\/ siege": ""
    },
    {
        "War": "Greco-Persian Wars\\/ Persian Wars",
        "Start of the war": "499 BC",
        "Finish of the war": "449 BC",
        "Name of conflict": "Delian League against Persian Empire (Wars of the Delian League)",
        "Start of the conflict": "477 BC",
        "Finish of the conflict": "449 BC",
        "Battle \\/ siege": "Battle of Salamis (Cyprus)",
        "Years of battle \\/ siege": "450 BC"
    },
    {
        "War": "Greco-Punic Wars",
        "Start of the war": "600 BC",
        "Finish of the war": "307 BC",
        "Name of conflict": "First Sicilian War",
        "Start of the conflict": "480 BC",
        "Finish of the conflict": "480 BC",
        "Battle \\/ siege": "Battle of Himera",
        "Years of battle \\/ siege": "480 BC"
    },
    {
        "War": "Greco-Punic Wars",
        "Start of the war": "600 BC",
        "Finish of the war": "307 BC",
        "Name of conflict": "Second Sicilian War",
        "Start of the conflict": "410 BC",
        "Finish of the conflict": "340 BC",
        "Battle \\/ siege": "Battle of Selinus",
        "Years of battle \\/ siege": "409 BC"
    },
    {
        "War": "Greco-Punic Wars",
        "Start of the war": "600 BC",
        "Finish of the war": "307 BC",
        "Name of conflict": "Second Sicilian War",
        "Start of the conflict": "410 BC",
        "Finish of the conflict": "340 BC",
        "Battle \\/ siege": "Second Battle of Himera",
        "Years of battle \\/ siege": "409 BC"
    },
    {
        "War": "Greco-Punic Wars",
        "Start of the war": "600 BC",
        "Finish of the war": "307 BC",
        "Name of conflict": "Second Sicilian War",
        "Start of the conflict": "410 BC",
        "Finish of the conflict": "340 BC",
        "Battle \\/ siege": "Siege of Akragas",
        "Years of battle \\/ siege": "406 BC"
    },
    {
        "War": "Greco-Punic Wars",
        "Start of the war": "600 BC",
        "Finish of the war": "307 BC",
        "Name of conflict": "Second Sicilian War",
        "Start of the conflict": "410 BC",
        "Finish of the conflict": "340 BC",
        "Battle \\/ siege": "Battle of Gela",
        "Years of battle \\/ siege": "405 BC"
    },
    {
        "War": "Greco-Punic Wars",
        "Start of the war": "600 BC",
        "Finish of the war": "307 BC",
        "Name of conflict": "Second Sicilian War",
        "Start of the conflict": "410 BC",
        "Finish of the conflict": "340 BC",
        "Battle \\/ siege": "Sack of Camarina",
        "Years of battle \\/ siege": "405 BC"
    },
    {
        "War": "Delian League against Greek states (Wars of the Delian League) (Before the First Peloponnesian War)",
        "Start of the war": "476 BC",
        "Finish of the war": "460 BC",
        "Name of conflict": "",
        "Start of the conflict": "",
        "Finish of the conflict": "",
        "Battle \\/ siege": "Attack in the island of Skyros",
        "Years of battle \\/ siege": "476 BC or 475 BC"
    },
    {
        "War": "Delian League against Greek states (Wars of the Delian League) (Before the First Peloponnesian War)",
        "Start of the war": "476 BC",
        "Finish of the war": "460 BC",
        "Name of conflict": "",
        "Start of the conflict": "",
        "Finish of the conflict": "",
        "Battle \\/ siege": "Attack in the island of Naxos",
        "Years of battle \\/ siege": "471 BC"
    },
    {
        "War": "Delian League against Greek states (Wars of the Delian League) (Before the First Peloponnesian War)",
        "Start of the war": "476 BC",
        "Finish of the war": "460 BC",
        "Name of conflict": "Thasian rebellion",
        "Start of the conflict": "465 BC",
        "Finish of the conflict": "465 BC",
        "Battle \\/ siege": "Siege of Thasos",
        "Years of battle \\/ siege": "465 BC"
    },
    {
        "War": "",
        "Start of the war": "",
        "Finish of the war": "",
        "Name of conflict": "",
        "Start of the conflict": "",
        "Finish of the conflict": "",
        "Battle \\/ siege": "Battle of Sepeia",
        "Years of battle \\/ siege": "494 BC"
    },
    {
        "War": "",
        "Start of the war": "",
        "Finish of the war": "",
        "Name of conflict": "",
        "Start of the conflict": "",
        "Finish of the conflict": "",
        "Battle \\/ siege": "Battle of Cumae",
        "Years of battle \\/ siege": "474 BC"
    },
    {
        "War": "First Peloponnesian War",
        "Start of the war": "460 BC",
        "Finish of the war": "445 BC",
        "Name of conflict": "",
        "Start of the conflict": "",
        "Finish of the conflict": "",
        "Battle \\/ siege": "Battle of Aegina",
        "Years of battle \\/ siege": "458 BC"
    },
    {
        "War": "First Peloponnesian War",
        "Start of the war": "460 BC",
        "Finish of the war": "445 BC",
        "Name of conflict": "",
        "Start of the conflict": "",
        "Finish of the conflict": "",
        "Battle \\/ siege": "Battle of Tanagra",
        "Years of battle \\/ siege": "457 BC"
    },
    {
        "War": "First Peloponnesian War",
        "Start of the war": "460 BC",
        "Finish of the war": "445 BC",
        "Name of conflict": "",
        "Start of the conflict": "",
        "Finish of the conflict": "",
        "Battle \\/ siege": "Battle of Oenophyta",
        "Years of battle \\/ siege": "457 BC"
    },
    {
        "War": "First Peloponnesian War",
        "Start of the war": "460 BC",
        "Finish of the war": "445 BC",
        "Name of conflict": "Second Sacred War",
        "Start of the conflict": "449 BC",
        "Finish of the conflict": "448 BC",
        "Battle \\/ siege": "Battle of Delphi",
        "Years of battle \\/ siege": ""
    },
    {
        "War": "First Peloponnesian War",
        "Start of the war": "460 BC",
        "Finish of the war": "445 BC",
        "Name of conflict": "",
        "Start of the conflict": "",
        "Finish of the conflict": "",
        "Battle \\/ siege": "Battle of Coronea",
        "Years of battle \\/ siege": "447 BC"
    },
    {
        "War": "Samian War",
        "Start of the war": "440 BC",
        "Finish of the war": "439 BC",
        "Name of conflict": "",
        "Start of the conflict": "",
        "Finish of the conflict": "",
        "Battle \\/ siege": "",
        "Years of battle \\/ siege": ""
    },
    {
        "War": "CorinthianAC/EUR\"Corcyrean War",
        "Start of the war": "435 BC",
        "Finish of the war": "433 BC",
        "Name of conflict": "",
        "Start of the conflict": "",
        "Finish of the conflict": "",
        "Battle \\/ siege": "Battle of Actium",
        "Years of battle \\/ siege": "434 BC"
    },
    {
        "War": "CorinthianAC/EUR\"Corcyrean War",
        "Start of the war": "435 BC",
        "Finish of the war": "433 BC",
        "Name of conflict": "",
        "Start of the conflict": "",
        "Finish of the conflict": "",
        "Battle \\/ siege": "Battle of Sybota",
        "Years of battle \\/ siege": "433 BC"
    },
    {
        "War": "",
        "Start of the war": "",
        "Finish of the war": "",
        "Name of conflict": "",
        "Start of the conflict": "",
        "Finish of the conflict": "",
        "Battle \\/ siege": "Battle of Potidaea",
        "Years of battle \\/ siege": "432 BC"
    },
    {
        "War": "Peloponnesian War",
        "Start of the war": "431 BC",
        "Finish of the war": "404 BC",
        "Name of conflict": "Archidamian War",
        "Start of the conflict": "431 BC",
        "Finish of the conflict": "421 BC",
        "Battle \\/ siege": "Battle of Spartolos",
        "Years of battle \\/ siege": "429 BC"
    },
    {
        "War": "Peloponnesian War",
        "Start of the war": "431 BC",
        "Finish of the war": "404 BC",
        "Name of conflict": "Archidamian War",
        "Start of the conflict": "431 BC",
        "Finish of the conflict": "421 BC",
        "Battle \\/ siege": "Siege of Plataea",
        "Years of battle \\/ siege": "429 BC-427 BC"
    },
    {
        "War": "Peloponnesian War",
        "Start of the war": "431 BC",
        "Finish of the war": "404 BC",
        "Name of conflict": "Archidamian War",
        "Start of the conflict": "431 BC",
        "Finish of the conflict": "421 BC",
        "Battle \\/ siege": "Battle of Naupactus",
        "Years of battle \\/ siege": "429 BC"
    },
    {
        "War": "Peloponnesian War",
        "Start of the war": "431 BC",
        "Finish of the war": "404 BC",
        "Name of conflict": "Archidamian War",
        "Start of the conflict": "431 BC",
        "Finish of the conflict": "421 BC",
        "Battle \\/ siege": "Battle of Rhium\\/ Battle of Chalcis",
        "Years of battle \\/ siege": "429 BC"
    },
    {
        "War": "Peloponnesian War",
        "Start of the war": "431 BC",
        "Finish of the war": "404 BC",
        "Name of conflict": "Archidamian War",
        "Start of the conflict": "431 BC",
        "Finish of the conflict": "421 BC",
        "Battle \\/ siege": "Mytilenean revolt",
        "Years of battle \\/ siege": "428 BC-427 BC"
    },
    {
        "War": "Peloponnesian War",
        "Start of the war": "431 BC",
        "Finish of the war": "404 BC",
        "Name of conflict": "Archidamian War",
        "Start of the conflict": "431 BC",
        "Finish of the conflict": "421 BC",
        "Battle \\/ siege": "Battle of Tanagra",
        "Years of battle \\/ siege": "426 BC"
    },
    {
        "War": "Peloponnesian War",
        "Start of the war": "431 BC",
        "Finish of the war": "404 BC",
        "Name of conflict": "Archidamian War",
        "Start of the conflict": "431 BC",
        "Finish of the conflict": "421 BC",
        "Battle \\/ siege": "Aetolian campaign",
        "Years of battle \\/ siege": "426 BC"
    },
    {
        "War": "Peloponnesian War",
        "Start of the war": "431 BC",
        "Finish of the war": "404 BC",
        "Name of conflict": "Archidamian War",
        "Start of the conflict": "431 BC",
        "Finish of the conflict": "421 BC",
        "Battle \\/ siege": "Battle of Olpae",
        "Years of battle \\/ siege": "426 BC"
    },
    {
        "War": "Peloponnesian War",
        "Start of the war": "431 BC",
        "Finish of the war": "404 BC",
        "Name of conflict": "Archidamian War",
        "Start of the conflict": "431 BC",
        "Finish of the conflict": "421 BC",
        "Battle \\/ siege": "Battle of Idomene",
        "Years of battle \\/ siege": "426 BC"
    },
    {
        "War": "Peloponnesian War",
        "Start of the war": "431 BC",
        "Finish of the war": "404 BC",
        "Name of conflict": "Archidamian War",
        "Start of the conflict": "431 BC",
        "Finish of the conflict": "421 BC",
        "Battle \\/ siege": "Battle of Delium",
        "Years of battle \\/ siege": "424 BC"
    },
    {
        "War": "Peloponnesian War",
        "Start of the war": "431 BC",
        "Finish of the war": "404 BC",
        "Name of conflict": "Archidamian War",
        "Start of the conflict": "431 BC",
        "Finish of the conflict": "421 BC",
        "Battle \\/ siege": "Battle of Megara",
        "Years of battle \\/ siege": "424 BC"
    },
    {
        "War": "Peloponnesian War",
        "Start of the war": "431 BC",
        "Finish of the war": "404 BC",
        "Name of conflict": "Archidamian War",
        "Start of the conflict": "431 BC",
        "Finish of the conflict": "421 BC",
        "Battle \\/ siege": "Battle of Pylos",
        "Years of battle \\/ siege": "425 BC"
    },
    {
        "War": "Peloponnesian War",
        "Start of the war": "431 BC",
        "Finish of the war": "404 BC",
        "Name of conflict": "Archidamian War",
        "Start of the conflict": "431 BC",
        "Finish of the conflict": "421 BC",
        "Battle \\/ siege": "Battle of Sphacteria",
        "Years of battle \\/ siege": "425 BC"
    },
    {
        "War": "Peloponnesian War",
        "Start of the war": "431 BC",
        "Finish of the war": "404 BC",
        "Name of conflict": "Archidamian War",
        "Start of the conflict": "431 BC",
        "Finish of the conflict": "421 BC",
        "Battle \\/ siege": "Battle of Amphipolis",
        "Years of battle \\/ siege": "422 BC"
    },
    {
        "War": "Peloponnesian War",
        "Start of the war": "431 BC",
        "Finish of the war": "404 BC",
        "Name of conflict": "The years after the \\Peace of Nicias\"\"",
        "Start of the conflict": "420 BC",
        "Finish of the conflict": "414 BC",
        "Battle \\/ siege": "Battle of Mantinea",
        "Years of battle \\/ siege": "418 BC"
    },
    {
        "War": "Peloponnesian War",
        "Start of the war": "431 BC",
        "Finish of the war": "404 BC",
        "Name of conflict": "The years after the \\Peace of Nicias\"\"",
        "Start of the conflict": "420 BC",
        "Finish of the conflict": "414 BC",
        "Battle \\/ siege": "Battle of Hysiae",
        "Years of battle \\/ siege": "417 BC"
    },
    {
        "War": "Peloponnesian War",
        "Start of the war": "431 BC",
        "Finish of the war": "404 BC",
        "Name of conflict": "The years after the \\Peace of Nicias\"\"",
        "Start of the conflict": "420 BC",
        "Finish of the conflict": "414 BC",
        "Battle \\/ siege": "Battle of Melos",
        "Years of battle \\/ siege": "415 BC"
    },
    {
        "War": "Peloponnesian War",
        "Start of the war": "431 BC",
        "Finish of the war": "404 BC",
        "Name of conflict": "Sicilian Expedition",
        "Start of the conflict": "415 BC",
        "Finish of the conflict": "413 BC",
        "Battle \\/ siege": "Siege of Syracuse",
        "Years of battle \\/ siege": "415 BC-413 BC"
    },
    {
        "War": "Peloponnesian War",
        "Start of the war": "431 BC",
        "Finish of the war": "404 BC",
        "Name of conflict": "Decelean War \\/ Ionian War",
        "Start of the conflict": "413 BC",
        "Finish of the conflict": "404 BC",
        "Battle \\/ siege": "Siege of Miletus",
        "Years of battle \\/ siege": "412 BC"
    },
    {
        "War": "Peloponnesian War",
        "Start of the war": "431 BC",
        "Finish of the war": "404 BC",
        "Name of conflict": "Decelean War \\/ Ionian War",
        "Start of the conflict": "413 BC",
        "Finish of the conflict": "404 BC",
        "Battle \\/ siege": "Battle of Panormus",
        "Years of battle \\/ siege": "412 BC"
    },
    {
        "War": "Peloponnesian War",
        "Start of the war": "431 BC",
        "Finish of the war": "404 BC",
        "Name of conflict": "Decelean War \\/ Ionian War",
        "Start of the conflict": "413 BC",
        "Finish of the conflict": "404 BC",
        "Battle \\/ siege": "Battle of Miletus",
        "Years of battle \\/ siege": "412 BC"
    },
    {
        "War": "Peloponnesian War",
        "Start of the war": "431 BC",
        "Finish of the war": "404 BC",
        "Name of conflict": "Decelean War \\/ Ionian War",
        "Start of the conflict": "413 BC",
        "Finish of the conflict": "404 BC",
        "Battle \\/ siege": "Battle of Eretria",
        "Years of battle \\/ siege": "411 BC"
    },
    {
        "War": "Peloponnesian War",
        "Start of the war": "431 BC",
        "Finish of the war": "404 BC",
        "Name of conflict": "Decelean War \\/ Ionian War",
        "Start of the conflict": "413 BC",
        "Finish of the conflict": "404 BC",
        "Battle \\/ siege": "Battle of Syme",
        "Years of battle \\/ siege": "411 BC"
    },
    {
        "War": "Peloponnesian War",
        "Start of the war": "431 BC",
        "Finish of the war": "404 BC",
        "Name of conflict": "Decelean War \\/ Ionian War",
        "Start of the conflict": "413 BC",
        "Finish of the conflict": "404 BC",
        "Battle \\/ siege": "Battle of Cynossema",
        "Years of battle \\/ siege": "411 BC"
    },
    {
        "War": "Peloponnesian War",
        "Start of the war": "431 BC",
        "Finish of the war": "404 BC",
        "Name of conflict": "Decelean War \\/ Ionian War",
        "Start of the conflict": "413 BC",
        "Finish of the conflict": "404 BC",
        "Battle \\/ siege": "Battle of Cyzicus",
        "Years of battle \\/ siege": "410 BC"
    },
    {
        "War": "Peloponnesian War",
        "Start of the war": "431 BC",
        "Finish of the war": "404 BC",
        "Name of conflict": "Decelean War \\/ Ionian War",
        "Start of the conflict": "413 BC",
        "Finish of the conflict": "404 BC",
        "Battle \\/ siege": "Battle of Abydos",
        "Years of battle \\/ siege": "410 BC"
    },
    {
        "War": "Peloponnesian War",
        "Start of the war": "431 BC",
        "Finish of the war": "404 BC",
        "Name of conflict": "Decelean War \\/ Ionian War",
        "Start of the conflict": "413 BC",
        "Finish of the conflict": "404 BC",
        "Battle \\/ siege": "Siege of Chalcedon",
        "Years of battle \\/ siege": "408 BC"
    },
    {
        "War": "Peloponnesian War",
        "Start of the war": "431 BC",
        "Finish of the war": "404 BC",
        "Name of conflict": "Decelean War \\/ Ionian War",
        "Start of the conflict": "413 BC",
        "Finish of the conflict": "404 BC",
        "Battle \\/ siege": "Siege of Byzantium",
        "Years of battle \\/ siege": "408 BC"
    },
    {
        "War": "Peloponnesian War",
        "Start of the war": "431 BC",
        "Finish of the war": "404 BC",
        "Name of conflict": "Decelean War \\/ Ionian War",
        "Start of the conflict": "413 BC",
        "Finish of the conflict": "404 BC",
        "Battle \\/ siege": "Battle of Notium",
        "Years of battle \\/ siege": "407 BC"
    },
    {
        "War": "Peloponnesian War",
        "Start of the war": "431 BC",
        "Finish of the war": "404 BC",
        "Name of conflict": "Decelean War \\/ Ionian War",
        "Start of the conflict": "413 BC",
        "Finish of the conflict": "404 BC",
        "Battle \\/ siege": "Battle of Mytilene",
        "Years of battle \\/ siege": "406 BC"
    },
    {
        "War": "Peloponnesian War",
        "Start of the war": "431 BC",
        "Finish of the war": "404 BC",
        "Name of conflict": "Decelean War \\/ Ionian War",
        "Start of the conflict": "413 BC",
        "Finish of the conflict": "404 BC",
        "Battle \\/ siege": "Battle of Notium\\/Ephesus",
        "Years of battle \\/ siege": "406 BC"
    },
    {
        "War": "Peloponnesian War",
        "Start of the war": "431 BC",
        "Finish of the war": "404 BC",
        "Name of conflict": "Decelean War \\/ Ionian War",
        "Start of the conflict": "413 BC",
        "Finish of the conflict": "404 BC",
        "Battle \\/ siege": "Battle of Arginusae",
        "Years of battle \\/ siege": "406 BC"
    },
    {
        "War": "Peloponnesian War",
        "Start of the war": "431 BC",
        "Finish of the war": "404 BC",
        "Name of conflict": "Decelean War \\/ Ionian War",
        "Start of the conflict": "413 BC",
        "Finish of the conflict": "404 BC",
        "Battle \\/ siege": "Battle of Aegospotami",
        "Years of battle \\/ siege": "405 BC"
    },
    {
        "War": "Phyle Campaign",
        "Start of the war": "404 BC",
        "Finish of the war": "403 BC",
        "Name of conflict": "",
        "Start of the conflict": "",
        "Finish of the conflict": "",
        "Battle \\/ siege": "Battle of Phyle",
        "Years of battle \\/ siege": "404 BC or 403 BC"
    },
    {
        "War": "Phyle Campaign",
        "Start of the war": "404 BC",
        "Finish of the war": "403 BC",
        "Name of conflict": "",
        "Start of the conflict": "",
        "Finish of the conflict": "",
        "Battle \\/ siege": "Battle of Munichia",
        "Years of battle \\/ siege": "404 BC or 403 BC"
    },
    {
        "War": "Phyle Campaign",
        "Start of the war": "404 BC",
        "Finish of the war": "403 BC",
        "Name of conflict": "",
        "Start of the conflict": "",
        "Finish of the conflict": "",
        "Battle \\/ siege": "Battle of Piraeus",
        "Years of battle \\/ siege": "403 BC"
    }
]