[
    {
        "Civilisation": "Culture",
        "Ship Type": "GCU",
        "Name": "Different Tan",
        "Class": "Mountain",
        "Comments": ""
    },
    {
        "Civilisation": "Culture",
        "Ship Type": "GCU",
        "Name": "Fate Amenable To Change",
        "Class": "Escarpment",
        "Comments": ""
    },
    {
        "Civilisation": "Culture",
        "Ship Type": "GCU",
        "Name": "Grey Area (aka Meatfucker)",
        "Class": "n\\/a",
        "Comments": "Ostracised for non-consensual mindreading of biological individuals, earning it the condemnation of other ships, who then ignored its chosen name in favor of Meatfucker."
    },
    {
        "Civilisation": "Culture",
        "Ship Type": "GCU",
        "Name": "It's Character Forming",
        "Class": "n\\/a",
        "Comments": ""
    },
    {
        "Civilisation": "Culture",
        "Ship Type": "GCU",
        "Name": "Jaundiced Outlook",
        "Class": "Ridge",
        "Comments": "Child ship of the Sleeper Service."
    },
    {
        "Civilisation": "Culture",
        "Ship Type": "GCU",
        "Name": "Problem Child",
        "Class": "Troubadour",
        "Comments": "Early (vs Excession-contemporary) GCU, historical mention. Nominally captained by Zreyn Tramow."
    },
    {
        "Civilisation": "Culture",
        "Ship Type": "GCU",
        "Name": "Reasonable Excuse",
        "Class": "n\\/a",
        "Comments": ""
    },
    {
        "Civilisation": "Culture",
        "Ship Type": "GCU",
        "Name": "Recent Convert",
        "Class": "n\\/a",
        "Comments": ""
    },
    {
        "Civilisation": "Culture",
        "Ship Type": "GCU",
        "Name": "Tactical Grace",
        "Class": "Escarpment",
        "Comments": ""
    },
    {
        "Civilisation": "Culture",
        "Ship Type": "GCU",
        "Name": "Unacceptable Behaviour",
        "Class": "n\\/a",
        "Comments": ""
    },
    {
        "Civilisation": "Culture",
        "Ship Type": "GCV",
        "Name": "Steely Glint",
        "Class": "Plains",
        "Comments": ""
    },
    {
        "Civilisation": "Culture Ulterior",
        "Ship Type": "n\\/a",
        "Name": "Highpoint",
        "Class": "n\\/a",
        "Comments": ""
    },
    {
        "Civilisation": "Culture Ulterior",
        "Ship Type": "ROU",
        "Name": "Shoot Them Later",
        "Class": "Gangster",
        "Comments": "Eccentric and Ulterior AhForgetIt Tendency"
    },
    {
        "Civilisation": "Culture",
        "Ship Type": "LOU",
        "Name": "Attitude Adjuster",
        "Class": "Killer",
        "Comments": ""
    },
    {
        "Civilisation": "Culture",
        "Ship Type": "ROU",
        "Name": "Killing Time",
        "Class": "Torturer",
        "Comments": "A pun on a saying that 99% of war is just killing time, while the rest is the killing time."
    },
    {
        "Civilisation": "Culture",
        "Ship Type": "ROU",
        "Name": "Heavy Messing",
        "Class": "Gangster",
        "Comments": "Possibly a pun on the same phrase in from Glaswegian, or from Ned-ese. Generally if one is said to be \\heavy messing\" they are considered by an aggrieved party to be interfering or aggravating a situation in which they have little to no stake in.\""
    },
    {
        "Civilisation": "Culture",
        "Ship Type": "dROU",
        "Name": "Frank Exchange Of Views",
        "Class": "Psychopath",
        "Comments": ""
    },
    {
        "Civilisation": "Culture",
        "Ship Type": "GSV",
        "Name": "Anticipation Of A New Lover's Arrival, The",
        "Class": "Plate",
        "Comments": ""
    },
    {
        "Civilisation": "Culture",
        "Ship Type": "GSV",
        "Name": "Death and Gravity",
        "Class": "n\\/a",
        "Comments": "Its name is a play on the adage that only death and taxes are inevitable; \taxes\" are replaced with gravity"
    },
    {
        "Civilisation": "Culture",
        "Ship Type": "GSV",
        "Name": "Ethics Gradient",
        "Class": "Range",
        "Comments": ""
    },
    {
        "Civilisation": "Culture",
        "Ship Type": "GSV",
        "Name": "Honest Mistake",
        "Class": "n\\/a",
        "Comments": ""
    },
    {
        "Civilisation": "Culture",
        "Ship Type": "GSV",
        "Name": "Limivorous",
        "Class": "Ocean",
        "Comments": ""
    },
    {
        "Civilisation": "Culture Sabbaticaler",
        "Ship Type": "GSV",
        "Name": "No Fixed Abode",
        "Class": "Ex-Equator",
        "Comments": "In Britain the term means a 'rough sleeper' or homeless person. Its name is an observation on itself as a moving starship inherently has no fixed abode."
    },
    {
        "Civilisation": "Culture Eccentric",
        "Ship Type": "GSV",
        "Name": "Quietly Confident, later Sleeper Service",
        "Class": "Plate",
        "Comments": "Known as storage ship for biological persons in stasis. The name Sleeper Service is a pun on sleeping car (transport) and sleeper agent (espionage). It also secretly converts itself to be \\mostly engine\" so it can move unexpectedly quickly - a parallel to sleeper cars (racing).\""
    },
    {
        "Civilisation": "Culture",
        "Ship Type": "GSV",
        "Name": "Uninvited Guest",
        "Class": "n\\/a",
        "Comments": ""
    },
    {
        "Civilisation": "Culture",
        "Ship Type": "GSV",
        "Name": "Use Psychology",
        "Class": "n\\/a",
        "Comments": ""
    },
    {
        "Civilisation": "Culture",
        "Ship Type": "GSV",
        "Name": "What Is The Answer and Why?",
        "Class": "n\\/a",
        "Comments": ""
    },
    {
        "Civilisation": "Culture",
        "Ship Type": "GSV",
        "Name": "Wisdom Like Silence",
        "Class": "Continent",
        "Comments": ""
    },
    {
        "Civilisation": "Culture",
        "Ship Type": "GSV",
        "Name": "Yawning Angel",
        "Class": "Range",
        "Comments": ""
    },
    {
        "Civilisation": "Culture",
        "Ship Type": "GSV",
        "Name": "Zero Gravitas",
        "Class": "n\\/a",
        "Comments": "Part of the \\... Gravitas ...\" running gag.[4]\""
    },
    {
        "Civilisation": "Culture",
        "Ship Type": "LSV",
        "Name": "Misophist",
        "Class": "n\\/a",
        "Comments": ""
    },
    {
        "Civilisation": "Culture",
        "Ship Type": "LSV",
        "Name": "Serious Callers Only",
        "Class": "Tundra",
        "Comments": ""
    },
    {
        "Civilisation": "Culture",
        "Ship Type": "MSV",
        "Name": "Not Invented Here",
        "Class": "Desert",
        "Comments": "The Desert-class was originally a GSV that was demoted to MSV as Culture ship sizes grew. The Not Invented Here is also referred to as an actual GSV twice (Genar-Hofoen was told that the NIH was a GSV by Tish, and he subsequently refers to it as a GSV even after knowing that it is now a MSV) and once as an LSV by the author in narration, but it is predominantly (and self-identified as) a Desert-class MSV"
    },
    {
        "Civilisation": "Culture",
        "Ship Type": "Superlifter",
        "Name": "Charitable View",
        "Class": "Cliff",
        "Comments": ""
    },
    {
        "Civilisation": "Culture",
        "Ship Type": "n\\/a",
        "Name": "I Blame My Mother",
        "Class": "n\\/a",
        "Comments": ""
    },
    {
        "Civilisation": "Culture",
        "Ship Type": "n\\/a",
        "Name": "I Blame Your Mother",
        "Class": "n\\/a",
        "Comments": ""
    },
    {
        "Civilisation": "Culture",
        "Ship Type": "Cruise Ship",
        "Name": "Just Passing Through",
        "Class": "n\\/a",
        "Comments": ""
    },
    {
        "Civilisation": "Culture Convertcraft",
        "Ship Type": "Main Battle Unit",
        "Name": "Full Refund (formerly MBU 604)",
        "Class": "Empire",
        "Comments": "Former Homomdan MBU, now Culture Convertcraft"
    },
    {
        "Civilisation": "Zetetic Elench",
        "Ship Type": "n\\/a",
        "Name": "Appeal To Reason",
        "Class": "n\\/a",
        "Comments": "Part of the Stargazer Clan"
    },
    {
        "Civilisation": "Zetetic Elench",
        "Ship Type": "Explorer",
        "Name": "Break Even",
        "Class": "n\\/a",
        "Comments": "Part of the Stargazer Clan"
    },
    {
        "Civilisation": "Zetetic Elench",
        "Ship Type": "n\\/a",
        "Name": "Long View",
        "Class": "n\\/a",
        "Comments": "Part of the Stargazer Clan"
    },
    {
        "Civilisation": "Zetetic Elench",
        "Ship Type": "Explorer",
        "Name": "Peace Makes Plenty",
        "Class": "n\\/a",
        "Comments": "Part of the Stargazer Clan"
    },
    {
        "Civilisation": "Zetetic Elench",
        "Ship Type": "Explorer",
        "Name": "Sober Counsel",
        "Class": "n\\/a",
        "Comments": "Part of the Stargazer Clan"
    },
    {
        "Civilisation": "Zetetic Elench",
        "Ship Type": "n\\/a",
        "Name": "Within Reason",
        "Class": "n\\/a",
        "Comments": "Part of the Stargazer Clan"
    },
    {
        "Civilisation": "Affront",
        "Ship Type": "n\\/a",
        "Name": "Kiss the Blade",
        "Class": "",
        "Comments": ""
    },
    {
        "Civilisation": "Affront",
        "Ship Type": "n\\/a",
        "Name": "Frightspear",
        "Class": "n\\/a",
        "Comments": ""
    },
    {
        "Civilisation": "Affront",
        "Ship Type": "Light Cruiser",
        "Name": "Furious Purpose",
        "Class": "Meteorite",
        "Comments": ""
    },
    {
        "Civilisation": "Affront",
        "Ship Type": "n\\/a",
        "Name": "Riptalon",
        "Class": "n\\/a",
        "Comments": ""
    },
    {
        "Civilisation": "Affront",
        "Ship Type": "n\\/a",
        "Name": "Wingclipper",
        "Class": "n\\/a",
        "Comments": ""
    },
    {
        "Civilisation": "Affront",
        "Ship Type": "n\\/a",
        "Name": "SacSlicer II",
        "Class": "n\\/a",
        "Comments": ""
    },
    {
        "Civilisation": "Affront",
        "Ship Type": "Battleship",
        "Name": "Xenoclast",
        "Class": "n\\/a",
        "Comments": ""
    }
]