[
    {
        "Issue date": "7 January",
        "Song": "\\The Time (Dirty Bit)\"\"",
        "Artist": "The Black Eyed Peas",
        "Album": "GroAfYe Freiheit",
        "Artist 4": "Unheilig"
    },
    {
        "Issue date": "14 January",
        "Song": "\\The Time (Dirty Bit)\"\"",
        "Artist": "The Black Eyed Peas",
        "Album": "GroAfYe Freiheit",
        "Artist 4": "Unheilig"
    },
    {
        "Issue date": "21 January",
        "Song": "\\The Time (Dirty Bit)\"\"",
        "Artist": "The Black Eyed Peas",
        "Album": "Neujahrskonzert 2011",
        "Artist 4": "Vienna Philharmonic \\/ Franz Welser-Most"
    },
    {
        "Issue date": "28 January",
        "Song": "\\Guuugarutz\"\"",
        "Artist": "Trackshittaz",
        "Album": "Neujahrskonzert 2011",
        "Artist 4": "Vienna Philharmonic \\/ Franz Welser-Most"
    },
    {
        "Issue date": "4 February",
        "Song": "\\Hello\"\"",
        "Artist": "Martin Solveig & Dragonette",
        "Album": "21",
        "Artist 4": "Adele"
    },
    {
        "Issue date": "11 February",
        "Song": "\\Should Have Let You Love Me\"\"",
        "Artist": "Cornelia Mooswalder",
        "Album": "Schwerelos",
        "Artist 4": "Andrea Berg"
    },
    {
        "Issue date": "18 February",
        "Song": "\\Hello\"\"",
        "Artist": "Martin Solveig & Dragonette",
        "Album": "Oidaah pumpn muas's",
        "Artist 4": "Trackshittaz"
    },
    {
        "Issue date": "25 February",
        "Song": "\\Hello\"\"",
        "Artist": "Martin Solveig & Dragonette",
        "Album": "Oidaah pumpn muas's",
        "Artist 4": "Trackshittaz"
    },
    {
        "Issue date": "4 March",
        "Song": "\\Hello\"\"",
        "Artist": "Martin Solveig & Dragonette",
        "Album": "Oidaah pumpn muas's",
        "Artist 4": "Trackshittaz"
    },
    {
        "Issue date": "11 March",
        "Song": "\\Hello\"\"",
        "Artist": "Martin Solveig & Dragonette",
        "Album": "Seine grAfAPAfYten Erfolge und mehr",
        "Artist 4": "Peter Alexander"
    },
    {
        "Issue date": "18 March",
        "Song": "AC/EURA3Born This WayAC/EURA3",
        "Artist": "Lady Gaga",
        "Album": "Seine grAfAPAfYten Erfolge und mehr",
        "Artist 4": "Peter Alexander"
    },
    {
        "Issue date": "25 March",
        "Song": "AC/EURA3Born This WayAC/EURA3",
        "Artist": "Lady Gaga",
        "Album": "Seine grAfAPAfYten Erfolge und mehr",
        "Artist 4": "Peter Alexander"
    },
    {
        "Issue date": "1 April",
        "Song": "AC/EURA3Born This WayAC/EURA3",
        "Artist": "Lady Gaga",
        "Album": "Schiffsverkehr",
        "Artist 4": "Herbert Gronemeyer"
    },
    {
        "Issue date": "8 April",
        "Song": "AC/EURA3Born This WayAC/EURA3",
        "Artist": "Lady Gaga",
        "Album": "Schiffsverkehr",
        "Artist 4": "Herbert Gronemeyer"
    },
    {
        "Issue date": "15 April",
        "Song": "\\On the Floor\"\"",
        "Artist": "Jennifer Lopez featuring Pitbull",
        "Album": "Schiffsverkehr",
        "Artist 4": "Herbert Gronemeyer"
    },
    {
        "Issue date": "22 April",
        "Song": "\\A Night Like This\"\"",
        "Artist": "Caro Emerald",
        "Album": "Wasting Light",
        "Artist 4": "Foo Fighters"
    },
    {
        "Issue date": "29 April",
        "Song": "\\On the Floor\"\"",
        "Artist": "Jennifer Lopez featuring Pitbull",
        "Album": "Bobmusik AC/EUR\" das Gelbe Album",
        "Artist 4": "SpongeBob Schwammkopf"
    },
    {
        "Issue date": "6 May",
        "Song": "\\Sweat\"\"",
        "Artist": "Snoop Dogg vs David Guetta",
        "Album": "Star on the Horizon",
        "Artist 4": "Cornelia Mooswalder"
    },
    {
        "Issue date": "13 May",
        "Song": "\\Sweat\"\"",
        "Artist": "Snoop Dogg vs David Guetta",
        "Album": "Let Them Talk",
        "Artist 4": "Hugh Laurie"
    },
    {
        "Issue date": "20 May",
        "Song": "\\Call My Name\"\"",
        "Artist": "Pietro Lombardi",
        "Album": "Der Junge mit der Luftgitarre",
        "Artist 4": "Nik P."
    },
    {
        "Issue date": "27 May",
        "Song": "\\Call My Name\"\"",
        "Artist": "Pietro Lombardi",
        "Album": "Jenseits von gut und bose",
        "Artist 4": "Bushido"
    },
    {
        "Issue date": "3 June",
        "Song": "\\Call My Name\"\"",
        "Artist": "Pietro Lombardi",
        "Album": "Born This Way",
        "Artist 4": "Lady Gaga"
    },
    {
        "Issue date": "10 June",
        "Song": "\\Call My Name\"\"",
        "Artist": "Pietro Lombardi",
        "Album": "Jackpot",
        "Artist 4": "Pietro Lombardi"
    },
    {
        "Issue date": "17 June",
        "Song": "\\Party Rock Anthem\"\"",
        "Artist": "LMFAO featuring Lauren Bennett & GoonRock",
        "Album": "Jackpot",
        "Artist 4": "Pietro Lombardi"
    },
    {
        "Issue date": "24 June",
        "Song": "\\Mr. Saxobeat\"\"",
        "Artist": "Alexandra Stan",
        "Album": "Jackpot",
        "Artist 4": "Pietro Lombardi"
    },
    {
        "Issue date": "1 July",
        "Song": "\\Mr. Saxobeat\"\"",
        "Artist": "Alexandra Stan",
        "Album": "Jackpot",
        "Artist 4": "Pietro Lombardi"
    },
    {
        "Issue date": "8 July",
        "Song": "\\Mr. Saxobeat\"\"",
        "Artist": "Alexandra Stan",
        "Album": "Il Volo",
        "Artist 4": "Il Volo"
    },
    {
        "Issue date": "15 July",
        "Song": "\\Mr. Saxobeat\"\"",
        "Artist": "Alexandra Stan",
        "Album": "Prolettn feian langaah",
        "Artist 4": "Trackshittaz"
    },
    {
        "Issue date": "22 July",
        "Song": "\\Mr. Saxobeat\"\"",
        "Artist": "Alexandra Stan",
        "Album": "Prolettn feian langaah",
        "Artist 4": "Trackshittaz"
    },
    {
        "Issue date": "29 July",
        "Song": "\\Mr. Saxobeat\"\"",
        "Artist": "Alexandra Stan",
        "Album": "Zieh dich an und geh",
        "Artist 4": "Nockalm Quintett"
    },
    {
        "Issue date": "5 August",
        "Song": "\\Mr. Saxobeat\"\"",
        "Artist": "Alexandra Stan",
        "Album": "Mein Himmel auf Erden",
        "Artist 4": "Amigos"
    },
    {
        "Issue date": "12 August",
        "Song": "\\Danza Kuduro\"\"",
        "Artist": "Lucenzo featuring Don Omar",
        "Album": "Back to Black",
        "Artist 4": "Amy Winehouse"
    },
    {
        "Issue date": "19 August",
        "Song": "\\Danza Kuduro\"\"",
        "Artist": "Lucenzo featuring Don Omar",
        "Album": "Back to Black",
        "Artist 4": "Amy Winehouse"
    },
    {
        "Issue date": "26 August",
        "Song": "\\Danza Kuduro\"\"",
        "Artist": "Lucenzo featuring Don Omar",
        "Album": "Die Superstars der Klassik",
        "Artist 4": "Erwin Schrott, Anna Netrebko & Jonas Kaufmann"
    },
    {
        "Issue date": "2 September",
        "Song": "\\Danza Kuduro\"\"",
        "Artist": "Lucenzo featuring Don Omar",
        "Album": "Herzwerk",
        "Artist 4": "Andreas Gabalier"
    },
    {
        "Issue date": "9 September",
        "Song": "\\Loca People\"\"",
        "Artist": "Sak Noel",
        "Album": "Nothing but the Beat",
        "Artist 4": "David Guetta"
    },
    {
        "Issue date": "16 September",
        "Song": "\\Loca People\"\"",
        "Artist": "Sak Noel",
        "Album": "Nothing but the Beat",
        "Artist 4": "David Guetta"
    },
    {
        "Issue date": "23 September",
        "Song": "\\Moves Like Jagger\"\"",
        "Artist": "Maroon 5 featuring Christina Aguilera",
        "Album": "Nothing but the Beat",
        "Artist 4": "David Guetta"
    },
    {
        "Issue date": "30 September",
        "Song": "\\I Won't Let You Go\"\"",
        "Artist": "James Morrison",
        "Album": "SuperHeavy",
        "Artist 4": "SuperHeavy"
    },
    {
        "Issue date": "7 October",
        "Song": "\\New Age\"\"",
        "Artist": "Marlon Roudette",
        "Album": "Wir sind am Leben",
        "Artist 4": "Rosenstolz"
    },
    {
        "Issue date": "14 October",
        "Song": "\\Brenna tuats guat\"\"",
        "Artist": "Hubert von Goisern",
        "Album": "Abenteuer",
        "Artist 4": "Andrea Berg"
    },
    {
        "Issue date": "21 October",
        "Song": "\\Brenna tuats guat\"\"",
        "Artist": "Hubert von Goisern",
        "Album": "Abenteuer",
        "Artist 4": "Andrea Berg"
    },
    {
        "Issue date": "28 October",
        "Song": "\\Brenna tuats guat\"\"",
        "Artist": "Hubert von Goisern",
        "Album": "Volks-Rock'n'Roller",
        "Artist 4": "Andreas Gabalier"
    },
    {
        "Issue date": "4 November",
        "Song": "\\Brenna tuats guat\"\"",
        "Artist": "Hubert von Goisern",
        "Album": "Volks-Rock'n'Roller",
        "Artist 4": "Andreas Gabalier"
    },
    {
        "Issue date": "11 November",
        "Song": "\\Brenna tuats guat\"\"",
        "Artist": "Hubert von Goisern",
        "Album": "Volks-Rock'n'Roller",
        "Artist 4": "Andreas Gabalier"
    },
    {
        "Issue date": "18 November",
        "Song": "\\Geronimo\"\"",
        "Artist": "Aura Dione",
        "Album": "Volks-Rock'n'Roller",
        "Artist 4": "Andreas Gabalier"
    },
    {
        "Issue date": "25 November",
        "Song": "\\Good Feeling\"\"",
        "Artist": "Flo Rida",
        "Album": "Volks-Rock'n'Roller",
        "Artist 4": "Andreas Gabalier"
    },
    {
        "Issue date": "2 December",
        "Song": "\\Hangover\"\"",
        "Artist": "Taio Cruz featuring Flo Rida",
        "Album": "Talk That Talk",
        "Artist 4": "Rihanna"
    },
    {
        "Issue date": "9 December",
        "Song": "\\Hangover\"\"",
        "Artist": "Taio Cruz featuring Flo Rida",
        "Album": "Kiddy Contest Vol. 17",
        "Artist 4": ""
    },
    {
        "Issue date": "16 December",
        "Song": "\\Hangover\"\"",
        "Artist": "Taio Cruz featuring Flo Rida",
        "Album": "Lioness: Hidden Treasures",
        "Artist 4": "Amy Winehouse"
    },
    {
        "Issue date": "23 December",
        "Song": "\\Hangover\"\"",
        "Artist": "Taio Cruz featuring Flo Rida",
        "Album": "Christmas",
        "Artist 4": "Michael Buble"
    },
    {
        "Issue date": "30 December",
        "Song": "No Top 40 released",
        "Artist": "",
        "Album": "",
        "Artist 4": ""
    }
]