[
    {
        "Title": "1981",
        "Director": "",
        "Cast": "",
        "Genre": "",
        "Notes": ""
    },
    {
        "Title": "All The Wrong Clues For The Right Solution",
        "Director": "Tsui Hark",
        "Cast": "George Lam, Teddy Robin Kwan, Karl Maka",
        "Genre": "Comedy",
        "Notes": "[1][2]"
    },
    {
        "Title": "Ambitious Kung Fu Girl",
        "Director": "Lu Chin Ku",
        "Cast": "Chen Kuan-tai, Michelle Yim, Lin Hsiu-chun",
        "Genre": "",
        "Notes": "[3]"
    },
    {
        "Title": "Avengers From Hell",
        "Director": "Pei-chuan Li",
        "Cast": "Tung-kua Ai, Man-Biu Bak, Philip Chan",
        "Genre": "",
        "Notes": "[4]"
    },
    {
        "Title": "The Battle For The Republic Of China",
        "Director": "Ting Shan-si",
        "Cast": "Ti Lung, Joan Lin, Ko Chun-hsiung",
        "Genre": "",
        "Notes": "[5]"
    },
    {
        "Title": "Beware of Pickpockets",
        "Director": "Wu Ma",
        "Cast": "Dean Shek, Karl Maka",
        "Genre": "",
        "Notes": "[6][7]"
    },
    {
        "Title": "Bewitched",
        "Director": "Kuei Chih-hung",
        "Cast": "Ai Fei, Melvin Wong, Chan Li-li",
        "Genre": "Horror",
        "Notes": "[8][9]"
    },
    {
        "Title": "The Big Boss Big",
        "Director": "Li Zuonan",
        "Cast": "Wangguan Xiong, Yang Huishan, Yasuaki Kurata",
        "Genre": "",
        "Notes": "[10]"
    },
    {
        "Title": "The Cannonball Run",
        "Director": "Hal Needham",
        "Cast": "Jackie Chan, Michael Hui, Burt Reynolds, Roger Moore, Farrah Fawcett",
        "Genre": "",
        "Notes": "[11][12]"
    },
    {
        "Title": "Dreadnaught",
        "Director": "Yuen Woo Ping",
        "Cast": "Yuen Biao, Bryan Leung, Kwan Tak-hing, Yuen Shun-yi, Phillip Ko",
        "Genre": "Action",
        "Notes": "[13][14]"
    },
    {
        "Title": "Emperor and His Brother",
        "Director": "Chor Yuen",
        "Cast": "Ti Lung, Lo Lieh, Pai Piao",
        "Genre": "",
        "Notes": "[15]"
    },
    {
        "Title": "Masked Avengers",
        "Director": "Chang Cheh",
        "Cast": "Chiang Sheng, Chu Ko, Chien Hsiao-hao",
        "Genre": "",
        "Notes": "[16]"
    },
    {
        "Title": "My Young Auntie",
        "Director": "Lau Kar-leung",
        "Cast": "Lau Kar-leung, Kara Hui, Hsiao Hou",
        "Genre": "Action",
        "Notes": "[17][18]"
    },
    {
        "Title": "The Prodigal Son",
        "Director": "Sammo Hung",
        "Cast": "Sammo Hung, Yuen Biao, Lam Ching-ying",
        "Genre": "",
        "Notes": "[19]"
    },
    {
        "Title": "Security Unlimited",
        "Director": "Michael Hui",
        "Cast": "Samuel Hui, Michael Hui, Ricky Hui",
        "Genre": "",
        "Notes": "[20]"
    },
    {
        "Title": "The Story of Woo Viet",
        "Director": "Ann Hui",
        "Cast": "Chow Yun-fat, Lo Lieh, Cherie Chung",
        "Genre": "",
        "Notes": "[21]"
    },
    {
        "Title": "Tower of Death",
        "Director": "Ng See-yuen",
        "Cast": "Bruce Lee, Tong Lung, Huong Cheng-li",
        "Genre": "Action",
        "Notes": "[22][23]"
    }
]