[
    {
        "Name": "Tom Rachman",
        "Lifetime": "",
        "Genre": "novelist",
        "Notable works": "The Imperfectionists"
    },
    {
        "Name": "Thomas Head Raddall",
        "Lifetime": "1903AC/EUR\"1994",
        "Genre": "novelist",
        "Notable works": "The Pied Piper of Dipper Creek, At the Tide's Turn and Other Stories"
    },
    {
        "Name": "Kenneth Radu",
        "Lifetime": "",
        "Genre": "novelist, poet, short stories",
        "Notable works": "The Cost of Living, Distant Relations, A Private Performance"
    },
    {
        "Name": "Nasrin Rahimieh",
        "Lifetime": "living",
        "Genre": "Persian literature",
        "Notable works": "Missing Persians: Discovering Voices in Iranian Cultural Heritage"
    },
    {
        "Name": "Gurcharan Rampuri",
        "Lifetime": "",
        "Genre": "",
        "Notable works": ""
    },
    {
        "Name": "Edeet Ravel",
        "Lifetime": "b. 1955",
        "Genre": "novelist",
        "Notable works": "A Wall of Light, Ten Thousand Lovers"
    },
    {
        "Name": "Angela Rawlings",
        "Lifetime": "",
        "Genre": "",
        "Notable works": ""
    },
    {
        "Name": "Wayne Ray",
        "Lifetime": "",
        "Genre": "short stories",
        "Notable works": "Giants of the North, Going Down Goose Lane Toward Broken Jaw"
    },
    {
        "Name": "Mark A. Rayner",
        "Lifetime": "",
        "Genre": "",
        "Notable works": ""
    },
    {
        "Name": "James Reaney",
        "Lifetime": "1926AC/EUR\"2008",
        "Genre": "poet, playwright",
        "Notable works": "The Red Heart, A Suit of Nettles, Colours in the Dark, Black Donnelly's"
    },
    {
        "Name": "Duke Redbird",
        "Lifetime": "b. 1939",
        "Genre": "poet, academic, journalist",
        "Notable works": ""
    },
    {
        "Name": "Michael Redhill",
        "Lifetime": "",
        "Genre": "novelist, short stories",
        "Notable works": "Martin Sloane"
    },
    {
        "Name": "Gayla Reid",
        "Lifetime": "",
        "Genre": "",
        "Notable works": ""
    },
    {
        "Name": "Raziel Reid",
        "Lifetime": "",
        "Genre": "",
        "Notable works": ""
    },
    {
        "Name": "Stephen Reid",
        "Lifetime": "",
        "Genre": "memoirist, novelist",
        "Notable works": "Jack Rabbit Parole"
    },
    {
        "Name": "Kati Rekai",
        "Lifetime": "b. 1921",
        "Genre": "",
        "Notable works": "The Adventures of Mickey, Taggy, Puppo, and Cica and How They Discover Toronto, Ottawa, Montreal, Budapest, Vienna, The Netherlands, France, Italy, Switzerland, and Greece"
    },
    {
        "Name": "Shane Rhodes",
        "Lifetime": "",
        "Genre": "poet",
        "Notable works": "The Holding Pattern, The Bindery"
    },
    {
        "Name": "Francois Ricard",
        "Lifetime": "b. 1947",
        "Genre": "biographer, essayist",
        "Notable works": "La litterature contre elle-meme, Gabrielle Roy, une vie"
    },
    {
        "Name": "Nino Ricci",
        "Lifetime": "b. 1959",
        "Genre": "novelist",
        "Notable works": "Lives of the Saints"
    },
    {
        "Name": "David Adams Richards",
        "Lifetime": "b. 1950",
        "Genre": "novelist",
        "Notable works": "The Bay of Love and Sorrows, Mercy Among the Children, Nights Below Station Street"
    },
    {
        "Name": "Evelyn M. Richardson",
        "Lifetime": "1902AC/EUR\"1976",
        "Genre": "novelist",
        "Notable works": "Desired Haven"
    },
    {
        "Name": "John Richardson",
        "Lifetime": "1796AC/EUR\"1852",
        "Genre": "novelist",
        "Notable works": "Wacousta"
    },
    {
        "Name": "Daniel Richler",
        "Lifetime": "b. 1957",
        "Genre": "novelist, journalist",
        "Notable works": "Kicking Tomorrow"
    },
    {
        "Name": "Emma Richler",
        "Lifetime": "b. 1961",
        "Genre": "novelist, short stories",
        "Notable works": "Sister Crazy, Feed My Dear Dogs"
    },
    {
        "Name": "Jacob Richler",
        "Lifetime": "",
        "Genre": "journalist",
        "Notable works": ""
    },
    {
        "Name": "Mordecai Richler",
        "Lifetime": "1931AC/EUR\"2001",
        "Genre": "novelist",
        "Notable works": "The Apprenticeship of Duddy Kravitz, Joshua Then and Now, Barney's Version"
    },
    {
        "Name": "Nancy Richler",
        "Lifetime": "b. 1957",
        "Genre": "novelist",
        "Notable works": "Your Mouth Is Lovely, The Impostor Bride"
    },
    {
        "Name": "Noah Richler",
        "Lifetime": "",
        "Genre": "journalist",
        "Notable works": "This Is My Country, What's Yours?, What We Talk About When We Talk About War"
    },
    {
        "Name": "Tanis Rideout",
        "Lifetime": "",
        "Genre": "poet, novelist",
        "Notable works": "Above All Things"
    },
    {
        "Name": "Sharon Riis",
        "Lifetime": "b. 1947",
        "Genre": "novelist, short stories, screenwriter",
        "Notable works": "The True Story of Ida Johnson, Savage Messiah"
    },
    {
        "Name": "Ringuet (Phillipe Panneton)",
        "Lifetime": "1895AC/EUR\"1960",
        "Genre": "novelist",
        "Notable works": "Thirty Acres"
    },
    {
        "Name": "Charles Ritchie",
        "Lifetime": "1906AC/EUR\"1995",
        "Genre": "diarist",
        "Notable works": "An Appetite for Life, The Siren Years"
    },
    {
        "Name": "Thomas Beattie Roberton",
        "Lifetime": "1879-1936",
        "Genre": "journalist, critic",
        "Notable works": "TBR: Newspaper Pieces"
    },
    {
        "Name": "Charles G.D. Roberts",
        "Lifetime": "1860AC/EUR\"1943",
        "Genre": "poet and novelist",
        "Notable works": "The Tantramar Revisited, The Iceberg"
    },
    {
        "Name": "Ken Roberts",
        "Lifetime": "",
        "Genre": "",
        "Notable works": ""
    },
    {
        "Name": "Paul William Roberts",
        "Lifetime": "",
        "Genre": "",
        "Notable works": ""
    },
    {
        "Name": "Bill Robertson",
        "Lifetime": "",
        "Genre": "screenwriter",
        "Notable works": "The Events Leading Up to My Death, Apartment Hunting"
    },
    {
        "Name": "Lisa Robertson",
        "Lifetime": "",
        "Genre": "poet",
        "Notable works": ""
    },
    {
        "Name": "Margaret Murray Robertson",
        "Lifetime": "1823AC/EUR\"1897",
        "Genre": "novelist",
        "Notable works": ""
    },
    {
        "Name": "Eden Robinson",
        "Lifetime": "",
        "Genre": "novelist",
        "Notable works": ""
    },
    {
        "Name": "J. Jill Robinson",
        "Lifetime": "b. 1955",
        "Genre": "short stories, creative nonfiction",
        "Notable works": "Lovely in Her Bones, Residual Desire"
    },
    {
        "Name": "Peter Robinson",
        "Lifetime": "b. 1950",
        "Genre": "mystery",
        "Notable works": ""
    },
    {
        "Name": "Harriet A. Roche",
        "Lifetime": "1835AC/EUR\"1921",
        "Genre": "pioneer, traveller",
        "Notable works": "On Trek in the Transvaal"
    },
    {
        "Name": "Ajmer Rode",
        "Lifetime": "",
        "Genre": "poet, playwright, translator",
        "Notable works": ""
    },
    {
        "Name": "Spider Robinson",
        "Lifetime": "b. 1948",
        "Genre": "science fiction, humorist",
        "Notable works": "Callahan's Crosstime Saloon"
    },
    {
        "Name": "Richard Rohmer",
        "Lifetime": "b. 1924",
        "Genre": "",
        "Notable works": ""
    },
    {
        "Name": "Ian Rogers",
        "Lifetime": "b. 1976",
        "Genre": "supernatural and horror fiction",
        "Notable works": "Every House Is Haunted"
    },
    {
        "Name": "Linda Rogers",
        "Lifetime": "",
        "Genre": "",
        "Notable works": ""
    },
    {
        "Name": "Leon Rooke",
        "Lifetime": "b. 1934",
        "Genre": "novelist",
        "Notable works": "Shakespeare's Dog"
    },
    {
        "Name": "Patrick Roscoe",
        "Lifetime": "",
        "Genre": "novelist, short stories",
        "Notable works": "Birthmarks, God's Peculiar Care"
    },
    {
        "Name": "Rachel Rose",
        "Lifetime": "b. 1970",
        "Genre": "poet",
        "Notable works": "Song and Spectacle"
    },
    {
        "Name": "Simon Rose",
        "Lifetime": "",
        "Genre": "science fiction and fantasy novelist",
        "Notable works": "The Alchemist's Portrait, Sorcerer's Letterbox, The Clone Conspiracy"
    },
    {
        "Name": "Rebecca Rosenblum",
        "Lifetime": "b. 1978",
        "Genre": "short stories",
        "Notable works": "Once"
    },
    {
        "Name": "Leonard Rosmarin",
        "Lifetime": "",
        "Genre": "novelist",
        "Notable works": ""
    },
    {
        "Name": "Sinclair Ross",
        "Lifetime": "1908AC/EUR\"1996",
        "Genre": "short stories, novelist",
        "Notable works": "As for Me and My House Sawbones Memorial"
    },
    {
        "Name": "Nancy-Gay Rotstein",
        "Lifetime": "",
        "Genre": "poet, novelist",
        "Notable works": ""
    },
    {
        "Name": "Jeffrey Round",
        "Lifetime": "",
        "Genre": "poet, mystery writer",
        "Notable works": "The P-Town Murders, Death in Key West, Lake on the Mountain"
    },
    {
        "Name": "Andre Roy",
        "Lifetime": "b. 1944",
        "Genre": "poet, critic",
        "Notable works": "Action writing"
    },
    {
        "Name": "Gabrielle Roy",
        "Lifetime": "1909AC/EUR\"1983",
        "Genre": "novelist",
        "Notable works": "The Tin Flute, Children of My Heart"
    },
    {
        "Name": "Holley Rubinsky",
        "Lifetime": "b. 1943",
        "Genre": "novelist, short stories",
        "Notable works": "At First I Hope For Rescue, Rapid Transits and Other Stores, Beyond This Point"
    },
    {
        "Name": "Jane Rule",
        "Lifetime": "1931AC/EUR\"2007",
        "Genre": "novelist",
        "Notable works": "Desert of the Heart"
    },
    {
        "Name": "Alexei Maxim Russell",
        "Lifetime": "b. 1976",
        "Genre": "novelist",
        "Notable works": "Trueman Bradley - Aspie Detective"
    },
    {
        "Name": "Elizabeth Ruth",
        "Lifetime": "b.1968",
        "Genre": "novelist",
        "Notable works": "Smoke"
    },
    {
        "Name": "Garry Ryan",
        "Lifetime": "",
        "Genre": "mysteries, historical fiction",
        "Notable works": "The Lucky Elephant Restaurant, Malabarista, Blackbirds"
    },
    {
        "Name": "George Ryga",
        "Lifetime": "1932AC/EUR\"1987",
        "Genre": "playwright and novelist",
        "Notable works": "The Ecstasy of Rita Joe"
    },
    {
        "Name": "Geoff Ryman",
        "Lifetime": "",
        "Genre": "",
        "Notable works": ""
    }
]