[
    {
        "Name": "Nikolay Alexeyevich Orlov",
        "Photo": "",
        "Title": "Ambassador",
        "Date from": "December 11, 1871",
        "Date until": "February 8, 1884"
    },
    {
        "Name": "Arthur Pavlovich Morenheim",
        "Photo": "",
        "Title": "Ambassador",
        "Date from": "February 8, 1884",
        "Date until": "November 18, 1897"
    },
    {
        "Name": "Lev Pavlovich Urusov",
        "Photo": "",
        "Title": "Ambassador",
        "Date from": "November 19, 1897",
        "Date until": "1904"
    },
    {
        "Name": "Alexander Ivanovich Nelidov",
        "Photo": "",
        "Title": "Ambassador",
        "Date from": "1904",
        "Date until": "September 5, 1910"
    },
    {
        "Name": "Alexander Petrovich Izvolsky",
        "Photo": "",
        "Title": "Ambassador",
        "Date from": "1910",
        "Date until": "March 3, 1917"
    },
    {
        "Name": "Source: Diplomats of the Russian Empire- France[4]",
        "Photo": "",
        "Title": "",
        "Date from": "",
        "Date until": ""
    }
]