[
    {
        "Route": "SL1",
        "Description": "Logan Airport - South Station",
        "MBTA link": "Link"
    },
    {
        "Route": "SL2",
        "Description": "Design Center - South Station",
        "MBTA link": "Link"
    },
    {
        "Route": "Shuttle",
        "Description": "Silver Line Way - South Station",
        "MBTA link": "Link"
    },
    {
        "Route": "SL4",
        "Description": "Dudley Station - South Station at Essex Street",
        "MBTA link": "Link"
    },
    {
        "Route": "SL5",
        "Description": "Dudley Station - Downtown Crossing at Temple Place",
        "MBTA link": "Link"
    }
]