[
    {
        "Facility": "Ahtanum View Corrections Center (AVCC)",
        "Location": "Yakima",
        "Year Opened": "1997",
        "Year Closed": "2010",
        "Major Facility": "No",
        "Population Gender": "Male",
        "Capacity": "120",
        "Custody Level(s)": "Assisted Living MI-2"
    },
    {
        "Facility": "McNeil Island Corrections Center (MICC)",
        "Location": "Steilacoom",
        "Year Opened": "1875*",
        "Year Closed": "2011",
        "Major Facility": "Yes",
        "Population Gender": "Male",
        "Capacity": "853",
        "Custody Level(s)": "Medium"
    },
    {
        "Facility": "Pine Lodge Corrections Center for Women (PLCCW)",
        "Location": "Medical Lake",
        "Year Opened": "1979",
        "Year Closed": "2010",
        "Major Facility": "No",
        "Population Gender": "Female",
        "Capacity": "359",
        "Custody Level(s)": "MI-2"
    }
]