[
    {
        "Year": "1977",
        "Nominated work": "Macbeth[1]",
        "Category": "Actress of the Year in a Revival",
        "Result": "Won"
    },
    {
        "Year": "1980",
        "Nominated work": "Juno and the Paycock[2]",
        "Category": "Actress of the Year in a Revival",
        "Result": "Won"
    },
    {
        "Year": "1982",
        "Nominated work": "The Importance of Being Earnest[3]",
        "Category": "Actress of the Year in a Revival",
        "Result": "Nominated"
    },
    {
        "Year": "1982",
        "Nominated work": "Other Places[3]",
        "Category": "Actress of the Year in a New Play",
        "Result": "Nominated"
    },
    {
        "Year": "1983",
        "Nominated work": "Pack of Lies[4]",
        "Category": "Actress of the Year in a New Play",
        "Result": "Won"
    },
    {
        "Year": "1987",
        "Nominated work": "Antony and Cleopatra[5]",
        "Category": "Actress of the Year (aka Best Actress)",
        "Result": "Won"
    },
    {
        "Year": "1992",
        "Nominated work": "The Boys from Syracuse[6]",
        "Category": "Best Director of a Musical",
        "Result": "Nominated"
    },
    {
        "Year": "1993",
        "Nominated work": "The Gift of the Gorgon[7]",
        "Category": "Best Actress",
        "Result": "Nominated"
    },
    {
        "Year": "1996",
        "Nominated work": "Absolute Hell[8]",
        "Category": "Best Actress",
        "Result": "Won"
    },
    {
        "Year": "1996",
        "Nominated work": "A Little Night Music[8]",
        "Category": "Best Actress in a Musical",
        "Result": "Won"
    },
    {
        "Year": "1998",
        "Nominated work": "Amy's View[9]",
        "Category": "Best Actress",
        "Result": "Nominated"
    },
    {
        "Year": "1999",
        "Nominated work": "Filumena[10]",
        "Category": "Best Actress",
        "Result": "Nominated"
    },
    {
        "Year": "2005",
        "Nominated work": "All's Well That Ends Well[11]",
        "Category": "Best Performance in a Supporting Role",
        "Result": "Nominated"
    },
    {
        "Year": "2014",
        "Nominated work": "Peter and Alice",
        "Category": "Best Actress",
        "Result": "Nominated"
    }
]