[
    {
        "Party": "Municipal Reform",
        "Councillors 1928": "77",
        "Aldermen 1928": "12",
        "Total 1928": "89",
        "Councillors 1931": "83",
        "Aldermen 1931": "13",
        "Total 1931": "96",
        "Councillors 1934": "55",
        "Aldermen 1934": "9",
        "Total 1934": "64"
    },
    {
        "Party": "Labour",
        "Councillors 1928": "42",
        "Aldermen 1928": "6",
        "Total 1928": "48",
        "Councillors 1931": "35",
        "Aldermen 1931": "6",
        "Total 1931": "41",
        "Councillors 1934": "69",
        "Aldermen 1934": "11",
        "Total 1934": "80"
    },
    {
        "Party": "Liberal",
        "Councillors 1928": "5",
        "Aldermen 1928": "1",
        "Total 1928": "6",
        "Councillors 1931": "6",
        "Aldermen 1931": "0",
        "Total 1931": "6",
        "Councillors 1934": "0",
        "Aldermen 1934": "0",
        "Total 1934": "0"
    },
    {
        "Party": "Independents",
        "Councillors 1928": "0",
        "Aldermen 1928": "1",
        "Total 1928": "1",
        "Councillors 1931": "0",
        "Aldermen 1931": "0",
        "Total 1931": "0",
        "Councillors 1934": "0",
        "Aldermen 1934": "0",
        "Total 1934": "0"
    }
]