[
    {
        "#": "#",
        "Portrait": "Portrait",
        "Name (BirthAC/EUR\"Death)": "Name (BirthAC/EUR\"Death)",
        "Term of office": "Term of office",
        "Political Party": "Political Party",
        "Legislature (Election)": "Legislature (Election)",
        "Chief of State (Term)": "Chief of State (Term)",
        "NO-HEADER7": "",
        "NO-HEADER8": "",
        "NO-HEADER9": "",
        "NO-HEADER10": ""
    },
    {
        "#": "",
        "Portrait": "119",
        "Name (BirthAC/EUR\"Death)": "",
        "Term of office": "Philippe PAfA(c)tain (1856AC/EUR\"1951)",
        "Political Party": "AC/EURAC/",
        "Legislature (Election)": "16 June 1940",
        "Chief of State (Term)": "11 July 1940",
        "NO-HEADER7": "Independent",
        "NO-HEADER8": "None",
        "NO-HEADER9": "",
        "NO-HEADER10": "Philippe PAfA(c)tain (1940AC/EUR\"1944)"
    },
    {
        "#": "",
        "Portrait": "120",
        "Name (BirthAC/EUR\"Death)": "",
        "Term of office": "Pierre Laval (1883AC/EUR\"1945)",
        "Political Party": "5",
        "Legislature (Election)": "11 July 1940",
        "Chief of State (Term)": "13 December 1940",
        "NO-HEADER7": "Independent",
        "NO-HEADER8": "None",
        "NO-HEADER9": "",
        "NO-HEADER10": "Philippe PAfA(c)tain (1940AC/EUR\"1944)"
    },
    {
        "#": "",
        "Portrait": "121",
        "Name (BirthAC/EUR\"Death)": "",
        "Term of office": "Pierre-Af%0tienne Flandin (1889AC/EUR\"1958)",
        "Political Party": "2",
        "Legislature (Election)": "13 December 1940",
        "Chief of State (Term)": "9 February 1941",
        "NO-HEADER7": "Independent",
        "NO-HEADER8": "None",
        "NO-HEADER9": "",
        "NO-HEADER10": "Philippe PAfA(c)tain (1940AC/EUR\"1944)"
    },
    {
        "#": "",
        "Portrait": "122",
        "Name (BirthAC/EUR\"Death)": "",
        "Term of office": "FranAfASSois Darlan (1881AC/EUR\"1942)",
        "Political Party": "AC/EURAC/",
        "Legislature (Election)": "9 February 1941",
        "Chief of State (Term)": "18 April 1942 (Died in office)",
        "NO-HEADER7": "Independent",
        "NO-HEADER8": "None",
        "NO-HEADER9": "",
        "NO-HEADER10": "Philippe PAfA(c)tain (1940AC/EUR\"1944)"
    },
    {
        "#": "",
        "Portrait": "123",
        "Name (BirthAC/EUR\"Death)": "",
        "Term of office": "Pierre Laval (1883AC/EUR\"1945)",
        "Political Party": "6",
        "Legislature (Election)": "18 April 1942",
        "Chief of State (Term)": "19 August 1944",
        "NO-HEADER7": "Independent",
        "NO-HEADER8": "None",
        "NO-HEADER9": "",
        "NO-HEADER10": "Philippe PAfA(c)tain (1940AC/EUR\"1944)"
    }
]