[
    {
        "Title": "Dungeon Masters Adventure Log",
        "Authors": "Lawrence Schick (editor)",
        "Date": "1980",
        "Pages": "",
        "ISBN": "0-935696-35-0"
    },
    {
        "Title": "Dungeon Master's Design Kit",
        "Authors": "Harold Johnson, Aaron Allston, Christopher Mortika (editor)",
        "Date": "1988",
        "Pages": "3 x 32",
        "ISBN": "0-935696-22-9"
    },
    {
        "Title": "Non-Player Character Records",
        "Authors": "Harold Johnson",
        "Date": "1979",
        "Pages": "32",
        "ISBN": ""
    },
    {
        "Title": "Permanent Character Folder & Adventure Records",
        "Authors": "Harold Johnson",
        "Date": "1979",
        "Pages": "32",
        "ISBN": ""
    }
]