[
    {
        "No.": "1",
        "Rider": "Nicolas Frantz",
        "Nationality": "Luxembourg",
        "Team": "Alcyon-Dunlop",
        "Pos.": "1"
    },
    {
        "No.": "2",
        "Rider": "Marcel Bidot",
        "Nationality": "France",
        "Team": "Alcyon-Dunlop",
        "Pos.": "DNF"
    },
    {
        "No.": "3",
        "Rider": "Adelin BenoA(r)t",
        "Nationality": "Belgium",
        "Team": "Alcyon-Dunlop",
        "Pos.": "5"
    },
    {
        "No.": "4",
        "Rider": "Gaston Rebry",
        "Nationality": "Belgium",
        "Team": "Alcyon-Dunlop",
        "Pos.": "DNF"
    },
    {
        "No.": "5",
        "Rider": "Jean Debusschere",
        "Nationality": "Belgium",
        "Team": "Alcyon-Dunlop",
        "Pos.": "13"
    },
    {
        "No.": "6",
        "Rider": "Pierre Bachellerie",
        "Nationality": "France",
        "Team": "Alcyon-Dunlop",
        "Pos.": "DNF"
    },
    {
        "No.": "7",
        "Rider": "Andre Leducq",
        "Nationality": "France",
        "Team": "Thomann-Dunlop",
        "Pos.": "4"
    },
    {
        "No.": "8",
        "Rider": "Rene Hamel",
        "Nationality": "France",
        "Team": "Thomann-Dunlop",
        "Pos.": "DNF"
    },
    {
        "No.": "9",
        "Rider": "Julien Vervaecke",
        "Nationality": "Belgium",
        "Team": "Armor-Dunlop",
        "Pos.": "3"
    },
    {
        "No.": "10",
        "Rider": "Louis Muller",
        "Nationality": "Belgium",
        "Team": "Armor-Dunlop",
        "Pos.": "12"
    },
    {
        "No.": "11",
        "Rider": "Maurice De Waele",
        "Nationality": "Belgium",
        "Team": "Labor-Dunlop",
        "Pos.": "2"
    },
    {
        "No.": "12",
        "Rider": "Louis De Lannoy",
        "Nationality": "Belgium",
        "Team": "Labor-Dunlop",
        "Pos.": "16"
    },
    {
        "No.": "13",
        "Rider": "Gustaaf Van Slembrouck",
        "Nationality": "Belgium",
        "Team": "JB Louvet",
        "Pos.": "14"
    },
    {
        "No.": "14",
        "Rider": "Hector Martin",
        "Nationality": "Belgium",
        "Team": "JB Louvet",
        "Pos.": "9"
    },
    {
        "No.": "15",
        "Rider": "Odile Tailleu",
        "Nationality": "Belgium",
        "Team": "JB Louvet",
        "Pos.": "DNF"
    },
    {
        "No.": "16",
        "Rider": "Camille Van De Casteele",
        "Nationality": "Belgium",
        "Team": "JB Louvet",
        "Pos.": "DNF"
    },
    {
        "No.": "17",
        "Rider": "Pe Verhaegen",
        "Nationality": "Belgium",
        "Team": "JB Louvet",
        "Pos.": "7"
    },
    {
        "No.": "18",
        "Rider": "Eugene Greau",
        "Nationality": "France",
        "Team": "JB Louvet",
        "Pos.": "DNF"
    },
    {
        "No.": "19",
        "Rider": "Raymond Decorte",
        "Nationality": "Belgium",
        "Team": "JB Louvet",
        "Pos.": "11"
    },
    {
        "No.": "20",
        "Rider": "Maurice Geldhof",
        "Nationality": "Belgium",
        "Team": "JB Louvet",
        "Pos.": "10"
    },
    {
        "No.": "21",
        "Rider": "Georges Brosteaux",
        "Nationality": "Belgium",
        "Team": "JB Louvet",
        "Pos.": "DNF"
    },
    {
        "No.": "22",
        "Rider": "Raoul Petouille",
        "Nationality": "France",
        "Team": "JB Louvet",
        "Pos.": "DNF"
    },
    {
        "No.": "23",
        "Rider": "Joseph Hemelsoet",
        "Nationality": "Belgium",
        "Team": "JB Louvet",
        "Pos.": "17"
    },
    {
        "No.": "25",
        "Rider": "Julien Moineau",
        "Nationality": "France",
        "Team": "Alleluia-Wolber",
        "Pos.": "8"
    },
    {
        "No.": "26",
        "Rider": "Marius Gallottini",
        "Nationality": "Italy",
        "Team": "Alleluia-Wolber",
        "Pos.": "DNF"
    },
    {
        "No.": "27",
        "Rider": "Antonin Magne",
        "Nationality": "France",
        "Team": "Alleluia-Wolber",
        "Pos.": "6"
    },
    {
        "No.": "28",
        "Rider": "Pierre Magne",
        "Nationality": "France",
        "Team": "Alleluia-Wolber",
        "Pos.": "15"
    },
    {
        "No.": "29",
        "Rider": "Andre Devauchelle",
        "Nationality": "France",
        "Team": "Alleluia-Wolber",
        "Pos.": "26"
    },
    {
        "No.": "30",
        "Rider": "Andre Cauet",
        "Nationality": "France",
        "Team": "Alleluia-Wolber",
        "Pos.": "DNF"
    },
    {
        "No.": "31",
        "Rider": "Francis Pelissier",
        "Nationality": "France",
        "Team": "Dilecta-Wolber",
        "Pos.": "DNF"
    },
    {
        "No.": "32",
        "Rider": "Ferdinand Le Drogo",
        "Nationality": "France",
        "Team": "Dilecta-Wolber",
        "Pos.": "DNF"
    },
    {
        "No.": "33",
        "Rider": "Paul Le Drogo",
        "Nationality": "France",
        "Team": "Dilecta-Wolber",
        "Pos.": "DNF"
    },
    {
        "No.": "34",
        "Rider": "Georges Cuvelier",
        "Nationality": "France",
        "Team": "Dilecta-Wolber",
        "Pos.": "DNF"
    },
    {
        "No.": "35",
        "Rider": "Arsene Alancourt",
        "Nationality": "France",
        "Team": "Dilecta-Wolber",
        "Pos.": "DNF"
    },
    {
        "No.": "36",
        "Rider": "Marcel Huot",
        "Nationality": "France",
        "Team": "Dilecta-Wolber",
        "Pos.": "DNF"
    },
    {
        "No.": "37",
        "Rider": "Honore Bathelemy",
        "Nationality": "France",
        "Team": "Dilecta-Wolber",
        "Pos.": "DNF"
    },
    {
        "No.": "38",
        "Rider": "Andre Schaffner",
        "Nationality": "France",
        "Team": "Dilecta-Wolber",
        "Pos.": "DNF"
    },
    {
        "No.": "102",
        "Rider": "Urbain Comitis",
        "Nationality": "France",
        "Team": "Touriste-routier",
        "Pos.": "DNF"
    },
    {
        "No.": "103",
        "Rider": "Andre Drobecq",
        "Nationality": "France",
        "Team": "Touriste-routier",
        "Pos.": "37"
    },
    {
        "No.": "104",
        "Rider": "Lucien Prudhomme",
        "Nationality": "France",
        "Team": "Touriste-routier",
        "Pos.": "DNF"
    },
    {
        "No.": "105",
        "Rider": "Leopold Gelot",
        "Nationality": "France",
        "Team": "Touriste-routier",
        "Pos.": "DNF"
    },
    {
        "No.": "107",
        "Rider": "Alfred Louchet",
        "Nationality": "France",
        "Team": "Touriste-routier",
        "Pos.": "DNF"
    },
    {
        "No.": "110",
        "Rider": "Baptistin Mousset",
        "Nationality": "France",
        "Team": "Touriste-routier",
        "Pos.": "DNF"
    },
    {
        "No.": "112",
        "Rider": "Albert Courtot",
        "Nationality": "France",
        "Team": "Touriste-routier",
        "Pos.": "DNF"
    },
    {
        "No.": "114",
        "Rider": "Arthur Rechaux",
        "Nationality": "France",
        "Team": "Touriste-routier",
        "Pos.": "DNF"
    },
    {
        "No.": "115",
        "Rider": "Gaston Corbiere",
        "Nationality": "France",
        "Team": "Touriste-routier",
        "Pos.": "DNF"
    },
    {
        "No.": "116",
        "Rider": "Andre Mazziotta",
        "Nationality": "France",
        "Team": "Touriste-routier",
        "Pos.": "DNF"
    },
    {
        "No.": "117",
        "Rider": "Henri Lintzen",
        "Nationality": "Belgium",
        "Team": "Touriste-routier",
        "Pos.": "DNF"
    },
    {
        "No.": "119",
        "Rider": "Jules Deloffre",
        "Nationality": "France",
        "Team": "Touriste-routier",
        "Pos.": "DNF"
    },
    {
        "No.": "122",
        "Rider": "Theodore Vignes",
        "Nationality": "France",
        "Team": "Touriste-routier",
        "Pos.": "DNF"
    },
    {
        "No.": "123",
        "Rider": "Leon Jacacier",
        "Nationality": "France",
        "Team": "Touriste-routier",
        "Pos.": "DNF"
    },
    {
        "No.": "125",
        "Rider": "Giuseppe Ercolani",
        "Nationality": "France",
        "Team": "Touriste-routier",
        "Pos.": "DNF"
    },
    {
        "No.": "126",
        "Rider": "Jules Gillard",
        "Nationality": "Switzerland",
        "Team": "Touriste-routier",
        "Pos.": "DNF"
    },
    {
        "No.": "127",
        "Rider": "Antoine Giacomasso",
        "Nationality": "France",
        "Team": "Touriste-routier",
        "Pos.": "DNF"
    },
    {
        "No.": "129",
        "Rider": "Paul Duboc",
        "Nationality": "France",
        "Team": "Touriste-routier",
        "Pos.": "DNF"
    },
    {
        "No.": "131",
        "Rider": "Jean Berton",
        "Nationality": "France",
        "Team": "Touriste-routier",
        "Pos.": "DNF"
    },
    {
        "No.": "132",
        "Rider": "Andre Dupont",
        "Nationality": "France",
        "Team": "Touriste-routier",
        "Pos.": "DNF"
    },
    {
        "No.": "134",
        "Rider": "Kisso Kawamuro",
        "Nationality": "Japan",
        "Team": "Touriste-routier",
        "Pos.": "DNF"
    },
    {
        "No.": "135",
        "Rider": "Edouard Delcayre",
        "Nationality": "France",
        "Team": "Touriste-routier",
        "Pos.": "DNF"
    },
    {
        "No.": "136",
        "Rider": "Yvon Pascoli",
        "Nationality": "France",
        "Team": "Touriste-routier",
        "Pos.": "DNF"
    },
    {
        "No.": "137",
        "Rider": "Alfredo Francini",
        "Nationality": "France",
        "Team": "Touriste-routier",
        "Pos.": "DNF"
    },
    {
        "No.": "138",
        "Rider": "Louis Beaulieu",
        "Nationality": "France",
        "Team": "Touriste-routier",
        "Pos.": "DNF"
    },
    {
        "No.": "140",
        "Rider": "Florimond Guillain",
        "Nationality": "France",
        "Team": "Touriste-routier",
        "Pos.": "DNF"
    },
    {
        "No.": "141",
        "Rider": "Adrien Alpini",
        "Nationality": "France",
        "Team": "Touriste-routier",
        "Pos.": "DNF"
    },
    {
        "No.": "142",
        "Rider": "Jacques Pfister",
        "Nationality": "France",
        "Team": "Touriste-routier",
        "Pos.": "38"
    },
    {
        "No.": "143",
        "Rider": "Luigi Simioni",
        "Nationality": "Italy",
        "Team": "Touriste-routier",
        "Pos.": "DNF"
    },
    {
        "No.": "144",
        "Rider": "Andre Peton",
        "Nationality": "France",
        "Team": "Touriste-routier",
        "Pos.": "DNF"
    },
    {
        "No.": "146",
        "Rider": "Arthur Claerhout",
        "Nationality": "Belgium",
        "Team": "Touriste-routier",
        "Pos.": "DNF"
    },
    {
        "No.": "147",
        "Rider": "Guilbert Bled",
        "Nationality": "France",
        "Team": "Touriste-routier",
        "Pos.": "DNF"
    },
    {
        "No.": "148",
        "Rider": "Maurice Arnoult",
        "Nationality": "France",
        "Team": "Touriste-routier",
        "Pos.": "21"
    },
    {
        "No.": "149",
        "Rider": "Henri Catelan",
        "Nationality": "France",
        "Team": "Touriste-routier",
        "Pos.": "DNF"
    },
    {
        "No.": "150",
        "Rider": "Henri Touzard",
        "Nationality": "France",
        "Team": "Touriste-routier",
        "Pos.": "19"
    },
    {
        "No.": "151",
        "Rider": "Charles Hennuyer",
        "Nationality": "France",
        "Team": "Touriste-routier",
        "Pos.": "DNF"
    },
    {
        "No.": "152",
        "Rider": "Giuseppe Pusterla",
        "Nationality": "France",
        "Team": "Touriste-routier",
        "Pos.": "DNF"
    },
    {
        "No.": "153",
        "Rider": "Leon Martin",
        "Nationality": "Belgium",
        "Team": "Touriste-routier",
        "Pos.": "DNF"
    },
    {
        "No.": "154",
        "Rider": "Henri Gottrand",
        "Nationality": "France",
        "Team": "Touriste-routier",
        "Pos.": "DNF"
    },
    {
        "No.": "155",
        "Rider": "Jean Thilges",
        "Nationality": "France",
        "Team": "Touriste-routier",
        "Pos.": "DNF"
    },
    {
        "No.": "156",
        "Rider": "Simeon Vergnol",
        "Nationality": "France",
        "Team": "Touriste-routier",
        "Pos.": "DNF"
    },
    {
        "No.": "157",
        "Rider": "Jean Marius",
        "Nationality": "France",
        "Team": "Touriste-routier",
        "Pos.": "DNF"
    },
    {
        "No.": "158",
        "Rider": "Valentin Izabal",
        "Nationality": "France",
        "Team": "Touriste-routier",
        "Pos.": "DNF"
    },
    {
        "No.": "159",
        "Rider": "Marcel Gendrin",
        "Nationality": "France",
        "Team": "Touriste-routier",
        "Pos.": "30"
    },
    {
        "No.": "160",
        "Rider": "Battista Ghiano",
        "Nationality": "France",
        "Team": "Touriste-routier",
        "Pos.": "DNF"
    },
    {
        "No.": "161",
        "Rider": "Jules Nempon",
        "Nationality": "France",
        "Team": "Touriste-routier",
        "Pos.": "35"
    },
    {
        "No.": "163",
        "Rider": "Giovanni Rossignoli",
        "Nationality": "Italy",
        "Team": "Touriste-routier",
        "Pos.": "32"
    },
    {
        "No.": "164",
        "Rider": "Giovanni Canova",
        "Nationality": "France",
        "Team": "Touriste-routier",
        "Pos.": "25"
    },
    {
        "No.": "165",
        "Rider": "Emile Druz",
        "Nationality": "France",
        "Team": "Touriste-routier",
        "Pos.": "DNF"
    },
    {
        "No.": "167",
        "Rider": "Norbert Larose",
        "Nationality": "France",
        "Team": "Touriste-routier",
        "Pos.": "DNF"
    },
    {
        "No.": "168",
        "Rider": "Emile Lambiel",
        "Nationality": "France",
        "Team": "Touriste-routier",
        "Pos.": "DNF"
    },
    {
        "No.": "169",
        "Rider": "Georges De Beurmann",
        "Nationality": "France",
        "Team": "Touriste-routier",
        "Pos.": "DNF"
    },
    {
        "No.": "170",
        "Rider": "Victor Berthy",
        "Nationality": "France",
        "Team": "Touriste-routier",
        "Pos.": "DNF"
    },
    {
        "No.": "171",
        "Rider": "Charles Martinet",
        "Nationality": "Switzerland",
        "Team": "Touriste-routier",
        "Pos.": "22"
    },
    {
        "No.": "172",
        "Rider": "Julien Drougard",
        "Nationality": "France",
        "Team": "Touriste-routier",
        "Pos.": "DNF"
    },
    {
        "No.": "174",
        "Rider": "Jean-Roger Schwenter",
        "Nationality": "France",
        "Team": "Touriste-routier",
        "Pos.": "DNF"
    },
    {
        "No.": "175",
        "Rider": "Ernest Langlais",
        "Nationality": "France",
        "Team": "Touriste-routier",
        "Pos.": "DNF"
    },
    {
        "No.": "177",
        "Rider": "Edouard Teisseire",
        "Nationality": "France",
        "Team": "Touriste-routier",
        "Pos.": "34"
    },
    {
        "No.": "178",
        "Rider": "Louis Gauthier",
        "Nationality": "France",
        "Team": "Touriste-routier",
        "Pos.": "DNF"
    },
    {
        "No.": "179",
        "Rider": "Paul Millet",
        "Nationality": "France",
        "Team": "Touriste-routier",
        "Pos.": "DNF"
    },
    {
        "No.": "180",
        "Rider": "Andre Leger",
        "Nationality": "France",
        "Team": "Touriste-routier",
        "Pos.": "DNF"
    },
    {
        "No.": "182",
        "Rider": "Jean Zenon",
        "Nationality": "France",
        "Team": "Touriste-routier",
        "Pos.": "DNF"
    },
    {
        "No.": "183",
        "Rider": "Francesco Da Gioz",
        "Nationality": "France",
        "Team": "Touriste-routier",
        "Pos.": "DNF"
    },
    {
        "No.": "184",
        "Rider": "Igo Colmaghi",
        "Nationality": "Italy",
        "Team": "Touriste-routier",
        "Pos.": "DNF"
    },
    {
        "No.": "187",
        "Rider": "Fernand Moulet",
        "Nationality": "France",
        "Team": "Touriste-routier",
        "Pos.": "DNF"
    },
    {
        "No.": "188",
        "Rider": "Camille Rolion",
        "Nationality": "France",
        "Team": "Touriste-routier",
        "Pos.": "DNF"
    },
    {
        "No.": "189",
        "Rider": "Hector Leroy",
        "Nationality": "France",
        "Team": "Touriste-routier",
        "Pos.": "DNF"
    },
    {
        "No.": "190",
        "Rider": "Robert Asse",
        "Nationality": "France",
        "Team": "Touriste-routier",
        "Pos.": "DNF"
    },
    {
        "No.": "191",
        "Rider": "Eugene Dhers",
        "Nationality": "France",
        "Team": "Touriste-routier",
        "Pos.": "DNF"
    },
    {
        "No.": "192",
        "Rider": "Omer Mahy",
        "Nationality": "Belgium",
        "Team": "Touriste-routier",
        "Pos.": "31"
    },
    {
        "No.": "193",
        "Rider": "Emile Lejeune",
        "Nationality": "France",
        "Team": "Touriste-routier",
        "Pos.": "DNF"
    },
    {
        "No.": "194",
        "Rider": "Armand Goubert",
        "Nationality": "France",
        "Team": "Touriste-routier",
        "Pos.": "36"
    },
    {
        "No.": "196",
        "Rider": "Henri Caron",
        "Nationality": "France",
        "Team": "Touriste-routier",
        "Pos.": "DNF"
    },
    {
        "No.": "197",
        "Rider": "Edouard Petre",
        "Nationality": "France",
        "Team": "Touriste-routier",
        "Pos.": "DNF"
    },
    {
        "No.": "199",
        "Rider": "Charles Krier",
        "Nationality": "Luxembourg",
        "Team": "Touriste-routier",
        "Pos.": "27"
    },
    {
        "No.": "201",
        "Rider": "Camille Biere",
        "Nationality": "France",
        "Team": "Touriste-routier",
        "Pos.": "DNF"
    },
    {
        "No.": "202",
        "Rider": "Maurice Coindeau",
        "Nationality": "France",
        "Team": "Touriste-routier",
        "Pos.": "DNF"
    },
    {
        "No.": "203",
        "Rider": "Louis Andrey",
        "Nationality": "France",
        "Team": "Touriste-routier",
        "Pos.": "DNF"
    },
    {
        "No.": "204",
        "Rider": "Georges Petit",
        "Nationality": "France",
        "Team": "Touriste-routier",
        "Pos.": "DNF"
    },
    {
        "No.": "205",
        "Rider": "Leon Despontin",
        "Nationality": "Belgium",
        "Team": "Touriste-routier",
        "Pos.": "28"
    },
    {
        "No.": "206",
        "Rider": "Auguste Dufour",
        "Nationality": "France",
        "Team": "Touriste-routier",
        "Pos.": "DNF"
    },
    {
        "No.": "207",
        "Rider": "Lorenzo Fortuno",
        "Nationality": "France",
        "Team": "Touriste-routier",
        "Pos.": "DNF"
    },
    {
        "No.": "208",
        "Rider": "Marius Rouvier",
        "Nationality": "France",
        "Team": "Touriste-routier",
        "Pos.": "DNF"
    },
    {
        "No.": "209",
        "Rider": "Luigi Vertemati",
        "Nationality": "Italy",
        "Team": "Touriste-routier",
        "Pos.": "DNF"
    },
    {
        "No.": "210",
        "Rider": "Victor Pellier",
        "Nationality": "France",
        "Team": "Touriste-routier",
        "Pos.": "DNF"
    },
    {
        "No.": "211",
        "Rider": "Emile Faillu",
        "Nationality": "France",
        "Team": "Touriste-routier",
        "Pos.": "DNF"
    },
    {
        "No.": "212",
        "Rider": "Guy Bariffi",
        "Nationality": "Switzerland",
        "Team": "Touriste-routier",
        "Pos.": "DNF"
    },
    {
        "No.": "213",
        "Rider": "Alfred Neplaz",
        "Nationality": "France",
        "Team": "Touriste-routier",
        "Pos.": "DNF"
    },
    {
        "No.": "214",
        "Rider": "Alexandre Neplaz",
        "Nationality": "France",
        "Team": "Touriste-routier",
        "Pos.": "DNF"
    },
    {
        "No.": "216",
        "Rider": "Albert Jordens",
        "Nationality": "Belgium",
        "Team": "Touriste-routier",
        "Pos.": "23"
    },
    {
        "No.": "217",
        "Rider": "Emilio Petiva",
        "Nationality": "Italy",
        "Team": "Touriste-routier",
        "Pos.": "DNF"
    },
    {
        "No.": "218",
        "Rider": "Henry Tosseng",
        "Nationality": "Luxembourg",
        "Team": "Touriste-routier",
        "Pos.": "DNF"
    },
    {
        "No.": "221",
        "Rider": "Egide Van Den Broeck",
        "Nationality": "Belgium",
        "Team": "Touriste-routier",
        "Pos.": "DNF"
    },
    {
        "No.": "222",
        "Rider": "Constant Bach",
        "Nationality": "France",
        "Team": "Touriste-routier",
        "Pos.": "DNF"
    },
    {
        "No.": "225",
        "Rider": "Camille Segers",
        "Nationality": "Belgium",
        "Team": "Touriste-routier",
        "Pos.": "33"
    },
    {
        "No.": "227",
        "Rider": "Giuseppe Rivella",
        "Nationality": "France",
        "Team": "Touriste-routier",
        "Pos.": "29"
    },
    {
        "No.": "228",
        "Rider": "Jose Pelletier",
        "Nationality": "France",
        "Team": "Touriste-routier",
        "Pos.": "20"
    },
    {
        "No.": "230",
        "Rider": "Azeglio Terreni",
        "Nationality": "France",
        "Team": "Touriste-routier",
        "Pos.": "DNF"
    },
    {
        "No.": "233",
        "Rider": "Francois Faillu",
        "Nationality": "France",
        "Team": "Touriste-routier",
        "Pos.": "DNF"
    },
    {
        "No.": "235",
        "Rider": "Charles Guyot",
        "Nationality": "Switzerland",
        "Team": "Touriste-routier",
        "Pos.": "DNF"
    },
    {
        "No.": "237",
        "Rider": "Ricardo Benasseni",
        "Nationality": "Italy",
        "Team": "Touriste-routier",
        "Pos.": "DNF"
    },
    {
        "No.": "238",
        "Rider": "Pierre Claes",
        "Nationality": "Belgium",
        "Team": "Touriste-routier",
        "Pos.": "39"
    },
    {
        "No.": "241",
        "Rider": "Secondo Martinetto",
        "Nationality": "Italy",
        "Team": "Touriste-routier",
        "Pos.": "18"
    },
    {
        "No.": "242",
        "Rider": "Francois Menta",
        "Nationality": "France",
        "Team": "Touriste-routier",
        "Pos.": "DNF"
    },
    {
        "No.": "244",
        "Rider": "Michele Gordini",
        "Nationality": "Italy",
        "Team": "Touriste-routier",
        "Pos.": "24"
    }
]