[
    {
        "Name": "331001 AC/EUR\"",
        "Provisional designation": "2009 US57",
        "Discovery date": "January 26, 2006*",
        "Discovery site": "Kitt Peak",
        "Discoverer(s)": "Spacewatch"
    },
    {
        "Name": "331002 AC/EUR\"",
        "Provisional designation": "2009 UN69",
        "Discovery date": "October 21, 2009",
        "Discovery site": "Catalina",
        "Discoverer(s)": "CSS"
    },
    {
        "Name": "331003 AC/EUR\"",
        "Provisional designation": "2009 UA70",
        "Discovery date": "October 22, 2009",
        "Discovery site": "Mount Lemmon",
        "Discoverer(s)": "Mount Lemmon Survey"
    },
    {
        "Name": "331011 Peccioli",
        "Provisional designation": "2009 UF94",
        "Discovery date": "October 26, 2009",
        "Discovery site": "Libbiano",
        "Discoverer(s)": "P. Bacci, F. Biasci"
    },
    {
        "Name": "331020 AC/EUR\"",
        "Provisional designation": "2009 UP139",
        "Discovery date": "October 26, 2009*",
        "Discovery site": "La Sagra",
        "Discoverer(s)": "OAM"
    },
    {
        "Name": "331023 AC/EUR\"",
        "Provisional designation": "2009 UG150",
        "Discovery date": "October 19, 2009",
        "Discovery site": "Socorro",
        "Discoverer(s)": "LINEAR"
    },
    {
        "Name": "331055 AC/EUR\"",
        "Provisional designation": "2009 WJ",
        "Discovery date": "November 16, 2009",
        "Discovery site": "Mayhill",
        "Discoverer(s)": "Mayhill"
    },
    {
        "Name": "331056 AC/EUR\"",
        "Provisional designation": "2009 WX",
        "Discovery date": "November 17, 2009",
        "Discovery site": "Tzec Maun",
        "Discoverer(s)": "D. Chestnov, A. Novichonok"
    },
    {
        "Name": "331058 AC/EUR\"",
        "Provisional designation": "2009 WC7",
        "Discovery date": "November 18, 2009",
        "Discovery site": "Marly",
        "Discoverer(s)": "P. Kocher"
    },
    {
        "Name": "331063 AC/EUR\"",
        "Provisional designation": "2009 WD22",
        "Discovery date": "November 18, 2009",
        "Discovery site": "Kachina",
        "Discoverer(s)": "J. Hobart"
    },
    {
        "Name": "331064 AC/EUR\"",
        "Provisional designation": "2009 WW24",
        "Discovery date": "November 21, 2009",
        "Discovery site": "Mayhill",
        "Discoverer(s)": "A. Lowe"
    }
]