[
    {
        "Release date": "February 1",
        "Artist": "Ad Intra",
        "Album": "Inside Us All",
        "Genre": "Doom metal, Death metal",
        "Label": "Auto edited",
        "Producer": "Daniel Luces",
        "Ref.": "[13]"
    },
    {
        "Release date": "February 2",
        "Artist": "My Bloody Valentine",
        "Album": "m b v",
        "Genre": "Shoegazing",
        "Label": "Pickpocket",
        "Producer": "Kevin Shields",
        "Ref.": ""
    },
    {
        "Release date": "February 4",
        "Artist": "Pure Love",
        "Album": "Anthems",
        "Genre": "Alternative rock, garage rock, punk rock, hard rock",
        "Label": "Vertigo, Mercury",
        "Producer": "Gil Norton",
        "Ref.": ""
    },
    {
        "Release date": "February 4",
        "Artist": "Ron Sexsmith",
        "Album": "Forever Endeavour",
        "Genre": "Folk, rock",
        "Label": "Cooking Vinyl",
        "Producer": "Mitchell Froom",
        "Ref.": ""
    },
    {
        "Release date": "February 4",
        "Artist": "Ben Harper and Charlie Musselwhite",
        "Album": "Get Up!",
        "Genre": "Indie rock, blues rock",
        "Label": "Stax",
        "Producer": "Ben Harper",
        "Ref.": ""
    },
    {
        "Release date": "February 4",
        "Artist": "The Courteeners",
        "Album": "Anna",
        "Genre": "Indie rock, alternative rock",
        "Label": "Cooperative",
        "Producer": "Joe Cross",
        "Ref.": ""
    },
    {
        "Release date": "February 4",
        "Artist": "Frightened Rabbit",
        "Album": "Pedestrian Verse",
        "Genre": "Indie rock, alternative rock",
        "Label": "Atlantic",
        "Producer": "Leo Abrahams & Frightened Rabbit",
        "Ref.": ""
    },
    {
        "Release date": "February 4",
        "Artist": "Heaven's Basement",
        "Album": "Filthy Empire",
        "Genre": "Hard rock",
        "Label": "Red Bull Records",
        "Producer": "John Feldmann",
        "Ref.": ""
    },
    {
        "Release date": "February 5",
        "Artist": "Josh Groban",
        "Album": "All That Echoes",
        "Genre": "Operatic pop, classical",
        "Label": "143, Reprise",
        "Producer": "Rob Cavallo",
        "Ref.": ""
    },
    {
        "Release date": "February 5",
        "Artist": "Red",
        "Album": "Release the Panic",
        "Genre": "Alternative metal, nu metal",
        "Label": "Essential \\/ Sony",
        "Producer": "Howard Benson",
        "Ref.": ""
    },
    {
        "Release date": "February 5",
        "Artist": "Coheed and Cambria",
        "Album": "The Afterman: Descension",
        "Genre": "Progressive rock, alternative rock",
        "Label": "Hundred Handed\\/Everything Evil",
        "Producer": "Coheed and Cambria, Michael Birnbaum, Chris Bittner",
        "Ref.": ""
    },
    {
        "Release date": "February 5",
        "Artist": "The Bronx",
        "Album": "The Bronx",
        "Genre": "Hardcore punk, hard rock",
        "Label": "White Drugs, ATO",
        "Producer": "Beau Burchell",
        "Ref.": ""
    },
    {
        "Release date": "February 5",
        "Artist": "Jim James",
        "Album": "Regions of Light and Sound of God",
        "Genre": "Alternative rock, indie rock",
        "Label": "ATO",
        "Producer": "Jim James",
        "Ref.": ""
    },
    {
        "Release date": "February 5",
        "Artist": "Unknown Mortal Orchestra",
        "Album": "II",
        "Genre": "Indie rock, psychedelic rock, lo-fi",
        "Label": "Jagjaguwar",
        "Producer": "",
        "Ref.": ""
    },
    {
        "Release date": "February 5",
        "Artist": "Silverstein",
        "Album": "This Is How the Wind Shifts",
        "Genre": "Post-hardcore, hardcore punk",
        "Label": "Hopeless",
        "Producer": "Jordan Valeriote",
        "Ref.": ""
    },
    {
        "Release date": "February 5",
        "Artist": "Tim McGraw",
        "Album": "Two Lanes of Freedom",
        "Genre": "Country music",
        "Label": "Big Machine",
        "Producer": "",
        "Ref.": ""
    },
    {
        "Release date": "February 5",
        "Artist": "Eels",
        "Album": "Wonderful, Glorious",
        "Genre": "Alternative rock, indie rock",
        "Label": "Vagrant",
        "Producer": "Mark Oliver Everett",
        "Ref.": ""
    },
    {
        "Release date": "February 5",
        "Artist": "Hayden",
        "Album": "Us Alone",
        "Genre": "Indie folk",
        "Label": "Arts & Crafts",
        "Producer": "Hayden",
        "Ref.": "[14]"
    },
    {
        "Release date": "February 5",
        "Artist": "Joe Budden",
        "Album": "No Love Lost",
        "Genre": "Hip-hop",
        "Label": "E1, Mood Muzik Entertainment",
        "Producer": "8 Bars, A6, Allen Ritter, Beewirks,Boi-1da, Cardiak, Darknight,Frequency, KdotOnTheBeat, LV, Mizfitz Soundz, Sean C, SLV, T-Minus, Vinylz",
        "Ref.": ""
    },
    {
        "Release date": "February 11",
        "Artist": "Darwin Deez",
        "Album": "Songs for Imaginative People",
        "Genre": "Indie rock",
        "Label": "Self-recorded",
        "Producer": "",
        "Ref.": ""
    },
    {
        "Release date": "February 11",
        "Artist": "Foals",
        "Album": "Holy Fire",
        "Genre": "Indie rock, math rock",
        "Label": "Transgressive",
        "Producer": "Flood & Alan Moulder",
        "Ref.": ""
    },
    {
        "Release date": "February 12",
        "Artist": "Bullet for My Valentine",
        "Album": "Temper Temper",
        "Genre": "Metalcore, heavy metal",
        "Label": "RCA Records (Sony Music Entertainment)",
        "Producer": "Don Gilmore",
        "Ref.": ""
    },
    {
        "Release date": "February 12",
        "Artist": "Lisa Germano",
        "Album": "No Elephants",
        "Genre": "Alternative rock, dream pop, folk rock",
        "Label": "Badman",
        "Producer": "",
        "Ref.": ""
    },
    {
        "Release date": "February 12",
        "Artist": "Ras Kass",
        "Album": "Barmageddon",
        "Genre": "Hip hop",
        "Label": "",
        "Producer": "",
        "Ref.": "[15]"
    },
    {
        "Release date": "February 12",
        "Artist": "Justin Rutledge",
        "Album": "Valleyheart",
        "Genre": "Alternative country",
        "Label": "Outside",
        "Producer": "Justin Rutledge",
        "Ref.": "[16]"
    },
    {
        "Release date": "February 15",
        "Artist": "Lowrider",
        "Album": "Black Stones",
        "Genre": "Hip hop soul, indie rock",
        "Label": "Illusive",
        "Producer": "",
        "Ref.": "[17]"
    },
    {
        "Release date": "February 18",
        "Artist": "Nick Cave and the Bad Seeds",
        "Album": "Push the Sky Away",
        "Genre": "Alternative rock",
        "Label": "Bad Seed Ltd.",
        "Producer": "Nick Launay",
        "Ref.": ""
    },
    {
        "Release date": "February 19",
        "Artist": "Starfucker",
        "Album": "Miracle Mile",
        "Genre": "Indie rock, indie pop",
        "Label": "Polyvinyl",
        "Producer": "",
        "Ref.": ""
    },
    {
        "Release date": "February 19",
        "Artist": "Atlas Genius",
        "Album": "When It Was Now",
        "Genre": "Indie rock, indie pop",
        "Label": "Warner Bros.",
        "Producer": "Atlas Genius, Michael H. Brauer",
        "Ref.": ""
    },
    {
        "Release date": "February 19",
        "Artist": "Puscifer",
        "Album": "Donkey Punch the Night",
        "Genre": "Alternative rock, industrial rock",
        "Label": "Puscifer Entertainment",
        "Producer": "",
        "Ref.": ""
    },
    {
        "Release date": "February 19",
        "Artist": "Buckcherry",
        "Album": "Confessions",
        "Genre": "Hard rock",
        "Label": "Century Media, Eleven Seven Music",
        "Producer": "",
        "Ref.": ""
    },
    {
        "Release date": "February 19",
        "Artist": "Wednesday 13",
        "Album": "The Dixie Dead",
        "Genre": "Horror punk",
        "Label": "",
        "Producer": "",
        "Ref.": ""
    },
    {
        "Release date": "February 19",
        "Artist": "Inspectah Deck and 7L & Esoteric",
        "Album": "Czarface",
        "Genre": "East Coast hip hop, underground hip hop",
        "Label": "Brick Records",
        "Producer": "7L, Spada4, DJ Premier",
        "Ref.": "[18]"
    },
    {
        "Release date": "February 20",
        "Artist": "Hoodie Allen",
        "Album": "Crew Cuts",
        "Genre": "Hip hop",
        "Label": "",
        "Producer": "",
        "Ref.": ""
    },
    {
        "Release date": "February 22",
        "Artist": "Stratovarius",
        "Album": "Nemesis",
        "Genre": "Heavy metal, power metal",
        "Label": "Edel",
        "Producer": "Matias Kupiainen",
        "Ref.": "[19]"
    },
    {
        "Release date": "February 25",
        "Artist": "Killah Priest",
        "Album": "The Psychic World of Walter Reed",
        "Genre": "Hip hop",
        "Label": "Proverbs Records",
        "Producer": "Killah Priest et al..",
        "Ref.": "[20]"
    },
    {
        "Release date": "February 25",
        "Artist": "Johnny Marr",
        "Album": "The Messenger",
        "Genre": "Alternative rock, rock",
        "Label": "Warner Bros., Sire",
        "Producer": "",
        "Ref.": ""
    },
    {
        "Release date": "February 25",
        "Artist": "Palma Violets",
        "Album": "180",
        "Genre": "Indie rock",
        "Label": "",
        "Producer": "",
        "Ref.": ""
    },
    {
        "Release date": "February 25",
        "Artist": "Ed Harcourt",
        "Album": "Back into the Woods",
        "Genre": "Alternative rock, rock",
        "Label": "CCCLX Music",
        "Producer": "",
        "Ref.": ""
    },
    {
        "Release date": "February 25",
        "Artist": "Atoms for Peace",
        "Album": "Amok",
        "Genre": "Experimental rock, electronica",
        "Label": "XL",
        "Producer": "",
        "Ref.": ""
    },
    {
        "Release date": "February 25",
        "Artist": "A\"lafur Arnalds",
        "Album": "For Now I Am Winter",
        "Genre": "Neo-classical metal, instrumental, ambient",
        "Label": "Erased Tapes, Mercury Classics",
        "Producer": "",
        "Ref.": ""
    },
    {
        "Release date": "February 25",
        "Artist": "Steven Wilson",
        "Album": "The Raven That Refused to Sing (And Other Stories)",
        "Genre": "Progressive rock",
        "Label": "KScope",
        "Producer": "Steven Wilson, Alan Parsons",
        "Ref.": "[21][22]"
    },
    {
        "Release date": "February 26",
        "Artist": "Cappadonna",
        "Album": "Eyrth, Wynd and Fyre",
        "Genre": "Hip hop",
        "Label": "RBC Records",
        "Producer": "J. Glaze, Whaul, Keelay & Zaire, Cosmos Shines, Chris Bay, DJ Snips, Kevlaar 7, Stu Bangas, G-Force",
        "Ref.": "[23]"
    }
]