[
    {
        "No.": "54",
        "Chief Justice": "Thomas E. Brennan",
        "Tenure as Chief Justice": "1969-1971",
        "Tenure on Supreme Court": "January 1, 1967-December 31, 1973"
    },
    {
        "No.": "55",
        "Chief Justice": "Thomas M. Kavanagh",
        "Tenure as Chief Justice": "1971-1974",
        "Tenure on Supreme Court": "January 1, 1958-April 19, 1975"
    },
    {
        "No.": "56",
        "Chief Justice": "Thomas G. Kavanagh",
        "Tenure as Chief Justice": "1975-1979",
        "Tenure on Supreme Court": "January 1, 1969-December 31, 1984"
    },
    {
        "No.": "57",
        "Chief Justice": "Mary S. Coleman",
        "Tenure as Chief Justice": "1979-1982",
        "Tenure on Supreme Court": "January 1, 1973-December 24, 1982"
    },
    {
        "No.": "58",
        "Chief Justice": "John W. Fitzgerald",
        "Tenure as Chief Justice": "1982",
        "Tenure on Supreme Court": "January 7, 1974-December 31, 1982"
    },
    {
        "No.": "59",
        "Chief Justice": "G. Mennen Williams",
        "Tenure as Chief Justice": "1983-1986",
        "Tenure on Supreme Court": "January 1, 1971-December 31, 1986"
    },
    {
        "No.": "60",
        "Chief Justice": "Dorothy Comstock Riley",
        "Tenure as Chief Justice": "1987-1991",
        "Tenure on Supreme Court": "December 9, 1982 - February 16, 1983 and January 1, 1985-September 1, 1997"
    },
    {
        "No.": "61",
        "Chief Justice": "Michael F. Cavanagh",
        "Tenure as Chief Justice": "1991-94",
        "Tenure on Supreme Court": "January 1, 1983-present"
    },
    {
        "No.": "62",
        "Chief Justice": "James H. Brickley",
        "Tenure as Chief Justice": "1995-1996",
        "Tenure on Supreme Court": "December 27, 1982-October 1, 1999"
    },
    {
        "No.": "63",
        "Chief Justice": "Conrad L. Mallet, Jr.",
        "Tenure as Chief Justice": "1997, 1998",
        "Tenure on Supreme Court": "December 21, 1990-January 2, 1999"
    },
    {
        "No.": "64",
        "Chief Justice": "Elizabeth A. Weaver",
        "Tenure as Chief Justice": "1999-2000",
        "Tenure on Supreme Court": "January 1, 1995-August 26, 2010"
    },
    {
        "No.": "65",
        "Chief Justice": "Maura D. Corrigan",
        "Tenure as Chief Justice": "2001-2004",
        "Tenure on Supreme Court": "January 1, 1999-January 14, 2011"
    },
    {
        "No.": "66",
        "Chief Justice": "Clifford W. Taylor",
        "Tenure as Chief Justice": "2005-2008",
        "Tenure on Supreme Court": "August 21, 1997-December 31, 2008"
    },
    {
        "No.": "67",
        "Chief Justice": "Marilyn J. Kelly",
        "Tenure as Chief Justice": "2009, 2010",
        "Tenure on Supreme Court": "January 1, 1997-December 31, 2013"
    },
    {
        "No.": "68",
        "Chief Justice": "Robert P. Young, Jr.",
        "Tenure as Chief Justice": "2011-present",
        "Tenure on Supreme Court": "December 30, 1998-present"
    }
]