[
    {
        "Name": "USS Constellation",
        "Registry": "NCC-1017",
        "Depiction": "Commanded by Commodore Matthew Decker. Scuttled to destroy a planet-destroying machine.[38]"
    },
    {
        "Name": "USS Constitution",
        "Registry": "NCC-1700",
        "Depiction": "\\Class Leader\" - First ship in class upon which all Constitution class vessels are based.\""
    },
    {
        "Name": "USS Defiant",
        "Registry": "NCC-1764",
        "Depiction": "Transported to the Mirror Universe by mirror universe Tholians in \\The Tholian Web\".[39] Captured by crew of ISS Enterprise (NX-01) and used in service of the Terran Empire in \"In a Mirror"
    },
    {
        "Name": "ISS Enterprise",
        "Registry": "NCC-1701",
        "Depiction": "Mirror Universe version of the USS Enterprise in \\Mirror"
    },
    {
        "Name": "USS Enterprise",
        "Registry": "NCC-1701",
        "Depiction": "Commanded by Robert April (2245AC/EUR\"2250), Christopher Pike (2250AC/EUR\"2265), James T. Kirk (2265-2270, 2273AC/EUR\"2280, 2285), Willard Decker (2270-2273, ship's commander during refit up to V'Ger incident), and Spock (2280-2285, at which time Enterprise was assigned to Starfleet Academy as a training ship). Vessel's self-destruction carried out while in orbit of the Genesis Planet to prevent ship from falling into Klingon hands.[42]"
    },
    {
        "Name": "USS Enterprise (alternate timeline created by Nero)",
        "Registry": "NCC-1701",
        "Depiction": "Originally commanded by Christopher Pike (launched 2258), then James T. Kirk.[43]"
    },
    {
        "Name": "USS Excalibur",
        "Registry": "NCC-1664[1]",
        "Depiction": "Severely damaged and crew killed during Richard Daystrom's M5 computer test.[44]"
    },
    {
        "Name": "USS Exeter",
        "Registry": "NCC-1672[1]",
        "Depiction": "All crew lost (killed by alien disease) except for Captain Ronald Tracey, who was on the planet's surface when the disease struck his crew.[45]"
    },
    {
        "Name": "USS Farragut",
        "Registry": "NCC-1647[1]",
        "Depiction": "Ship on which James Kirk served as a phaser station operator.[46] Attacked by the dikironium cloud creature, which killed half the crew.[46] The ship never appeared on screen and was never given a class or registry number; both come from The Star Trek Encyclopedia.[1]"
    },
    {
        "Name": "USS Hood",
        "Registry": "NCC-1703[1]",
        "Depiction": "Participates in Richard Daystrom's M5 computer test.[44]"
    },
    {
        "Name": "USS Intrepid",
        "Registry": "NCC-1631[1]",
        "Depiction": "All-Vulcan crew destroyed by a massive, spacegoing single-celled life form.[47]"
    },
    {
        "Name": "USS Lexington",
        "Registry": "NCC-1709[1]",
        "Depiction": "Participates in Richard Daystrom's M5 computer test. Commanded by Commodore Robert Wesley[44]"
    },
    {
        "Name": "USS Potemkin",
        "Registry": "NCC-1657[1]",
        "Depiction": "Participates in Richard Daystrom's M5 computer test.[44]"
    },
    {
        "Name": "USS Yorktown",
        "Registry": "NCC-1717",
        "Depiction": "Disabled by alien probe.[48]"
    },
    {
        "Name": "USS Pegasus",
        "Registry": "NCC-1702",
        "Depiction": "Patrolled the Klingon Neutral Zone.[49]"
    }
]