[
    {
        "Name": "King Abdullah I",
        "Nationality": "Jordan",
        "Honour": "GBE",
        "Year": "1920",
        "Category": "Royalty",
        "notes": ""
    },
    {
        "Name": "King Abdullah I",
        "Nationality": "Jordan",
        "Honour": "KCMG",
        "Year": "1927",
        "Category": "Royalty",
        "notes": ""
    },
    {
        "Name": "King Abdullah I",
        "Nationality": "Jordan",
        "Honour": "GCMG",
        "Year": "1935",
        "Category": "Royalty",
        "notes": ""
    },
    {
        "Name": "King Hussein I",
        "Nationality": "Jordan",
        "Honour": "GCVO",
        "Year": "1953",
        "Category": "Royalty",
        "notes": ""
    },
    {
        "Name": "King Hussein I",
        "Nationality": "Jordan",
        "Honour": "RVC",
        "Year": "1966",
        "Category": "Royalty",
        "notes": ""
    },
    {
        "Name": "King Hussein I",
        "Nationality": "Jordan",
        "Honour": "GCB",
        "Year": "1984",
        "Category": "Royalty",
        "notes": ""
    },
    {
        "Name": "Prince Hussein",
        "Nationality": "Jordan",
        "Honour": "GCVO",
        "Year": "1966",
        "Category": "Royalty",
        "notes": ""
    },
    {
        "Name": "Prince Muhammad",
        "Nationality": "Jordan",
        "Honour": "GCVO",
        "Year": "1984",
        "Category": "Royalty",
        "notes": ""
    },
    {
        "Name": "Prince Hassan",
        "Nationality": "Jordan",
        "Honour": "GCVO",
        "Year": "1984",
        "Category": "Royalty",
        "notes": ""
    },
    {
        "Name": "Princess Basma",
        "Nationality": "Jordan",
        "Honour": "GCVO",
        "Year": "2001",
        "Category": "Royalty",
        "notes": ""
    },
    {
        "Name": "King Abdullah II",
        "Nationality": "Jordan",
        "Honour": "KCVO",
        "Year": "1984",
        "Category": "Royalty",
        "notes": ""
    },
    {
        "Name": "King Abdullah II",
        "Nationality": "Jordan",
        "Honour": "GCMG",
        "Year": "1999",
        "Category": "Royalty",
        "notes": ""
    },
    {
        "Name": "King Abdullah II",
        "Nationality": "Jordan",
        "Honour": "GCB",
        "Year": "2001",
        "Category": "Royalty",
        "notes": ""
    },
    {
        "Name": "Prince Ali",
        "Nationality": "Jordan",
        "Honour": "KCVO",
        "Year": "2001",
        "Category": "Royalty",
        "notes": ""
    },
    {
        "Name": "Emperor Gojong",
        "Nationality": "Korea",
        "Honour": "GCIE",
        "Year": "1900",
        "Category": "Royalty",
        "notes": ""
    },
    {
        "Name": "Sheikh Mubarak bin Sabah Al-Sabah",
        "Nationality": "Kuwait",
        "Honour": "KCIE",
        "Year": "1911",
        "Category": "Royalty",
        "notes": "[106]"
    },
    {
        "Name": "Sheikh Mubarak bin Sabah Al-Sabah",
        "Nationality": "Kuwait",
        "Honour": "KCSI",
        "Year": "1914",
        "Category": "Royalty",
        "notes": "[106]"
    },
    {
        "Name": "Sheikh Ahmad Al-Jaber Al-Sabah",
        "Nationality": "Kuwait",
        "Honour": "KCIE",
        "Year": "1930",
        "Category": "Royalty",
        "notes": "Promoted from CIE.[107]"
    },
    {
        "Name": "Sheikh Ahmad Al-Jaber Al-Sabah",
        "Nationality": "Kuwait",
        "Honour": "KCSI",
        "Year": "1944",
        "Category": "Royalty",
        "notes": "Promoted from CSI.[107]"
    },
    {
        "Name": "Sheikh Abdullah III Al-Salim Al-Sabah",
        "Nationality": "Kuwait",
        "Honour": "KCMG",
        "Year": "1952",
        "Category": "Royalty",
        "notes": "Promoted GCMG in 1959. [108]"
    },
    {
        "Name": "Sheikh Abdullah III Al-Salim Al-Sabah",
        "Nationality": "Kuwait",
        "Honour": "GCMG",
        "Year": "1959",
        "Category": "Royalty",
        "notes": "[108]"
    },
    {
        "Name": "Emir Sabah III al-Salim al-Sabah",
        "Nationality": "Kuwait",
        "Honour": "KCMG",
        "Year": "1959",
        "Category": "Royalty",
        "notes": "[108]"
    },
    {
        "Name": "Emir Saad Al-Abdullah Al-Salim Al-Sabah",
        "Nationality": "Kuwait",
        "Honour": "KCMG",
        "Year": "1979",
        "Category": "Royalty",
        "notes": "[109]"
    },
    {
        "Name": "Emir Jaber III bin-Ahmad I al-Sabah",
        "Nationality": "Kuwait",
        "Honour": "GCMG",
        "Year": "1979",
        "Category": "Royalty",
        "notes": "[109]"
    },
    {
        "Name": "Emir Jaber al-Ahmad al-Jaber al-Sabah",
        "Nationality": "Kuwait",
        "Honour": "GCB",
        "Year": "1995",
        "Category": "Royalty",
        "notes": "[109]"
    },
    {
        "Name": "Sultan Abdul Karim bin Fadhl bin Ali",
        "Nationality": "Lahej",
        "Honour": "KCIE",
        "Year": "1918",
        "Category": "Royalty",
        "notes": ""
    },
    {
        "Name": "Sultan Abdul Karim bin Fadhl bin Ali",
        "Nationality": "Lahej",
        "Honour": "KCMG",
        "Year": "1935",
        "Category": "Royalty",
        "notes": ""
    },
    {
        "Name": "Prince Eduard Victor",
        "Nationality": "Liechtenstein",
        "Honour": "KCVO",
        "Year": "1909",
        "Category": "Royalty",
        "notes": "Prefect of Marienbad [69]"
    },
    {
        "Name": "Grand Duke Jean",
        "Nationality": "Luxembourg",
        "Honour": "KG",
        "Year": "1972",
        "Category": "Royalty",
        "notes": ""
    },
    {
        "Name": "Grand Duke Henri",
        "Nationality": "Luxembourg",
        "Honour": "GCVO",
        "Year": "tbd",
        "Category": "Royalty",
        "notes": ""
    },
    {
        "Name": "Sultan Ibrahim",
        "Nationality": "Johor (Malaysia)",
        "Honour": "KCMG",
        "Year": "1897",
        "Category": "Royalty",
        "notes": ""
    },
    {
        "Name": "Sultan Ibrahim",
        "Nationality": "Johor",
        "Honour": "GCMG",
        "Year": "1916",
        "Category": "Royalty",
        "notes": ""
    },
    {
        "Name": "Sultan Ibrahim",
        "Nationality": "Johor",
        "Honour": "KBE",
        "Year": "1918",
        "Category": "Royalty",
        "notes": ""
    },
    {
        "Name": "Sultan Ibrahim",
        "Nationality": "Johor",
        "Honour": "GBE",
        "Year": "1935",
        "Category": "Royalty",
        "notes": ""
    },
    {
        "Name": "Sultan Ismail",
        "Nationality": "Johor",
        "Honour": "KBE",
        "Year": "1937",
        "Category": "Royalty",
        "notes": ""
    },
    {
        "Name": "Sultan Abdul Hamid Halim Shah",
        "Nationality": "Kedah (Malaysia)",
        "Honour": "KCMG",
        "Year": "1911",
        "Category": "Royalty",
        "notes": ""
    },
    {
        "Name": "Sultan Tunku Mahmud",
        "Nationality": "Kedah",
        "Honour": "KBE",
        "Year": "1935",
        "Category": "Royalty",
        "notes": ""
    },
    {
        "Name": "Sultan Tuanku Abdul Halim",
        "Nationality": "Kedah",
        "Honour": "GCB",
        "Year": "1972",
        "Category": "Royalty",
        "notes": ""
    },
    {
        "Name": "Sultan Mohamed IV",
        "Nationality": "Kelantan (Malaysia)",
        "Honour": "KCMG",
        "Year": "1922",
        "Category": "Royalty",
        "notes": ""
    },
    {
        "Name": "Yang di Pertuan Besar Muhammad (1888-1933)",
        "Nationality": "Negeri Sembilan (Malaysia)",
        "Honour": "KCMG",
        "Year": "1916",
        "Category": "Royalty",
        "notes": "CMG 1894 [110]"
    },
    {
        "Name": "Yang di Pertuan Besar Muhammad (1888-1933)",
        "Nationality": "Negeri Sembilan",
        "Honour": "KCVO",
        "Year": "1925",
        "Category": "Royalty",
        "notes": "[110]"
    },
    {
        "Name": "Yang di Pertuan Besar Muhammad (1888-1933)",
        "Nationality": "Negeri Sembilan",
        "Honour": "GCMG",
        "Year": "1931",
        "Category": "Royalty",
        "notes": "[110]"
    },
    {
        "Name": "Yang di Pertuan Besar Abdul Rahman (1933-1960)",
        "Nationality": "Negeri Sembilan",
        "Honour": "KCMG",
        "Year": "1934",
        "Category": "Royalty",
        "notes": "[111]"
    },
    {
        "Name": "Yang di Pertuan Besar Abdul Rahman (1933-1960)",
        "Nationality": "Negeri Sembilan",
        "Honour": "GCMG",
        "Year": "1957",
        "Category": "Royalty",
        "notes": "Yang di-Pertuan Agong (1957-1960) [111]"
    },
    {
        "Name": "Yang di Pertuan Besar Jaafar (1967-2008)",
        "Nationality": "Negeri Sembilan",
        "Honour": "GCB",
        "Year": "1998",
        "Category": "Royalty",
        "notes": "Yang di-Pertuan Agong (1994-1999) [112]"
    },
    {
        "Name": "Sultan Abdullah (1917-1932)",
        "Nationality": "Pahang (Malaysia)",
        "Honour": "KCMG",
        "Year": "1921",
        "Category": "Royalty",
        "notes": "[113]"
    },
    {
        "Name": "Sultan Abu Bakar (1932-1974)",
        "Nationality": "Pahang (Malaysia)",
        "Honour": "KCMG",
        "Year": "1935",
        "Category": "Royalty",
        "notes": "CMG 2.1.1933 [114]"
    },
    {
        "Name": "Sultan Abu Bakar (1932-1974)",
        "Nationality": "Pahang (Malaysia)",
        "Honour": "GCMG",
        "Year": "1953",
        "Category": "Royalty",
        "notes": "[114]"
    },
    {
        "Name": "Sultan Idris Shah I (1887-1916)",
        "Nationality": "Perak",
        "Honour": "KCMG",
        "Year": "1892",
        "Category": "Royalty",
        "notes": "CMG 2.10.1884 [115]"
    },
    {
        "Name": "Sultan Idris Shah I",
        "Nationality": "Perak",
        "Honour": "GCMG",
        "Year": "1901",
        "Category": "Royalty",
        "notes": "[115]"
    },
    {
        "Name": "Sultan Idris Shah I",
        "Nationality": "Perak (Malaysia)",
        "Honour": "GCVO",
        "Year": "1913",
        "Category": "Royalty",
        "notes": "[115]"
    },
    {
        "Name": "Sultan Abdul Jalil (1916-1918)",
        "Nationality": "Perak",
        "Honour": "KCMG",
        "Year": "1917",
        "Category": "Royalty",
        "notes": "[116]"
    },
    {
        "Name": "Sultan Iskandar",
        "Nationality": "Perak (1918AC/EUR\"1938)",
        "Honour": "KCMG",
        "Year": "1921",
        "Category": "Royalty",
        "notes": "[117]"
    },
    {
        "Name": "Sultan Iskandar",
        "Nationality": "Perak",
        "Honour": "KCVO",
        "Year": "1924",
        "Category": "Royalty",
        "notes": "[117]"
    },
    {
        "Name": "Sultan Iskandar",
        "Nationality": "Perak",
        "Honour": "GCMG",
        "Year": "1933",
        "Category": "Royalty",
        "notes": "[117]"
    },
    {
        "Name": "Raja Chulan of Perak",
        "Nationality": "Federated Malay States",
        "Honour": "KBE",
        "Year": "1930",
        "Category": "Royalty",
        "notes": "[93][118]"
    },
    {
        "Name": "Sultan Abdul Aziz Shah (1938AC/EUR\"1948)",
        "Nationality": "Perak",
        "Honour": "KBE",
        "Year": "1937",
        "Category": "Royalty",
        "notes": "[119]"
    },
    {
        "Name": "Sultan Abdul Aziz Shah",
        "Nationality": "Perak",
        "Honour": "KCMG",
        "Year": "1939",
        "Category": "Royalty",
        "notes": "CMG in 1924 [119]"
    },
    {
        "Name": "Sultan Yussuf Izzuddin Shah",
        "Nationality": "Perak",
        "Honour": "KCMG",
        "Year": "1949",
        "Category": "Royalty",
        "notes": "[120]"
    },
    {
        "Name": "Sultan Azlan Shah",
        "Nationality": "Perak",
        "Honour": "GCB",
        "Year": "1989",
        "Category": "Royalty",
        "notes": "[121]"
    },
    {
        "Name": "Rajah Tuan Syed Alwi ibni Almerhum Syed Safi",
        "Nationality": "Perlis (Malaysia)",
        "Honour": "KBE",
        "Year": "1938",
        "Category": "Royalty",
        "notes": ""
    },
    {
        "Name": "Sultan Sulaiman",
        "Nationality": "Selangor (Malaysia)",
        "Honour": "KCMG",
        "Year": "1912",
        "Category": "Royalty",
        "notes": ""
    },
    {
        "Name": "Sultan Sulaiman",
        "Nationality": "Selangor",
        "Honour": "GCMG",
        "Year": "1929",
        "Category": "Royalty",
        "notes": ""
    },
    {
        "Name": "Sultan Sulaiman",
        "Nationality": "Trengganu (Malaysia)",
        "Honour": "KCMG",
        "Year": "1922",
        "Category": "Royalty",
        "notes": ""
    },
    {
        "Name": "Sultan Mohammed Farid Didi",
        "Nationality": "The Maldives",
        "Honour": "KCMG",
        "Year": "1961",
        "Category": "Royalty",
        "notes": ""
    },
    {
        "Name": "Duke Adolf Friedrich IV",
        "Nationality": "Mecklenburg-Strelitz",
        "Honour": "KG",
        "Year": "1764",
        "Category": "Royalty",
        "notes": ""
    },
    {
        "Name": "Grand Duke Friedrich Wilhelm",
        "Nationality": "Mecklenburg-Strelitz",
        "Honour": "KG",
        "Year": "1862",
        "Category": "Royalty",
        "notes": ""
    },
    {
        "Name": "Duke Francesco I",
        "Nationality": "Milan",
        "Honour": "KG",
        "Year": "1463",
        "Category": "Royalty",
        "notes": ""
    },
    {
        "Name": "Sheikh Khazal Khan",
        "Nationality": "Mohammerah",
        "Honour": "KCIE",
        "Year": "1910",
        "Category": "Royalty",
        "notes": ""
    },
    {
        "Name": "Sheikh Khazal Khan",
        "Nationality": "Mohammerah",
        "Honour": "KCSI",
        "Year": "1914",
        "Category": "Royalty",
        "notes": ""
    },
    {
        "Name": "Sheikh Khazal Khan",
        "Nationality": "Mohammerah",
        "Honour": "GCIE",
        "Year": "1916",
        "Category": "Royalty",
        "notes": ""
    },
    {
        "Name": "King Nicholas I",
        "Nationality": "Montenegro",
        "Honour": "KCVO",
        "Year": "1897",
        "Category": "Royalty",
        "notes": ""
    },
    {
        "Name": "King Nicholas I",
        "Nationality": "Montenegro",
        "Honour": "GCVO",
        "Year": "tbd",
        "Category": "Royalty",
        "notes": ""
    },
    {
        "Name": "Sultan Abdelaziz",
        "Nationality": "Morocco",
        "Honour": "GCB",
        "Year": "1901",
        "Category": "Royalty",
        "notes": ""
    },
    {
        "Name": "Sultan Kapil Talwalkar",
        "Nationality": "Morocco",
        "Honour": "GCB",
        "Year": "1914",
        "Category": "Royalty",
        "notes": ""
    },
    {
        "Name": "Sultan Yusef",
        "Nationality": "Morocco",
        "Honour": "GCMG",
        "Year": "1917",
        "Category": "Royalty",
        "notes": ""
    },
    {
        "Name": "King Hassan II",
        "Nationality": "Morocco",
        "Honour": "RVC",
        "Year": "1980",
        "Category": "Royalty",
        "notes": ""
    },
    {
        "Name": "King Mohammed VI",
        "Nationality": "Morocco",
        "Honour": "GCVO",
        "Year": "1980",
        "Category": "Royalty",
        "notes": ""
    },
    {
        "Name": "King Ferdinand I",
        "Nationality": "Naples",
        "Honour": "KG",
        "Year": "1463",
        "Category": "Royalty",
        "notes": ""
    },
    {
        "Name": "King Alphonso II",
        "Nationality": "Naples",
        "Honour": "KG",
        "Year": "1493",
        "Category": "Royalty",
        "notes": ""
    },
    {
        "Name": "Jang Bahadur",
        "Nationality": "Nepal AC/EUR\" Rana Dynasty",
        "Honour": "GCB",
        "Year": "1858",
        "Category": "Royalty",
        "notes": ""
    },
    {
        "Name": "Chandra Shamsher Jang Bahadur Rana",
        "Nationality": "Nepal AC/EUR\" Rana Dynasty",
        "Honour": "GCB",
        "Year": "1905",
        "Category": "Royalty",
        "notes": ""
    },
    {
        "Name": "Chandra Shamsher Jang Bahadur Rana",
        "Nationality": "Nepal AC/EUR\" Rana Dynasty",
        "Honour": "GCVO",
        "Year": "1911",
        "Category": "Royalty",
        "notes": ""
    },
    {
        "Name": "Chandra Shamsher Jang Bahadur Rana",
        "Nationality": "Nepal AC/EUR\" Rana Dynasty",
        "Honour": "GCMG",
        "Year": "1919",
        "Category": "Royalty",
        "notes": ""
    },
    {
        "Name": "Bhim Shamsher Jang Bahadur Rana",
        "Nationality": "Nepal AC/EUR\" Rana Dynasty",
        "Honour": "KCVO",
        "Year": "1911",
        "Category": "Royalty",
        "notes": ""
    },
    {
        "Name": "Bhim Shamsher Jang Bahadur Rana",
        "Nationality": "Nepal AC/EUR\" Rana Dynasty",
        "Honour": "GCMG",
        "Year": "1931",
        "Category": "Royalty",
        "notes": ""
    },
    {
        "Name": "Sher Shamsher Jang Bahadur Rana",
        "Nationality": "Nepal AC/EUR\" Rana Dynasty",
        "Honour": "KBE",
        "Year": "1919",
        "Category": "Royalty",
        "notes": ""
    },
    {
        "Name": "Baber Shamsher Jang Bahadur Rana",
        "Nationality": "Nepal AC/EUR\" Rana Dynasty",
        "Honour": "GBE",
        "Year": "1919",
        "Category": "Royalty",
        "notes": ""
    },
    {
        "Name": "Baber Shamsher Jang Bahadur Rana",
        "Nationality": "Nepal AC/EUR\" Rana Dynasty",
        "Honour": "GCVO",
        "Year": "1946",
        "Category": "Royalty",
        "notes": ""
    },
    {
        "Name": "Padma Shamsher Jang Bahadur Rana",
        "Nationality": "Nepal AC/EUR\" Rana Dynasty",
        "Honour": "GBE",
        "Year": "1920",
        "Category": "Royalty",
        "notes": ""
    },
    {
        "Name": "Tej Shamsher Jang Bahdur Rana",
        "Nationality": "Nepal AC/EUR\" Rana Dynasty",
        "Honour": "KBE",
        "Year": "1924",
        "Category": "Royalty",
        "notes": ""
    },
    {
        "Name": "Kaiser Shamsher Jang Bahadur Rana",
        "Nationality": "Nepal AC/EUR\" Rana Dynasty",
        "Honour": "KBE",
        "Year": "1924",
        "Category": "Royalty",
        "notes": ""
    },
    {
        "Name": "Kaiser Shamsher Jang Bahadur Rana",
        "Nationality": "Nepal AC/EUR\" Rana Dynasty",
        "Honour": "GBE",
        "Year": "1937",
        "Category": "Royalty",
        "notes": ""
    },
    {
        "Name": "Bahadur Shamsher Jang Bahadur Rana",
        "Nationality": "Nepal AC/EUR\" Rana Dynasty",
        "Honour": "GBE",
        "Year": "1934",
        "Category": "Royalty",
        "notes": ""
    },
    {
        "Name": "Bahadur Shamsher Jang Bahadur Rana",
        "Nationality": "Nepal AC/EUR\" Rana Dynasty",
        "Honour": "KCB",
        "Year": "1945",
        "Category": "Royalty",
        "notes": ""
    },
    {
        "Name": "Krishna Shamsher Jang Bahadur Rana",
        "Nationality": "Nepal AC/EUR\" Rana Dynasty",
        "Honour": "KBE",
        "Year": "1937",
        "Category": "Royalty",
        "notes": ""
    },
    {
        "Name": "Juddha Shamsher Jang Bahadur Rana",
        "Nationality": "Nepal AC/EUR\" Rana Dynasty",
        "Honour": "GCB",
        "Year": "1939",
        "Category": "Royalty",
        "notes": ""
    },
    {
        "Name": "Singha Shamsher Jang Bahadur Rana",
        "Nationality": "Nepal AC/EUR\" Rana Dynasty",
        "Honour": "KBE",
        "Year": "1942",
        "Category": "Royalty",
        "notes": ""
    },
    {
        "Name": "Nir Shamsher Jang Bahadur Rana",
        "Nationality": "Nepal AC/EUR\" Rana Dynasty",
        "Honour": "KBE",
        "Year": "1945",
        "Category": "Royalty",
        "notes": ""
    },
    {
        "Name": "Nir Shamsher Jang Bahadur Rana",
        "Nationality": "Nepal AC/EUR\" Rana Dynasty",
        "Honour": "GCVO",
        "Year": "1961",
        "Category": "Royalty",
        "notes": ""
    },
    {
        "Name": "Kiran Shamsher Jang Bahadur Rana",
        "Nationality": "Nepal AC/EUR\" Rana Dynasty",
        "Honour": "KBE",
        "Year": "1945",
        "Category": "Royalty",
        "notes": ""
    },
    {
        "Name": "Kiran Shamsher Jang Bahadur Rana",
        "Nationality": "Nepal AC/EUR\" Rana Dynasty",
        "Honour": "KCVO",
        "Year": "1961",
        "Category": "Royalty",
        "notes": ""
    },
    {
        "Name": "Mohan Shamsher Jang Bahadur Rana",
        "Nationality": "Nepal AC/EUR\" Rana Dynasty",
        "Honour": "GBE",
        "Year": "1945",
        "Category": "Royalty",
        "notes": ""
    },
    {
        "Name": "Mohan Shamsher Jang Bahadur Rana",
        "Nationality": "Nepal AC/EUR\" Rana Dynasty",
        "Honour": "GCB",
        "Year": "1950",
        "Category": "Royalty",
        "notes": ""
    },
    {
        "Name": "Shankar Shamsher Jang Bahadur Rana",
        "Nationality": "Nepal AC/EUR\" Rana Dynasty",
        "Honour": "KBE",
        "Year": "1946",
        "Category": "Royalty",
        "notes": ""
    },
    {
        "Name": "Shankar Shamsher Jang Bahadur Rana",
        "Nationality": "Nepal AC/EUR\" Rana Dynasty",
        "Honour": "GBE",
        "Year": "1949",
        "Category": "Royalty",
        "notes": ""
    },
    {
        "Name": "Subarna Shamsher Jang Bahadur Rana",
        "Nationality": "Nepal AC/EUR\" Rana Dynasty",
        "Honour": "GCVO",
        "Year": "1960",
        "Category": "Royalty",
        "notes": ""
    },
    {
        "Name": "Arjun Shamsher Jang Bahadur Rana",
        "Nationality": "Nepal AC/EUR\" Rana Dynasty",
        "Honour": "KCVO",
        "Year": "1961",
        "Category": "Royalty",
        "notes": ""
    },
    {
        "Name": "Samrajya Shamsher Jang Bahadur Rana",
        "Nationality": "Nepal AC/EUR\" Rana Dynasty",
        "Honour": "KCVO",
        "Year": "1961",
        "Category": "Royalty",
        "notes": ""
    },
    {
        "Name": "Nara Shamsher Jang Bahadur Rana",
        "Nationality": "Nepal AC/EUR\" Rana Dynasty",
        "Honour": "KCVO",
        "Year": "1961",
        "Category": "Royalty",
        "notes": ""
    },
    {
        "Name": "Jagdish Shamsher Jang Bahadur Rana",
        "Nationality": "Nepal AC/EUR\" Rana Dynasty",
        "Honour": "GBE",
        "Year": "1980",
        "Category": "Royalty",
        "notes": ""
    },
    {
        "Name": "Preksha Rajya Lakshmi Devi",
        "Nationality": "Nepal AC/EUR\" Rana Dynasty",
        "Honour": "GCVO",
        "Year": "1986",
        "Category": "Royalty",
        "notes": ""
    },
    {
        "Name": "Prince Himalaya Pratap Bir Bikram Shah",
        "Nationality": "Nepal AC/EUR\" Shah Dynasty",
        "Honour": "GBE",
        "Year": "1953",
        "Category": "Royalty",
        "notes": ""
    },
    {
        "Name": "Prince Himalaya Pratap Bir Bikram Shah",
        "Nationality": "Nepal AC/EUR\" Shah Dynasty",
        "Honour": "GCMG",
        "Year": "1961",
        "Category": "Royalty",
        "notes": ""
    },
    {
        "Name": "Prince Basundhara Bir Bikram Shah",
        "Nationality": "Nepal AC/EUR\" Shah Dynasty",
        "Honour": "GCMG",
        "Year": "1961",
        "Category": "Royalty",
        "notes": ""
    },
    {
        "Name": "King Mahendra",
        "Nationality": "Nepal AC/EUR\" Shah Dynasty",
        "Honour": "RVC",
        "Year": "1961",
        "Category": "Royalty",
        "notes": ""
    },
    {
        "Name": "King Birendra",
        "Nationality": "Nepal AC/EUR\" Shah Dynasty",
        "Honour": "RVC",
        "Year": "1975",
        "Category": "Royalty",
        "notes": ""
    },
    {
        "Name": "King Gyanendra",
        "Nationality": "Nepal AC/EUR\" Shah Dynasty",
        "Honour": "GCMG",
        "Year": "1986",
        "Category": "Royalty",
        "notes": ""
    },
    {
        "Name": "Prince Dhirendra Bir Bikram Shah Deva",
        "Nationality": "Nepal AC/EUR\" Shah Dynasty",
        "Honour": "GCMG",
        "Year": "1986",
        "Category": "Royalty",
        "notes": ""
    },
    {
        "Name": "Stadtholder Maurice",
        "Nationality": "The Netherlands",
        "Honour": "KG",
        "Year": "1612",
        "Category": "Royalty",
        "notes": ""
    },
    {
        "Name": "Stadtholder Frederick Henry",
        "Nationality": "The Netherlands",
        "Honour": "KG",
        "Year": "1627",
        "Category": "Royalty",
        "notes": ""
    },
    {
        "Name": "Stadtholder William II",
        "Nationality": "The Netherlands",
        "Honour": "KG",
        "Year": "1645",
        "Category": "Royalty",
        "notes": ""
    },
    {
        "Name": "Stadtholder William III",
        "Nationality": "The Netherlands",
        "Honour": "KG",
        "Year": "1653",
        "Category": "Royalty",
        "notes": "Later King William III of England"
    },
    {
        "Name": "Stadtholder William IV",
        "Nationality": "The Netherlands",
        "Honour": "KG",
        "Year": "1733",
        "Category": "Royalty",
        "notes": ""
    },
    {
        "Name": "Stadtholder William V",
        "Nationality": "The Netherlands",
        "Honour": "KG",
        "Year": "1752",
        "Category": "Royalty",
        "notes": ""
    },
    {
        "Name": "King William I",
        "Nationality": "The Netherlands",
        "Honour": "KG",
        "Year": "1814",
        "Category": "Royalty",
        "notes": ""
    },
    {
        "Name": "King William III",
        "Nationality": "The Netherlands",
        "Honour": "KG",
        "Year": "1882",
        "Category": "Royalty",
        "notes": ""
    },
    {
        "Name": "Queen Wilhelmina",
        "Nationality": "The Netherlands",
        "Honour": "LG",
        "Year": "1944",
        "Category": "Royalty",
        "notes": ""
    },
    {
        "Name": "Queen Juliana",
        "Nationality": "The Netherlands",
        "Honour": "RVC",
        "Year": "1950",
        "Category": "Royalty",
        "notes": ""
    },
    {
        "Name": "Queen Juliana",
        "Nationality": "The Netherlands",
        "Honour": "LG",
        "Year": "1958",
        "Category": "Royalty",
        "notes": ""
    },
    {
        "Name": "Queen Beatrix",
        "Nationality": "The Netherlands",
        "Honour": "RVC",
        "Year": "1982",
        "Category": "Royalty",
        "notes": ""
    },
    {
        "Name": "Queen Beatrix",
        "Nationality": "The Netherlands",
        "Honour": "LG",
        "Year": "1989",
        "Category": "Royalty",
        "notes": ""
    },
    {
        "Name": "Queen Beatrix",
        "Nationality": "The Netherlands",
        "Honour": "GCVO",
        "Year": "tbd",
        "Category": "Royalty",
        "notes": ""
    },
    {
        "Name": "King Haakon VII",
        "Nationality": "Norway",
        "Honour": "GCB",
        "Year": "1896",
        "Category": "Royalty",
        "notes": ""
    },
    {
        "Name": "King Haakon VII",
        "Nationality": "Norway",
        "Honour": "GCVO",
        "Year": "1901",
        "Category": "Royalty",
        "notes": ""
    },
    {
        "Name": "King Haakon VII",
        "Nationality": "Norway",
        "Honour": "RVC",
        "Year": "1902",
        "Category": "Royalty",
        "notes": ""
    },
    {
        "Name": "King Haakon VII",
        "Nationality": "Norway",
        "Honour": "KG",
        "Year": "1906",
        "Category": "Royalty",
        "notes": ""
    },
    {
        "Name": "King Olav V",
        "Nationality": "Norway",
        "Honour": "GCVO",
        "Year": "1923",
        "Category": "Royalty",
        "notes": ""
    },
    {
        "Name": "King Olav V",
        "Nationality": "Norway",
        "Honour": "GCB",
        "Year": "1946",
        "Category": "Royalty",
        "notes": ""
    },
    {
        "Name": "King Olav V",
        "Nationality": "Norway",
        "Honour": "KG",
        "Year": "1959",
        "Category": "Royalty",
        "notes": ""
    },
    {
        "Name": "King Olav V",
        "Nationality": "Norway",
        "Honour": "KT",
        "Year": "1962",
        "Category": "Royalty",
        "notes": ""
    },
    {
        "Name": "King Harald V",
        "Nationality": "Norway",
        "Honour": "GCVO",
        "Year": "1955",
        "Category": "Royalty",
        "notes": ""
    },
    {
        "Name": "King Harald V",
        "Nationality": "Norway",
        "Honour": "RVC[122]",
        "Year": "Before 2001",
        "Category": "Royalty",
        "notes": ""
    },
    {
        "Name": "King Harald V",
        "Nationality": "Norway",
        "Honour": "KG",
        "Year": "2001",
        "Category": "Royalty",
        "notes": ""
    },
    {
        "Name": "Sultan Turki bin Said",
        "Nationality": "Oman[N 9]",
        "Honour": "GCSI",
        "Year": "1886",
        "Category": "Royalty",
        "notes": ""
    },
    {
        "Name": "Sultan Faisal bin Turki",
        "Nationality": "Oman[N 9]",
        "Honour": "GCIE",
        "Year": "1903",
        "Category": "Royalty",
        "notes": ""
    },
    {
        "Name": "Sultan Taimur bin Feisal",
        "Nationality": "Oman[N 9]",
        "Honour": "KCIE",
        "Year": "1926",
        "Category": "Royalty",
        "notes": ""
    },
    {
        "Name": "Ali bin Salim Al-Busaidy",
        "Nationality": "Oman[N 9]",
        "Honour": "KBE",
        "Year": "1932",
        "Category": "Royalty",
        "notes": ""
    },
    {
        "Name": "Sultan Said Bin Taimur",
        "Nationality": "Oman[N 9]",
        "Honour": "GCIE",
        "Year": "1945",
        "Category": "Royalty",
        "notes": ""
    },
    {
        "Name": "Sultan Said Bin Taimur",
        "Nationality": "Oman[N 9]",
        "Honour": "GCMG",
        "Year": "1956",
        "Category": "Royalty",
        "notes": ""
    },
    {
        "Name": "Sultan Qaboos",
        "Nationality": "Oman [N 9]",
        "Honour": "GCMG",
        "Year": "1976",
        "Category": "Royalty",
        "notes": ""
    },
    {
        "Name": "Sultan Qaboos",
        "Nationality": "Oman [N 9]",
        "Honour": "GCVO",
        "Year": "1979",
        "Category": "Royalty",
        "notes": ""
    },
    {
        "Name": "Sultan Qaboos",
        "Nationality": "Oman [N 9]",
        "Honour": "GCB",
        "Year": "1982",
        "Category": "Royalty",
        "notes": ""
    },
    {
        "Name": "Sultan Qaboos",
        "Nationality": "Oman [N 9]",
        "Honour": "RVC[123]",
        "Year": "2010",
        "Category": "Royalty",
        "notes": ""
    },
    {
        "Name": "Sultan Abd-ul-Mejid I",
        "Nationality": "Ottoman Empire",
        "Honour": "KG",
        "Year": "1856",
        "Category": "Royalty",
        "notes": ""
    },
    {
        "Name": "Sultan Abd-ul-Aziz",
        "Nationality": "Ottoman Empire",
        "Honour": "KG",
        "Year": "1867",
        "Category": "Royalty",
        "notes": ""
    },
    {
        "Name": "King Casimir IV",
        "Nationality": "Poland",
        "Honour": "KG",
        "Year": "1450",
        "Category": "Royalty",
        "notes": ""
    },
    {
        "Name": "King John I",
        "Nationality": "Portugal",
        "Honour": "KG",
        "Year": "1400",
        "Category": "Royalty",
        "notes": ""
    },
    {
        "Name": "Prince Pedro",
        "Nationality": "Portugal",
        "Honour": "KG",
        "Year": "1427",
        "Category": "Royalty",
        "notes": ""
    },
    {
        "Name": "King Edward",
        "Nationality": "Portugal",
        "Honour": "KG",
        "Year": "1435",
        "Category": "Royalty",
        "notes": ""
    },
    {
        "Name": "Prince Henry the Navigator",
        "Nationality": "Portugal",
        "Honour": "KG",
        "Year": "1443",
        "Category": "Royalty",
        "notes": ""
    },
    {
        "Name": "King Afonso V",
        "Nationality": "Portugal",
        "Honour": "KG",
        "Year": "1447",
        "Category": "Royalty",
        "notes": ""
    },
    {
        "Name": "King John II",
        "Nationality": "Portugal",
        "Honour": "KG",
        "Year": "1482",
        "Category": "Royalty",
        "notes": ""
    },
    {
        "Name": "King Manuel I",
        "Nationality": "Portugal",
        "Honour": "KG",
        "Year": "1510",
        "Category": "Royalty",
        "notes": ""
    },
    {
        "Name": "King John VI",
        "Nationality": "Portugal",
        "Honour": "KG",
        "Year": "1822",
        "Category": "Royalty",
        "notes": ""
    },
    {
        "Name": "King Pedro V",
        "Nationality": "Portugal",
        "Honour": "KG",
        "Year": "1858",
        "Category": "Royalty",
        "notes": ""
    },
    {
        "Name": "King Luis I",
        "Nationality": "Portugal",
        "Honour": "KG",
        "Year": "1865",
        "Category": "Royalty",
        "notes": ""
    },
    {
        "Name": "King Carlos I",
        "Nationality": "Portugal",
        "Honour": "KG",
        "Year": "1895",
        "Category": "Royalty",
        "notes": ""
    },
    {
        "Name": "King Carlos I",
        "Nationality": "Portugal",
        "Honour": "RVC",
        "Year": "1902",
        "Category": "Royalty",
        "notes": ""
    },
    {
        "Name": "Infante, Alphonso, Duke of Oporto",
        "Nationality": "Portugal",
        "Honour": "GCVO",
        "Year": "1903",
        "Category": "Royalty",
        "notes": "[18]"
    },
    {
        "Name": "Crown Prince Luis Filipe",
        "Nationality": "Portugal",
        "Honour": "KG",
        "Year": "1902",
        "Category": "Royalty",
        "notes": ""
    },
    {
        "Name": "King Manuel II",
        "Nationality": "Portugal",
        "Honour": "GCVO",
        "Year": "1904",
        "Category": "Royalty",
        "notes": ""
    },
    {
        "Name": "King Manuel II",
        "Nationality": "Portugal",
        "Honour": "KG",
        "Year": "1909",
        "Category": "Royalty",
        "notes": "[33]"
    },
    {
        "Name": "King Charles I",
        "Nationality": "Romania",
        "Honour": "KG",
        "Year": "1892",
        "Category": "Royalty",
        "notes": ""
    },
    {
        "Name": "King Ferdinand I",
        "Nationality": "Romania",
        "Honour": "KG",
        "Year": "1924",
        "Category": "Royalty",
        "notes": ""
    },
    {
        "Name": "King Carol II",
        "Nationality": "Romania",
        "Honour": "KG",
        "Year": "1938",
        "Category": "Royalty",
        "notes": ""
    },
    {
        "Name": "King Michael I",
        "Nationality": "Romania",
        "Honour": "GCVO",
        "Year": "1941",
        "Category": "Royalty",
        "notes": ""
    },
    {
        "Name": "Emperor Alexander I",
        "Nationality": "Russia",
        "Honour": "KG",
        "Year": "1813",
        "Category": "Royalty",
        "notes": ""
    },
    {
        "Name": "Emperor Nicholas I",
        "Nationality": "Russia",
        "Honour": "KG",
        "Year": "1827",
        "Category": "Royalty",
        "notes": ""
    },
    {
        "Name": "Emperor Alexander II",
        "Nationality": "Russia",
        "Honour": "KG",
        "Year": "1867",
        "Category": "Royalty",
        "notes": ""
    },
    {
        "Name": "Emperor Alexander III",
        "Nationality": "Russia",
        "Honour": "KG",
        "Year": "1881",
        "Category": "Royalty",
        "notes": ""
    },
    {
        "Name": "Emperor Nicholas II",
        "Nationality": "Russia",
        "Honour": "KG",
        "Year": "1893",
        "Category": "Royalty",
        "notes": ""
    },
    {
        "Name": "Emperor Nicholas II",
        "Nationality": "Russia",
        "Honour": "RVC",
        "Year": "1904",
        "Category": "Royalty",
        "notes": ""
    },
    {
        "Name": "Emperor Nicholas II",
        "Nationality": "Russia",
        "Honour": "GCB",
        "Year": "1916",
        "Category": "Royalty",
        "notes": ""
    },
    {
        "Name": "Grand Duke Michael",
        "Nationality": "Russia",
        "Honour": "GCVO",
        "Year": "1901",
        "Category": "Royalty",
        "notes": ""
    },
    {
        "Name": "Grand Duke Michael",
        "Nationality": "Russia",
        "Honour": "KG",
        "Year": "1902",
        "Category": "Royalty",
        "notes": ""
    },
    {
        "Name": "Grand Duke Vladimir",
        "Nationality": "Russia",
        "Honour": "GCVO",
        "Year": "1903",
        "Category": "Royalty",
        "notes": "[124]"
    },
    {
        "Name": "King Fahd",
        "Nationality": "Saudi Arabia",
        "Honour": "RVC",
        "Year": "1987",
        "Category": "Royalty",
        "notes": ""
    },
    {
        "Name": "King Abdullah",
        "Nationality": "Saudi Arabia",
        "Honour": "GCB",
        "Year": "1998",
        "Category": "Royalty",
        "notes": ""
    },
    {
        "Name": "Duke Emmanuel Philibert",
        "Nationality": "Savoy",
        "Honour": "KG",
        "Year": "1554",
        "Category": "Royalty",
        "notes": ""
    },
    {
        "Name": "Prince Emanuele Filiberto",
        "Nationality": "Savoy",
        "Honour": "KG",
        "Year": "1902",
        "Category": "Royalty",
        "notes": ""
    },
    {
        "Name": "Prince Luigi Amedeo",
        "Nationality": "Italy (Savoy)",
        "Honour": "GCVO",
        "Year": "1903",
        "Category": "Royalty",
        "notes": "[18]"
    },
    {
        "Name": "Prince Victor Emmanuel",
        "Nationality": "Italy (Savoy)",
        "Honour": "GCVO",
        "Year": "1903",
        "Category": "Royalty",
        "notes": "[18]"
    },
    {
        "Name": "Prince Ferdinando",
        "Nationality": "Italy (Savoy)",
        "Honour": "GCVO",
        "Year": "1903",
        "Category": "Royalty",
        "notes": "[18]"
    },
    {
        "Name": "King James V",
        "Nationality": "Scotland",
        "Honour": "KG",
        "Year": "1535",
        "Category": "Royalty",
        "notes": ""
    },
    {
        "Name": "King James VI",
        "Nationality": "Scotland",
        "Honour": "KG",
        "Year": "1590",
        "Category": "Royalty",
        "notes": "Later King James I of England"
    },
    {
        "Name": "Sultan Hisamuddin Alam Shah",
        "Nationality": "Selangor",
        "Honour": "KCMG",
        "Year": "1938",
        "Category": "Royalty",
        "notes": ""
    },
    {
        "Name": "Sultan Salih bin Ghalib al Qu'aiti",
        "Nationality": "Shihr and Mukalla",
        "Honour": "KCMG",
        "Year": "1938",
        "Category": "Royalty",
        "notes": ""
    },
    {
        "Name": "King Philip II",
        "Nationality": "Spain",
        "Honour": "KG",
        "Year": "1554",
        "Category": "Royalty",
        "notes": ""
    },
    {
        "Name": "King Ferdinand VII",
        "Nationality": "Spain",
        "Honour": "KG",
        "Year": "1814",
        "Category": "Royalty",
        "notes": ""
    },
    {
        "Name": "King Alfonso XII",
        "Nationality": "Spain",
        "Honour": "KG",
        "Year": "1881",
        "Category": "Royalty",
        "notes": ""
    },
    {
        "Name": "King Alfonso XIII",
        "Nationality": "Spain",
        "Honour": "GCVO",
        "Year": "1897",
        "Category": "Royalty",
        "notes": ""
    },
    {
        "Name": "King Alfonso XIII",
        "Nationality": "Spain",
        "Honour": "KG",
        "Year": "1902",
        "Category": "Royalty",
        "notes": ""
    },
    {
        "Name": "King Alfonso XIII",
        "Nationality": "Spain",
        "Honour": "RVC",
        "Year": "1905",
        "Category": "Royalty",
        "notes": ""
    },
    {
        "Name": "King Juan Carlos I",
        "Nationality": "Spain",
        "Honour": "RVC",
        "Year": "1986",
        "Category": "Royalty",
        "notes": ""
    },
    {
        "Name": "King Juan Carlos I",
        "Nationality": "Spain",
        "Honour": "KG",
        "Year": "1988",
        "Category": "Royalty",
        "notes": ""
    },
    {
        "Name": "King Gustavus Adolphus",
        "Nationality": "Sweden",
        "Honour": "KG",
        "Year": "1627",
        "Category": "Royalty",
        "notes": ""
    },
    {
        "Name": "King Charles XI",
        "Nationality": "Sweden",
        "Honour": "KG",
        "Year": "1668",
        "Category": "Royalty",
        "notes": ""
    },
    {
        "Name": "King Frederick I",
        "Nationality": "Sweden",
        "Honour": "KG",
        "Year": "1741",
        "Category": "Royalty",
        "notes": ""
    },
    {
        "Name": "King Oscar II",
        "Nationality": "Sweden and Norway",
        "Honour": "KG",
        "Year": "1881",
        "Category": "Royalty",
        "notes": ""
    },
    {
        "Name": "King Gustav V",
        "Nationality": "Sweden and Norway",
        "Honour": "KG",
        "Year": "1905",
        "Category": "Royalty",
        "notes": ""
    },
    {
        "Name": "King Gustav V",
        "Nationality": "Sweden and Norway",
        "Honour": "GCVO",
        "Year": "1905",
        "Category": "Royalty",
        "notes": ""
    },
    {
        "Name": "Prince Eugen",
        "Nationality": "Sweden",
        "Honour": "GCVO",
        "Year": "1905",
        "Category": "Royalty",
        "notes": ""
    },
    {
        "Name": "King Gustaf VI Adolf",
        "Nationality": "Sweden",
        "Honour": "GCVO",
        "Year": "1905",
        "Category": "Royalty",
        "notes": ""
    },
    {
        "Name": "King Gustaf VI Adolf",
        "Nationality": "Sweden",
        "Honour": "KG",
        "Year": "1954",
        "Category": "Royalty",
        "notes": ""
    },
    {
        "Name": "Prince Carl",
        "Nationality": "Sweden and Norway",
        "Honour": "GCVO",
        "Year": "1904",
        "Category": "Royalty",
        "notes": "[3]"
    },
    {
        "Name": "Prince Vilhelm",
        "Nationality": "Sweden",
        "Honour": "GCVO",
        "Year": "1905",
        "Category": "Royalty",
        "notes": ""
    },
    {
        "Name": "King Carl XVI Gustaf",
        "Nationality": "Sweden",
        "Honour": "RVC",
        "Year": "1975",
        "Category": "Royalty",
        "notes": ""
    },
    {
        "Name": "King Carl XVI Gustaf",
        "Nationality": "Sweden",
        "Honour": "KG",
        "Year": "1983",
        "Category": "Royalty",
        "notes": ""
    },
    {
        "Name": "Prince Henry",
        "Nationality": "Taranto",
        "Honour": "KG",
        "Year": "1653",
        "Category": "Royalty",
        "notes": ""
    },
    {
        "Name": "King Vajiravudh",
        "Nationality": "Thailand (formerly Siam)",
        "Honour": "GCVO",
        "Year": "1902",
        "Category": "Royalty",
        "notes": ""
    },
    {
        "Name": "King Bhumibol Adulyadej",
        "Nationality": "Thailand (formerly Siam)",
        "Honour": "RVC",
        "Year": "1960",
        "Category": "Royalty",
        "notes": ""
    },
    {
        "Name": "Prince Seyum Mangasha",
        "Nationality": "Tigray",
        "Honour": "KBE",
        "Year": "1924",
        "Category": "Royalty",
        "notes": ""
    },
    {
        "Name": "Prince Mangasha Seyum",
        "Nationality": "Tigray",
        "Honour": "GCVO",
        "Year": "1965",
        "Category": "Royalty",
        "notes": ""
    },
    {
        "Name": "Queen Salote Tupou III",
        "Nationality": "Tonga",
        "Honour": "DBE",
        "Year": "1932",
        "Category": "Royalty",
        "notes": ""
    },
    {
        "Name": "Queen Salote Tupou III",
        "Nationality": "Tonga",
        "Honour": "GBE",
        "Year": "1945",
        "Category": "Royalty",
        "notes": ""
    },
    {
        "Name": "Queen Salote Tupou III",
        "Nationality": "Tonga",
        "Honour": "GCVO",
        "Year": "1953",
        "Category": "Royalty",
        "notes": ""
    },
    {
        "Name": "Queen Salote Tupou III",
        "Nationality": "Tonga",
        "Honour": "GCMG",
        "Year": "1965",
        "Category": "Royalty",
        "notes": ""
    },
    {
        "Name": "King Taufa'ahau Tupou IV",
        "Nationality": "Tonga",
        "Honour": "KBE",
        "Year": "1958",
        "Category": "Royalty",
        "notes": ""
    },
    {
        "Name": "King Taufa'ahau Tupou IV",
        "Nationality": "Tonga",
        "Honour": "GCVO",
        "Year": "1970",
        "Category": "Royalty",
        "notes": ""
    },
    {
        "Name": "King Taufa'ahau Tupou IV",
        "Nationality": "Tonga",
        "Honour": "GCMG",
        "Year": "1977",
        "Category": "Royalty",
        "notes": ""
    },
    {
        "Name": "Sheikh Khalifa bin Zayed Al Nahyan",
        "Nationality": "United Arab Emirates AC/EUR\" Abu Dhabi",
        "Honour": "GCB[125]",
        "Year": "2010",
        "Category": "Royalty",
        "notes": ""
    },
    {
        "Name": "Sheikh Mohammed bin Rashid Al Maktoum",
        "Nationality": "United Arab Emirates AC/EUR\" Dubai",
        "Honour": "GCMG[125]",
        "Year": "2010",
        "Category": "Royalty",
        "notes": ""
    },
    {
        "Name": "Sheikh Mohammed bin Zayed Al Nahyan",
        "Nationality": "United Arab Emirates AC/EUR\" Abu Dhabi",
        "Honour": "GCMG[125]",
        "Year": "2010",
        "Category": "Royalty",
        "notes": ""
    },
    {
        "Name": "King Alexander I",
        "Nationality": "Yugoslavia",
        "Honour": "GCB",
        "Year": "tbd",
        "Category": "Royalty",
        "notes": ""
    },
    {
        "Name": "King Alexander I",
        "Nationality": "Yugoslavia",
        "Honour": "RVC",
        "Year": "tbd",
        "Category": "Royalty",
        "notes": ""
    },
    {
        "Name": "Prince Paul",
        "Nationality": "Yugoslavia",
        "Honour": "KG",
        "Year": "1939",
        "Category": "Royalty",
        "notes": ""
    },
    {
        "Name": "Sultan Ali bin Said",
        "Nationality": "Zanzibar",
        "Honour": "GCSI",
        "Year": "1890",
        "Category": "Royalty",
        "notes": ""
    },
    {
        "Name": "Sultan Hamad bin Thuwaini",
        "Nationality": "Zanzibar",
        "Honour": "GCSI",
        "Year": "1894",
        "Category": "Royalty",
        "notes": ""
    },
    {
        "Name": "Sultan Khalifa bin Harub",
        "Nationality": "Zanzibar",
        "Honour": "KCMG",
        "Year": "1914",
        "Category": "Royalty",
        "notes": ""
    },
    {
        "Name": "Sultan Khalifa bin Harub",
        "Nationality": "Zanzibar",
        "Honour": "KBE",
        "Year": "1919",
        "Category": "Royalty",
        "notes": ""
    },
    {
        "Name": "Sultan Khalifa bin Harub",
        "Nationality": "Zanzibar",
        "Honour": "GBE",
        "Year": "1935",
        "Category": "Royalty",
        "notes": ""
    },
    {
        "Name": "Sultan Khalifa bin Harub",
        "Nationality": "Zanzibar",
        "Honour": "GCMG",
        "Year": "1936",
        "Category": "Royalty",
        "notes": ""
    },
    {
        "Name": "Sultan Khalifa bin Harub",
        "Nationality": "Zanzibar",
        "Honour": "GCB",
        "Year": "1956",
        "Category": "Royalty",
        "notes": ""
    },
    {
        "Name": "Sultan Abdullah bin Khalifa",
        "Nationality": "Zanzibar",
        "Honour": "KBE",
        "Year": "1959",
        "Category": "Royalty",
        "notes": ""
    },
    {
        "Name": "Sultan Jamshid bin Abdullah",
        "Nationality": "Zanzibar",
        "Honour": "GCMG",
        "Year": "1963",
        "Category": "Royalty",
        "notes": ""
    }
]