[
    {
        "Route": "CR 1",
        "Length (mi)[2]": "0.95",
        "Length (km)": "1.53",
        "From": "Herkimer County line (becomes CR 118)",
        "Via": "South Shore Road in Inlet",
        "To": "NY 28",
        "Notes": ""
    },
    {
        "Route": "CR 2",
        "Length (mi)[2]": "0.42",
        "Length (km)": "0.68",
        "From": "NY 28",
        "Via": "Raquette Lake Road in Long Lake",
        "To": "Church Street",
        "Notes": "Serves hamlet of Raquette Lake"
    },
    {
        "Route": "CR 3",
        "Length (mi)[2]": "11.54",
        "Length (km)": "18.57",
        "From": "Dead end at North Point Estate",
        "Via": "North Point Road in Long Lake and Arietta",
        "To": "NY 28N \\/ NY 30",
        "Notes": "Ends in hamlet of Hasbroucks"
    },
    {
        "Route": "CR 4",
        "Length (mi)[2]": "8.06",
        "Length (km)": "12.97",
        "From": "Dead end at Chimney Mountain",
        "Via": "Big Brook Road in Indian Lake",
        "To": "NY 30",
        "Notes": ""
    },
    {
        "Route": "CR 5",
        "Length (mi)[2]": "2.47",
        "Length (km)": "3.98",
        "From": "NY 30",
        "Via": "Algonquin Drive in Wells",
        "To": "NY 30",
        "Notes": "Runs along west shore of Lake Algonquin"
    },
    {
        "Route": "CR 6",
        "Length (mi)[2]": "5.94",
        "Length (km)": "9.56",
        "From": "Fulton County line (becomes CR 125)",
        "Via": "Benson Road in Benson",
        "To": "NY 30",
        "Notes": ""
    },
    {
        "Route": "CR 6A (1)",
        "Length (mi)[2]": "0.60",
        "Length (km)": "0.97",
        "From": "Dead end",
        "Via": "Cole and Town Barn Roads in Benson",
        "To": "NY 30",
        "Notes": ""
    },
    {
        "Route": "CR 6A (2)",
        "Length (mi)[2]": "0.15",
        "Length (km)": "0.24",
        "From": "CR 6",
        "Via": "West Stony Creek Road in Benson",
        "To": "Dead end",
        "Notes": ""
    },
    {
        "Route": "CR 7",
        "Length (mi)[2]": "5.83",
        "Length (km)": "9.38",
        "From": "CR 15",
        "Via": "Hope Falls Road in Hope",
        "To": "Mason Road",
        "Notes": ""
    },
    {
        "Route": "CR 8",
        "Length (mi)[2]": "3.80",
        "Length (km)": "6.12",
        "From": "NY 30",
        "Via": "Griffin Road in Wells",
        "To": "NY 8",
        "Notes": ""
    },
    {
        "Route": "CR 9",
        "Length (mi)[2]": "0.92",
        "Length (km)": "1.48",
        "From": "NY 30",
        "Via": "Lakeshore Drive in Indian Lake",
        "To": "NY 30",
        "Notes": "Serves hamlet of Sabael"
    },
    {
        "Route": "CR 10",
        "Length (mi)[2]": "8.26",
        "Length (km)": "13.29",
        "From": "Dead end at St. Lawrence County line",
        "Via": "Sabattis Road in Long Lake",
        "To": "CR 10A",
        "Notes": "Serves hamlet of Sabattis"
    },
    {
        "Route": "CR 10A",
        "Length (mi)[2]": "6.04",
        "Length (km)": "9.72",
        "From": "NY 30",
        "Via": "Sabattis Circle Road in Long Lake",
        "To": "NY 30",
        "Notes": ""
    },
    {
        "Route": "CR 11",
        "Length (mi)[2]": "6.04",
        "Length (km)": "9.72",
        "From": "NY 8",
        "Via": "South Shore Road in Lake Pleasant",
        "To": "Downey Avenue",
        "Notes": "Serves village of Speculator"
    },
    {
        "Route": "CR 12",
        "Length (mi)[2]": "7.11",
        "Length (km)": "11.44",
        "From": "West end of county maintenance",
        "Via": "Cedar River Road in Indian Lake",
        "To": "NY 28 \\/ NY 30",
        "Notes": ""
    },
    {
        "Route": "CR 13",
        "Length (mi)[2]": "0.52",
        "Length (km)": "0.84",
        "From": "NY 28",
        "Via": "Seventh Lake Road in Inlet",
        "To": "Seventh Lake",
        "Notes": ""
    },
    {
        "Route": "CR 14",
        "Length (mi)[2]": "2.07",
        "Length (km)": "3.33",
        "From": "Limekiln Lake State Campground",
        "Via": "Limekiln Lake Road in Inlet",
        "To": "NY 28",
        "Notes": ""
    },
    {
        "Route": "CR 15",
        "Length (mi)[2]": "2.35",
        "Length (km)": "3.78",
        "From": "Fulton County line",
        "Via": "Old Northville Road in Hope",
        "To": "NY 30",
        "Notes": "Former routing of NY 30"
    },
    {
        "Route": "CR 16",
        "Length (mi)[2]": "2.36",
        "Length (km)": "3.80",
        "From": "NY 30",
        "Via": "Gilmantown Road in Wells",
        "To": "North end of county maintenance",
        "Notes": "Serves hamlet of Gilmantown"
    },
    {
        "Route": "CR 17",
        "Length (mi)[2]": "4.00",
        "Length (km)": "6.44",
        "From": "NY 8",
        "Via": "French Road in Morehouse",
        "To": "NY 8",
        "Notes": ""
    },
    {
        "Route": "CR 18",
        "Length (mi)[2]": "2.20",
        "Length (km)": "3.54",
        "From": "CR 4",
        "Via": "Chamberlain Road in Indian Lake",
        "To": "NY 28",
        "Notes": ""
    },
    {
        "Route": "CR 19",
        "Length (mi)[2]": "1.05",
        "Length (km)": "1.69",
        "From": "NY 28",
        "Via": "Durant Road in Indian Lake",
        "To": "NY 28 \\/ NY 30",
        "Notes": "Serves hamlet of Blue Mountain Lake"
    },
    {
        "Route": "CR 20",
        "Length (mi)[2]": "1.79",
        "Length (km)": "2.88",
        "From": "Dead end at Forked Lake State Campground",
        "Via": "Forked Lake Road in Arietta",
        "To": "CR 3",
        "Notes": ""
    },
    {
        "Route": "CR 21",
        "Length (mi)[2]": "1.26",
        "Length (km)": "2.03",
        "From": "Fulton County line (becomes CR 143)",
        "Via": "Maple Grove Road in Hope",
        "To": "Dead end",
        "Notes": "Serves hamlet of Maple Grove"
    },
    {
        "Route": "CR 23[20]",
        "Length (mi)[2]": "",
        "Length (km)": "",
        "From": "NY 8",
        "Via": "Higgins Bay Road in Arietta",
        "To": "NY 8",
        "Notes": "Served hamlet of Higgins Bay; former number; now town-maintained"
    },
    {
        "Route": "CR 24",
        "Length (mi)[2]": "8.02",
        "Length (km)": "12.91",
        "From": "NY 8",
        "Via": "Old Piseco Road in Arietta",
        "To": "NY 8",
        "Notes": "Serves hamlet of Piseco"
    },
    {
        "Route": "CR 25",
        "Length (mi)[2]": "0.74",
        "Length (km)": "1.19",
        "From": "NY 30",
        "Via": "Bennett Road in Hope",
        "To": "NY 30",
        "Notes": ""
    }
]