[
    {
        "Name": "Gavin Power Plant",
        "Location": "Cheshire",
        "Capacity (MW)": "2640",
        "Owner": "American Electric Power",
        "Type": "2 units: Units 1&2 Coal.",
        "Notes and Links": "[2]"
    },
    {
        "Name": "J.M. Stuart Station",
        "Location": "Aberdeen",
        "Capacity (MW)": "2317",
        "Owner": "AES, Dayton Power & Light",
        "Type": "4 units: all coal",
        "Notes and Links": "Sold to AES 2012[3]"
    },
    {
        "Name": "W. H. Sammis Power Plant",
        "Location": "Stratton",
        "Capacity (MW)": "2233",
        "Owner": "FirstEnergy",
        "Type": "7 units: all coal",
        "Notes and Links": "[4]"
    },
    {
        "Name": "Cardinal Power Station",
        "Location": "Brilliant",
        "Capacity (MW)": "1800",
        "Owner": "Ohio Valley Electric Corporation",
        "Type": "3 units: all coal",
        "Notes and Links": "[5]"
    },
    {
        "Name": "Conesville Power Station",
        "Location": "Conesville",
        "Capacity (MW)": "1695",
        "Owner": "American Electric Power",
        "Type": "4 units: coal & oil",
        "Notes and Links": "[6]"
    },
    {
        "Name": "William H. Zimmer Power Station",
        "Location": "Moscow",
        "Capacity (MW)": "1300",
        "Owner": "Duke Energy\\/Dayton Power & Light\\/American Electric Power joint ownership",
        "Type": "1 unit: coal",
        "Notes and Links": "Largest single unit power plant in the United States[7]"
    },
    {
        "Name": "Hanging Rock Energy Facility",
        "Location": "Ironton",
        "Capacity (MW)": "1288",
        "Owner": "Duke Energy",
        "Type": "2 units: all natural gas",
        "Notes and Links": "[8]"
    },
    {
        "Name": "Perry Nuclear Generating Station",
        "Location": "North Perry",
        "Capacity (MW)": "1231",
        "Owner": "FirstEnergy",
        "Type": "1 unit: Nuclear boiling water reactor",
        "Notes and Links": ""
    },
    {
        "Name": "Miami Fort Power Station",
        "Location": "North Bend",
        "Capacity (MW)": "1321",
        "Owner": "Duke Energy",
        "Type": "8 units: 1-4 coal, 5-8 oil",
        "Notes and Links": ""
    },
    {
        "Name": "Kyger Creek Power Plant",
        "Location": "Cheshire",
        "Capacity (MW)": "1086",
        "Owner": "Ohio Valley Electric Cooperative",
        "Type": "5 units: all coal",
        "Notes and Links": ""
    },
    {
        "Name": "Waterford Energy Center",
        "Location": "Waterford",
        "Capacity (MW)": "821",
        "Owner": "American Electric Power",
        "Type": "3 units: all natural gas",
        "Notes and Links": ""
    },
    {
        "Name": "Rolling Hills Generating Station",
        "Location": "Wilkesville",
        "Capacity (MW)": "815",
        "Owner": "Rolling Hills Generating LLC",
        "Type": "Natural Gas",
        "Notes and Links": ""
    },
    {
        "Name": "Washington Energy Facility",
        "Location": "Beverly",
        "Capacity (MW)": "620",
        "Owner": "Duke Energy",
        "Type": "Natural Gas",
        "Notes and Links": ""
    },
    {
        "Name": "Darby Electric Generating Station",
        "Location": "Mount Sterling",
        "Capacity (MW)": "480",
        "Owner": "American Electric Power",
        "Type": "Natural Gas",
        "Notes and Links": ""
    },
    {
        "Name": "Davis-Besse Nuclear Power Station",
        "Location": "Oak Harbor",
        "Capacity (MW)": "889",
        "Owner": "FirstEnergy",
        "Type": "1 unit: Nuclear Pressurized water reactor",
        "Notes and Links": ""
    },
    {
        "Name": "West Lorain Plant",
        "Location": "Lorain",
        "Capacity (MW)": "545",
        "Owner": "FirstEnergy",
        "Type": "Natural gas",
        "Notes and Links": ""
    },
    {
        "Name": "Killen Station",
        "Location": "Wrightsville",
        "Capacity (MW)": "600",
        "Owner": "AES,..Dayton Power & Light",
        "Type": "1 unit: Coal",
        "Notes and Links": "Sold to AES 2012"
    },
    {
        "Name": "Robert P Mone Plant",
        "Location": "Convoy",
        "Capacity (MW)": "510",
        "Owner": "Buckeye Power",
        "Type": "Natural gas",
        "Notes and Links": ""
    },
    {
        "Name": "Fremont Energy Center",
        "Location": "Fremont",
        "Capacity (MW)": "707",
        "Owner": "American Municipal Power",
        "Type": "Natural gas",
        "Notes and Links": ""
    },
    {
        "Name": "Dresden Plant",
        "Location": "Dresden",
        "Capacity (MW)": "580",
        "Owner": "American Electric Power",
        "Type": "Natural gas",
        "Notes and Links": ""
    },
    {
        "Name": "Wyandot Solar Facility",
        "Location": "Upper Sandusky",
        "Capacity (MW)": "12",
        "Owner": "Public Service Enterprise Group",
        "Type": "Solar photovoltaic",
        "Notes and Links": ""
    },
    {
        "Name": "Madison Peaking Station",
        "Location": "Lebanon",
        "Capacity (MW)": "677",
        "Owner": "Duke Energy",
        "Type": "Natural gas",
        "Notes and Links": ""
    },
    {
        "Name": "Blue Creek Wind Farm",
        "Location": "Paulding and Van Wert Counties",
        "Capacity (MW)": "350",
        "Owner": "Iberdrola Renewables",
        "Type": "Wind power",
        "Notes and Links": ""
    },
    {
        "Name": "Timber Road Wind Farm",
        "Location": "Paulding County",
        "Capacity (MW)": "99",
        "Owner": "EDP Renewables",
        "Type": "Wind power",
        "Notes and Links": ""
    },
    {
        "Name": "O'Shaughnessy Dam",
        "Location": "Dublin",
        "Capacity (MW)": "5",
        "Owner": "City of Columbus",
        "Type": "Hydroelectricity",
        "Notes and Links": ""
    }
]