[
    {
        "Release Date": "January 3, 1936",
        "Title": "Riffraff",
        "Notes": ""
    },
    {
        "Release Date": "January 10, 1936",
        "Title": "Three Live Ghosts",
        "Notes": ""
    },
    {
        "Release Date": "January 17, 1936",
        "Title": "Exclusive Story",
        "Notes": ""
    },
    {
        "Release Date": "January 24, 1936",
        "Title": "Tough Guy",
        "Notes": ""
    },
    {
        "Release Date": "February 1, 1936",
        "Title": "Rose Marie",
        "Notes": ""
    },
    {
        "Release Date": "February 14, 1936",
        "Title": "The Bohemian Girl",
        "Notes": "A Hal Roach Feature Comedy"
    },
    {
        "Release Date": "February 15, 1936",
        "Title": "The Voice of Bugle Ann",
        "Notes": ""
    },
    {
        "Release Date": "February 21, 1936",
        "Title": "The Garden Murder Case",
        "Notes": ""
    },
    {
        "Release Date": "February 28, 1936",
        "Title": "Wife vs. Secretary",
        "Notes": ""
    },
    {
        "Release Date": "March 6, 1936",
        "Title": "Three Godfathers",
        "Notes": ""
    },
    {
        "Release Date": "March 17, 1936",
        "Title": "Robin Hood of El Dorado",
        "Notes": ""
    },
    {
        "Release Date": "March 20, 1936",
        "Title": "Petticoat Fever",
        "Notes": ""
    },
    {
        "Release Date": "March 27, 1936",
        "Title": "Moonlight Murder",
        "Notes": ""
    },
    {
        "Release Date": "April 4, 1936",
        "Title": "The Unguarded Hour",
        "Notes": ""
    },
    {
        "Release Date": "April 8, 1936",
        "Title": "The Great Ziegfeld",
        "Notes": "A Robert Z. Leonard production Winner of the Academy Award for Best Picture"
    },
    {
        "Release Date": "April 10, 1936",
        "Title": "Small Town Girl",
        "Notes": ""
    },
    {
        "Release Date": "April 24, 1936",
        "Title": "Absolute Quiet",
        "Notes": ""
    },
    {
        "Release Date": "May 8, 1936",
        "Title": "Speed",
        "Notes": ""
    },
    {
        "Release Date": "May 9, 1936",
        "Title": "Neighborhood House",
        "Notes": "A Hal Roach Comedy"
    },
    {
        "Release Date": "May 15, 1936",
        "Title": "The Three Wise Guys",
        "Notes": ""
    },
    {
        "Release Date": "May 22, 1936",
        "Title": "Trouble for Two",
        "Notes": ""
    },
    {
        "Release Date": "May 29, 1936",
        "Title": "Fury",
        "Notes": "Fritz Lang's first American film"
    },
    {
        "Release Date": "June 19, 1936",
        "Title": "We Went to College",
        "Notes": ""
    },
    {
        "Release Date": "June 26, 1936",
        "Title": "San Francisco",
        "Notes": "Nominee of the Academy Award for Best Picture"
    },
    {
        "Release Date": "July 10, 1936",
        "Title": "The Devil-Doll",
        "Notes": ""
    },
    {
        "Release Date": "July 20, 1936",
        "Title": "Suzy",
        "Notes": ""
    },
    {
        "Release Date": "July 31, 1936",
        "Title": "Women Are Trouble",
        "Notes": ""
    },
    {
        "Release Date": "August 7, 1936",
        "Title": "His Brother's Wife",
        "Notes": ""
    },
    {
        "Release Date": "August 14, 1936",
        "Title": "Piccadilly Jim",
        "Notes": ""
    },
    {
        "Release Date": "August 20, 1936",
        "Title": "Romeo and Juliet",
        "Notes": "Nominee of the Academy Award for Best Picture"
    },
    {
        "Release Date": "August 21, 1936",
        "Title": "Kelly the Second",
        "Notes": "A Hal Roach Feature Comedy"
    },
    {
        "Release Date": "August 28, 1936",
        "Title": "The Gorgeous Hussy",
        "Notes": "A Clarence Brown production"
    },
    {
        "Release Date": "September 11, 1936",
        "Title": "Sworn Enemy",
        "Notes": ""
    },
    {
        "Release Date": "September 18, 1936",
        "Title": "The Devil Is a Sissy",
        "Notes": ""
    },
    {
        "Release Date": "September 25, 1936",
        "Title": "Old Hutch",
        "Notes": ""
    },
    {
        "Release Date": "October 2, 1936",
        "Title": "The Longest Night",
        "Notes": ""
    },
    {
        "Release Date": "October 9, 1936",
        "Title": "Libeled Lady",
        "Notes": "Nominee of the Academy Award for Best Picture"
    },
    {
        "Release Date": "October 16, 1936",
        "Title": "All American Chump",
        "Notes": ""
    },
    {
        "Release Date": "October 23, 1936",
        "Title": "Mr. Cinderella",
        "Notes": "Presented by Hal Roach Studios"
    },
    {
        "Release Date": "October 30, 1936",
        "Title": "Our Relations",
        "Notes": "A Hal Roach Feature Comedy"
    },
    {
        "Release Date": "November 6, 1936",
        "Title": "Tarzan Escapes",
        "Notes": ""
    },
    {
        "Release Date": "November 13, 1936",
        "Title": "Mad Holiday",
        "Notes": ""
    },
    {
        "Release Date": "November 20, 1936",
        "Title": "Love on the Run",
        "Notes": ""
    },
    {
        "Release Date": "November 27, 1936",
        "Title": "Born to Dance",
        "Notes": ""
    },
    {
        "Release Date": "December 11, 1936",
        "Title": "General Spanky",
        "Notes": "A Hal Roach Feature Comedy"
    },
    {
        "Release Date": "December 12, 1936",
        "Title": "Camille",
        "Notes": ""
    },
    {
        "Release Date": "December 18, 1936",
        "Title": "Sinner Take All",
        "Notes": ""
    },
    {
        "Release Date": "December 25, 1936",
        "Title": "After the Thin Man",
        "Notes": ""
    }
]