[
    {
        "Site Name": "BD-10",
        "Missile Type": "Nike 3AG\\/12H\\/12L-H",
        "Defense Area": "Barksdale",
        "Site Location": "Bellevue, Louisiana",
        "Service Dates": "Nov 1960 - Mar 1966",
        "Control Site condition\\/owner": "Almost completely intact, Now Criminal Justice Institute, and Bossier Parish School Board. No radar towers. 32A'Adeg40AC/EURA219AC/EURA3N 093A'Adeg31AC/EURA218AC/EURA3WA-A>>A? \\/ A-A>>A?32.67194A'AdegN 93.52167A'AdegW",
        "Launch Site condition\\/owner": "Above-ground Nike-Hercules site, missiles protected by berms. Largely intact, Louisiana Wildlife and Fisheries Department, Bossier Parish SWAT field training site 32A'Adeg40AC/EURA228AC/EURA3N 093A'Adeg30AC/EURA235AC/EURA3WA-A>>A? \\/ A-A>>A?32.67444A'AdegN 93.50972A'AdegW"
    },
    {
        "Site Name": "BD-50",
        "Missile Type": "Nike 3AG\\/12H\\/12L-H",
        "Defense Area": "Barksdale",
        "Site Location": "Stonewall, Louisiana (4 mi NE)",
        "Service Dates": "Nov 1960 - Mar 1966",
        "Control Site condition\\/owner": "Now LSU School of Medicine, almost all buildings torn down with little evidence of IFC. Mostly vacant land in middle of forested area. 32A'Adeg18AC/EURA212AC/EURA3N 093A'Adeg47AC/EURA204AC/EURA3WA-A>>A? \\/ A-A>>A?32.30333A'AdegN 93.78444A'AdegW",
        "Launch Site condition\\/owner": "FDS. Above-ground magazine protected by berms. Missile launch areas now abandoned and overgrown. Some buildings still standing, unknown condition. 32A'Adeg17AC/EURA237AC/EURA3N 093A'Adeg47AC/EURA216AC/EURA3WA-A>>A? \\/ A-A>>A?32.29361A'AdegN 93.78778A'AdegW"
    }
]