[
    {
        "Common name": "Sea catfish",
        "Taxonomy": "",
        "Picture": "",
        "Size": "",
        "Tank Type": "",
        "Care Level": "",
        "Remarks": "",
        "Temperature range": "",
        "pH range": "",
        "Water hardness": "",
        "Salinity": ""
    },
    {
        "Common name": "Colombian shark catfish",
        "Taxonomy": "Hexanematichthys seemanni",
        "Picture": "",
        "Size": "",
        "Tank Type": "",
        "Care Level": "",
        "Remarks": "",
        "Temperature range": "",
        "pH range": "",
        "Water hardness": "",
        "Salinity": ""
    },
    {
        "Common name": "Australian shark catfish",
        "Taxonomy": "Arius graeffei",
        "Picture": "",
        "Size": "",
        "Tank Type": "",
        "Care Level": "",
        "Remarks": "",
        "Temperature range": "",
        "pH range": "",
        "Water hardness": "",
        "Salinity": ""
    },
    {
        "Common name": "Berney's shark catfish",
        "Taxonomy": "Arius berneyi",
        "Picture": "",
        "Size": "",
        "Tank Type": "",
        "Care Level": "",
        "Remarks": "",
        "Temperature range": "",
        "pH range": "",
        "Water hardness": "",
        "Salinity": ""
    }
]