[
    {
        "Mayor": "Kathy Sheehan",
        "Start": "2014",
        "End": "Present",
        "Comment": "Lawyer and former city treasurer. Mayor Sheehan is the 75th and current mayor of Albany. She was previously the city treasurer. She is the first female mayor of Albany and the first new mayor in 20 years."
    }
]