[
    {
        "Championship\\/Series": "European Touring Car Challenge",
        "Driver\\/Manufacturer": "Div.3 Jacky Ickx Ford",
        "Season article": ""
    },
    {
        "Championship\\/Series": "European Touring Car Challenge",
        "Driver\\/Manufacturer": "Div.2 John Whitmore Ford",
        "Season article": ""
    },
    {
        "Championship\\/Series": "European Touring Car Challenge",
        "Driver\\/Manufacturer": "Div.1 Ed Swart Abarth",
        "Season article": ""
    },
    {
        "Championship\\/Series": "Australian Touring Car Championship",
        "Driver\\/Manufacturer": "Norm Beechey",
        "Season article": "1965 Australian Touring Car Championship"
    }
]