[
    {
        "#": "1",
        "Film": "The Judge and the Assassin Le juge et l'assassin",
        "Date": "1976",
        "Director": "Bertrand Tavernier",
        "Country": "France",
        "Source work": "Le juge et l'assassin",
        "Author": "Henri Garet & Rene Tavernier",
        "Date 7": "1976",
        "Type": "Non-fiction",
        "TV": "-",
        "Date 10": "-",
        "Country 11": "-"
    },
    {
        "#": "1",
        "Film": "",
        "Date": "",
        "Director": "",
        "Country": "",
        "Source work": "Vacher l'eventreur et les crimes sadiques",
        "Author": "Alexandre Lacassagne",
        "Date 7": "1899",
        "Type": "Non-fiction",
        "TV": "-",
        "Date 10": "-",
        "Country 11": "-"
    }
]