[
    {
        "Flag": "Hao (French Polynesia)",
        "Dates used": "AC/EUR\"present",
        "Tuamotuan text": "HAO",
        "English translation": "HAO"
    },
    {
        "Flag": "Reao and Pukaruha",
        "Dates used": "AC/EUR\"present",
        "Tuamotuan text": "1. REAO 2. PUKARUHA",
        "English translation": "1. REAO 2. PUKARUHA"
    }
]