[
    {
        "#": "1",
        "Name": "Abolhassan Banisadr",
        "Picture": "",
        "Born-Died": "1933AC/EUR\"",
        "Took Office": "4 February 1980",
        "Left Office": "22 June 1981 (impeached)",
        "Political Party": "Independent",
        "Prime Minister": "Mohammad-Ali Rajai",
        "Vice President": "Position not established",
        "Term": "1"
    },
    {
        "#": "Provisional Presidential Council (Leader: Mohammad Beheshti, then later Abdul-Karim Mousavi Ardebili)",
        "Name": "AC/EUR\"",
        "Picture": "22 June 1981",
        "Born-Died": "2 August 1981",
        "Took Office": "AC/EUR\"",
        "Left Office": "AC/EUR\"",
        "Political Party": "Mohammad-Ali Rajai",
        "Prime Minister": "Position not established",
        "Vice President": "",
        "Term": ""
    },
    {
        "#": "2",
        "Name": "Mohammad-Ali Rajai",
        "Picture": "",
        "Born-Died": "1933AC/EUR\"1981",
        "Took Office": "2 August 1981",
        "Left Office": "30 August 1981 (assassinated)",
        "Political Party": "Islamic Republican Party",
        "Prime Minister": "Mohammad-Javad Bahonar",
        "Vice President": "Position not established",
        "Term": "2"
    },
    {
        "#": "Provisional Presidential Council (Leader: Mohammad-Reza Mahdavi Kani)",
        "Name": "AC/EUR\"",
        "Picture": "30 August 1981",
        "Born-Died": "13 October 1981",
        "Took Office": "AC/EUR\"",
        "Left Office": "Mohammad-Reza Mahdavi Kani",
        "Political Party": "AC/EUR\"",
        "Prime Minister": "Position not established",
        "Vice President": "",
        "Term": ""
    },
    {
        "#": "3",
        "Name": "Ali Khamenei",
        "Picture": "",
        "Born-Died": "1939AC/EUR\"",
        "Took Office": "13 October 1981",
        "Left Office": "16 August 1985",
        "Political Party": "Islamic Republican Party AC/+\" Combatant Clergy Association",
        "Prime Minister": "Mir-Hossein Mousavi",
        "Vice President": "Position not established",
        "Term": "3"
    },
    {
        "#": "3",
        "Name": "Ali Khamenei",
        "Picture": "",
        "Born-Died": "1939AC/EUR\"",
        "Took Office": "16 August 1985",
        "Left Office": "3 August 1989",
        "Political Party": "Islamic Republican Party AC/+\" Combatant Clergy Association",
        "Prime Minister": "Mir-Hossein Mousavi",
        "Vice President": "4",
        "Term": "Position not established"
    },
    {
        "#": "4",
        "Name": "Akbar Hashemi Rafsanjani",
        "Picture": "",
        "Born-Died": "1934AC/EUR\"",
        "Took Office": "3 August 1989",
        "Left Office": "3 August 1993",
        "Political Party": "Combatant Clergy Association AC/+\" Executives of Construction Party",
        "Prime Minister": "Position abolished",
        "Vice President": "Hassan Habibi",
        "Term": "5"
    },
    {
        "#": "4",
        "Name": "Akbar Hashemi Rafsanjani",
        "Picture": "",
        "Born-Died": "1934AC/EUR\"",
        "Took Office": "3 August 1993",
        "Left Office": "2 August 1997",
        "Political Party": "Combatant Clergy Association AC/+\" Executives of Construction Party",
        "Prime Minister": "Position abolished",
        "Vice President": "Hassan Habibi",
        "Term": "6"
    },
    {
        "#": "5",
        "Name": "Mohammad Khatami",
        "Picture": "",
        "Born-Died": "1943AC/EUR\"",
        "Took Office": "2 August 1997",
        "Left Office": "8 August 2001[2]",
        "Political Party": "Association of Combatant Clerics",
        "Prime Minister": "Position abolished",
        "Vice President": "Hassan Habibi",
        "Term": "7"
    },
    {
        "#": "5",
        "Name": "Mohammad Khatami",
        "Picture": "",
        "Born-Died": "1943AC/EUR\"",
        "Took Office": "8 August 2001[2]",
        "Left Office": "3 August 2005",
        "Political Party": "Association of Combatant Clerics",
        "Prime Minister": "Mohammad-Reza Aref",
        "Vice President": "8",
        "Term": "Position abolished"
    },
    {
        "#": "6",
        "Name": "Mahmoud Ahmadinejad",
        "Picture": "",
        "Born-Died": "1956AC/EUR\"",
        "Took Office": "3 August 2005",
        "Left Office": "5 August 2009",
        "Political Party": "Alliance of Builders of Islamic Iran",
        "Prime Minister": "Position abolished",
        "Vice President": "Parviz Davoodi",
        "Term": "9"
    },
    {
        "#": "6",
        "Name": "Mahmoud Ahmadinejad",
        "Picture": "",
        "Born-Died": "1956AC/EUR\"",
        "Took Office": "5 August 2009",
        "Left Office": "3 August 2013",
        "Political Party": "Alliance of Builders of Islamic Iran",
        "Prime Minister": "Esfandiar Rahim Mashaei",
        "Vice President": "10",
        "Term": "Position abolished"
    },
    {
        "#": "6",
        "Name": "Mahmoud Ahmadinejad",
        "Picture": "",
        "Born-Died": "1956AC/EUR\"",
        "Took Office": "5 August 2009",
        "Left Office": "3 August 2013",
        "Political Party": "Mohammad-Reza Rahimi",
        "Prime Minister": "Position abolished",
        "Vice President": "10",
        "Term": "Alliance of Builders of Islamic Iran"
    },
    {
        "#": "7",
        "Name": "Hassan Rouhani",
        "Picture": "",
        "Born-Died": "1948AC/EUR\"",
        "Took Office": "4 August 2013",
        "Left Office": "Incumbent (Term expires 3 August 2017)",
        "Political Party": "Moderation and Development Party",
        "Prime Minister": "Position abolished",
        "Vice President": "Eshaq Jahangiri",
        "Term": "11"
    }
]