[
    {
        "NO-HEADER0": "1",
        "Driver": "Greg Murphy",
        "Seasons": "2012-2014",
        "Wins": "22"
    },
    {
        "NO-HEADER0": "2",
        "Driver": "Shane Van Gisbergen",
        "Seasons": "2013-2014",
        "Wins": "8"
    },
    {
        "NO-HEADER0": "3",
        "Driver": "Scott McLaughlin",
        "Seasons": "2012-2013",
        "Wins": "7"
    },
    {
        "NO-HEADER0": "3",
        "Driver": "Ant Pedersen",
        "Seasons": "2012-2014",
        "Wins": "7"
    },
    {
        "NO-HEADER0": "5",
        "Driver": "Jack Perkins",
        "Seasons": "2012-2014",
        "Wins": "5"
    },
    {
        "NO-HEADER0": "6",
        "Driver": "Simon Evans",
        "Seasons": "2012-2014",
        "Wins": "4"
    },
    {
        "NO-HEADER0": "7",
        "Driver": "Jonathon Webb",
        "Seasons": "2012-2013",
        "Wins": "3"
    },
    {
        "NO-HEADER0": "7",
        "Driver": "Daniel Gaunt",
        "Seasons": "2012-2014",
        "Wins": "3"
    },
    {
        "NO-HEADER0": "7",
        "Driver": "Richard Moore",
        "Seasons": "2012-2014",
        "Wins": "3"
    },
    {
        "NO-HEADER0": "10",
        "Driver": "Jonny Reid",
        "Seasons": "2012-2014",
        "Wins": "2"
    },
    {
        "NO-HEADER0": "10",
        "Driver": "Fabian Coulthard",
        "Seasons": "2012",
        "Wins": "2"
    },
    {
        "NO-HEADER0": "10",
        "Driver": "Tim Edgell",
        "Seasons": "2012-2014",
        "Wins": "2"
    },
    {
        "NO-HEADER0": "10",
        "Driver": "Lee Holdsworth",
        "Seasons": "2013",
        "Wins": "2"
    },
    {
        "NO-HEADER0": "10",
        "Driver": "Chaz Mostert",
        "Seasons": "2013",
        "Wins": "2"
    },
    {
        "NO-HEADER0": "10",
        "Driver": "Tim Slade",
        "Seasons": "2013-2014",
        "Wins": "2"
    }
]