[
    {
        "Muscle": "lumbrical",
        "Origin": "flexor digitorum profundus",
        "Insertion": "extensor expansion",
        "Artery": "superficial palmar arch, common palmar digital arteries, deep palmar arch, dorsal digital artery",
        "Nerve": "deep branch of ulnar nerve, median nerve",
        "Action": "flex metacarpophalangeal joints, extend interphalangeal joints",
        "Antagonist": ""
    },
    {
        "Muscle": "dorsal interossei",
        "Origin": "metacarpals",
        "Insertion": "proximal phalanges",
        "Artery": "Dorsal metacarpal artery and palmar metacarpal artery",
        "Nerve": "deep branch of ulnar nerve",
        "Action": "abduct finger",
        "Antagonist": "Palmar interossei muscles"
    },
    {
        "Muscle": "palmar interossei",
        "Origin": "metacarpals",
        "Insertion": "proximal phalange",
        "Artery": "",
        "Nerve": "deep branch of ulnar nerve",
        "Action": "adduction",
        "Antagonist": ""
    }
]