[
    {
        "Town": "Newport",
        "Population": "23,957",
        "OS Grid Reference": "SZ502893",
        "Post town": "NEWPORT",
        "Postal code": "PO30"
    },
    {
        "Town": "Brading",
        "Population": "2,077",
        "OS Grid Reference": "SZ607870",
        "Post town": "SANDOWN",
        "Postal code": "PO36"
    },
    {
        "Town": "Cowes",
        "Population": "9,663",
        "OS Grid Reference": "SZ496962",
        "Post town": "COWES",
        "Postal code": "PO31"
    },
    {
        "Town": "East Cowes",
        "Population": "6,166",
        "OS Grid Reference": "SZ502957",
        "Post town": "EAST COWES",
        "Postal code": "PO32"
    },
    {
        "Town": "Ryde",
        "Population": "26,152",
        "OS Grid Reference": "SZ591923",
        "Post town": "RYDE",
        "Postal code": "PO33"
    },
    {
        "Town": "Sandown",
        "Population": "5,299",
        "OS Grid Reference": "SZ600843",
        "Post town": "SANDOWN",
        "Postal code": "PO36"
    },
    {
        "Town": "Shanklin",
        "Population": "8,055",
        "OS Grid Reference": "SZ584816",
        "Post town": "SHANKLIN",
        "Postal code": "PO37"
    },
    {
        "Town": "Ventnor",
        "Population": "7,000",
        "OS Grid Reference": "SZ562775",
        "Post town": "VENTNOR",
        "Postal code": "PO38"
    },
    {
        "Town": "Yarmouth",
        "Population": "855",
        "OS Grid Reference": "SZ356896",
        "Post town": "YARMOUTH",
        "Postal code": "PO41"
    }
]