[
    {
        "Rank": "1",
        "Town": "Torrington",
        "NO-HEADER2": "City",
        "Population": "36,380",
        "White": "93.6%",
        "Black": "3.5%",
        "Asian": "2.9%",
        "American Indian": "1.1%",
        "Other": "1.8%",
        "Hispanic": "6.8%"
    },
    {
        "Rank": "2",
        "Town": "New Milford",
        "NO-HEADER2": "Town",
        "Population": "28,122",
        "White": "92.6%",
        "Black": "3.9%",
        "Asian": "2.7%",
        "American Indian": "0.6%",
        "Other": "1.8%",
        "Hispanic": "5.2%"
    },
    {
        "Rank": "3",
        "Town": "Watertown",
        "NO-HEADER2": "Town",
        "Population": "22,502",
        "White": "96.1%",
        "Black": "1.6%",
        "Asian": "2.2%",
        "American Indian": "0.6%",
        "Other": "0.9%",
        "Hispanic": "2.5%"
    },
    {
        "Rank": "4",
        "Town": "Plymouth",
        "NO-HEADER2": "Town",
        "Population": "12,218",
        "White": "98.1%",
        "Black": "1.1%",
        "Asian": "0.0%",
        "American Indian": "1.4%",
        "Other": "1.0%",
        "Hispanic": "3.6%"
    },
    {
        "Rank": "5",
        "Town": "Winchester",
        "NO-HEADER2": "Town",
        "Population": "11,216",
        "White": "95.3%",
        "Black": "1.3%",
        "Asian": "1.4%",
        "American Indian": "0.8%",
        "Other": "2.6%",
        "Hispanic": "9.9%"
    },
    {
        "Rank": "6",
        "Town": "Woodbury",
        "NO-HEADER2": "Town",
        "Population": "9,928",
        "White": "97.9%",
        "Black": "0.6%",
        "Asian": "1.8%",
        "American Indian": "0.7%",
        "Other": "0.3%",
        "Hispanic": "4.0%"
    },
    {
        "Rank": "7",
        "Town": "Litchfield",
        "NO-HEADER2": "Town",
        "Population": "8,484",
        "White": "97.6%",
        "Black": "1.5%",
        "Asian": "1.2%",
        "American Indian": "0.2%",
        "Other": "0.7%",
        "Hispanic": "3.1%"
    },
    {
        "Rank": "8",
        "Town": "Thomaston",
        "NO-HEADER2": "Town",
        "Population": "7,862",
        "White": "98.0%",
        "Black": "1.2%",
        "Asian": "0.9%",
        "American Indian": "1.0%",
        "Other": "0.7%",
        "Hispanic": "1.4%"
    },
    {
        "Rank": "9",
        "Town": "Winsted",
        "NO-HEADER2": "City",
        "Population": "7,402",
        "White": "93.3%",
        "Black": "1.5%",
        "Asian": "1.9%",
        "American Indian": "1.3%",
        "Other": "3.7%",
        "Hispanic": "13.2%"
    },
    {
        "Rank": "10",
        "Town": "New Hartford",
        "NO-HEADER2": "Town",
        "Population": "6,901",
        "White": "96.0%",
        "Black": "0.6%",
        "Asian": "3.9%",
        "American Indian": "0.0%",
        "Other": "0.0%",
        "Hispanic": "0.7%"
    },
    {
        "Rank": "11",
        "Town": "Harwinton",
        "NO-HEADER2": "Town",
        "Population": "5,618",
        "White": "97.7%",
        "Black": "0.0%",
        "Asian": "2.3%",
        "American Indian": "0.5%",
        "Other": "0.0%",
        "Hispanic": "0.0%"
    },
    {
        "Rank": "12",
        "Town": "Barkhamsted",
        "NO-HEADER2": "Town",
        "Population": "3,783",
        "White": "99.8%",
        "Black": "0.4%",
        "Asian": "0.2%",
        "American Indian": "0.0%",
        "Other": "0.0%",
        "Hispanic": "0.3%"
    },
    {
        "Rank": "13",
        "Town": "Salisbury",
        "NO-HEADER2": "Town",
        "Population": "3,783",
        "White": "95.3%",
        "Black": "2.6%",
        "Asian": "3.8%",
        "American Indian": "1.3%",
        "Other": "2.0%",
        "Hispanic": "2.2%"
    },
    {
        "Rank": "14",
        "Town": "Bethlehem",
        "NO-HEADER2": "Town",
        "Population": "3,596",
        "White": "99.4%",
        "Black": "0.1%",
        "Asian": "0.8%",
        "American Indian": "0.2%",
        "Other": "0.0%",
        "Hispanic": "0.9%"
    },
    {
        "Rank": "15",
        "Town": "Washington",
        "NO-HEADER2": "Town",
        "Population": "3,586",
        "White": "94.0%",
        "Black": "2.9%",
        "Asian": "0.9%",
        "American Indian": "0.2%",
        "Other": "3.0%",
        "Hispanic": "9.6%"
    },
    {
        "Rank": "16",
        "Town": "North Canaan",
        "NO-HEADER2": "Town",
        "Population": "3,329",
        "White": "96.3%",
        "Black": "1.4%",
        "Asian": "2.3%",
        "American Indian": "0.0%",
        "Other": "0.0%",
        "Hispanic": "2.2%"
    },
    {
        "Rank": "17",
        "Town": "Kent",
        "NO-HEADER2": "Town",
        "Population": "2,982",
        "White": "98.5%",
        "Black": "0.3%",
        "Asian": "0.8%",
        "American Indian": "0.7%",
        "Other": "0.0%",
        "Hispanic": "0.3%"
    },
    {
        "Rank": "18",
        "Town": "Goshen",
        "NO-HEADER2": "Town",
        "Population": "2,957",
        "White": "99.1%",
        "Black": "0.1%",
        "Asian": "0.7%",
        "American Indian": "0.4%",
        "Other": "0.2%",
        "Hispanic": "5.5%"
    },
    {
        "Rank": "19",
        "Town": "Sharon",
        "NO-HEADER2": "Town",
        "Population": "2,804",
        "White": "92.0%",
        "Black": "0.4%",
        "Asian": "1.4%",
        "American Indian": "0.3%",
        "Other": "6.8%",
        "Hispanic": "8.5%"
    },
    {
        "Rank": "20",
        "Town": "Morris",
        "NO-HEADER2": "Town",
        "Population": "2,411",
        "White": "99.0%",
        "Black": "1.0%",
        "Asian": "0.0%",
        "American Indian": "0.0%",
        "Other": "0.0%",
        "Hispanic": "0.4%"
    },
    {
        "Rank": "21",
        "Town": "Roxbury",
        "NO-HEADER2": "Town",
        "Population": "2,315",
        "White": "99.0%",
        "Black": "0.0%",
        "Asian": "0.3%",
        "American Indian": "1.3%",
        "Other": "0.3%",
        "Hispanic": "5.3%"
    },
    {
        "Rank": "22",
        "Town": "Bridgewater",
        "NO-HEADER2": "Town",
        "Population": "1,790",
        "White": "96.6%",
        "Black": "1.7%",
        "Asian": "1.3%",
        "American Indian": "0.3%",
        "Other": "1.9%",
        "Hispanic": "6.2%"
    },
    {
        "Rank": "23",
        "Town": "Norfolk",
        "NO-HEADER2": "Town",
        "Population": "1,574",
        "White": "97.2%",
        "Black": "0.7%",
        "Asian": "1.5%",
        "American Indian": "2.1%",
        "Other": "0.5%",
        "Hispanic": "2.2%"
    },
    {
        "Rank": "24",
        "Town": "Warren",
        "NO-HEADER2": "Town",
        "Population": "1,531",
        "White": "98.5%",
        "Black": "0.0%",
        "Asian": "0.9%",
        "American Indian": "0.3%",
        "Other": "1.0%",
        "Hispanic": "3.0%"
    },
    {
        "Rank": "25",
        "Town": "Cornwall",
        "NO-HEADER2": "Town",
        "Population": "1,469",
        "White": "99.0%",
        "Black": "0.5%",
        "Asian": "1.0%",
        "American Indian": "0.0%",
        "Other": "0.8%",
        "Hispanic": "2.2%"
    },
    {
        "Rank": "26",
        "Town": "Litchfield",
        "NO-HEADER2": "Borough",
        "Population": "1,420",
        "White": "98.6%",
        "Black": "0.0%",
        "Asian": "1.9%",
        "American Indian": "0.0%",
        "Other": "0.4%",
        "Hispanic": "4.2%"
    },
    {
        "Rank": "27",
        "Town": "Colebrook",
        "NO-HEADER2": "Town",
        "Population": "1,395",
        "White": "99.4%",
        "Black": "0.5%",
        "Asian": "0.0%",
        "American Indian": "0.8%",
        "Other": "0.0%",
        "Hispanic": "0.6%"
    },
    {
        "Rank": "28",
        "Town": "Canaan",
        "NO-HEADER2": "Town",
        "Population": "1,183",
        "White": "97.5%",
        "Black": "1.6%",
        "Asian": "0.2%",
        "American Indian": "0.2%",
        "Other": "1.0%",
        "Hispanic": "2.8%"
    },
    {
        "Rank": "29",
        "Town": "Bantam",
        "NO-HEADER2": "Borough",
        "Population": "731",
        "White": "96.0%",
        "Black": "3.6%",
        "Asian": "1.5%",
        "American Indian": "0.3%",
        "Other": "2.2%",
        "Hispanic": "4.4%"
    }
]