[
    {
        "Chart (1999)": "Australia (ARIA)[14]",
        "Peak position": "4"
    },
    {
        "Chart (1999)": "Austria (Af-3 Austria Top 40)[14]",
        "Peak position": "7"
    },
    {
        "Chart (1999)": "Belgium (Ultratop 50 Flanders)[14]",
        "Peak position": "6"
    },
    {
        "Chart (1999)": "Belgium (Ultratop 50 Wallonia)[14]",
        "Peak position": "6"
    },
    {
        "Chart (1999)": "Canada (RPM)[15]",
        "Peak position": "1"
    },
    {
        "Chart (1999)": "Canada Adult Contemporary (RPM)[16]",
        "Peak position": "1"
    },
    {
        "Chart (1999)": "Canada Dance (RPM)[17]",
        "Peak position": "1"
    },
    {
        "Chart (1999)": "Europe (European Hot 100 Singles)[18]",
        "Peak position": "4"
    },
    {
        "Chart (1999)": "Finland (Suomen virallinen lista)[14][19]",
        "Peak position": "1"
    },
    {
        "Chart (1999)": "France (SNEP)[20]",
        "Peak position": "7"
    },
    {
        "Chart (1999)": "Germany (Media Control Charts)[21]",
        "Peak position": "6"
    },
    {
        "Chart (1999)": "Ireland (IRMA)[22]",
        "Peak position": "1"
    },
    {
        "Chart (1999)": "Italy (FIMI)[23]",
        "Peak position": "5"
    },
    {
        "Chart (1999)": "Japan (Oricon)[24]",
        "Peak position": "5"
    },
    {
        "Chart (1999)": "Netherlands (Dutch Top 40)[25]",
        "Peak position": "9"
    },
    {
        "Chart (1999)": "New Zealand (RIANZ)[14]",
        "Peak position": "1"
    },
    {
        "Chart (1999)": "Norway (VG-lista)[14]",
        "Peak position": "1"
    },
    {
        "Chart (1999)": "Spain (PROMUSICAE)[26]",
        "Peak position": "2"
    },
    {
        "Chart (1999)": "Sweden (Sverigetopplistan)[14]",
        "Peak position": "4"
    },
    {
        "Chart (1999)": "Switzerland (Schweizer Hitparade)[14]",
        "Peak position": "1"
    },
    {
        "Chart (1999)": "UK Singles (Official Charts Company)[27]",
        "Peak position": "1"
    },
    {
        "Chart (1999)": "US Billboard Hot 100[28]",
        "Peak position": "1"
    },
    {
        "Chart (1999)": "US Billboard Adult Contemporary[29]",
        "Peak position": "18"
    },
    {
        "Chart (1999)": "US Billboard Adult Pop Songs[28]",
        "Peak position": "1"
    },
    {
        "Chart (1999)": "US Billboard Hot Dance Club Songs[28]",
        "Peak position": "5"
    },
    {
        "Chart (1999)": "US Billboard Hot Latin Songs[28]",
        "Peak position": "1"
    },
    {
        "Chart (1999)": "US Billboard Latin Pop Songs[28]",
        "Peak position": "1"
    },
    {
        "Chart (1999)": "US Billboard Tropical Songs[29]",
        "Peak position": "1"
    },
    {
        "Chart (1999)": "US Billboard Pop Songs[28]",
        "Peak position": "1"
    },
    {
        "Chart (1999)": "US Billboard Rhythmic Top 40[29]",
        "Peak position": "1"
    },
    {
        "Chart (1999)": "Chart (2008)",
        "Peak position": "Peak position"
    },
    {
        "Chart (1999)": "Italy (FIMI)[14]",
        "Peak position": "13"
    }
]