[
    {
        "Tournament": "Australian Open",
        "1998": "A",
        "1999": "A",
        "2000": "A",
        "2001": "A",
        "2002": "A",
        "2003": "A",
        "Career Win-Loss": "0AC/EUR\"0"
    },
    {
        "Tournament": "French Open",
        "1998": "A",
        "1999": "A",
        "2000": "A",
        "2001": "A",
        "2002": "A",
        "2003": "A",
        "Career Win-Loss": "0AC/EUR\"0"
    },
    {
        "Tournament": "Wimbledon",
        "1998": "1R",
        "1999": "A",
        "2000": "A",
        "2001": "1R",
        "2002": "1R",
        "2003": "1R",
        "Career Win-Loss": "0AC/EUR\"4"
    },
    {
        "Tournament": "US Open",
        "1998": "A",
        "1999": "A",
        "2000": "A",
        "2001": "A",
        "2002": "A",
        "2003": "A",
        "Career Win-Loss": "0AC/EUR\"0"
    },
    {
        "Tournament": "Year-end ranking",
        "1998": "372",
        "1999": "303",
        "2000": "407",
        "2001": "350",
        "2002": "471",
        "2003": "360",
        "Career Win-Loss": "N\\/A"
    }
]