[
    {
        "Year": "1999",
        "Title": "Baibhab",
        "English Title": "A Scam in Verse",
        "Language": "Assamese"
    },
    {
        "Year": "2001",
        "Title": "Anya Ek Yatra",
        "English Title": "",
        "Language": "Assamese"
    },
    {
        "Year": "2003",
        "Title": "Aakashitorar Kothare",
        "English Title": "A Tale Told Thousand Times",
        "Language": "Assamese"
    },
    {
        "Year": "2004",
        "Title": "Laaz",
        "English Title": "Shame",
        "Language": "Assamese"
    },
    {
        "Year": "2006",
        "Title": "Joymati",
        "English Title": "The Saviour",
        "Language": "Assamese"
    },
    {
        "Year": "2008",
        "Title": "Aai Kot Nai",
        "English Title": "Ma",
        "Language": "Assamese"
    },
    {
        "Year": "2012",
        "Title": "Ko:Yad",
        "English Title": "A Silent Way",
        "Language": "Mishing"
    },
    {
        "Year": "2015",
        "Title": "Dau Huduni Methai",
        "English Title": "Song of the Horned Owl",
        "Language": "Bodo"
    }
]