[
    {
        "Rank": "",
        "Athlete": "Zu Lijun (CHN)",
        "Time": "1:55:12.1"
    },
    {
        "Rank": "",
        "Athlete": "Saleh Mohammad (SYR)",
        "Time": "1:55:12.8"
    },
    {
        "Rank": "",
        "Athlete": "Ling Tin Yu (HKG)",
        "Time": "2:02:43.9"
    },
    {
        "Rank": "4",
        "Athlete": "Jiang Tiansheng (CHN)",
        "Time": "2:02:44.7"
    },
    {
        "Rank": "5",
        "Athlete": "Wasim Zwizer (SYR)",
        "Time": "2:05:45.6"
    },
    {
        "Rank": "6",
        "Athlete": "Musallam Al-Khadhuri (OMA)",
        "Time": "2:06:20.6"
    },
    {
        "Rank": "7",
        "Athlete": "Alexandr Trush (KAZ)",
        "Time": "2:09:56.8"
    },
    {
        "Rank": "8",
        "Athlete": "Aiman Al-Qasimi (OMA)",
        "Time": "2:10:39.1"
    },
    {
        "Rank": "9",
        "Athlete": "Ricky Anggawijaya (INA)",
        "Time": "2:12:21.6"
    },
    {
        "Rank": "10",
        "Athlete": "Ahmed Majeed (IRQ)",
        "Time": "2:14:25.2"
    },
    {
        "Rank": "11",
        "Athlete": "Jose Gonzalez (PHI)",
        "Time": "2:21:50.0"
    },
    {
        "Rank": "12",
        "Athlete": "Sahan Rupasinghe (SRI)",
        "Time": "2:25:00.7"
    },
    {
        "Rank": "13",
        "Athlete": "Kanishka Fernando (SRI)",
        "Time": "2:25:36.0"
    },
    {
        "Rank": "14",
        "Athlete": "Hedr Al-Sadh (KSA)",
        "Time": "2:32:12.6"
    },
    {
        "Rank": "AC/EUR\"",
        "Athlete": "Mustafa Al-Yousif (KSA)",
        "Time": "DNF"
    },
    {
        "Rank": "AC/EUR\"",
        "Athlete": "Abdullah Al-Bader (IOC)",
        "Time": "DNS"
    },
    {
        "Rank": "AC/EUR\"",
        "Athlete": "Yuriy Kudinov (KAZ)",
        "Time": "DSQ"
    },
    {
        "Rank": "AC/EUR\"",
        "Athlete": "Pan Kai-wen (TPE)",
        "Time": "DSQ"
    }
]