[
    {
        "Airlines": "Avianca Ecuador",
        "Destinations": "Quito"
    },
    {
        "Airlines": "LAN Ecuador",
        "Destinations": "Quito"
    },
    {
        "Airlines": "TAME",
        "Destinations": "Guayaquil, Quito"
    }
]