[
    {
        "Name": "Jean-Baptiste Coppieters 't Wallant",
        "Date of birth": "",
        "Date of death": "",
        "Office entered": "1830",
        "Office left": "1841",
        "Party": ""
    },
    {
        "Name": "Jean-Marie de Pelichy van Huerne",
        "Date of birth": "",
        "Date of death": "",
        "Office entered": "1841",
        "Office left": "1855",
        "Party": "Catholic Party"
    },
    {
        "Name": "Jules Boyaval",
        "Date of birth": "",
        "Date of death": "",
        "Office entered": "1855",
        "Office left": "1876",
        "Party": "Liberal Party"
    },
    {
        "Name": "Amedee Visart de Bocarme",
        "Date of birth": "",
        "Date of death": "",
        "Office entered": "1876",
        "Office left": "1924",
        "Party": "Catholic Party"
    },
    {
        "Name": "Victor Van Hoestenberghe",
        "Date of birth": "",
        "Date of death": "",
        "Office entered": "1924",
        "Office left": "1956",
        "Party": "Christian People's Party"
    },
    {
        "Name": "Pierre Vandamme",
        "Date of birth": "",
        "Date of death": "",
        "Office entered": "1956",
        "Office left": "1971",
        "Party": "Christian People's Party"
    },
    {
        "Name": "Michel Van Maele",
        "Date of birth": "",
        "Date of death": "",
        "Office entered": "1972",
        "Office left": "1977",
        "Party": "Christian People's Party"
    },
    {
        "Name": "Frank Van Acker",
        "Date of birth": "",
        "Date of death": "",
        "Office entered": "1977",
        "Office left": "1992",
        "Party": "Socialist Party"
    },
    {
        "Name": "Fernand Bourdon",
        "Date of birth": "",
        "Date of death": "",
        "Office entered": "1992",
        "Office left": "1994",
        "Party": "Socialist Party"
    },
    {
        "Name": "Patrick Moenaert",
        "Date of birth": "",
        "Date of death": "",
        "Office entered": "1995",
        "Office left": "2012",
        "Party": "Christian People's Party"
    },
    {
        "Name": "Renaat Landuyt",
        "Date of birth": "28 January 1959",
        "Date of death": "",
        "Office entered": "2013",
        "Office left": "",
        "Party": "Socialist PartyAC/EUR\"Differently"
    }
]