[
    {
        "Name": "69001AC/EUR\"69100",
        "Provisional Designation": "",
        "Source of Name": ""
    },
    {
        "Name": "69101AC/EUR\"69200",
        "Provisional Designation": "",
        "Source of Name": ""
    },
    {
        "Name": "69159 Ivanking",
        "Provisional Designation": "2003 JE16",
        "Source of Name": "Ivan R. King, prominent astronomer working mainly on the studies of globular clusters AC/EUR"
    },
    {
        "Name": "69201AC/EUR\"69300",
        "Provisional Designation": "",
        "Source of Name": ""
    },
    {
        "Name": "69228 Kamerunberg",
        "Provisional Designation": "5173 T-3",
        "Source of Name": "Mount Cameroon (called Kamerunberg in German), the 4040-m active volcano, situated in Cameroon near the Gulf of Guinea. AC/EUR"
    },
    {
        "Name": "69230 Hermes",
        "Provisional Designation": "1937 UB",
        "Source of Name": "Hermes, Greek messenger of the gods AC/EUR"
    },
    {
        "Name": "69231 Alettajacobs",
        "Provisional Designation": "1972 FE",
        "Source of Name": "Aletta Jacobs, the first Dutch woman to graduate from a university and the first Dutch female physician AC/EUR"
    },
    {
        "Name": "69245 Persiceto",
        "Provisional Designation": "1981 EO",
        "Source of Name": "San Giovanni, in Persiceto, is a small town near Bologna AC/EUR"
    },
    {
        "Name": "69259 Savostyanov",
        "Provisional Designation": "1982 ST7",
        "Source of Name": "Savostyanov Fedor VasilAC/EUR(tm)evich (1924AC/EUR\"2012), a famous Russian painter. AC/EUR"
    },
    {
        "Name": "69260 Tonyjudt",
        "Provisional Designation": "1982 TJ",
        "Source of Name": "Tony Judt, historian AC/EUR"
    },
    {
        "Name": "69263 Big Ben",
        "Provisional Designation": "1987 BB2",
        "Source of Name": "Big Ben, at Westminster, is the name of the great bell and clock tower of the world's largest four-faced chiming clock AC/EUR"
    },
    {
        "Name": "69264 Nebra",
        "Provisional Designation": "1988 PE4",
        "Source of Name": "NebraAC/EUR or the Nebra skydisk AC/EURA!"
    },
    {
        "Name": "69275 Wiesenthal",
        "Provisional Designation": "1989 WD4",
        "Source of Name": "Simon Wiesenthal, Austro-Hungarian Nazi war criminal hunter AC/EUR"
    },
    {
        "Name": "69286 von Liebig",
        "Provisional Designation": "1990 TN9",
        "Source of Name": "Justus von Liebig, German chemist AC/EUR"
    },
    {
        "Name": "69287 Gunthereichhorn",
        "Provisional Designation": "1990 TW10",
        "Source of Name": "GAfA 1/4 nther Eichhorn (b. 1945), a German-American astronomer. AC/EUR"
    },
    {
        "Name": "69288 Berlioz",
        "Provisional Designation": "1990 TW11",
        "Source of Name": "Louis Hector Berlioz, French Romantic composer AC/EUR"
    },
    {
        "Name": "69301AC/EUR\"69400",
        "Provisional Designation": "",
        "Source of Name": ""
    },
    {
        "Name": "69311 Russ",
        "Provisional Designation": "1992 QC",
        "Source of Name": "Russell Mark Steel, the discoverer's only brother AC/EUR"
    },
    {
        "Name": "69312 Rogerbacon",
        "Provisional Designation": "1992 SH17",
        "Source of Name": "Roger Bacon, English philosopher AC/EUR"
    },
    {
        "Name": "69401AC/EUR\"69500",
        "Provisional Designation": "",
        "Source of Name": ""
    },
    {
        "Name": "69421 Keizosaji",
        "Provisional Designation": "1995 YT2",
        "Source of Name": "Keizo Saji, well-known businessmen in Japan and the honorary chief of the Saji Astro Park AC/EUR"
    },
    {
        "Name": "69434 de Gerlache",
        "Provisional Designation": "1996 HC21",
        "Source of Name": "Adrien de Gerlache, 19th-20th-century Belgian naval officer and Antarctic explorer AC/EUR"
    },
    {
        "Name": "69496 Zaoryuzan",
        "Provisional Designation": "1997 AE22",
        "Source of Name": "Zao Ryuzan, a 1362-m mountain located to the southeast of Yamagata city, Yamagata prefecture. AC/EUR"
    },
    {
        "Name": "69501AC/EUR\"69600",
        "Provisional Designation": "",
        "Source of Name": ""
    },
    {
        "Name": "69594 Ulferika",
        "Provisional Designation": "1998 FF11",
        "Source of Name": "Ulf Lehmann (born 1939) and Erika (born 1940) are the parents of the discoverer AC/EUR"
    },
    {
        "Name": "69601AC/EUR\"69700",
        "Provisional Designation": "",
        "Source of Name": ""
    },
    {
        "Name": "69701AC/EUR\"69800",
        "Provisional Designation": "",
        "Source of Name": ""
    },
    {
        "Name": "69754 Mosesmendel",
        "Provisional Designation": "1998 MM39",
        "Source of Name": "Moses Mendelssohn, German-Jewish philosopher AC/EUR"
    },
    {
        "Name": "69801AC/EUR\"69900",
        "Provisional Designation": "",
        "Source of Name": ""
    },
    {
        "Name": "69869 Haining",
        "Provisional Designation": "1998 SX62",
        "Source of Name": "Haining, at the southern tip of the Yangtze River in northern Zhejiang province AC/EUR"
    },
    {
        "Name": "69870 Fizeau",
        "Provisional Designation": "1998 SM64",
        "Source of Name": "Hyppolite Fizeau, 19th-century French physicist AC/EUR"
    },
    {
        "Name": "69901AC/EUR\"70000",
        "Provisional Designation": "",
        "Source of Name": ""
    },
    {
        "Name": "69961 Millosevich",
        "Provisional Designation": "1998 VS33",
        "Source of Name": "Elia Millosevich, Italian astronomer AC/EUR"
    },
    {
        "Name": "69971 Tanzi",
        "Provisional Designation": "1998 WD2",
        "Source of Name": "Pepe Tanzi, Italian lighting industrial designer AC/EUR"
    },
    {
        "Name": "69977 Saurodonati",
        "Provisional Designation": "1998 WL9",
        "Source of Name": "Sauro Donati, Italian amateur astronomer AC/EUR"
    }
]