[
    {
        "Season": "Longwood Lancers (Division II independent) (2003AC/EUR\"2004)",
        "Team": "",
        "Overall": "",
        "Conference": "",
        "Standing": "",
        "Postseason": ""
    },
    {
        "Season": "2003AC/EUR\"04",
        "Team": "Longwood",
        "Overall": "5AC/EUR\"22",
        "Conference": "",
        "Standing": "",
        "Postseason": ""
    },
    {
        "Season": "Longwood:",
        "Team": "5AC/EUR\"22 (.179)",
        "Overall": "",
        "Conference": "",
        "Standing": "",
        "Postseason": ""
    },
    {
        "Season": "Longwood Lancers (Division I independent) (2004AC/EUR\"2012)",
        "Team": "",
        "Overall": "",
        "Conference": "",
        "Standing": "",
        "Postseason": ""
    },
    {
        "Season": "2004AC/EUR\"05",
        "Team": "Longwood",
        "Overall": "1AC/EUR\"30",
        "Conference": "",
        "Standing": "",
        "Postseason": ""
    },
    {
        "Season": "2005AC/EUR\"06",
        "Team": "Longwood",
        "Overall": "10AC/EUR\"20",
        "Conference": "",
        "Standing": "",
        "Postseason": ""
    },
    {
        "Season": "2006AC/EUR\"07",
        "Team": "Longwood",
        "Overall": "9AC/EUR\"22",
        "Conference": "",
        "Standing": "",
        "Postseason": ""
    },
    {
        "Season": "2007AC/EUR\"08",
        "Team": "Longwood",
        "Overall": "9AC/EUR\"22",
        "Conference": "",
        "Standing": "",
        "Postseason": ""
    },
    {
        "Season": "2008AC/EUR\"09",
        "Team": "Longwood",
        "Overall": "17AC/EUR\"14",
        "Conference": "",
        "Standing": "",
        "Postseason": ""
    },
    {
        "Season": "2009AC/EUR\"10",
        "Team": "Longwood",
        "Overall": "12AC/EUR\"19",
        "Conference": "",
        "Standing": "",
        "Postseason": ""
    },
    {
        "Season": "2010AC/EUR\"11",
        "Team": "Longwood",
        "Overall": "12AC/EUR\"19",
        "Conference": "",
        "Standing": "",
        "Postseason": ""
    },
    {
        "Season": "2011AC/EUR\"12",
        "Team": "Longwood",
        "Overall": "10AC/EUR\"21",
        "Conference": "",
        "Standing": "",
        "Postseason": ""
    },
    {
        "Season": "Longwood:",
        "Team": "81AC/EUR\"167 (.327)",
        "Overall": "",
        "Conference": "",
        "Standing": "",
        "Postseason": ""
    },
    {
        "Season": "Longwood Lancers (Big South Conference) (2012AC/EUR\"2013)",
        "Team": "",
        "Overall": "",
        "Conference": "",
        "Standing": "",
        "Postseason": ""
    },
    {
        "Season": "2012AC/EUR\"13",
        "Team": "Longwood",
        "Overall": "8AC/EUR\"25",
        "Conference": "4AC/EUR\"12",
        "Standing": "",
        "Postseason": ""
    },
    {
        "Season": "Longwood:",
        "Team": "8AC/EUR\"25 (.242)",
        "Overall": "4AC/EUR\"12 (.250)",
        "Conference": "",
        "Standing": "",
        "Postseason": ""
    },
    {
        "Season": "Total:",
        "Team": "93AC/EUR\"214 (.303)",
        "Overall": "",
        "Conference": "",
        "Standing": "",
        "Postseason": ""
    },
    {
        "Season": "National champion Postseason invitational champion Conference regular season champion Conference regular season and conference tournament champion Division regular season champion Division regular season and conference tournament champion Conference tournament champion",
        "Team": "",
        "Overall": "",
        "Conference": "",
        "Standing": "",
        "Postseason": ""
    }
]