[
    {
        "12 points": "10 points",
        "Romania": "Belarus"
    },
    {
        "12 points": "8 points",
        "Romania": "Russia"
    },
    {
        "12 points": "7 points",
        "Romania": "Ukraine"
    },
    {
        "12 points": "6 points",
        "Romania": "Greece"
    },
    {
        "12 points": "5 points",
        "Romania": "Serbia"
    },
    {
        "12 points": "4 points",
        "Romania": "Georgia"
    },
    {
        "12 points": "3 points",
        "Romania": "Bulgaria"
    },
    {
        "12 points": "2 points",
        "Romania": "Armenia"
    },
    {
        "12 points": "1 point",
        "Romania": "Turkey"
    }
]