[
    {
        "Parties": "Mongolian People's Revolutionary Party",
        "Votes": "914,037",
        "%": "52.67",
        "Seats": "45",
        "+\\/AC/EUR\"": "+8"
    },
    {
        "Parties": "Democratic Party",
        "Votes": "701,641",
        "%": "40.43",
        "Seats": "28",
        "+\\/AC/EUR\"": "AC/EUR\""
    },
    {
        "Parties": "Civic Will Party",
        "Votes": "34,319",
        "%": "1.97",
        "Seats": "1",
        "+\\/AC/EUR\"": "AC/EUR\""
    },
    {
        "Parties": "Green Party",
        "Votes": "24,806",
        "%": "1.42",
        "Seats": "1",
        "+\\/AC/EUR\"": "New"
    },
    {
        "Parties": "Independents",
        "Votes": "60,320",
        "%": "3.47",
        "Seats": "1",
        "+\\/AC/EUR\"": "AC/EUR\"2"
    },
    {
        "Parties": "Total",
        "Votes": "1,735,123",
        "%": "100",
        "Seats": "76",
        "+\\/AC/EUR\"": "0"
    },
    {
        "Parties": "Registered voters\\/turnout",
        "Votes": "1,534,074",
        "%": "74.31",
        "Seats": "AC/EUR\"",
        "+\\/AC/EUR\"": "AC/EUR\""
    },
    {
        "Parties": "Source: IPU",
        "Votes": "",
        "%": "",
        "Seats": "",
        "+\\/AC/EUR\"": ""
    }
]