[
    {
        "Year": "Moroccan Golf Classic",
        "Venue": "",
        "Winner": "",
        "Score": ""
    },
    {
        "Year": "2010",
        "Venue": "Pullman Mazagan Royal Golf and Spa",
        "Winner": "Chris Baker",
        "Score": "275 (-13)"
    },
    {
        "Year": "Moroccan Classic by Banque Populaire",
        "Venue": "",
        "Winner": "",
        "Score": ""
    },
    {
        "Year": "2009",
        "Venue": "El Jadida Sofitel Golf Resort",
        "Winner": "Robert Coles",
        "Score": "275 (-13)"
    },
    {
        "Year": "Banque Populaire Moroccan Classic",
        "Venue": "",
        "Winner": "",
        "Score": ""
    },
    {
        "Year": "2008",
        "Venue": "El Jadida Sofitel Golf Resort",
        "Winner": "Michael Hoey",
        "Score": "276 (-12)"
    },
    {
        "Year": "2007",
        "Venue": "No tournament",
        "Winner": "",
        "Score": ""
    },
    {
        "Year": "Tikida Hotels Agadir Moroccan Classic",
        "Venue": "",
        "Winner": "",
        "Score": ""
    },
    {
        "Year": "2006",
        "Venue": "Golf du Soleil",
        "Winner": "Adrien Mork",
        "Score": "265 (-19)"
    },
    {
        "Year": "Riu Tikida Hotels Moroccan Classic",
        "Venue": "",
        "Winner": "",
        "Score": ""
    },
    {
        "Year": "2005",
        "Venue": "Golf du Soleil",
        "Winner": "Fredrik Widmark",
        "Score": "269 (-15)PO"
    },
    {
        "Year": "Attijari Wafa - Tikida Beach Moroccan Classic",
        "Venue": "",
        "Winner": "",
        "Score": ""
    },
    {
        "Year": "2004",
        "Venue": "Golf du Soleil",
        "Winner": "Graeme Storm",
        "Score": "264 (-16)"
    },
    {
        "Year": "Panalpina Banque Commerciale du Maroc Classic",
        "Venue": "",
        "Winner": "",
        "Score": ""
    },
    {
        "Year": "2003",
        "Venue": "Royal Golf Dar es Salaam",
        "Winner": "Greig Hutcheon",
        "Score": "284 (-8)"
    },
    {
        "Year": "2002",
        "Venue": "Royal Golf Dar es Salaam",
        "Winner": "Jean-Francois Lucquin",
        "Score": "283 (-9)"
    }
]