[
    {
        "Year of release": "1986",
        "Original title": "Stary chram",
        "Title": "Old Temple",
        "Label": ""
    },
    {
        "Year of release": "1987",
        "Original title": "Zrok",
        "Title": "Vision",
        "Label": ""
    },
    {
        "Year of release": "1989",
        "Original title": "Studyja BM",
        "Title": "Studio BM",
        "Label": ""
    },
    {
        "Year of release": "1990",
        "Original title": "DvaccaA\"++ voA...>maja zorka",
        "Title": "28th Star",
        "Label": "Melodiya"
    },
    {
        "Year of release": "1991",
        "Original title": "Bijapolie",
        "Title": "Biofield",
        "Label": ""
    },
    {
        "Year of release": "1992",
        "Original title": "LepA...A!yja peA...>ni z albomau 1988-1990",
        "Title": "The Best Songs from the Albums 1988-1990",
        "Label": "KovAeg"
    },
    {
        "Year of release": "1993",
        "Original title": "Vybranyja peA...>ni 1989-1993",
        "Title": "Selected Songs 1989-1993",
        "Label": "ZBS"
    },
    {
        "Year of release": "1995",
        "Original title": "A\naA\naA\naA\na",
        "Title": "LaLaLaLa",
        "Label": ""
    },
    {
        "Year of release": "1996",
        "Original title": "Odzirydzidzina",
        "Title": "Odzirydzidzina",
        "Label": ""
    },
    {
        "Year of release": "1997",
        "Original title": "Made in N.R.M.",
        "Title": "Made in N.R.M.",
        "Label": ""
    },
    {
        "Year of release": "1998",
        "Original title": "PaA!part hramadzianina N.R.M.",
        "Title": "The Passport of N.R.M Citizen",
        "Label": ""
    },
    {
        "Year of release": "1999",
        "Original title": "AkustyAnyja kancerty kanca 20-ha stahodA\nAodzia",
        "Title": "Acoustic Concerts at the End of the 20th Century",
        "Label": "West Records"
    },
    {
        "Year of release": "2000",
        "Original title": "Samotnik",
        "Title": "Single",
        "Label": "West Records"
    },
    {
        "Year of release": "2000",
        "Original title": "Try Aarapachi",
        "Title": "Three Turtles",
        "Label": "West Records"
    },
    {
        "Year of release": "2002",
        "Original title": "Dom kultury",
        "Title": "Palace of Culture",
        "Label": "West Records"
    },
    {
        "Year of release": "2004",
        "Original title": "SpravazdaAa 1994-2004",
        "Title": "Report of 1994-2004",
        "Label": "West Records"
    },
    {
        "Year of release": "2007",
        "Original title": "06",
        "Title": "06",
        "Label": ""
    },
    {
        "Year of release": "2013",
        "Original title": "A.A.A.AASS.",
        "Title": "D.P.B.C.",
        "Label": "PetePaff Inc."
    }
]