[
    {
        "[6]": "[6]",
        "Name on the Register": "Name on the Register",
        "Image": "Image",
        "Date listed": "Date listed",
        "Date removed": "Date removed",
        "Location": "Location",
        "City or town": "City or town",
        "Summary": "Summary",
        "NO-HEADER8": ""
    },
    {
        "[6]": "1",
        "Name on the Register": "Former Sioux County Courthouse",
        "Image": "",
        "Date listed": "November 19, 1985 (#85002993)",
        "Date removed": "October 21, 2009",
        "Location": "Belden St. 46A'Adeg05AC/EURA208AC/EURA3N 100A'Adeg37AC/EURA251AC/EURA3WA-A>>A? \\/ A-A>>A?46.0856A'AdegN 100.6308A'AdegW",
        "City or town": "Fort Yates",
        "Summary": "NRHP nomination termed this \nather plain\" but suggested it was worthwhile to list in order to promote local awareness of historic preservation",
        "NO-HEADER8": " given no nearby NRHP listings\""
    }
]