[
    {
        "[5]": "1",
        "Name on the Register": "Bend Amateur Athletic Club Gymnasium",
        "Image": "",
        "Date listed[6]": "November 25, 1983 (#83004165)",
        "Location": "Northeast corner of Wall and Idaho Streets 44A'Adeg03AC/EURA221AC/EURA3N 121A'Adeg19AC/EURA201AC/EURA3WA-A>>A? \\/ A-A>>A?44.055939A'AdegN 121.317072A'AdegW",
        "City or town": "Bend",
        "Description": "[7]"
    },
    {
        "[5]": "2",
        "Name on the Register": "Bend High School",
        "Image": "",
        "Date listed[6]": "September 23, 1993 (#93000916)",
        "Location": "529 NW Wall Street 44A'Adeg03AC/EURA223AC/EURA3N 121A'Adeg18AC/EURA259AC/EURA3WA-A>>A? \\/ A-A>>A?44.056389A'AdegN 121.316389A'AdegW",
        "City or town": "Bend",
        "Description": ""
    },
    {
        "[5]": "3",
        "Name on the Register": "Bend Skyliners Lodge",
        "Image": "",
        "Date listed[6]": "June 13, 1978 (#78002285)",
        "Location": "Skyliners Road, 11 miles (18 km) west of Bend, Deschutes National Forest 44A'Adeg01AC/EURA252AC/EURA3N 121A'Adeg31AC/EURA219AC/EURA3WA-A>>A? \\/ A-A>>A?44.031225A'AdegN 121.521903A'AdegW",
        "City or town": "Bend vicinity",
        "Description": ""
    },
    {
        "[5]": "4",
        "Name on the Register": "Charles Boyd Homestead Group",
        "Image": "",
        "Date listed[6]": "August 31, 1982 (#82003724)",
        "Location": "20410 Rivermall Avenue 44A'Adeg05AC/EURA203AC/EURA3N 121A'Adeg18AC/EURA207AC/EURA3WA-A>>A? \\/ A-A>>A?44.084167A'AdegN 121.301944A'AdegW",
        "City or town": "Bend",
        "Description": ""
    },
    {
        "[5]": "5",
        "Name on the Register": "Peter Byberg House",
        "Image": "",
        "Date listed[6]": "March 5, 1998 (#98000204)",
        "Location": "153 NW Jefferson Place 44A'Adeg03AC/EURA211AC/EURA3N 121A'Adeg19AC/EURA215AC/EURA3WA-A>>A? \\/ A-A>>A?44.053083A'AdegN 121.320819A'AdegW",
        "City or town": "Bend",
        "Description": ""
    },
    {
        "[5]": "6",
        "Name on the Register": "Congress Apartments",
        "Image": "",
        "Date listed[6]": "September 1, 2000 (#00001020)",
        "Location": "221AC/EUR\"229 NW Congress Street 44A'Adeg03AC/EURA219AC/EURA3N 121A'Adeg19AC/EURA221AC/EURA3WA-A>>A? \\/ A-A>>A?44.055271A'AdegN 121.322394A'AdegW",
        "City or town": "Bend",
        "Description": "This apartment building was the scene of a dynamite explosion in 1926, targeting a State Prohibition Officer in retaliation for the fatal shooting of a suspected moonshiner. The attack highlights the extreme tensions between \\wets\" and \"drys\" in Central Oregon during the Prohibition era. The 1924 building is also notable for its Craftsman styling.[8]\""
    },
    {
        "[5]": "7",
        "Name on the Register": "Ed and Genevieve Deedon Homestead",
        "Image": "Upload image",
        "Date listed[6]": "March 6, 2013 (#13000057)",
        "Location": "15600 Deedon Road 43A'Adeg43AC/EURA208AC/EURA3N 121A'Adeg32AC/EURA225AC/EURA3WA-A>>A? \\/ A-A>>A?43.718807A'AdegN 121.540335A'AdegW",
        "City or town": "La Pine vicinity",
        "Description": ""
    },
    {
        "[5]": "8",
        "Name on the Register": "Deschutes County Library",
        "Image": "",
        "Date listed[6]": "September 23, 1993 (#93000914)",
        "Location": "507 NW Wall Street 44A'Adeg03AC/EURA223AC/EURA3N 121A'Adeg19AC/EURA203AC/EURA3WA-A>>A? \\/ A-A>>A?44.05628056A'AdegN 121.3176028A'AdegW",
        "City or town": "Bend",
        "Description": ""
    },
    {
        "[5]": "9",
        "Name on the Register": "Downing Building",
        "Image": "",
        "Date listed[6]": "November 26, 2004 (#04001262)",
        "Location": "1033AC/EUR\"1035 NW Bond Street 44A'Adeg03AC/EURA235AC/EURA3N 121A'Adeg18AC/EURA243AC/EURA3WA-A>>A? \\/ A-A>>A?44.059610A'AdegN 121.311958A'AdegW",
        "City or town": "Bend",
        "Description": ""
    },
    {
        "[5]": "10",
        "Name on the Register": "Drake Park Neighborhood Historic District",
        "Image": "More images",
        "Date listed[6]": "June 3, 2005 (#05000380)",
        "Location": "Roughly bounded by Broadway Street, Riverside Boulevard, Turnalo Avenue, and Franklin Avenue 44A'Adeg03AC/EURA230AC/EURA3N 121A'Adeg19AC/EURA210AC/EURA3WA-A>>A? \\/ A-A>>A?44.058333A'AdegN 121.319444A'AdegW",
        "City or town": "Bend",
        "Description": ""
    },
    {
        "[5]": "11",
        "Name on the Register": "Elk Lake Guard Station",
        "Image": "",
        "Date listed[6]": "April 23, 2009 (#09000240)",
        "Location": "Forest Road 46, Deschutes National Forest 43A'Adeg58AC/EURA258AC/EURA3N 121A'Adeg48AC/EURA224AC/EURA3WA-A>>A? \\/ A-A>>A?43.982847A'AdegN 121.806538A'AdegW",
        "City or town": "Bend vicinity",
        "Description": ""
    },
    {
        "[5]": "12",
        "Name on the Register": "First Presbyterian Church of Redmond",
        "Image": "More images",
        "Date listed[6]": "September 3, 2001 (#01000931)",
        "Location": "641 SE Cascade Avenue 44A'Adeg16AC/EURA230AC/EURA3N 121A'Adeg10AC/EURA226AC/EURA3WA-A>>A? \\/ A-A>>A?44.275A'AdegN 121.173889A'AdegW",
        "City or town": "Redmond",
        "Description": ""
    },
    {
        "[5]": "13",
        "Name on the Register": "Jonathan N. B. Gerking Homestead",
        "Image": "",
        "Date listed[6]": "May 27, 1999 (#99000644)",
        "Location": "65725 Gerking Market Road 44A'Adeg11AC/EURA210AC/EURA3N 121A'Adeg20AC/EURA238AC/EURA3WA-A>>A? \\/ A-A>>A?44.186111A'AdegN 121.343889A'AdegW",
        "City or town": "Bend",
        "Description": ""
    },
    {
        "[5]": "14",
        "Name on the Register": "GoodwillieAC/EUR\"Allen House",
        "Image": "",
        "Date listed[6]": "May 25, 2007 (#07000493)",
        "Location": "875 NW Brooks Street 44A'Adeg03AC/EURA234AC/EURA3N 121A'Adeg18AC/EURA254AC/EURA3WA-A>>A? \\/ A-A>>A?44.05939444A'AdegN 121.3149778A'AdegW",
        "City or town": "Bend",
        "Description": ""
    },
    {
        "[5]": "15",
        "Name on the Register": "Benjamin Hamilton House",
        "Image": "",
        "Date listed[6]": "March 15, 2000 (#00000228)",
        "Location": "552 NW State Street 44A'Adeg03AC/EURA229AC/EURA3N 121A'Adeg19AC/EURA211AC/EURA3WA-A>>A? \\/ A-A>>A?44.058175A'AdegN 121.3197944A'AdegW",
        "City or town": "Bend",
        "Description": ""
    },
    {
        "[5]": "16",
        "Name on the Register": "HopeAC/EUR\"Van Allen House",
        "Image": "",
        "Date listed[6]": "May 10, 2001 (#01000495)",
        "Location": "352 NW Drake Road 44A'Adeg03AC/EURA242AC/EURA3N 121A'Adeg19AC/EURA207AC/EURA3WA-A>>A? \\/ A-A>>A?44.061783A'AdegN 121.318504A'AdegW",
        "City or town": "Bend",
        "Description": ""
    },
    {
        "[5]": "17",
        "Name on the Register": "I.O.O.F. Organization Camp, Paulina Lake",
        "Image": "",
        "Date listed[6]": "July 14, 1983 (#83002148)",
        "Location": "Forest Road 21, Newberry National Volcanic Monument, Deschutes National Forest 43A'Adeg42AC/EURA222AC/EURA3N 121A'Adeg15AC/EURA228AC/EURA3WA-A>>A? \\/ A-A>>A?43.706104A'AdegN 121.257656A'AdegW",
        "City or town": "LaPine vicinity",
        "Description": ""
    },
    {
        "[5]": "18",
        "Name on the Register": "Simpson E. Jones House",
        "Image": "",
        "Date listed[6]": "March 15, 2000 (#00000227)",
        "Location": "1535 NW Awbrey Road 44A'Adeg03AC/EURA248AC/EURA3N 121A'Adeg18AC/EURA258AC/EURA3WA-A>>A? \\/ A-A>>A?44.063202A'AdegN 121.316037A'AdegW",
        "City or town": "Bend",
        "Description": ""
    },
    {
        "[5]": "19",
        "Name on the Register": "Thomas McCann House",
        "Image": "",
        "Date listed[6]": "April 1, 1980 (#80003311)",
        "Location": "440 NW Congress Street 44A'Adeg03AC/EURA224AC/EURA3N 121A'Adeg19AC/EURA211AC/EURA3WA-A>>A? \\/ A-A>>A?44.056678A'AdegN 121.319772A'AdegW",
        "City or town": "Bend",
        "Description": ""
    },
    {
        "[5]": "20",
        "Name on the Register": "McKenzie Highway Historic District",
        "Image": "",
        "Date listed[6]": "February 7, 2011 (#10001215)",
        "Location": "Oregon Route 242 44A'Adeg14AC/EURA255AC/EURA3N 121A'Adeg50AC/EURA218AC/EURA3WA-A>>A? \\/ A-A>>A?44.248611A'AdegN 121.838333A'AdegW",
        "City or town": "Sisters to Belknap Springs",
        "Description": "Extends into Linn and Lane counties."
    },
    {
        "[5]": "21",
        "Name on the Register": "Robert D. Moore House",
        "Image": "",
        "Date listed[6]": "May 19, 1999 (#99000603)",
        "Location": "545 NW Congress Street 44A'Adeg03AC/EURA228AC/EURA3N 121A'Adeg19AC/EURA210AC/EURA3WA-A>>A? \\/ A-A>>A?44.05788333A'AdegN 121.3193861A'AdegW",
        "City or town": "Bend",
        "Description": ""
    },
    {
        "[5]": "22",
        "Name on the Register": "New Redmond Hotel",
        "Image": "",
        "Date listed[6]": "October 28, 1980 (#80003312)",
        "Location": "521 S. 6th Street 44A'Adeg16AC/EURA221AC/EURA3N 121A'Adeg10AC/EURA223AC/EURA3WA-A>>A? \\/ A-A>>A?44.2725A'AdegN 121.173056A'AdegW",
        "City or town": "Redmond",
        "Description": ""
    },
    {
        "[5]": "23",
        "Name on the Register": "New Taggart Hotel",
        "Image": "",
        "Date listed[6]": "February 29, 1988 (#88000087)",
        "Location": "215 NW Greenwood Avenue 44A'Adeg03AC/EURA235AC/EURA3N 121A'Adeg18AC/EURA239AC/EURA3WA-A>>A? \\/ A-A>>A?44.059722A'AdegN 121.310833A'AdegW",
        "City or town": "Bend",
        "Description": ""
    },
    {
        "[5]": "24",
        "Name on the Register": "O'Kane Building",
        "Image": "More images",
        "Date listed[6]": "November 6, 1986 (#86002965)",
        "Location": "115 NW Oregon Avenue 44A'Adeg03AC/EURA233AC/EURA3N 121A'Adeg18AC/EURA246AC/EURA3WA-A>>A? \\/ A-A>>A?44.05908611A'AdegN 121.3127056A'AdegW",
        "City or town": "Bend",
        "Description": ""
    },
    {
        "[5]": "25",
        "Name on the Register": "Milton Odem House",
        "Image": "",
        "Date listed[6]": "February 21, 1997 (#97000139)",
        "Location": "623 SW 12th Street 44A'Adeg16AC/EURA216AC/EURA3N 121A'Adeg10AC/EURA251AC/EURA3WA-A>>A? \\/ A-A>>A?44.271153A'AdegN 121.180968A'AdegW",
        "City or town": "Redmond",
        "Description": "[9]"
    },
    {
        "[5]": "26",
        "Name on the Register": "Old Town Historic District",
        "Image": "More images",
        "Date listed[6]": "June 29, 2001 (#01000681)",
        "Location": "Roughly bounded by Arizona Avenue, Wall Street, Broadway Street, Franklin Avenue, and Division Street 44A'Adeg03AC/EURA212AC/EURA3N 121A'Adeg18AC/EURA234AC/EURA3WA-A>>A? \\/ A-A>>A?44.053333A'AdegN 121.309444A'AdegW",
        "City or town": "Bend",
        "Description": ""
    },
    {
        "[5]": "27",
        "Name on the Register": "Old US Post Office",
        "Image": "",
        "Date listed[6]": "February 14, 1985 (#85000293)",
        "Location": "745 NW Wall Street 44A'Adeg03AC/EURA229AC/EURA3N 121A'Adeg18AC/EURA256AC/EURA3WA-A>>A? \\/ A-A>>A?44.05797778A'AdegN 121.3156167A'AdegW",
        "City or town": "Bend",
        "Description": ""
    },
    {
        "[5]": "28",
        "Name on the Register": "Paulina Lake Guard Station",
        "Image": "",
        "Date listed[6]": "April 11, 1986 (#86000825)",
        "Location": "Deschutes National Forest 43A'Adeg42AC/EURA242AC/EURA3N 121A'Adeg16AC/EURA233AC/EURA3WA-A>>A? \\/ A-A>>A?43.711667A'AdegN 121.275833A'AdegW",
        "City or town": "Bend",
        "Description": ""
    },
    {
        "[5]": "29",
        "Name on the Register": "Petersen Rock Garden",
        "Image": "More images",
        "Date listed[6]": "October 30, 2013 (#13000859)",
        "Location": "7930 SW 77th Street 44A'Adeg12AC/EURA213AC/EURA3N 121A'Adeg15AC/EURA246AC/EURA3WA-A>>A? \\/ A-A>>A?44.203583A'AdegN 121.262796A'AdegW",
        "City or town": "Redmond vicinity",
        "Description": ""
    },
    {
        "[5]": "30",
        "Name on the Register": "Pictograph Site",
        "Image": "Upload image",
        "Date listed[6]": "July 17, 2009 (#09000532)",
        "Location": "Address restricted[10]",
        "City or town": "Brothers",
        "Description": ""
    },
    {
        "[5]": "31",
        "Name on the Register": "George Palmer and Dorothy Binney Putnam House",
        "Image": "",
        "Date listed[6]": "May 29, 1998 (#98000607)",
        "Location": "606 NW Congress Street 44A'Adeg03AC/EURA228AC/EURA3N 121A'Adeg19AC/EURA206AC/EURA3WA-A>>A? \\/ A-A>>A?44.05784167A'AdegN 121.3184083A'AdegW",
        "City or town": "Bend",
        "Description": ""
    },
    {
        "[5]": "32",
        "Name on the Register": "Reid School",
        "Image": "",
        "Date listed[6]": "October 16, 1979 (#79002053)",
        "Location": "460 NW Wall Street 44A'Adeg03AC/EURA219AC/EURA3N 121A'Adeg19AC/EURA202AC/EURA3WA-A>>A? \\/ A-A>>A?44.05533611A'AdegN 121.3171A'AdegW",
        "City or town": "Bend",
        "Description": ""
    },
    {
        "[5]": "33",
        "Name on the Register": "Rock O' the Range Bridge",
        "Image": "",
        "Date listed[6]": "November 29, 1979 (#79002054)",
        "Location": "North of Bend 44A'Adeg07AC/EURA223AC/EURA3N 121A'Adeg17AC/EURA207AC/EURA3WA-A>>A? \\/ A-A>>A?44.123056A'AdegN 121.285278A'AdegW",
        "City or town": "Bend",
        "Description": ""
    },
    {
        "[5]": "34",
        "Name on the Register": "Santiam Wagon Road",
        "Image": "More images",
        "Date listed[6]": "September 23, 2010 (#10000795)",
        "Location": "Willamette National Forest and Deschutes National Forest Coordinates missing",
        "City or town": "Cascadia and Sisters vicinity[11]",
        "Description": "Extends into Linn County."
    },
    {
        "[5]": "35",
        "Name on the Register": "Evan Andreas Sather House",
        "Image": "",
        "Date listed[6]": "June 27, 1997 (#97000577)",
        "Location": "7 NW Tumalo Avenue 44A'Adeg03AC/EURA222AC/EURA3N 121A'Adeg19AC/EURA208AC/EURA3WA-A>>A? \\/ A-A>>A?44.05614167A'AdegN 121.319A'AdegW",
        "City or town": "Bend",
        "Description": ""
    },
    {
        "[5]": "36",
        "Name on the Register": "Sisters High School",
        "Image": "",
        "Date listed[6]": "March 2, 2006 (#06000095)",
        "Location": "115 N. Locust Street 44A'Adeg17AC/EURA228AC/EURA3N 121A'Adeg32AC/EURA236AC/EURA3WA-A>>A? \\/ A-A>>A?44.291111A'AdegN 121.543333A'AdegW",
        "City or town": "Sisters",
        "Description": ""
    },
    {
        "[5]": "37",
        "Name on the Register": "N. P. Smith Pioneer Hardware Store",
        "Image": "",
        "Date listed[6]": "April 5, 1984 (#84002980)",
        "Location": "935AC/EUR\"937 NW Wall Street 44A'Adeg03AC/EURA234AC/EURA3N 121A'Adeg18AC/EURA250AC/EURA3WA-A>>A? \\/ A-A>>A?44.05944722A'AdegN 121.3139222A'AdegW",
        "City or town": "Bend",
        "Description": ""
    },
    {
        "[5]": "38",
        "Name on the Register": "B. A. and Ruth Stover House",
        "Image": "",
        "Date listed[6]": "February 20, 1992 (#92000061)",
        "Location": "1 NW Rocklyn Road 44A'Adeg03AC/EURA239AC/EURA3N 121A'Adeg19AC/EURA206AC/EURA3WA-A>>A? \\/ A-A>>A?44.06093333A'AdegN 121.3184139A'AdegW",
        "City or town": "Bend",
        "Description": ""
    },
    {
        "[5]": "39",
        "Name on the Register": "Trinity Episcopal Church",
        "Image": "",
        "Date listed[6]": "September 23, 1993 (#93000915)",
        "Location": "469 NW Wall Street 44A'Adeg03AC/EURA220AC/EURA3N 121A'Adeg19AC/EURA205AC/EURA3WA-A>>A? \\/ A-A>>A?44.05568333A'AdegN 121.3179333A'AdegW",
        "City or town": "Bend",
        "Description": ""
    },
    {
        "[5]": "40",
        "Name on the Register": "Emil and Ottilie Wienecke House",
        "Image": "",
        "Date listed[6]": "May 29, 2008 (#08000472)",
        "Location": "1325 NW Federal Street 44A'Adeg03AC/EURA241AC/EURA3N 121A'Adeg19AC/EURA231AC/EURA3WA-A>>A? \\/ A-A>>A?44.061478A'AdegN 121.325165A'AdegW",
        "City or town": "Bend",
        "Description": ""
    },
    {
        "[5]": "41",
        "Name on the Register": "William T. E. Wilson Homestead",
        "Image": "Upload image",
        "Date listed[6]": "March 5, 1998 (#98000205)",
        "Location": "70300 Camp Polk Road 44A'Adeg18AC/EURA216AC/EURA3N 121A'Adeg30AC/EURA208AC/EURA3WA-A>>A? \\/ A-A>>A?44.304444A'AdegN 121.502222A'AdegW",
        "City or town": "Sisters",
        "Description": ""
    }
]