[
    {
        "[5]": "1",
        "Name on the Register": "Brewton Historic Commercial District",
        "Image": "More images",
        "Date listed[6]": "March 15, 1982 (#82002013)",
        "Location": "U.S. Route 31 and State Route 3 31A'Adeg06AC/EURA215AC/EURA3N 87A'Adeg04AC/EURA219AC/EURA3WA-A>>A? \\/ A-A>>A?31.104152A'AdegN 87.07194A'AdegW",
        "City or town": "Brewton",
        "Description": ""
    },
    {
        "[5]": "2",
        "Name on the Register": "Commercial Hotel-Hart Hotel",
        "Image": "Upload image",
        "Date listed[6]": "May 22, 1986 (#86001160)",
        "Location": "120 Palafox St. 30A'Adeg59AC/EURA259AC/EURA3N 87A'Adeg15AC/EURA233AC/EURA3WA-A>>A? \\/ A-A>>A?30.999722A'AdegN 87.259167A'AdegW",
        "City or town": "Flomaton",
        "Description": "Demolished as of October 2014"
    }
]