[
    {
        "[5]": "1",
        "Name on the Register": "35-CU-215-High Point Shell Midden",
        "Image": "Upload image",
        "Date listed[6]": "March 6, 2001 (#01000135)",
        "Location": "Address restricted[7]",
        "City or town": "Carpenterville",
        "Description": ""
    },
    {
        "[5]": "2",
        "Name on the Register": "Arch Rock",
        "Image": "",
        "Date listed[6]": "September 10, 1997 (#97001058)",
        "Location": "Address restricted[7]",
        "City or town": "Carpenterville",
        "Description": ""
    },
    {
        "[5]": "3",
        "Name on the Register": "Archeological Site 35CU1",
        "Image": "Upload image",
        "Date listed[6]": "September 10, 1997 (#97001043)",
        "Location": "Address restricted[7]",
        "City or town": "Sixes",
        "Description": ""
    },
    {
        "[5]": "4",
        "Name on the Register": "Archeological Site 35CU13",
        "Image": "Upload image",
        "Date listed[6]": "September 10, 1997 (#97001045)",
        "Location": "Address restricted[7]",
        "City or town": "Port Orford",
        "Description": ""
    },
    {
        "[5]": "5",
        "Name on the Register": "Archeological Site 35CU14",
        "Image": "Upload image",
        "Date listed[6]": "September 10, 1997 (#97001046)",
        "Location": "Address restricted[7]",
        "City or town": "Port Orford",
        "Description": ""
    },
    {
        "[5]": "6",
        "Name on the Register": "Archeological Site 35CU142",
        "Image": "Upload image",
        "Date listed[6]": "September 10, 1997 (#97001050)",
        "Location": "Address restricted[7]",
        "City or town": "Port Orford",
        "Description": ""
    },
    {
        "[5]": "7",
        "Name on the Register": "Archeological Site 35CU153",
        "Image": "Upload image",
        "Date listed[6]": "September 10, 1997 (#97001049)",
        "Location": "Address restricted[7]",
        "City or town": "Port Orford",
        "Description": ""
    },
    {
        "[5]": "8",
        "Name on the Register": "Archeological Site 35CU16",
        "Image": "Upload image",
        "Date listed[6]": "September 10, 1997 (#97001048)",
        "Location": "Address restricted[7]",
        "City or town": "Port Orford",
        "Description": ""
    },
    {
        "[5]": "9",
        "Name on the Register": "Archeological Site 35CU31",
        "Image": "Upload image",
        "Date listed[6]": "September 10, 1997 (#97001055)",
        "Location": "Address restricted[7]",
        "City or town": "Pistol River",
        "Description": ""
    },
    {
        "[5]": "10",
        "Name on the Register": "Archeological Site 35CU69",
        "Image": "Upload image",
        "Date listed[6]": "September 10, 1997 (#97001066)",
        "Location": "Address restricted[7]",
        "City or town": "Carpenterville",
        "Description": ""
    },
    {
        "[5]": "11",
        "Name on the Register": "Archeological Site 35CU79",
        "Image": "Upload image",
        "Date listed[6]": "September 10, 1997 (#97001070)",
        "Location": "Address restricted[7]",
        "City or town": "Brookings",
        "Description": ""
    },
    {
        "[5]": "12",
        "Name on the Register": "Archeological Site 35CU80",
        "Image": "Upload image",
        "Date listed[6]": "September 10, 1997 (#97001069)",
        "Location": "Address restricted[7]",
        "City or town": "Brookings",
        "Description": ""
    },
    {
        "[5]": "13",
        "Name on the Register": "Archeological Site 35CU83",
        "Image": "Upload image",
        "Date listed[6]": "September 10, 1997 (#97001042)",
        "Location": "Address restricted[7]",
        "City or town": "Sixes",
        "Description": ""
    },
    {
        "[5]": "14",
        "Name on the Register": "Blacklock Point Lithic Site",
        "Image": "Upload image",
        "Date listed[6]": "August 5, 1994 (#94000805)",
        "Location": "Address restricted[7]",
        "City or town": "Port Orford",
        "Description": ""
    },
    {
        "[5]": "15",
        "Name on the Register": "Blacklock Point Shell Midden",
        "Image": "Upload image",
        "Date listed[6]": "August 5, 1994 (#94000804)",
        "Location": "Address restricted[7]",
        "City or town": "Port Orford",
        "Description": ""
    },
    {
        "[5]": "16",
        "Name on the Register": "Cape Blanco Lighthouse",
        "Image": "",
        "Date listed[6]": "April 21, 1993 (#73002339)",
        "Location": "Westernmost part of Cape Blanco, W of Sixes 42A'Adeg50AC/EURA214AC/EURA3N 124A'Adeg33AC/EURA244AC/EURA3WA-A>>A? \\/ A-A>>A?42.837222A'AdegN 124.562222A'AdegW",
        "City or town": "Sixes",
        "Description": ""
    },
    {
        "[5]": "17",
        "Name on the Register": "Cape Blanco Lithic Site",
        "Image": "Upload image",
        "Date listed[6]": "June 4, 1992 (#92000667)",
        "Location": "Address restricted[7]",
        "City or town": "Port Orford",
        "Description": ""
    },
    {
        "[5]": "18",
        "Name on the Register": "Central Building",
        "Image": "",
        "Date listed[6]": "April 1, 1980 (#80003309)",
        "Location": "703 Chetco Ave. 42A'Adeg03AC/EURA206AC/EURA3N 124A'Adeg16AC/EURA255AC/EURA3WA-A>>A? \\/ A-A>>A?42.051667A'AdegN 124.281944A'AdegW",
        "City or town": "Brookings",
        "Description": "Built in 1915 by the C&O Lumber Company, the Central Building served as administration building for the Brookings Land & Townsite Co. in the mill town of Brookings."
    },
    {
        "[5]": "19",
        "Name on the Register": "Eagle Rock",
        "Image": "Upload image",
        "Date listed[6]": "September 10, 1997 (#97001054)",
        "Location": "Address restricted[7]",
        "City or town": "Pistol River",
        "Description": ""
    },
    {
        "[5]": "20",
        "Name on the Register": "Gold Beach Ranger Station",
        "Image": "",
        "Date listed[6]": "April 8, 1986 (#86000818)",
        "Location": "29279 Ellensburg Avenue 42A'Adeg24AC/EURA207AC/EURA3N 124A'Adeg25AC/EURA208AC/EURA3WA-A>>A? \\/ A-A>>A?42.401944A'AdegN 124.418889A'AdegW",
        "City or town": "Gold Beach",
        "Description": "The Cascadian Rustic buildings of the Gold Beach Ranger Station were built in 1936 by a Civilian Conservation Corps crew from Gasquet, California."
    },
    {
        "[5]": "21",
        "Name on the Register": "Harris Park Mound",
        "Image": "Upload image",
        "Date listed[6]": "September 10, 1997 (#97001068)",
        "Location": "Address restricted[7]",
        "City or town": "Brookings",
        "Description": ""
    },
    {
        "[5]": "22",
        "Name on the Register": "Patrick Hughes House",
        "Image": "",
        "Date listed[6]": "November 28, 1980 (#80003310)",
        "Location": "Cape Blanco State Park 42A'Adeg50AC/EURA233AC/EURA3N 124A'Adeg32AC/EURA213AC/EURA3WA-A>>A? \\/ A-A>>A?42.8425A'AdegN 124.536944A'AdegW",
        "City or town": "Sixes",
        "Description": "The Hughes House, which combines elements of the Queen Anne and Stick-Eastlake architectural styles, was designed by P.J. Lindberg and built in 1898."
    },
    {
        "[5]": "23",
        "Name on the Register": "Mary D. Hume",
        "Image": "",
        "Date listed[6]": "August 1, 1979 (#79002052)",
        "Location": "Port of Gold Beach 42A'Adeg25AC/EURA218AC/EURA3N 124A'Adeg25AC/EURA206AC/EURA3WA-A>>A? \\/ A-A>>A?42.421667A'AdegN 124.418333A'AdegW",
        "City or town": "Gold Beach",
        "Description": "Steamer built in 1880 in Gold Beach, wrecked at Gold Beach"
    },
    {
        "[5]": "24",
        "Name on the Register": "Indian Sands",
        "Image": "Upload image",
        "Date listed[6]": "September 10, 1997 (#97001061)",
        "Location": "Address restricted[7]",
        "City or town": "Carpenterville",
        "Description": ""
    },
    {
        "[5]": "25",
        "Name on the Register": "Indian Sands",
        "Image": "Upload image",
        "Date listed[6]": "June 4, 1992 (#92000668)",
        "Location": "Address restricted[7]",
        "City or town": "Brookings",
        "Description": ""
    },
    {
        "[5]": "26",
        "Name on the Register": "Khustenete-Hustenate-Xusteneten",
        "Image": "Upload image",
        "Date listed[6]": "September 10, 1997 (#97001057)",
        "Location": "Address restricted[7]",
        "City or town": "Carpenterville",
        "Description": ""
    },
    {
        "[5]": "27",
        "Name on the Register": "Peter John Lindberg House",
        "Image": "",
        "Date listed[6]": "January 7, 2015 (#14001131)",
        "Location": "906 N. Washington Street 42A'Adeg44AC/EURA246AC/EURA3N 124A'Adeg29AC/EURA244AC/EURA3WA-A>>A? \\/ A-A>>A?42.746038A'AdegN 124.495638A'AdegW",
        "City or town": "Port Orford",
        "Description": ""
    },
    {
        "[5]": "28",
        "Name on the Register": "Little Ridge-Cape Sebastian (35CU77)",
        "Image": "Upload image",
        "Date listed[6]": "September 10, 1997 (#97001051)",
        "Location": "Address restricted[7]",
        "City or town": "Pistol River",
        "Description": ""
    },
    {
        "[5]": "29",
        "Name on the Register": "Little Ridge-Cape Sebastian (35CU78)",
        "Image": "Upload image",
        "Date listed[6]": "September 10, 1997 (#97001052)",
        "Location": "Address restricted[7]",
        "City or town": "Pistol River",
        "Description": ""
    },
    {
        "[5]": "30",
        "Name on the Register": "Lone Ranch Creek Mound",
        "Image": "Upload image",
        "Date listed[6]": "September 10, 1997 (#97001067)",
        "Location": "Address restricted[7]",
        "City or town": "Brookings",
        "Description": ""
    },
    {
        "[5]": "31",
        "Name on the Register": "Miller Creek",
        "Image": "Upload image",
        "Date listed[6]": "September 10, 1997 (#97001059)",
        "Location": "Address restricted[7]",
        "City or town": "Carpenterville",
        "Description": "Also known as the Miller Shell Midden."
    },
    {
        "[5]": "32",
        "Name on the Register": "Newburgh Lithic Site (35CU209)",
        "Image": "Upload image",
        "Date listed[6]": "September 10, 1997 (#97001041)",
        "Location": "Address restricted[7]",
        "City or town": "Sixes",
        "Description": ""
    },
    {
        "[5]": "33",
        "Name on the Register": "Pistol River Site-Chetlessentan-Chetleshin-Chet-less-chun-dunn",
        "Image": "",
        "Date listed[6]": "September 10, 1997 (#97001053)",
        "Location": "Atop bluffs immediately north of the mouth of the Pistol River[8]:322 42A'Adeg16AC/EURA252AC/EURA3N 124A'Adeg24AC/EURA205AC/EURA3WA-A>>A? \\/ A-A>>A?42.281111A'AdegN 124.401389A'AdegW",
        "City or town": "Pistol River",
        "Description": ""
    },
    {
        "[5]": "34",
        "Name on the Register": "Port Orford Coast Guard Station",
        "Image": "More images",
        "Date listed[6]": "May 29, 1998 (#98000606)",
        "Location": "92331 Coast Guard Hill Rd. 42A'Adeg44AC/EURA223AC/EURA3N 124A'Adeg30AC/EURA233AC/EURA3WA-A>>A? \\/ A-A>>A?42.739722A'AdegN 124.509167A'AdegW",
        "City or town": "Port Orford",
        "Description": ""
    },
    {
        "[5]": "35",
        "Name on the Register": "Port Orford Site",
        "Image": "Upload image",
        "Date listed[6]": "September 10, 1997 (#97001044)",
        "Location": "Address restricted[7]",
        "City or town": "Port Orford",
        "Description": ""
    },
    {
        "[5]": "36",
        "Name on the Register": "Rogue River Bridge No. 01172",
        "Image": "",
        "Date listed[6]": "August 5, 2005 (#05000814)",
        "Location": "OR Coast 9, US 101, MP 327.70 42A'Adeg25AC/EURA239AC/EURA3N 124A'Adeg24AC/EURA244AC/EURA3WA-A>>A? \\/ A-A>>A?42.4275A'AdegN 124.412222A'AdegW",
        "City or town": "Gold Beach",
        "Description": "Also known as the Isaac Lee Patterson Bridge."
    },
    {
        "[5]": "37",
        "Name on the Register": "Rogue River Ranch",
        "Image": "More images",
        "Date listed[6]": "December 29, 1975 (#75001581)",
        "Location": "E of Agness near confluence of Mule Creek and Rogue River 42A'Adeg43AC/EURA206AC/EURA3N 123A'Adeg52AC/EURA253AC/EURA3WA-A>>A? \\/ A-A>>A?42.718333A'AdegN 123.881389A'AdegW",
        "City or town": "Agness",
        "Description": ""
    },
    {
        "[5]": "38",
        "Name on the Register": "Sheep Trail Shell Midden (35CU32)",
        "Image": "Upload image",
        "Date listed[6]": "September 10, 1997 (#97001056)",
        "Location": "Address restricted[7]",
        "City or town": "Carpenterville",
        "Description": ""
    },
    {
        "[5]": "39",
        "Name on the Register": "Sixes Hotel",
        "Image": "",
        "Date listed[6]": "October 22, 1992 (#92001325)",
        "Location": "93316 Sixes River Rd. 42A'Adeg49AC/EURA203AC/EURA3N 124A'Adeg28AC/EURA245AC/EURA3WA-A>>A? \\/ A-A>>A?42.8175A'AdegN 124.479167A'AdegW",
        "City or town": "Sixes",
        "Description": ""
    },
    {
        "[5]": "40",
        "Name on the Register": "Thunder Rock",
        "Image": "Upload image",
        "Date listed[6]": "September 10, 1997 (#97001060)",
        "Location": "Address restricted[7]",
        "City or town": "Carpenterville",
        "Description": ""
    },
    {
        "[5]": "41",
        "Name on the Register": "Whale Head",
        "Image": "",
        "Date listed[6]": "September 10, 1997 (#97001062)",
        "Location": "Address restricted[7]",
        "City or town": "Carpenterville",
        "Description": ""
    },
    {
        "[5]": "42",
        "Name on the Register": "Whaleshead Lithic Site (35CU207)",
        "Image": "Upload image",
        "Date listed[6]": "September 10, 1997 (#97001064)",
        "Location": "Address restricted[7]",
        "City or town": "Carpenterville",
        "Description": ""
    },
    {
        "[5]": "43",
        "Name on the Register": "Whaleshead South Midden (35CU208)",
        "Image": "Upload image",
        "Date listed[6]": "September 10, 1997 (#97001063)",
        "Location": "Address restricted[7]",
        "City or town": "Carpenterville",
        "Description": ""
    },
    {
        "[5]": "44",
        "Name on the Register": "Whaleshead Trail Viewpoint (35CU36)",
        "Image": "",
        "Date listed[6]": "September 10, 1997 (#97001065)",
        "Location": "Address restricted[7]",
        "City or town": "Carpenterville",
        "Description": ""
    },
    {
        "[5]": "45",
        "Name on the Register": "Wheeler Ridge Japanese Bombing Site",
        "Image": "",
        "Date listed[6]": "July 6, 2006 (#06000589)",
        "Location": "Rogue River-Siskiyou National Forest 42A'Adeg04AC/EURA242AC/EURA3N 124A'Adeg06AC/EURA240AC/EURA3WA-A>>A? \\/ A-A>>A?42.078333A'AdegN 124.111111A'AdegW",
        "City or town": "Brookings",
        "Description": "Site of first bombing in the United States by airplane"
    }
]