[
    {
        "Title": "To All Gentleness: William Carlos Williams, the Doctor Poet",
        "Year": "1984",
        "Publisher": "Atheneum Books",
        "Subject matter": "William Carlos Williams"
    },
    {
        "Title": "Man Ray: American Artist (Baldwin used this book in writing the screenplay for the PBS American Masters documentary Man Ray: Prophet of the Avant-Garde.)",
        "Year": "1988",
        "Publisher": "Clarkson Potter",
        "Subject matter": "Man Ray"
    },
    {
        "Title": "Edison: Inventing the Century",
        "Year": "1995",
        "Publisher": "Hyperion Books",
        "Subject matter": "Thomas Edison"
    },
    {
        "Title": "Legends of the Plumed Serpent: Biography of a Mexican God",
        "Year": "1998",
        "Publisher": "PublicAffairs",
        "Subject matter": "Quetzalcoatl"
    },
    {
        "Title": "Henry Ford and the Jews: The Mass Production of Hate",
        "Year": "2001",
        "Publisher": "PublicAffairs",
        "Subject matter": "Henry Ford, The International Jew, The Dearborn Independent"
    },
    {
        "Title": "The American Revelation: Ten Ideals That Shaped Our Country From the Puritans to the Cold War",
        "Year": "2006",
        "Publisher": "St. Martin's Press",
        "Subject matter": "John Winthrop; The Massachusetts Bay Company"
    },
    {
        "Title": "The American Revelation: Ten Ideals That Shaped Our Country From the Puritans to the Cold War",
        "Year": "2006",
        "Publisher": "St. Martin's Press",
        "Subject matter": "Thomas Paine; Common Sense"
    },
    {
        "Title": "The American Revelation: Ten Ideals That Shaped Our Country From the Puritans to the Cold War",
        "Year": "2006",
        "Publisher": "St. Martin's Press",
        "Subject matter": "Pierre Eugene du Simitiere; E pluribus unum"
    },
    {
        "Title": "The American Revelation: Ten Ideals That Shaped Our Country From the Puritans to the Cold War",
        "Year": "2006",
        "Publisher": "St. Martin's Press",
        "Subject matter": "Ralph Waldo Emerson; Self-Reliance"
    },
    {
        "Title": "The American Revelation: Ten Ideals That Shaped Our Country From the Puritans to the Cold War",
        "Year": "2006",
        "Publisher": "St. Martin's Press",
        "Subject matter": "John L. O'Sullivan; Manifest destiny"
    },
    {
        "Title": "The American Revelation: Ten Ideals That Shaped Our Country From the Puritans to the Cold War",
        "Year": "2006",
        "Publisher": "St. Martin's Press",
        "Subject matter": "Henry George; Progress and Poverty"
    },
    {
        "Title": "The American Revelation: Ten Ideals That Shaped Our Country From the Puritans to the Cold War",
        "Year": "2006",
        "Publisher": "St. Martin's Press",
        "Subject matter": "Jane Addams; Hull House"
    },
    {
        "Title": "The American Revelation: Ten Ideals That Shaped Our Country From the Puritans to the Cold War",
        "Year": "2006",
        "Publisher": "St. Martin's Press",
        "Subject matter": "Israel Zangwill; The Melting Pot"
    },
    {
        "Title": "The American Revelation: Ten Ideals That Shaped Our Country From the Puritans to the Cold War",
        "Year": "2006",
        "Publisher": "St. Martin's Press",
        "Subject matter": "Carter G. Woodson; Association for the Study of African American Life and History"
    },
    {
        "Title": "The American Revelation: Ten Ideals That Shaped Our Country From the Puritans to the Cold War",
        "Year": "2006",
        "Publisher": "St. Martin's Press",
        "Subject matter": "George Marshall; The Marshall Plan"
    }
]