[
    {
        "Pentathlete": "Pentathlete",
        "Event": "Event",
        "Final": "Final",
        "NO-HEADER3": ""
    },
    {
        "Pentathlete": "Pentathlete",
        "Event": "Event",
        "Final": "Score",
        "NO-HEADER3": "Rank"
    },
    {
        "Pentathlete": "Barent Momma",
        "Event": "Individual",
        "Final": "130.5",
        "NO-HEADER3": "31"
    },
    {
        "Pentathlete": "Carolus Stoffels",
        "Event": "Individual",
        "Final": "102.5",
        "NO-HEADER3": "22"
    },
    {
        "Pentathlete": "Christiaan Tonnet",
        "Event": "Individual",
        "Final": "65.5",
        "NO-HEADER3": "8"
    },
    {
        "Pentathlete": "Karel van den Brandeler",
        "Event": "Individual",
        "Final": "113.5",
        "NO-HEADER3": "27"
    }
]