[
    {
        "Name": "Jeffrey Hoogland",
        "Event": "Men's sprint",
        "Result": "9.692 (Q),",
        "Rank": "4"
    },
    {
        "Name": "Hugo Haak",
        "Event": "Men's sprint",
        "Result": "10.088",
        "Rank": "29"
    },
    {
        "Name": "Hugo Haak",
        "Event": "Men's 1 km time trial",
        "Result": "1:02.230",
        "Rank": "16"
    },
    {
        "Name": "Tim Veldt",
        "Event": "Men's scratch",
        "Result": "N\\/A",
        "Rank": "15"
    },
    {
        "Name": "Wim Stroetinga",
        "Event": "Men's points race",
        "Result": "5 points",
        "Rank": "15"
    },
    {
        "Name": "Tim Veldt",
        "Event": "Men's omnium",
        "Result": "139 points",
        "Rank": "10"
    },
    {
        "Name": "Matthijs Buchli",
        "Event": "Men's keirin",
        "Result": "",
        "Rank": "9"
    },
    {
        "Name": "Tim Veldt Wim Stroetinga Dion Beukeboom Roy Eefting",
        "Event": "Men's team pursuit",
        "Result": "3:59.520 (q),",
        "Rank": "8"
    },
    {
        "Name": "Matthijs Buchli Hugo Haak Jeffrey Hoogland",
        "Event": "Men's team sprint",
        "Result": "43.326",
        "Rank": "5"
    }
]