[
    {
        "Year": "1940",
        "Winner": "The Grapes of Wrath",
        "Director(s)": "John Ford"
    },
    {
        "Year": "1941",
        "Winner": "Citizen Kane",
        "Director(s)": "Orson Welles"
    },
    {
        "Year": "1942",
        "Winner": "In Which We Serve",
        "Director(s)": "Noel Coward and David Lean"
    },
    {
        "Year": "1943",
        "Winner": "Watch on the Rhine",
        "Director(s)": "Herman Shumlin"
    },
    {
        "Year": "1944",
        "Winner": "Going My Way *",
        "Director(s)": "Leo McCarey"
    },
    {
        "Year": "1945",
        "Winner": "The Lost Weekend *",
        "Director(s)": "Billy Wilder"
    },
    {
        "Year": "1946",
        "Winner": "The Best Years of Our Lives *",
        "Director(s)": "William Wyler"
    },
    {
        "Year": "1947",
        "Winner": "Gentleman's Agreement *",
        "Director(s)": "Elia Kazan"
    },
    {
        "Year": "1948",
        "Winner": "The Treasure of the Sierra Madre",
        "Director(s)": "John Huston"
    },
    {
        "Year": "1949",
        "Winner": "All the King's Men *",
        "Director(s)": "Robert Rossen"
    }
]