[
    {
        "Club": "Club",
        "Season": "Season",
        "Division": "Division",
        "League": "League",
        "Cup": "Cup",
        "Total": "Total",
        "NO-HEADER6": "",
        "NO-HEADER7": "",
        "NO-HEADER8": ""
    },
    {
        "Club": "Club",
        "Season": "Season",
        "Division": "Division",
        "League": "Apps",
        "Cup": "Goals",
        "Total": "Apps",
        "NO-HEADER6": "Goals",
        "NO-HEADER7": "Apps",
        "NO-HEADER8": "Goals"
    },
    {
        "Club": "2012",
        "Season": "Valerenga",
        "Division": "Tippeligaen",
        "League": "5",
        "Cup": "0",
        "Total": "3",
        "NO-HEADER6": "0",
        "NO-HEADER7": "8",
        "NO-HEADER8": "0"
    },
    {
        "Club": "2013",
        "Season": "Stabaek",
        "Division": "Adeccoligaen",
        "League": "21",
        "Cup": "0",
        "Total": "3",
        "NO-HEADER6": "0",
        "NO-HEADER7": "24",
        "NO-HEADER8": "0"
    },
    {
        "Club": "2014",
        "Season": "Stabaek",
        "Division": "Tippeligaen",
        "League": "24",
        "Cup": "1",
        "Total": "5",
        "NO-HEADER6": "0",
        "NO-HEADER7": "29",
        "NO-HEADER8": "1"
    },
    {
        "Club": "2015",
        "Season": "Stabaek",
        "Division": "Tippeligaen",
        "League": "28",
        "Cup": "1",
        "Total": "5",
        "NO-HEADER6": "1",
        "NO-HEADER7": "33",
        "NO-HEADER8": "2"
    },
    {
        "Club": "Career Total",
        "Season": "78",
        "Division": "2",
        "League": "16",
        "Cup": "1",
        "Total": "94",
        "NO-HEADER6": "3",
        "NO-HEADER7": "",
        "NO-HEADER8": ""
    }
]