[
    {
        "#": "1",
        "Date": "14 October 1973",
        "Venue": "August 23 Stadium, Bucharest, Romania",
        "Opponent": "Finland",
        "Score": "9-0",
        "Result": "Win",
        "Competition": "FIFA World Cup 1974 qualifying"
    }
]