[
    {
        "Super Bowl": "XLVI",
        "Player": "Hakeem Nicks",
        "Position": "WR",
        "Team": "New York Giants"
    },
    {
        "Super Bowl": "XLVI",
        "Player": "Marvin Austin",
        "Position": "DT",
        "Team": "New York Giants"
    },
    {
        "Super Bowl": "XLIII",
        "Player": "Willie Parker",
        "Position": "RB",
        "Team": "Pittsburgh Steelers"
    },
    {
        "Super Bowl": "XLIII",
        "Player": "Jeff Reed",
        "Position": "K",
        "Team": "Pittsburgh Steelers"
    },
    {
        "Super Bowl": "XLIII",
        "Player": "Greg Warren",
        "Position": "LS",
        "Team": "Pittsburgh Steelers"
    },
    {
        "Super Bowl": "XLII",
        "Player": "Russell Davis",
        "Position": "DT",
        "Team": "New York Giants"
    },
    {
        "Super Bowl": "XLII",
        "Player": "Madison Hedgecock",
        "Position": "FB",
        "Team": "New York Giants"
    },
    {
        "Super Bowl": "XLI",
        "Player": "Dexter Reid",
        "Position": "S",
        "Team": "Indianapolis Colts"
    },
    {
        "Super Bowl": "XLI",
        "Player": "Jeff Saturday",
        "Position": "C",
        "Team": "Indianapolis Colts"
    },
    {
        "Super Bowl": "XL",
        "Player": "Willie Parker",
        "Position": "RB",
        "Team": "Pittsburgh Steelers"
    },
    {
        "Super Bowl": "XL",
        "Player": "Jeff Reed",
        "Position": "K",
        "Team": "Pittsburgh Steelers"
    },
    {
        "Super Bowl": "XL",
        "Player": "Greg Warren",
        "Position": "LS",
        "Team": "Pittsburgh Steelers"
    },
    {
        "Super Bowl": "XXXIX",
        "Player": "Dexter Reid",
        "Position": "S",
        "Team": "New England Patriots"
    },
    {
        "Super Bowl": "XXVI",
        "Player": "Riddick Parker",
        "Position": "DL",
        "Team": "New England Patriots"
    },
    {
        "Super Bowl": "XXXIV",
        "Player": "Dre Bly",
        "Position": "CB",
        "Team": "St. Louis Rams"
    },
    {
        "Super Bowl": "XXXIV",
        "Player": "Mike Morton",
        "Position": "LB",
        "Team": "St. Louis Rams"
    },
    {
        "Super Bowl": "XXXIV",
        "Player": "Nate Hobgood-Chittick",
        "Position": "DT",
        "Team": "St. Louis Rams"
    },
    {
        "Super Bowl": "XXXI",
        "Player": "Bucky Brooks",
        "Position": "DB",
        "Team": "Green Bay Packers"
    },
    {
        "Super Bowl": "XXXI",
        "Player": "Bernardo Harris",
        "Position": "LB",
        "Team": "Green Bay Packers"
    },
    {
        "Super Bowl": "XXXI",
        "Player": "William Henderson",
        "Position": "FB",
        "Team": "Green Bay Packers"
    },
    {
        "Super Bowl": "XXX",
        "Player": "Oscar Sturgis",
        "Position": "DE",
        "Team": "Dallas Cowboys"
    },
    {
        "Super Bowl": "XXIX",
        "Player": "Harris Barton",
        "Position": "OL",
        "Team": "San Francisco 49ers"
    },
    {
        "Super Bowl": "XXIX",
        "Player": "Brian Bollinger",
        "Position": "OL",
        "Team": "San Francisco 49ers"
    },
    {
        "Super Bowl": "XXIX",
        "Player": "Antonio Goss",
        "Position": "LB",
        "Team": "San Francisco 49ers"
    },
    {
        "Super Bowl": "XXV",
        "Player": "Lawrence Taylor",
        "Position": "LB",
        "Team": "New York Giants"
    },
    {
        "Super Bowl": "XXIV",
        "Player": "Harris Barton",
        "Position": "OL",
        "Team": "San Francisco 49ers"
    },
    {
        "Super Bowl": "XXIV",
        "Player": "Antonio Goss",
        "Position": "LB",
        "Team": "San Francisco 49ers"
    },
    {
        "Super Bowl": "XXIII",
        "Player": "Harris Barton",
        "Position": "OL",
        "Team": "San Francisco 49ers"
    },
    {
        "Super Bowl": "XXII",
        "Player": "Kelvin Bryant",
        "Position": "RB",
        "Team": "Washington Redskins"
    },
    {
        "Super Bowl": "XXII",
        "Player": "Dave Truitt",
        "Position": "TE",
        "Team": "Washington Redskins"
    },
    {
        "Super Bowl": "XXII",
        "Player": "Tim Morrison",
        "Position": "DB",
        "Team": "Washington Redskins"
    },
    {
        "Super Bowl": "XXII",
        "Player": "Danny Burmeister",
        "Position": "DB",
        "Team": "Washington Redskins"
    },
    {
        "Super Bowl": "XXI",
        "Player": "Lawrence Taylor",
        "Position": "LB",
        "Team": "New York Giants"
    },
    {
        "Super Bowl": "XXI",
        "Player": "Brian Johnston",
        "Position": "C",
        "Team": "New York Giants"
    },
    {
        "Super Bowl": "XVII",
        "Player": "Jeff Hayes",
        "Position": "P",
        "Team": "Washington Redskins"
    },
    {
        "Super Bowl": "XVI",
        "Player": "Amos Lawrence",
        "Position": "RB",
        "Team": "San Francisco 49ers"
    }
]