[
    {
        "No.": "1",
        "Name": "Lieutenant General Nalin Seneviratne",
        "Took Office": "30 November 1988",
        "Left Office": "30 November 1993"
    },
    {
        "No.": "2",
        "Name": "Lionel Fernando",
        "Took Office": "30 November 1993",
        "Left Office": "23 August 1994"
    },
    {
        "No.": "3",
        "Name": "Gamini Fonseka",
        "Took Office": "13 January 1995",
        "Left Office": "20 October 1998"
    },
    {
        "No.": "4",
        "Name": "Major General Ashoka Jayawardene",
        "Took Office": "13 November 1998",
        "Left Office": "30 November 2004"
    },
    {
        "No.": "5",
        "Name": "Tyronne Fernando",
        "Took Office": "6 December 2004",
        "Left Office": "20 January 2006"
    },
    {
        "No.": "6",
        "Name": "Rear Admiral Mohan Wijeyawickrema",
        "Took Office": "21 January 2006",
        "Left Office": "31 December 2006"
    }
]