[
    {
        "Athlete": "Hege Bokko",
        "1st 500m": "39.68 (23)",
        "1st 1000m": "1:18.21 (12)",
        "2nd 500m": "39.94 (25)",
        "2nd 1000m": "1:18.24 (12)",
        "Points": "157.845",
        "Rank": "18"
    }
]