[
    {
        "Year": "1976",
        "Film": "X",
        "Female Singer": "X",
        "Film 3": "Sindura Bindu",
        "Male Singer": "Pranab Patnaik"
    },
    {
        "Year": "1977",
        "Film": "X",
        "Female Singer": "X",
        "Film 3": "Mukti",
        "Male Singer": "Raghunath Panigrahi"
    },
    {
        "Year": "1978",
        "Film": "Taapoi",
        "Female Singer": "Trupti Das",
        "Film 3": "Balidan",
        "Male Singer": "Prafula Kar"
    },
    {
        "Year": "1979",
        "Film": "Srikrushna Rasalila",
        "Female Singer": "Bhubaneswari Mishra",
        "Film 3": "Mathura Bijay",
        "Male Singer": "Bhikari Bal"
    },
    {
        "Year": "1980",
        "Film": "Jay Ma Mangala",
        "Female Singer": "Bhubaneswari Mishra",
        "Film 3": "Kie Jite Kie Hare",
        "Male Singer": "Akshaya Mohanty"
    },
    {
        "Year": "1981",
        "Film": "Devajani",
        "Female Singer": "Vani Jairam",
        "Film 3": "Tike Hasa Tike Luha",
        "Male Singer": "Bhikari Bal"
    },
    {
        "Year": "1982",
        "Film": "Asanta Graha",
        "Female Singer": "Geeta Patanaik",
        "Film 3": "Astaraga",
        "Male Singer": "Pranab Patnaik"
    },
    {
        "Year": "1983",
        "Film": "Dhare Aalua",
        "Female Singer": "Indrani Mishra",
        "Film 3": "Jhiati Sita Pari",
        "Male Singer": "Pranab Patnaik"
    },
    {
        "Year": "1984",
        "Film": "Jaga Balia",
        "Female Singer": "Trupti Das",
        "Film 3": "Jaiphula",
        "Male Singer": "Akshaya Mohanty"
    },
    {
        "Year": "1985",
        "Film": "Gruhalakshmi",
        "Female Singer": "Gita Das",
        "Film 3": "School Master",
        "Male Singer": "Ajaya Chakrabarty"
    },
    {
        "Year": "1986",
        "Film": "Sata kebe Luchi Rahena",
        "Female Singer": "S. Janaki",
        "Film 3": "Ei Aama Sansar",
        "Male Singer": "Akshaya Mohanty"
    },
    {
        "Year": "1987",
        "Film": "Tunda Baida",
        "Female Singer": "Anuradha Paudwal",
        "Film 3": "Badhu Nirupama",
        "Male Singer": "Akshaya Mohanty"
    },
    {
        "Year": "1988",
        "Film": "Jahaku Rakhibe Ananta",
        "Female Singer": "Trupti Das",
        "Film 3": "Kanyadaan",
        "Male Singer": "Pranab Patnaik"
    },
    {
        "Year": "1989",
        "Film": "Sasti",
        "Female Singer": "Trupti Das",
        "Film 3": "Pratisosh Aparadh Nehen",
        "Male Singer": "Pranab Pattnaik"
    },
    {
        "Year": "1990",
        "Film": "Daiba Daudi",
        "Female Singer": "Geeta Das",
        "Film 3": "Daiba Daudi",
        "Male Singer": "Subas Das"
    },
    {
        "Year": "1991",
        "Film": "Ama Ghar Ama Sansar",
        "Female Singer": "Lopita Mishra",
        "Film 3": "Kotia Manisha Gotia Jaga",
        "Male Singer": "Debasis Mohapatra"
    },
    {
        "Year": "1992",
        "Film": "Mukti Tirtha",
        "Female Singer": "Lopita Mishra",
        "Film 3": "Mukti Tirtha",
        "Male Singer": "Debasis Mohapatra"
    },
    {
        "Year": "1993",
        "Film": "Mo Kanhu Re",
        "Female Singer": "K. S. Chithra",
        "Film 3": "Asha",
        "Male Singer": "Pranab Pattnaik"
    },
    {
        "Year": "1994",
        "Film": "Sagar Ganga",
        "Female Singer": "Sadhna Sargam",
        "Film 3": "Akuha Katha",
        "Male Singer": "Kumar Sanu"
    },
    {
        "Year": "1995",
        "Film": "Sakala Tirtha To Charana",
        "Female Singer": "Geeta Das & Sangita & Schitra",
        "Film 3": "X",
        "Male Singer": "X"
    },
    {
        "Year": "1996",
        "Film": "X",
        "Female Singer": "X",
        "Film 3": "Raghu Arakhita",
        "Male Singer": "Akshaya Mohanty"
    },
    {
        "Year": "1997",
        "Film": "Khandaei Akhi Re Luha",
        "Female Singer": "Anuradha Paudwal",
        "Film 3": "Jibana Sathi",
        "Male Singer": "Chandra Sekhara"
    },
    {
        "Year": "1998",
        "Film": "Sata Michha",
        "Female Singer": "Gita Das",
        "Film 3": "Ram Laxman",
        "Male Singer": "Sonu Nigam"
    },
    {
        "Year": "1999",
        "Film": "Mana Rahi Gala Tumari Thare",
        "Female Singer": "Ira Mohanty",
        "Film 3": "Mana Rahi Gala Tumari Thare",
        "Male Singer": "Subash Das"
    },
    {
        "Year": "2000",
        "Film": "Gare Sindura Dhare Luha",
        "Female Singer": "Mitali Chinara",
        "Film 3": "Kasia Kapila",
        "Male Singer": "Rudra Mahanty"
    },
    {
        "Year": "2001",
        "Film": "Mo Kola To Jhulana",
        "Female Singer": "Ira Mohanty",
        "Film 3": "Mo Kola To Jhulana",
        "Male Singer": "T.Souri"
    },
    {
        "Year": "2002",
        "Film": "Rakhi Bandili Mo Rakhib Mana",
        "Female Singer": "Priti Nanda",
        "Film 3": "Rakhi Bandili Mo Rakhib Mana",
        "Male Singer": "Abhaya Mallia"
    },
    {
        "Year": "2003",
        "Film": "Rahichhi Rahibi Tori Pain",
        "Female Singer": "Priti Nanda",
        "Film 3": "Nari Akhi Re Nia",
        "Male Singer": "T.Souri"
    },
    {
        "Year": "2004",
        "Film": "Suna Sankhali",
        "Female Singer": "Shweta Mishra",
        "Film 3": "X",
        "Male Singer": "X"
    },
    {
        "Year": "2005",
        "Film": "Shaashu Ghara Chaalijibi",
        "Female Singer": "Tapu Misra",
        "Film 3": "Mo Mana Khali Tumari Pain",
        "Male Singer": "Saurabh Nayak"
    },
    {
        "Year": "2006",
        "Film": "Puja Pain Phulatie",
        "Female Singer": "Sreeja Panda",
        "Film 3": "Bhagya Chakra",
        "Male Singer": "Ratikant Satpathy"
    },
    {
        "Year": "2007",
        "Film": "Rakate Lekchi Naa",
        "Female Singer": "Sulagana Nanda",
        "Film 3": "Dhauli Express",
        "Male Singer": "Chitaranjan Tripathy"
    },
    {
        "Year": "2008",
        "Film": "Hasib Puni Mo Suna Sansar",
        "Female Singer": "Sailabhama Mahapatra",
        "Film 3": "Hasib Puni Mo Suna Sansar",
        "Male Singer": "Bibhu Kishore"
    },
    {
        "Year": "2009",
        "Film": "Suna Chadhei Mo Rupa Chadhei",
        "Female Singer": "Ira Mohanty",
        "Film 3": "Ulugulan",
        "Male Singer": "Pankaj Jal"
    },
    {
        "Year": "2010",
        "Film": "Megha Sabari Re Asiba Pheri",
        "Female Singer": "Ira Mohanty",
        "Film 3": "Prema Adhei Akhyara",
        "Male Singer": "Babushan"
    },
    {
        "Year": "2011",
        "Film": "Mote Bohu Kari Nei Jaa",
        "Female Singer": "Ira Mohanty",
        "Film 3": "Mu Premi Mu Pagala",
        "Male Singer": "Krishna Beura"
    },
    {
        "Year": "2012",
        "Film": "Tu Mo Suna Tu Mo Hira",
        "Female Singer": "Tapu Misra",
        "Film 3": "Love Master",
        "Male Singer": "Babushan"
    },
    {
        "Year": "2013",
        "Film": "Mu Raja Tu Rani",
        "Female Singer": "Ira Mohanty",
        "Film 3": "Rumku Jhumana",
        "Male Singer": "Ratikant Satpathy"
    },
    {
        "Year": "2013",
        "Film": "Ganja Ladhei",
        "Female Singer": "Tapu Misra",
        "Film 3": "Kidnap",
        "Male Singer": "Saurabh Nayak"
    }
]