[
    {
        "Date": "11 June 2012",
        "Time": "21.45",
        "Team": "Ukraine",
        "Result": "2-1",
        "Team 4": "Sweden",
        "Round": "Group D",
        "Spectators": "64,290"
    },
    {
        "Date": "15 June 2012",
        "Time": "22.00",
        "Team": "Sweden",
        "Result": "2-3",
        "Team 4": "England",
        "Round": "Group D",
        "Spectators": "64,640"
    },
    {
        "Date": "19 June 2012",
        "Time": "21.45",
        "Team": "Sweden",
        "Result": "2-0",
        "Team 4": "France",
        "Round": "Group D",
        "Spectators": "63,010"
    },
    {
        "Date": "24 June 2012",
        "Time": "21.45",
        "Team": "England",
        "Result": "0-0 (2-4 on pen.)",
        "Team 4": "Italy",
        "Round": "Quarterfinals",
        "Spectators": "64,340"
    },
    {
        "Date": "1 July 2012",
        "Time": "21.45",
        "Team": "Spain",
        "Result": "4-0",
        "Team 4": "Italy",
        "Round": "Final",
        "Spectators": "63,170"
    }
]