[
    {
        "Date of Release": "November 1989",
        "Title": "Teeth Of The Hydra",
        "Label": "Metal Blade"
    },
    {
        "Date of Release": "January 1998",
        "Title": "Battle Anthems",
        "Label": "Metal Invader"
    },
    {
        "Date of Release": "2010",
        "Title": "Blood - Steel - Vengeance",
        "Label": "KRP"
    },
    {
        "Date of Release": "May 15, 2012",
        "Title": "Into The Arena",
        "Label": "DSN Music"
    }
]