[
    {
        "State": "North of Babeldaob",
        "Capital": "",
        "Area (km2)": "",
        "Population (Census 2000)": ""
    },
    {
        "State": "Kayangel",
        "Capital": "Kayangel",
        "Area (km2)": "1",
        "Population (Census 2000)": "138"
    },
    {
        "State": "Babeldaob",
        "Capital": "",
        "Area (km2)": "",
        "Population (Census 2000)": ""
    },
    {
        "State": "Aimeliik",
        "Capital": "Mongami",
        "Area (km2)": "52",
        "Population (Census 2000)": "272"
    },
    {
        "State": "Airai",
        "Capital": "Ngetkib",
        "Area (km2)": "44",
        "Population (Census 2000)": "2 104"
    },
    {
        "State": "Melekeok",
        "Capital": "Melekeok",
        "Area (km2)": "28",
        "Population (Census 2000)": "239"
    },
    {
        "State": "Ngaraard",
        "Capital": "Ulimang",
        "Area (km2)": "36",
        "Population (Census 2000)": "638"
    },
    {
        "State": "Ngarchelong",
        "Capital": "Mengellang",
        "Area (km2)": "10",
        "Population (Census 2000)": "286"
    },
    {
        "State": "Ngardmau",
        "Capital": "Urdmang",
        "Area (km2)": "47",
        "Population (Census 2000)": "221"
    },
    {
        "State": "Ngaremlengui",
        "Capital": "Imeong",
        "Area (km2)": "65",
        "Population (Census 2000)": "367"
    },
    {
        "State": "Ngatpang",
        "Capital": "Ngereklmadel",
        "Area (km2)": "47",
        "Population (Census 2000)": "280"
    },
    {
        "State": "Ngchesar",
        "Capital": "Ngersuul",
        "Area (km2)": "41",
        "Population (Census 2000)": "267"
    },
    {
        "State": "Ngiwal",
        "Capital": "Ngerkeai",
        "Area (km2)": "26",
        "Population (Census 2000)": "193"
    },
    {
        "State": "Southwest of Babeldaob",
        "Capital": "",
        "Area (km2)": "",
        "Population (Census 2000)": ""
    },
    {
        "State": "Angaur",
        "Capital": "Ngeremasch",
        "Area (km2)": "8",
        "Population (Census 2000)": "188"
    },
    {
        "State": "Koror",
        "Capital": "Koror",
        "Area (km2)": "18",
        "Population (Census 2000)": "13 303"
    },
    {
        "State": "Peleliu",
        "Capital": "Kloulklubed",
        "Area (km2)": "13",
        "Population (Census 2000)": "571"
    },
    {
        "State": "Rock Islands, (also called Chelbacheb)",
        "Capital": "-",
        "Area (km2)": "47",
        "Population (Census 2000)": "-"
    },
    {
        "State": "Southwest Islands",
        "Capital": "",
        "Area (km2)": "",
        "Population (Census 2000)": ""
    },
    {
        "State": "Hatohobei",
        "Capital": "Hatohobei",
        "Area (km2)": "1",
        "Population (Census 2000)": "23"
    },
    {
        "State": "Sonsorol",
        "Capital": "Dongosaru",
        "Area (km2)": "3",
        "Population (Census 2000)": "39"
    },
    {
        "State": "Palau",
        "Capital": "Ngerulmud1",
        "Area (km2)": "444",
        "Population (Census 2000)": "19 129"
    },
    {
        "State": "1 The national capital of Palau was moved from Koror to Ngerulmud on October 7, 2006.",
        "Capital": "",
        "Area (km2)": "",
        "Population (Census 2000)": ""
    }
]