[
    {
        "Preceding station": "",
        "NO-HEADER1": "Proposed",
        "Manchester Metrolink": "",
        "NO-HEADER3": "",
        "Following station": ""
    },
    {
        "Preceding station": "EventCity towards Port Salford",
        "NO-HEADER1": "",
        "Manchester Metrolink": "Trafford Centre Line",
        "NO-HEADER3": "",
        "Following station": "Village towards Pomona"
    }
]