[
    {
        "#": "1",
        "Date": "19 March 2008",
        "Venue": "Windsor Park, Belfast",
        "Opponent": "Georgia",
        "Score": "4AC/EUR\"1",
        "Result": "4AC/EUR\"1",
        "Competition": "Friendly"
    }
]