[
    {
        "Year": "2006",
        "Title": "Sixty Six",
        "Role": "Screenplay",
        "Other notes": ""
    },
    {
        "Year": "2007",
        "Title": "Mrs Ratcliffe's Revolution",
        "Role": "Screenplay",
        "Other notes": ""
    },
    {
        "Year": "2008",
        "Title": "How to Lose Friends & Alienate People",
        "Role": "Screenplay",
        "Other notes": ""
    },
    {
        "Year": "2009",
        "Title": "The Men Who Stare at Goats",
        "Role": "Screenplay",
        "Other notes": ""
    },
    {
        "Year": "2010",
        "Title": "The Debt",
        "Role": "Screenplay",
        "Other notes": ""
    },
    {
        "Year": "2011",
        "Title": "Gee Gee",
        "Role": "Director\\/Screenplay",
        "Other notes": "Short film"
    },
    {
        "Year": "2011",
        "Title": "Tinker Tailor Soldier Spy",
        "Role": "Screenplay",
        "Other notes": "BAFTA Award for Best British Film BAFTA Award for Best Adapted Screenplay British Film Bloggers Circle Awards for Best Adapted Screenplay International Cinephile Society Awards for Best Adapted Screenplay Italy Screenplay Award for Best International Adapted Screenplay Online Film Critics Society Award for Best Adapted Screenplay Richard Attenborough Regional Film Awards for Best Screenplay San Francisco Film Critics Circle Award for Best Adapted Screenplay Nominated AC/EUR\" Academy Award for Best Adapted Screenplay Nominated AC/EUR\" Association of Women Film Journalists Award for Best Screenplay Nominated AC/EUR\" British Independent Film Award for Best Screenplay Nominated AC/EUR\" London Film Critics Circle Award for Best Screenplay Nominated AC/EUR\" USC Scripter Award for Best Adapted Screenplay Nominated AC/EUR\" Washington DC Area Film Critics Association Award for Best Adapted Screenplay"
    },
    {
        "Year": "2014",
        "Title": "Frank",
        "Role": "Screenplay",
        "Other notes": ""
    },
    {
        "Year": "2015",
        "Title": "Our Brand Is Crisis",
        "Role": "Screenplay",
        "Other notes": ""
    }
]