[
    {
        "Department": "Administration, Finance, Policy and Urban Affairs",
        "Commissioner": "Donna Estrich",
        "Title": "Commissioner of Administration, Finance, Policy and Urban Affairs",
        "Notes": ""
    },
    {
        "Department": "Assessment and Taxation Department",
        "Commissioner": "Martin F. Kennedy",
        "Title": "Commissioner, Department of Assessment and Taxation",
        "Notes": ""
    },
    {
        "Department": "Audit & Control",
        "Commissioner": "Mark J. F. Schroeder",
        "Title": "Buffalo City Comptroller",
        "Notes": ""
    },
    {
        "Department": "Board of Education",
        "Commissioner": "James Sampson Theresa Harris-Tigg Jason M. McCarthy Sharon Belton-Cottman Patti Bowers Pierce Mary Ruth Kapsiak Carl Paladino Larry Quinn Barbara Seals Nevergold Ameer Dunston",
        "Title": "President Vice President of Student Achievement Vice President of Executive Affairs Student Board Member",
        "Notes": "West District Representative East District Representative North District Representative Ferry District Representative Member-at-Large Central District Representative Park District Representative Member-at-Large Member-at-Large"
    },
    {
        "Department": "Buffalo Arts Commission",
        "Commissioner": "Catherine Gillespie David Granville Donald J. Siuta James Cooper Thomas Chestnut Kathleen Rooney Susana Tejada Joanna Angie Gerald Mead James Pappas Catherine Linder Spencer Ted Pietrzak Elisabeth Clarkson",
        "Title": "Chair",
        "Notes": "Mayoral Appointee Mayoral Appointee Mayoral Appointee Mayoral Appointee Mayoral Appointee Mayoral Appointee Mayoral Appointee Common Council Appointee Common Council Appointee Common Council Appointee Common Council Appointee Common Council Appointee Honorary Commissioner"
    },
    {
        "Department": "Buffalo Police Department",
        "Commissioner": "Daniel Derenda",
        "Title": "Commissioner",
        "Notes": ""
    },
    {
        "Department": "Buffalo Sewer Authority",
        "Commissioner": "",
        "Title": "",
        "Notes": "For the 28th year in a row GFOA issues Certificate of Achievement for Excellence in Financial Reporting to Buffalo Sewer Authority.[7]"
    },
    {
        "Department": "Buffalo Urban Renewal Agency (BURA)",
        "Commissioner": "Byron W. Brown Darius Pridgen Christopher P. Scanlon Brendan Mehaffy Timothy Ball Donna Estrich Joseph Golombek, Jr. Dominick Bonifacio",
        "Title": "Chairman Council President Councilmember E.D. of the City's Strategic Planning Corporation Counsel Commissioner of Administration & Finance North District Councilmember",
        "Notes": ""
    },
    {
        "Department": "Buffalo Water Authority",
        "Commissioner": "Oluwole McFoy William Sunderlin Gerald E. Kelly Michael Finn",
        "Title": "Chairperson Vice Chairperson Board Member Board Member",
        "Notes": ""
    },
    {
        "Department": "Citizen Services",
        "Commissioner": "Oswaldo Mestre",
        "Title": "Director of Citizen Services",
        "Notes": ""
    },
    {
        "Department": "Office of City Clerk",
        "Commissioner": "Gerald Chwalinski",
        "Title": "Department Head",
        "Notes": ""
    },
    {
        "Department": "Civil Service",
        "Commissioner": "",
        "Title": "",
        "Notes": ""
    },
    {
        "Department": "Commission on Citizens' Rights and Community Relations",
        "Commissioner": "Crystal J. Rodriguez Kenneth Simmons Sherrill W. Colston John Calvin Davis Dana Floriano David Granville Sheila Wallace Gary Wilson Zaw Win",
        "Title": "Department Head Interim Chairperson Board Member Board Member Board Member Board Member Board Member Board Member Board Member",
        "Notes": ""
    },
    {
        "Department": "Community Services and Recreational Programming",
        "Commissioner": "Otis Barker",
        "Title": "Deputy Commissioner",
        "Notes": ""
    },
    {
        "Department": "Emergency Management Services",
        "Commissioner": "Garnell W. Whitfield, Jr.",
        "Title": "Commissioner",
        "Notes": ""
    },
    {
        "Department": "Buffalo Fire Department",
        "Commissioner": "Garnell W. Whitfield, Jr.",
        "Title": "Commissioner",
        "Notes": ""
    },
    {
        "Department": "Human Resources",
        "Commissioner": "Gladys Herndon-Hill",
        "Title": "Commissioner",
        "Notes": ""
    },
    {
        "Department": "Law Department",
        "Commissioner": "Timothy A. Ball",
        "Title": "Corporation Counsel",
        "Notes": ""
    },
    {
        "Department": "Management Information Systems",
        "Commissioner": "Kenneth M. Barnes",
        "Title": "Chief Information Officer",
        "Notes": ""
    },
    {
        "Department": "Office of Senior Services",
        "Commissioner": "",
        "Title": "",
        "Notes": ""
    },
    {
        "Department": "Office of Strategic Planning",
        "Commissioner": "Brendan R. Mehaffy",
        "Title": "Executive Director",
        "Notes": ""
    },
    {
        "Department": "Parking Department",
        "Commissioner": "Kevin Helfer",
        "Title": "Commissioner",
        "Notes": ""
    },
    {
        "Department": "Permit and Inspection Services",
        "Commissioner": "James Comerford, Jr.",
        "Title": "Commissioner",
        "Notes": ""
    },
    {
        "Department": "Public Works, Parks & Streets",
        "Commissioner": "Steven Stepniak",
        "Title": "Commissioner",
        "Notes": ""
    },
    {
        "Department": "Real Estate",
        "Commissioner": "Christie Nelson",
        "Title": "Director of Real Estate",
        "Notes": ""
    },
    {
        "Department": "Telecommunications, Utilities and Franchises",
        "Commissioner": "T. Tarapacki",
        "Title": "",
        "Notes": ""
    }
]