[
    {
        "Prime Minister": "Prime Minister",
        "Term of office": "Term of office",
        "Political party": "Political party",
        "NO-HEADER3": "",
        "NO-HEADER4": "",
        "NO-HEADER5": "",
        "NO-HEADER6": ""
    },
    {
        "Prime Minister": "AC/\"-",
        "Term of office": "Portrait",
        "Political party": "Political party",
        "NO-HEADER3": "Name (BornAC/EUR\"Died)",
        "NO-HEADER4": "Took office",
        "NO-HEADER5": "Left office",
        "NO-HEADER6": "Duration"
    },
    {
        "Prime Minister": "5",
        "Term of office": "",
        "Political party": "Mohamed Farah Salad",
        "NO-HEADER3": "1 November 1969",
        "NO-HEADER4": "March 1970",
        "NO-HEADER5": "5 months",
        "NO-HEADER6": "Military"
    },
    {
        "Prime Minister": "Post Abolished (March 1970AC/EUR\"1 February 1987)",
        "Term of office": "",
        "Political party": "",
        "NO-HEADER3": "",
        "NO-HEADER4": "",
        "NO-HEADER5": "",
        "NO-HEADER6": ""
    },
    {
        "Prime Minister": "6",
        "Term of office": "",
        "Political party": "Muhammad Ali Samatar (1931AC/EUR\")",
        "NO-HEADER3": "1 February 1987",
        "NO-HEADER4": "3 September 1990",
        "NO-HEADER5": "3 years, 214 days",
        "NO-HEADER6": "Somali Revolutionary Socialist Party"
    },
    {
        "Prime Minister": "7",
        "Term of office": "",
        "Political party": "Muhammad Hawadle Madar",
        "NO-HEADER3": "3 September 1990",
        "NO-HEADER4": "24 January 1991 (Deposed)",
        "NO-HEADER5": "143 days",
        "NO-HEADER6": "Somali Revolutionary Socialist Party"
    }
]