[
    {
        "District": "District",
        "Assemblyman": "Assemblyman",
        "Party": "Party",
        "Councillor": "Councillor",
        "Party 4": "Party 4",
        "NO-HEADER5": "",
        "NO-HEADER6": ""
    },
    {
        "District": "1st Kings",
        "Assemblyman": "",
        "Party": "Austin L. Fraser",
        "Councillor": "Conservative",
        "Party 4": "",
        "NO-HEADER5": "John Kickham",
        "NO-HEADER6": "Conservative"
    },
    {
        "District": "2nd Kings",
        "Assemblyman": "",
        "Party": "Arthur Peters [3]",
        "Councillor": "Liberal",
        "Party 4": "",
        "NO-HEADER5": "James McInnis",
        "NO-HEADER6": "Liberal"
    },
    {
        "District": "3rd Kings",
        "Assemblyman": "",
        "Party": "Walter A. O. Morson",
        "Councillor": "Conservative",
        "Party 4": "",
        "NO-HEADER5": "Patrick D. Bowlen",
        "NO-HEADER6": "Liberal"
    },
    {
        "District": "4th Kings",
        "Assemblyman": "",
        "Party": "Albert P. Prowse",
        "Councillor": "Conservative",
        "Party 4": "",
        "NO-HEADER5": "Murdock MacKinnon",
        "NO-HEADER6": "Conservative"
    },
    {
        "District": "5th Kings",
        "Assemblyman": "",
        "Party": "Archibald J. MacDonald",
        "Councillor": "Conservative",
        "Party 4": "",
        "NO-HEADER5": "John Alexander Mathieson",
        "NO-HEADER6": "Conservative"
    }
]