[
    {
        "Date": "February 23",
        "English Name": "Defender of the Fatherland and Armed Forces day",
        "Local Name": "AAA*AAuAA 1/2 A AAdegAA+-AAdegAAA 3/4 AA 1/2 AA AAA1AAAA 1/2 A (DzieA\n abaroncy AjAyny)",
        "Remarks": ""
    },
    {
        "Date": "March 15",
        "English Name": "Constitution Day",
        "Local Name": "AAA*AAuAA 1/2 A AAAdegAA 1/2 AAAAAAAi (DzieA\n Kanstytucyji)",
        "Remarks": "Adopted in 1994"
    },
    {
        "Date": "April 2",
        "English Name": "Unity of Peoples of Russia and Belarus Day",
        "Local Name": "AAA*AAuAA 1/2 A AAA'AA 1/2 AAdegAA 1/2 AA 1/2 A AA 1/2 AAdegAAA 3/4 AA'AAdegA AAAuAA>>AAdegAAAi i A AAdegAii (DzieA\n jadnaA\nnia narodaA\nA BieA\narusi i Rasii)",
        "Remarks": ""
    },
    {
        "Date": "April 26",
        "English Name": "Chernobyl tragedy commemorative day",
        "Local Name": "DzieA\n Aarnobylskaj trahiedyji",
        "Remarks": ""
    },
    {
        "Date": "Second Sunday of May",
        "English Name": "State Flag and State Emblem Day",
        "Local Name": "AAA*AAuAA 1/2 A AAA*AAAAPAAdegAAA 1/2 AAdegAA3AAdeg AA!AAAA3AAdeg i AAA*AAAAPAAdegAAA 1/2 AAdegAA3AAdeg AAAuAAA+-AAdeg (DzieA\n DziarA\nA 3/4 aA\nAnaha Sciaha i DziarA\nA 3/4 aA\nAnaha Hierba)",
        "Remarks": ""
    },
    {
        "Date": "June 22",
        "English Name": "Day of Remembrance of the victims of the Great Patriotic War",
        "Local Name": "AAA*AAuAA 1/2 A AAAAuAA 1/2 AAdegAAA 3/4 AA'AA 1/2 AAdegAA1 AA?AAdegAA 1/4 AAA AAdegA AA2AA AAAA>>AAAoAAdegAA1 AAA1AAAA 1/2 AA 1/2 AAdegAA1 AA2AAdegAA1AA 1/2 A (DzieA\n usienarodnaj pamiaci achviar Vialikaj AjAynnaj vajny)",
        "Remarks": "In solemn remembrance of all the victims of the Second World War, and in commemoration of the heroic last stand of Brest Fortress in 1941, on the very country and city (Brest) in which the Eastern Front began."
    }
]