[
    {
        "": "",
        "1": "1",
        "Michel Bourez": "Michel Bourez",
        "7.67": "7.67"
    },
    {
        "": "",
        "1": "2",
        "Michel Bourez": "Wiggolly Dantas",
        "7.67": "6.40"
    }
]