[
    {
        "S.No.": "01",
        "Institute name": "Dhar Polytechnic Mahavidhyalaya",
        "City": "Dhar",
        "Branches": "Industrial Electronics Engineering (Four Years), Manufacturing Engineering (Four Years) , Mechatronics Engineering (Four Years), Information Technology , Computer Science & Engg."
    },
    {
        "S.No.": "02",
        "Institute name": "Govt. Polytechnic radhogarh Guna",
        "City": "radhogarh Guna",
        "Branches": "Electrical Engineering , Mechanical Engineering , Electronics And Communication Engineering, Civil Engineering"
    },
    {
        "S.No.": "03",
        "Institute name": "Govt. Polytechnic Ashoknagar",
        "City": "Ashoknagar",
        "Branches": "Electrical Engineering , Mechanical Engineering , Electronics And Communication Engineering, Civil Engineering,computer science engineering"
    }
]