[
    {
        "Season": "Season",
        "League": "League",
        "FA Cup": "FA Cup",
        "League Cup": "League Cup",
        "Top goalscorer": "Top goalscorer",
        "NO-HEADER5": "",
        "NO-HEADER6": "",
        "NO-HEADER7": "",
        "NO-HEADER8": "",
        "NO-HEADER9": "",
        "NO-HEADER10": "",
        "NO-HEADER11": "",
        "NO-HEADER12": "",
        "NO-HEADER13": ""
    },
    {
        "Season": "Season",
        "League": "Division",
        "FA Cup": "FA Cup",
        "League Cup": "League Cup",
        "Top goalscorer": "P",
        "NO-HEADER5": "W",
        "NO-HEADER6": "D",
        "NO-HEADER7": "L",
        "NO-HEADER8": "F",
        "NO-HEADER9": "A",
        "NO-HEADER10": "Pts",
        "NO-HEADER11": "Pos",
        "NO-HEADER12": "Name",
        "NO-HEADER13": "Goals"
    },
    {
        "Season": "2009",
        "League": "DIV2 Central-East",
        "FA Cup": "22",
        "League Cup": "5",
        "Top goalscorer": "9",
        "NO-HEADER5": "8",
        "NO-HEADER6": "18",
        "NO-HEADER7": "20",
        "NO-HEADER8": "24",
        "NO-HEADER9": "8th",
        "NO-HEADER10": "R2",
        "NO-HEADER11": "",
        "NO-HEADER12": "",
        "NO-HEADER13": ""
    },
    {
        "Season": "2010",
        "League": "DIV2 Central-East",
        "FA Cup": "30",
        "League Cup": "16",
        "Top goalscorer": "10",
        "NO-HEADER5": "4",
        "NO-HEADER6": "48",
        "NO-HEADER7": "24",
        "NO-HEADER8": "58",
        "NO-HEADER9": "3rd",
        "NO-HEADER10": "",
        "NO-HEADER11": "",
        "NO-HEADER12": "",
        "NO-HEADER13": ""
    },
    {
        "Season": "2011",
        "League": "DIV2 Central-East",
        "FA Cup": "30",
        "League Cup": "20",
        "Top goalscorer": "6",
        "NO-HEADER5": "4",
        "NO-HEADER6": "68",
        "NO-HEADER7": "22",
        "NO-HEADER8": "66",
        "NO-HEADER9": "2nd",
        "NO-HEADER10": "",
        "NO-HEADER11": "",
        "NO-HEADER12": "",
        "NO-HEADER13": ""
    },
    {
        "Season": "2012",
        "League": "DIV2 Central-East",
        "FA Cup": "34",
        "League Cup": "24",
        "Top goalscorer": "7",
        "NO-HEADER5": "3",
        "NO-HEADER6": "72",
        "NO-HEADER7": "30",
        "NO-HEADER8": "79",
        "NO-HEADER9": "2nd",
        "NO-HEADER10": "",
        "NO-HEADER11": "",
        "NO-HEADER12": "",
        "NO-HEADER13": ""
    },
    {
        "Season": "2013",
        "League": "DIV 1",
        "FA Cup": "34",
        "League Cup": "8",
        "Top goalscorer": "12",
        "NO-HEADER5": "14",
        "NO-HEADER6": "48",
        "NO-HEADER7": "62",
        "NO-HEADER8": "36",
        "NO-HEADER9": "17th",
        "NO-HEADER10": "R3",
        "NO-HEADER11": "SF",
        "NO-HEADER12": "",
        "NO-HEADER13": ""
    },
    {
        "Season": "2014",
        "League": "DIV2 Central-East",
        "FA Cup": "26",
        "League Cup": "16",
        "Top goalscorer": "4",
        "NO-HEADER5": "6",
        "NO-HEADER6": "59",
        "NO-HEADER7": "26",
        "NO-HEADER8": "49",
        "NO-HEADER9": "3rd",
        "NO-HEADER10": "",
        "NO-HEADER11": "",
        "NO-HEADER12": "",
        "NO-HEADER13": ""
    },
    {
        "Season": "2015",
        "League": "DIV2 Central-East",
        "FA Cup": "26",
        "League Cup": "19",
        "Top goalscorer": "5",
        "NO-HEADER5": "2",
        "NO-HEADER6": "50",
        "NO-HEADER7": "17",
        "NO-HEADER8": "62",
        "NO-HEADER9": "1st",
        "NO-HEADER10": "R2",
        "NO-HEADER11": "R1",
        "NO-HEADER12": "",
        "NO-HEADER13": ""
    }
]