[
    {
        "Series": "Out of Mind",
        "Start date": "June 16, 2006",
        "End date": "September 4, 2006",
        "Episodes": "5",
        "Game": "Halo 2"
    },
    {
        "Series": "Recovery One",
        "Start date": "October 28, 2007",
        "End date": "December 7, 2007",
        "Episodes": "4",
        "Game": "Halo 2"
    },
    {
        "Series": "Relocated",
        "Start date": "February 9, 2009",
        "End date": "March 9, 2009",
        "Episodes": "4",
        "Game": "Halo 3"
    },
    {
        "Series": "MIA",
        "Start date": "November 13, 2011",
        "End date": "December 17, 2011",
        "Episodes": "6",
        "Game": "Halo: Reach"
    },
    {
        "Series": "Where There's a Will, There's a Wall",
        "Start date": "April 14, 2012",
        "End date": "April 28, 2012",
        "Episodes": "3",
        "Game": "Halo: Reach"
    }
]