[
    {
        "NO-HEADER0": "",
        "Distinguished Service Cross (DSC)": "Member of the Order of Australia (AM)",
        "[8]": "Awarded 13 June 2011[9]"
    },
    {
        "NO-HEADER0": "",
        "Distinguished Service Cross (DSC)": "Member of the Royal Victorian Order (MVO)",
        "[8]": "Awarded 1 April 2000[10][11]"
    },
    {
        "NO-HEADER0": "",
        "Distinguished Service Cross (DSC)": "Australian Active Service Medal",
        "[8]": ""
    },
    {
        "NO-HEADER0": "",
        "Distinguished Service Cross (DSC)": "Afghanistan Medal",
        "[8]": ""
    },
    {
        "NO-HEADER0": "",
        "Distinguished Service Cross (DSC)": "Iraq Medal",
        "[8]": ""
    },
    {
        "NO-HEADER0": "",
        "Distinguished Service Cross (DSC)": "Australian Service Medal",
        "[8]": ""
    },
    {
        "NO-HEADER0": "",
        "Distinguished Service Cross (DSC)": "Defence Force Service Medal with 3 clasps",
        "[8]": "30AC/EUR\"34 years service"
    },
    {
        "NO-HEADER0": "",
        "Distinguished Service Cross (DSC)": "Australian Defence Medal",
        "[8]": ""
    },
    {
        "NO-HEADER0": "",
        "Distinguished Service Cross (DSC)": "Officer of the Legion of Merit (United States)",
        "[8]": "17 November 2014[12]"
    },
    {
        "NO-HEADER0": "",
        "Distinguished Service Cross (DSC)": "Bronze Star (United States)",
        "[8]": "[13]"
    },
    {
        "NO-HEADER0": "",
        "Distinguished Service Cross (DSC)": "NATO Medal for ISAF",
        "[8]": ""
    },
    {
        "NO-HEADER0": "",
        "Distinguished Service Cross (DSC)": "Meritorious Unit Citation with Federation Star",
        "[8]": ""
    }
]