[
    {
        "Designation": "A1",
        "From": "Kingston",
        "To": "Lucea",
        "Via": "Spanish Town - Bog Walk - Linstead - Ewarton - Moneague - Claremont - Saint Ann's Bay - Falmouth - Montego Bay",
        "Comments": "",
        "Length": "243 kilometres (151 mi)"
    },
    {
        "Designation": "A2",
        "From": "Spanish Town",
        "To": "Savanna-la-Mar",
        "Via": "Old Harbour - May Pen - Porus - Mandeville - Santa Cruz - Black River",
        "Comments": "",
        "Length": "154 kilometres (96 mi)"
    },
    {
        "Designation": "A3",
        "From": "Kingston",
        "To": "Saint Ann's Bay",
        "Via": "Castleton - A4 junction west of Annotto Bay - Port Maria - Oracabessa - Ocho Rios",
        "Comments": "",
        "Length": "101 kilometres (63 mi)"
    },
    {
        "Designation": "A4",
        "From": "Kingston",
        "To": "A3 junction west of Annotto Bay",
        "Via": "Morant Bay - Port Morant - Golden Grove - Hectors River - Manchioneal - Boston Bay - Port Antonio - Hope Bay - Buff Bay",
        "Comments": "Eastern Jamaica coast road.",
        "Length": ""
    }
]