[
    {
        "Year": "1992",
        "Team": "Chip Ganassi Racing",
        "1": "SRF",
        "2": "PHX",
        "3": "LBH",
        "4": "INDY",
        "5": "DET Ret",
        "6": "POR 13",
        "7": "MIL Ret",
        "8": "NHA",
        "9": "TOR 8",
        "10": "MIS",
        "11": "CLE 8",
        "12": "ROA Ret",
        "13": "VAN Ret",
        "14": "MDO",
        "15": "NZR",
        "16": "LS",
        "17": "",
        "18": "",
        "19": "",
        "20": "",
        "Rank": "20th",
        "Points": "10"
    },
    {
        "Year": "1993",
        "Team": "A. J. Foyt Enterprises",
        "1": "SRF 3",
        "2": "PHX Ret",
        "3": "LBH DSQ",
        "4": "INDY Ret",
        "5": "MIL Ret",
        "6": "DET 8",
        "7": "POR 8",
        "8": "CLE 6",
        "9": "TOR 6",
        "10": "MIS Ret",
        "11": "NHA 5",
        "12": "ROA Ret",
        "13": "VAN Ret",
        "14": "MDO 2",
        "15": "NZR 4",
        "16": "LS 10",
        "17": "",
        "18": "",
        "19": "",
        "20": "",
        "Rank": "10th",
        "Points": "84"
    },
    {
        "Year": "1994",
        "Team": "Walker Racing",
        "1": "SRF Ret",
        "2": "PHX 7",
        "3": "LBH 3",
        "4": "INDY 5",
        "5": "MIL 6",
        "6": "DET 3",
        "7": "POR 4",
        "8": "CLE 11",
        "9": "TOR 6",
        "10": "MIS Ret",
        "11": "MDO 4",
        "12": "NHA 13",
        "13": "VAN 2",
        "14": "ROA Ret",
        "15": "NZR Ret",
        "16": "LS 13",
        "17": "",
        "18": "",
        "19": "",
        "20": "",
        "Rank": "5th",
        "Points": "104"
    },
    {
        "Year": "1995",
        "Team": "Walker Racing",
        "1": "MIA Ret",
        "2": "SRF Ret",
        "3": "PHX 1",
        "4": "LBH Ret",
        "5": "NZR 4",
        "6": "INDY 5",
        "7": "MIL 5",
        "8": "DET 1",
        "9": "POR 8",
        "10": "ROA Ret",
        "11": "TOR 5",
        "12": "CLE 6",
        "13": "MIS DNS",
        "14": "MDO 8",
        "15": "NHA 9",
        "16": "VAN 3",
        "17": "LS 15",
        "18": "",
        "19": "",
        "20": "",
        "Rank": "5th",
        "Points": "121"
    },
    {
        "Year": "1996",
        "Team": "Walker Racing",
        "1": "MIA 3",
        "2": "RIO Ret",
        "3": "SRF Ret",
        "4": "LBH 13",
        "5": "NZR Ret",
        "6": "500 Ret",
        "7": "MIL 17",
        "8": "DET Ret",
        "9": "POR 10",
        "10": "CLE 18",
        "11": "TOR 9",
        "12": "MIS 8",
        "13": "MDO Ret",
        "14": "ROA Ret",
        "15": "VAN 10",
        "16": "LS 15",
        "17": "",
        "18": "",
        "19": "",
        "20": "",
        "Rank": "18th",
        "Points": "29"
    },
    {
        "Year": "1997",
        "Team": "Hogan Racing",
        "1": "MIA",
        "2": "SRF",
        "3": "LBH",
        "4": "NZR",
        "5": "RIO",
        "6": "STL",
        "7": "MIL",
        "8": "DET",
        "9": "POR",
        "10": "CLE",
        "11": "TOR",
        "12": "MIS",
        "13": "MDO",
        "14": "ROA",
        "15": "VAN",
        "16": "LS",
        "17": "FON 8",
        "18": "",
        "19": "",
        "20": "",
        "Rank": "26th",
        "Points": "5"
    },
    {
        "Year": "1998",
        "Team": "Arciero-Wells Racing",
        "1": "MIA",
        "2": "MOT",
        "3": "LBH",
        "4": "NZR 7",
        "5": "RIO",
        "6": "STL 13",
        "7": "MIL Ret",
        "8": "DET 14",
        "9": "POR Ret",
        "10": "CLE Ret",
        "11": "TOR 13",
        "12": "MIS Ret",
        "13": "MDO 11",
        "14": "ROA 12",
        "15": "VAN Ret",
        "16": "LS 13",
        "17": "HOU Ret",
        "18": "SRF 16",
        "19": "FON 9",
        "20": "",
        "Rank": "23rd",
        "Points": "13"
    },
    {
        "Year": "1999",
        "Team": "Team Gordon",
        "1": "MIA Ret",
        "2": "MOT 8",
        "3": "LBH 16",
        "4": "NZR 19",
        "5": "RIO 14",
        "6": "STL Ret",
        "7": "MIL Ret",
        "8": "POR 17",
        "9": "CLE 9",
        "10": "ROA 8",
        "11": "TOR 13",
        "12": "MIS Ret",
        "13": "DET Ret",
        "14": "MDO 10",
        "15": "CHI 10",
        "16": "VAN Ret",
        "17": "LS Ret",
        "18": "HOU Ret",
        "19": "SRF 8",
        "20": "FON 11",
        "Rank": "20th",
        "Points": "27"
    }
]