[
    {
        "Country": "Israel",
        "City": "Kiryat Bialik",
        "District": "Haifa"
    },
    {
        "Country": "Israel",
        "City": "Hurfeish",
        "District": "Northern District"
    }
]