[
    {
        "Preceding station": "McAlister towards Crookwell",
        "NO-HEADER1": "",
        "NSW Closed lines": "Crookwell Line",
        "NO-HEADER3": "",
        "Following station": "Woodhouselee towards Goulburn"
    },
    {
        "Preceding station": "Willigam towards Taralga",
        "NO-HEADER1": "",
        "NSW Closed lines": "Taralga Line",
        "NO-HEADER3": "",
        "Following station": "Terminus"
    }
]