[
    {
        "Type": "Type",
        "uniform 7-polytope": "uniform 7-polytope"
    },
    {
        "Type": "Schlafli symbol",
        "uniform 7-polytope": "t1,4{35,4}"
    },
    {
        "Type": "Coxeter-Dynkin diagrams",
        "uniform 7-polytope": ""
    },
    {
        "Type": "6-faces",
        "uniform 7-polytope": ""
    },
    {
        "Type": "5-faces",
        "uniform 7-polytope": ""
    },
    {
        "Type": "4-faces",
        "uniform 7-polytope": ""
    },
    {
        "Type": "Cells",
        "uniform 7-polytope": ""
    },
    {
        "Type": "Faces",
        "uniform 7-polytope": ""
    },
    {
        "Type": "Edges",
        "uniform 7-polytope": "60480"
    },
    {
        "Type": "Vertices",
        "uniform 7-polytope": "6720"
    },
    {
        "Type": "Vertex figure",
        "uniform 7-polytope": ""
    },
    {
        "Type": "Coxeter groups",
        "uniform 7-polytope": "B7, [4,35]"
    },
    {
        "Type": "Properties",
        "uniform 7-polytope": "convex"
    }
]