[
    {
        "Rank": "Rank",
        "Country": "Country",
        "Points": "Points"
    },
    {
        "Rank": "1",
        "Country": "Belarus",
        "Points": "89"
    },
    {
        "Rank": "2",
        "Country": "Armenia",
        "Points": "72"
    },
    {
        "Rank": "3",
        "Country": "Ukraine",
        "Points": "60"
    },
    {
        "Rank": "4",
        "Country": "Belgium",
        "Points": "47"
    },
    {
        "Rank": "5",
        "Country": "Netherlands",
        "Points": "42"
    }
]