[
    {
        "Club": "CSKA Moscow",
        "Winners": "7",
        "Runners-up": "3",
        "Winning Years": "2002, 2005, 2006, 2008, 2009, 2011, 2013",
        "Runner-up Years": "1993, 1994, 2000"
    },
    {
        "Club": "Lokomotiv Moscow",
        "Winners": "6",
        "Runners-up": "1",
        "Winning Years": "1996, 1997, 2000, 2001, 2007, 2015",
        "Runner-up Years": "1998"
    },
    {
        "Club": "Spartak Moscow",
        "Winners": "3",
        "Runners-up": "2",
        "Winning Years": "1994, 1998, 2003",
        "Runner-up Years": "1996, 2006"
    },
    {
        "Club": "Zenit St. Petersburg",
        "Winners": "2",
        "Runners-up": "1",
        "Winning Years": "1999, 2010",
        "Runner-up Years": "2002"
    },
    {
        "Club": "Dynamo Moscow",
        "Winners": "1",
        "Runners-up": "3",
        "Winning Years": "1995",
        "Runner-up Years": "1997, 1999, 2012"
    },
    {
        "Club": "Rostov",
        "Winners": "1",
        "Runners-up": "1",
        "Winning Years": "2014",
        "Runner-up Years": "2003"
    },
    {
        "Club": "Rubin Kazan",
        "Winners": "1",
        "Runners-up": "1",
        "Winning Years": "2012",
        "Runner-up Years": "2009"
    },
    {
        "Club": "Torpedo Moscow",
        "Winners": "1",
        "Runners-up": "AC/EUR\"",
        "Winning Years": "1993",
        "Runner-up Years": "AC/EUR\""
    },
    {
        "Club": "Terek Grozny",
        "Winners": "1",
        "Runners-up": "AC/EUR\"",
        "Winning Years": "2004",
        "Runner-up Years": "AC/EUR\""
    },
    {
        "Club": "Anzhi Makhachkala",
        "Winners": "AC/EUR\"",
        "Runners-up": "2",
        "Winning Years": "AC/EUR\"",
        "Runner-up Years": "2001, 2013"
    },
    {
        "Club": "Rotor Volgograd",
        "Winners": "AC/EUR\"",
        "Runners-up": "1",
        "Winning Years": "AC/EUR\"",
        "Runner-up Years": "1995"
    },
    {
        "Club": "Krylia Sovetov",
        "Winners": "AC/EUR\"",
        "Runners-up": "1",
        "Winning Years": "AC/EUR\"",
        "Runner-up Years": "2004"
    },
    {
        "Club": "Khimki",
        "Winners": "AC/EUR\"",
        "Runners-up": "1",
        "Winning Years": "AC/EUR\"",
        "Runner-up Years": "2005"
    },
    {
        "Club": "FC Moscow",
        "Winners": "AC/EUR\"",
        "Runners-up": "1",
        "Winning Years": "AC/EUR\"",
        "Runner-up Years": "2007"
    },
    {
        "Club": "Amkar Perm",
        "Winners": "AC/EUR\"",
        "Runners-up": "1",
        "Winning Years": "AC/EUR\"",
        "Runner-up Years": "2008"
    },
    {
        "Club": "Sibir Novosibirsk",
        "Winners": "AC/EUR\"",
        "Runners-up": "1",
        "Winning Years": "AC/EUR\"",
        "Runner-up Years": "2010"
    },
    {
        "Club": "Alania Vladikavkaz",
        "Winners": "AC/EUR\"",
        "Runners-up": "1",
        "Winning Years": "AC/EUR\"",
        "Runner-up Years": "2011"
    },
    {
        "Club": "FC Krasnodar",
        "Winners": "AC/EUR\"",
        "Runners-up": "1",
        "Winning Years": "AC/EUR\"",
        "Runner-up Years": "2014"
    },
    {
        "Club": "FC Kuban Krasnodar",
        "Winners": "AC/EUR\"",
        "Runners-up": "1",
        "Winning Years": "AC/EUR\"",
        "Runner-up Years": "2015"
    }
]