[
    {
        "Year(s)": "2008",
        "Commentator(s)": "Lia Fiorio and Gigi Restivo",
        "Spokesperson": "Roberto Moretti"
    },
    {
        "Year(s)": "2009",
        "Commentator(s)": "No Broadcast",
        "Spokesperson": "San Marino did not participate"
    },
    {
        "Year(s)": "2010",
        "Commentator(s)": "No Broadcast",
        "Spokesperson": "San Marino did not participate"
    },
    {
        "Year(s)": "2011",
        "Commentator(s)": "Lia Fiorio and Gigi Restivo",
        "Spokesperson": "Nicola Della Valle"
    },
    {
        "Year(s)": "2012",
        "Commentator(s)": "Lia Fiorio and Gigi Restivo",
        "Spokesperson": "Monica Fabbri"
    },
    {
        "Year(s)": "2013",
        "Commentator(s)": "Lia Fiorio and Gigi Restivo",
        "Spokesperson": "John Kennedy O'Connor"
    },
    {
        "Year(s)": "2014",
        "Commentator(s)": "Lia Fiorio and Gigi Restivo John Kennedy O'Connor & Jamarie Milkovic",
        "Spokesperson": "Michele Perniola"
    },
    {
        "Year(s)": "2015",
        "Commentator(s)": "Lia Fiorio and Gigi Restivo",
        "Spokesperson": "Valentina Monetta"
    },
    {
        "Year(s)": "2016",
        "Commentator(s)": "Lia Fiorio and Gigi Restivo",
        "Spokesperson": "TBA"
    }
]