[
    {
        "Year": "2015",
        "Event": "Lato Zet i DwA3jki 2015 (KoA'obrzeg)",
        "Category": "Hit of the Concert",
        "Nominated work": "\\Naucz mnie\"\"",
        "Result": "Won"
    },
    {
        "Year": "2015",
        "Event": "Baltic Song Contest",
        "Category": "Grand Prix",
        "Nominated work": "AC/EUR\"",
        "Result": "Nominated"
    },
    {
        "Year": "2015",
        "Event": "Baltic Song Contest",
        "Category": "Audience Award",
        "Nominated work": "AC/EUR\"",
        "Result": "Won"
    },
    {
        "Year": "2015",
        "Event": "Lato Zet i DwAA3jki 2015 (A\nodA\nAo)",
        "Category": "Hit of the Concert",
        "Nominated work": "\\Naucz mnie\"\"",
        "Result": "Won"
    },
    {
        "Year": "2015",
        "Event": "Eska Music Awards",
        "Category": "Biggest Hit",
        "Nominated work": "\\Naucz mnie\"\"",
        "Result": "Won"
    },
    {
        "Year": "2015",
        "Event": "Eska Music Awards",
        "Category": "Best Artist",
        "Nominated work": "AC/EUR\"",
        "Result": "Nominated"
    },
    {
        "Year": "2015",
        "Event": "Eska Music Awards",
        "Category": "Best Radio Debut",
        "Nominated work": "AC/EUR\"",
        "Result": "Nominated"
    },
    {
        "Year": "2015",
        "Event": "MTV Europe Music Awards",
        "Category": "Best Polish Act",
        "Nominated work": "AC/EUR\"",
        "Result": "Nominated"
    }
]