[
    {
        "Cast member": "Belushi, JohnJohn Belushi",
        "Age": "33",
        "Date of death": "March 5, 1982",
        "Notes": "A drug overdose from a speedball injection (cocaine and heroin). His death led to the conviction of Cathy Smith for administering the fatal injection."
    },
    {
        "Cast member": "Radner, GildaGilda Radner",
        "Age": "42",
        "Date of death": "May 20, 1989",
        "Notes": "Ovarian cancer. She was originally scheduled to host the season 13 finale, a first for a former female cast member, however, SNL was canceled due to a Writer's Guild of America strike. Radner's health worsened the following year. Moments before the season 14 finale, news broke of Radner's death. Steve Martin delivered his visibly shaken monologue by replaying the sketch \\Dancing in the Dark\" that he and Radner had performed on an episode he hosted in 1978"
    },
    {
        "Cast member": "Vance, DanitraDanitra Vance",
        "Age": "40",
        "Date of death": "August 21, 1994",
        "Notes": "Breast cancer AC/EUR\" although it had been put in remission three years earlier."
    },
    {
        "Cast member": "Michael O'Donoghue",
        "Age": "54",
        "Date of death": "November 8, 1994",
        "Notes": "A cerebral hemorrhage after suffering from severe chronic migraine headaches for most of his life. Bill Murray honored O'Donoghue's memory in an appearance on the season 20 episode[10] (hosted by Sarah Jessica Parker with musical guest R.E.M.) by replaying his sketch \\Mr. Mike's Least Loved Bedtime Stories: The Soiled Kimono\" from 1977.[11]\""
    },
    {
        "Cast member": "Farley, ChrisChris Farley",
        "Age": "33",
        "Date of death": "December 18, 1997",
        "Notes": "A drug overdose from a speedball. His death occurred nearly two months after he came back to host SNL, which turned out to be his final television appearance."
    },
    {
        "Cast member": "Hartman, PhilPhil Hartman",
        "Age": "49",
        "Date of death": "May 28, 1998",
        "Notes": "Killed by his wife while he slept in his Encino, California home. Before committing the act, Brynn had allegedly consumed a combination of cocaine, alcohol, and the antidepressant drug Zoloft, and later killed herself. During the 25th anniversary special in 1999, several of Hartman's SNL peers honored his memory by replaying his sketch \\Love is a Dream\" from 1988.\""
    },
    {
        "Cast member": "Rocket, CharlesCharles Rocket",
        "Age": "56",
        "Date of death": "October 7, 2005",
        "Notes": "Found dead in his Canterbury, Connecticut backyard. Local police concluded that his death was a suicide; Rocket had allegedly taken his own life by slashing his throat with a box cutter."
    },
    {
        "Cast member": "Davis, TomTom Davis",
        "Age": "59",
        "Date of death": "July 19, 2012",
        "Notes": "Head and neck cancer."
    },
    {
        "Cast member": "Hooks, JanJan Hooks",
        "Age": "57",
        "Date of death": "October 9, 2014",
        "Notes": "Died after a long illness, believed to have been cancer."
    }
]