[
    {
        "Type": "Pinking shears",
        "Image": "",
        "Description\\/purpose": "for cutting cloth and producing a serrated edge so that the fabric does not fray."
    },
    {
        "Type": "Sewing chatelaine scissors",
        "Image": "",
        "Description\\/purpose": "Chatelaine is a French term meaning \\mistress of a castle"
    }
]