[
    {
        "Season": "George Fox (Northwest Conference) (1996AC/EUR\"2010)",
        "Team": "",
        "Overall": "",
        "Conference": "",
        "Standing": "",
        "Postseason": ""
    },
    {
        "Season": "1996AC/EUR\"97",
        "Team": "George Fox",
        "Overall": "15-10",
        "Conference": "11-5",
        "Standing": "",
        "Postseason": ""
    },
    {
        "Season": "1997AC/EUR\"98",
        "Team": "George Fox",
        "Overall": "16-9",
        "Conference": "13-5",
        "Standing": "",
        "Postseason": ""
    },
    {
        "Season": "1998AC/EUR\"99",
        "Team": "George Fox",
        "Overall": "18-6",
        "Conference": "14-4",
        "Standing": "",
        "Postseason": ""
    },
    {
        "Season": "1999AC/EUR\"00",
        "Team": "George Fox",
        "Overall": "23-5",
        "Conference": "14-2",
        "Standing": "T-1st",
        "Postseason": "NCAA Sweet Sixteen"
    },
    {
        "Season": "2000AC/EUR\"01",
        "Team": "George Fox",
        "Overall": "23-3",
        "Conference": "15-1",
        "Standing": "1st",
        "Postseason": "NCAA Second Round"
    },
    {
        "Season": "2001AC/EUR\"02",
        "Team": "George Fox",
        "Overall": "20-6",
        "Conference": "11-5",
        "Standing": "T-3rd",
        "Postseason": ""
    },
    {
        "Season": "2002AC/EUR\"03",
        "Team": "George Fox",
        "Overall": "15-10",
        "Conference": "10-6",
        "Standing": "4th",
        "Postseason": ""
    },
    {
        "Season": "2003AC/EUR\"04",
        "Team": "George Fox",
        "Overall": "13-12",
        "Conference": "7-9",
        "Standing": "5th",
        "Postseason": ""
    },
    {
        "Season": "2004AC/EUR\"05",
        "Team": "George Fox",
        "Overall": "22-6",
        "Conference": "14-2",
        "Standing": "1st",
        "Postseason": "NCAA Elite Eight"
    },
    {
        "Season": "2005AC/EUR\"06",
        "Team": "George Fox",
        "Overall": "19-6",
        "Conference": "10-6",
        "Standing": "T-3rd",
        "Postseason": ""
    },
    {
        "Season": "2006AC/EUR\"07",
        "Team": "George Fox",
        "Overall": "19-7",
        "Conference": "13-3",
        "Standing": "T-1st",
        "Postseason": "NCAA 2nd round"
    },
    {
        "Season": "2007AC/EUR\"08",
        "Team": "George Fox",
        "Overall": "25-5",
        "Conference": "14-2",
        "Standing": "T-1st",
        "Postseason": "NCAA Sweet Sixteen"
    },
    {
        "Season": "2008AC/EUR\"09",
        "Team": "George Fox",
        "Overall": "32-0",
        "Conference": "16-0",
        "Standing": "1st",
        "Postseason": "NCAA National Champion"
    },
    {
        "Season": "2009AC/EUR\"10",
        "Team": "George Fox",
        "Overall": "28-3",
        "Conference": "16-0",
        "Standing": "1st",
        "Postseason": "NCAA Elite Eight"
    },
    {
        "Season": "George Fox:",
        "Team": "288-88 (.766)",
        "Overall": "178-50 (.781)",
        "Conference": "",
        "Standing": "",
        "Postseason": ""
    },
    {
        "Season": "Oregon State (Pacific 10\\/12 Conference) (2010AC/EUR\"present)",
        "Team": "",
        "Overall": "",
        "Conference": "",
        "Standing": "",
        "Postseason": ""
    },
    {
        "Season": "2010AC/EUR\"11",
        "Team": "Oregon State",
        "Overall": "9-21",
        "Conference": "2-16",
        "Standing": "10th",
        "Postseason": ""
    },
    {
        "Season": "2011AC/EUR\"12",
        "Team": "Oregon State",
        "Overall": "20-13",
        "Conference": "9-9",
        "Standing": "T-5th",
        "Postseason": "WNIT 3rd Round"
    },
    {
        "Season": "2012AC/EUR\"13",
        "Team": "Oregon State",
        "Overall": "10-21",
        "Conference": "4-14",
        "Standing": "T-11th",
        "Postseason": ""
    },
    {
        "Season": "2013AC/EUR\"14",
        "Team": "Oregon State",
        "Overall": "24-11",
        "Conference": "13-5",
        "Standing": "T-2nd",
        "Postseason": "NCAA Second Round"
    },
    {
        "Season": "2014AC/EUR\"15",
        "Team": "Oregon State",
        "Overall": "27-5",
        "Conference": "16-2",
        "Standing": "1st",
        "Postseason": "NCAA Second Round"
    },
    {
        "Season": "2015AC/EUR\"16",
        "Team": "Oregon State",
        "Overall": "11-3",
        "Conference": "2-1",
        "Standing": "",
        "Postseason": ""
    },
    {
        "Season": "Oregon State:",
        "Team": "101-74 (.577)",
        "Overall": "46-48 (.489)",
        "Conference": "",
        "Standing": "",
        "Postseason": ""
    },
    {
        "Season": "Total:",
        "Team": "389-162 (.706)",
        "Overall": "",
        "Conference": "",
        "Standing": "",
        "Postseason": ""
    },
    {
        "Season": "National champion Postseason invitational champion Conference regular season champion Conference regular season and conference tournament champion Division regular season champion Division regular season and conference tournament champion Conference tournament champion",
        "Team": "",
        "Overall": "",
        "Conference": "",
        "Standing": "",
        "Postseason": ""
    }
]