[
    {
        "Name": "eSATA",
        "Raw bandwidth": "6 Gbit\\/s",
        "Transfer speed": "600 MB\\/s",
        "Max. cable length": "2 m with eSATA HBA (1 m with a passive adapter)",
        "Power provided": "No",
        "Devices per channel": "One (15 with a port multiplier)"
    },
    {
        "Name": "eSATAp",
        "Raw bandwidth": "3 Gbit\\/s",
        "Transfer speed": "300 MB\\/s",
        "Max. cable length": "2 m with eSATA HBA (1 m with a passive adapter)",
        "Power provided": "5 V\\/12 V[60]",
        "Devices per channel": "One (15 with a port multiplier)"
    },
    {
        "Name": "SATA revision 3.2",
        "Raw bandwidth": "16 Gbit\\/s",
        "Transfer speed": "1.97 GB\\/s[d]",
        "Max. cable length": "1 m",
        "Power provided": "No",
        "Devices per channel": "One (15 with a port multiplier)"
    },
    {
        "Name": "SATA revision 3.0",
        "Raw bandwidth": "6 Gbit\\/s",
        "Transfer speed": "600 MB\\/s[61]",
        "Max. cable length": "1 m",
        "Power provided": "No",
        "Devices per channel": "One (15 with a port multiplier)"
    },
    {
        "Name": "SATA revision 2.0",
        "Raw bandwidth": "3 Gbit\\/s",
        "Transfer speed": "300 MB\\/s",
        "Max. cable length": "1 m",
        "Power provided": "No",
        "Devices per channel": "One (15 with a port multiplier)"
    },
    {
        "Name": "SATA revision 1.0",
        "Raw bandwidth": "1.5 Gbit\\/s",
        "Transfer speed": "150 MB\\/s[62]",
        "Max. cable length": "1 m",
        "Power provided": "No",
        "Devices per channel": "One per line"
    },
    {
        "Name": "PATA (IDE) 133",
        "Raw bandwidth": "1.064 Gbit\\/s",
        "Transfer speed": "133.3 MB\\/s[e]",
        "Max. cable length": "0.46 m (18 in)",
        "Power provided": "5 V (44-pin for 2.5\\ drives only)\"",
        "Devices per channel": "Two"
    },
    {
        "Name": "SAS-3",
        "Raw bandwidth": "12 Gbit\\/s",
        "Transfer speed": "1.2 GB\\/s",
        "Max. cable length": "10 m",
        "Power provided": "No",
        "Devices per channel": "1-8 (> 65k with expanders)"
    },
    {
        "Name": "SAS-2",
        "Raw bandwidth": "6 Gbit\\/s",
        "Transfer speed": "600 MB\\/s",
        "Max. cable length": "10 m",
        "Power provided": "No",
        "Devices per channel": "One (> 65k with expanders)"
    },
    {
        "Name": "SAS 300",
        "Raw bandwidth": "3 Gbit\\/s",
        "Transfer speed": "300 MB\\/s",
        "Max. cable length": "10 m",
        "Power provided": "No",
        "Devices per channel": "One (> 65k with expanders)"
    },
    {
        "Name": "SAS 150",
        "Raw bandwidth": "1.5 Gbit\\/s",
        "Transfer speed": "150 MB\\/s",
        "Max. cable length": "10 m",
        "Power provided": "No",
        "Devices per channel": "One (> 65k with expanders)"
    },
    {
        "Name": "IEEE 1394 (FireWire) 3200",
        "Raw bandwidth": "3.144 Gbit\\/s",
        "Transfer speed": "393 MB\\/s",
        "Max. cable length": "100 m (more with special cables)",
        "Power provided": "15 W, 12AC/EUR\"25 V",
        "Devices per channel": "63 (with a hub)"
    },
    {
        "Name": "IEEE 1394 (FireWire) 800",
        "Raw bandwidth": "786 Mbit\\/s",
        "Transfer speed": "98.25 MB\\/s",
        "Max. cable length": "100 m[63]",
        "Power provided": "15 W, 12AC/EUR\"25 V",
        "Devices per channel": "63 (with a hub)"
    },
    {
        "Name": "IEEE 1394 (FireWire) 400",
        "Raw bandwidth": "393 Mbit\\/s",
        "Transfer speed": "49.13 MB\\/s",
        "Max. cable length": "4.5 m[63][64]",
        "Power provided": "15 W, 12AC/EUR\"25 V",
        "Devices per channel": "63 (with a hub)"
    },
    {
        "Name": "USB 3.1",
        "Raw bandwidth": "10 Gbit\\/s",
        "Transfer speed": "1.21 GB\\/s[f]",
        "Max. cable length": "3 m",
        "Power provided": "100 W, 5, 12 or 20 V[65]",
        "Devices per channel": "127 (with a hub)"
    },
    {
        "Name": "USB 3.0[g]",
        "Raw bandwidth": "5 Gbit\\/s",
        "Transfer speed": "400 MB\\/s or more (protocol overhead, flow control, framing excluded)[66]",
        "Max. cable length": "3 m[67]",
        "Power provided": "4.5 W, 5 V",
        "Devices per channel": "127 (with a hub)[67]"
    },
    {
        "Name": "USB 2.0",
        "Raw bandwidth": "480 Mbit\\/s",
        "Transfer speed": "35 MB\\/s",
        "Max. cable length": "5 m[68]",
        "Power provided": "2.5 W, 5 V",
        "Devices per channel": "127 (with a hub)[67]"
    },
    {
        "Name": "USB 1.1",
        "Raw bandwidth": "12 Mbit\\/s",
        "Transfer speed": "1.5 MB\\/s",
        "Max. cable length": "3 m",
        "Power provided": "Yes",
        "Devices per channel": "127 (with a hub)[67]"
    },
    {
        "Name": "SCSI Ultra-320",
        "Raw bandwidth": "2.56 Gbit\\/s",
        "Transfer speed": "320 MB\\/s",
        "Max. cable length": "12 m",
        "Power provided": "No",
        "Devices per channel": "15 (plus the Host Bus Adapter\\/Host)"
    },
    {
        "Name": "10GFC Fibre Channel",
        "Raw bandwidth": "10.52 Gbit\\/s",
        "Transfer speed": "1.195 GB\\/s",
        "Max. cable length": "2 m AC/EUR\" 50 km",
        "Power provided": "No",
        "Devices per channel": "126 (16,777,216 with switches)"
    },
    {
        "Name": "4GFC Fibre Channel",
        "Raw bandwidth": "4.25 Gbit\\/s",
        "Transfer speed": "398 MB\\/s",
        "Max. cable length": "12 m",
        "Power provided": "No",
        "Devices per channel": "126 (16,777,216 with switches)"
    },
    {
        "Name": "InfiniBand Quad Rate",
        "Raw bandwidth": "10 Gbit\\/s",
        "Transfer speed": "0.98 GB\\/s",
        "Max. cable length": "5 m (copper)[69][70] <10 km (fiber)",
        "Power provided": "No",
        "Devices per channel": "One with point-to-point, many with switched fabric"
    },
    {
        "Name": "Thunderbolt",
        "Raw bandwidth": "10 Gbit\\/s",
        "Transfer speed": "1.22 GB\\/s",
        "Max. cable length": "3 m (copper) 100 m (fiber)",
        "Power provided": "10 W (copper only)",
        "Devices per channel": "Seven"
    },
    {
        "Name": "Thunderbolt 2",
        "Raw bandwidth": "20 Gbit\\/s",
        "Transfer speed": "2.44 GB\\/s",
        "Max. cable length": "3 m (copper) 100 m (fiber)",
        "Power provided": "10 W (copper only)",
        "Devices per channel": "Seven"
    },
    {
        "Name": "Thunderbolt 3",
        "Raw bandwidth": "40 Gbit\\/s",
        "Transfer speed": "4.88 GB\\/s",
        "Max. cable length": "3 m (copper) 100 m (fiber)",
        "Power provided": "100 W (copper only)",
        "Devices per channel": "Seven"
    }
]