[
    {
        "Year": "1995",
        "Movie": "Rangeela",
        "Role": "Gulbadan",
        "Notes": "special appearance"
    },
    {
        "Year": "1998",
        "Movie": "Satya",
        "Role": "Pyaari Mhatre",
        "Notes": "Won, Filmfare Critics Award Best Actress"
    },
    {
        "Year": "2000",
        "Movie": "Mohabbatein",
        "Role": "Nandini",
        "Notes": ""
    },
    {
        "Year": "2001",
        "Movie": "Monsoon Wedding",
        "Role": "Ria Verma",
        "Notes": ""
    },
    {
        "Year": "2005",
        "Movie": "Waqt: The Race Against Time",
        "Role": "Sumitra Thakur",
        "Notes": ""
    },
    {
        "Year": "2005",
        "Movie": "15 Park Avenue",
        "Role": "Lakshmi J. Roy",
        "Notes": ""
    },
    {
        "Year": "2007",
        "Movie": "Gandhi, My Father",
        "Role": "Kasturba Gandhi",
        "Notes": "Won, Best Actress Tokyo International Film Festival Award"
    },
    {
        "Year": "2007",
        "Movie": "The Last Lear",
        "Role": "Vandana",
        "Notes": "Won, National Film Award for Best Supporting Actress"
    },
    {
        "Year": "2008",
        "Movie": "Black and White",
        "Role": "Roma Mathur",
        "Notes": ""
    },
    {
        "Year": "2010",
        "Movie": "Karthik Calling Karthik",
        "Role": "Dr. Kapadia",
        "Notes": ""
    },
    {
        "Year": "2011",
        "Movie": "Kucch Luv Jaisaa",
        "Role": "Madhu Saxena",
        "Notes": ""
    },
    {
        "Year": "2014",
        "Movie": "Lakshmi",
        "Role": "Jyoti",
        "Notes": ""
    },
    {
        "Year": "2015",
        "Movie": "Dil Dhadakne Do",
        "Role": "Neelam Mehra",
        "Notes": ""
    },
    {
        "Year": "2015",
        "Movie": "Brothers",
        "Role": "Maria Fernandes",
        "Notes": ""
    },
    {
        "Year": "2016",
        "Movie": "commando2",
        "Role": "Veena Malik",
        "Notes": ""
    }
]