[
    {
        "Event": "2002 ISSF World Cup #1",
        "Quota places": "Ukraine",
        "Qualified athlete": "Olena Kostevych",
        "Announced competitor": "Olena Kostevych"
    },
    {
        "Event": "2002 ISSF World Cup #2",
        "Quota places": "Georgia",
        "Qualified athlete": "Nino Salukvadze",
        "Announced competitor": "Nino Salukvadze"
    },
    {
        "Event": "2002 ISSF World Cup #3",
        "Quota places": "China",
        "Qualified athlete": "Tao Luna",
        "Announced competitor": "Tao Luna"
    },
    {
        "Event": "2002 ISSF World Cup #4",
        "Quota places": "Germany",
        "Qualified athlete": "Munkhbayar Dorjsuren",
        "Announced competitor": "Munkhbayar Dorjsuren"
    },
    {
        "Event": "2002 World Championships",
        "Quota places": "Russia",
        "Qualified athlete": "Olga Kuznetsova",
        "Announced competitor": "Olga Kuznetsova"
    },
    {
        "Event": "2002 World Championships",
        "Quota places": "Australia",
        "Qualified athlete": "Lalita Yauhleuskaya",
        "Announced competitor": "Lalita Yauhleuskaya"
    },
    {
        "Event": "2002 World Championships",
        "Quota places": "Croatia",
        "Qualified athlete": "Mirela Skoko-A\"+eliA\"++",
        "Announced competitor": "Mirela Skoko-A\"+eliA\"++"
    },
    {
        "Event": "2002 World Championships",
        "Quota places": "Belarus",
        "Qualified athlete": "Viktoria Chaika",
        "Announced competitor": "Viktoria Chaika"
    },
    {
        "Event": "2002 World Championships",
        "Quota places": "South Korea",
        "Qualified athlete": "Kim Mi-jung",
        "Announced competitor": "Park Ah-young"
    },
    {
        "Event": "2003 ISSF World Cup #1",
        "Quota places": "South Korea",
        "Qualified athlete": "Ahn Soo-kyeong",
        "Announced competitor": "Ahn Soo-kyeong"
    },
    {
        "Event": "2003 ISSF World Cup #2",
        "Quota places": "Russia",
        "Qualified athlete": "Natalia Paderina",
        "Announced competitor": "Natalia Paderina"
    },
    {
        "Event": "2003 ISSF World Cup #3",
        "Quota places": "Denmark",
        "Qualified athlete": "Susanne Meyerhoff",
        "Announced competitor": "Susanne Meyerhoff"
    },
    {
        "Event": "2003 ISSF World Cup #4",
        "Quota places": "Hungary",
        "Qualified athlete": "Zsofia Csonka",
        "Announced competitor": "Zsofia Csonka"
    },
    {
        "Event": "2003 Pan American Games",
        "Quota places": "Venezuela",
        "Qualified athlete": "Francis Gorrin",
        "Announced competitor": "Francis Gorrin"
    },
    {
        "Event": "2003 Pan American Games",
        "Quota places": "Colombia",
        "Qualified athlete": "Amanda Mondol",
        "Announced competitor": "Amanda Mondol"
    },
    {
        "Event": "2003 European Championships 10m events",
        "Quota places": "Switzerland",
        "Qualified athlete": "Angela Schuler",
        "Announced competitor": "Monika Rieder"
    },
    {
        "Event": "2003 European Championships 10m events",
        "Quota places": "France",
        "Qualified athlete": "Nadine Lempegnat",
        "Announced competitor": "Brigitte Roy"
    },
    {
        "Event": "2003 European Championships 10m events",
        "Quota places": "Switzerland",
        "Qualified athlete": "Cornelia Frolich",
        "Announced competitor": "Cornelia Frolich"
    },
    {
        "Event": "2003 Oceania Championships",
        "Quota places": "Australia",
        "Qualified athlete": "Annemarie Forder",
        "Announced competitor": "Linda Ryan"
    },
    {
        "Event": "2004 Asian Championships",
        "Quota places": "China",
        "Qualified athlete": "Wang Lina",
        "Announced competitor": "Ren Jie"
    },
    {
        "Event": "2004 Asian Championships",
        "Quota places": "Japan",
        "Qualified athlete": "Yoko Inada",
        "Announced competitor": "Yoko Inada"
    },
    {
        "Event": "Exchange of quota places",
        "Quota places": "Greece",
        "Qualified athlete": "",
        "Announced competitor": "Marina Karaflou"
    },
    {
        "Event": "Exchange of quota places",
        "Quota places": "Ukraine",
        "Qualified athlete": "",
        "Announced competitor": "Yuliya Korostylova"
    },
    {
        "Event": "Tripartite Commission Invitation",
        "Quota places": "Costa Rica",
        "Qualified athlete": "",
        "Announced competitor": "Grettel Barboza"
    },
    {
        "Event": "Tripartite Commission Invitation",
        "Quota places": "Iran",
        "Qualified athlete": "",
        "Announced competitor": "Nasim Hassanpour"
    },
    {
        "Event": "Re-allocation of unused quota",
        "Quota places": "Ecuador",
        "Qualified athlete": "",
        "Announced competitor": "Carmen Malo"
    },
    {
        "Event": "Re-allocation of unused quota",
        "Quota places": "Hong Kong",
        "Qualified athlete": "",
        "Announced competitor": "Lo Ka Kay"
    },
    {
        "Event": "Athletes qualified in other events",
        "Quota places": "Azerbaijan",
        "Qualified athlete": "",
        "Announced competitor": "Irada Ashumova"
    },
    {
        "Event": "Athletes qualified in other events",
        "Quota places": "Belarus",
        "Qualified athlete": "",
        "Announced competitor": "Yuliya Alipava"
    },
    {
        "Event": "Athletes qualified in other events",
        "Quota places": "Bulgaria",
        "Qualified athlete": "",
        "Announced competitor": "Mariya Grozdeva"
    },
    {
        "Event": "Athletes qualified in other events",
        "Quota places": "Cuba",
        "Qualified athlete": "",
        "Announced competitor": "Margarita Tarradell"
    },
    {
        "Event": "Athletes qualified in other events",
        "Quota places": "Czech Republic",
        "Qualified athlete": "",
        "Announced competitor": "Lenka Hykova"
    },
    {
        "Event": "Athletes qualified in other events",
        "Quota places": "Germany",
        "Qualified athlete": "",
        "Announced competitor": "Claudia Verdicchio"
    },
    {
        "Event": "Athletes qualified in other events",
        "Quota places": "Hungary",
        "Qualified athlete": "",
        "Announced competitor": "Dorottya ErdA...'s"
    },
    {
        "Event": "Athletes qualified in other events",
        "Quota places": "Japan",
        "Qualified athlete": "",
        "Announced competitor": "Michiko Fukushima"
    },
    {
        "Event": "Athletes qualified in other events",
        "Quota places": "Kazakhstan",
        "Qualified athlete": "",
        "Announced competitor": "Galina Belyayeva"
    },
    {
        "Event": "Athletes qualified in other events",
        "Quota places": "Mongolia",
        "Qualified athlete": "",
        "Announced competitor": "Otryadyn Gundegmaa"
    },
    {
        "Event": "Athletes qualified in other events",
        "Quota places": "Serbia and Montenegro",
        "Qualified athlete": "",
        "Announced competitor": "Jasna A... ekariA\"++"
    },
    {
        "Event": "Athletes qualified in other events",
        "Quota places": "Spain",
        "Qualified athlete": "",
        "Announced competitor": "Maria Pilar Fernandez"
    },
    {
        "Event": "Athletes qualified in other events",
        "Quota places": "United States",
        "Qualified athlete": "",
        "Announced competitor": "Elizabeth Callahan"
    },
    {
        "Event": "Athletes qualified in other events",
        "Quota places": "United States",
        "Qualified athlete": "",
        "Announced competitor": "Rebecca Snyder"
    },
    {
        "Event": "Total",
        "Quota places": "",
        "Qualified athlete": "",
        "Announced competitor": "41"
    }
]