[
    {
        "Season": "1997",
        "Opponent": "Guelph Regals",
        "Series": "4-2",
        "GF-GA": "67-59",
        "Result": "Win",
        "Round": "Division SF"
    },
    {
        "Season": "--",
        "Opponent": "St. Catharines Spartans",
        "Series": "4-3",
        "GF-GA": "74-69",
        "Result": "Win",
        "Round": "Division Final"
    },
    {
        "Season": "--",
        "Opponent": "Orillia Kings",
        "Series": "0-3",
        "GF-GA": "20-54",
        "Result": "Loss",
        "Round": "OLA Final"
    },
    {
        "Season": "--",
        "Opponent": "Founders Cup",
        "Series": "6-1",
        "GF-GA": "?-?",
        "Result": "1st",
        "Round": "Won Tournament"
    },
    {
        "Season": "1998",
        "Opponent": "Milton Mavericks",
        "Series": "4-3",
        "GF-GA": "74-50",
        "Result": "Win",
        "Round": "Division SF"
    },
    {
        "Season": "--",
        "Opponent": "Owen Sound Flying Dutchmen",
        "Series": "4-2",
        "GF-GA": "60-55",
        "Result": "Win",
        "Round": "Division Final"
    },
    {
        "Season": "--",
        "Opponent": "Clarington Green Gaels",
        "Series": "4-2",
        "GF-GA": "57-50",
        "Result": "Win",
        "Round": "OLA Final"
    },
    {
        "Season": "--",
        "Opponent": "Founders Cup",
        "Series": "3-1",
        "GF-GA": "46-36",
        "Result": "3rd",
        "Round": "Won Bronze Medal"
    },
    {
        "Season": "1999",
        "Opponent": "Elora Mohawks",
        "Series": "0-3",
        "GF-GA": "28-37",
        "Result": "Loss",
        "Round": "Conference QF"
    },
    {
        "Season": "2000",
        "Opponent": "Elora Mohawks",
        "Series": "1-4",
        "GF-GA": "54-56",
        "Result": "Loss",
        "Round": "Division SF"
    },
    {
        "Season": "2001",
        "Opponent": "St. Catharines Spartans",
        "Series": "3-0",
        "GF-GA": "27-20",
        "Result": "Win",
        "Round": "Conference QF"
    },
    {
        "Season": "--",
        "Opponent": "Wallaceburg Red Devils",
        "Series": "1-4",
        "GF-GA": "57-67",
        "Result": "Loss",
        "Round": "Conference SF"
    },
    {
        "Season": "2002",
        "Opponent": "Sarnia Pacers",
        "Series": "0-3",
        "GF-GA": "25-31",
        "Result": "Loss",
        "Round": "Conference QF"
    },
    {
        "Season": "2003",
        "Opponent": "Orangeville Northmen",
        "Series": "3-0",
        "GF-GA": "40-22",
        "Result": "Win",
        "Round": "Conference QF"
    },
    {
        "Season": "--",
        "Opponent": "Elora Mohawks",
        "Series": "3-1",
        "GF-GA": "30-27",
        "Result": "Win",
        "Round": "Conference SF"
    },
    {
        "Season": "--",
        "Opponent": "St. Catharines Spartans",
        "Series": "3-1",
        "GF-GA": "35-37",
        "Result": "Win",
        "Round": "Conference Final"
    },
    {
        "Season": "--",
        "Opponent": "Barrie Tornado",
        "Series": "2-3",
        "GF-GA": "51-47",
        "Result": "Loss",
        "Round": "OLA Final"
    },
    {
        "Season": "2004",
        "Opponent": "Owen Sound Flying Dutchmen",
        "Series": "1-3",
        "GF-GA": "30-34",
        "Result": "Loss",
        "Round": "Conference QF"
    },
    {
        "Season": "2005",
        "Opponent": "Windsor AKO Fratmen",
        "Series": "3-1",
        "GF-GA": "35-30",
        "Result": "Win",
        "Round": "Conference QF"
    },
    {
        "Season": "--",
        "Opponent": "Orangeville Northmen",
        "Series": "0-3",
        "GF-GA": "15-29",
        "Result": "Loss",
        "Round": "Conference SF"
    },
    {
        "Season": "2007",
        "Opponent": "Hamilton Bengals",
        "Series": "3-0",
        "GF-GA": "30-18",
        "Result": "Win",
        "Round": "Conference QF"
    },
    {
        "Season": "--",
        "Opponent": "Owen Sound Rams",
        "Series": "3-1",
        "GF-GA": "45-26",
        "Result": "Win",
        "Round": "Conference SF"
    },
    {
        "Season": "--",
        "Opponent": "Windsor AKO Fratmen",
        "Series": "3-0",
        "GF-GA": "21-12",
        "Result": "Win",
        "Round": "Conference Final"
    },
    {
        "Season": "--",
        "Opponent": "Clarington Green Gaels",
        "Series": "3-0",
        "GF-GA": "27-19",
        "Result": "Win",
        "Round": "OLA Final"
    },
    {
        "Season": "--",
        "Opponent": "Founders Cup",
        "Series": "7-0",
        "GF-GA": "86-25",
        "Result": "1st",
        "Round": "Tournament Champions"
    },
    {
        "Season": "2008",
        "Opponent": "Wallaceburg Red Devils",
        "Series": "3-0",
        "GF-GA": "42-7",
        "Result": "Win",
        "Round": "Conference QF"
    },
    {
        "Season": "--",
        "Opponent": "Windsor AKO Fratmen",
        "Series": "3-1",
        "GF-GA": "35-22",
        "Result": "Win",
        "Round": "Conference SF"
    },
    {
        "Season": "--",
        "Opponent": "Elora Mohawks",
        "Series": "3-2",
        "GF-GA": "45-37",
        "Result": "Win",
        "Round": "Conference Final"
    },
    {
        "Season": "--",
        "Opponent": "Halton Hills Bulldogs",
        "Series": "3-1",
        "GF-GA": "34-19",
        "Result": "Win",
        "Round": "OLA Final"
    },
    {
        "Season": "--",
        "Opponent": "Founders Cup",
        "Series": "7-0",
        "GF-GA": "86-24",
        "Result": "1st",
        "Round": "Tournament Champions"
    },
    {
        "Season": "2009",
        "Opponent": "Oakville Buzz",
        "Series": "3-2",
        "GF-GA": "25-23",
        "Result": "Win",
        "Round": "Conference QF"
    },
    {
        "Season": "--",
        "Opponent": "Welland Warlords",
        "Series": "3-2",
        "GF-GA": "30-28",
        "Result": "Win",
        "Round": "Conference SF"
    },
    {
        "Season": "--",
        "Opponent": "Elora Mohawks",
        "Series": "2-3",
        "GF-GA": "41-43",
        "Result": "Loss",
        "Round": "Conference Final"
    },
    {
        "Season": "2010",
        "Opponent": "St. Catharines Spartans",
        "Series": "3-0",
        "GF-GA": "32-18",
        "Result": "Win",
        "Round": "Conference QF"
    },
    {
        "Season": "--",
        "Opponent": "Orangeville Northmen",
        "Series": "3-0",
        "GF-GA": "28-10",
        "Result": "Win",
        "Round": "Conference SF"
    },
    {
        "Season": "--",
        "Opponent": "Elora Mohawks",
        "Series": "2-3",
        "GF-GA": "35-36",
        "Result": "Loss",
        "Round": "Conference Final"
    },
    {
        "Season": "2011",
        "Opponent": "Wallaceburg Red Devils",
        "Series": "3-0",
        "GF-GA": "48-23",
        "Result": "Win",
        "Round": "Conference QF"
    },
    {
        "Season": "--",
        "Opponent": "Orangeville Northmen",
        "Series": "3-0",
        "GF-GA": "28-10",
        "Result": "Win",
        "Round": "Conference SF"
    },
    {
        "Season": "--",
        "Opponent": "Elora Mohawks",
        "Series": "3-1",
        "GF-GA": "41-35",
        "Result": "Win",
        "Round": "Conference Final"
    },
    {
        "Season": "--",
        "Opponent": "Halton Hills Bulldogs",
        "Series": "3-2",
        "GF-GA": "48-44",
        "Result": "Win",
        "Round": "OLA Final"
    },
    {
        "Season": "--",
        "Opponent": "Founders Cup",
        "Series": "5-0",
        "GF-GA": "94-28",
        "Result": "1st",
        "Round": "Tournament Champions"
    },
    {
        "Season": "2012",
        "Opponent": "Niagara Thunderhawks",
        "Series": "3-0",
        "GF-GA": "36-19",
        "Result": "Win",
        "Round": "Conference QF"
    },
    {
        "Season": "--",
        "Opponent": "Orangeville Northmen",
        "Series": "3-0",
        "GF-GA": "38-28",
        "Result": "Win",
        "Round": "Conference SF"
    },
    {
        "Season": "--",
        "Opponent": "Wallaceburg Red Devils",
        "Series": "3-2",
        "GF-GA": "47-50",
        "Result": "Win",
        "Round": "Conference Final"
    },
    {
        "Season": "--",
        "Opponent": "Akwesasne Lightning",
        "Series": "3-0",
        "GF-GA": "34-23",
        "Result": "Win",
        "Round": "OLA Final"
    },
    {
        "Season": "--",
        "Opponent": "Founders Cup",
        "Series": "5-0-1",
        "GF-GA": "83-38",
        "Result": "1st",
        "Round": "Tournament Champions"
    },
    {
        "Season": "2013",
        "Opponent": "Brampton Excelsiors",
        "Series": "2-0",
        "GF-GA": "32-10",
        "Result": "Win",
        "Round": "Conference QF"
    },
    {
        "Season": "--",
        "Opponent": "Niagara Thunderhawks",
        "Series": "3-0",
        "GF-GA": "35-10",
        "Result": "Win",
        "Round": "Conference SF"
    },
    {
        "Season": "--",
        "Opponent": "Orangeville Northmen",
        "Series": "3-0",
        "GF-GA": "41-15",
        "Result": "Win",
        "Round": "Conference Final"
    },
    {
        "Season": "--",
        "Opponent": "Clarington Green Gaels",
        "Series": "3-1",
        "GF-GA": "42-32",
        "Result": "Win",
        "Round": "OLA Final"
    },
    {
        "Season": "--",
        "Opponent": "Founders Cup",
        "Series": "6-0",
        "GF-GA": "117-35",
        "Result": "1st",
        "Round": "Tournament Champions"
    },
    {
        "Season": "2014",
        "Opponent": "Welland Generals",
        "Series": "3-0",
        "GF-GA": "55-19",
        "Result": "Win",
        "Round": "Conference QF"
    },
    {
        "Season": "--",
        "Opponent": "Niagara Thunderhawks",
        "Series": "3-0",
        "GF-GA": "34-12",
        "Result": "Win",
        "Round": "Conference SF"
    },
    {
        "Season": "--",
        "Opponent": "Orangeville Northmen",
        "Series": "3-1",
        "GF-GA": "45-27",
        "Result": "Win",
        "Round": "Conference Final"
    },
    {
        "Season": "--",
        "Opponent": "Halton Hills Bulldogs",
        "Series": "3-0",
        "GF-GA": "43-20",
        "Result": "Win",
        "Round": "OLA Final"
    },
    {
        "Season": "--",
        "Opponent": "Founders Cup",
        "Series": "7-0",
        "GF-GA": "132-27",
        "Result": "1st",
        "Round": "Tournament Champions"
    },
    {
        "Season": "2015",
        "Opponent": "Wallaceburg Red Devils",
        "Series": "3-0",
        "GF-GA": "48-11",
        "Result": "Win",
        "Round": "Conference QF"
    },
    {
        "Season": "--",
        "Opponent": "Windsor Clippers",
        "Series": "3-0",
        "GF-GA": "40-21",
        "Result": "Win",
        "Round": "Conference SF"
    },
    {
        "Season": "--",
        "Opponent": "Orangeville Northmen",
        "Series": "3-2",
        "GF-GA": "30-29",
        "Result": "Win",
        "Round": "Conference Final"
    },
    {
        "Season": "--",
        "Opponent": "Akwesasne Indians",
        "Series": "1-3",
        "GF-GA": "33-43",
        "Result": "Loss",
        "Round": "OLA Final"
    }
]