[
    {
        "#": "1",
        "Title": "Intro",
        "Featured guest(s)": "",
        "Producer": "Dash",
        "Translation": "Intro"
    },
    {
        "#": "2",
        "Title": "SluA!aj mater",
        "Featured guest(s)": "",
        "Producer": "Koolade",
        "Translation": "Listen to Your Mother"
    },
    {
        "#": "3",
        "Title": "Minimalni rizik",
        "Featured guest(s)": "",
        "Producer": "Dash",
        "Translation": "Minimal Risk"
    },
    {
        "#": "4",
        "Title": "Rado viA\"'en",
        "Featured guest(s)": "",
        "Producer": "Dash",
        "Translation": "Gladly Seen"
    },
    {
        "#": "5",
        "Title": "Jesmo'l sami",
        "Featured guest(s)": "Auro (Introduction)",
        "Producer": "Koolade",
        "Translation": "Are we alone"
    },
    {
        "#": "6",
        "Title": "Saletova Osveta",
        "Featured guest(s)": "",
        "Producer": "Dash",
        "Translation": "Sale's Revenge"
    },
    {
        "#": "7",
        "Title": "Prikaze",
        "Featured guest(s)": "",
        "Producer": "Dash",
        "Translation": "Apparitions"
    },
    {
        "#": "8",
        "Title": "Recitacija",
        "Featured guest(s)": "",
        "Producer": "Dash",
        "Translation": "Recitation"
    },
    {
        "#": "9",
        "Title": "Mahir i Alma",
        "Featured guest(s)": "",
        "Producer": "Shot",
        "Translation": "Mahir and Alma"
    },
    {
        "#": "10",
        "Title": "Faca (Intro)",
        "Featured guest(s)": "",
        "Producer": "Dash",
        "Translation": "The Man (Intro)"
    },
    {
        "#": "11",
        "Title": "Faca",
        "Featured guest(s)": "",
        "Producer": "Shot",
        "Translation": "The Man"
    },
    {
        "#": "12",
        "Title": "ZnaA! Me (Intro)",
        "Featured guest(s)": "",
        "Producer": "Dash",
        "Translation": "You Know Me (Intro)"
    },
    {
        "#": "13",
        "Title": "ZnaA! Me",
        "Featured guest(s)": "Sandra and Andrea",
        "Producer": "Dash",
        "Translation": "You Know Me"
    },
    {
        "#": "14",
        "Title": "A verc Komerc",
        "Featured guest(s)": "Stoka",
        "Producer": "Dash",
        "Translation": "Smuggling Komerc"
    },
    {
        "#": "15",
        "Title": "De-Za-Vu",
        "Featured guest(s)": "Remi",
        "Producer": "Shot",
        "Translation": "Deja Vu"
    },
    {
        "#": "16",
        "Title": "A ank",
        "Featured guest(s)": "Nered, Bizzo and Mirza",
        "Producer": "Dash",
        "Translation": "The Bar"
    },
    {
        "#": "17",
        "Title": "Pare, Pare",
        "Featured guest(s)": "",
        "Producer": "Dash",
        "Translation": "Money, Money"
    },
    {
        "#": "18",
        "Title": "Molitva",
        "Featured guest(s)": "El Bahatee and Nikola",
        "Producer": "Dash",
        "Translation": "Prayer"
    },
    {
        "#": "19",
        "Title": "Za I Protiv",
        "Featured guest(s)": "",
        "Producer": "Dash",
        "Translation": "For And Against"
    },
    {
        "#": "20",
        "Title": "Nemoj Se Bojat'",
        "Featured guest(s)": "",
        "Producer": "Dash",
        "Translation": "Don't Be Scared"
    },
    {
        "#": "21",
        "Title": "Outro",
        "Featured guest(s)": "",
        "Producer": "Dash",
        "Translation": "Outro"
    }
]