[
    {
        "Team": "Clarence",
        "Roster": "(277)",
        "Won": "205",
        "Lost": "69",
        "Draw": "3",
        "Finals": "(36)",
        "Won 6": "21",
        "Lost 7": "15",
        "Draw 8": "0",
        "Total": "(313)",
        "Won 10": "226",
        "Lost 11": "84",
        "Draw 12": "3",
        "Seasons": "(15)",
        "Titles": "5"
    },
    {
        "Team": "Nth Launceston\\/Nth Bombers",
        "Roster": "(277)",
        "Won": "185",
        "Lost": "90",
        "Draw": "2",
        "Finals": "(26)",
        "Won 6": "12",
        "Lost 7": "14",
        "Draw 8": "0",
        "Total": "(303)",
        "Won 10": "197",
        "Lost 11": "104",
        "Draw 12": "2",
        "Seasons": "(15)",
        "Titles": "2"
    },
    {
        "Team": "Glenorchy",
        "Roster": "(277)",
        "Won": "141",
        "Lost": "135",
        "Draw": "1",
        "Finals": "(22)",
        "Won 6": "14",
        "Lost 7": "8",
        "Draw 8": "0",
        "Total": "(299)",
        "Won 10": "155",
        "Lost 11": "143",
        "Draw 12": "1",
        "Seasons": "(15)",
        "Titles": "2"
    },
    {
        "Team": "North Hobart\\/Hobart Demons",
        "Roster": "(277)",
        "Won": "143",
        "Lost": "134",
        "Draw": "0",
        "Finals": "(21)",
        "Won 6": "14",
        "Lost 7": "7",
        "Draw 8": "0",
        "Total": "(298)",
        "Won 10": "157",
        "Lost 11": "141",
        "Draw 12": "0",
        "Seasons": "(15)",
        "Titles": "4"
    },
    {
        "Team": "Devonport",
        "Roster": "(259)",
        "Won": "120",
        "Lost": "135",
        "Draw": "4",
        "Finals": "(13)",
        "Won 6": "5",
        "Lost 7": "8",
        "Draw 8": "0",
        "Total": "(272)",
        "Won 10": "125",
        "Lost 11": "143",
        "Draw 12": "4",
        "Seasons": "(14)",
        "Titles": "1"
    },
    {
        "Team": "New Norfolk\\/Derwent Eagles",
        "Roster": "(260)",
        "Won": "111",
        "Lost": "145",
        "Draw": "4",
        "Finals": "(10)",
        "Won 6": "3",
        "Lost 7": "7",
        "Draw 8": "0",
        "Total": "(270)",
        "Won 10": "114",
        "Lost 11": "152",
        "Draw 12": "4",
        "Seasons": "(14)",
        "Titles": "0"
    },
    {
        "Team": "Hobart",
        "Roster": "(224)",
        "Won": "96",
        "Lost": "126",
        "Draw": "2",
        "Finals": "(16)",
        "Won 6": "8",
        "Lost 7": "8",
        "Draw 8": "0",
        "Total": "(240)",
        "Won 10": "104",
        "Lost 11": "134",
        "Draw 12": "2",
        "Seasons": "(12)",
        "Titles": "1"
    },
    {
        "Team": "Sandy Bay",
        "Roster": "(224)",
        "Won": "95",
        "Lost": "127",
        "Draw": "2",
        "Finals": "(9)",
        "Won 6": "3",
        "Lost 7": "6",
        "Draw 8": "0",
        "Total": "(233)",
        "Won 10": "98",
        "Lost 11": "133",
        "Draw 12": "2",
        "Seasons": "(12)",
        "Titles": "0"
    },
    {
        "Team": "South Launceston",
        "Roster": "(217)",
        "Won": "51",
        "Lost": "164",
        "Draw": "2",
        "Finals": "(0)",
        "Won 6": "0",
        "Lost 7": "0",
        "Draw 8": "0",
        "Total": "(217)",
        "Won 10": "51",
        "Lost 11": "164",
        "Draw 12": "2",
        "Seasons": "(12)",
        "Titles": "0"
    },
    {
        "Team": "Burnie Hawks",
        "Roster": "(150)",
        "Won": "74",
        "Lost": "74",
        "Draw": "2",
        "Finals": "(8)",
        "Won 6": "3",
        "Lost 7": "5",
        "Draw 8": "0",
        "Total": "(158)",
        "Won 10": "77",
        "Lost 11": "79",
        "Draw 12": "2",
        "Seasons": "(8)",
        "Titles": "0"
    },
    {
        "Team": "Burnie Dockers",
        "Roster": "(109)",
        "Won": "76",
        "Lost": "33",
        "Draw": "0",
        "Finals": "(13)",
        "Won 6": "5",
        "Lost 7": "8",
        "Draw 8": "0",
        "Total": "(122)",
        "Won 10": "81",
        "Lost 11": "41",
        "Draw 12": "0",
        "Seasons": "(6)",
        "Titles": "0"
    },
    {
        "Team": "Launceston",
        "Roster": "(74)",
        "Won": "15",
        "Lost": "59",
        "Draw": "0",
        "Finals": "(0)",
        "Won 6": "0",
        "Lost 7": "0",
        "Draw 8": "0",
        "Total": "(74)",
        "Won 10": "15",
        "Lost 11": "59",
        "Draw 12": "0",
        "Seasons": "(4)",
        "Titles": "0"
    },
    {
        "Team": "Southern Cats",
        "Roster": "(26)",
        "Won": "8",
        "Lost": "18",
        "Draw": "0",
        "Finals": "(1)",
        "Won 6": "0",
        "Lost 7": "1",
        "Draw 8": "0",
        "Total": "(27)",
        "Won 10": "8",
        "Lost 11": "19",
        "Draw 12": "0",
        "Seasons": "(1 1/4 )",
        "Titles": "0"
    },
    {
        "Team": "East Launceston",
        "Roster": "(7)",
        "Won": "2",
        "Lost": "5",
        "Draw": "0",
        "Finals": "(0)",
        "Won 6": "0",
        "Lost 7": "0",
        "Draw 8": "0",
        "Total": "(7)",
        "Won 10": "2",
        "Lost 11": "5",
        "Draw 12": "0",
        "Seasons": "( 1/4 )",
        "Titles": "0"
    }
]