[
    {
        "Season": "Season",
        "Club": "Club",
        "League": "League",
        "League 3": "League 3",
        "MLS Cup Playoffs": "MLS Cup Playoffs",
        "Cup": "Cup",
        "NO-HEADER6": "",
        "NO-HEADER7": "",
        "NO-HEADER8": "",
        "NO-HEADER9": "",
        "NO-HEADER10": "",
        "NO-HEADER11": ""
    },
    {
        "Season": "Season",
        "Club": "Club",
        "League": "League",
        "League 3": "Apps",
        "MLS Cup Playoffs": "Goals",
        "Cup": "Assists",
        "NO-HEADER6": "Apps",
        "NO-HEADER7": "Goals",
        "NO-HEADER8": "Assists",
        "NO-HEADER9": "Apps",
        "NO-HEADER10": "Goals",
        "NO-HEADER11": "Assists"
    },
    {
        "Season": "2007[14]",
        "Club": "San Jose Frogs",
        "League": "USL PDL",
        "League 3": "7",
        "MLS Cup Playoffs": "2",
        "Cup": "3",
        "NO-HEADER6": "AC/EUR\"",
        "NO-HEADER7": "",
        "NO-HEADER8": "",
        "NO-HEADER9": "",
        "NO-HEADER10": "",
        "NO-HEADER11": ""
    },
    {
        "Season": "2008[15]",
        "Club": "San Jose Frogs",
        "League": "USL PDL",
        "League 3": "2",
        "MLS Cup Playoffs": "0",
        "Cup": "0",
        "NO-HEADER6": "AC/EUR\"",
        "NO-HEADER7": "",
        "NO-HEADER8": "",
        "NO-HEADER9": "",
        "NO-HEADER10": "",
        "NO-HEADER11": ""
    },
    {
        "Season": "USL PDL Total",
        "Club": "9",
        "League": "2",
        "League 3": "3",
        "MLS Cup Playoffs": "AC/EUR\"",
        "Cup": "",
        "NO-HEADER6": "",
        "NO-HEADER7": "",
        "NO-HEADER8": "",
        "NO-HEADER9": "",
        "NO-HEADER10": "",
        "NO-HEADER11": ""
    },
    {
        "Season": "2010",
        "Club": "San Jose Earthquakes",
        "League": "MLS",
        "League 3": "8",
        "MLS Cup Playoffs": "1",
        "Cup": "0",
        "NO-HEADER6": "0",
        "NO-HEADER7": "0",
        "NO-HEADER8": "0",
        "NO-HEADER9": "1[a]",
        "NO-HEADER10": "0",
        "NO-HEADER11": "0"
    },
    {
        "Season": "2011",
        "Club": "San Jose Earthquakes",
        "League": "MLS",
        "League 3": "19",
        "MLS Cup Playoffs": "0",
        "Cup": "7",
        "NO-HEADER6": "AC/EUR\"",
        "NO-HEADER7": "2[a]",
        "NO-HEADER8": "0",
        "NO-HEADER9": "0",
        "NO-HEADER10": "",
        "NO-HEADER11": ""
    },
    {
        "Season": "2012",
        "Club": "San Jose Earthquakes",
        "League": "MLS",
        "League 3": "33",
        "MLS Cup Playoffs": "0",
        "Cup": "6",
        "NO-HEADER6": "2",
        "NO-HEADER7": "0",
        "NO-HEADER8": "0",
        "NO-HEADER9": "3[a]",
        "NO-HEADER10": "0",
        "NO-HEADER11": "0"
    },
    {
        "Season": "2013",
        "Club": "San Jose Earthquakes",
        "League": "MLS",
        "League 3": "26",
        "MLS Cup Playoffs": "1",
        "Cup": "3",
        "NO-HEADER6": "AC/EUR\"",
        "NO-HEADER7": "0[a]",
        "NO-HEADER8": "0",
        "NO-HEADER9": "0",
        "NO-HEADER10": "",
        "NO-HEADER11": ""
    },
    {
        "Season": "2014",
        "Club": "Vancouver Whitecaps FC",
        "League": "MLS",
        "League 3": "27",
        "MLS Cup Playoffs": "0",
        "Cup": "2",
        "NO-HEADER6": "0",
        "NO-HEADER7": "0",
        "NO-HEADER8": "0",
        "NO-HEADER9": "0[b]",
        "NO-HEADER10": "0",
        "NO-HEADER11": "0"
    },
    {
        "Season": "MLS Total",
        "Club": "107",
        "League": "2",
        "League 3": "18",
        "MLS Cup Playoffs": "2",
        "Cup": "0",
        "NO-HEADER6": "0",
        "NO-HEADER7": "6",
        "NO-HEADER8": "0",
        "NO-HEADER9": "0",
        "NO-HEADER10": "",
        "NO-HEADER11": ""
    },
    {
        "Season": "Career Total",
        "Club": "122",
        "League": "4",
        "League 3": "21",
        "MLS Cup Playoffs": "2",
        "Cup": "0",
        "NO-HEADER6": "0",
        "NO-HEADER7": "6",
        "NO-HEADER8": "0",
        "NO-HEADER9": "0",
        "NO-HEADER10": "",
        "NO-HEADER11": ""
    }
]