[
    {
        "Municipality": "Campbell River",
        "Government Type": "city",
        "Population": "31,186"
    },
    {
        "Municipality": "Gold River",
        "Government Type": "village",
        "Population": "1,267"
    },
    {
        "Municipality": "Sayward",
        "Government Type": "village",
        "Population": "317"
    },
    {
        "Municipality": "Tahsis",
        "Government Type": "village",
        "Population": "316"
    },
    {
        "Municipality": "Zeballos",
        "Government Type": "village",
        "Population": "125"
    }
]