[
    {
        "km": "",
        "Exit": "",
        "Interchange": "ALOR SETAR",
        "To": "Masjid Zahir Balai Nobat Istana Lama",
        "Remarks": "T-junctions"
    },
    {
        "km": "",
        "Exit": "",
        "Interchange": "Sungai Kedah Bridge",
        "To": "Wan Mat Saman's Aqueduct monument",
        "Remarks": ""
    },
    {
        "km": "",
        "Exit": "",
        "Interchange": "Kampung Seberang Perak",
        "To": "WEST Kampung Seberang Perak Dr Mahathir Mohammad birthplace",
        "Remarks": "T-junctions"
    },
    {
        "km": "",
        "Exit": "",
        "Interchange": "Pekan Simpang Kuala",
        "To": "WEST KUALA KEDAH HIGHWAY Kuala Kedah Langkawi Island EAST K138 JALAN ALOR MENGKUDU Alor Mengkudu",
        "Remarks": "Junctions"
    },
    {
        "km": "",
        "Exit": "",
        "Interchange": "Alor Setar Selatan",
        "To": "NORTHWEST ALOR SETAR BYPASS Kangar Kuala Kedah EAST NORTH-SOUTH EXPRESSWAY NORTHERN ROUTE Bukit Kayu Hitam Penang Ipoh Kuala Lumpur",
        "Remarks": "Junctions"
    },
    {
        "km": "",
        "Exit": "",
        "Interchange": "",
        "To": "SOUTH Sungai Petani Gurun Kota Sarang Semut",
        "Remarks": ""
    }
]