[
    {
        "No.": "1H",
        "Results[17]": "Juventud (with Psicosis and Super Crazy) defeated Simon Dean[16]",
        "Stipulations": "Singles match",
        "Times": "04:10"
    },
    {
        "No.": "2",
        "Results[17]": "Booker T (with Sharmell) defeated Chris Benoit[18]",
        "Stipulations": "Singles match; match one of a best of seven series for the WWE United States Championship",
        "Times": "14:39"
    },
    {
        "No.": "3",
        "Results[17]": "Trish Stratus (c) (with Mickie James) defeated Melina (with Joey Mercury and Johnny Nitro)[19]",
        "Stipulations": "Singles match for the WWE Women's Championship",
        "Times": "06:30"
    },
    {
        "No.": "4",
        "Results[17]": "Triple H defeated Ric Flair[20]",
        "Stipulations": "Last Man Standing match",
        "Times": "27:01"
    },
    {
        "No.": "5",
        "Results[17]": "John Cena (c) defeated Kurt Angle[21]",
        "Stipulations": "Singles match for the WWE Championship with Daivari as the special guest referee",
        "Times": "13:56"
    },
    {
        "No.": "6",
        "Results[17]": "Theodore Long (with Palmer Canon) defeated Eric Bischoff[22]",
        "Stipulations": "Singles match",
        "Times": "05:23"
    },
    {
        "No.": "7",
        "Results[17]": "Team WWE SmackDown! (Batista, Rey Mysterio, John \\Bradshaw\" Layfield",
        "Stipulations": " Bobby Lashley",
        "Times": " and Randy Orton) (with Bob Orton and Jillian Hall) defeated Team WWE Raw (Shawn Michaels"
    },
    {
        "No.": "(c) AC/EUR\" refers to the champion(s) heading into the match H AC/EUR\" indicates the match was broadcast prior to the pay-per-view on Sunday Night Heat",
        "Results[17]": "",
        "Stipulations": "",
        "Times": ""
    }
]