[
    {
        "Season": "1999AC/EUR\"2000",
        "Division": "Verbandsliga Nordbaden",
        "Tier": "V",
        "Position": "2nd"
    },
    {
        "Season": "2000AC/EUR\"01",
        "Division": "Verbandsliga Nordbaden",
        "Tier": "V",
        "Position": "2nd AC/+'"
    },
    {
        "Season": "2001AC/EUR\"02",
        "Division": "Oberliga Baden-Wurttemberg",
        "Tier": "IV",
        "Position": "6th"
    },
    {
        "Season": "2002AC/EUR\"03",
        "Division": "Oberliga Baden-Wurttemberg",
        "Tier": "IV",
        "Position": "10th AC/+\""
    },
    {
        "Season": "2003AC/EUR\"04",
        "Division": "",
        "Tier": "",
        "Position": ""
    },
    {
        "Season": "2004AC/EUR\"05",
        "Division": "Landesliga Rhein\\/Neckar",
        "Tier": "VI",
        "Position": "9th"
    },
    {
        "Season": "2005AC/EUR\"06",
        "Division": "Landesliga Rhein\\/Neckar",
        "Tier": "VI",
        "Position": "11th"
    },
    {
        "Season": "2006AC/EUR\"07",
        "Division": "Landesliga Rhein\\/Neckar",
        "Tier": "VI",
        "Position": "8th"
    },
    {
        "Season": "2007AC/EUR\"08",
        "Division": "Landesliga Rhein\\/Neckar",
        "Tier": "VI",
        "Position": "2nd"
    },
    {
        "Season": "2008AC/EUR\"09",
        "Division": "Landesliga Rhein\\/Neckar",
        "Tier": "VII",
        "Position": "2nd AC/+'"
    },
    {
        "Season": "2009AC/EUR\"10",
        "Division": "Verbandsliga Nordbaden",
        "Tier": "VI",
        "Position": "5th"
    },
    {
        "Season": "2010AC/EUR\"11",
        "Division": "Verbandsliga Nordbaden",
        "Tier": "VI",
        "Position": "12th"
    },
    {
        "Season": "2011AC/EUR\"12",
        "Division": "Verbandsliga Nordbaden",
        "Tier": "VI",
        "Position": "7th"
    },
    {
        "Season": "2012AC/EUR\"13",
        "Division": "Verbandsliga Nordbaden",
        "Tier": "VI",
        "Position": "11th"
    },
    {
        "Season": "2013AC/EUR\"14",
        "Division": "Verbandsliga Nordbaden",
        "Tier": "VI",
        "Position": "8th"
    },
    {
        "Season": "2014AC/EUR\"15",
        "Division": "Verbandsliga Nordbaden",
        "Tier": "VI",
        "Position": "13th AC/+\""
    },
    {
        "Season": "2015AC/EUR\"16",
        "Division": "Landesliga Rhein\\/Neckar",
        "Tier": "VII",
        "Position": ""
    }
]