[
    {
        "Year": "2015",
        "Champion": "Nora Niedmers Helene Scholsen",
        "Runners-up": "Cristina Ene Dea Herdzelas",
        "Score": "6AC/EUR\"4, 7AC/EUR\"6(7AC/EUR\"5)"
    },
    {
        "Year": "2014",
        "Champion": "Alexandra Nancarrow Maria Sakkari",
        "Runners-up": "Emma Laine Anastasia Pivovarova",
        "Score": "6AC/EUR\"2, 6AC/EUR\"3"
    },
    {
        "Year": "2013",
        "Champion": "Julia Wachaczyk Nina Zander",
        "Runners-up": "Emma Laine Piia Suomalainen",
        "Score": "6AC/EUR\"4, 6AC/EUR\"4"
    },
    {
        "Year": "2012",
        "Champion": "Olga Brozda Anouk Tigu",
        "Runners-up": "Nikola Horakova Julia Valetova",
        "Score": "6AC/EUR\"4, 6AC/EUR\"3"
    },
    {
        "Year": "2011",
        "Champion": "Leia Kaukonen Polina Vinogradova",
        "Runners-up": "Yanina Darishina Liubov Vasilyeva",
        "Score": "7AC/EUR\"5, 7AC/EUR\"6(8AC/EUR\"6)"
    },
    {
        "Year": "2010",
        "Champion": "Irina Kuzmina DiAna MarcinkAviAa",
        "Runners-up": "Amandine Hesse Monika Tumova",
        "Score": "6AC/EUR\"4, 6AC/EUR\"2"
    },
    {
        "Year": "2009",
        "Champion": "Emma Laine Sandra Roma",
        "Runners-up": "Alize Lim Vivienne Vierin",
        "Score": "6AC/EUR\"4, 6AC/EUR\"3"
    },
    {
        "Year": "2008",
        "Champion": "Diana Eriksson Hanne Skak Jensen",
        "Runners-up": "Annie Goransson Caroline Magnusson",
        "Score": "6AC/EUR\"4, 6AC/EUR\"0"
    },
    {
        "Year": "2007",
        "Champion": "Piia Suomalainen Katariina Tuohimaa",
        "Runners-up": "Hanne Skak Jensen Marcella Koek",
        "Score": "6AC/EUR\"2, 6AC/EUR\"4"
    },
    {
        "Year": "AC/+' ITF $10,000 event AC/+'",
        "Champion": "",
        "Runners-up": "",
        "Score": ""
    }
]