[
    {
        "Name": "Name",
        "TIA\\/EIA status": "TIA\\/EIA status",
        "Usage": "Usage"
    },
    {
        "Name": "Cat 1",
        "TIA\\/EIA status": "Unrecognized.",
        "Usage": "POTS telephone communications, ISDN and doorbell wiring"
    },
    {
        "Name": "Cat 2",
        "TIA\\/EIA status": "Unrecognized.",
        "Usage": "4 Mbit\\/s token ring networks"
    },
    {
        "Name": "Cat 3",
        "TIA\\/EIA status": "Defined in TIA\\/EIA-568-B.",
        "Usage": "Data networks utilizing frequencies up to 16 MHz, popular for 10 Mbit\\/s Ethernet networks"
    },
    {
        "Name": "Cat 4",
        "TIA\\/EIA status": "Unrecognized.",
        "Usage": "Provides performance of up to 20 MHz, frequently used on 16 Mbit\\/s token ring networks"
    },
    {
        "Name": "Cat 5",
        "TIA\\/EIA status": "Unrecognized.",
        "Usage": "Provides performance of up to 100 MHz, frequently used on 100 Mbit\\/s ethernet networks; may be unsuitable for 1000BASE-T gigabit ethernet"
    },
    {
        "Name": "Cat 5e",
        "TIA\\/EIA status": "Defined in TIA\\/EIA-568-B.",
        "Usage": "Provides performance of up to 100 MHz, frequently used for both 100 Mbit\\/s and 1000BASE-T gigabit ethernet networks"
    },
    {
        "Name": "Cat 6",
        "TIA\\/EIA status": "Defined in TIA\\/EIA-568-B.",
        "Usage": "Provides performance of up to 250 MHz (more than double the performance of category 5 and 5e)"
    },
    {
        "Name": "Cat 6a",
        "TIA\\/EIA status": "Unrecognized.",
        "Usage": "Future specification for 10 Gbit\\/s applications"
    },
    {
        "Name": "Cat 7",
        "TIA\\/EIA status": "Unrecognized.",
        "Usage": "Informal name applied to ISO\\/IEC 11801 Class F cabling, designed for transmission at frequencies up to 600 MHz"
    },
    {
        "Name": "See also: TIA\\/EIA-568-B AC/EURAC/ Ethernet AC/EURAC/ 8P8C AC/EURAC/ Ethernet crossover cable AC/EURAC/ Twisted pair",
        "TIA\\/EIA status": "",
        "Usage": ""
    }
]