[
    {
        "Temple": "Boise Idaho Temple",
        "Number": "27",
        "Dedicated": "1984",
        "Square Feet": "35,325",
        "Ordinance Rooms": "4",
        "Sealing Rooms": "4"
    },
    {
        "Temple": "Manila Philippines Temple",
        "Number": "29",
        "Dedicated": "1984",
        "Square Feet": "26,683",
        "Ordinance Rooms": "4",
        "Sealing Rooms": "3"
    },
    {
        "Temple": "Dallas Texas Temple",
        "Number": "30",
        "Dedicated": "1984",
        "Square Feet": "46,956",
        "Ordinance Rooms": "5",
        "Sealing Rooms": "5"
    },
    {
        "Temple": "Taipei Taiwan Temple",
        "Number": "31",
        "Dedicated": "1984",
        "Square Feet": "16,000",
        "Ordinance Rooms": "4",
        "Sealing Rooms": "3"
    },
    {
        "Temple": "Guatemala City Guatemala Temple",
        "Number": "32",
        "Dedicated": "1984",
        "Square Feet": "11,610",
        "Ordinance Rooms": "4",
        "Sealing Rooms": "3"
    },
    {
        "Temple": "Stockholm Sweden Temple",
        "Number": "34",
        "Dedicated": "1985",
        "Square Feet": "14,508",
        "Ordinance Rooms": "4",
        "Sealing Rooms": "3"
    },
    {
        "Temple": "Chicago Illinois Temple",
        "Number": "35",
        "Dedicated": "1985",
        "Square Feet": "29,751",
        "Ordinance Rooms": "5",
        "Sealing Rooms": "4"
    },
    {
        "Temple": "Johannesburg South Africa Temple",
        "Number": "36",
        "Dedicated": "1985",
        "Square Feet": "19,184",
        "Ordinance Rooms": "4",
        "Sealing Rooms": "3"
    },
    {
        "Temple": "Seoul Korea Temple",
        "Number": "37",
        "Dedicated": "1985",
        "Square Feet": "28,057",
        "Ordinance Rooms": "4",
        "Sealing Rooms": "3"
    },
    {
        "Temple": "Lima Peru Temple",
        "Number": "38",
        "Dedicated": "1986",
        "Square Feet": "9,600",
        "Ordinance Rooms": "4",
        "Sealing Rooms": "3"
    },
    {
        "Temple": "Buenos Aires Argentina Temple",
        "Number": "39",
        "Dedicated": "1986",
        "Square Feet": "17,683",
        "Ordinance Rooms": "4",
        "Sealing Rooms": "3"
    },
    {
        "Temple": "Frankfurt Germany Temple",
        "Number": "41",
        "Dedicated": "1987",
        "Square Feet": "24,170",
        "Ordinance Rooms": "4",
        "Sealing Rooms": "5"
    },
    {
        "Temple": "Portland Oregon Temple",
        "Number": "42",
        "Dedicated": "1989",
        "Square Feet": "79,220",
        "Ordinance Rooms": "4",
        "Sealing Rooms": "14"
    },
    {
        "Temple": "Las Vegas Nevada Temple",
        "Number": "43",
        "Dedicated": "1989",
        "Square Feet": "80,350",
        "Ordinance Rooms": "4",
        "Sealing Rooms": "6"
    }
]