[
    {
        "Date": "09\\/23\\/1961",
        "Field": "N",
        "Outcome": "L 6-0",
        "Opponent": "Mississippi State"
    },
    {
        "Date": "09\\/30\\/1961",
        "Field": "A",
        "Outcome": "L 42-14",
        "Opponent": "Texas"
    },
    {
        "Date": "10\\/07\\/1961",
        "Field": "H",
        "Outcome": "L 38-7",
        "Opponent": "Texas A&M"
    },
    {
        "Date": "10\\/14\\/1961",
        "Field": "H",
        "Outcome": "W 10-0",
        "Opponent": "TCU"
    },
    {
        "Date": "10\\/21\\/1961",
        "Field": "H",
        "Outcome": "W 19-17",
        "Opponent": "Baylor"
    },
    {
        "Date": "10\\/28\\/1961",
        "Field": "A",
        "Outcome": "L 8-7",
        "Opponent": "SMU"
    },
    {
        "Date": "11\\/04\\/1961",
        "Field": "H",
        "Outcome": "L 42-7",
        "Opponent": "Rice"
    },
    {
        "Date": "11\\/11\\/1961",
        "Field": "H",
        "Outcome": "W 14-6",
        "Opponent": "Boston College"
    },
    {
        "Date": "11\\/25\\/1961",
        "Field": "A",
        "Outcome": "L 28-0",
        "Opponent": "Arkansas"
    },
    {
        "Date": "12\\/02\\/1961",
        "Field": "H",
        "Outcome": "W 16-14",
        "Opponent": "West Texas State"
    }
]