[
    {
        "Date": "09\\/22\\/1962",
        "Field": "H",
        "Outcome": "L 30-27",
        "Opponent": "West Texas State"
    },
    {
        "Date": "09\\/29\\/1962",
        "Field": "H",
        "Outcome": "L 34-0",
        "Opponent": "Texas"
    },
    {
        "Date": "10\\/06\\/1962",
        "Field": "A",
        "Outcome": "L 7-3",
        "Opponent": "Texas A&M"
    },
    {
        "Date": "10\\/13\\/1962",
        "Field": "A",
        "Outcome": "L 35-13",
        "Opponent": "TCU"
    },
    {
        "Date": "10\\/20\\/1962",
        "Field": "A",
        "Outcome": "L 28-6",
        "Opponent": "Baylor"
    },
    {
        "Date": "10\\/27\\/1962",
        "Field": "H",
        "Outcome": "L 14-0",
        "Opponent": "SMU"
    },
    {
        "Date": "11\\/03\\/1962",
        "Field": "A",
        "Outcome": "L 14-0",
        "Opponent": "Rice"
    },
    {
        "Date": "11\\/10\\/1962",
        "Field": "A",
        "Outcome": "L 42-13",
        "Opponent": "Boston College"
    },
    {
        "Date": "11\\/17\\/1962",
        "Field": "H",
        "Outcome": "W 21-12",
        "Opponent": "Colorado"
    },
    {
        "Date": "11\\/24\\/1962",
        "Field": "H",
        "Outcome": "L 34-0",
        "Opponent": "Arkansas"
    }
]