[
    {
        "Date": "09\\/23\\/1944",
        "Field": "H",
        "Outcome": "L 27-13",
        "Opponent": "Lubbock Field"
    },
    {
        "Date": "09\\/30\\/1944",
        "Field": "A",
        "Outcome": "L 27-14",
        "Opponent": "Texas A&M"
    },
    {
        "Date": "10\\/07\\/1944",
        "Field": "H",
        "Outcome": "L 14-7",
        "Opponent": "Oklahoma A&M"
    },
    {
        "Date": "10\\/14\\/1944",
        "Field": "A",
        "Outcome": "L 34-7",
        "Opponent": "Tulsa"
    },
    {
        "Date": "10\\/21\\/1944",
        "Field": "H",
        "Outcome": "L 21-19",
        "Opponent": "Southwestern"
    },
    {
        "Date": "10\\/27\\/1944",
        "Field": "A",
        "Outcome": "W 35-6",
        "Opponent": "West Texas State"
    },
    {
        "Date": "11\\/04\\/1944",
        "Field": "A",
        "Outcome": "W 13-7",
        "Opponent": "Rice"
    },
    {
        "Date": "11\\/11\\/1944",
        "Field": "A",
        "Outcome": "L 14-0",
        "Opponent": "TCU"
    },
    {
        "Date": "11\\/18\\/1944",
        "Field": "H",
        "Outcome": "W 13-7",
        "Opponent": "New Mexico"
    },
    {
        "Date": "11\\/25\\/1944",
        "Field": "H",
        "Outcome": "L 7-6",
        "Opponent": "SMU"
    },
    {
        "Date": "12\\/02\\/1944",
        "Field": "A",
        "Outcome": "W 7-6",
        "Opponent": "South Plains Field"
    }
]