[
    {
        "Date": "09\\/17\\/1960",
        "Field": "H",
        "Outcome": "W 38-14",
        "Opponent": "West Texas State"
    },
    {
        "Date": "09\\/24\\/1960",
        "Field": "A",
        "Outcome": "T 14-14",
        "Opponent": "Texas A&M"
    },
    {
        "Date": "10\\/01\\/1960",
        "Field": "A",
        "Outcome": "L 17-0",
        "Opponent": "Texas"
    },
    {
        "Date": "10\\/08\\/1960",
        "Field": "A",
        "Outcome": "L 21-7",
        "Opponent": "TCU"
    },
    {
        "Date": "10\\/15\\/1960",
        "Field": "H",
        "Outcome": "L 14-7",
        "Opponent": "Baylor"
    },
    {
        "Date": "10\\/22\\/1960",
        "Field": "H",
        "Outcome": "W 28-7",
        "Opponent": "SMU"
    },
    {
        "Date": "10\\/29\\/1960",
        "Field": "A",
        "Outcome": "L 30-6",
        "Opponent": "Rice"
    },
    {
        "Date": "11\\/05\\/1960",
        "Field": "H",
        "Outcome": "W 35-21",
        "Opponent": "Tulane"
    },
    {
        "Date": "11\\/12\\/1960",
        "Field": "H",
        "Outcome": "L 10-7",
        "Opponent": "Wyoming"
    },
    {
        "Date": "11\\/19\\/1960",
        "Field": "H",
        "Outcome": "L 6-34",
        "Opponent": "Arkansas"
    }
]