[
    {
        "Chart (1999)": "Australian Albums (ARIA)[6]",
        "Peak position": "20"
    },
    {
        "Chart (1999)": "Canadian Albums (Billboard)[7]",
        "Peak position": "17"
    },
    {
        "Chart (1999)": "New Zealand Albums (RMNZ)[8]",
        "Peak position": "1"
    },
    {
        "Chart (1999)": "US Billboard 200[9]",
        "Peak position": "63"
    }
]