[
    {
        "Film": "The Amityville Horror",
        "Release Date": "July 27, 1979",
        "Budget": "$4,700,000",
        "Total Gross": "$86,432,000",
        "Reference": "[1][2][3]"
    },
    {
        "Film": "Amityville II: The Possession",
        "Release Date": "September 24, 1982",
        "Budget": "N\\/A",
        "Total Gross": "$12,534,817",
        "Reference": "[4]"
    },
    {
        "Film": "Amityville 3-D",
        "Release Date": "November 18, 1983",
        "Budget": "N\\/A",
        "Total Gross": "$6,333,135",
        "Reference": "[5]"
    },
    {
        "Film": "The Amityville Horror",
        "Release Date": "April 14, 2005",
        "Budget": "$19,000,000",
        "Total Gross": "$65,233,369",
        "Reference": "[6]"
    },
    {
        "Film": "Amityville: The Awakening",
        "Release Date": "April 15, 2016",
        "Budget": "N\\/A",
        "Total Gross": "N\\/A",
        "Reference": "[7]"
    }
]