[
    {
        "Year": "2011",
        "Award Ceremony": "Tony Award",
        "Category": "Best Musical",
        "Nominee": "Nominated",
        "Result": "[39]",
        "Ref": ""
    },
    {
        "Year": "2011",
        "Award Ceremony": "Tony Award",
        "Category": "Best Book of a Musical",
        "Nominee": "David Thompson",
        "Result": "[39]",
        "Ref": "Nominated"
    },
    {
        "Year": "2011",
        "Award Ceremony": "Tony Award",
        "Category": "Best Original Score",
        "Nominee": "John Kander and Fred Ebb",
        "Result": "[39]",
        "Ref": "Nominated"
    },
    {
        "Year": "2011",
        "Award Ceremony": "Tony Award",
        "Category": "Best Performance by a Leading Actor in a Musical",
        "Nominee": "Joshua Henry",
        "Result": "[39]",
        "Ref": "Nominated"
    },
    {
        "Year": "2011",
        "Award Ceremony": "Tony Award",
        "Category": "Best Performance by a Featured Actor in a Musical",
        "Nominee": "Forrest McClendon",
        "Result": "[39]",
        "Ref": "Nominated"
    },
    {
        "Year": "2011",
        "Award Ceremony": "Tony Award",
        "Category": "Best Performance by a Featured Actor in a Musical",
        "Nominee": "Colman Domingo",
        "Result": "Nominated",
        "Ref": "[39]"
    },
    {
        "Year": "2011",
        "Award Ceremony": "Tony Award",
        "Category": "Best Direction of a Musical",
        "Nominee": "Susan Stroman",
        "Result": "[39]",
        "Ref": "Nominated"
    },
    {
        "Year": "2011",
        "Award Ceremony": "Tony Award",
        "Category": "Best Choreography",
        "Nominee": "Susan Stroman",
        "Result": "Nominated",
        "Ref": "[39]"
    },
    {
        "Year": "2011",
        "Award Ceremony": "Tony Award",
        "Category": "Best Orchestrations",
        "Nominee": "Larry Hochman",
        "Result": "[39]",
        "Ref": "Nominated"
    },
    {
        "Year": "2011",
        "Award Ceremony": "Tony Award",
        "Category": "Best Scenic Design",
        "Nominee": "Beowulf Boritt",
        "Result": "[39]",
        "Ref": "Nominated"
    },
    {
        "Year": "2011",
        "Award Ceremony": "Tony Award",
        "Category": "Best Lighting Design",
        "Nominee": "Ken Billington",
        "Result": "[39]",
        "Ref": "Nominated"
    },
    {
        "Year": "2011",
        "Award Ceremony": "Tony Award",
        "Category": "Best Sound Design",
        "Nominee": "Peter Hylenski",
        "Result": "[39]",
        "Ref": "Nominated"
    }
]