[
    {
        "Date": "September 2",
        "Opponent": "at East Tennessee State",
        "Site": "Memorial Center AC/EURAC/ Johnson City, TN",
        "Result": "L 10AC/EUR\"28",
        "Attendance": "7,049"
    },
    {
        "Date": "September 11",
        "Opponent": "#11 Delaware*",
        "Site": "Johnson Hagood Stadium AC/EURAC/ Charleston, SC",
        "Result": "L 16AC/EUR\"26",
        "Attendance": "14,759"
    },
    {
        "Date": "September 25",
        "Opponent": "#3 Appalachian State",
        "Site": "Johnson Hagood Stadium AC/EURAC/ Charleston, SC",
        "Result": "L 0AC/EUR\"51",
        "Attendance": "12,539"
    },
    {
        "Date": "October 2",
        "Opponent": "South Carolina State*",
        "Site": "Johnson Hagood Stadium AC/EURAC/ Charleston, SC",
        "Result": "W 20AC/EUR\"14",
        "Attendance": "17,239"
    },
    {
        "Date": "October 9",
        "Opponent": "at Vanderbilt*",
        "Site": "Vanderbilt Stadium AC/EURAC/ Nashville, TN",
        "Result": "L 0AC/EUR\"58",
        "Attendance": "17,844"
    },
    {
        "Date": "October 16",
        "Opponent": "#18 Furman",
        "Site": "Johnson Hagood Stadium AC/EURAC/ Charleston, SC",
        "Result": "L 17AC/EUR\"31",
        "Attendance": "14,629"
    },
    {
        "Date": "October 23",
        "Opponent": "at #5 Georgia Southern",
        "Site": "Paulson Stadium AC/EURAC/ Statesboro, GA",
        "Result": "L 17AC/EUR\"34",
        "Attendance": "18,536"
    },
    {
        "Date": "October 30",
        "Opponent": "Wofford",
        "Site": "Johnson Hagood Stadium AC/EURAC/ Charleston, SC",
        "Result": "L 16AC/EUR\"47",
        "Attendance": "11,429"
    },
    {
        "Date": "November 6",
        "Opponent": "at Chattanooga",
        "Site": "Finley Stadium AC/EURAC/ Chattanooga, TN",
        "Result": "L 27AC/EUR\"30 OT",
        "Attendance": "6,449"
    },
    {
        "Date": "November 13",
        "Opponent": "VMI",
        "Site": "Johnson Hagood Stadium AC/EURAC/ Charleston, SC (Military Classic of the South)",
        "Result": "W 7AC/EUR\"6",
        "Attendance": "16,663"
    },
    {
        "Date": "November 20",
        "Opponent": "at Western Carolina",
        "Site": "E.J. Whitmire Stadium AC/EURAC/ Cullowhee, NC",
        "Result": "L 17AC/EUR\"24",
        "Attendance": "5,622"
    },
    {
        "Date": "*Non-conference game. Homecoming. #Rankings from The Sports Network FCS Poll released prior to game. All times are in Eastern Time..",
        "Opponent": "",
        "Site": "",
        "Result": "",
        "Attendance": ""
    }
]