[
    {
        "Location": "Plomari, Lesvos",
        "Address": "Thesi Kampos Plagias",
        "Postal code": "812 00",
        "Website": "http:\\/\\/theworldofouzo.gr\\/en\\/ouzo-plomari\\/ouzo-museum.php"
    }
]