[
    {
        "Election": "Election",
        "Member": "Member",
        "Party": "Party",
        "NO-HEADER3": ""
    },
    {
        "Election": "",
        "Member": "1832",
        "Party": "Sir Robert Frankland",
        "NO-HEADER3": "Whig"
    },
    {
        "Election": "",
        "Member": "1834 by-election",
        "Party": "Samuel Crompton [9]",
        "NO-HEADER3": "Whig"
    },
    {
        "Election": "",
        "Member": "1841",
        "Party": "John Bell [10]",
        "NO-HEADER3": "Whig"
    },
    {
        "Election": "",
        "Member": "1847",
        "Party": "John Bell [10]",
        "NO-HEADER3": "Conservative"
    },
    {
        "Election": "",
        "Member": "March 1851 by-election",
        "Party": "Sir William Payne-Gallwey",
        "NO-HEADER3": "Conservative"
    },
    {
        "Election": "",
        "Member": "1880",
        "Party": "Hon. Lewis Payn Dawnay",
        "NO-HEADER3": "Conservative"
    },
    {
        "Election": "",
        "Member": "1885",
        "Party": "constituency abolished",
        "NO-HEADER3": ""
    }
]