[
    {
        "Year": "2009",
        "Title": "The Rebound",
        "Role": "Maverick",
        "Notes": ""
    },
    {
        "Year": "2009",
        "Title": "Splinterheads",
        "Role": "Justin Frost",
        "Notes": ""
    },
    {
        "Year": "2010",
        "Title": "The Other Guys",
        "Role": "Art Exhibition Curator",
        "Notes": ""
    },
    {
        "Year": "2010",
        "Title": "Night Home",
        "Role": "James",
        "Notes": "Short film"
    },
    {
        "Year": "2011",
        "Title": "Certainty",
        "Role": "Game Guy",
        "Notes": ""
    },
    {
        "Year": "2011",
        "Title": "Michel Jean-Michel: Overexposed",
        "Role": "Michel Jean-Michel",
        "Notes": "Short film"
    },
    {
        "Year": "2012",
        "Title": "Being Flynn",
        "Role": "Richard",
        "Notes": ""
    },
    {
        "Year": "2012",
        "Title": "The Campaign",
        "Role": "Travis",
        "Notes": ""
    },
    {
        "Year": "2012",
        "Title": "The Brass Teapot",
        "Role": "Gilad",
        "Notes": ""
    },
    {
        "Year": "2012",
        "Title": "Fun Size",
        "Role": "Manuel Fuzzy",
        "Notes": ""
    },
    {
        "Year": "2013",
        "Title": "The Kings of Summer",
        "Role": "Rookie Cop",
        "Notes": ""
    },
    {
        "Year": "2013",
        "Title": "The Wolf of Wall Street",
        "Role": "Stratton Broker in a Bowtie",
        "Notes": ""
    },
    {
        "Year": "2014",
        "Title": "Someone Marry Barry",
        "Role": "Kurt",
        "Notes": ""
    },
    {
        "Year": "2014",
        "Title": "Search Party",
        "Role": "Daniel \\Nardo\" Narducci\"",
        "Notes": ""
    },
    {
        "Year": "2015",
        "Title": "SMILF",
        "Role": "Dan",
        "Notes": "Short film"
    },
    {
        "Year": "2015",
        "Title": "The Bronze",
        "Role": "Ben Lawfort",
        "Notes": ""
    },
    {
        "Year": "2015",
        "Title": "The Final Girls",
        "Role": "Duncan",
        "Notes": ""
    },
    {
        "Year": "2016",
        "Title": "Henchmen",
        "Role": "Lester (voice)",
        "Notes": "Filming"
    },
    {
        "Year": "2016",
        "Title": "Going Under",
        "Role": "",
        "Notes": "In post-production"
    },
    {
        "Year": "2016",
        "Title": "Joshy",
        "Role": "Josh",
        "Notes": ""
    }
]