[
    {
        "Season": "2008AC/EUR\"09",
        "Club": "Unirea Urziceni",
        "Title": "Liga I"
    },
    {
        "Season": "2012AC/EUR\"13",
        "Club": "Steaua BucureA^(tm)ti",
        "Title": "Liga I"
    }
]