[
    {
        "Year": "2001",
        "Winning province": "Alberta",
        "Winning team": "Randy Ferbey, David Nedohin, Scott Pfeifer, Marcel Rocque",
        "Finalist province": "Manitoba",
        "Finalist team": "Kerry Burtnyk, Jeff Ryan, Rob Meakin, Keith Fenton",
        "Host": "Ottawa, Ontario"
    },
    {
        "Year": "2002",
        "Winning province": "Alberta",
        "Winning team": "Randy Ferbey, David Nedohin, Scott Pfeifer, Marcel Rocque",
        "Finalist province": "Ontario",
        "Finalist team": "John Morris, Joe Frans, Craig Savill, Brent Laing",
        "Host": "Calgary, Alberta"
    },
    {
        "Year": "2003",
        "Winning province": "Alberta",
        "Winning team": "Randy Ferbey, David Nedohin, Scott Pfeifer, Marcel Rocque",
        "Finalist province": "Nova Scotia",
        "Finalist team": "Mark Dacey, Bruce Lohnes, Rob Harris, Andrew Gibson",
        "Host": "Halifax, Nova Scotia"
    },
    {
        "Year": "2004",
        "Winning province": "Nova Scotia",
        "Winning team": "Mark Dacey, Bruce Lohnes, Rob Harris, Andrew Gibson",
        "Finalist province": "Alberta",
        "Finalist team": "Randy Ferbey, David Nedohin, Scott Pfeifer, Marcel Rocque",
        "Host": "Saskatoon, Saskatchewan"
    }
]