[
    {
        "Year": "1901",
        "Date": "",
        "Event": "The Socialist-Revolutionary Party was founded."
    },
    {
        "Year": "1901",
        "Date": "30 June",
        "Event": "Russification of Finland: The Military Service Act incorporated the Finnish and Russian armies."
    },
    {
        "Year": "1902",
        "Date": "",
        "Event": "Russification of Finland: Nikolai Ivanovich Bobrikov, the Governor-General of Finland, was given the power to dismiss opponents of Russification from the Finnish government."
    },
    {
        "Year": "1903",
        "Date": "20 March",
        "Event": "Russification of Finland: The office of the Governor-General was given dictatorial powers."
    },
    {
        "Year": "1903",
        "Date": "6 April",
        "Event": "Kishinev pogrom: A three-day pogrom began, which would leave forty-seven Jews dead."
    },
    {
        "Year": "1903",
        "Date": "17 November",
        "Event": "At the second congress of the RSDLP, the party split into two factions: the Bolsheviks, led by Vladimir Lenin, and the less radical Mensheviks."
    },
    {
        "Year": "1904",
        "Date": "8 February",
        "Event": "Russo-Japanese War: Japan launched a surprise torpedo attack on the Russian navy at Port Arthur."
    },
    {
        "Year": "1905",
        "Date": "3 January",
        "Event": "Russian Revolution of 1905: A strike began at the Putilov Works in St. Petersburg."
    },
    {
        "Year": "1905",
        "Date": "22 January",
        "Event": "Bloody Sunday (1905): Peaceful demonstrators arrived at the Winter Palace in Saint Petersburg to present a petition to the tsar, leading was a priest named Georgi Gapon. The Imperial Guard fired on the crowd, killing around 200 and wounding 800."
    },
    {
        "Year": "1905",
        "Date": "27-28 May",
        "Event": "Russo-Japanese War: The Russian Baltic Fleet was practically destroyed in the Battle of Tsushima, effectively ending the Russo-Japanese War in Japan's favour."
    },
    {
        "Year": "1905",
        "Date": "28 May",
        "Event": "Russian Revolution of 1905: The first soviet was formed in the midst of a textile strike in Ivanovo-Voznesensk."
    },
    {
        "Year": "1905",
        "Date": "14 June",
        "Event": "Russian Revolution of 1905: A mutiny occurred aboard the battleship Potemkin."
    },
    {
        "Year": "1905",
        "Date": "25 June",
        "Event": "Russian Revolution of 1905: The Potemkin sailors defected to Romania."
    },
    {
        "Year": "1905",
        "Date": "5 September",
        "Event": "Russo-Japanese War: The Treaty of Portsmouth was signed, ceding some Russian property and territory to Japan and ending the war."
    },
    {
        "Year": "1905",
        "Date": "17 October",
        "Event": "Russian Revolution of 1905: Nicholas signed the October Manifesto, expanding civil liberties and establishing and empowering the first State Duma of the Russian Empire."
    },
    {
        "Year": "1906",
        "Date": "March",
        "Event": "Russian legislative election, 1906: The first free elections to the Duma gave majorities to liberal and socialist parties."
    },
    {
        "Year": "1906",
        "Date": "23 April",
        "Event": "The Fundamental Laws were issued, reaffirming the autocratic supremacy of the tsar."
    },
    {
        "Year": "1906",
        "Date": "23 April",
        "Event": "The First Duma was called."
    },
    {
        "Year": "1906",
        "Date": "21 July",
        "Event": "The First Duma was dissolved."
    },
    {
        "Year": "1906",
        "Date": "23 July",
        "Event": "The Constitutional Democratic party (Kadets) issued the Vyborg Manifesto, calling on the Russian people to evade taxes and the draft. All signatories to the Manifesto lost their right to hold office in the Duma."
    },
    {
        "Year": "1906",
        "Date": "9 November",
        "Event": "A decree by Prime Minister Pyotr Stolypin signaled the start of the Stolypin reform, intended to replace the obshchina with a more progressive, capitalist form of agriculture."
    },
    {
        "Year": "1907",
        "Date": "9 February",
        "Event": "The secret police units of the MVD Department of State Police were unified under the authority of the new Okhrana."
    },
    {
        "Year": "1907",
        "Date": "20 February",
        "Event": "The Second Duma began. The Kadets dropped seats, benefiting the RSDLP and the Socialist-Revolutionary Party."
    },
    {
        "Year": "1907",
        "Date": "3 June",
        "Event": "The Second Duma was dissolved."
    },
    {
        "Year": "1907",
        "Date": "3 June",
        "Event": "Nicholas changed the electoral law and gave greater electoral value to the votes of nobility and landowners."
    },
    {
        "Year": "1907",
        "Date": "1 November",
        "Event": "The Third Duma began."
    },
    {
        "Year": "1912",
        "Date": "4 April",
        "Event": "Lena goldfields massacre: The Russian army fired on a crowd of striking miners, killing 150."
    },
    {
        "Year": "1912",
        "Date": "9 June",
        "Event": "The Third Duma ended."
    },
    {
        "Year": "1912",
        "Date": "15 November",
        "Event": "The Fourth Duma was called."
    },
    {
        "Year": "1914",
        "Date": "28 June",
        "Event": "Assassination of Archduke Franz Ferdinand: Archduke Franz Ferdinand of Austria was assassinated by Gavrilo Princip of the Bosnian separatist group Young Bosnia."
    },
    {
        "Year": "1914",
        "Date": "23 July",
        "Event": "World War I: Austria-Hungary issued the July Ultimatum to Serbia, demanding, among other things, the right to participate in the investigation into the assassination of Franz Ferdinand, which Serbia refused."
    },
    {
        "Year": "1914",
        "Date": "28 July",
        "Event": "World War I: Austria-Hungary declared war on Serbia."
    },
    {
        "Year": "1914",
        "Date": "30 July",
        "Event": "World War I: Russia mobilized its army to defend Serbia."
    },
    {
        "Year": "1914",
        "Date": "1 August",
        "Event": "World War I: Germany declared war on Russia in defense of Austria-Hungary."
    },
    {
        "Year": "1915",
        "Date": "2 May",
        "Event": "Gorlice-Tarnow Offensive: The German army launched an offensive across the length of the Eastern Front."
    },
    {
        "Year": "1915",
        "Date": "4 August",
        "Event": "Gorlice-Tarnow Offensive: Germany conquered Warsaw."
    },
    {
        "Year": "1915",
        "Date": "19 September",
        "Event": "Gorlice-Tarnow Offensive: German forces captured Vilnius, the capital of Lithuania."
    },
    {
        "Year": "1916",
        "Date": "25 June",
        "Event": "Basmachi Revolt: Nicholas issued a decree ordering the conscription of Central Asians."
    },
    {
        "Year": "1916",
        "Date": "5 November",
        "Event": "By the Act of 5 November, the German government established the nominally independent Kingdom of Poland."
    },
    {
        "Year": "1916",
        "Date": "16 December",
        "Event": "Royal adviser Grigori Rasputin was murdered by a group of nobles in the house of Prince Felix Yussupov."
    },
    {
        "Year": "1917",
        "Date": "22 February",
        "Event": "February Revolution: The workers at the Putilov Plant in Petrograd went on strike."
    },
    {
        "Year": "1917",
        "Date": "23 February",
        "Event": "February Revolution: A series of demonstrations were held, demanding the end of the Russian autocracy and the end of Russian participation in World War I."
    },
    {
        "Year": "1917",
        "Date": "25 February",
        "Event": "February Revolution: A battalion of soldiers was sent to Petrograd to end the uprising."
    },
    {
        "Year": "1917",
        "Date": "26 February",
        "Event": "February Revolution: Nicholas ordered the dissolution of the Fourth Duma. The Duma ignored his order and decreed the establishment of a Provisional Government with Georgy L'vov as Prime Minister."
    },
    {
        "Year": "1917",
        "Date": "27 February",
        "Event": "February Revolution: The soldiers sent to suppress the protestors defected and joined them. It started off as the \\National Women's day\" then"
    },
    {
        "Year": "1917",
        "Date": "2 March",
        "Event": "February Revolution: Nicholas abdicated."
    },
    {
        "Year": "1917",
        "Date": "17 March",
        "Event": "A legislative council, the Tsentralna Rada, was founded in Ukraine."
    },
    {
        "Year": "1917",
        "Date": "30 March",
        "Event": "The Provisional Government established the autonomous province of Estonia and scheduled elections to an Estonian legislative body, the Maapaev."
    },
    {
        "Year": "1917",
        "Date": "10 May",
        "Event": "The Rumcherod, the Soviet government of southwestern Ukraine and Bessarabia, was established."
    },
    {
        "Year": "1917",
        "Date": "23 June",
        "Event": "The Tsentralna Rada ratified Ukrainian autonomy."
    },
    {
        "Year": "1917",
        "Date": "3 July",
        "Event": "July Days: A spontaneous pro-soviet demonstration occurred on the streets of Petrograd."
    },
    {
        "Year": "1917",
        "Date": "6 July",
        "Event": "July Days: The rebellion was put down. The Provisional Government ordered the arrest of Bolshevik leaders."
    },
    {
        "Year": "1917",
        "Date": "14 July",
        "Event": "The Maapaev took office."
    },
    {
        "Year": "1917",
        "Date": "21 July",
        "Event": "Alexander Kerensky succeeded L'vov as Prime Minister."
    },
    {
        "Year": "1917",
        "Date": "27 August",
        "Event": "Kornilov Affair: General Lavr Kornilov ordered an army corps to Petrograd to destroy the soviets."
    },
    {
        "Year": "1917",
        "Date": "29 August",
        "Event": "Kornilov Affair: The Provisional Government armed tens of thousands of Red Guards to defend Petrograd."
    },
    {
        "Year": "1917",
        "Date": "31 August",
        "Event": "Kornilov Affair: Kornilov was arrested."
    },
    {
        "Year": "1917",
        "Date": "4 September",
        "Event": "Under public pressure, Bolshevik leaders were released from prison."
    },
    {
        "Year": "1917",
        "Date": "23 October",
        "Event": "Estonian Bolsheviks under Jaan Anvelt captured the capital, Tallinn."
    },
    {
        "Year": "1917",
        "Date": "25 October",
        "Event": "October Revolution: Soldiers directed by the Military Revolutionary Committee of the Petrograd Soviet captured the Winter Palace, ending the power of the Russian Provisional Government."
    },
    {
        "Year": "1917",
        "Date": "25 October",
        "Event": "The Second All-Russian Congress of Soviets convened. Menshevik and moderate SR representatives walked out to protest the October Revolution. The Congress established and elected the Sovnarkom, and Lenin its first chairman, to run the country between sessions."
    },
    {
        "Year": "1917",
        "Date": "26 October",
        "Event": "The Second All-Russian Congress of Soviets issued the Decree on Peace, promising an end to Russian participation in World War I, and the Decree on Land, approving the expropriation of land from the nobility."
    },
    {
        "Year": "1917",
        "Date": "21 November",
        "Event": "The Moldavian legislature, the Sfatul A...AC/A\"frii, held its first meeting."
    },
    {
        "Year": "1917",
        "Date": "5 December",
        "Event": "A local nationalist group, the Alash Orda, established an autonomous government in Kazakhstan."
    },
    {
        "Year": "1917",
        "Date": "6 December",
        "Event": "The Finnish parliament issued a declaration of independence."
    },
    {
        "Year": "1917",
        "Date": "7 December",
        "Event": "The Cheka was established."
    },
    {
        "Year": "1917",
        "Date": "12 December",
        "Event": "A Muslim republic, the Idel-Ural State, was established in central Russia."
    },
    {
        "Year": "1917",
        "Date": "25 December",
        "Event": "Ukrainian Bolsheviks established the Soviet Ukrainian Republic in Kharkiv."
    },
    {
        "Year": "1917",
        "Date": "27 December",
        "Event": "Russian Civil War: The counterrevolutionary Volunteer Army was established."
    },
    {
        "Year": "1918",
        "Date": "12 January",
        "Event": "The Tsentralna Rada declared the independence of the Ukrainian People's Republic."
    },
    {
        "Year": "1918",
        "Date": "14 January",
        "Event": "The Rumcherod declared itself the supreme power in Bessarabia."
    },
    {
        "Year": "1918",
        "Date": "15 January",
        "Event": "A decree of the Sovnarkom established the Red Army."
    },
    {
        "Year": "1918",
        "Date": "16 January",
        "Event": "The Romanian army occupied Kishinev and evicted the Rumcherod."
    },
    {
        "Year": "1918",
        "Date": "24 January",
        "Event": "The Moldavian Democratic Republic declared its independence from Russia."
    },
    {
        "Year": "1918",
        "Date": "28 January",
        "Event": "The Transcaucasian parliament held its first meeting."
    }
]