[
    {
        "Chart": "Austria Album Top 75[4]",
        "Peak position": "31"
    },
    {
        "Chart": "Belgium Wallonia Ultratop 50 Albums[4]",
        "Peak position": "31"
    },
    {
        "Chart": "Belgium Flanders Ultratop 50 Albums[4]",
        "Peak position": "36"
    },
    {
        "Chart": "Canada Top Albums[5]",
        "Peak position": "43"
    },
    {
        "Chart": "Finland Albums Top 40[4]",
        "Peak position": "12"
    },
    {
        "Chart": "France Albums Chart[4]",
        "Peak position": "72"
    },
    {
        "Chart": "Germany Media Control Albums Top 100[6]",
        "Peak position": "17"
    },
    {
        "Chart": "Dutch Album Top 100[4]",
        "Peak position": "38"
    },
    {
        "Chart": "Norway Albums Top 40[4]",
        "Peak position": "3"
    },
    {
        "Chart": "Swedish Album Chart[4]",
        "Peak position": "2"
    },
    {
        "Chart": "UK Albums Chart[7]",
        "Peak position": "2"
    },
    {
        "Chart": "US Billboard Top Heatseekers Albums[8]",
        "Peak position": "5"
    },
    {
        "Chart": "US Billboard Top Classical Crossover Albums[8]",
        "Peak position": "1"
    },
    {
        "Chart": "US Billboard Top 200 Albums[8]",
        "Peak position": "71"
    }
]