[
    {
        "Preceding station": "Nanshaomen toward Bei Kezhan",
        "NO-HEADER1": "",
        "Xi'an Metro": "Line 2",
        "NO-HEADER3": "",
        "Following station": "Xiaozhai toward Huizhan Zhongxin"
    }
]