[
    {
        "Club": "Club",
        "Season": "Season",
        "League": "League",
        "FA Cup": "FA Cup",
        "Total": "Total",
        "NO-HEADER5": "",
        "NO-HEADER6": "",
        "NO-HEADER7": ""
    },
    {
        "Club": "Club",
        "Season": "Season",
        "League": "Apps",
        "FA Cup": "Goals",
        "Total": "Apps",
        "NO-HEADER5": "Goals",
        "NO-HEADER6": "Apps",
        "NO-HEADER7": "Goals"
    },
    {
        "Club": "Stoke City",
        "Season": "1924AC/EUR\"25",
        "League": "5",
        "FA Cup": "0",
        "Total": "0",
        "NO-HEADER5": "0",
        "NO-HEADER6": "5",
        "NO-HEADER7": "0"
    },
    {
        "Club": "Stoke City",
        "Season": "1925AC/EUR\"26",
        "League": "8",
        "FA Cup": "0",
        "Total": "0",
        "NO-HEADER5": "0",
        "NO-HEADER6": "8",
        "NO-HEADER7": "0"
    },
    {
        "Club": "Stoke City",
        "Season": "1926AC/EUR\"27",
        "League": "5",
        "FA Cup": "0",
        "Total": "1",
        "NO-HEADER5": "0",
        "NO-HEADER6": "6",
        "NO-HEADER7": "0"
    },
    {
        "Club": "Stoke City",
        "Season": "1927AC/EUR\"28",
        "League": "0",
        "FA Cup": "0",
        "Total": "0",
        "NO-HEADER5": "0",
        "NO-HEADER6": "0",
        "NO-HEADER7": "0"
    },
    {
        "Club": "Stoke City",
        "Season": "1928AC/EUR\"29",
        "League": "2",
        "FA Cup": "0",
        "Total": "0",
        "NO-HEADER5": "0",
        "NO-HEADER6": "2",
        "NO-HEADER7": "0"
    },
    {
        "Club": "Stoke City",
        "Season": "1929AC/EUR\"30",
        "League": "3",
        "FA Cup": "0",
        "Total": "0",
        "NO-HEADER5": "0",
        "NO-HEADER6": "3",
        "NO-HEADER7": "0"
    },
    {
        "Club": "Stoke City",
        "Season": "1930AC/EUR\"31",
        "League": "0",
        "FA Cup": "0",
        "Total": "0",
        "NO-HEADER5": "0",
        "NO-HEADER6": "0",
        "NO-HEADER7": "0"
    },
    {
        "Club": "Stoke City",
        "Season": "1931AC/EUR\"32",
        "League": "0",
        "FA Cup": "0",
        "Total": "0",
        "NO-HEADER5": "0",
        "NO-HEADER6": "0",
        "NO-HEADER7": "0"
    },
    {
        "Club": "Stoke City",
        "Season": "Total",
        "League": "23",
        "FA Cup": "0",
        "Total": "1",
        "NO-HEADER5": "0",
        "NO-HEADER6": "24",
        "NO-HEADER7": "0"
    },
    {
        "Club": "Clapton Orient",
        "Season": "1924AC/EUR\"25",
        "League": "19",
        "FA Cup": "0",
        "Total": "1",
        "NO-HEADER5": "0",
        "NO-HEADER6": "20",
        "NO-HEADER7": "0"
    },
    {
        "Club": "Clapton Orient",
        "Season": "Total",
        "League": "19",
        "FA Cup": "0",
        "Total": "1",
        "NO-HEADER5": "0",
        "NO-HEADER6": "20",
        "NO-HEADER7": "0"
    },
    {
        "Club": "Gateshead",
        "Season": "1933AC/EUR\"34",
        "League": "18",
        "FA Cup": "0",
        "Total": "1",
        "NO-HEADER5": "0",
        "NO-HEADER6": "19",
        "NO-HEADER7": "0"
    },
    {
        "Club": "Gateshead",
        "Season": "1934AC/EUR\"35",
        "League": "0",
        "FA Cup": "0",
        "Total": "0",
        "NO-HEADER5": "0",
        "NO-HEADER6": "0",
        "NO-HEADER7": "0"
    },
    {
        "Club": "Gateshead",
        "Season": "1935AC/EUR\"36",
        "League": "2",
        "FA Cup": "0",
        "Total": "0",
        "NO-HEADER5": "0",
        "NO-HEADER6": "2",
        "NO-HEADER7": "0"
    },
    {
        "Club": "Gateshead",
        "Season": "Total",
        "League": "20",
        "FA Cup": "0",
        "Total": "1",
        "NO-HEADER5": "0",
        "NO-HEADER6": "21",
        "NO-HEADER7": "0"
    },
    {
        "Club": "Career Total",
        "Season": "62",
        "League": "0",
        "FA Cup": "2",
        "Total": "0",
        "NO-HEADER5": "64",
        "NO-HEADER6": "0",
        "NO-HEADER7": ""
    }
]