[
    {
        "Server": "Tornado",
        "Setup": "nginx, four frontends",
        "Requests per second": "8213"
    },
    {
        "Server": "Tornado",
        "Setup": "One single-threaded frontend",
        "Requests per second": "3353"
    },
    {
        "Server": "Django",
        "Setup": "Apache\\/mod_wsgi",
        "Requests per second": "2223"
    },
    {
        "Server": "web.py",
        "Setup": "Apache\\/mod_wsgi",
        "Requests per second": "2066"
    },
    {
        "Server": "CherryPy",
        "Setup": "Standalone",
        "Requests per second": "785"
    }
]