[
    {
        "Facility": "BB&T Ballpark (Charlotte)[11][12]",
        "Location": "Charlotte, NC",
        "Team Name": "Charlotte Knights"
    },
    {
        "Facility": "MacInnes Ice Arena[13]",
        "Location": "Houghton, MI",
        "Team Name": "Michigan Tech"
    },
    {
        "Facility": "Convocation Center[14]",
        "Location": "Ypsilanti, MI",
        "Team Name": "Eastern Michigan University"
    },
    {
        "Facility": "FirstEnergy Stadium[15]",
        "Location": "Reading, PA",
        "Team Name": "Reading Fightin Phils"
    },
    {
        "Facility": "Wings Stadium[16][17][18]",
        "Location": "Kalamazoo, MI",
        "Team Name": "Kalamazoo Wings"
    },
    {
        "Facility": "Centennial Field[19][20]",
        "Location": "Burlington, VT",
        "Team Name": "Vermont Lake Monsters"
    },
    {
        "Facility": "Newman Outdoor Field [21]",
        "Location": "Fargo, ND",
        "Team Name": "Fargo-Moorhead RedHawks"
    },
    {
        "Facility": "Pringles Park",
        "Location": "Jackson, TN",
        "Team Name": "Jackson Generals"
    },
    {
        "Facility": "Boomers Stadium [22]",
        "Location": "Schaumburg, IL",
        "Team Name": "Schaumburg Boomers"
    },
    {
        "Facility": "Fifth Third Ballpark [23]",
        "Location": "Grand Rapids, MI",
        "Team Name": "West Michigan Whitecaps"
    },
    {
        "Facility": "Blue Wahoos Park",
        "Location": "Pensacola, FL",
        "Team Name": "Pensacola Blue Wahoos"
    },
    {
        "Facility": "New Bridge Bank Park",
        "Location": "Greensboro, NC",
        "Team Name": "Greensboro Grasshoppers"
    },
    {
        "Facility": "State Mutual Stadium",
        "Location": "Rome, GA",
        "Team Name": "Rome Braves"
    },
    {
        "Facility": "Smokies Park",
        "Location": "Sevierville, TN",
        "Team Name": "Tennessee Smokies"
    },
    {
        "Facility": "NYSEG Stadium",
        "Location": "Binghamton, NY",
        "Team Name": "Binghamton Mets"
    },
    {
        "Facility": "Metro Bank Park",
        "Location": "Harrisburg, PA",
        "Team Name": "Harrisburg Senators"
    },
    {
        "Facility": "John Thurman Field",
        "Location": "Modesto, CA",
        "Team Name": "Modesto Nuts"
    },
    {
        "Facility": "Amsoil Arena",
        "Location": "Duluth, MN",
        "Team Name": "U of MN - Duluth"
    }
]