[
    {
        "Frequency": "88.2 MHz",
        "kW": "125",
        "Service": "RTAf%0 Radio 1"
    },
    {
        "Frequency": "97.8 MHz",
        "kW": "125",
        "Service": "RTAf%0 lyric fm"
    },
    {
        "Frequency": "90.4 MHz",
        "kW": "125",
        "Service": "RTAf%0 2fm"
    },
    {
        "Frequency": "92.6 MHz",
        "kW": "125",
        "Service": "RTAf%0 RaidiAfA3 na Gaeltachta"
    },
    {
        "Frequency": "100.0 MHz",
        "kW": "125",
        "Service": "Today FM"
    },
    {
        "Frequency": "102.5 MHz",
        "kW": "",
        "Service": "Ocean FM"
    },
    {
        "Frequency": "104.4 MHz",
        "kW": "",
        "Service": "iRadio"
    },
    {
        "Frequency": "107.4 MHz",
        "kW": "",
        "Service": "Newstalk"
    }
]