[
    {
        "Year": "2002 Details",
        "Home team": "Al-Ahli",
        "Score": "1 AC/EUR\" 0",
        "Away team": "Club Africain",
        "Venue": "Prince Abdullah al-Faisal Stadium, Jeddah",
        "Attendance": ""
    },
    {
        "Year": "2003 Details",
        "Home team": "Zamalek",
        "Score": "2 AC/EUR\" 1",
        "Away team": "Kuwait SC",
        "Venue": "Cairo International Stadium, Cairo",
        "Attendance": ""
    }
]