[
    {
        "Team": "Spain6",
        "Coeff": "37,962",
        "Rank": "2"
    },
    {
        "Team": "Germany",
        "Coeff": "40,236",
        "Rank": "1"
    },
    {
        "Team": "England",
        "Coeff": "35,963",
        "Rank": "3"
    },
    {
        "Team": "Portugal",
        "Coeff": "35,138",
        "Rank": "4"
    },
    {
        "Team": "Belgium",
        "Coeff": "34,442",
        "Rank": "5"
    }
]