[
    {
        "Team": "Instonians",
        "Wins": "4"
    },
    {
        "Team": "Brigade",
        "Wins": "3"
    },
    {
        "Team": "North Down",
        "Wins": "3"
    },
    {
        "Team": "Bready",
        "Wins": "1"
    },
    {
        "Team": "Donemana",
        "Wins": "1"
    },
    {
        "Team": "Limavady",
        "Wins": "1"
    },
    {
        "Team": "Lisburn",
        "Wins": "1"
    },
    {
        "Team": "Civil Service North of Ireland",
        "Wins": "1"
    },
    {
        "Team": "Coleraine",
        "Wins": "1"
    },
    {
        "Team": "Strabane",
        "Wins": "1"
    }
]