[
    {
        "Majority": "Joe Wilson, South Carolina, Chairman John Kline, Minnesota Bill Shuster, Pennsylvania Duncan D. Hunter, California Rich Nugent, Florida Ryan Zinke, Montana Trent Franks, Arizona Doug Lamborn, Colorado Mo Brooks, Alabama Bradley Byrne, Alabama Elise Stefanik, New York",
        "Minority": "James Langevin, Rhode Island, Ranking Member Jim Cooper, Tennessee John Garamendi, California Joaquin Castro, Texas Mark Veasey, Texas Donald Norcross, New Jersey Brad Ashford, Nebraska Pete Aguilar, California"
    },
    {
        "Majority": "Ex officio",
        "Minority": ""
    },
    {
        "Majority": "Mac Thornberry, Texas",
        "Minority": "Adam Smith, Washington"
    }
]