[
    {
        "District": "Florida 1",
        "Incumbent": "Robert H. M. Davidson",
        "Party": "Democratic",
        "First elected": "1876",
        "Result": "Re-elected",
        "Candidates": "Robert H. M. Davidson (D) 66.2% C. B. Pendleton (R) 33.8%"
    },
    {
        "District": "Florida 2",
        "Incumbent": "Charles Dougherty",
        "Party": "Democratic",
        "First elected": "1884",
        "Result": "Re-elected",
        "Candidates": "Charles Dougherty (D) 53.9% J. C. Greeley (R) 44.9% R. B. Norment (Pr) 1.2%"
    }
]