[
    {
        "District": "District",
        "Result": "Result",
        "Candidates[Note 11]": "Candidates[Note 11]",
        "NO-HEADER3": ""
    },
    {
        "District": "District",
        "Result": "Result",
        "Candidates[Note 11]": "First ballot",
        "NO-HEADER3": "Second ballot"
    },
    {
        "District": "Vermont 1 Called the Western Division",
        "Result": "Anti-Administration win",
        "Candidates[Note 11]": "Matthew Lyon (A?) 28.7% Israel Smith (A) 24.6% Isaac Tichenor (P) 22.7% Samuel Hitchcock 18.1% Ira Allen 2.3% Ebenezer Marvin 1.6% Gideon Olin 1.3% Others 0.7%",
        "NO-HEADER3": "Israel Smith (A) 68.4% Matthew Lyon (A?) 29.4% Isaac Tichenor 2.2%"
    },
    {
        "District": "Vermont 2 Called the Eastern Division",
        "Result": "Anti-Administration win",
        "Candidates[Note 11]": "Nathaniel Niles (A)[Note 10] Stephen Jacob Daniel Buck (P)",
        "NO-HEADER3": ""
    }
]