[
    {
        "District": "Tennessee at-large",
        "Incumbent": "None (District created)",
        "Party": "Democratic-Republican gain",
        "First elected": "Andrew Jackson (DR) 98.9% James Rody 1.1%",
        "Result": "",
        "Candidates": ""
    }
]