[
    {
        "District": "Louisiana 1",
        "Incumbent": "F. Edward Hebert",
        "Party": "Democratic",
        "First elected": "1940",
        "Result": "Re-elected",
        "Candidates": "F. Edward Hebert (D) Unopposed"
    },
    {
        "District": "Louisiana 2",
        "Incumbent": "Hale Boggs",
        "Party": "Democratic",
        "First elected": "1946",
        "Result": "Re-elected",
        "Candidates": "Hale Boggs (D) Unopposed"
    },
    {
        "District": "Louisiana 3",
        "Incumbent": "Edwin E. Willis",
        "Party": "Democratic",
        "First elected": "1948",
        "Result": "Re-elected",
        "Candidates": "Edwin E. Willis (D) Unopposed"
    },
    {
        "District": "Louisiana 4",
        "Incumbent": "Overton Brooks",
        "Party": "Democratic",
        "First elected": "1936",
        "Result": "Re-elected",
        "Candidates": "Overton Brooks (D) Unopposed"
    },
    {
        "District": "Louisiana 5",
        "Incumbent": "Otto Passman",
        "Party": "Democratic",
        "First elected": "1946",
        "Result": "Re-elected",
        "Candidates": "Otto Passman (D) Unopposed"
    },
    {
        "District": "Louisiana 6",
        "Incumbent": "James H. Morrison",
        "Party": "Democratic",
        "First elected": "1942",
        "Result": "Re-elected",
        "Candidates": "James H. Morrison (D) Unopposed"
    },
    {
        "District": "Louisiana 7",
        "Incumbent": "Henry D. Larcade, Jr.",
        "Party": "Democratic",
        "First elected": "1942",
        "Result": "Re-elected",
        "Candidates": "Henry D. Larcade, Jr. (D) Unopposed"
    },
    {
        "District": "Louisiana 8",
        "Incumbent": "A. Leonard Allen",
        "Party": "Democratic",
        "First elected": "1936",
        "Result": "Re-elected",
        "Candidates": "A. Leonard Allen (D) Unopposed"
    }
]