[
    {
        "District": "Iowa 1",
        "Incumbent": "Thomas E. Martin",
        "Party": "Republican",
        "First elected": "1938",
        "Result": "Re-elected",
        "Candidates": "Thomas E. Martin (R) 62.8% Clair A. Williams (D) 36.9% F. A. Oliver (Proh) 0.2%"
    },
    {
        "District": "Iowa 2",
        "Incumbent": "Henry O. Talle",
        "Party": "Republican",
        "First elected": "1938",
        "Result": "Re-elected",
        "Candidates": "Henry O. Talle (R) 62.2% T. W. Mullaney (D) 37.7% Roy Corliss (D) 0.05%"
    },
    {
        "District": "Iowa 3",
        "Incumbent": "H. R. Gross",
        "Party": "Republican",
        "First elected": "1948",
        "Result": "Re-elected",
        "Candidates": "H. R. Gross (R) 65.8% George R. Laub (D) 34.0% Paul Kindschi (Proh) 0.1%"
    },
    {
        "District": "Iowa 4",
        "Incumbent": "Karl M. Le Compte",
        "Party": "Republican",
        "First elected": "1938",
        "Result": "Re-elected",
        "Candidates": "Karl M. Le Compte (R) 61.9% Earl E. Glassburner (D) 37.9% Benson B. Compton (Proh) 0.2%"
    },
    {
        "District": "Iowa 5",
        "Incumbent": "Paul Cunningham",
        "Party": "Republican",
        "First elected": "1940",
        "Result": "Re-elected",
        "Candidates": "Paul Cunningham (R) 58.8% Alvin P. Meyer (D) 41.0% Richard DeCamp (Proh) 0.3%"
    },
    {
        "District": "Iowa 6",
        "Incumbent": "James I. Dolliver",
        "Party": "Republican",
        "First elected": "1944",
        "Result": "Re-elected",
        "Candidates": "James I. Dolliver (R) 68.7% Francis G. Cutler (D) 31.1% Roy C. Nelson (Proh) 0.2%"
    },
    {
        "District": "Iowa 7",
        "Incumbent": "Ben F. Jensen",
        "Party": "Republican",
        "First elected": "1938",
        "Result": "Re-elected",
        "Candidates": "Ben F. Jensen (R) 67.3% Thomas J. Keleher (D) 32.6% Ralph Young (Proh) 0.08%"
    },
    {
        "District": "Iowa 8",
        "Incumbent": "Charles B. Hoeven",
        "Party": "Republican",
        "First elected": "1942",
        "Result": "Re-elected",
        "Candidates": "Charles B. Hoeven (R) 99.7% Charles Warner (Proh) 0.3% Milo Price (D) 0.01%"
    }
]