[
    {
        "District": "Iowa 1",
        "Incumbent": "Fred Schwengel",
        "Party": "Republican",
        "First elected": "1954",
        "Result": "Lost re-election Democratic gain",
        "Candidates": "John R. Schmidhauser (D) 51.0% Fred Schwengel (R) 48.9% Tracy M. Gore (Conservative) 0.10%"
    },
    {
        "District": "Iowa 2",
        "Incumbent": "James E. Bromwell",
        "Party": "Republican",
        "First elected": "1960",
        "Result": "Lost re-election Democratic gain",
        "Candidates": "John C. Culver (D) 52.2% James E. Bromwell (R) 47.8%"
    },
    {
        "District": "Iowa 3",
        "Incumbent": "H. R. Gross",
        "Party": "Republican",
        "First elected": "1948",
        "Result": "Re-elected",
        "Candidates": "H. R. Gross (R) 50.1% Stephen M. Peterson (D) 49.9%"
    },
    {
        "District": "Iowa 4",
        "Incumbent": "John Henry Kyl",
        "Party": "Republican",
        "First elected": "1959",
        "Result": "Lost re-election Democratic gain",
        "Candidates": "Bert Bandstra (D) 53.6% John Henry Kyl (R) 46.4%"
    },
    {
        "District": "Iowa 5",
        "Incumbent": "Neal Smith",
        "Party": "Democratic",
        "First elected": "1958",
        "Result": "Re-elected",
        "Candidates": "Neal Smith (D) 69.6% Benjamin J. Gibson, Jr. (R) 29.7% Albert A. Payne (Conservative) 0.7%"
    },
    {
        "District": "Iowa 6",
        "Incumbent": "Charles B. Hoeven",
        "Party": "Republican",
        "First elected": "1942",
        "Result": "Retired Democratic gain",
        "Candidates": "Stanley L. Greigg (D) 53.2% Howard N. Sokol (R) 46.5% Lee E. Smith (Conservative) 0.3%"
    },
    {
        "District": "Iowa 7",
        "Incumbent": "Ben F. Jensen",
        "Party": "Republican",
        "First elected": "1938",
        "Result": "Lost re-election Democratic gain",
        "Candidates": "John R. Hansen (D) 53.5% Ben F. Jensen (R) 46.5%"
    }
]