[
    {
        "District": "Oklahoma 1",
        "Incumbent": "John Sullivan",
        "Party": "Republican",
        "First elected": "2002",
        "Result": "Re-elected",
        "Candidates": "John Sullivan (R) 60.2% Doug Dodd (D) 37.5% John Krymski (I) 2.3%"
    },
    {
        "District": "Oklahoma 2",
        "Incumbent": "Brad Carson",
        "Party": "Democratic",
        "First elected": "2000",
        "Result": "Retired to run for U.S. Senate Democratic hold",
        "Candidates": "Dan Boren (D) 65.9% Wayland Smalley (R) 34.1%"
    },
    {
        "District": "Oklahoma 3",
        "Incumbent": "Frank Lucas",
        "Party": "Republican",
        "First elected": "1994",
        "Result": "Re-elected",
        "Candidates": "Frank Lucas (R) 82.2% Gregory Wilson (I) 17.8%"
    },
    {
        "District": "Oklahoma 4",
        "Incumbent": "Tom Cole",
        "Party": "Republican",
        "First elected": "2002",
        "Result": "Re-elected",
        "Candidates": "Tom Cole (R) 77.8% Charlene K. Bradshaw (I) 22.2%"
    },
    {
        "District": "Oklahoma 5",
        "Incumbent": "Ernest Istook",
        "Party": "Republican",
        "First elected": "1992",
        "Result": "Re-elected",
        "Candidates": "Ernest Istook (R) 66.1% Bert Smith (D) 33.9%"
    }
]