[
    {
        "District": "West Virginia 1",
        "Incumbent": "Alan Mollohan",
        "Party": "Democratic",
        "First Elected": "1982",
        "Result": "Re-elected",
        "Candidates": "Alan Mollohan (D) Unopposed"
    },
    {
        "District": "West Virginia 2",
        "Incumbent": "Bob Wise Redistricted from the 3rd district",
        "Party": "Democratic",
        "First Elected": "1982",
        "Result": "Re-elected",
        "Candidates": "Bob Wise (D) 70.9% Samuel A. Cravotta (R) 29.1%"
    },
    {
        "District": "West Virginia 3",
        "Incumbent": "Nick Rahall Redistricted from the 4th district (now obsolete)",
        "Party": "Democratic",
        "First Elected": "1976",
        "Result": "Re-elected",
        "Candidates": "Nick Rahall (D) 65.6% Ben Waldman (R) 34.4%"
    }
]