[
    {
        "District": "Colorado 1",
        "Incumbent": "Lawrence Lewis",
        "Party": "Democratic",
        "First elected": "1932",
        "Result": "Re-elected",
        "Candidates": "Lawrence Lewis (D) 53.4% Olaf S. Jacobson (R) 46.0% Ward Rodgers (S) 0.6%"
    },
    {
        "District": "Colorado 2",
        "Incumbent": "William S. Hill",
        "Party": "Republican",
        "First elected": "1940",
        "Result": "Re-elected",
        "Candidates": "William S. Hill (R) 67.7% Julian E. Hall (D) 31.7% William E. Randall (S) 0.6%"
    },
    {
        "District": "Colorado 3",
        "Incumbent": "John Chenoweth",
        "Party": "Republican",
        "First elected": "1940",
        "Result": "Re-elected",
        "Candidates": "John Chenoweth (R) 62.7% J. C. Jarrett (D) 37.3%"
    },
    {
        "District": "Colorado 4",
        "Incumbent": "Robert F. Rockwell",
        "Party": "Republican",
        "First elected": "1941",
        "Result": "Re-elected",
        "Candidates": "Robert F. Rockwell (R) 58.8% Elizabeth E. Pellet (D) 41.2%"
    }
]