[
    {
        "District": "Rhode Island 1",
        "Incumbent": "Fernand St. Germain",
        "Party": "Democratic",
        "First elected": "1960",
        "Result": "Re-elected",
        "Candidates": "Fernand St. Germain (D) 60.7% Burton Stallwood (R) 38.3% Gertrude M. Jayne Fowler (I) 1.0%"
    },
    {
        "District": "Rhode Island 2",
        "Incumbent": "Claudine Schneider",
        "Party": "Republican",
        "First elected": "1980",
        "Result": "Re-elected",
        "Candidates": "Claudine Schneider (R) 55.6% James V. Aukerman (D) 44.4%"
    }
]