[
    {
        "Rank [40]": "Rank [40]",
        "Constituency [40]": "Constituency [40]",
        "Winning party 2010": "Winning party 2010",
        "Swing Required": "Swing Required",
        "Conservative's place 2010": "Conservative's place 2010",
        "Result": "Result",
        "NO-HEADER6": ""
    },
    {
        "Rank [40]": "1",
        "Constituency [40]": "Argyll and Bute",
        "Winning party 2010": "",
        "Swing Required": "Liberal Democrats",
        "Conservative's place 2010": "3.79%",
        "Result": "2nd",
        "NO-HEADER6": "SNP gain"
    },
    {
        "Rank [40]": "2",
        "Constituency [40]": "West Aberdeenshire and Kincardine",
        "Winning party 2010": "",
        "Swing Required": "Liberal Democrats",
        "Conservative's place 2010": "4.07%",
        "Result": "2nd",
        "NO-HEADER6": "SNP gain"
    },
    {
        "Rank [40]": "3",
        "Constituency [40]": "Angus",
        "Winning party 2010": "",
        "Swing Required": "SNP",
        "Conservative's place 2010": "4.32%",
        "Result": "2nd",
        "NO-HEADER6": "SNP hold"
    },
    {
        "Rank [40]": "4",
        "Constituency [40]": "Perth and North Perthshire",
        "Winning party 2010": "",
        "Swing Required": "SNP",
        "Conservative's place 2010": "4.53%",
        "Result": "2nd",
        "NO-HEADER6": "SNP hold"
    },
    {
        "Rank [40]": "5",
        "Constituency [40]": "Banff and Buchan",
        "Winning party 2010": "",
        "Swing Required": "SNP",
        "Conservative's place 2010": "5.23%",
        "Result": "2nd",
        "NO-HEADER6": "SNP hold"
    }
]