[
    {
        "District": "Florida 1",
        "Incumbent": "Herbert J. Drane",
        "Party": "Democratic",
        "First elected": "1916",
        "Result": "Re-elected",
        "Candidates": "Herbert J. Drane (D) 82.9% William M. Gober (R) 17.1%"
    },
    {
        "District": "Florida 2",
        "Incumbent": "Frank Clark",
        "Party": "Democratic",
        "First elected": "1904",
        "Result": "Re-elected",
        "Candidates": "Frank Clark (D) Unopposed"
    },
    {
        "District": "Florida 3",
        "Incumbent": "John H. Smithwick",
        "Party": "Democratic",
        "First elected": "1918",
        "Result": "Re-elected",
        "Candidates": "John H. Smithwick (D) Unopposed"
    },
    {
        "District": "Florida 4",
        "Incumbent": "William J. Sears",
        "Party": "Democratic",
        "First elected": "1914",
        "Result": "Re-elected",
        "Candidates": "William J. Sears (D) 82.3% Howard W. McCay (R) 17.7%"
    }
]