[
    {
        "District": "New Hampshire 1",
        "Incumbent": "Norman D'Amours",
        "Party": "Democratic",
        "First elected": "1974",
        "Result": "Re-elected",
        "Candidates": "Norman D'Amours (D) 68.1% John Adams (R) 30.4% John H. O'Brien (L) 1.5%"
    },
    {
        "District": "New Hampshire 2",
        "Incumbent": "James Colgate Cleveland",
        "Party": "Republican",
        "First elected": "1962",
        "Result": "Re-elected",
        "Candidates": "James Colgate Cleveland (R) 60.5% J. Joseph Grandmaison (D) 39.5%"
    }
]