[
    {
        "District": "Wisconsin 1",
        "Incumbent": "Mark Neumann",
        "Party": "Republican",
        "First elected": "1994",
        "Results": "Retired to run for U.S. Senate Republican hold",
        "Candidates": "Paul Ryan (R) 57.1% Lydia Spottswood (D) 42.7%"
    },
    {
        "District": "Wisconsin 2",
        "Incumbent": "Scott Klug",
        "Party": "Republican",
        "First elected": "1990",
        "Results": "Retired Democratic gain",
        "Candidates": "Tammy Baldwin (D) 52.5% Josephine Musser (R) 47.4%"
    },
    {
        "District": "Wisconsin 3",
        "Incumbent": "Ron Kind",
        "Party": "Democratic",
        "First elected": "1996",
        "Results": "Re-elected",
        "Candidates": "Ron Kind (D) 71.5% Troy Brechler (R) 28.4%"
    },
    {
        "District": "Wisconsin 4",
        "Incumbent": "Jerry Kleczka",
        "Party": "Democratic",
        "First elected": "1984",
        "Results": "Re-elected",
        "Candidates": "Jerry Kleczka (D) 57.9% Tom Reynolds (R) 42%"
    },
    {
        "District": "Wisconsin 5",
        "Incumbent": "Tom Barrett",
        "Party": "Democratic",
        "First elected": "1992",
        "Results": "Re-elected",
        "Candidates": "Tom Barrett (D) 78.2% Jack Melvin (R) 21.6%"
    },
    {
        "District": "Wisconsin 6",
        "Incumbent": "Tom Petri",
        "Party": "Republican",
        "First elected": "1979",
        "Results": "Re-elected",
        "Candidates": "Tom Petri (R) 92.6% Timothy Farness (T) 7.2%"
    },
    {
        "District": "Wisconsin 7",
        "Incumbent": "Dave Obey",
        "Party": "Democratic",
        "First elected": "1969",
        "Results": "Re-elected",
        "Candidates": "Dave Obey (D) 60.6% Scott West (R) 39.3%"
    },
    {
        "District": "Wisconsin 8",
        "Incumbent": "Jay W. Johnson",
        "Party": "Democratic",
        "First elected": "1996",
        "Results": "Lost re-election Republican gain",
        "Candidates": "Mark Green (R) 55.6% Jay W. Johnson (D) 45.4%"
    },
    {
        "District": "Wisconsin 9",
        "Incumbent": "James Sensenbrenner",
        "Party": "Republican",
        "First elected": "1979",
        "Results": "Re-elected",
        "Candidates": "James Sensenbrenner (R) 91.3% Jeffrey Gonyo (I) 8.5% Anthony Deiss (T) 0% (WI)"
    }
]