[
    {
        "District": "New Mexico At-large",
        "Incumbent": "John Morrow",
        "Party": "Democratic",
        "First elected": "1922",
        "Result": "Re-elected",
        "Candidates": "John Morrow (D) 51.4% Juan A. A. Sedillo (R) 48.3% E. E. Denniston (S) 0.3%"
    }
]