[
    {
        "District": "Virginia 1",
        "Incumbent": "Herbert H. Bateman",
        "Party": "Republican",
        "Elected": "1982",
        "Status": "Re-elected",
        "Opponent": "Herbert H. Bateman (R) 51.0% Andrew H. Fox (D) 49.0%"
    },
    {
        "District": "Virginia 2",
        "Incumbent": "Owen B. Pickett",
        "Party": "Democratic",
        "Elected": "1986",
        "Status": "Re-elected",
        "Opponent": "Owen B. Pickett (D) 75.0% Harry G. Broskie (I) 21.6%"
    },
    {
        "District": "Virginia 3",
        "Incumbent": "Thomas J. Bliley, Jr.",
        "Party": "Republican",
        "Elected": "1980",
        "Status": "Re-elected",
        "Opponent": "Thomas J. Bliley, Jr. (R) 65.3% James A. Starke (D) 30.7% Rose L. Simpson (I) 3.7%"
    },
    {
        "District": "Virginia 4",
        "Incumbent": "Norman Sisisky",
        "Party": "Democratic",
        "Elected": "1982",
        "Status": "Re-elected",
        "Opponent": "Norman Sisisky (D) 78.3% Don L. McReynolds (I) 13.6% Loretta Chandler (I) 7.8%"
    },
    {
        "District": "Virginia 5",
        "Incumbent": "Lewis F. Payne, Jr.",
        "Party": "Democratic",
        "Elected": "1988",
        "Status": "Re-elected",
        "Opponent": "Lewis F. Payne, Jr. (D) 99.4%"
    },
    {
        "District": "Virginia 6",
        "Incumbent": "Jim Olin",
        "Party": "Democratic",
        "Elected": "1982",
        "Status": "Re-elected",
        "Opponent": "Jim Olin (D) 82.7% Gerald E. Berg (I) 16.1%"
    },
    {
        "District": "Virginia 7",
        "Incumbent": "D. French Slaughter, Jr.",
        "Party": "Republican",
        "Elected": "1984",
        "Status": "Re-elected",
        "Opponent": "D. French Slaughter, Jr. (R) 58.1% David M. Smith (D) 41.7%"
    },
    {
        "District": "Virginia 8",
        "Incumbent": "Stanford E. Parris",
        "Party": "Republican",
        "Elected": "1980",
        "Status": "Lost re-election Democratic gain",
        "Opponent": "Jim Moran (D) 51.7% Stanford E. Parris (R) 44.6% Robert T. Murphy (I) 3.5%"
    },
    {
        "District": "Virginia 9",
        "Incumbent": "Rick Boucher",
        "Party": "Democratic",
        "Elected": "1982",
        "Status": "Re-elected",
        "Opponent": "Rick Boucher (D) 97.1%"
    },
    {
        "District": "Virginia 10",
        "Incumbent": "Frank Wolf",
        "Party": "Republican",
        "Elected": "1980",
        "Status": "Re-elected",
        "Opponent": "Frank Wolf (R) 61.5% N. MacKenzie Canter III (D) 33.9% Barbara S. Minnich (I) 3.1% Lyndon LaRouche (I) 1.3%"
    }
]