[
    {
        "District": "South Carolina 1",
        "Incumbent": "L. Mendel Rivers",
        "Party": "Democratic",
        "First elected": "1940",
        "Result": "Re-elected",
        "Candidates": "L. Mendel Rivers (D) 92.8% O. H. Wilcox (R) 7.2%"
    },
    {
        "District": "South Carolina 2",
        "Incumbent": "Vacant",
        "Party": "Hampton P. Fulmer (D) died October 19, 1944 Democratic hold",
        "First elected": "John J. Riley (D) 98.0% H. G. Willingham (R) 2.0%",
        "Result": "",
        "Candidates": ""
    },
    {
        "District": "South Carolina 3",
        "Incumbent": "Butler B. Hare",
        "Party": "Democratic",
        "First elected": "1938",
        "Result": "Re-elected",
        "Candidates": "Butler B. Hare (D) 97.0% D. F. Merrill (R) 3.0%"
    },
    {
        "District": "South Carolina 4",
        "Incumbent": "Joseph R. Bryson",
        "Party": "Democratic",
        "First elected": "1938",
        "Result": "Re-elected",
        "Candidates": "Joseph R. Bryson (D) 95.7% J. G. Jones (R) 4.3%"
    },
    {
        "District": "South Carolina 5",
        "Incumbent": "James P. Richards",
        "Party": "Democratic",
        "First elected": "1932",
        "Result": "Re-elected",
        "Candidates": "James P. Richards (D) 98.1% W. I. Bost (R) 1.9%"
    },
    {
        "District": "South Carolina 6",
        "Incumbent": "John L. McMillan",
        "Party": "Democratic",
        "First elected": "1938",
        "Result": "Re-elected",
        "Candidates": "John L. McMillan (D) 98.0% C. B. Ruffin (R) 2.0%"
    }
]