[
    {
        "District": "West Virginia 1",
        "Incumbent": "Arch A. Moore, Jr.",
        "Party": "Republican",
        "First elected": "1956",
        "Result": "Re-elected",
        "Candidates": "Arch A. Moore, Jr. (R) 54.6% Bob Mollohan (D) 45.4%"
    },
    {
        "District": "West Virginia 2",
        "Incumbent": "Harley O. Staggers",
        "Party": "Democratic",
        "First elected": "1948",
        "Result": "Re-elected",
        "Candidates": "Harley O. Staggers (D) 62.6% Ward Keesecker (R) 37.4%"
    },
    {
        "District": "West Virginia 3",
        "Incumbent": "Cleveland M. Bailey",
        "Party": "Democratic",
        "First elected": "1948",
        "Result": "Re-elected",
        "Candidates": "Cleveland M. Bailey (D) 59.9% Rex Keith Bumgardner (R) 40.1%"
    },
    {
        "District": "West Virginia 4",
        "Incumbent": "Will E. Neal",
        "Party": "Republican",
        "First elected": "1956",
        "Result": "Lost re-election Democratic gain",
        "Candidates": "Ken Hechler (D) 51.5% Will E. Neal (R) 48.5%"
    },
    {
        "District": "West Virginia 5",
        "Incumbent": "Elizabeth Kee",
        "Party": "Democratic",
        "First elected": "1951",
        "Result": "Re-elected",
        "Candidates": "Elizabeth Kee (D) 99.8% George A. Daughtery (W\\/I) 0.2%"
    },
    {
        "District": "West Virginia 6",
        "Incumbent": "Robert Byrd",
        "Party": "Democratic",
        "First elected": "1952",
        "Result": "Retired to run for U. S. Senate Democratic hold",
        "Candidates": "John M. Slack, Jr. (D) 66.1% Freeman O'Dair Duff (R) 33.9%"
    }
]