[
    {
        "District": "Nebraska 1",
        "Incumbent": "Carl T. Curtis",
        "Party": "Republican",
        "First elected": "1938",
        "Result": "Re-elected",
        "Candidates": "Carl T. Curtis (R) 57.2% Frank B. Morrison (D) 42.8%"
    },
    {
        "District": "Nebraska 2",
        "Incumbent": "Howard Buffett",
        "Party": "Republican",
        "First elected": "1942",
        "Result": "Lost re-election Democratic gain",
        "Candidates": "Eugene D. O'Sullivan (D) 51.4% Howard Buffett (R) 48.6%"
    },
    {
        "District": "Nebraska 3",
        "Incumbent": "Karl Stefan",
        "Party": "Republican",
        "First elected": "1934",
        "Result": "Re-elected",
        "Candidates": "Karl Stefan (R) 64.8% Duane K. Peterson (D) 35.2%"
    },
    {
        "District": "Nebraska 4",
        "Incumbent": "Arthur L. Miller",
        "Party": "Republican",
        "First elected": "1942",
        "Result": "Re-elected",
        "Candidates": "Arthur L. Miller (R) 63.6% C. Edgar Leafdale (D) 36.4%"
    }
]