[
    {
        "District": "Nebraska 1",
        "Incumbent": "Henry Carl Luckey",
        "Party": "Democratic",
        "First elected": "1934",
        "Result": "Re-elected",
        "Candidates": "Henry Carl Luckey (D) 53.3% Ernest B. Perry (R) 45.5% Isaac B. Flint (I) 1.2%"
    },
    {
        "District": "Nebraska 2",
        "Incumbent": "Charles F. McLaughlin",
        "Party": "Democratic",
        "First elected": "1934",
        "Result": "Re-elected",
        "Candidates": "Charles F. McLaughlin (D) 62.0% Jackson B. Chase (R) 35.7% Henry Hoffman (I) 1.5% U. S. Renne (I) 0.7%"
    },
    {
        "District": "Nebraska 3",
        "Incumbent": "Karl Stefan",
        "Party": "Republican",
        "First elected": "1934",
        "Result": "Re-elected",
        "Candidates": "Karl Stefan (R) 70.5% John Havekost (D) 27.0% Raymond W. McNamara (Union) 2.6%"
    },
    {
        "District": "Nebraska 4",
        "Incumbent": "Charles Gustav Binderup",
        "Party": "Democratic",
        "First elected": "1934",
        "Result": "Re-elected",
        "Candidates": "Charles Gustav Binderup (D) 55.3% Arthur J. Denney (R) 42.7% Bert W. Harris (I) 2.0%"
    },
    {
        "District": "Nebraska 5",
        "Incumbent": "Harry B. Coffee",
        "Party": "Democratic",
        "First elected": "1934",
        "Result": "Re-elected",
        "Candidates": "Harry B. Coffee (D) 58.3% Cullen N. Wright (R) 33.8% Frank Brown (Union) 7.4% Austin E. Jay (I) 0.6%"
    }
]