[
    {
        "District": "Virginia 1",
        "Incumbent": "S. Otis Bland",
        "Party": "Democratic",
        "First elected": "1918",
        "Result": "Re-elected",
        "Candidates": "S. Otis Bland (D) 80.9% William A. Dickinson (R) 18.6% Addison Gayle (I) 0.6%"
    },
    {
        "District": "Virginia 2",
        "Incumbent": "Colgate Darden",
        "Party": "Democratic",
        "First elected": "1932",
        "Result": "Lost renomination Democratic hold",
        "Candidates": "Norman R. Hamilton (D) 88.7% Gerould M. Rumble (R) 10.0% Alexander Wright (C) 1.4%"
    },
    {
        "District": "Virginia 3",
        "Incumbent": "Andrew Jackson Montague",
        "Party": "Democratic",
        "First elected": "1912",
        "Result": "Re-elected",
        "Candidates": "Andrew Jackson Montague (D) 84.5% Charles G. Wilson (R) 14.5% Winston Dawson (I) 1.0%"
    },
    {
        "District": "Virginia 4",
        "Incumbent": "Patrick H. Drewry",
        "Party": "Democratic",
        "First elected": "1920",
        "Result": "Re-elected",
        "Candidates": "Patrick H. Drewry (D) 90.3% John Martin (R) 8.5% Daniel Killinger (I) 1.2%"
    },
    {
        "District": "Virginia 5",
        "Incumbent": "Thomas G. Burch",
        "Party": "Democratic",
        "First elected": "1930",
        "Result": "Re-elected",
        "Candidates": "Thomas G. Burch (D) 65.0% Taylor G. Vaughan (R) 35.0%"
    },
    {
        "District": "Virginia 6",
        "Incumbent": "Clifton A. Woodrum",
        "Party": "Democratic",
        "First elected": "1922",
        "Result": "Re-elected",
        "Candidates": "Clifton A. Woodrum (D) 60.7% T. X. Parsons (R) 39.3%"
    },
    {
        "District": "Virginia 7",
        "Incumbent": "Absalom Willis Robertson",
        "Party": "Democratic",
        "First elected": "1932",
        "Result": "Re-elected",
        "Candidates": "Absalom Willis Robertson (D) 63.9% J. Everett Will (R) 35.6% Lester Ruffner (S) 0.5%"
    },
    {
        "District": "Virginia 8",
        "Incumbent": "Howard W. Smith",
        "Party": "Democratic",
        "First elected": "1930",
        "Result": "Re-elected",
        "Candidates": "Howard W. Smith (D) 75.4% John Locke Green (R) 23.3% F. A. Shelton (I) 1.3%"
    },
    {
        "District": "Virginia 9",
        "Incumbent": "John W. Flannagan, Jr.",
        "Party": "Democratic",
        "First elected": "1930",
        "Result": "Re-elected",
        "Candidates": "John W. Flannagan, Jr. (D) 62.2% Luther E. Fuller (R) 37.8%"
    }
]