[
    {
        "District": "Kentucky 1",
        "Incumbent": "Carroll Hubbard",
        "Party": "Democratic",
        "First elected": "1974",
        "Result": "Re-elected",
        "Candidates": "Carroll Hubbard (D) Unopposed"
    },
    {
        "District": "Kentucky 2",
        "Incumbent": "William Huston Natcher",
        "Party": "Democratic",
        "First elected": "1953",
        "Result": "Re-elected",
        "Candidates": "William Huston Natcher (D) 65.7% Mark T. Watson (R) 34.3%"
    },
    {
        "District": "Kentucky 3",
        "Incumbent": "Romano L. Mazzoli",
        "Party": "Democratic",
        "First elected": "1970",
        "Result": "Re-elected",
        "Candidates": "Romano L. Mazzoli (D) 63.7% Richard Cesler (R) 34.6% John Cumbler (Citizens) 0.9% Robert D. Vessels (American) 0.3% Henry Glover Logsdon (I) 0.3%"
    },
    {
        "District": "Kentucky 4",
        "Incumbent": "Gene Snyder",
        "Party": "Republican",
        "First elected": "1966",
        "Result": "Re-elected",
        "Candidates": "Gene Snyder (R) 67.0% Phil M. McGary (D) 33.0%"
    },
    {
        "District": "Kentucky 5",
        "Incumbent": "Tim Lee Carter",
        "Party": "Republican",
        "First elected": "1964",
        "Result": "Retired Republican hold",
        "Candidates": "Hal Rogers (R) 67.5% Ted R. Marcum (D) 32.5%"
    },
    {
        "District": "Kentucky 6",
        "Incumbent": "Larry J. Hopkins",
        "Party": "Republican",
        "First elected": "1978",
        "Result": "Re-elected",
        "Candidates": "Larry J. Hopkins (R) 58.9% Tom Easterly (D) 40.5% Don Bertram Pratt (I) 0.7%"
    },
    {
        "District": "Kentucky 7",
        "Incumbent": "Carl D. Perkins",
        "Party": "Democratic",
        "First elected": "1948",
        "Result": "Re-elected",
        "Candidates": "Carl D. Perkins (D) Unopposed"
    }
]