[
    {
        "District": "South Carolina 1",
        "Incumbent": "Henry Brown",
        "Party": "Republican",
        "First elected": "2000",
        "Result": "Re-elected",
        "Candidates": "Henry Brown (R) 89.56% James E. Dunn (UC) 6.91% Joe Innella (NL) 3.49%"
    },
    {
        "District": "South Carolina 2",
        "Incumbent": "Joe Wilson",
        "Party": "Republican",
        "First elected": "2001",
        "Result": "Re-elected",
        "Candidates": "Joe Wilson (R) 84.12% Mark Whittington (UC) 10.03% Jim Legg (L) 5.63%"
    },
    {
        "District": "South Carolina 3",
        "Incumbent": "Lindsey Graham",
        "Party": "Republican",
        "First elected": "1994",
        "Result": "Retired to run for U.S. Senate Republican hold",
        "Candidates": "Gresham Barrett (R) 67.14% George Brightharp (D) 31.28% Mike Boerste (L) 1.56%"
    },
    {
        "District": "South Carolina 4",
        "Incumbent": "Jim DeMint",
        "Party": "Republican",
        "First elected": "1998",
        "Result": "Re-elected",
        "Candidates": "Jim DeMint (R) 69.00% Peter Ashy (D) 29.67% Faye Walters (NL) 1.23%"
    },
    {
        "District": "South Carolina 5",
        "Incumbent": "John Spratt",
        "Party": "Democratic",
        "First elected": "1982",
        "Result": "Re-elected",
        "Candidates": "John Spratt (D) 85.87% Doug Kendall (L) 7.76% Steve Lefemine (C) 6.29%"
    },
    {
        "District": "South Carolina 6",
        "Incumbent": "Jim Clyburn",
        "Party": "Democratic",
        "First elected": "1992",
        "Result": "Re-elected",
        "Candidates": "Jim Clyburn (D) 66.98% Gary McLeod (R) 32.03% Craig Augenstein (L) 0.96%"
    }
]