[
    {
        "District": "Maine 1",
        "Incumbent": "Tom Allen",
        "Party": "Democratic",
        "First elected": "1996",
        "Results": "Re-elected",
        "Candidates": "Tom Allen (D) 59.8% Jane Amero (R) 36.5% J. Frederic Staples (L) 3.6%"
    },
    {
        "District": "Maine 2",
        "Incumbent": "John Baldacci",
        "Party": "Democratic",
        "First elected": "1994",
        "Results": "Re-elected",
        "Candidates": "John Baldacci (D) 73.4% Richard Campbell (R) 26.6%"
    }
]