[
    {
        "Name": "Applied Mathematics Research Group[271]",
        "Academic group": "Mathematics",
        "Foundation date": ""
    },
    {
        "Name": "Centre for Applications of Health Psychology (CAHP)[272]",
        "Academic group": "Psychology",
        "Foundation date": ""
    },
    {
        "Name": "Centre for Applied Social Surveys[273]",
        "Academic group": "Southampton Statistical Sciences Research Institute (S3RI)",
        "Foundation date": ""
    },
    {
        "Name": "Centre for Charitable Giving and Philanthropy[274]",
        "Academic group": "",
        "Foundation date": ""
    },
    {
        "Name": "Centre for Citizenship, Globalisation and Governance (C2G2)[275]",
        "Academic group": "Social Sciences",
        "Foundation date": ""
    },
    {
        "Name": "Centre for Higher Education Management and Policy at Southampton (CHEMPaS)[276]",
        "Academic group": "School of Education",
        "Foundation date": "2004[276]"
    },
    {
        "Name": "Centre for Global Health, Population, Poverty and Policy (GHP3)[277]",
        "Academic group": "Social Sciences",
        "Foundation date": ""
    },
    {
        "Name": "Centre for Research on Ageing[278]",
        "Academic group": "Social Sciences",
        "Foundation date": ""
    },
    {
        "Name": "Centre for Research on Self and Identity (CRSI)[279]",
        "Academic group": "Psychology",
        "Foundation date": ""
    },
    {
        "Name": "Centre for Sexual Health Research (CSHR)[280]",
        "Academic group": "Psychology",
        "Foundation date": ""
    },
    {
        "Name": "Centre for Vision and Cognition (CVC)[281]",
        "Academic group": "Psychology",
        "Foundation date": ""
    },
    {
        "Name": "Comparative Education, Citizenship and Political Socialisation Research Group[282]",
        "Academic group": "Southampton Education School Leadership, School Improvement and Effectiveness (LSIE) Research Centre",
        "Foundation date": ""
    },
    {
        "Name": "Design and Utilisation of Digital Technologies Research Group[283]",
        "Academic group": "Southampton Education School Lifelong and Work-Related Learning (LaWRL) Research Centre",
        "Foundation date": ""
    },
    {
        "Name": "Developmental Brain-Behaviour Unit (DBBU)[284]",
        "Academic group": "Psychology",
        "Foundation date": "November 2003[284]"
    },
    {
        "Name": "Earth Surface Dynamics Research Group[285]",
        "Academic group": "Geography and the Environment",
        "Foundation date": ""
    },
    {
        "Name": "Economy, Society and Space Research Group[286]",
        "Academic group": "Geography and the Environment",
        "Foundation date": ""
    },
    {
        "Name": "Educational and Career Decision-making Research Group[287]",
        "Academic group": "Southampton Education School Lifelong and Work-Related Learning (LaWRL) Research Centre",
        "Foundation date": ""
    },
    {
        "Name": "Educational Leadership, Management and Administration Research Group[288]",
        "Academic group": "Southampton Education School Leadership, School Improvement and Effectiveness (LSIE) Research Centre",
        "Foundation date": ""
    },
    {
        "Name": "Emotion and Personality Bio-behavioural Laboratory[289]",
        "Academic group": "Psychology",
        "Foundation date": "July 2011[289]"
    },
    {
        "Name": "ESRC Care Lifecycle Research Programme[290]",
        "Academic group": "Social Sciences",
        "Foundation date": "April 2010 AC/EUR\" 2015[290]"
    },
    {
        "Name": "ESRC Centre for Population Change (CPC)[291]",
        "Academic group": "",
        "Foundation date": "January 2009[291]"
    },
    {
        "Name": "ESRC National Centre for Research Methods (NCRM)[292]",
        "Academic group": "",
        "Foundation date": "April 2004[293]"
    },
    {
        "Name": "ESRC Third Sector Research Centre (TSRC)[294]",
        "Academic group": "",
        "Foundation date": "September 2008[295]"
    },
    {
        "Name": "Experimental Psychopathology Laboratory (EPL)[296]",
        "Academic group": "Psychology",
        "Foundation date": ""
    },
    {
        "Name": "GeoData Institute[297]",
        "Academic group": "Geography and the Environment",
        "Foundation date": "1984[298]"
    },
    {
        "Name": "Global Environment Change and Earth Observation Research Group[299]",
        "Academic group": "Geography and the Environment",
        "Foundation date": ""
    },
    {
        "Name": "Higher Education Research Group[300]",
        "Academic group": "Southampton Education School",
        "Foundation date": ""
    },
    {
        "Name": "Inclusion and Special Education Research Group[301]",
        "Academic group": "Southampton Education School Social Justice and Inclusive Education (SJIE) Research Centre",
        "Foundation date": ""
    },
    {
        "Name": "International Centre for Child Wellbeing[302]",
        "Academic group": "",
        "Foundation date": ""
    },
    {
        "Name": "Internationalisation of HE Special Interest Group[303]",
        "Academic group": "Southampton Education School",
        "Foundation date": ""
    },
    {
        "Name": "Language and Literacy in Education Research Group[304]",
        "Academic group": "Southampton Education School Social Justice and Inclusive Education (SJIE) Research Centre",
        "Foundation date": ""
    },
    {
        "Name": "Leadership, School Improvement and Effectiveness (LSIE) Research Centre[305]",
        "Academic group": "Southampton Education School",
        "Foundation date": ""
    },
    {
        "Name": "Lifelong and Work-Related Learning (LaWRL) Research Centre[306]",
        "Academic group": "Southampton Education School",
        "Foundation date": ""
    },
    {
        "Name": "Marketing and Marketisation in Education Research Group[307]",
        "Academic group": "Southampton Education School Leadership, School Improvement and Effectiveness (LSIE) Research Centre",
        "Foundation date": ""
    },
    {
        "Name": "Mathematics Education Special Interest Group[308]",
        "Academic group": "Southampton Education School Mathematics and Science Education (MaSE) Research Centre",
        "Foundation date": "Early 1970s[308]"
    },
    {
        "Name": "Mathematics and Science Education (MaSE) Research Centre[309]",
        "Academic group": "Southampton Education School",
        "Foundation date": ""
    },
    {
        "Name": "Operational Research Group[310]",
        "Academic group": "Mathematics",
        "Foundation date": ""
    },
    {
        "Name": "Palaeoenvironmental Laboratory at the University of Southampton (PLUS)[311]",
        "Academic group": "Geography and the Environment",
        "Foundation date": ""
    },
    {
        "Name": "Population, Health and Wellbeing Research Group (PHeW)[312]",
        "Academic group": "Geography and the Environment",
        "Foundation date": ""
    },
    {
        "Name": "Pure Mathematics Research Group[313]",
        "Academic group": "Mathematics",
        "Foundation date": ""
    },
    {
        "Name": "Quantitative Methodologies Special Interest Group[314]",
        "Academic group": "Southampton Education School",
        "Foundation date": ""
    },
    {
        "Name": "Race and Ethnicity Special Interest Group[315]",
        "Academic group": "Southampton Education School",
        "Foundation date": ""
    },
    {
        "Name": "Research on SEN Group[282]",
        "Academic group": "Southampton Education School Social Justice and Inclusive Education (SJIE) Research Centre",
        "Foundation date": ""
    },
    {
        "Name": "Research in Teacher Education (RITE) Special Interest Group[316]",
        "Academic group": "Southampton Education School",
        "Foundation date": ""
    },
    {
        "Name": "School Improvement and Effectiveness Research Group[317]",
        "Academic group": "Southampton Education School Leadership, School Improvement and Effectiveness (LSIE) Research Centre",
        "Foundation date": ""
    },
    {
        "Name": "Science Education Special Interest Group[318]",
        "Academic group": "Southampton Education School Mathematics and Science Education (MaSE) Research Centre",
        "Foundation date": ""
    },
    {
        "Name": "Social Justice and Inclusive Education (SJIE) Research Centre[319]",
        "Academic group": "Southampton Education School",
        "Foundation date": ""
    },
    {
        "Name": "South Asian Communities (SAC) Special Interest Group[320]",
        "Academic group": "Southampton Education School",
        "Foundation date": ""
    },
    {
        "Name": "Southampton Institute of Mathematical Modelling (SIMM)[321]",
        "Academic group": "Mathematics",
        "Foundation date": ""
    },
    {
        "Name": "Southampton Practice Research Initiative Network Group (SPRING)[322]",
        "Academic group": "Social Sciences",
        "Foundation date": "2007[323]"
    },
    {
        "Name": "Southampton Statistical Sciences Research Institute (S3RI)[324]",
        "Academic group": "",
        "Foundation date": "2000s[325]"
    },
    {
        "Name": "Southampton Theory Astrophysics and Gravity Research Centre (STAG)[326]",
        "Academic group": "",
        "Foundation date": ""
    },
    {
        "Name": "Statistics Research Group[327]",
        "Academic group": "Mathematics Southampton Statistical Sciences Research Institute (S3RI)",
        "Foundation date": ""
    },
    {
        "Name": "Teacher Professional Development and Effectiveness[282]",
        "Academic group": "Southampton Education School Leadership, School Improvement and Effectiveness (LSIE) Research Centre",
        "Foundation date": ""
    },
    {
        "Name": "Teaching and learning through the life-course Research Group[328]",
        "Academic group": "Southampton Education School Lifelong and Work-Related Learning (LaWRL) Research Centre",
        "Foundation date": ""
    },
    {
        "Name": "Work Futures Research Centre[329]",
        "Academic group": "Social Sciences",
        "Foundation date": ""
    },
    {
        "Name": "Work-related and Workplace Learning Research Group[330]",
        "Academic group": "Southampton Education School Lifelong and Work-Related Learning (LaWRL) Research Centre",
        "Foundation date": ""
    }
]