[
    {
        "Nominations: 2013AC/EUR\"14 Michigan Wolverines men's basketball team AC/EURAC/ 2014 Philadelphia Phillies season AC/EURAC/ Track and field AC/EURAC/ Malcolm Grant (basketball) AC/EURAC/ Broadhurst Park Reassessment: Alberto Contador AC/EURAC/ MoberlyAC/EUR\"Jourdain incident AC/EURAC/ Alphastates AC/EURAC/ Byzantine (band) AC/EURAC/ Yulia Tymoshenko AC/EURAC/ Falun Gong AC/EURAC/ Natalie Portman AC/EURAC/ Star Alliance AC/EURAC/ Google AC/EURAC/ Sargun Mehta AC/EURAC/ Task forces: Project quality AC/EURAC/ Sweeps AC/EURAC/ GAN Backlog Drives AC/EURAC/ GA Cup WikiProject Good articles newsletter (last updated January 2013)": "Nominations: 2013AC/EUR\"14 Michigan Wolverines men's basketball team AC/EURAC/ 2014 Philadelphia Phillies season AC/EURAC/ Track and field AC/EURAC/ Malcolm Grant (basketball) AC/EURAC/ Broadhurst Park Reassessment: Alberto Contador AC/EURAC/ MoberlyAC/EUR\"Jourdain incident AC/EURAC/ Alphastates AC/EURAC/ Byzantine (band) AC/EURAC/ Yulia Tymoshenko AC/EURAC/ Falun Gong AC/EURAC/ Natalie Portman AC/EURAC/ Star Alliance AC/EURAC/ Google AC/EURAC/ Sargun Mehta AC/EURAC/ Task forces: Project quality AC/EURAC/ Sweeps AC/EURAC/ GAN Backlog Drives AC/EURAC/ GA Cup WikiProject Good articles newsletter (last updated January 2013)"
    },
    {
        "Nominations: 2013AC/EUR\"14 Michigan Wolverines men's basketball team AC/EURAC/ 2014 Philadelphia Phillies season AC/EURAC/ Track and field AC/EURAC/ Malcolm Grant (basketball) AC/EURAC/ Broadhurst Park Reassessment: Alberto Contador AC/EURAC/ MoberlyAC/EUR\"Jourdain incident AC/EURAC/ Alphastates AC/EURAC/ Byzantine (band) AC/EURAC/ Yulia Tymoshenko AC/EURAC/ Falun Gong AC/EURAC/ Natalie Portman AC/EURAC/ Star Alliance AC/EURAC/ Google AC/EURAC/ Sargun Mehta AC/EURAC/ Task forces: Project quality AC/EURAC/ Sweeps AC/EURAC/ GAN Backlog Drives AC/EURAC/ GA Cup WikiProject Good articles newsletter (last updated January 2013)": "Good article criteria | Statistics | GAN Report | Changes log Nominations list: 439 articles (16 of them are on hold) as of 11:17, 11 November 2015 (UTC) | edit"
    }
]