[
    {
        "Date of Release": "2005",
        "Title": "Demo",
        "Record Label": "Self Released"
    },
    {
        "Date of Release": "August 2005",
        "Title": "This Will Be Our Little Secret",
        "Record Label": "Self Released"
    },
    {
        "Date of Release": "March 10, 2006",
        "Title": "Therefore I Am \\/ Vanna",
        "Record Label": "Robotica Records"
    },
    {
        "Date of Release": "June 6, 2006",
        "Title": "The Search Party Never Came",
        "Record Label": "Epitaph"
    },
    {
        "Date of Release": "October 12, 2010",
        "Title": "The Honest Hearts[13]",
        "Record Label": "Artery Recordings"
    },
    {
        "Date of Release": "December 17, 2013",
        "Title": "Preying\\/Purging",
        "Record Label": "Self Released"
    },
    {
        "Date of Release": "October 22, 2015",
        "Title": "ALT",
        "Record Label": "Pure Noise Records"
    }
]