[
    {
        "Plant source": "Papaya",
        "Amount (mg \\/ 100g)": "60"
    },
    {
        "Plant source": "Strawberry",
        "Amount (mg \\/ 100g)": "60"
    },
    {
        "Plant source": "Orange",
        "Amount (mg \\/ 100g)": "53"
    },
    {
        "Plant source": "Lemon",
        "Amount (mg \\/ 100g)": "53"
    },
    {
        "Plant source": "Pineapple",
        "Amount (mg \\/ 100g)": "48"
    },
    {
        "Plant source": "Cauliflower",
        "Amount (mg \\/ 100g)": "48"
    },
    {
        "Plant source": "Kale",
        "Amount (mg \\/ 100g)": "41"
    },
    {
        "Plant source": "Melon, cantaloupe",
        "Amount (mg \\/ 100g)": "40"
    },
    {
        "Plant source": "Garlic",
        "Amount (mg \\/ 100g)": "31"
    },
    {
        "Plant source": "Grapefruit",
        "Amount (mg \\/ 100g)": "30"
    },
    {
        "Plant source": "Raspberry",
        "Amount (mg \\/ 100g)": "30"
    },
    {
        "Plant source": "Tangerine",
        "Amount (mg \\/ 100g)": "30"
    },
    {
        "Plant source": "Mandarin orange",
        "Amount (mg \\/ 100g)": "30"
    },
    {
        "Plant source": "Passion fruit",
        "Amount (mg \\/ 100g)": "30"
    },
    {
        "Plant source": "Spinach",
        "Amount (mg \\/ 100g)": "30"
    },
    {
        "Plant source": "Cabbage raw green",
        "Amount (mg \\/ 100g)": "30"
    },
    {
        "Plant source": "Lime",
        "Amount (mg \\/ 100g)": "30"
    },
    {
        "Plant source": "Mango",
        "Amount (mg \\/ 100g)": "28"
    },
    {
        "Plant source": "Rutabaga",
        "Amount (mg \\/ 100g)": "25"
    },
    {
        "Plant source": "Blackberry",
        "Amount (mg \\/ 100g)": "21"
    },
    {
        "Plant source": "Potato",
        "Amount (mg \\/ 100g)": "20"
    },
    {
        "Plant source": "Melon, honeydew",
        "Amount (mg \\/ 100g)": "20"
    },
    {
        "Plant source": "Tomato, red",
        "Amount (mg \\/ 100g)": "13.7[115]"
    },
    {
        "Plant source": "Cranberry",
        "Amount (mg \\/ 100g)": "13"
    },
    {
        "Plant source": "Tomato",
        "Amount (mg \\/ 100g)": "10"
    },
    {
        "Plant source": "Blueberry",
        "Amount (mg \\/ 100g)": "10"
    },
    {
        "Plant source": "Pawpaw",
        "Amount (mg \\/ 100g)": "10"
    }
]