[
    {
        "Abbr.": "DS",
        "Coat of arms": "",
        "Teryt. code": "02",
        "Car plates": "D",
        "Voivodeship": "Lower Silesian",
        "Polish name": "dolnoA...>lA\" skie",
        "Capital cities": "WrocA...'aw",
        "Area (km2)": "19,947",
        "Population (December 31, 2012)": "2,914,362",
        "Pop. per km2": "146"
    },
    {
        "Abbr.": "KP",
        "Coat of arms": "",
        "Teryt. code": "04",
        "Car plates": "C",
        "Voivodeship": "Kuyavian-Pomeranian",
        "Polish name": "kujawsko-pomorskie",
        "Capital cities": "Bydgoszcz A'A1, ToruA...\" A'A2",
        "Area (km2)": "17,972",
        "Population (December 31, 2012)": "2,096,404",
        "Pop. per km2": "117"
    },
    {
        "Abbr.": "LU",
        "Coat of arms": "",
        "Teryt. code": "06",
        "Car plates": "L",
        "Voivodeship": "Lublin",
        "Polish name": "lubelskie",
        "Capital cities": "Lublin",
        "Area (km2)": "25,122",
        "Population (December 31, 2012)": "2,165,651",
        "Pop. per km2": "86"
    },
    {
        "Abbr.": "LB",
        "Coat of arms": "",
        "Teryt. code": "08",
        "Car plates": "F",
        "Voivodeship": "Lubusz",
        "Polish name": "lubuskie",
        "Capital cities": "Gorzow Wielkopolski 1, Zielona Gora 2",
        "Area (km2)": "13,988",
        "Population (December 31, 2012)": "1,023,317",
        "Pop. per km2": "73"
    },
    {
        "Abbr.": "LD",
        "Coat of arms": "",
        "Teryt. code": "10",
        "Car plates": "E",
        "Voivodeship": "A\nAA3dA\nAo",
        "Polish name": "A'A3dzkie",
        "Capital cities": "A\nAA3dA\nAo",
        "Area (km2)": "18,219",
        "Population (December 31, 2012)": "2,524,651",
        "Pop. per km2": "139"
    },
    {
        "Abbr.": "MA",
        "Coat of arms": "",
        "Teryt. code": "12",
        "Car plates": "K",
        "Voivodeship": "Lesser Poland",
        "Polish name": "maA...'opolskie",
        "Capital cities": "Krakow",
        "Area (km2)": "15,183",
        "Population (December 31, 2012)": "3,354,077",
        "Pop. per km2": "221"
    },
    {
        "Abbr.": "MZ",
        "Coat of arms": "",
        "Teryt. code": "14",
        "Car plates": "W",
        "Voivodeship": "Mazovian",
        "Polish name": "mazowieckie",
        "Capital cities": "Warsaw",
        "Area (km2)": "35,558",
        "Population (December 31, 2012)": "5,301,760",
        "Pop. per km2": "149"
    },
    {
        "Abbr.": "OP",
        "Coat of arms": "",
        "Teryt. code": "16",
        "Car plates": "O",
        "Voivodeship": "Opole",
        "Polish name": "opolskie",
        "Capital cities": "Opole",
        "Area (km2)": "9,412",
        "Population (December 31, 2012)": "1,010,203",
        "Pop. per km2": "107"
    },
    {
        "Abbr.": "PK",
        "Coat of arms": "",
        "Teryt. code": "18",
        "Car plates": "R",
        "Voivodeship": "Subcarpathian",
        "Polish name": "podkarpackie",
        "Capital cities": "Rzeszow",
        "Area (km2)": "17,846",
        "Population (December 31, 2012)": "2,129,951",
        "Pop. per km2": "119"
    },
    {
        "Abbr.": "PD",
        "Coat of arms": "",
        "Teryt. code": "20",
        "Car plates": "B",
        "Voivodeship": "Podlaskie",
        "Polish name": "podlaskie",
        "Capital cities": "BiaA...'ystok",
        "Area (km2)": "20,187",
        "Population (December 31, 2012)": "1,198,690",
        "Pop. per km2": "59"
    },
    {
        "Abbr.": "PM",
        "Coat of arms": "",
        "Teryt. code": "22",
        "Car plates": "G",
        "Voivodeship": "Pomeranian",
        "Polish name": "pomorskie",
        "Capital cities": "GdaA...\"sk",
        "Area (km2)": "18,310",
        "Population (December 31, 2012)": "2,290,070",
        "Pop. per km2": "125"
    },
    {
        "Abbr.": "SL",
        "Coat of arms": "",
        "Teryt. code": "24",
        "Car plates": "S",
        "Voivodeship": "Silesian",
        "Polish name": "A...>lA\" skie",
        "Capital cities": "Katowice",
        "Area (km2)": "12,333",
        "Population (December 31, 2012)": "4,615,870",
        "Pop. per km2": "374"
    },
    {
        "Abbr.": "SK",
        "Coat of arms": "",
        "Teryt. code": "26",
        "Car plates": "T",
        "Voivodeship": "A...swiA\"(tm)tokrzyskie",
        "Polish name": "A...>wiA\"(tm)tokrzyskie",
        "Capital cities": "Kielce",
        "Area (km2)": "11,711",
        "Population (December 31, 2012)": "1,273,995",
        "Pop. per km2": "109"
    },
    {
        "Abbr.": "WN",
        "Coat of arms": "",
        "Teryt. code": "28",
        "Car plates": "N",
        "Voivodeship": "Warmian-Masurian",
        "Polish name": "warmiA...\"sko-mazurskie",
        "Capital cities": "Olsztyn",
        "Area (km2)": "24,173",
        "Population (December 31, 2012)": "1,450,697",
        "Pop. per km2": "60"
    },
    {
        "Abbr.": "WP",
        "Coat of arms": "",
        "Teryt. code": "30",
        "Car plates": "P",
        "Voivodeship": "Greater Poland",
        "Polish name": "wielkopolskie",
        "Capital cities": "PoznaA...\"",
        "Area (km2)": "29,826",
        "Population (December 31, 2012)": "3,462,196",
        "Pop. per km2": "116"
    },
    {
        "Abbr.": "ZP",
        "Coat of arms": "",
        "Teryt. code": "32",
        "Car plates": "Z",
        "Voivodeship": "West Pomeranian",
        "Polish name": "zachodniopomorskie",
        "Capital cities": "Szczecin",
        "Area (km2)": "22,892",
        "Population (December 31, 2012)": "1,721,405",
        "Pop. per km2": "75"
    },
    {
        "Abbr.": "(A'A1) Seat of voivode. (A'A2) Seat of sejmik and marszaA...'ek.",
        "Coat of arms": "",
        "Teryt. code": "",
        "Car plates": "",
        "Voivodeship": "",
        "Polish name": "",
        "Capital cities": "",
        "Area (km2)": "",
        "Population (December 31, 2012)": "",
        "Pop. per km2": ""
    }
]