[
    {
        "Year": "1951",
        "Player": "Hugh McElhenny",
        "Finish": "8th"
    },
    {
        "Year": "1952",
        "Player": "Don Heinrich",
        "Finish": "9th"
    },
    {
        "Year": "1990",
        "Player": "Greg Lewis",
        "Finish": "7th"
    },
    {
        "Year": "1991",
        "Player": "Steve Emtman",
        "Finish": "4th"
    },
    {
        "Year": "1994",
        "Player": "Napoleon Kaufman",
        "Finish": "9th"
    },
    {
        "Year": "2000",
        "Player": "Marques Tuiasosopo",
        "Finish": "8th"
    }
]