[
    {
        "Model name": "Wings of Freedom Flitplane",
        "First flight": "1995",
        "Number built": "50 (Dec 2011)",
        "Type": "single seat ultralight aircraft"
    },
    {
        "Model name": "Wings of Freedom Phoenix 103",
        "First flight": "",
        "Number built": "10 (Dec 2011)",
        "Type": "single seat ultralight aircraft"
    },
    {
        "Model name": "Wings of Freedom Skylite",
        "First flight": "1991",
        "Number built": "26 (1998)",
        "Type": "single seat ultralight aircraft"
    },
    {
        "Model name": "Wings of Freedom LiL Bitts",
        "First flight": "",
        "Number built": "",
        "Type": "single seat biplane"
    }
]