[
    {
        "Preceding station": "Lipschitzallee towards Rathaus Spandau",
        "NO-HEADER1": "",
        "Berlin U-Bahn": "U7",
        "NO-HEADER3": "",
        "Following station": "Zwickauer Damm towards Rudow"
    }
]