[
    {
        "Wrestlers:": "Billy Owens",
        "Times:": "1",
        "Date:": "January 14, 2000",
        "Location:": "Plymouth, PA",
        "Notes:": "Defeated The Mad Russian in a singles match to become the first recognized WXW Hardcore Champion."
    },
    {
        "Wrestlers:": "Afa, Jr.",
        "Times:": "1",
        "Date:": "February 5, 2000",
        "Location:": "Hazleton, PA",
        "Notes:": ""
    },
    {
        "Wrestlers:": "Lucifer Grimm",
        "Times:": "2",
        "Date:": "March 25, 2000",
        "Location:": "Allentown, PA",
        "Notes:": ""
    },
    {
        "Wrestlers:": "Moondog Wenzel",
        "Times:": "1",
        "Date:": "June 2, 2000",
        "Location:": "Hazleton, PA",
        "Notes:": "Title later vacated."
    },
    {
        "Wrestlers:": "Nicky Ice",
        "Times:": "1",
        "Date:": "February 11, 2001",
        "Location:": "Allentown, PA",
        "Notes:": "Won a battle royal to win the vacant title."
    },
    {
        "Wrestlers:": "Tommy Suede",
        "Times:": "1",
        "Date:": "February 11, 2001",
        "Location:": "Allentown, PA",
        "Notes:": ""
    },
    {
        "Wrestlers:": "Nicky Ice",
        "Times:": "2",
        "Date:": "February 11, 2001",
        "Location:": "Allentown, PA",
        "Notes:": "Won a battle royal to win the vacant title."
    },
    {
        "Wrestlers:": "Supreme Lee Great is awarded the title after a pinning Nicky Ice during a match against Lucifer Grimm match on February 24, 2001. However the title is returned to Nicky Ice by Commissioner Lotto Money on March 9, 2001.",
        "Times:": "",
        "Date:": "",
        "Location:": "",
        "Notes:": ""
    },
    {
        "Wrestlers:": "Latin Xplosion",
        "Times:": "1",
        "Date:": "April 8, 2001",
        "Location:": "Allentown, PA",
        "Notes:": ""
    },
    {
        "Wrestlers:": "Lucifer Grimm",
        "Times:": "3",
        "Date:": "May 27, 2001",
        "Location:": "Allentown, PA",
        "Notes:": ""
    },
    {
        "Wrestlers:": "The Mad Russian",
        "Times:": "1",
        "Date:": "June 17, 2001",
        "Location:": "Allentown, PA",
        "Notes:": ""
    },
    {
        "Wrestlers:": "Malachi",
        "Times:": "1",
        "Date:": "August 7, 2001",
        "Location:": "Hazleton, PA",
        "Notes:": "Defeated The Mad Russian in a three way match with Billy Dream."
    },
    {
        "Wrestlers:": "Eric Cobain",
        "Times:": "1",
        "Date:": "December 15, 2001",
        "Location:": "Hazleton, PA",
        "Notes:": ""
    },
    {
        "Wrestlers:": "Malachi",
        "Times:": "2",
        "Date:": "December 15, 2001",
        "Location:": "Hazleton, PA",
        "Notes:": ""
    },
    {
        "Wrestlers:": "Although Malachi loses the title to Jersey Devil in Hazleton, Pennsylvania on January 4, 2002, the title is returned to Malachi after Jersey Devil leaves the promotion.",
        "Times:": "",
        "Date:": "",
        "Location:": "",
        "Notes:": ""
    },
    {
        "Wrestlers:": "Kid Inferno",
        "Times:": "1",
        "Date:": "April 21, 2002",
        "Location:": "Allentown, PA",
        "Notes:": ""
    },
    {
        "Wrestlers:": "Malachi",
        "Times:": "3",
        "Date:": "April 21, 2002",
        "Location:": "Allentown, PA",
        "Notes:": ""
    },
    {
        "Wrestlers:": "Afa, Jr.",
        "Times:": "2",
        "Date:": "June 2, 2002",
        "Location:": "Bethlehem, PA",
        "Notes:": ""
    },
    {
        "Wrestlers:": "Sugaa",
        "Times:": "1",
        "Date:": "June 2, 2002",
        "Location:": "Bethlehem, PA",
        "Notes:": ""
    },
    {
        "Wrestlers:": "Afa, Jr.",
        "Times:": "3",
        "Date:": "June 2, 2002",
        "Location:": "Bethlehem, PA",
        "Notes:": ""
    },
    {
        "Wrestlers:": "Sugaa",
        "Times:": "2",
        "Date:": "June 2, 2002",
        "Location:": "Bethlehem, PA",
        "Notes:": ""
    },
    {
        "Wrestlers:": "Malachi",
        "Times:": "4",
        "Date:": "June 2, 2002",
        "Location:": "Bethlehem, PA",
        "Notes:": ""
    },
    {
        "Wrestlers:": "Sugaa",
        "Times:": "3",
        "Date:": "July 12, 2002",
        "Location:": "Allentown, PA",
        "Notes:": "Sugaa is later forced to vacated the title due to injury."
    },
    {
        "Wrestlers:": "Crazy Ivan",
        "Times:": "1",
        "Date:": "April 26, 2003",
        "Location:": "Hazleton, PA",
        "Notes:": "Defeated Boogaloo in a tournament final to win the vacant title."
    },
    {
        "Wrestlers:": "Jayson",
        "Times:": "1",
        "Date:": "July 11, 2003",
        "Location:": "Allentown, PA",
        "Notes:": "Defeated Crazy Ivan in a three Way match with Boogalou to win the title."
    },
    {
        "Wrestlers:": "Jayson is later stripped of the title after failing to defend the title within 30 days and the WXW Hardcore Championship is vacated on August 11, 2003. The title subsequently remains inactive.",
        "Times:": "",
        "Date:": "",
        "Location:": "",
        "Notes:": ""
    }
]