[
    {
        "col0": "Wild Gold",
        "col1": "Sol M. Wurtzel",
        "col2": "C. Trevor",
        "col3": "4500"
    },
    {
        "col0": "Wild Geese II",
        "col1": "Euan Lloyd",
        "col2": "E. Fox",
        "col3": "7500"
    },
    {
        "col0": "Wild Geese Calling",
        "col1": "Harry Joe Brown",
        "col2": "H. Fonda",
        "col3": "4620"
    },
    {
        "col0": "Wild Child",
        "col1": "Eric Fellner",
        "col2": "A. Pettyfer",
        "col3": "5880"
    },
    {
        "col0": "Wild Cargo",
        "col1": "Van Beuren Studios",
        "col2": "F. Buck",
        "col3": "5760"
    },
    {
        "col0": "Wild Card",
        "col1": "Jason Statham",
        "col2": "J. Alexander",
        "col3": "5520"
    },
    {
        "col0": "Wild Card",
        "col1": "Chang Yoon-hyun",
        "col2": "H. Chae-young",
        "col3": "6840"
    },
    {
        "col0": "Wild Canaries",
        "col1": "Lawrence Michael Levine",
        "col2": "A. Shawkat",
        "col3": "5880"
    },
    {
        "col0": "Wild Brian Kent",
        "col1": "Sol Lesser",
        "col2": "M. Clarke",
        "col3": "3420"
    },
    {
        "col0": "Wild Bill Hickok Rides",
        "col1": "Bryan Foy",
        "col2": "B. Cabot",
        "col3": "4920"
    },
    {
        "col0": "Wild Bill Hickok",
        "col1": "Adolph Zukor",
        "col2": "W. S. Hart",
        "col3": "4200"
    },
    {
        "col0": "Wild Bill",
        "col1": "Richard D. Zanuck",
        "col2": "B. Dern",
        "col3": "5880"
    },
    {
        "col0": "Wild America",
        "col1": "Steve Tisch",
        "col2": "J. T. Thomas",
        "col3": "6360"
    },
    {
        "col0": "Wild 90",
        "col1": "Norman Mailer",
        "col2": "N. Mailer",
        "col3": "5400"
    },
    {
        "col0": "Wild",
        "col1": "Reese Witherspoon",
        "col2": "L. Dern",
        "col3": "6900"
    },
    {
        "col0": "Wild, Wild Susan",
        "col1": "Adolph Zukor",
        "col2": "B. Daniels",
        "col3": "3600"
    },
    {
        "col0": "Wilby Wonderful",
        "col1": "Camelia Frieberg",
        "col2": "J. Allodi",
        "col3": "5940"
    },
    {
        "col0": "Wil Time Bigtime",
        "col1": "Willie Revillame",
        "col2": "W. Revillame",
        "col3": "1800"
    },
    {
        "col0": "Wiggledance!",
        "col1": "The Wiggles",
        "col2": "M. Cook",
        "col3": "2760"
    },
    {
        "col0": "Wiggle and Learn",
        "col1": "Paul Field",
        "col2": "T. Wiggles",
        "col3": "1320"
    },
    {
        "col0": "Wifemistress",
        "col1": "Franco Cristaldi",
        "col2": "M. Mastroianni",
        "col3": "6360"
    },
    {
        "col0": "Wife vs. Secretary",
        "col1": "Hunt Stromberg",
        "col2": "J. Stewart",
        "col3": "5280"
    },
    {
        "col0": "Wife Wanted",
        "col1": "Kay Francis",
        "col2": "K. Francis",
        "col3": "4380"
    },
    {
        "col0": "Wife Tamers",
        "col1": "Hal Roach",
        "col2": "L. Barrymore",
        "col3": "1200"
    },
    {
        "col0": "Wife Savers",
        "col1": "James Cruze",
        "col2": "W. Beery",
        "col3": "3600"
    },
    {
        "col0": "Wife, Husband and Friend",
        "col1": "Darryl F. Zanuck",
        "col2": "L. Young",
        "col3": "4500"
    },
    {
        "col0": "Widow by Proxy",
        "col1": "Adolph Zukor",
        "col2": "M. Clark",
        "col3": "3000"
    },
    {
        "col0": "Widow Blue!",
        "col1": "Manuel Conde",
        "col2": "J. Holmes",
        "col3": "4680"
    },
    {
        "col0": "Widow * Second Wife: Real Sucking Engulfing a Rare Utensil",
        "col1": "Yutaka Ikejima",
        "col2": "K. Sano",
        "col3": "3600"
    },
    {
        "col0": "Widow's Might",
        "col1": "Irving Asher",
        "col2": "Y. Arnaud",
        "col3": "4620"
    },
    {
        "col0": "Wide Sargasso Sea",
        "col1": "Kudos",
        "col2": "R. Spall",
        "col3": "5400"
    },
    {
        "col0": "Wide Sargasso Sea",
        "col1": "Jan Sharp",
        "col2": "M. York",
        "col3": "5880"
    },
    {
        "col0": "Wide Open Spaces",
        "col1": "Hal Roach",
        "col2": "S. Laurel",
        "col3": "1200"
    },
    {
        "col0": "Wide Open Faces",
        "col1": "Edward Gross",
        "col2": "J. E. Brown",
        "col3": "4020"
    },
    {
        "col0": "Wide Boy",
        "col1": "Nat Cohen",
        "col2": "S. Shaw",
        "col3": "4020"
    },
    {
        "col0": "Wide Awake",
        "col1": "Cary Woods",
        "col2": "D. Leary",
        "col3": "5280"
    },
    {
        "col0": "Wicker Park",
        "col1": "Gary Lucchesi",
        "col2": "J. Hartnett",
        "col3": "6840"
    },
    {
        "col0": "Wicked as They Come",
        "col1": "M.J. Frankovich",
        "col2": "A. Dahl",
        "col3": "5640"
    },
    {
        "col0": "Wicked Woman",
        "col1": "Clarence Greene",
        "col2": "R. Egan",
        "col3": "4620"
    },
    {
        "col0": "Wicked Stepmother",
        "col1": "Larry Cohen",
        "col2": "B. Davis",
        "col3": "5580"
    },
    {
        "col0": "Wicked Little Things",
        "col1": "Boaz Davidson",
        "col2": "G. Lewis",
        "col3": "5640"
    },
    {
        "col0": "Wicked Flying Monkeys",
        "col1": "Jorge Gutierrez",
        "col2": "R. Araiza",
        "col3": "5220"
    },
    {
        "col0": "Wicked",
        "col1": "Frank Beddor",
        "col2": "J. Stiles",
        "col3": "5280"
    },
    {
        "col0": "Wicked, Wicked",
        "col1": "Richard L. Bare",
        "col2": "S. Brady",
        "col3": "5700"
    },
    {
        "col0": "Wichita",
        "col1": "Walter Mirisch",
        "col2": "J. McCrea",
        "col3": "4860"
    },
    {
        "col0": "Why Worry?",
        "col1": "Hal Roach",
        "col2": "H. Lloyd",
        "col3": "3780"
    },
    {
        "col0": "Why Women Love",
        "col1": "Edwin Carewe",
        "col2": "B. Sweet",
        "col3": "4200"
    },
    {
        "col0": "Why Stop Now",
        "col1": "Ron Nyswaner",
        "col2": "J. Eisenberg",
        "col3": "5280"
    },
    {
        "col0": "Why Men Leave Home",
        "col1": "Louis B. Mayer",
        "col2": "L. Stone",
        "col3": "4800"
    },
    {
        "col0": "Why Men Don't Listen and Women Can't Read Maps",
        "col1": "Herman Weigel",
        "col2": "N. Becker",
        "col3": "6180"
    },
    {
        "col0": "Why Me?",
        "col1": "Irwin Yablans",
        "col2": "C. Lloyd",
        "col3": "5220"
    },
    {
        "col0": "Why Me?",
        "col1": "Raymond Wong Pak-ming",
        "col2": "C. Yun-fat",
        "col3": "5520"
    },
    {
        "col0": "Why Man Creates",
        "col1": "Kaiser Aluminum",
        "col2": "P. Saltman",
        "col3": "1500"
    },
    {
        "col0": "Why Leave Home?",
        "col1": "Malcolm Stuart Boylan",
        "col2": "D. Lee",
        "col3": "4200"
    },
    {
        "col0": "Why He Gave Up",
        "col1": "Mack Sennett",
        "col2": "F. Mace",
        "col3": "720"
    },
    {
        "col0": "Why Girls Love Sailors",
        "col1": "Hal Roach",
        "col2": "O. Hardy",
        "col3": "1200"
    },
    {
        "col0": "Why Girls Leave Home",
        "col1": "Harry Rapf",
        "col2": "A. Q. Nilsson",
        "col3": "-4800"
    },
    {
        "col0": "Why Don't You?",
        "col1": "Russell T Davies",
        "col2": "B. Slade",
        "col3": "1500"
    },
    {
        "col0": "Why Did I Get Married Too?",
        "col1": "Tyler Perry",
        "col2": "J. Jackson",
        "col3": "7260"
    },
    {
        "col0": "Why Cry at Parting?",
        "col1": "Richard Eichberg",
        "col2": "P. Morgan",
        "col3": "5280"
    },
    {
        "col0": "Why Change Your Wife?",
        "col1": "Jesse L. Lasky",
        "col2": "G. Swanson",
        "col3": "5400"
    },
    {
        "col0": "Why Be Good?",
        "col1": "John McCormick",
        "col2": "C. Moore",
        "col3": "5040"
    },
    {
        "col0": "Whore",
        "col1": "Dan Ireland",
        "col2": "T. Russell",
        "col3": "5100"
    },
    {
        "col0": "Whoops Apocalypse",
        "col1": "Brian Eastman",
        "col2": "P. Cook",
        "col3": "5580"
    },
    {
        "col0": "Whoops Apocalypse",
        "col1": "Humphrey Barclay",
        "col2": "G. Palmer",
        "col3": "1800"
    },
    {
        "col0": "Whoops",
        "col1": "Sandor Simo",
        "col2": "D. Garas",
        "col3": "5520"
    },
    {
        "col0": "Whoops, I'm an Indian!",
        "col1": "Jules White",
        "col2": "B. Jamison",
        "col3": "1032"
    },
    {
        "col0": "Whoopi's Littleburg",
        "col1": "Whoopi Goldberg",
        "col2": "W. Goldberg",
        "col3": "1800"
    },
    {
        "col0": "Whoopee!",
        "col1": "Samuel Goldwyn",
        "col2": "E. Cantor",
        "col3": "6060"
    },
    {
        "col0": "Whom the Gods Love",
        "col1": "Karl Hartl",
        "col2": "P. Horbiger",
        "col3": "6660"
    },
    {
        "col0": "Whom the Gods Love",
        "col1": "Basil Dean",
        "col2": "L. Haid",
        "col3": "4920"
    },
    {
        "col0": "Wholly Moses!",
        "col1": "Freddie Fields",
        "col2": "J. Houseman",
        "col3": "6180"
    },
    {
        "col0": "Whole New Thing",
        "col1": "Camelia Frieberg",
        "col2": "C. K. Rennie",
        "col3": "5520"
    },
    {
        "col0": "Whole Lotta Sole",
        "col1": "Terry George",
        "col2": "B. Fraser",
        "col3": "5340"
    },
    {
        "col0": "Whoever Slew Auntie Roo?",
        "col1": "Samuel Z. Arkoff",
        "col2": "S. Winters",
        "col3": "5460"
    },
    {
        "col0": "Who is Thanassis",
        "col1": "Thanassis Vengos",
        "col2": "G. Tzifos",
        "col3": "5400"
    },
    {
        "col0": "Who Will Love My Children?",
        "col1": "Wendy Riche",
        "col2": "Ann-Margret",
        "col3": "5700"
    },
    {
        "col0": "Who Was That Lady?",
        "col1": "Norman Krasna",
        "col2": "J. Leigh",
        "col3": "6900"
    },
    {
        "col0": "Who Saw Him Die?",
        "col1": "Bengt Forslund",
        "col2": "P. Oscarsson",
        "col3": "6600"
    },
    {
        "col0": "Who Loves the Sun",
        "col1": "Corey Marr",
        "col2": "L. Haas",
        "col3": "5640"
    },
    {
        "col0": "Who Killed Who?",
        "col1": "Joseph Barbera",
        "col2": "S. Claus",
        "col3": "480"
    },
    {
        "col0": "Who Killed Santa Claus?",
        "col1": "Continental Films",
        "col2": "R. L. Vigan",
        "col3": "6300"
    },
    {
        "col0": "Who Killed Pasolini?",
        "col1": "Vittorio Cecchi Gori",
        "col2": "N. Braschi",
        "col3": "6000"
    },
    {
        "col0": "Who Killed Johnny",
        "col1": "Yangzom Brauen",
        "col2": "M. Loong",
        "col3": "4800"
    },
    {
        "col0": "Who Killed Dr Bogle and Mrs Chandler?",
        "col1": "Peter Butt",
        "col2": "H. Weaving",
        "col3": "3300"
    },
    {
        "col0": "Who Is the Man?",
        "col1": "G. B. Samuelson",
        "col2": "J. Gielgud",
        "col3": "3600"
    },
    {
        "col0": "Who Is Without Sin",
        "col1": "Goffredo Lombardo",
        "col2": "F. Rosay",
        "col3": "5820"
    },
    {
        "col0": "Who Is Lydia Loveless?",
        "col1": "Gorman Bechard",
        "col2": "L. Loveless",
        "col3": "6600"
    },
    {
        "col0": "Who Is Killing the Great Chefs of Europe?",
        "col1": "William Aldrich",
        "col2": "J. Rochefort",
        "col3": "6720"
    },
    {
        "col0": "Who Is Hope Schuyler?",
        "col1": "Sol M. Wurtzel",
        "col2": "R. Cortez",
        "col3": "3540"
    },
    {
        "col0": "Who Is Harry Nilsson",
        "col1": "David Leaf",
        "col2": "J. Lennon",
        "col3": "6960"
    },
    {
        "col0": "Who Is Harry Kellerman and Why Is He Saying Those Terrible Things About Me?",
        "col1": "Herb Gardner",
        "col2": "B. Harris",
        "col3": "6480"
    },
    {
        "col0": "Who Is Chris Rock?",
        "col1": "Michael J. Dennis",
        "col2": "C. Rock",
        "col3": "540"
    },
    {
        "col0": "Who Goes There!",
        "col1": "Anthony Kimmins",
        "col2": "V. Hobson",
        "col3": "5100"
    },
    {
        "col0": "Who Framed Roger Rabbit",
        "col1": "Frank Marshall",
        "col2": "B. Hoskins",
        "col3": "6240"
    },
    {
        "col0": "Who Finds a Friend Finds a Treasure",
        "col1": "Josi W. Konski",
        "col2": "B. Spencer",
        "col3": "6120"
    },
    {
        "col0": "Who Done It?",
        "col1": "Michael Relph",
        "col2": "B. Hill",
        "col3": "5100"
    },
    {
        "col0": "Who Done It?",
        "col1": "Hugh McCollum",
        "col2": "L. Fine",
        "col3": "993"
    },
    {
        "col0": "Who Dares Wins",
        "col1": "Euan Lloyd",
        "col2": "J. Davis",
        "col3": "7500"
    },
    {
        "col0": "Who Cares",
        "col1": "Harry Cohn",
        "col2": "D. Devore",
        "col3": "3540"
    },
    {
        "col0": "Who Cares?",
        "col1": "Lewis J. Selznick",
        "col2": "C. Talmadge",
        "col3": "3000"
    },
    {
        "col0": "Who Are You, Polly Maggoo?",
        "col1": "Robert Delpire",
        "col2": "G. Hall",
        "col3": "6120"
    },
    {
        "col0": "Who Am I This Time?",
        "col1": "Neal Miller",
        "col2": "S. Sarandon",
        "col3": "3180"
    },
    {
        "col0": "Who's the Woman, Who's the Man?",
        "col1": "Peter Chan",
        "col2": "L. Cheung",
        "col3": "6420"
    },
    {
        "col0": "Who's Your Daddy?",
        "col1": "Verna Harrah",
        "col2": "M. Patterson",
        "col3": "6540"
    },
    {
        "col0": "Who's Your Caddy?",
        "col1": "Tracey Edmonds",
        "col2": "J. Piddock",
        "col3": "5580"
    },
    {
        "col0": "Who's That Knocking at My Door",
        "col1": "Haig P. Manoogian",
        "col2": "H. Keitel",
        "col3": "5400"
    },
    {
        "col0": "Who's That Girl",
        "col1": "Bernard Williams",
        "col2": "Madonna",
        "col3": "5640"
    },
    {
        "col0": "Who's Minding the Mint?",
        "col1": "Norman Maurer",
        "col2": "D. Provine",
        "col3": "5820"
    },
    {
        "col0": "Who's Harry Crumb?",
        "col1": "Arnon Milchan",
        "col2": "T. Thomerson",
        "col3": "5280"
    },
    {
        "col0": "Who's Been Sleeping in My Bed?",
        "col1": "Jack Rose",
        "col2": "R. Conte",
        "col3": "6180"
    },
    {
        "col0": "Who's Afraid of Virginia Woolf?",
        "col1": "Ernest Lehman",
        "col2": "E. Taylor",
        "col3": "7920"
    },
    {
        "col0": "Who'll Stop the Rain",
        "col1": "Herb Jaffe",
        "col2": "N. Nolte",
        "col3": "7560"
    },
    {
        "col0": "Whity",
        "col1": "Peer Raben",
        "col2": "H. Schygulla",
        "col3": "5700"
    },
    {
        "col0": "Whitewash",
        "col1": "Luc Dery",
        "col2": "T. H. Church",
        "col3": "5400"
    },
    {
        "col0": "Whitewash",
        "col1": "Michael Sporn",
        "col2": "L. Lavin",
        "col3": "1500"
    },
    {
        "col0": "Whites",
        "col1": "Charlie Hanson",
        "col2": "A. Davies",
        "col3": "1800"
    },
    {
        "col0": "Whiteout",
        "col1": "Joel Silver",
        "col2": "T. Skerritt",
        "col3": "6060"
    },
    {
        "col0": "Whiteforce",
        "col1": "Antony I. Ginnane",
        "col2": "S. J. Jones",
        "col3": "5160"
    },
    {
        "col0": "White of the Eye",
        "col1": "Cassian Elwes",
        "col2": "C. Moriarty",
        "col3": "6660"
    },
    {
        "col0": "White and Unmarried",
        "col1": "Jesse L. Lasky",
        "col2": "T. Meighan",
        "col3": "3000"
    },
    {
        "col0": "White Woman",
        "col1": "E. Lloyd Sheldon",
        "col2": "C. Lombard",
        "col3": "4080"
    }
]