[
    {
        "col0": "KINC",
        "col1": "570",
        "col2": "15 (UHF, 1996-2009)",
        "col3": "KZIR (1993-1995)"
    },
    {
        "col0": "KIMT",
        "col1": "463",
        "col2": "3 (VHFanalog, 1954-2009)",
        "col3": "KGLO-TV (1954-1977)"
    },
    {
        "col0": "KILM",
        "col1": "596",
        "col2": "64 (UHF, 1987-2009)",
        "col3": "KHIZ (1992-2011)"
    },
    {
        "col0": "KIKU",
        "col1": "606",
        "col2": "20 (UHF, 1983-2009)",
        "col3": "KHAI-TV (1983-1993)"
    },
    {
        "col0": "KIFI-TV",
        "col1": "464",
        "col2": "8 (VHF, 1961-2009)",
        "col3": "KIFI (1961-1980)"
    },
    {
        "col0": "KIDK",
        "col1": "489",
        "col2": "3 (VHF, 1953-2009)",
        "col3": "KID-TV (1953-1984)"
    },
    {
        "col0": "KHVM-LD",
        "col1": "140",
        "col2": "28",
        "col3": "K28IO"
    },
    {
        "col0": "KHSV",
        "col1": "386",
        "col2": "21 (UHF, 1984-2009)",
        "col3": "KRLR (1984-1995)"
    },
    {
        "col0": "KHON-TV",
        "col1": "-12",
        "col2": "11 (VHF, 1952-1955)",
        "col3": "KONA-TV (1952-1965)"
    },
    {
        "col0": "KHNL",
        "col1": "629",
        "col2": "13 (VHF, 1962-2008)",
        "col3": "KIKU (1967-1984)"
    },
    {
        "col0": "KHMT",
        "col1": "247",
        "col2": "4 (VHF, 1980-2009)",
        "col3": "KOUS-TV (1980-1995)"
    },
    {
        "col0": "KHME",
        "col1": "174",
        "col2": "Analog:",
        "col3": "KHME: KOTA-TV (1955-2016)"
    },
    {
        "col0": "KHIZ-LD",
        "col1": "465",
        "col2": "33 (1987-2003)",
        "col3": "K02RB-D (2012-2014)"
    },
    {
        "col0": "KHGI-TV",
        "col1": "221",
        "col2": "13 (VHF, 1953-2009)",
        "col3": "K13VO (1989-2005)"
    },
    {
        "col0": "KHCE-TV",
        "col1": "307",
        "col2": "23 (UHF, 1989-2009)",
        "col3": "KHCE (1989-2005)"
    },
    {
        "col0": "KHBS",
        "col1": "266",
        "col2": "29 (UHF, 1977-2009)",
        "col3": "KHBS: KFPW-TV (1971-1983)"
    },
    {
        "col0": "KGWN-TV",
        "col1": "162",
        "col2": "KGWN: 5 (VHFanalog, 1954-2009)",
        "col3": "KGWN: KFBC-TV (1954-1972)"
    },
    {
        "col0": "KGWC-TV",
        "col1": "562",
        "col2": "14 (UHFanalog, 1980-2009)",
        "col3": "KCWY-TV (1980-1986)"
    },
    {
        "col0": "KGW",
        "col1": "524",
        "col2": "46 (UHF, 2000-2009)",
        "col3": "KGW-TV (1956-1994)"
    },
    {
        "col0": "KGUN-TV",
        "col1": "1140",
        "col2": "35 (UHF, 2005-2009)",
        "col3": "KDWI-TV (1956-1957)"
    },
    {
        "col0": "KGPT-CD",
        "col1": "249",
        "col2": "49 (UHF, 2004-2013)",
        "col3": "K53EO (1998)"
    },
    {
        "col0": "KGPE",
        "col1": "577",
        "col2": "47 (UHF, 1953-2009)",
        "col3": "KJEO (1953-2000)"
    },
    {
        "col0": "KGNS-TV",
        "col1": "312",
        "col2": "15 (UHF, 2004-2009)",
        "col3": "KHAD-TV (1956-1958)"
    },
    {
        "col0": "KGNG-LD",
        "col1": "541",
        "col2": "25 (1992-1996)",
        "col3": "K25DB (1992-2007)"
    },
    {
        "col0": "KGMC",
        "col1": "542",
        "col2": "43 (UHF, 1992-2009)",
        "col3": "KSDI (1992)"
    },
    {
        "col0": "KGMB",
        "col1": "629",
        "col2": "8 (VHF, 2002-2009)",
        "col3": "KGMB-TV (1952-1982)"
    },
    {
        "col0": "KGET-TV",
        "col1": "405",
        "col2": "17 (UHF, 1959-2009)",
        "col3": "KJTV (1969-1978)"
    },
    {
        "col0": "KGEB",
        "col1": "182",
        "col2": "53 (UHF, 1996-2009)",
        "col3": "KWMJ (1996-1999)"
    },
    {
        "col0": "KGCW",
        "col1": "409",
        "col2": "26 (UHF, 1988-2009)",
        "col3": "KGCW-TV (2006-2009)"
    },
    {
        "col0": "KGCS-LD",
        "col1": "216",
        "col2": "57 (UHFanalog, 1986-2009)",
        "col3": "K57DR (1986-1995)"
    },
    {
        "col0": "KGBY",
        "col1": "892",
        "col2": "8 (PSIPvirtual, 2005-2014)",
        "col3": "KJCT (1979-2014)"
    },
    {
        "col0": "KGAN",
        "col1": "585",
        "col2": "2 (VHFanalog, 1953-2009)",
        "col3": "KGAN-TV (1981-1984)"
    },
    {
        "col0": "KFXV-LD",
        "col1": "216",
        "col2": "67 (UHFanalog, 1997-2011)",
        "col3": "891208RN (1997)"
    },
    {
        "col0": "KFXL-TV",
        "col1": "125",
        "col2": "51 (UHF, 2006-2009)",
        "col3": "KCWL-TV (2006-2009)"
    },
    {
        "col0": "KFXK-TV",
        "col1": "361",
        "col2": "51 (UHF, 1984-2009)",
        "col3": "KLMG-TV (1984-1991)"
    },
    {
        "col0": "KFXF",
        "col1": "268",
        "col2": "22 (UHF, until 2009)",
        "col3": "K07UU (April 20, 1992-February 26, 1995)"
    },
    {
        "col0": "KFXA",
        "col1": "449",
        "col2": "28 (UHFanalog, 1988-2009)",
        "col3": "KOCR-TV (1988-1995)"
    },
    {
        "col0": "KFVT-LP",
        "col1": "181",
        "col2": "Analog: 61 (UHF, 1994-2003)",
        "col3": "K61GC (1994-2003)"
    },
    {
        "col0": "KFTU-DT",
        "col1": "685",
        "col2": "3 (VHF, (2001-2009)",
        "col3": "KBGF (2001-2002)"
    },
    {
        "col0": "KFTA-TV",
        "col1": "267",
        "col2": "24 (UHF, 1978-2009)",
        "col3": "KLMN-TV (1978-1982)"
    },
    {
        "col0": "KFSN-TV",
        "col1": "625",
        "col2": "12 (VHF, 1956-1961)",
        "col3": "KFRE-TV (1956-1971)"
    },
    {
        "col0": "KFSM-TV",
        "col1": "286",
        "col2": "22 (UHF, 1953-1958)",
        "col3": "KFSA-TV (1953-1958, 1959-1973)"
    },
    {
        "col0": "KFSF-DT",
        "col1": "419",
        "col2": "66 (UHF, 1986-2009)",
        "col3": "KFSF (2002-2003)"
    },
    {
        "col0": "KFRE-TV",
        "col1": "607",
        "col2": "59 (UHF, 1985-2009)",
        "col3": "KMSG-TV (1985-2001)"
    },
    {
        "col0": "KFPB-LD",
        "col1": "262",
        "col2": "30 (UHF)",
        "col3": "K30ES (1995-2009)"
    },
    {
        "col0": "KFOX-TV",
        "col1": "602",
        "col2": "14 (UHF, 1979-2009)",
        "col3": "KCIK (1979-1982)"
    },
    {
        "col0": "KFLA-LD",
        "col1": "933",
        "col2": "65, 8, 52 (to Dec. 31, 2011)",
        "col3": "K08NZ-D (2006-2007)"
    },
    {
        "col0": "KFFX-TV",
        "col1": "472",
        "col2": "11 (VHFanalog, 1999-2009)",
        "col3": "KAUP (January-April 1999)"
    },
    {
        "col0": "KFFV",
        "col1": "714",
        "col2": "45 (UHF, 1999-2009)",
        "col3": "KHCV (1999-2009)"
    },
    {
        "col0": "KEZI",
        "col1": "533",
        "col2": "44 (UHF, 2000-2009)",
        "col3": "KEZI-TV (1960-1986)"
    },
    {
        "col0": "KEYT-TV",
        "col1": "918",
        "col2": "3 (VHF, 1953-2009)",
        "col3": "KEYT (1953-1987)"
    },
    {
        "col0": "KEYE-TV",
        "col1": "395",
        "col2": "42 (UHF, 1983-2009)",
        "col3": "KBVO-TV (1983-1995)"
    },
    {
        "col0": "KEYC-TV",
        "col1": "317",
        "col2": "12 (VHFanalog, 1960-2009)",
        "col3": "KEYC (1960-1979)"
    },
    {
        "col0": "KEXT-CD",
        "col1": "590",
        "col2": "22",
        "col3": "K27EX (9/21/1994 to 9/17/2001)"
    },
    {
        "col0": "KESQ-TV",
        "col1": "227",
        "col2": "42 (UHFanalog, 1968-2009)",
        "col3": "KPLM-TV (1968-1980)"
    },
    {
        "col0": "KENV-DT",
        "col1": "562",
        "col2": "10 (VHF, 1997-2009)",
        "col3": "KANL (CP, 1995-1996)"
    },
    {
        "col0": "KEMO-TV",
        "col1": "928",
        "col2": "50 (UHF, 1981-2009)",
        "col3": "KFTY (1981-2011)"
    },
    {
        "col0": "KEHO-LD",
        "col1": "310",
        "col2": "13 (VHF) (2007-2010)",
        "col3": "K13ZD (2007-2008)"
    },
    {
        "col0": "KECY-TV",
        "col1": "478",
        "col2": "48 (UHF, until 2009)",
        "col3": "KECC-TV (1968-1981)"
    },
    {
        "col0": "KDYW",
        "col1": "319",
        "col2": "34 (UHF, 1989-2009)",
        "col3": "KCTF (1989-2000)"
    },
    {
        "col0": "KDTF-LD",
        "col1": "570",
        "col2": "31 (UHF, 1997-2003)",
        "col3": "K31FC (1997-2003)"
    },
    {
        "col0": "KDSM-TV",
        "col1": "612",
        "col2": "17 (UHF, 1983-2009)",
        "col3": "KCBR (1982-1986)"
    },
    {
        "col0": "KDOR-TV",
        "col1": "316",
        "col2": "15 (UHF, until 2009)",
        "col3": "KDOR (1987-2003)"
    },
    {
        "col0": "KDMD-DT3",
        "col1": "300",
        "col2": "38 (UHF, 2008-2010)",
        "col3": "KACN-LP (2008-2010)"
    },
    {
        "col0": "KDLT-TV",
        "col1": "315",
        "col2": "46 (UHF, 1998-2009)",
        "col3": "KDLT:KORN-TV (1960-1972)"
    },
    {
        "col0": "KDLH",
        "col1": "311",
        "col2": "3 (VHF, 1954-2009)",
        "col3": "KDAL-TV (1954-1979)"
    },
    {
        "col0": "KDKJ-LD",
        "col1": "139",
        "col2": "Doctor Television Channel(DT3, 2015)",
        "col3": "K27KJ-D (2010-2013)"
    },
    {
        "col0": "KDKA-TV",
        "col1": "311",
        "col2": "2 (VHF, 1952-2009)",
        "col3": "WDTV (1949-1955)"
    },
    {
        "col0": "KDJT-CD",
        "col1": "741",
        "col2": "33 (UHF, 1993-2015)",
        "col3": "K33DJ (1989-2001)"
    },
    {
        "col0": "KDFX-CD",
        "col1": "171",
        "col2": "33 (UHF analog, 1997-2015)",
        "col3": "K40DB (1990-1997)"
    },
    {
        "col0": "KDBC-TV",
        "col1": "577",
        "col2": "4 (VHF, 1952-2009)",
        "col3": "KROD-TV (1952-1973)"
    },
    {
        "col0": "KDAO-CD",
        "col1": "32",
        "col2": "39 (UHF, 1987-2000)",
        "col3": "K39AS (1985-1995)"
    },
    {
        "col0": "KCWI-TV",
        "col1": "610",
        "col2": "23 (UHF, 2001-2009)",
        "col3": "KPWB-TV (2001-2006)"
    },
    {
        "col0": "KCVU",
        "col1": "449",
        "col2": "29 (UHF, 1994-2008)",
        "col3": "KBCP (1990-1992)"
    },
    {
        "col0": "KCSG",
        "col1": "385",
        "col2": "4 (VHF, 1990-2009)",
        "col3": "KCCZ (1990-1993)"
    },
    {
        "col0": "KCRP-CD",
        "col1": "102",
        "col2": "22 (UHF, 1991-2001)",
        "col3": "K22BH (1986-2000)"
    },
    {
        "col0": "KCRG-TV",
        "col1": "607",
        "col2": "52 (UHFdigital, 2003-2009)",
        "col3": "Analog:"
    },
    {
        "col0": "KCPQ",
        "col1": "610",
        "col2": "13 (VHF, 1953-2009)",
        "col3": "KMO-TV (1953-1954)"
    },
    {
        "col0": "KCNS",
        "col1": "428",
        "col2": "38 (UHF, 1968-2009)",
        "col3": "KUDO (1968-1971)"
    },
    {
        "col0": "KCIT",
        "col1": "464",
        "col2": "14 (UHFanalog, 1982-2009)",
        "col3": "KJTV (1982-1985)"
    },
    {
        "col0": "KCFT-CD",
        "col1": "0",
        "col2": "20 (UHF)",
        "col3": "K20AG (1983-1994)"
    },
    {
        "col0": "KCDO-TV",
        "col1": "204",
        "col2": "3 (VHF, 1963-2009)",
        "col3": "KTVS (1963-2002)"
    },
    {
        "col0": "KCCI",
        "col1": "597",
        "col2": "31 (UHF, 2002-2009)",
        "col3": "KRNT-TV (1955-1974)"
    },
    {
        "col0": "KCBU",
        "col1": "658",
        "col2": "3 (VHF, 2003-2008)",
        "col3": "KUTF (2003-2005)"
    },
    {
        "col0": "KCBD",
        "col1": "232",
        "col2": "11 (VHF, 1953-2009)",
        "col3": "KCBD-TV (x-2003)"
    },
    {
        "col0": "KCAU-TV",
        "col1": "616",
        "col2": "9 (VHF, 1953-2009)",
        "col3": "KVTV (1953-1967)"
    },
    {
        "col0": "KCAL-TV",
        "col1": "977",
        "col2": "43 (UHF, 2001-2009)",
        "col3": "KFI-TV (1948-1951)"
    },
    {
        "col0": "KBVO",
        "col1": "249",
        "col2": "14 (UHF, 1991-2009)",
        "col3": "KLNO (September-October 1991)"
    },
    {
        "col0": "KBVO-CD",
        "col1": "412",
        "col2": "Analog: 49 (UHF, 1989-2009)",
        "col3": "K49CY, KBVO-LP, KBVO-CA"
    },
    {
        "col0": "KBTV-TV",
        "col1": "360",
        "col2": "4 (VHF, 1957-2009)",
        "col3": "KJAC-TV (1965-1999)"
    },
    {
        "col0": "KBTC-TV",
        "col1": "235",
        "col2": "15 (UHF, 1982-2009)",
        "col3": "KBTC:"
    },
    {
        "col0": "KBSL-DT",
        "col1": "299",
        "col2": "10 (VHF, 1959-2009)",
        "col3": "KBSL-TV (1989-2009)"
    },
    {
        "col0": "KBSH-DT",
        "col1": "216",
        "col2": "20 (UHF, until 2009)",
        "col3": "KAYS-TV (1958-1989)"
    },
    {
        "col0": "KBSD-DT",
        "col1": "216",
        "col2": "6 (VHF, 1957-2009)",
        "col3": "KBSD-TV (1989-2009)"
    },
    {
        "col0": "KBOI-TV",
        "col1": "858",
        "col2": "2 (VHF, 1953-2009)",
        "col3": "KBCI-TV (1975-2010)"
    },
    {
        "col0": "KBNT-CD",
        "col1": "78",
        "col2": "17 (UHF)",
        "col3": "KBNT-CA (2002-2010)"
    },
    {
        "col0": "KBJR-TV",
        "col1": "200",
        "col2": "6 (VHF, 1954-2009)",
        "col3": "WDSM-TV (1954-1974)"
    },
    {
        "col0": "KBGU-LP",
        "col1": "156",
        "col2": "33 (UHF, 2003-2010)",
        "col3": "K18BT (1987-2003)"
    },
    {
        "col0": "KBCW",
        "col1": "446",
        "col2": "44 (UHF, 1968-2009)",
        "col3": "KBHK-TV (1968-2006)"
    },
    {
        "col0": "KBCB",
        "col1": "757",
        "col2": "24 (UHF, 1989-2009)",
        "col3": "KEGA (February-October 1989)"
    },
    {
        "col0": "KBBV-CD",
        "col1": "924",
        "col2": "65 (UHF)",
        "col3": "K65EY (1992-2002)"
    },
    {
        "col0": "KBAK-TV",
        "col1": "1128",
        "col2": "29 (UHF, 1953-2009)",
        "col3": "KAFY-TV (1953-1954)"
    },
    {
        "col0": "KAZD",
        "col1": "509",
        "col2": "54 (UHF, 2006-2009)",
        "col3": "KAVB (1997)"
    },
    {
        "col0": "KAXW-LP",
        "col1": "83",
        "col2": "Analog: 61 (UHF, 1984-2009)",
        "col3": "K61CV (1984-2006)"
    },
    {
        "col0": "KAXT-CD",
        "col1": "792",
        "col2": "22",
        "col3": "K22DD (May 31, 1989-September 17, 2001)"
    },
    {
        "col0": "KAUZ-TV",
        "col1": "311",
        "col2": "6 (VHF, 1953-2009)",
        "col3": "KSYD-TV (1956-1963)"
    },
    {
        "col0": "KATN",
        "col1": "230",
        "col2": "2 (VHF, 1955-2009)",
        "col3": "KFAR-TV (1955-1981)"
    },
    {
        "col0": "KASA-TV",
        "col1": "1278",
        "col2": "2 (VHF, 1983-2009)",
        "col3": "KKTO (1989-1993)"
    },
    {
        "col0": "KARD",
        "col1": "520",
        "col2": "14 (UHF, 1974-2009)",
        "col3": "KLAA (1974-1982)"
    },
    {
        "col0": "KAMR-TV",
        "col1": "455",
        "col2": "4 (VHFanalog, 1953-2009)",
        "col3": "KGNC-TV (1953-1974)"
    },
    {
        "col0": "KAMC",
        "col1": "219",
        "col2": "28 (UHF, 1968-2009)",
        "col3": "KMCC (1975-1979)"
    },
    {
        "col0": "KALO",
        "col1": "577",
        "col2": "38 (UHF, 1999-2009)",
        "col3": "KAIE (1999-2000)"
    },
    {
        "col0": "KAKW-DT",
        "col1": "484",
        "col2": "62 (UHF, 1996-2009)",
        "col3": "KAKW (1996-2003)"
    },
    {
        "col0": "KAKE",
        "col1": "309",
        "col2": "10 (VHF, 1954-2009)",
        "col3": "KAKE-TV (1954-2010)"
    },
    {
        "col0": "KAHC-LD",
        "col1": "317",
        "col2": "45 (UHF, 2004-2015)",
        "col3": "K45HC (2004-2016)"
    },
    {
        "col0": "KADO-CD",
        "col1": "106",
        "col2": "15 (1997-2001)",
        "col3": "K15EG (1994-1998)"
    },
    {
        "col0": "KAAL",
        "col1": "326",
        "col2": "33 (UHFdigital, 2001-2009)",
        "col3": "KAAL-TV (1975-1998)"
    },
    {
        "col0": "KAAH-TV",
        "col1": "580",
        "col2": "26 (UHF, 1982-2009)",
        "col3": "KAAH (1996-2003)"
    }
]