[
    {
        "col0": "O. Gonzalez",
        "col1": "Montevideo",
        "col2": "0",
        "col3": "2006-11-5",
        "col4": "1"
    },
    {
        "col0": "E. Bayol",
        "col1": "La Ciotat",
        "col2": "0",
        "col3": "1995-5-25",
        "col4": "8"
    },
    {
        "col0": "Y. Giraud-Cabantous",
        "col1": "Paris",
        "col2": "0",
        "col3": "1973-3-30",
        "col4": "13"
    },
    {
        "col0": "X. Perrot",
        "col1": "Zurich",
        "col2": "0",
        "col3": "2008-12-8",
        "col4": "1"
    },
    {
        "col0": "W. v. Trips",
        "col1": "Autodromo Nazionale Monza",
        "col2": "6",
        "col3": "1961-9-10",
        "col4": "29"
    },
    {
        "col0": "W. Seidel",
        "col1": "Munich",
        "col2": "0",
        "col3": "1987-3-1",
        "col4": "12"
    },
    {
        "col0": "W. Mairesse",
        "col1": "Ostend",
        "col2": "1",
        "col3": "1969-9-9",
        "col4": "13"
    },
    {
        "col0": "W. Ferguson",
        "col1": "Durban",
        "col2": "0",
        "col3": "2007-5-19",
        "col4": "1"
    },
    {
        "col0": "W. Krakau",
        "col1": "Peine",
        "col2": "0",
        "col3": "1995-4-26",
        "col4": "1"
    },
    {
        "col0": "W. Heeks",
        "col1": "Bocholt, Germany",
        "col2": "0",
        "col3": "1996-8-13",
        "col4": "2"
    },
    {
        "col0": "W. Weiler",
        "col1": "Phoenix, Arizona",
        "col2": "0",
        "col3": "2005-10-13",
        "col4": "1"
    },
    {
        "col0": "W. Hansgen",
        "col1": "Orleans",
        "col2": "0",
        "col3": "1966-4-7",
        "col4": "2"
    },
    {
        "col0": "W. Faulkner",
        "col1": "Vallejo, California",
        "col2": "0",
        "col3": "1956-4-22",
        "col4": "6"
    },
    {
        "col0": "W. Brown",
        "col1": "Williams Grove Speedway",
        "col2": "0",
        "col3": "1951-7-29",
        "col4": "2"
    },
    {
        "col0": "W. Ader",
        "col1": "Califon, New Jersey",
        "col2": "0",
        "col3": "1982-11-25",
        "col4": "1"
    },
    {
        "col0": "V. Brambilla",
        "col1": "Lesmo",
        "col2": "1",
        "col3": "2001-5-26",
        "col4": "79"
    },
    {
        "col0": "U. Maglioli",
        "col1": "Monza",
        "col2": "2",
        "col3": "1999-2-7",
        "col4": "10"
    },
    {
        "col0": "T. Taylor",
        "col1": "Wickersley",
        "col2": "1",
        "col3": "2010-9-27",
        "col4": "29"
    },
    {
        "col0": "T. Webb",
        "col1": "McMinnville, Oregon",
        "col2": "0",
        "col3": "1990-1-27",
        "col4": "5"
    },
    {
        "col0": "T. d. Graffenried",
        "col1": "Lonay",
        "col2": "0",
        "col3": "2007-1-22",
        "col4": "23"
    },
    {
        "col0": "T. Shelly",
        "col1": "New Zealand",
        "col2": "0",
        "col3": "1998-10-4",
        "col4": "3"
    },
    {
        "col0": "T. Settember",
        "col1": "Reno, Nevada",
        "col2": "0",
        "col3": "2014-5-4",
        "col4": "7"
    },
    {
        "col0": "T. Marsh",
        "col1": "Petersfield",
        "col2": "0",
        "col3": "2009-5-7",
        "col4": "5"
    },
    {
        "col0": "T. Maggs",
        "col1": "Caledon, Western Cape",
        "col2": "3",
        "col3": "2009-6-2",
        "col4": "27"
    },
    {
        "col0": "T. Brise",
        "col1": "Arkley",
        "col2": "0",
        "col3": "1975-11-29",
        "col4": "10"
    },
    {
        "col0": "T. Bettenhausen",
        "col1": "Indianapolis",
        "col2": "1",
        "col3": "1961-5-12",
        "col4": "11"
    },
    {
        "col0": "T. Branca",
        "col1": "Sierre",
        "col2": "0",
        "col3": "1985-5-10",
        "col4": "3"
    },
    {
        "col0": "T. Pryce",
        "col1": "Kyalami",
        "col2": "2",
        "col3": "1977-3-5",
        "col4": "42"
    },
    {
        "col0": "T. Jones",
        "col1": "Eastlake, Ohio",
        "col2": "0",
        "col3": "2015-5-29",
        "col4": "1"
    },
    {
        "col0": "T. Bridger",
        "col1": "Logie Coldstone",
        "col2": "0",
        "col3": "1991-7-30",
        "col4": "1"
    },
    {
        "col0": "T. Mayer",
        "col1": "Longford, Tasmania",
        "col2": "0",
        "col3": "1964-2-28",
        "col4": "1"
    },
    {
        "col0": "T. Helfrich",
        "col1": "Ludwigshafen",
        "col2": "0",
        "col3": "1978-4-29",
        "col4": "3"
    },
    {
        "col0": "T. Fitzau",
        "col1": "Gross-Gerau",
        "col2": "0",
        "col3": "1982-3-18",
        "col4": "1"
    },
    {
        "col0": "S. Lewis-Evans",
        "col1": "East Grinstead",
        "col2": "2",
        "col3": "1958-10-25",
        "col4": "14"
    },
    {
        "col0": "S. Bellof",
        "col1": "Circuit de Spa-Francorchamps",
        "col2": "0",
        "col3": "1985-9-1",
        "col4": "22"
    },
    {
        "col0": "S. Moser",
        "col1": "Locarno",
        "col2": "0",
        "col3": "1974-5-26",
        "col4": "20"
    },
    {
        "col0": "S. Templeman",
        "col1": "Marion, Ohio",
        "col2": "0",
        "col3": "1962-8-24",
        "col4": "5"
    },
    {
        "col0": "S. Mantovani",
        "col1": "Milan",
        "col2": "0",
        "col3": "2001-2-23",
        "col4": "8"
    },
    {
        "col0": "S. Tingle",
        "col1": "Somerset West",
        "col2": "0",
        "col3": "2008-12-19",
        "col4": "5"
    },
    {
        "col0": "S. Hanks",
        "col1": "Pacific Palisades, Los Angeles",
        "col2": "4",
        "col3": "1994-6-27",
        "col4": "8"
    },
    {
        "col0": "R. Schoeller",
        "col1": "Grabs",
        "col2": "0",
        "col3": "1978-3-7",
        "col4": "1"
    },
    {
        "col0": "R. Krause",
        "col1": "Reichenbach",
        "col2": "0",
        "col3": "1987-4-11",
        "col4": "2"
    },
    {
        "col0": "R. Fischer",
        "col1": "Lucerne",
        "col2": "2",
        "col3": "1976-12-30",
        "col4": "8"
    },
    {
        "col0": "R. Peterson",
        "col1": "Milan",
        "col2": "26",
        "col3": "1978-9-11",
        "col4": "123"
    },
    {
        "col0": "R. Bucknum",
        "col1": "San Luis Obispo, California",
        "col2": "0",
        "col3": "1992-4-23",
        "col4": "11"
    },
    {
        "col0": "R. Flockhart",
        "col1": "Dandenong Ranges",
        "col2": "1",
        "col3": "1962-4-12",
        "col4": "14"
    },
    {
        "col0": "R. Stommelen",
        "col1": "Riverside, California",
        "col2": "1",
        "col3": "1983-4-24",
        "col4": "63"
    },
    {
        "col0": "R. Ratzenberger",
        "col1": "Bologna",
        "col2": "0",
        "col3": "1994-4-30",
        "col4": "3"
    },
    {
        "col0": "R. Williamson",
        "col1": "Zandvoort",
        "col2": "0",
        "col3": "1973-7-29",
        "col4": "2"
    },
    {
        "col0": "R. Laurent",
        "col1": "Uccle",
        "col2": "0",
        "col3": "1997-2-6",
        "col4": "2"
    },
    {
        "col0": "R. Nuckey",
        "col1": "Manila",
        "col2": "0",
        "col3": "2000-6-29",
        "col4": "2"
    },
    {
        "col0": "R. Ward",
        "col1": "Anaheim, California",
        "col2": "2",
        "col3": "2004-7-5",
        "col4": "12"
    },
    {
        "col0": "R. Montgomerie-Charrington",
        "col1": "London",
        "col2": "0",
        "col3": "2007-4-3",
        "col4": "1"
    },
    {
        "col0": "R. Mieres",
        "col1": "Punta del Este",
        "col2": "0",
        "col3": "2012-1-26",
        "col4": "17"
    },
    {
        "col0": "R. Lippi",
        "col1": "Anzio",
        "col2": "0",
        "col3": "2011-10-31",
        "col4": "3"
    },
    {
        "col0": "R. Bussinello",
        "col1": "Vicenza",
        "col2": "0",
        "col3": "1999-8-24",
        "col4": "3"
    },
    {
        "col0": "R. Bonomi",
        "col1": "Buenos Aires",
        "col2": "0",
        "col3": "1992-1-10",
        "col4": "1"
    },
    {
        "col0": "R. O'Brien",
        "col1": "Hackensack, New Jersey",
        "col2": "0",
        "col3": "1987-2-10",
        "col4": "1"
    },
    {
        "col0": "R. Manzon",
        "col1": "Cassis",
        "col2": "2",
        "col3": "2015-1-19",
        "col4": "29"
    },
    {
        "col0": "R. L. Caze",
        "col1": "Le Cannet",
        "col2": "0",
        "col3": "2015-7-1",
        "col4": "1"
    },
    {
        "col0": "R. Slotemaker",
        "col1": "Zandvoort",
        "col2": "0",
        "col3": "1979-9-16",
        "col4": "1"
    },
    {
        "col0": "R. Schroeder",
        "col1": "Dallas",
        "col2": "0",
        "col3": "2011-12-3",
        "col4": "1"
    },
    {
        "col0": "R. Ginther",
        "col1": "Bordeaux",
        "col2": "14",
        "col3": "1989-9-20",
        "col4": "54"
    },
    {
        "col0": "R. Paletti",
        "col1": "Montreal",
        "col2": "0",
        "col3": "1982-6-13",
        "col4": "8"
    },
    {
        "col0": "R. Rodriguez",
        "col1": "Mexico City",
        "col2": "0",
        "col3": "1962-11-1",
        "col4": "6"
    },
    {
        "col0": "R. Londono",
        "col1": "San Bernardo del Viento",
        "col2": "0",
        "col3": "2009-7-18",
        "col4": "1"
    },
    {
        "col0": "R. Zorzi",
        "col1": "Magenta, Lombardy",
        "col2": "0",
        "col3": "2015-5-15",
        "col4": "7"
    },
    {
        "col0": "R. Pirocchi",
        "col1": "Chieti",
        "col2": "0",
        "col3": "2002-7-29",
        "col4": "1"
    },
    {
        "col0": "R. Parnell",
        "col1": "Derby",
        "col2": "1",
        "col3": "1964-1-7",
        "col4": "7"
    },
    {
        "col0": "R. Amick",
        "col1": "Crystal River, Florida",
        "col2": "0",
        "col3": "1995-5-16",
        "col4": "2"
    },
    {
        "col0": "R. Sommer",
        "col1": "Cadours",
        "col2": "0",
        "col3": "1950-9-10",
        "col4": "5"
    },
    {
        "col0": "R. Reed",
        "col1": "South Africa",
        "col2": "0",
        "col3": "1965-1-1",
        "col4": "1"
    },
    {
        "col0": "R. Crawford",
        "col1": "Los Angeles",
        "col2": "0",
        "col3": "1996-2-1",
        "col4": "5"
    },
    {
        "col0": "P. Courage",
        "col1": "Zandvoort",
        "col2": "2",
        "col3": "1970-6-21",
        "col4": "29"
    },
    {
        "col0": "P. Levegh",
        "col1": "Le Mans",
        "col2": "0",
        "col3": "1955-6-11",
        "col4": "6"
    },
    {
        "col0": "P. Taruffi",
        "col1": "Rome",
        "col2": "5",
        "col3": "1988-1-12",
        "col4": "19"
    },
    {
        "col0": "P. Scotti",
        "col1": "Samedan",
        "col2": "0",
        "col3": "1976-2-14",
        "col4": "1"
    },
    {
        "col0": "P. Dusio",
        "col1": "Buenos Aires",
        "col2": "0",
        "col3": "1975-11-7",
        "col4": "1"
    },
    {
        "col0": "P. Drogo",
        "col1": "Bologna",
        "col2": "0",
        "col3": "1973-4-28",
        "col4": "1"
    },
    {
        "col0": "P. Carini",
        "col1": "Saint-Etienne",
        "col2": "0",
        "col3": "1957-5-30",
        "col4": "3"
    },
    {
        "col0": "P. Etancelin",
        "col1": "Neuilly-sur-Seine",
        "col2": "0",
        "col3": "1981-10-13",
        "col4": "12"
    },
    {
        "col0": "P. Hill",
        "col1": "Salinas, California",
        "col2": "16",
        "col3": "2008-8-28",
        "col4": "51"
    },
    {
        "col0": "P. Cade",
        "col1": "Winchester, Massachusetts",
        "col2": "0",
        "col3": "2001-8-28",
        "col4": "1"
    },
    {
        "col0": "P. d. Klerk",
        "col1": "Johannesburg",
        "col2": "0",
        "col3": "2015-7-11",
        "col4": "4"
    },
    {
        "col0": "P. Westbury",
        "col1": "Scarborough, Tobago",
        "col2": "0",
        "col3": "2015-12-11",
        "col4": "2"
    },
    {
        "col0": "P. Ryan",
        "col1": "Paris",
        "col2": "0",
        "col3": "1962-7-2",
        "col4": "1"
    },
    {
        "col0": "P. Revson",
        "col1": "Kyalami",
        "col2": "8",
        "col3": "1974-3-22",
        "col4": "32"
    },
    {
        "col0": "P. Monteverdi",
        "col1": "Binningen, Switzerland",
        "col2": "0",
        "col3": "1998-7-4",
        "col4": "1"
    },
    {
        "col0": "P. Hirt",
        "col1": "Zurich",
        "col2": "0",
        "col3": "1992-6-28",
        "col4": "5"
    },
    {
        "col0": "P. Gethin",
        "col1": "Goodwood Circuit",
        "col2": "1",
        "col3": "2011-12-5",
        "col4": "31"
    },
    {
        "col0": "P. Collins",
        "col1": "Bonn",
        "col2": "9",
        "col3": "1958-8-3",
        "col4": "35"
    },
    {
        "col0": "P. Arundell",
        "col1": "King's Lynn",
        "col2": "2",
        "col3": "2009-6-16",
        "col4": "13"
    },
    {
        "col0": "P. Lovely",
        "col1": "Tacoma, Washington",
        "col2": "0",
        "col3": "2011-5-15",
        "col4": "11"
    },
    {
        "col0": "P. Rodriguez",
        "col1": "Norisring",
        "col2": "7",
        "col3": "1971-7-11",
        "col4": "54"
    },
    {
        "col0": "P. Russo",
        "col1": "Clearwater, Florida",
        "col2": "1",
        "col3": "1976-2-13",
        "col4": "10"
    },
    {
        "col0": "P. Pietsch",
        "col1": "Titisee-Neustadt",
        "col2": "0",
        "col3": "2012-5-31",
        "col4": "3"
    },
    {
        "col0": "P. Hawkins",
        "col1": "Oulton Park",
        "col2": "0",
        "col3": "1969-5-26",
        "col4": "3"
    },
    {
        "col0": "P. Frere",
        "col1": "Saint-Paul-de-Vence",
        "col2": "1",
        "col3": "2008-2-23",
        "col4": "11"
    },
    {
        "col0": "P. England",
        "col1": "Melbourne",
        "col2": "0",
        "col3": "2014-6-17",
        "col4": "1"
    },
    {
        "col0": "P. Emery",
        "col1": "Epsom",
        "col2": "0",
        "col3": "1993-2-3",
        "col4": "2"
    },
    {
        "col0": "P. Depailler",
        "col1": "Hockenheim",
        "col2": "19",
        "col3": "1980-8-1",
        "col4": "95"
    },
    {
        "col0": "P. O'Connor",
        "col1": "Indianapolis",
        "col2": "0",
        "col3": "1958-5-30",
        "col4": "6"
    },
    {
        "col0": "P. Flaherty",
        "col1": "Oxnard, California",
        "col2": "1",
        "col3": "2002-4-9",
        "col4": "6"
    },
    {
        "col0": "P. Godia",
        "col1": "Barcelona",
        "col2": "0",
        "col3": "1990-11-28",
        "col4": "14"
    },
    {
        "col0": "P. Birger",
        "col1": "Buenos Aires",
        "col2": "0",
        "col3": "1966-3-9",
        "col4": "2"
    },
    {
        "col0": "O. Volonterio",
        "col1": "Lugano",
        "col2": "0",
        "col3": "2003-3-10",
        "col4": "3"
    },
    {
        "col0": "O. Stuppacher",
        "col1": "Vienna",
        "col2": "0",
        "col3": "2001-8-13",
        "col4": "3"
    },
    {
        "col0": "O. Karch",
        "col1": "Mannheim",
        "col2": "0",
        "col3": "2009-1-28",
        "col4": "1"
    },
    {
        "col0": "O. A. Galvez",
        "col1": "San Isidro, Buenos Aires",
        "col2": "0",
        "col3": "1989-12-16",
        "col4": "1"
    },
    {
        "col0": "O. Marimon",
        "col1": "Nurburgring",
        "col2": "2",
        "col3": "1954-7-31",
        "col4": "12"
    },
    {
        "col0": "O. Gendebien",
        "col1": "Les Baux-de-Provence",
        "col2": "2",
        "col3": "1998-10-2",
        "col4": "15"
    },
    {
        "col0": "N. Estefano",
        "col1": "Aimogasta",
        "col2": "0",
        "col3": "1973-10-21",
        "col4": "2"
    },
    {
        "col0": "M. Fohr",
        "col1": "Milwaukee",
        "col2": "0",
        "col3": "1994-1-14",
        "col4": "1"
    },
    {
        "col0": "M. Spence",
        "col1": "Indianapolis",
        "col2": "1",
        "col3": "1968-5-7",
        "col4": "37"
    },
    {
        "col0": "M. Sparken",
        "col1": "Beaulieu-sur-Mer",
        "col2": "0",
        "col3": "2012-9-21",
        "col4": "1"
    }
]