[
    {
        "col0": "J. Kelley",
        "col1": "1907-07-11",
        "col2": "1986-04-10",
        "col3": "501-244-15"
    },
    {
        "col0": "J. Jordan",
        "col1": "1910-0-0",
        "col2": "1991-06-13",
        "col3": "214-145 ()"
    },
    {
        "col0": "J. Jardine",
        "col1": "1935-07-20",
        "col2": "1990-03-23",
        "col3": "37-47-3 (college)"
    },
    {
        "col0": "J. J. Weinheimer",
        "col1": "1896-0-0",
        "col2": "1951-12-18",
        "col3": "10-12"
    },
    {
        "col0": "J. J. Ryan",
        "col1": "1886-04-03",
        "col2": "1950-04-07",
        "col3": "13-9 (basketball)"
    },
    {
        "col0": "J. J. Egan",
        "col1": "1878-05-18",
        "col2": "1949-02-01",
        "col3": "7-5-2"
    },
    {
        "col0": "J. Inglis",
        "col1": "1887-09-04",
        "col2": "1918-10-06",
        "col3": "15-9-4"
    },
    {
        "col0": "J. Idzik",
        "col1": "1928-06-25",
        "col2": "2013-12-07",
        "col3": "6-21-1"
    },
    {
        "col0": "J. Hyder",
        "col1": "1912-07-10",
        "col2": "2003-02-09",
        "col3": "292-271 (.519)"
    },
    {
        "col0": "J. H. Starr",
        "col1": "1898-1-1",
        "col2": "1989-1-1",
        "col3": "87-74-4 ()"
    },
    {
        "col0": "J. Howard",
        "col1": "1934-12-12",
        "col2": "2007-07-19",
        "col3": "32-7-1"
    },
    {
        "col0": "J. Heisman",
        "col1": "1869-10-23",
        "col2": "1936-10-03",
        "col3": "186-70-18 (football)"
    },
    {
        "col0": "J. Harmon",
        "col1": "1895-05-20",
        "col2": "1974-10-18",
        "col3": "27-52 (baseball)"
    },
    {
        "col0": "J. H. Outland",
        "col1": "1871-03-07",
        "col2": "1947-03-24",
        "col3": "21-15-2"
    },
    {
        "col0": "J. H. McIntosh",
        "col1": "1879-02-01",
        "col2": "1925-07-14",
        "col3": "7-18-6"
    },
    {
        "col0": "J. Green",
        "col1": "1924-09-15",
        "col2": "1981-08-04",
        "col3": "7-29-4"
    },
    {
        "col0": "J. Gill",
        "col1": "1898-11-27",
        "col2": "1997-03-04",
        "col3": "20-13-2 (baseball)"
    },
    {
        "col0": "J. G. Griffith",
        "col1": "1880-01-04",
        "col2": "1948-03-23",
        "col3": "101-80 (basketball)"
    },
    {
        "col0": "J. F. Crowell",
        "col1": "1857-11-01",
        "col2": "1931-08-06",
        "col3": "3-2"
    },
    {
        "col0": "J. Field",
        "col1": "1886-09-26",
        "col2": "1979-05-03",
        "col3": "7-2-1"
    },
    {
        "col0": "J. Fenlon",
        "col1": "1909-12-07",
        "col2": "2000-09-02",
        "col3": "12-15-3"
    },
    {
        "col0": "J. F. Wiley",
        "col1": "1920-04-18",
        "col2": "2013-03-25",
        "col3": "22-9-1 ()"
    },
    {
        "col0": "J. F. Tobin",
        "col1": "1880-01-01",
        "col2": "1954-10-27",
        "col3": "0-1"
    },
    {
        "col0": "J. F. McGough",
        "col1": "1883-01-04",
        "col2": "1962-04-14",
        "col3": "6-2-2 (football)"
    },
    {
        "col0": "J. F. Druze",
        "col1": "1914-07-03",
        "col2": "2005-12-27",
        "col3": "2-26-1"
    },
    {
        "col0": "J. F. Bateman",
        "col1": "1914-1-1",
        "col2": "1998-01-01",
        "col3": "73-51"
    },
    {
        "col0": "J. E. Hill",
        "col1": "1865-10-15",
        "col2": "1941-07-02",
        "col3": "4-3-0 (0.571)"
    },
    {
        "col0": "J. Egli",
        "col1": "1921-0-0",
        "col2": "1982-07-01",
        "col3": "187-135 ()"
    },
    {
        "col0": "J. E. Fries",
        "col1": "1885-06-19",
        "col2": "1955-01-21",
        "col3": "11-14-5"
    },
    {
        "col0": "J. Dunlop",
        "col1": "1874-04-23",
        "col2": "1957-04-07",
        "col3": "16-16-2"
    },
    {
        "col0": "J. Darnton",
        "col1": "1918-10-13",
        "col2": "2015-04-03",
        "col3": "2-6"
    },
    {
        "col0": "J. Crandall",
        "col1": "1931-04-10",
        "col2": "2008-08-23",
        "col3": "6-19-1"
    },
    {
        "col0": "J. Corbett",
        "col1": "1869-11-15",
        "col2": "1947-02-21",
        "col3": "12-12 (baseball)"
    },
    {
        "col0": "J. Coatta",
        "col1": "1929-04-05",
        "col2": "2000-12-26",
        "col3": "38-50-3"
    },
    {
        "col0": "J. Cinicola",
        "col1": "1929-08-14",
        "col2": "2014-08-14",
        "col3": "52-56"
    },
    {
        "col0": "J. Christenbury",
        "col1": "1907-02-13",
        "col2": "1944-07-17",
        "col3": "19-11-2 (football)"
    },
    {
        "col0": "J. Chironna",
        "col1": "1928-07-04",
        "col2": "2010-10-15",
        "col3": "16-15-1 (baseball)"
    },
    {
        "col0": "J. Chalmers",
        "col1": "1874-08-17",
        "col2": "1962-06-08",
        "col3": "100-47-8 (football)"
    },
    {
        "col0": "J. C. O'Connor",
        "col1": "1878-12-21",
        "col2": "1922-01-05",
        "col3": "26-14-2"
    },
    {
        "col0": "J. C. Futrall",
        "col1": "1873-03-09",
        "col2": "1939-09-12",
        "col3": "5-2"
    },
    {
        "col0": "J. C. Evans",
        "col1": "1908-02-13",
        "col2": "1983-07-22",
        "col3": "260-196 (basketball)"
    },
    {
        "col0": "John C. B. Pendleton",
        "col1": "1871-09-26",
        "col2": "1938-02-12",
        "col3": "8-13"
    },
    {
        "col0": "J. Bridgers",
        "col1": "1922-01-13",
        "col2": "2006-11-24",
        "col3": "59-74-2"
    },
    {
        "col0": "J. Beckett",
        "col1": "1892-01-05",
        "col2": "1981-07-26",
        "col3": "56-19-3"
    },
    {
        "col0": "J. Barnhill",
        "col1": "1903-02-23",
        "col2": "1973-10-21",
        "col3": "54-22-5"
    },
    {
        "col0": "J. B. Reid",
        "col1": "1896-02-25",
        "col2": "1963-12-21",
        "col3": "144-84 (basketball)"
    },
    {
        "col0": "J. B. Price",
        "col1": "1883-09-13",
        "col2": "1954-1-1",
        "col3": "38-16-11"
    },
    {
        "col0": "J. B. Eckstorm",
        "col1": "1874-10-22",
        "col2": "1964-10-28",
        "col3": "22-4-3"
    },
    {
        "col0": "J. A. Warren",
        "col1": "1904-11-10",
        "col2": "1981-03-10",
        "col3": "2-6 (football)"
    },
    {
        "col0": "J. A. Hartwell",
        "col1": "1869-09-27",
        "col2": "1940-11-30",
        "col3": "21-12-2"
    },
    {
        "col0": "J. A. Hall",
        "col1": "1877-09-16",
        "col2": "1919-10-01",
        "col3": "6-4"
    },
    {
        "col0": "John A. H. Keith",
        "col1": "1869-11-28",
        "col2": "1931-02-22",
        "col3": "13-7 (basketball)"
    },
    {
        "col0": "J. A. Brewin",
        "col1": "1876-12-09",
        "col2": "1938-03-07",
        "col3": "12-12-1 (football)"
    },
    {
        "col0": "J. \". Smith",
        "col1": "1904-12-12",
        "col2": "1973-05-11",
        "col3": "28-24-5"
    },
    {
        "col0": "J. Elcock",
        "col1": "1888-12-06",
        "col2": "1964-6-0",
        "col3": "30-11-4"
    },
    {
        "col0": "J. Whitaker",
        "col1": "1877-10-05",
        "col2": "1947-10-13",
        "col3": "2-1"
    },
    {
        "col0": "J. Hunt",
        "col1": "1905-10-11",
        "col2": "1978-07-24",
        "col3": "5-11-2"
    },
    {
        "col0": "J. Eaves",
        "col1": "1914-06-03",
        "col2": "1991-07-18",
        "col3": "212-141 ()"
    },
    {
        "col0": "J. Zabilski",
        "col1": "1917-07-04",
        "col2": "2002-04-27",
        "col3": "101-77-6"
    },
    {
        "col0": "J. Verducci",
        "col1": "1910-11-11",
        "col2": "1964-11-06",
        "col3": "81-43-1 (college)"
    },
    {
        "col0": "J. Utay",
        "col1": "1887-05-02",
        "col2": "1977-11-24",
        "col3": "15-7-1"
    },
    {
        "col0": "J. Simmons",
        "col1": "1895-06-05",
        "col2": "1973-03-04",
        "col3": "10-1-1 (college baseball)"
    },
    {
        "col0": "J. Sheeketski",
        "col1": "1908-04-15",
        "col2": "1995-04-22",
        "col3": "39-29-3"
    },
    {
        "col0": "J. Restic",
        "col1": "1926-07-21",
        "col2": "2011-12-08",
        "col3": "117-97-6 (college)"
    },
    {
        "col0": "J. Pritchard",
        "col1": "1886-05-15",
        "col2": "1947-07-14",
        "col3": "4-1"
    },
    {
        "col0": "J. Paterno",
        "col1": "1926-12-21",
        "col2": "2012-01-22",
        "col3": "409-136-3"
    },
    {
        "col0": "J. Meyers",
        "col1": "1871-12-05",
        "col2": "1959-04-11",
        "col3": "5-4-1"
    },
    {
        "col0": "J. McMullen",
        "col1": "1924-05-09",
        "col2": "1983-09-09",
        "col3": "58-46-5"
    },
    {
        "col0": "J. McKenney",
        "col1": "1905-03-01",
        "col2": "1995-05-17",
        "col3": "44-18-3"
    },
    {
        "col0": "J. Maddock",
        "col1": "1877-07-11",
        "col2": "1943-11-11",
        "col3": "32-12-3"
    },
    {
        "col0": "J. Lapchick",
        "col1": "1900-04-12",
        "col2": "1970-08-10",
        "col3": "326-247 (NBA)"
    },
    {
        "col0": "J. Kuharich",
        "col1": "1917-04-14",
        "col2": "1981-01-25",
        "col3": "42-37 (college)"
    },
    {
        "col0": "J. Krivak",
        "col1": "1935-03-20",
        "col2": "2012-12-25",
        "col3": "20-34-2 (college)"
    },
    {
        "col0": "J. Kerbel",
        "col1": "1921-6-1",
        "col2": "1973-03-20",
        "col3": "68-42-1"
    },
    {
        "col0": "J. Holland",
        "col1": "1916-09-07",
        "col2": "1992-01-23",
        "col3": "14-5 (basketball)"
    },
    {
        "col0": "J. G. Sr.",
        "col1": "1923-0-0",
        "col2": "2012-11-14",
        "col3": "23-36-2 (college)"
    },
    {
        "col0": "J. Gembis",
        "col1": "1907-09-29",
        "col2": "1969-07-05",
        "col3": "42-51-8"
    },
    {
        "col0": "J. Gardi",
        "col1": "1939-0-0",
        "col2": "2010-06-03",
        "col3": "119-62-2"
    },
    {
        "col0": "J. Fortunato",
        "col1": "1918-07-04",
        "col2": "2004-02-21",
        "col3": "11-26 (college baseball)"
    },
    {
        "col0": "J. Fogg",
        "col1": "1882-07-06",
        "col2": "1946-12-02",
        "col3": "26-8-4"
    },
    {
        "col0": "J. D. Gold",
        "col1": "1942-06-07",
        "col2": "2011-04-14",
        "col3": "67-82"
    },
    {
        "col0": "J. Daher",
        "col1": "1913-1-1",
        "col2": "1993-09-21",
        "col3": "52-76 (basketball)"
    },
    {
        "col0": "J. Curtis",
        "col1": "1882-11-14",
        "col2": "1972-01-29",
        "col3": "14-5"
    },
    {
        "col0": "J. Cipriano",
        "col1": "1931-10-27",
        "col2": "1980-11-25",
        "col3": "297-231 ()"
    },
    {
        "col0": "J. Bedenk",
        "col1": "1897-07-14",
        "col2": "1978-05-02",
        "col3": "391-171-3 (baseball)"
    },
    {
        "col0": "J. B. Cheaney",
        "col1": "1902-12-30",
        "col2": "1983-03-18",
        "col3": "58-19-9"
    },
    {
        "col0": "J. Bach",
        "col1": "1901-01-17",
        "col2": "1966-10-24",
        "col3": "21-27 (NFL)"
    },
    {
        "col0": "J. Avezzano",
        "col1": "1943-11-17",
        "col2": "2012-04-05",
        "col3": "17-13 (AFL)"
    },
    {
        "col0": "J. Aillet",
        "col1": "1904-09-13",
        "col2": "1971-12-28",
        "col3": "151-86-8 (college football)"
    },
    {
        "col0": "J. Walker",
        "col1": "1913-1-1",
        "col2": "1943-12-22",
        "col3": "27-39 (basketball)"
    },
    {
        "col0": "J. Robertson",
        "col1": "1901-03-08",
        "col2": "1974-1-1",
        "col3": "6-3"
    },
    {
        "col0": "J. R. Haygood",
        "col1": "1882-07-20",
        "col2": "1935-01-18",
        "col3": "17-15 (basketball)"
    },
    {
        "col0": "J. Feix",
        "col1": "1931-08-01",
        "col2": "2014-10-05",
        "col3": "106-56-6"
    },
    {
        "col0": "J. Carnes",
        "col1": "1934-11-29",
        "col2": "2011-03-05",
        "col3": "161-11 (.936)"
    },
    {
        "col0": "J. Williams",
        "col1": "1915-03-19",
        "col2": "2007-05-31",
        "col3": "352-283 (college)"
    },
    {
        "col0": "J. Weaver",
        "col1": "1903-1-1",
        "col2": "1970-07-11",
        "col3": "10-23-1 (college)"
    },
    {
        "col0": "J. Weaver",
        "col1": "1945-03-05",
        "col2": "2015-07-02",
        "col3": "3-5"
    },
    {
        "col0": "J. Ward",
        "col1": "1948-01-02",
        "col2": "2001-04-26",
        "col3": "8-24"
    },
    {
        "col0": "J. Wacker",
        "col1": "1937-04-29",
        "col2": "2003-08-26",
        "col3": "159-131-3"
    },
    {
        "col0": "J. Valvano",
        "col1": "1946-03-10",
        "col2": "1993-04-28",
        "col3": "346-210 ()"
    },
    {
        "col0": "J. Valek",
        "col1": "1928-01-25",
        "col2": "2005-09-04",
        "col3": "2-10 (2-10)"
    },
    {
        "col0": "J. Tatum",
        "col1": "1913-07-22",
        "col2": "1959-07-23",
        "col3": "100-35-7 (football)"
    },
    {
        "col0": "J. Tait",
        "col1": "1935-11-06",
        "col2": "2011-05-20",
        "col3": "21-44 (college)"
    },
    {
        "col0": "J. Sweeney",
        "col1": "1929-09-01",
        "col2": "2013-02-08",
        "col3": "201-153-4 (college)"
    },
    {
        "col0": "J. Sutherland",
        "col1": "1914-08-20",
        "col2": "1980-06-21",
        "col3": "37-39-4  (college)"
    },
    {
        "col0": "J. Stanley",
        "col1": "1935-06-22",
        "col2": "2012-01-12",
        "col3": "24-15 (USFL)"
    },
    {
        "col0": "J. Stangeland",
        "col1": "1921-12-21",
        "col2": "2014-10-25",
        "col3": "31-24-2 (college)"
    },
    {
        "col0": "J. Sochor",
        "col1": "1938-02-11",
        "col2": "2015-11-23",
        "col3": "156-41-5"
    },
    {
        "col0": "J. Snyder",
        "col1": "1919-06-29",
        "col2": "1994-04-27",
        "col3": "354-245"
    },
    {
        "col0": "J. Preas",
        "col1": "1893-06-22",
        "col2": "1965-1-1",
        "col3": "18-3-1"
    },
    {
        "col0": "J. Pixlee",
        "col1": "1889-03-29",
        "col2": "1967-02-17",
        "col3": "77-59-14 (football)"
    },
    {
        "col0": "J. Pittman",
        "col1": "1925-08-28",
        "col2": "1971-10-30",
        "col3": "24-33-1"
    },
    {
        "col0": "J. Peelle",
        "col1": "1907-06-12",
        "col2": "1976-10-1",
        "col3": "38-34-1"
    },
    {
        "col0": "J. Owens",
        "col1": "1927-03-06",
        "col2": "2009-06-06",
        "col3": "99-82-6"
    },
    {
        "col0": "J. Ostendarp",
        "col1": "1923-02-15",
        "col2": "2005-12-15",
        "col3": "168-91-5"
    },
    {
        "col0": "J. Myers",
        "col1": "1921-11-12",
        "col2": "2014-07-17",
        "col3": "16-29-5"
    },
    {
        "col0": "J. McCormick",
        "col1": "1884-03-21",
        "col2": "1959-08-18",
        "col3": "6-2-1"
    },
    {
        "col0": "J. McCord",
        "col1": "1932-11-23",
        "col2": "2009-09-28",
        "col3": "0-3 ()"
    },
    {
        "col0": "J. Mackenzie",
        "col1": "1930-01-15",
        "col2": "1967-04-28",
        "col3": "6-4 (college)"
    },
    {
        "col0": "J. Lookabaugh",
        "col1": "1902-06-16",
        "col2": "1982-05-13",
        "col3": "58-41-6 (college)"
    },
    {
        "col0": "J. Lansing",
        "col1": "1919-09-16",
        "col2": "2000-12-02",
        "col3": "30-22-3 (college)"
    },
    {
        "col0": "J. LaRue",
        "col1": "1925-08-11",
        "col2": "2015-03-29",
        "col3": "41-37-2"
    },
    {
        "col0": "J. Johnson",
        "col1": "1912-09-10",
        "col2": "2004-11-27",
        "col3": "8-18-1 (football)"
    },
    {
        "col0": "J. Hickey",
        "col1": "1920-01-22",
        "col2": "1997-12-27",
        "col3": "63-56-4"
    },
    {
        "col0": "J. Hazlett",
        "col1": "1926-01-13",
        "col2": "2010-08-04",
        "col3": "75-130-7 (football)"
    },
    {
        "col0": "J. Gilstrap",
        "col1": "1942-05-11",
        "col2": "2007-07-19",
        "col3": "20-11-1 (college)"
    },
    {
        "col0": "J. Freeman",
        "col1": "1914-01-23",
        "col2": "2015-08-11",
        "col3": "18-28-2"
    },
    {
        "col0": "J. Duncan",
        "col1": "1924-05-02",
        "col2": "2011-01-05",
        "col3": "31-15-2 (college)"
    },
    {
        "col0": "J. Crowley",
        "col1": "1902-09-10",
        "col2": "1986-01-15",
        "col3": "0-10 (AAFC)"
    },
    {
        "col0": "J. Carlen",
        "col1": "1933-07-11",
        "col2": "2012-07-22",
        "col3": "107-69-6"
    },
    {
        "col0": "J. Butterfield",
        "col1": "1927-11-30",
        "col2": "2002-11-26",
        "col3": "11-4 (high school)"
    },
    {
        "col0": "J. Brock",
        "col1": "1936-07-24",
        "col2": "1994-06-12",
        "col3": "1,099-441-1"
    },
    {
        "col0": "J. B. Helduser",
        "col1": "1957-02-27",
        "col2": "2010-02-26",
        "col3": "20-34-1"
    },
    {
        "col0": "J. Aiken",
        "col1": "1899-05-26",
        "col2": "1961-10-31",
        "col3": "78-53-5 (college football)"
    },
    {
        "col0": "J. Wallace",
        "col1": "1907-06-16",
        "col2": "1999-04-07",
        "col3": "7-14 (college)"
    },
    {
        "col0": "J. R. Langley",
        "col1": "1877-07-23",
        "col2": "1933-12-05",
        "col3": "11-5-1"
    },
    {
        "col0": "J. Hawley",
        "col1": "1887-03-25",
        "col2": "1946-03-21",
        "col3": "63-28-1"
    },
    {
        "col0": "J. Harper",
        "col1": "1883-12-10",
        "col2": "1961-07-01",
        "col3": "57-17-7 (football)"
    },
    {
        "col0": "J. Fatherree",
        "col1": "1913-06-07",
        "col2": "1962-07-23",
        "col3": "4-5"
    },
    {
        "col0": "J. Neely",
        "col1": "1898-01-04",
        "col2": "1983-04-09",
        "col3": "109-108-5 (baseball)"
    },
    {
        "col0": "J. Hill",
        "col1": "1907-01-20",
        "col2": "1993-08-01",
        "col3": "45-17-1 (football)"
    },
    {
        "col0": "J. Dow",
        "col1": "1916-12-16",
        "col2": "2003-03-24",
        "col3": "107-41-6"
    },
    {
        "col0": "J. Tarkanian",
        "col1": "1930-08-08",
        "col2": "2015-02-11",
        "col3": "706-198"
    },
    {
        "col0": "J. Riordan",
        "col1": "1872-2-17",
        "col2": "1936-01-20",
        "col3": "11-1-1"
    },
    {
        "col0": "J. Huntsman",
        "col1": "1929-11-29",
        "col2": "2005-04-05",
        "col3": "72-27-1 (college)"
    },
    {
        "col0": "J. Hines",
        "col1": "1903-1-1",
        "col2": "1963-1-1",
        "col3": "157-109 (basketball)"
    },
    {
        "col0": "J. Frei",
        "col1": "1924-06-03",
        "col2": "2001-02-16",
        "col3": "22-29-2 (college)"
    },
    {
        "col0": "J. Edwards",
        "col1": "1925-04-02",
        "col2": "2010-03-21",
        "col3": "36-12"
    },
    {
        "col0": "J. Dalrymple",
        "col1": "1906-08-06",
        "col2": "1962-09-25",
        "col3": "12-14-1 (football)"
    },
    {
        "col0": "J. Claiborne",
        "col1": "1928-08-26",
        "col2": "2000-09-24",
        "col3": "179-122-8"
    },
    {
        "col0": "J. Carle",
        "col1": "1923-07-25",
        "col2": "2014-04-12",
        "col3": "137-150-5 (football)"
    },
    {
        "col0": "J. Bush",
        "col1": "1914-09-06",
        "col2": "1976-10-27",
        "col3": "208-190 ()"
    },
    {
        "col0": "J. B. Whitworth",
        "col1": "1908-09-17",
        "col2": "1960-03-03",
        "col3": "22-21 (baseball)"
    },
    {
        "col0": "J. Gillem",
        "col1": "1890-0-0",
        "col2": "1951-11-11",
        "col3": "71-65-10"
    },
    {
        "col0": "J. Cravath",
        "col1": "1903-01-03",
        "col2": "1953-12-10",
        "col3": "74-43-9"
    },
    {
        "col0": "J. Eberheart",
        "col1": "1909-10-20",
        "col2": "1971-01-03",
        "col3": "3-18-3 ()"
    },
    {
        "col0": "J. McWilliams",
        "col1": "1915-0-0",
        "col2": "2010-10-17",
        "col3": "145-166 (basketball)"
    },
    {
        "col0": "J. M. Love",
        "col1": "1883-05-15",
        "col2": "1935-09-16",
        "col3": "8-6-2"
    },
    {
        "col0": "J. L. Lee",
        "col1": "1887-09-27",
        "col2": "1970-04-10",
        "col3": "17-20-4"
    },
    {
        "col0": "J. Turnbell",
        "col1": "1890-01-08",
        "col2": "1958-10-04",
        "col3": "6-7 ()"
    },
    {
        "col0": "J. Rabedeaux",
        "col1": "1965-04-04",
        "col2": "2014-09-22",
        "col3": "46-46 ()"
    },
    {
        "col0": "J. M. Saunderson",
        "col1": "1886-02-22",
        "col2": "1950-02-17",
        "col3": "116-97-11 (football)"
    },
    {
        "col0": "J. Whipple",
        "col1": "1873-10-19",
        "col2": "1914-11-07",
        "col3": "18-3-2"
    },
    {
        "col0": "James W. St. Clair",
        "col1": "1885-1-20",
        "col2": "1945-5-4",
        "col3": "190-129 (basketball)"
    },
    {
        "col0": "J. W. Dunn",
        "col1": "1911-10-16",
        "col2": "1983-04-09",
        "col3": "13-21-2"
    },
    {
        "col0": "J. Usilton",
        "col1": "1895-06-10",
        "col2": "1939-03-13",
        "col3": "205-79 ()"
    },
    {
        "col0": "J. Schaeffer",
        "col1": "1885-02-01",
        "col2": "1972-08-08",
        "col3": "Baseball: 39-21-2"
    },
    {
        "col0": "J. S. Malosky",
        "col1": "1928-12-14",
        "col2": "2011-12-04",
        "col3": "255-125-13"
    },
    {
        "col0": "J. Phelan",
        "col1": "1892-12-05",
        "col2": "1974-11-14",
        "col3": "10-11 (college basketball)"
    },
    {
        "col0": "J. Ogilvie",
        "col1": "1866-0-0",
        "col2": "1950-07-12",
        "col3": "2-6"
    },
    {
        "col0": "J. O. Rodgers",
        "col1": "1874-10-11",
        "col2": "1945-05-17",
        "col3": "7-2-1"
    },
    {
        "col0": "J. Naismith",
        "col1": "1861-11-06",
        "col2": "1939-11-28",
        "col3": "55-60"
    },
    {
        "col0": "J. N. Ashmore",
        "col1": "1878-11-11",
        "col2": "1944-04-27",
        "col3": "170-99-6 (baseball, excluding Colorado)"
    },
    {
        "col0": "J. Morrison",
        "col1": "1871-11-02",
        "col2": "1939-05-15",
        "col3": "5-4-1"
    },
    {
        "col0": "J. M. Sr.",
        "col1": "1912-09-27",
        "col2": "1983-08-18",
        "col3": "15-17-2"
    },
    {
        "col0": "J. McWeeney",
        "col1": "1866-10-8",
        "col2": "1940-12-11",
        "col3": "6-3-1"
    },
    {
        "col0": "J. McKinley",
        "col1": "1945-02-25",
        "col2": "2012-07-06",
        "col3": "46-53-1"
    },
    {
        "col0": "J. Mallory",
        "col1": "1918-09-01",
        "col2": "2001-08-06",
        "col3": "28-18-3 ()"
    },
    {
        "col0": "J. M. Sheldon",
        "col1": "1880-1-1",
        "col2": "1965-07-07",
        "col3": "35-26-3 (football)"
    }
]