[
    {
        "col0": "Orland Main Air Station",
        "col1": "OLA",
        "col2": "2713",
        "col3": "15/33",
        "col4": "Asphalt"
    },
    {
        "col0": "Orland Airport",
        "col1": "OLA",
        "col2": "2713",
        "col3": "15/33",
        "col4": "Asphalt"
    },
    {
        "col0": "Ornskoldsvik Airport",
        "col1": "OER",
        "col2": "2013",
        "col3": "12/30",
        "col4": "Asphalt"
    },
    {
        "col0": "Orebro Airport",
        "col1": "ORB",
        "col2": "2601",
        "col3": "01/19",
        "col4": "Asphalt"
    },
    {
        "col0": "Olgii Airport",
        "col1": "ULG",
        "col2": "2849",
        "col3": "13/31",
        "col4": "Concrete"
    },
    {
        "col0": "Olafsfjordur Airport",
        "col1": "OFJ",
        "col2": "1005",
        "col3": "05/23",
        "col4": "Grass"
    },
    {
        "col0": "Iles-de-la-Madeleine Airport",
        "col1": "YGR",
        "col2": "1099",
        "col3": "07/25",
        "col4": "Asphalt"
    },
    {
        "col0": "Ile d'Yeu Aerodrome",
        "col1": "IDY",
        "col2": "574",
        "col3": "04/22",
        "col4": "Asphalt"
    },
    {
        "col0": "Isafjordur Airport",
        "col1": "IFJ",
        "col2": "1400",
        "col3": "08/26",
        "col4": "Asphalt"
    },
    {
        "col0": "Epinal - Mirecourt Airport",
        "col1": "EPL",
        "col2": "2699",
        "col3": "08/26",
        "col4": "Asphalt"
    },
    {
        "col0": "Cigli Air Base",
        "col1": "IGL",
        "col2": "2993",
        "col3": "17/35",
        "col4": "Asphalt"
    },
    {
        "col0": "Canakkale Airport",
        "col1": "CKZ",
        "col2": "2349",
        "col3": "04/22",
        "col4": "Concrete"
    },
    {
        "col0": "Are Ostersund Airport",
        "col1": "OSD",
        "col2": "1229",
        "col3": "12/30",
        "col4": "Asphalt"
    },
    {
        "col0": "Alesund Airport, Vigra",
        "col1": "AES",
        "col2": "2314",
        "col3": "07/25",
        "col4": "Asphalt"
    },
    {
        "col0": "Angelholm-Helsingborg Airport",
        "col1": "AGH",
        "col2": "1944",
        "col3": "14/32",
        "col4": "Asphalt"
    },
    {
        "col0": "Angel Albino Corzo International Airport",
        "col1": "TGZ",
        "col2": "2500",
        "col3": "14/32",
        "col4": "Concrete"
    },
    {
        "col0": "Agua Boa Airport",
        "col1": "HPX",
        "col2": "1627",
        "col3": "03/21",
        "col4": "Asphalt"
    },
    {
        "col0": "Zurich Airport",
        "col1": "ZRH",
        "col2": "2499",
        "col3": "10/28",
        "col4": "Concrete"
    },
    {
        "col0": "Zyryanka Airport",
        "col1": "ZKP",
        "col2": "1800",
        "col3": "16/34",
        "col4": "Concrete"
    },
    {
        "col0": "Zweibrucken Airport",
        "col1": "ZQW",
        "col2": "2674",
        "col3": "03/21",
        "col4": "Concrete"
    },
    {
        "col0": "Zwartberg Airfield",
        "col1": "GNK",
        "col2": "655",
        "col3": "03L/21R",
        "col4": "Asphalt"
    },
    {
        "col0": "Zvartnots International Airport",
        "col1": "EVN",
        "col2": "3849",
        "col3": "09/27",
        "col4": "Asphalt/Concrete"
    },
    {
        "col0": "Zuwarah Airport",
        "col1": "WAX",
        "col2": "1798",
        "col3": "06/24",
        "col4": "Asphalt"
    },
    {
        "col0": "Zumbi dos Palmares International Airport",
        "col1": "MCZ",
        "col2": "2602",
        "col3": "12/30",
        "col4": "Asphalt"
    },
    {
        "col0": "Zorg en Hoop Airport",
        "col1": "ORG",
        "col2": "650",
        "col3": "11/29",
        "col4": "Asphalt / Grass"
    },
    {
        "col0": "Zonguldak Airport",
        "col1": "ONQ",
        "col2": "1800",
        "col3": "18/36",
        "col4": "Concrete"
    },
    {
        "col0": "Zona da Mata Regional Airport",
        "col1": "IZA",
        "col2": "2514",
        "col3": "08/26",
        "col4": "Asphalt"
    },
    {
        "col0": "Zinder Airport",
        "col1": "ZND",
        "col2": "1825",
        "col3": "05/23",
        "col4": "Asphalt"
    },
    {
        "col0": "Ziguinchor Airport",
        "col1": "ZIG",
        "col2": "1545",
        "col3": "10/28",
        "col4": "Asphalt"
    },
    {
        "col0": "Zielona Gora Airport",
        "col1": "IEG",
        "col2": "2499",
        "col3": "06/24",
        "col4": "Concrete"
    },
    {
        "col0": "Zhukovsky International Airport",
        "col1": "ZIA",
        "col2": "2499",
        "col3": "08/26",
        "col4": "Concrete"
    },
    {
        "col0": "Zhuhai Jinwan Airport",
        "col1": "ZUH",
        "col2": "4120",
        "col3": "05/23",
        "col4": "Concrete"
    },
    {
        "col0": "Zhongwei Shapotou Airport",
        "col1": "ZHY",
        "col2": "2800",
        "col3": "03/21",
        "col4": "Concrete"
    },
    {
        "col0": "Zhob Airport",
        "col1": "PZH",
        "col2": "1829",
        "col3": "09/27",
        "col4": "Asphalt"
    },
    {
        "col0": "Zhigansk Airport",
        "col1": "ZIX",
        "col2": "1100",
        "col3": "17/35",
        "col4": "Asphalt"
    },
    {
        "col0": "Zhezkazgan Airport",
        "col1": "DZN",
        "col2": "2600",
        "col3": "04/22",
        "col4": "Concrete"
    },
    {
        "col0": "Zhengzhou Xinzheng International Airport",
        "col1": "CGO",
        "col2": "3400",
        "col3": "12L/30R",
        "col4": "Concrete"
    },
    {
        "col0": "Zhanjiang Airport",
        "col1": "ZHA",
        "col2": "2400",
        "col3": "16/34",
        "col4": "Asphalt"
    },
    {
        "col0": "Zero Airport",
        "col1": "ZER",
        "col2": "1222",
        "col3": "18/36",
        "col4": "Asphalt"
    },
    {
        "col0": "Zephyrhills Municipal Airport",
        "col1": "ZPH",
        "col2": "1509",
        "col3": "18/36",
        "col4": "Asphalt"
    },
    {
        "col0": "Zenata - Messali El Hadj Airport",
        "col1": "TLM",
        "col2": "2599",
        "col3": "07/25",
        "col4": "Asphalt"
    },
    {
        "col0": "Zemio Airport",
        "col1": "IMO",
        "col2": "1335",
        "col3": "14/32",
        "col4": "Laterite"
    },
    {
        "col0": "Zaysan Airport",
        "col1": "SZI",
        "col2": "1505",
        "col3": "09/27",
        "col4": "Concrete"
    },
    {
        "col0": "Zaria Airport",
        "col1": "ZAR",
        "col2": "1670",
        "col3": "05/23",
        "col4": "Asphalt"
    },
    {
        "col0": "Zaranj Airport",
        "col1": "ZAJ",
        "col2": "2499",
        "col3": "16/34",
        "col4": "Gravel"
    },
    {
        "col0": "Zaragoza Airport",
        "col1": "ZAZ",
        "col2": "3023",
        "col3": "12L/30R",
        "col4": "Asphalt"
    },
    {
        "col0": "Zaragoza Air Base",
        "col1": "ZAZ",
        "col2": "3023",
        "col3": "12L/30R",
        "col4": "Asphalt"
    },
    {
        "col0": "Zaqatala International Airport",
        "col1": "ZTU",
        "col2": "2100",
        "col3": "15/33",
        "col4": "Asphalt"
    },
    {
        "col0": "Zaporizhia International Airport",
        "col1": "OZH",
        "col2": "2099",
        "col3": "02/20",
        "col4": "Concrete"
    },
    {
        "col0": "Zapala Airport",
        "col1": "APZ",
        "col2": "2200",
        "col3": "09/27",
        "col4": "Asphalt"
    },
    {
        "col0": "Zanjan Airport",
        "col1": "JWN",
        "col2": "2999",
        "col3": "12/30",
        "col4": "Asphalt"
    },
    {
        "col0": "Zanesville Municipal Airport",
        "col1": "ZZV",
        "col2": "1523",
        "col3": "16/34",
        "col4": "Asphalt/Concrete"
    },
    {
        "col0": "Zamperini Field",
        "col1": "TOA",
        "col2": "914",
        "col3": "11L/29R",
        "col4": "Asphalt/Concrete"
    },
    {
        "col0": "Zamboanga International Airport",
        "col1": "ZAM",
        "col2": "2610",
        "col3": "09/27",
        "col4": "Asphalt"
    },
    {
        "col0": "Zambezi Airport",
        "col1": "BBZ",
        "col2": "1092",
        "col3": "12/30",
        "col4": "Unpaved"
    },
    {
        "col0": "Zakynthos International Airport",
        "col1": "ZTH",
        "col2": "2228",
        "col3": "16/34",
        "col4": "Asphalt"
    },
    {
        "col0": "Zakouma Airport",
        "col1": "AKM",
        "col2": "1500",
        "col3": "03/21",
        "col4": "Clay"
    },
    {
        "col0": "Zahedan Airport",
        "col1": "ZAH",
        "col2": "4265",
        "col3": "17/35",
        "col4": "Asphalt"
    },
    {
        "col0": "Zagreb Airport",
        "col1": "ZAG",
        "col2": "3252",
        "col3": "05/23",
        "col4": "Concrete/Asphalt"
    },
    {
        "col0": "Zafer Airport",
        "col1": "KZR",
        "col2": "2999",
        "col3": "12/30",
        "col4": "Concrete"
    },
    {
        "col0": "Zadar Airport",
        "col1": "ZAD",
        "col2": "2000",
        "col3": "04/22",
        "col4": "Asphalt"
    },
    {
        "col0": "Zabre Airport",
        "col1": "XZA",
        "col2": "749",
        "col3": "07/25",
        "col4": "Dirt"
    },
    {
        "col0": "Zabrat Airport",
        "col1": "ZXT",
        "col2": "475",
        "col3": "16/34",
        "col4": "Asphalt"
    },
    {
        "col0": "Zabre Airport",
        "col1": "XZA",
        "col2": "749",
        "col3": "07/25",
        "col4": "Dirt"
    },
    {
        "col0": "Zabol Airport",
        "col1": "ACZ",
        "col2": "3001",
        "col3": "16/34",
        "col4": "Asphalt"
    },
    {
        "col0": "Z. M. Jack Stell Field",
        "col1": "CRT",
        "col2": "1526",
        "col3": "5/23",
        "col4": "Asphalt"
    },
    {
        "col0": "Zurich Airport",
        "col1": "ZRH",
        "col2": "2499",
        "col3": "10/28",
        "col4": "Concrete"
    },
    {
        "col0": "Yelimane Airport",
        "col1": "EYL",
        "col2": "1600",
        "col3": "10/28",
        "col4": "Unpaved"
    },
    {
        "col0": "Yuzhno-Sakhalinsk Airport",
        "col1": "UUS",
        "col2": "3400",
        "col3": "01/19",
        "col4": "Concrete"
    },
    {
        "col0": "Yuma International Airport",
        "col1": "YUM",
        "col2": "1740",
        "col3": "17/35",
        "col4": "Asphalt/Concrete"
    },
    {
        "col0": "Yulin Yuyang Airport",
        "col1": "UYN",
        "col2": "2800",
        "col3": "16/34",
        "col4": "Asphalt"
    },
    {
        "col0": "Yucca Airstrip",
        "col1": "UCC",
        "col2": "1520",
        "col3": "01/19",
        "col4": "Asphalt"
    },
    {
        "col0": "Yuba County Airport",
        "col1": "MYV",
        "col2": "1000",
        "col3": "14/32",
        "col4": "Asphalt"
    },
    {
        "col0": "Youngstown-Warren Regional Airport",
        "col1": "YNG",
        "col2": "1066",
        "col3": "14/32",
        "col4": "Asphalt"
    },
    {
        "col0": "Young Airport",
        "col1": "NGA",
        "col2": "1220",
        "col3": "01/19",
        "col4": "Asphalt"
    },
    {
        "col0": "Yotvata Airfield",
        "col1": "YOT",
        "col2": "1015",
        "col3": "02/20",
        "col4": "asphalt"
    },
    {
        "col0": "Yoshkar-Ola Airport",
        "col1": "JOK",
        "col2": "2399",
        "col3": "16/34",
        "col4": "Asphalt"
    },
    {
        "col0": "Yoron Airport",
        "col1": "RNJ",
        "col2": "1200",
        "col3": "14/32",
        "col4": "Asphalt concrete"
    },
    {
        "col0": "Yoro Airport",
        "col1": "ORO",
        "col2": "899",
        "col3": "16/34",
        "col4": "Grass"
    },
    {
        "col0": "Yorkton Municipal Airport",
        "col1": "YQV",
        "col2": "909",
        "col3": "03/21",
        "col4": "Asphalt"
    },
    {
        "col0": "Yorke Island Airport",
        "col1": "OKR",
        "col2": "1000",
        "col3": "12/30",
        "col4": "Concrete"
    },
    {
        "col0": "York Landing Airport",
        "col1": "ZAC",
        "col2": "1035",
        "col3": "10/28",
        "col4": "Crushed rock"
    },
    {
        "col0": "York Airport",
        "col1": "THV",
        "col2": "1581",
        "col3": "17/35",
        "col4": "Asphalt"
    },
    {
        "col0": "Yongphulla Airport",
        "col1": "YON",
        "col2": "1266",
        "col3": "12/30",
        "col4": "Asphalt"
    },
    {
        "col0": "Yonaguni Airport",
        "col1": "OGN",
        "col2": "2000",
        "col3": "08/26",
        "col4": "Asphalt concrete"
    },
    {
        "col0": "Yola Airport",
        "col1": "YOL",
        "col2": "3000",
        "col3": "17/35",
        "col4": "Asphalt"
    },
    {
        "col0": "Yokangassi Airport",
        "col1": "NKY",
        "col2": "2200",
        "col3": "09/27",
        "col4": "Dirt"
    },
    {
        "col0": "Ylivieska Airfield",
        "col1": "YLI",
        "col2": "1500",
        "col3": "15/33",
        "col4": "asphalt"
    },
    {
        "col0": "Yiwu Airport",
        "col1": "YIW",
        "col2": "2500",
        "col3": "02/20",
        "col4": "Concrete"
    },
    {
        "col0": "Yinchuan Hedong International Airport",
        "col1": "INC",
        "col2": "3200",
        "col3": "03/21",
        "col4": "Concrete"
    },
    {
        "col0": "Yichang Sanxia Airport",
        "col1": "YIH",
        "col2": "2600",
        "col3": "14/32",
        "col4": "Concrete"
    },
    {
        "col0": "Yevlakh Airport",
        "col1": "YLV",
        "col2": "2520",
        "col3": "12/30",
        "col4": "Asphalt"
    },
    {
        "col0": "Yerington Municipal Airport",
        "col1": "EYR",
        "col2": "1772",
        "col3": "1/19",
        "col4": "Asphalt"
    },
    {
        "col0": "Yeosu Airport",
        "col1": "RSU",
        "col2": "2100",
        "col3": "17/35",
        "col4": "Asphalt"
    },
    {
        "col0": "Yenisehir Airport",
        "col1": "YEI",
        "col2": "2992",
        "col3": "07L/25R",
        "col4": "Concrete"
    },
    {
        "col0": "Yeniseysk Airport",
        "col1": "EIE",
        "col2": "2189",
        "col3": "16/34",
        "col4": "Asphalt"
    },
    {
        "col0": "Yenisehir Airport",
        "col1": "YEI",
        "col2": "2992",
        "col3": "07L/25R",
        "col4": "Concrete"
    },
    {
        "col0": "Yengema Airport",
        "col1": "WYE",
        "col2": "914",
        "col3": "15/33",
        "col4": "Unpaved"
    },
    {
        "col0": "Yemelyanovo International Airport",
        "col1": "KJA",
        "col2": "3699",
        "col3": "11/29",
        "col4": "Concrete"
    },
    {
        "col0": "Yellowstone Regional Airport",
        "col1": "COD",
        "col2": "2520",
        "col3": "4/22",
        "col4": "Asphalt"
    },
    {
        "col0": "Yellowstone Airport",
        "col1": "WYS",
        "col2": "2560",
        "col3": "1/19",
        "col4": "Asphalt"
    },
    {
        "col0": "Yellowknife Airport",
        "col1": "YZF",
        "col2": "1524",
        "col3": "10/28",
        "col4": "Asphalt"
    },
    {
        "col0": "Yecheon Air Base",
        "col1": "YEC",
        "col2": "2743",
        "col3": "10/28",
        "col4": "Concrete"
    },
    {
        "col0": "Yeager Airport",
        "col1": "CRW",
        "col2": "2073",
        "col3": "5/23",
        "col4": "Asphalt"
    },
    {
        "col0": "Yaviza Airport",
        "col1": "PYV",
        "col2": "629",
        "col3": "17/35",
        "col4": "Grass"
    },
    {
        "col0": "Yasuj Airport",
        "col1": "YES",
        "col2": "2597",
        "col3": "13/31",
        "col4": "Asphalt"
    },
    {
        "col0": "Yasser Arafat International Airport",
        "col1": "GZA",
        "col2": "3075",
        "col3": "01/19",
        "col4": "Asphalt(severely damaged)"
    },
    {
        "col0": "Yasawa Island Airport",
        "col1": "YAS",
        "col2": "594",
        "col3": "03/21",
        "col4": "Dirt"
    },
    {
        "col0": "Yarmouth Airport",
        "col1": "YQI",
        "col2": "1524",
        "col3": "06/24",
        "col4": "Asphalt"
    }
]