[
    {
        "col0": "L. Sloetjes",
        "col1": "Netherlands",
        "col2": "Netherlands women's national volleyball team",
        "col3": "Netherlands",
        "col4": "1990-11-15"
    },
    {
        "col0": "L. Geiler",
        "col1": "France",
        "col2": "France men's national volleyball team",
        "col3": "Charenton-le-Pont",
        "col4": "1984-04-14"
    },
    {
        "col0": "L. L. Marrec",
        "col1": "France",
        "col2": "France men's national volleyball team",
        "col3": "Rochefort, Charente-Maritime",
        "col4": "1977-03-01"
    },
    {
        "col0": "L. Yanhan",
        "col1": "China",
        "col2": "China women's national volleyball team",
        "col3": "China",
        "col4": "1993-01-19"
    },
    {
        "col0": "L. Yanan",
        "col1": "China",
        "col2": "China women's national volleyball team",
        "col3": "Dalian, China",
        "col4": "1980-09-29"
    },
    {
        "col0": "L. E. Eve",
        "col1": "Dominican Republic",
        "col2": "Dominican Republic women's national volleyball team",
        "col3": "Dominican Republic",
        "col4": "1991-09-10"
    },
    {
        "col0": "L. Izquierdo",
        "col1": "Germany",
        "col2": "Germany women's national volleyball team",
        "col3": "Stassfurt",
        "col4": "1989-08-29"
    },
    {
        "col0": "L. Dorendahl",
        "col1": "Germany",
        "col2": "Germany women's national volleyball team",
        "col3": "Berlin",
        "col4": "1984-07-20"
    },
    {
        "col0": "L. Hyo-sook",
        "col1": "Korea",
        "col2": "South Korea women's national volleyball team",
        "col3": "Busan",
        "col4": "1982-04-26"
    },
    {
        "col0": "L. Vindevoghel",
        "col1": "Belgium",
        "col2": "Belgium women's national volleyball team",
        "col3": "Ghent",
        "col4": "1979-12-29"
    },
    {
        "col0": "L. Maksimenko",
        "col1": "Azerbaijan",
        "col2": "Azerbaijan women's national volleyball team",
        "col3": "Zaporizhia",
        "col4": "1981-03-19"
    },
    {
        "col0": "L. Tuifua",
        "col1": "France",
        "col2": "France women's national volleyball team",
        "col3": "Mata-Utu",
        "col4": "1986-10-17"
    },
    {
        "col0": "L. Hage",
        "col1": "Brazil",
        "col2": "Brazil women's national volleyball team",
        "col3": "Araraquara",
        "col4": "1990-09-09"
    },
    {
        "col0": "L. Camera",
        "col1": "Italy",
        "col2": "Italy women's national volleyball team",
        "col3": "Acqui Terme",
        "col4": "1992-10-01"
    },
    {
        "col0": "L. Hage",
        "col1": "Brazil",
        "col2": "Brazil women's national volleyball team",
        "col3": "Araraquara",
        "col4": "1990-09-09"
    },
    {
        "col0": "L. Makhno",
        "col1": "Russia",
        "col2": "Russia",
        "col3": "Poltava Oblast",
        "col4": "1981-09-04"
    },
    {
        "col0": "L. Turiaf",
        "col1": "France",
        "col2": "France women's national volleyball team",
        "col3": "Grand-Bourg",
        "col4": "1986-05-15"
    },
    {
        "col0": "L. Schwertmann",
        "col1": "Germany",
        "col2": "Germany women's national volleyball team",
        "col3": "Battenberg",
        "col4": "1994-02-12"
    },
    {
        "col0": "L. Morsut",
        "col1": "Italy",
        "col2": "Italy men's national volleyball team",
        "col3": "Padua",
        "col4": "1980-09-23"
    },
    {
        "col0": "L. Leyva",
        "col1": "Cubans",
        "col2": "Cuba men's national volleyball team",
        "col3": "Havana",
        "col4": "1990-03-23"
    },
    {
        "col0": "L. Sgroot",
        "col1": "Netherlands",
        "col2": "Netherlands women's national volleyball team",
        "col3": "Netherlands",
        "col4": "1986-02-26"
    },
    {
        "col0": "L. Stigrot",
        "col1": "Germany",
        "col2": "Germany women's national volleyball team",
        "col3": "Bad Tolz",
        "col4": "1994-12-20"
    },
    {
        "col0": "L. Mollers",
        "col1": "Germany",
        "col2": "Germany women's national volleyball team",
        "col3": "Bocholt, Germany",
        "col4": "1990-01-06"
    },
    {
        "col0": "L. Hernandez",
        "col1": "Puerto Rico",
        "col2": "Puerto Rico women's national volleyball team",
        "col3": "Camuy, Puerto Rico",
        "col4": "1991-07-18"
    },
    {
        "col0": "L. Jae-yeong",
        "col1": "Korea",
        "col2": "South Korea women's national volleyball team",
        "col3": "Jeonju",
        "col4": "1996-10-15"
    },
    {
        "col0": "L. In-koo",
        "col1": "Korea",
        "col2": "South Korea men's national volleyball team",
        "col3": "Daejeon",
        "col4": "1975-2-2"
    },
    {
        "col0": "L. Da-yeong",
        "col1": "Korea",
        "col2": "South Korea women's national volleyball team",
        "col3": "Jeonju",
        "col4": "1996-10-15"
    },
    {
        "col0": "Leandro Araujo da Silva",
        "col1": "Brazil",
        "col2": "Brazil men's national volleyball team",
        "col3": "Brazil",
        "col4": "1983-12-17"
    },
    {
        "col0": "L. Marin",
        "col1": "Cuba",
        "col2": "Cuba men's national volleyball team",
        "col3": "Cuba",
        "col4": "1967-3-30"
    },
    {
        "col0": "L. Lewis",
        "col1": "United States",
        "col2": "United States",
        "col3": "Palo Alto, California",
        "col4": "1949-12-20"
    },
    {
        "col0": "L. Delabarre",
        "col1": "France",
        "col2": "France women's national volleyball team",
        "col3": "Guingamp",
        "col4": "1987-04-24"
    },
    {
        "col0": "L. Truchetet",
        "col1": "France",
        "col2": "France women's national volleyball team",
        "col3": "Mulhouse",
        "col4": "1984-04-07"
    },
    {
        "col0": "L. Tillie",
        "col1": "France",
        "col2": "France men's national volleyball team",
        "col3": "Algiers",
        "col4": "1963-12-01"
    },
    {
        "col0": "L. Paolini",
        "col1": "United States",
        "col2": "United States women's national volleyball team",
        "col3": "Ann Arbor, Michigan",
        "col4": "1987-08-22"
    },
    {
        "col0": "L. Bertolacci",
        "col1": "Australia",
        "col2": "Australia women's national volleyball team",
        "col3": "Keilor, Victoria",
        "col4": "1985-01-26"
    },
    {
        "col0": "L. Partenio",
        "col1": "Italy",
        "col2": "Italy women's national volleyball team",
        "col3": "Venice",
        "col4": "1991-12-29"
    },
    {
        "col0": "L. Ong",
        "col1": "France",
        "col2": "France women's national volleyball team",
        "col3": "Ivry-sur-Seine",
        "col4": "1989-04-30"
    },
    {
        "col0": "L. Melandri",
        "col1": "Italy",
        "col2": "Italy women's national volleyball team",
        "col3": "Lugo, Emilia-Romagna",
        "col4": "1995-01-31"
    },
    {
        "col0": "L. Ludwig",
        "col1": "Germany",
        "col2": "Germany",
        "col3": "Berlin",
        "col4": "1986-01-13"
    },
    {
        "col0": "L. Heyrman",
        "col1": "Belgium",
        "col2": "Belgium women's national volleyball team",
        "col3": "Belgium",
        "col4": "1993-05-17"
    },
    {
        "col0": "L. Dijkema",
        "col1": "Netherlands",
        "col2": "Netherlands women's national volleyball team",
        "col3": "Netherlands",
        "col4": "1990-02-18"
    },
    {
        "col0": "L. D. Lloreda",
        "col1": "Mexico",
        "col2": "Mexico women's national volleyball team",
        "col3": "Puerto Rico",
        "col4": "1981-04-30"
    },
    {
        "col0": "L. Marrero",
        "col1": "Puerto Rico",
        "col2": "Puerto Rico women's national volleyball team",
        "col3": "Naranjito, Puerto Rico",
        "col4": "1987-08-03"
    },
    {
        "col0": "L. Lorsheijd",
        "col1": "Netherlands",
        "col2": "Netherlands men's national volleyball team",
        "col3": "Leidschendam",
        "col4": "1985-06-08"
    },
    {
        "col0": "L. Scuka",
        "col1": "Slovenia",
        "col2": "Slovenia women's national volleyball team",
        "col3": "Ljubljana",
        "col4": "1986-10-06"
    },
    {
        "col0": "L. Silva",
        "col1": "Brazil",
        "col2": "Brazil women's national volleyball team",
        "col3": "Ibitinga",
        "col4": "1985-03-01"
    },
    {
        "col0": "K. Shibata",
        "col1": "Japan",
        "col2": "Japan men's national volleyball team",
        "col3": "Chikusei, Ibaraki",
        "col4": "1981-06-24"
    },
    {
        "col0": "K. Caldwell",
        "col1": "United States",
        "col2": "United States men's national volleyball team",
        "col3": "Newport Beach, California",
        "col4": "1990-03-15"
    },
    {
        "col0": "K. Richey",
        "col1": "Canada",
        "col2": "Canada women's national volleyball team",
        "col3": "Langley, British Columbia",
        "col4": "1989-06-20"
    },
    {
        "col0": "K. Shibata",
        "col1": "Japan",
        "col2": "Japan men's national volleyball team",
        "col3": "Chikusei, Ibaraki",
        "col4": "1981-06-24"
    },
    {
        "col0": "K. Kaewpin",
        "col1": "Thailand",
        "col2": "Thailand women's national volleyball team",
        "col3": "Thailand",
        "col4": "1994-08-16"
    },
    {
        "col0": "K. Sakamoto",
        "col1": "Japan",
        "col2": "Japan women's national volleyball team",
        "col3": "Kasuya District, Fukuoka",
        "col4": "1972-12-13"
    },
    {
        "col0": "K. Ilchenko",
        "col1": "Russia",
        "col2": "Russia women's national volleyball team",
        "col3": "Yekaterinburg",
        "col4": "1994-10-31"
    },
    {
        "col0": "K. Strasz",
        "col1": "Poland",
        "col2": "Poland women's national volleyball team",
        "col3": "Sosnowiec",
        "col4": "1987-07-24"
    },
    {
        "col0": "K. Esdelle",
        "col1": "Trinidad and Tobago",
        "col2": "Trinidad and Tobago women's national volleyball team",
        "col3": "San Fernando, Trinidad and Tobago",
        "col4": "1984-08-01"
    },
    {
        "col0": "K. Hoho",
        "col1": "Belgium",
        "col2": "Belgium men's national volleyball team",
        "col3": "Maaseik",
        "col4": "1980-08-07"
    },
    {
        "col0": "K. Valjas",
        "col1": "Canada",
        "col2": "Canada",
        "col3": "Toronto",
        "col4": "1987-06-02"
    },
    {
        "col0": "K. Mikhailenko",
        "col1": "Belarus",
        "col2": "Belarus women's national volleyball team",
        "col3": "Minsk",
        "col4": "1992-02-26"
    },
    {
        "col0": "Kristian van der Wel",
        "col1": "Netherlands",
        "col2": "Netherlands men's national volleyball team",
        "col3": "Gouda, South Holland",
        "col4": "1978-07-10"
    },
    {
        "col0": "K. Knudsen",
        "col1": "Denmark",
        "col2": "Denmark men's national volleyball team",
        "col3": "Kolding",
        "col4": "1979-08-01"
    },
    {
        "col0": "K. Marbach",
        "col1": "Switzerland",
        "col2": "Switzerland women's national volleyball team",
        "col3": "Dudingen",
        "col4": "1988-11-14"
    },
    {
        "col0": "K. Vansant",
        "col1": "United States",
        "col2": "United States women's national volleyball team",
        "col3": "Whittier, California",
        "col4": "1993-03-31"
    },
    {
        "col0": "K. Stefanov",
        "col1": "Bulgaria",
        "col2": "Bulgaria men's national volleyball team",
        "col3": "Plovdiv",
        "col4": "1977-12-27"
    },
    {
        "col0": "K. Gaydarski",
        "col1": "Bulgaria women's national volleyball team",
        "col2": "Bulgaria women's national volleyball team",
        "col3": "Bulgaria",
        "col4": "1983-02-23"
    },
    {
        "col0": "K. Tominaga",
        "col1": "Japan",
        "col2": "Japan women's national volleyball team",
        "col3": "Komae, Tokyo",
        "col4": "1989-05-01"
    },
    {
        "col0": "K. Tomonaga",
        "col1": "Japan women's national volleyball team",
        "col2": "Japan women's national volleyball team",
        "col3": "Omura, Nagasaki",
        "col4": "1980-07-22"
    },
    {
        "col0": "K. Ki-lan",
        "col1": "Korea",
        "col2": "South Korea women's national volleyball team",
        "col3": "Masan",
        "col4": "1977-03-10"
    },
    {
        "col0": "K. Bon-wang",
        "col1": "Korea",
        "col2": "South Korea men's national volleyball team",
        "col3": "Yongin",
        "col4": "1972-05-18"
    },
    {
        "col0": "K. Apinyapong",
        "col1": "Thailand",
        "col2": "Thailand women's national volleyball team",
        "col3": "Thailand",
        "col4": "1987-11-24"
    },
    {
        "col0": "K. Prousalis",
        "col1": "Greece women's national volleyball team",
        "col2": "Greece women's national volleyball team",
        "col3": "Veria",
        "col4": "1980-10-06"
    },
    {
        "col0": "K. Christofidelis",
        "col1": "Greece women's national volleyball team",
        "col2": "Greece women's national volleyball team",
        "col3": "Kavala",
        "col4": "1971-06-26"
    },
    {
        "col0": "K. Ushakov",
        "col1": "Russia",
        "col2": "Commonwealth of Independent States",
        "col3": "Omsk",
        "col4": "1970-3-24"
    },
    {
        "col0": "K. Shumov",
        "col1": "Finland",
        "col2": "Finland men's national volleyball team",
        "col3": "Moscow",
        "col4": "1985-2-15"
    },
    {
        "col0": "K. Bakun",
        "col1": "Russia",
        "col2": "Russia men's national volleyball team",
        "col3": "Donetsk",
        "col4": "1985-03-15"
    },
    {
        "col0": "K. Koga",
        "col1": "Japan",
        "col2": "Japan men's national volleyball team",
        "col3": "Sasebo, Nagasaki",
        "col4": "1984-08-30"
    },
    {
        "col0": "K. Sikkes",
        "col1": "Netherlands",
        "col2": "Netherlands women's national volleyball team",
        "col3": "Oudehaske",
        "col4": "1993-04-07"
    },
    {
        "col0": "K. Sanders",
        "col1": "Netherlands",
        "col2": "Netherlands women's national volleyball team",
        "col3": "Ootmarsum",
        "col4": "1980-04-04"
    },
    {
        "col0": "K. Phansamdaeng",
        "col1": "Thailand",
        "col2": "Thailand women's national volleyball team",
        "col3": "Thailand",
        "col4": "1988-01-04"
    },
    {
        "col0": "K. Gleis",
        "col1": "Netherlands",
        "col2": "Netherlands women's national volleyball team",
        "col3": "Enschede",
        "col4": "1969-05-22"
    },
    {
        "col0": "K. Walkenhorst",
        "col1": "Germany",
        "col2": "Germany",
        "col3": "Essen",
        "col4": "1990-11-18"
    },
    {
        "col0": "K. Kasprzak",
        "col1": "Poland",
        "col2": "Poland women's national volleyball team",
        "col3": "Szczecin",
        "col4": "1987-06-12"
    },
    {
        "col0": "K. Yo-han",
        "col1": "Korean people",
        "col2": "South Korea women's national volleyball team",
        "col3": "Korea",
        "col4": "1985-08-16"
    },
    {
        "col0": "K. Yeon-koung",
        "col1": "Korean people",
        "col2": "South Korea women's national volleyball team",
        "col3": "Korea",
        "col4": "1988-02-26"
    },
    {
        "col0": "K. Se-young",
        "col1": "Korea",
        "col2": "South Korea women's national volleyball team",
        "col3": "Busan",
        "col4": "1981-06-04"
    },
    {
        "col0": "K. Sa-nee",
        "col1": "Korean people",
        "col2": "South Korea women's national volleyball team",
        "col3": "Korea",
        "col4": "1981-06-21"
    },
    {
        "col0": "K. Renkema",
        "col1": "Netherlands",
        "col2": "Netherlands women's national volleyball team",
        "col3": "Hoogeveen",
        "col4": "1987-08-26"
    },
    {
        "col0": "K. Hee-jin",
        "col1": "Korea",
        "col2": "South Korea women's national volleyball team",
        "col3": "Korea",
        "col4": "1991-04-29"
    },
    {
        "col0": "K. Hak-min",
        "col1": "Korea",
        "col2": "South Korea men's national volleyball team",
        "col3": "Suwon",
        "col4": "1983-09-04"
    },
    {
        "col0": "K. Chul-soo",
        "col1": "Korea",
        "col2": "South Korea men's national volleyball team",
        "col3": "North Jeolla Province",
        "col4": "1970-08-13"
    },
    {
        "col0": "K. Byung-sun",
        "col1": "Korea",
        "col2": "South Korea men's national volleyball team",
        "col3": "Busan",
        "col4": "1973-01-03"
    },
    {
        "col0": "K. O'Malley",
        "col1": "United Kingdom",
        "col2": "Great Britain men's national volleyball team",
        "col3": "Halifax, West Yorkshire",
        "col4": "1988-05-12"
    },
    {
        "col0": "K. Pinsuwan",
        "col1": "Thailand",
        "col2": "Thailand women's national volleyball team",
        "col3": "Thailand",
        "col4": "1994-10-30"
    },
    {
        "col0": "K. B. Slimene",
        "col1": "Tunisia",
        "col2": "Tunisia men's national volleyball team",
        "col3": "Kelibia",
        "col4": "1994-12-14"
    },
    {
        "col0": "K. Pinerua",
        "col1": "Venezuela",
        "col2": "Venezuela men's national volleyball team",
        "col3": "Caracas",
        "col4": "1991-02-22"
    },
    {
        "col0": "K. Moreno",
        "col1": "Colombia",
        "col2": "Colombia women's national volleyball team",
        "col3": "Colombia",
        "col4": "1979-01-06"
    },
    {
        "col0": "K. Yamamoto",
        "col1": "Japan",
        "col2": "Japan men's national volleyball team",
        "col3": "Asaminami-ku, Hiroshima",
        "col4": "1970-2-12"
    },
    {
        "col0": "K. Moreta",
        "col1": "Dominican Republic",
        "col2": "Dominican Republic women's national volleyball team",
        "col3": "Santo Domingo",
        "col4": "1981-04-07"
    },
    {
        "col0": "K. Carcaces",
        "col1": "Cuba",
        "col2": "Cuba women's national volleyball team",
        "col3": "Cuba",
        "col4": "1986-01-22"
    },
    {
        "col0": "K. Takahashi",
        "col1": "Japan",
        "col2": "Japan men's national volleyball team",
        "col3": "Itabashi",
        "col4": "1988-12-22"
    },
    {
        "col0": "K. Sanheim",
        "col1": "Canada",
        "col2": "Canada men's national volleyball team",
        "col3": "Regina, Saskatchewan",
        "col4": "1970-03-01"
    },
    {
        "col0": "K. Imai",
        "col1": "Japan",
        "col2": "Japan men's national volleyball team",
        "col3": "Nishinomiya",
        "col4": "1980-02-05"
    },
    {
        "col0": "K. Rodriguez",
        "col1": "Puerto Rico",
        "col2": "Puerto Rico women's national volleyball team",
        "col3": "Caguas, Puerto Rico",
        "col4": "1992-10-26"
    },
    {
        "col0": "K. Burdine",
        "col1": "United States",
        "col2": "United States women's national volleyball team",
        "col3": "Long Beach, California",
        "col4": "1983-01-02"
    },
    {
        "col0": "K. Yokota",
        "col1": "Japan",
        "col2": "Japan men's national volleyball team",
        "col3": "Otsu",
        "col4": "1986-05-01"
    },
    {
        "col0": "K. Matsukawa",
        "col1": "Japan",
        "col2": "Japan women's national volleyball team",
        "col3": "Ashibetsu, Hokkaido",
        "col4": "1970-01-07"
    },
    {
        "col0": "K. Yoneyama",
        "col1": "Japan",
        "col2": "Japan men's national volleyball team",
        "col3": "Tokyo",
        "col4": "1961-09-12"
    },
    {
        "col0": "K. Maeda",
        "col1": "Japan",
        "col2": "Japan men's national volleyball team",
        "col3": "Nanao, Ishikawa",
        "col4": "1983-08-17"
    },
    {
        "col0": "K. Medved",
        "col1": "Slovenia",
        "col2": "Slovenia women's national volleyball team",
        "col3": "Celje",
        "col4": "1986-03-20"
    },
    {
        "col0": "K. Luraschi",
        "col1": "Italy",
        "col2": "Italy women's national volleyball team",
        "col3": "Riva del Garda",
        "col4": "1986-01-06"
    },
    {
        "col0": "K. Olsovsky",
        "col1": "United States",
        "col2": "United States women's national volleyball team",
        "col3": "Torrance, California",
        "col4": "1982-01-03"
    },
    {
        "col0": "K. Regalado",
        "col1": "Peru",
        "col2": "Peru women's national volleyball team",
        "col3": "Lima",
        "col4": "1998-03-11"
    },
    {
        "col0": "K. Buckova",
        "col1": "Czech Republic",
        "col2": "Czech Republic women's national volleyball team",
        "col3": "Nachod",
        "col4": "1978-04-28"
    },
    {
        "col0": "K. Zaroslinska",
        "col1": "Poland",
        "col2": "Poland women's national volleyball team",
        "col3": "Gorzow Wielkopolski",
        "col4": "1987-02-03"
    },
    {
        "col0": "K. Wellna",
        "col1": "Poland",
        "col2": "Poland women's national volleyball team",
        "col3": "Zlotow",
        "col4": "1985-03-22"
    },
    {
        "col0": "K. Skorupa",
        "col1": "Poland women's national volleyball team",
        "col2": "Poland women's national volleyball team",
        "col3": "Radom",
        "col4": "1984-09-16"
    },
    {
        "col0": "K. Polec",
        "col1": "Poland",
        "col2": "Poland women's national volleyball team",
        "col3": "Ustka",
        "col4": "1989-02-13"
    },
    {
        "col0": "K. Mroczkowska",
        "col1": "Poland",
        "col2": "Poland women's national volleyball team",
        "col3": "Jawor",
        "col4": "1980-12-30"
    },
    {
        "col0": "K. Jaszewska",
        "col1": "Poland",
        "col2": "Poland women's national volleyball team",
        "col3": "Lodz",
        "col4": "1981-12-06"
    },
    {
        "col0": "K. Gujska",
        "col1": "Poland",
        "col2": "Poland women's national volleyball team",
        "col3": "Slupsk",
        "col4": "1975-02-15"
    },
    {
        "col0": "K. Barun-A uA!njar",
        "col1": "Croatia",
        "col2": "Croatia women's national volleyball team",
        "col3": "Zagreb",
        "col4": "1983-12-01"
    },
    {
        "col0": "K. Bednarova",
        "col1": "Czech Republic",
        "col2": "Czech Republic women's national volleyball team",
        "col3": "Frydlant",
        "col4": "1986-07-20"
    },
    {
        "col0": "K. Rozycka",
        "col1": "Poland",
        "col2": "Poland women's national volleyball team",
        "col3": "Myslenice",
        "col4": "1985-06-28"
    },
    {
        "col0": "K. Goliat",
        "col1": "Belgium",
        "col2": "Belgium women's national volleyball team",
        "col3": "Sint-Niklaas",
        "col4": "1996-10-25"
    },
    {
        "col0": "K. Ciaszkiewicz",
        "col1": "Poland",
        "col2": "Poland women's national volleyball team",
        "col3": "Wroclaw",
        "col4": "1979-09-07"
    },
    {
        "col0": "K. Bednarova",
        "col1": "Czech Republic",
        "col2": "Czech Republic women's national volleyball team",
        "col3": "Frydlant",
        "col4": "1986-07-20"
    },
    {
        "col0": "K. Ortiz",
        "col1": "Peru",
        "col2": "Peru women's national volleyball team",
        "col3": "Lima",
        "col4": "1991-10-20"
    },
    {
        "col0": "K. Echenique",
        "col1": "Dominican Republic",
        "col2": "Dominican Republic women's national volleyball team",
        "col3": "Santo Domingo",
        "col4": "1986-05-16"
    },
    {
        "col0": "K. Salinas",
        "col1": "France",
        "col2": "France women's national volleyball team",
        "col3": "Mont-Saint-Aignan",
        "col4": "1973-03-05"
    },
    {
        "col0": "K. Muijlwijk",
        "col1": "Netherlands",
        "col2": "Netherlands women's national volleyball team",
        "col3": "Gouda, South Holland",
        "col4": "1988-02-16"
    },
    {
        "col0": "K. Horninger",
        "col1": "Germany",
        "col2": "Germany women's national volleyball team",
        "col3": "Munich",
        "col4": "1971-06-18"
    },
    {
        "col0": "K. Charles",
        "col1": "Costa Rica",
        "col2": "Costa Rica women's national volleyball team",
        "col3": "San Jose, Costa Rica",
        "col4": "1985-11-06"
    },
    {
        "col0": "K. Thipachot",
        "col1": "Thailand",
        "col2": "Thailand women's national volleyball team",
        "col3": "Thailand",
        "col4": "1993-05-03"
    },
    {
        "col0": "K. Juangjan",
        "col1": "Thailand",
        "col2": "Thailand women's national volleyball team",
        "col3": "Thailand",
        "col4": "1998-01-16"
    },
    {
        "col0": "K. Tashiro",
        "col1": "Japan women's national volleyball team",
        "col2": "Japan women's national volleyball team",
        "col3": "Ritto, Shiga",
        "col4": "1991-03-25"
    },
    {
        "col0": "K. Naito",
        "col1": "Japan",
        "col2": "Japan women's national volleyball team",
        "col3": "Kofu",
        "col4": "1980-11-04"
    },
    {
        "col0": "K. Ono",
        "col1": "Japan",
        "col2": "Japan women's national volleyball team",
        "col3": "Misawa, Aomori",
        "col4": "1992-06-30"
    },
    {
        "col0": "K. Droszynski",
        "col1": "Poland",
        "col2": "Poland men's national under-19 volleyball team",
        "col3": "Poland",
        "col4": "1997-01-28"
    },
    {
        "col0": "K. Baranek",
        "col1": "Czech Republic",
        "col2": "Czech Republic men's national volleyball team",
        "col3": "Valtice",
        "col4": "1983-05-02"
    },
    {
        "col0": "K. Alexoudis",
        "col1": "Greece",
        "col2": "Greece men's national volleyball team",
        "col3": "Soufli",
        "col4": "1961-02-24"
    },
    {
        "col0": "K. Grobelna",
        "col1": "Belgium",
        "col2": "Belgium women's national volleyball team",
        "col3": "Radom",
        "col4": "1995-01-04"
    },
    {
        "col0": "K. Arbouche",
        "col1": "Algeria",
        "col2": "Algeria women's national volleyball team",
        "col3": "Bejaia",
        "col4": "1993-09-04"
    },
    {
        "col0": "K. Kamulthala",
        "col1": "Thailand",
        "col2": "Thailand women's national volleyball team",
        "col3": "Thailand",
        "col4": "1994-08-07"
    },
    {
        "col0": "K. Zakreuskaja",
        "col1": "Belarus",
        "col2": "Belarus women's national volleyball team",
        "col3": "Grodno",
        "col4": "1986-09-29"
    },
    {
        "col0": "J. Gruszczynski",
        "col1": "Poland",
        "col2": "Poland men's national under-19 volleyball team",
        "col3": "Poland",
        "col4": "1997-11-13"
    },
    {
        "col0": "J. Sabo",
        "col1": "Slovakia",
        "col2": "Slovakia men's national volleyball team",
        "col3": "Detva",
        "col4": "1983-01-21"
    },
    {
        "col0": "J. Rivero",
        "col1": "Spain",
        "col2": "Spain women's national volleyball team",
        "col3": "Camaguey",
        "col4": "1995-03-15"
    }
]