[
    {
        "col0": "Shakugan no Shana",
        "col1": "ASCII Media Works",
        "col2": "Dengeki Daioh",
        "col3": "2002-11-09",
        "col4": "2012-11-10"
    },
    {
        "col0": "Shakotan Boogie",
        "col1": "Kodansha",
        "col2": "Young Magazine",
        "col3": "1986-03-01",
        "col4": "1996-08-06"
    },
    {
        "col0": "Shadow Star",
        "col1": "Kodansha",
        "col2": "Afternoon",
        "col3": "1998-03-25",
        "col4": "2003-10-25"
    },
    {
        "col0": "Sexy Voice and Robo",
        "col1": "Shogakukan",
        "col2": "Ikki",
        "col3": "2000-12-30",
        "col4": "2003-02-01"
    },
    {
        "col0": "Seven of Seven",
        "col1": "Akita Shoten",
        "col2": "Weekly Shonen Champion",
        "col3": "2001-11-08",
        "col4": "2002-05-25"
    },
    {
        "col0": "Senran Kagura",
        "col1": "Enterbrain",
        "col2": "Comic Rex",
        "col3": "2011-08-19",
        "col4": "2012-02-17"
    },
    {
        "col0": "Sekirei",
        "col1": "Square Enix",
        "col2": "Young Gangan",
        "col3": "2004-12-03",
        "col4": "2015-08-21"
    },
    {
        "col0": "School Rumble",
        "col1": "Kodansha",
        "col2": "Weekly Shonen Magazine",
        "col3": "2002-10-22",
        "col4": "2009-05-20"
    },
    {
        "col0": "School Days",
        "col1": "Kadokawa Shoten",
        "col2": "Comp Ace",
        "col3": "2006-05-26",
        "col4": "2007-09-26"
    },
    {
        "col0": "Sazae-san",
        "col1": "Kodansha",
        "col2": "Asahi Shinbun",
        "col3": "1946-04-22",
        "col4": "1974-02-21"
    },
    {
        "col0": "Sayonara Sorcier",
        "col1": "Shogakukan",
        "col2": "Flowers",
        "col3": "2013-05-10",
        "col4": "2013-11-08"
    },
    {
        "col0": "Sayonara, Zetsubou-Sensei",
        "col1": "Kodansha",
        "col2": "Weekly Shonen Magazine",
        "col3": "2005-04-27",
        "col4": "2012-06-13"
    },
    {
        "col0": "Saturn Apartments",
        "col1": "Shogakukan",
        "col2": "Ikki",
        "col3": "2006-10-30",
        "col4": "2011-08-30"
    },
    {
        "col0": "Sasami: Magical Girls Club",
        "col1": "Kadokawa Shoten",
        "col2": "Monthly Dragon Age",
        "col3": "2005-12-09",
        "col4": "2006-04-08"
    },
    {
        "col0": "Sasami-san@Ganbaranai",
        "col1": "Shogakukan",
        "col2": "Weekly Shonen Sunday",
        "col3": "2009-12-18",
        "col4": "2013-09-24"
    },
    {
        "col0": "Sankarea: Undying Love",
        "col1": "Kodansha",
        "col2": "Bessatsu Shonen Magazine",
        "col3": "2009-12-09",
        "col4": "2014-09-09"
    },
    {
        "col0": "Samurai Harem: Asu no Yoichi",
        "col1": "Akita Shoten",
        "col2": "Monthly Shonen Champion",
        "col3": "2006-10-06",
        "col4": "2011-03-08"
    },
    {
        "col0": "Samurai Deeper Kyo",
        "col1": "Kodansha",
        "col2": "Weekly Shonen Magazine",
        "col3": "1999-10-15",
        "col4": "2006-05-10"
    },
    {
        "col0": "Samurai Champloo",
        "col1": "Kadokawa Shoten",
        "col2": "Monthly Shonen Ace",
        "col3": "2004-01-26",
        "col4": "2004-09-26"
    },
    {
        "col0": "Salad Days",
        "col1": "Shogakukan",
        "col2": "Weekly Shonen Sunday",
        "col3": "1998-05-18",
        "col4": "2002-02-19"
    },
    {
        "col0": "Sakurada Reset",
        "col1": "Kadokawa Shoten",
        "col2": "Monthly Shonen Ace",
        "col3": "2009-05-30",
        "col4": "2012-03-31"
    },
    {
        "col0": "Sakura no Uta",
        "col1": "Kadokawa Shoten",
        "col2": "Comp Ace",
        "col3": "2005-03-26",
        "col4": "2006-03-26"
    },
    {
        "col0": "Saiyuki",
        "col1": "Enix",
        "col2": "Monthly Comic Zero Sum",
        "col3": "1997-02-18",
        "col4": "2002-01-18"
    },
    {
        "col0": "Saint Seiya Episode.G",
        "col1": "Akita Shoten",
        "col2": "Champion Red",
        "col3": "2002-12-19",
        "col4": "2008-01-19"
    },
    {
        "col0": "Saint Seiya: The Lost Canvas",
        "col1": "Akita Shoten",
        "col2": "Akita Shoten",
        "col3": "2006-08-24",
        "col4": "2011-04-06"
    },
    {
        "col0": "Saint Seiya",
        "col1": "Shueisha",
        "col2": "Weekly Shonen Jump",
        "col3": "1986-01-01",
        "col4": "1990-12-12"
    },
    {
        "col0": "Sailor Moon",
        "col1": "Kodansha",
        "col2": "Nakayoshi",
        "col3": "1991-12-28",
        "col4": "1997-02-03"
    },
    {
        "col0": "Saikano",
        "col1": "Shogakukan",
        "col2": "Big Comic Spirits",
        "col3": "2000-05-30",
        "col4": "2001-12-25"
    },
    {
        "col0": "Saekano: How to Raise a Boring Girlfriend",
        "col1": "Kadokawa Shoten",
        "col2": "Gangan Comics",
        "col3": "2012-07-20",
        "col4": "2014-05-02"
    },
    {
        "col0": "S * A: Special A",
        "col1": "Hakusensha",
        "col2": "Hana to Yume",
        "col3": "2003-04-01",
        "col4": "2009-03-19"
    },
    {
        "col0": "Rurouni Kenshin",
        "col1": "Shueisha",
        "col2": "Weekly Shonen Jump",
        "col3": "1994-04-25",
        "col4": "1999-11-04"
    },
    {
        "col0": "Rozen Maiden",
        "col1": "Shueisha",
        "col2": "Weekly Young Jump",
        "col3": "2002-08-12",
        "col4": "2007-05-30"
    },
    {
        "col0": "Rose Guns Days",
        "col1": "Kodansha",
        "col2": "GFantasy",
        "col3": "2012-12-25",
        "col4": "2013-10-25"
    },
    {
        "col0": "Rosario + Vampire",
        "col1": "Shueisha",
        "col2": "Jump Square",
        "col3": "2008-04-04",
        "col4": "2007-10-04"
    },
    {
        "col0": "Rookies",
        "col1": "Shueisha",
        "col2": "Weekly Shonen Jump",
        "col3": "1998-06-04",
        "col4": "2003-11-04"
    },
    {
        "col0": "Rocket Girls",
        "col1": "Viz Media",
        "col2": "Monthly Dragon Magazine",
        "col3": "1995-03-25",
        "col4": "2007-08-25"
    },
    {
        "col0": "Ro-Kyu-Bu!",
        "col1": "ASCII Media Works",
        "col2": "Dengeki Moeoh",
        "col3": "2009-02-10",
        "col4": "2015-07-10"
    },
    {
        "col0": "Rescue Me!",
        "col1": "Akita Shoten",
        "col2": "Champion Red Ichigo",
        "col3": "2008-08-05",
        "col4": "2014-08-05"
    },
    {
        "col0": "Rental Magica",
        "col1": "Kadokawa Shoten",
        "col2": "Monthly Asuka",
        "col3": "2004-08-31",
        "col4": "2008-04-26"
    },
    {
        "col0": "Reideen",
        "col1": "Kadokawa Shoten",
        "col2": "Shonen Ace",
        "col3": "2006-11-25",
        "col4": "2007-07-26"
    },
    {
        "col0": "Red Garden",
        "col1": "Gentosha",
        "col2": "Comic Birz",
        "col3": "2006-08-30",
        "col4": "2009-01-30"
    },
    {
        "col0": "Red Data Girl",
        "col1": "Kadokawa Shoten",
        "col2": "Shonen Ace",
        "col3": "2008-07-04",
        "col4": "2012-11-29"
    },
    {
        "col0": "Recently, My Sister Is Unusual",
        "col1": "Fujimi Shobo",
        "col2": "Monthly Dragon Age",
        "col3": "2010-11-09",
        "col4": "2016-05-09"
    },
    {
        "col0": "Reborn!",
        "col1": "Shueisha",
        "col2": "Weekly Shonen Jump",
        "col3": "2004-05-04",
        "col4": "2011-05-02"
    },
    {
        "col0": "Re:Zero -Starting Life in Another World-",
        "col1": "Square Enix",
        "col2": "Gangan Comics",
        "col3": "2012-04-20",
        "col4": "2015-02-27"
    },
    {
        "col0": "Ral Grad",
        "col1": "Shueisha",
        "col2": "Weekly Shonen Jump",
        "col3": "2006-12-04",
        "col4": "2007-07-09"
    },
    {
        "col0": "Rainbow Prelude",
        "col1": "Kodansha",
        "col2": "Nakayoshi",
        "col3": "1958-01-01",
        "col4": "1975-10-26"
    },
    {
        "col0": "Rainbow Parakeet",
        "col1": "Akita Shoten",
        "col2": "Weekly Shonen Champion",
        "col3": "1981-03-20",
        "col4": "1983-05-28"
    },
    {
        "col0": "R-15",
        "col1": "Kadokawa Shoten",
        "col2": "Monthly Shonen Ace",
        "col3": "2009-07-01",
        "col4": "2012-08-01"
    },
    {
        "col0": "Queen Millennia",
        "col1": "Shueisha",
        "col2": "Sankei Shimbun",
        "col3": "1980-01-28",
        "col4": "1983-05-11"
    },
    {
        "col0": "Queen's Blade",
        "col1": "ASCII Media Works",
        "col2": "Comp Ace",
        "col3": "2007-05-01",
        "col4": "2008-11-01"
    },
    {
        "col0": "QQ Sweeper",
        "col1": "Shogakukan",
        "col2": "Betsucomi",
        "col3": "2014-03-13",
        "col4": "2015-05-13"
    },
    {
        "col0": "Purple Eyes in the Dark",
        "col1": "Shogakukan",
        "col2": "Shojo Comic",
        "col3": "1984-10-26",
        "col4": "1987-02-26"
    },
    {
        "col0": "Pupa",
        "col1": "Earth Star Entertainment",
        "col2": "Comic Earth Star",
        "col3": "2011-03-12",
        "col4": "2013-12-12"
    },
    {
        "col0": "Psyren",
        "col1": "Shueisha",
        "col2": "Weekly Shonen Jump",
        "col3": "2007-12-03",
        "col4": "2010-11-29"
    },
    {
        "col0": "Psychometrer Eiji",
        "col1": "Kodansha",
        "col2": "Weekly Shonen Magazine",
        "col3": "2011-04-25",
        "col4": "2016-08-29"
    },
    {
        "col0": "Problem Children Are Coming from Another World, Aren't They?",
        "col1": "Kadokawa Shoten",
        "col2": "Comp Ace",
        "col3": "2011-04-01",
        "col4": "2015-04-01"
    },
    {
        "col0": "Princess Comet",
        "col1": "Shueisha",
        "col2": "Margaret",
        "col3": "1967-06-10",
        "col4": "1967-11-11"
    },
    {
        "col0": "Prefectural Earth Defense Force",
        "col1": "Shogakukan",
        "col2": "Shonen Sunday Super",
        "col3": "1983-03-25",
        "col4": "1985-07-25"
    },
    {
        "col0": "Potemayo",
        "col1": "Futabasha",
        "col2": "Comic High!",
        "col3": "2004-07-09",
        "col4": "2011-01-22"
    },
    {
        "col0": "Portrait of M and N",
        "col1": "Hakusensha",
        "col2": "Hana to Yume",
        "col3": "2000-10-19",
        "col4": "2003-08-19"
    },
    {
        "col0": "Popotan",
        "col1": "Kodansha",
        "col2": "Magazine Z",
        "col3": "2002-06-20",
        "col4": "2002-08-22"
    },
    {
        "col0": "Pocket Monsters ReBURST",
        "col1": "Shogakukan",
        "col2": "Weekly Shonen Sunday",
        "col3": "2011-03-09",
        "col4": "2012-10-10"
    },
    {
        "col0": "Pluto",
        "col1": "Shogakukan",
        "col2": "Big Comic Original",
        "col3": "2003-09-09",
        "col4": "2009-04-05"
    },
    {
        "col0": "Please Save My Earth",
        "col1": "Hakusensha",
        "col2": "Hana to Yume",
        "col3": "1986-12-20",
        "col4": "1994-05-20"
    },
    {
        "col0": "Plawres Sanshiro",
        "col1": "Akita Shoten",
        "col2": "Weekly Shonen Champion",
        "col3": "1982-08-06",
        "col4": "1985-05-03"
    },
    {
        "col0": "Pita-Ten",
        "col1": "MediaWorks",
        "col2": "Dengeki Comic Gao!",
        "col3": "2002-04-10",
        "col4": "2003-02-10"
    },
    {
        "col0": "Photo Kano",
        "col1": "Enterbrain",
        "col2": "Young Animal",
        "col3": "2011-11-27",
        "col4": "2013-07-12"
    },
    {
        "col0": "Petit Eva: Evangelion@School",
        "col1": "Kadokawa Shoten",
        "col2": "Kerokero Ace",
        "col3": "2007-05-26",
        "col4": "2009-09-26"
    },
    {
        "col0": "Pearl Pink",
        "col1": "Hakusensha",
        "col2": "LaLa",
        "col3": "2002-04-24",
        "col4": "2004-04-24"
    },
    {
        "col0": "Parallel",
        "col1": "Kodansha",
        "col2": "Weekly Shonen Magazine",
        "col3": "2001-02-16",
        "col4": "2002-02-15"
    },
    {
        "col0": "Panty & Stocking with Garterbelt",
        "col1": "Kadokawa Shoten",
        "col2": "Young Ace",
        "col3": "2010-08-04",
        "col4": "2011-06-04"
    },
    {
        "col0": "Pandora Hearts",
        "col1": "Square Enix",
        "col2": "Monthly GFantasy",
        "col3": "2006-05-18",
        "col4": "2015-03-18"
    },
    {
        "col0": "Oyayubihime Infinity",
        "col1": "Akita Shoten",
        "col2": "Princess",
        "col3": "2004-04-01",
        "col4": "2006-05-16"
    },
    {
        "col0": "Over Rev!",
        "col1": "Shogakukan",
        "col2": "Weekly Young Sunday",
        "col3": "1997-05-05",
        "col4": "2004-11-05"
    },
    {
        "col0": "Outlaw Star",
        "col1": "Shueisha",
        "col2": "Ultra Jump",
        "col3": "1996-09-20",
        "col4": "1999-05-20"
    },
    {
        "col0": "Outbreak Company",
        "col1": "Kodansha",
        "col2": "Good! Afternoon",
        "col3": "2011-12-02",
        "col4": "2014-11-07"
    },
    {
        "col0": "Our Home's Fox Deity.",
        "col1": "ASCII Media Works",
        "col2": "Dengeki Daioh",
        "col3": "2004-02-10",
        "col4": "2013-05-27"
    },
    {
        "col0": "Otoko no Issho",
        "col1": "Shogakukan",
        "col2": "Flowers",
        "col3": "2009-03-10",
        "col4": "2012-09-24"
    },
    {
        "col0": "Othello",
        "col1": "Kodansha",
        "col2": "Bessatsu Friend",
        "col3": "2001-08-06",
        "col4": "2004-09-13"
    },
    {
        "col0": "Otaku no Musume-san",
        "col1": "Fujimi Shobo",
        "col2": "Monthly Dragon Age",
        "col3": "2006-12-01",
        "col4": "2011-10-08"
    },
    {
        "col0": "Osomatsu-kun",
        "col1": "Kodansha",
        "col2": "Weekly Shonen Sunday",
        "col3": "1962-04-15",
        "col4": "1969-01-15"
    },
    {
        "col0": "Orfina",
        "col1": "CMX",
        "col2": "Monthly Dragon Age",
        "col3": "1993-11-09",
        "col4": "2004-05-08"
    },
    {
        "col0": "Oreshura",
        "col1": "Square Enix",
        "col2": "Young Gangan",
        "col3": "2011-02-15",
        "col4": "2012-10-25"
    },
    {
        "col0": "Oreimo",
        "col1": "ASCII Media Works",
        "col2": "Dengeki G's Magazine",
        "col3": "2008-08-10",
        "col4": "2013-06-07"
    },
    {
        "col0": "Orange",
        "col1": "Shueisha",
        "col2": "Bessatsu Margaret",
        "col3": "2012-03-13",
        "col4": "2015-08-25"
    },
    {
        "col0": "Oniisama e...",
        "col1": "Shueisha",
        "col2": "Margaret",
        "col3": "1975-08-20",
        "col4": "1975-10-20"
    },
    {
        "col0": "Onihime VS",
        "col1": "Kill Time Communication",
        "col2": "Comic Valkyrie",
        "col3": "2008-09-30",
        "col4": "2012-11-02"
    },
    {
        "col0": "One Week Friends",
        "col1": "Square Enix",
        "col2": "Gangan Joker",
        "col3": "2012-01-21",
        "col4": "2015-01-22"
    },
    {
        "col0": "Omamori Himari",
        "col1": "Kadokawa Shoten",
        "col2": "Dragon Magazine",
        "col3": "2006-06-09",
        "col4": "2010-01-20"
    },
    {
        "col0": "Oira Sukeban",
        "col1": "Shogakukan",
        "col2": "Weekly Shonen Sunday",
        "col3": "1974-08-04",
        "col4": "1976-01-25"
    },
    {
        "col0": "Oh My Goddess!",
        "col1": "Kodansha",
        "col2": "Afternoon",
        "col3": "1988-09-24",
        "col4": "2014-04-25"
    },
    {
        "col0": "Ogre Slayer",
        "col1": "Shogakukan",
        "col2": "Shonen Sunday Super",
        "col3": "1992-02-18",
        "col4": "2001-04-18"
    },
    {
        "col0": "Oboreru Knife",
        "col1": "Kodansha",
        "col2": "Bessatsu Friend",
        "col3": "2004-10-13",
        "col4": "2013-12-13"
    },
    {
        "col0": "Nora: The Last Chronicle of Devildom",
        "col1": "Shueisha",
        "col2": "Monthly Shonen Jump",
        "col3": "2004-03-06",
        "col4": "2006-12-06"
    }
]