[
    {
        "col0": "P. Bordeleau",
        "col1": "Minnesota Wild",
        "col2": "Canada",
        "col3": "Cardiff Devils",
        "col4": "1986-03-23"
    },
    {
        "col0": "P. Cormier",
        "col1": "New Jersey Devils",
        "col2": "Canada",
        "col3": "Manitoba Moose",
        "col4": "1990-06-14"
    },
    {
        "col0": "P. Bergeron",
        "col1": "Boston Bruins",
        "col2": "Canada men's national ice hockey team",
        "col3": "Boston Bruins",
        "col4": "1985-07-24"
    },
    {
        "col0": "P. Hornqvist",
        "col1": "Nashville Predators",
        "col2": "Sollentuna Municipality",
        "col3": "Pittsburgh Penguins",
        "col4": "1987-01-01"
    },
    {
        "col0": "P. Vesterholm",
        "col1": "Vancouver Canucks",
        "col2": "Sweden",
        "col3": "Brynas IF",
        "col4": "1992-01-06"
    },
    {
        "col0": "P. Kavanagh",
        "col1": "Philadelphia Flyers",
        "col2": "Canada",
        "col3": "Vienna Capitals",
        "col4": "1979-03-14"
    },
    {
        "col0": "P. Salonen",
        "col1": "Washington Capitals",
        "col2": "Finland",
        "col3": "Assat",
        "col4": "1985-12-18"
    },
    {
        "col0": "P. Petrilainen",
        "col1": "New Jersey Devils",
        "col2": "Finland",
        "col3": "HDD Olimpija Ljubljana",
        "col4": "1978-05-05"
    },
    {
        "col0": "P. K. Subban",
        "col1": "Montreal Canadiens",
        "col2": "Toronto, Ontario",
        "col3": "Nashville Predators",
        "col4": "1989-05-13"
    },
    {
        "col0": "P. A. Parenteau",
        "col1": "Anaheim Ducks",
        "col2": "Hull, Quebec",
        "col3": "New Jersey Devils",
        "col4": "1983-03-24"
    },
    {
        "col0": "P. Backer",
        "col1": "Detroit Red Wings",
        "col2": "Sweden",
        "col3": "AaB Ishockey",
        "col4": "1982-01-04"
    },
    {
        "col0": "O. Fussey",
        "col1": "Washington Capitals",
        "col2": "Canada",
        "col3": "Coventry Blaze",
        "col4": "1983-04-02"
    },
    {
        "col0": "O. Koivula",
        "col1": "New York Islanders",
        "col2": "Nokia, Finland",
        "col3": "Ilves Tampere",
        "col4": "1998-09-01"
    },
    {
        "col0": "O. Louhivaara",
        "col1": "Ottawa Senators",
        "col2": "Finland",
        "col3": "JYP Jyvaskyla",
        "col4": "1983-08-31"
    },
    {
        "col0": "O. Bartulis",
        "col1": "Philadelphia Flyers",
        "col2": "Soviet Union",
        "col3": "Admiral Vladivostok",
        "col4": "1987-01-21"
    },
    {
        "col0": "O. Korpikari",
        "col1": "Montreal Canadiens",
        "col2": "Finland",
        "col3": "Jokerit",
        "col4": "1984-04-05"
    },
    {
        "col0": "O. Sundqvist",
        "col1": "Pittsburgh Penguins",
        "col2": "Boden, Sweden",
        "col3": "Pittsburgh Penguins",
        "col4": "1994-03-23"
    },
    {
        "col0": "O. Steen",
        "col1": "Boston Bruins",
        "col2": "Sweden",
        "col3": "Farjestad BK",
        "col4": "1998-03-09"
    },
    {
        "col0": "O. Osala",
        "col1": "Washington Capitals",
        "col2": "Finland",
        "col3": "Metallurg Magnitogorsk",
        "col4": "1987-12-26"
    },
    {
        "col0": "O. Lindblom",
        "col1": "Philadelphia Flyers",
        "col2": "Gavle",
        "col3": "Philadelphia Flyers",
        "col4": "1996-08-15"
    },
    {
        "col0": "O. Moller",
        "col1": "Los Angeles Kings",
        "col2": "Stockholm",
        "col3": "Skelleftea AIK",
        "col4": "1989-01-22"
    },
    {
        "col0": "O. Lindberg",
        "col1": "Phoenix Coyotes",
        "col2": "Skelleftea",
        "col3": "New York Rangers",
        "col4": "1991-10-29"
    },
    {
        "col0": "O. Klefbom",
        "col1": "Edmonton Oilers",
        "col2": "Karlstad",
        "col3": "Edmonton Oilers",
        "col4": "1993-07-20"
    },
    {
        "col0": "O. Hedman",
        "col1": "Washington Capitals",
        "col2": "Ornskoldsvik",
        "col3": "Modo Hockey",
        "col4": "1986-04-21"
    },
    {
        "col0": "O. Dansk",
        "col1": "Columbus Blue Jackets",
        "col2": "Stockholm",
        "col3": "Columbus Blue Jackets",
        "col4": "1994-02-28"
    },
    {
        "col0": "O. Roman",
        "col1": "Dallas Stars",
        "col2": "Czechoslovakia",
        "col3": "HC Vitkovice Steel",
        "col4": "1989-02-08"
    },
    {
        "col0": "O. Pavelec",
        "col1": "Atlanta Thrashers",
        "col2": "Czechoslovakia",
        "col3": "Winnipeg Jets",
        "col4": "1987-08-31"
    },
    {
        "col0": "O. Palat",
        "col1": "Tampa Bay Lightning",
        "col2": "Czechoslovakia",
        "col3": "Tampa Bay Lightning",
        "col4": "1991-03-28"
    },
    {
        "col0": "O. Nemec",
        "col1": "Pittsburgh Penguins",
        "col2": "Czech Republic",
        "col3": "HC Severstal Cherepovets",
        "col4": "1984-04-18"
    },
    {
        "col0": "O. KaA!e",
        "col1": "Anaheim Ducks",
        "col2": "Czech Republic",
        "col3": "Anaheim Ducks",
        "col4": "1995-11-08"
    },
    {
        "col0": "O. Fiala",
        "col1": "Minnesota Wild",
        "col2": "Czechoslovakia",
        "col3": "Orli Znojmo",
        "col4": "1987-11-04"
    },
    {
        "col0": "O. Roman",
        "col1": "Dallas Stars",
        "col2": "Czechoslovakia",
        "col3": "HC Vitkovice Steel",
        "col4": "1989-02-08"
    },
    {
        "col0": "O. Pavelec",
        "col1": "Atlanta Thrashers",
        "col2": "Czechoslovakia",
        "col3": "Winnipeg Jets",
        "col4": "1987-08-31"
    },
    {
        "col0": "O. Palat",
        "col1": "Tampa Bay Lightning",
        "col2": "Czechoslovakia",
        "col3": "Tampa Bay Lightning",
        "col4": "1991-03-28"
    },
    {
        "col0": "O. Nemec",
        "col1": "Pittsburgh Penguins",
        "col2": "Czech Republic",
        "col3": "HC Severstal Cherepovets",
        "col4": "1984-04-18"
    },
    {
        "col0": "O. KaA!e",
        "col1": "Anaheim Ducks",
        "col2": "Czech Republic",
        "col3": "Anaheim Ducks",
        "col4": "1995-11-08"
    },
    {
        "col0": "O. Fiala",
        "col1": "Minnesota Wild",
        "col2": "Czechoslovakia",
        "col3": "Orli Znojmo",
        "col4": "1987-11-04"
    },
    {
        "col0": "O. Maatta",
        "col1": "Pittsburgh Penguins",
        "col2": "Jyvaskyla",
        "col3": "Pittsburgh Penguins",
        "col4": "1994-08-22"
    },
    {
        "col0": "O. Malmivaara",
        "col1": "Chicago Blackhawks",
        "col2": "Finland",
        "col3": "Espoo Blues",
        "col4": "1982-03-13"
    },
    {
        "col0": "O. Maatta",
        "col1": "Pittsburgh Penguins",
        "col2": "Jyvaskyla",
        "col3": "Pittsburgh Penguins",
        "col4": "1994-08-22"
    },
    {
        "col0": "O. Juolevi",
        "col1": "Vancouver Canucks",
        "col2": "Helsinki",
        "col3": "Vancouver Canucks",
        "col4": "1998-05-05"
    },
    {
        "col0": "O. Roy",
        "col1": "Edmonton Oilers",
        "col2": "Canada",
        "col3": "EC VSV",
        "col4": "1991-07-12"
    },
    {
        "col0": "O. Magnan",
        "col1": "New Jersey Devils",
        "col2": "Canada",
        "col3": "Dornbirner EC",
        "col4": "1986-05-01"
    },
    {
        "col0": "O. Setzinger",
        "col1": "Nashville Predators",
        "col2": "Austria",
        "col3": "Graz 99ers",
        "col4": "1983-07-11"
    },
    {
        "col0": "O. Lauridsen",
        "col1": "Philadelphia Flyers",
        "col2": "Denmark",
        "col3": "Jokerit",
        "col4": "1989-03-24"
    },
    {
        "col0": "O. Kylington",
        "col1": "Calgary Flames",
        "col2": "Stockholm",
        "col3": "Calgary Flames",
        "col4": "1997-05-19"
    },
    {
        "col0": "O. Ekman-Larsson",
        "col1": "Phoenix Coyotes",
        "col2": "Karlskrona",
        "col3": "Arizona Coyotes",
        "col4": "1991-07-17"
    },
    {
        "col0": "O. Bjorkstrand",
        "col1": "Columbus Blue Jackets",
        "col2": "Herning",
        "col3": "Columbus Blue Jackets",
        "col4": "1995-04-10"
    },
    {
        "col0": "O. Tverdovsky",
        "col1": "Mighty Ducks of Anaheim",
        "col2": "Donetsk",
        "col3": "Salavat Yulaev Ufa",
        "col4": "1976-05-18"
    },
    {
        "col0": "O. Smirnov",
        "col1": "Edmonton Oilers",
        "col2": "Soviet Union",
        "col3": "HC Ryazan",
        "col4": "1980-04-08"
    },
    {
        "col0": "O. Saprykin",
        "col1": "Calgary Flames",
        "col2": "Moscow",
        "col3": "Salavat Yulaev Ufa",
        "col4": "1981-02-12"
    },
    {
        "col0": "O. Petrov",
        "col1": "Montreal Canadiens",
        "col2": "Moscow",
        "col3": "HC Spartak Moscow",
        "col4": "1971-04-18"
    },
    {
        "col0": "O. Kvasha",
        "col1": "Florida Panthers",
        "col2": "Moscow",
        "col3": "Barys Astana",
        "col4": "1978-07-26"
    },
    {
        "col0": "O. Tollefsen",
        "col1": "Columbus Blue Jackets",
        "col2": "Norway",
        "col3": "Farjestad BK",
        "col4": "1984-03-29"
    },
    {
        "col0": "N. Milley",
        "col1": "Buffalo Sabres",
        "col2": "Canada",
        "col3": "Dusseldorfer EG",
        "col4": "1980-02-14"
    },
    {
        "col0": "N. Yonkman",
        "col1": "Washington Capitals",
        "col2": "Canada",
        "col3": "JYP Jyvaskyla",
        "col4": "1981-04-01"
    },
    {
        "col0": "N. Welch",
        "col1": "Pittsburgh Penguins",
        "col2": "Brighton, Boston",
        "col3": "Malmo Redhawks",
        "col4": "1982-08-26"
    },
    {
        "col0": "N. Rod",
        "col1": "San Jose Sharks",
        "col2": "Switzerland",
        "col3": "Geneve-Servette HC",
        "col4": "1996-06-07"
    },
    {
        "col0": "N. Juulsen",
        "col1": "Montreal Canadiens",
        "col2": "British Columbia",
        "col3": "Montreal Canadiens",
        "col4": "1997-04-02"
    },
    {
        "col0": "N. Hanifin",
        "col1": "Carolina Hurricanes",
        "col2": "Boston, Massachusetts",
        "col3": "Carolina Hurricanes",
        "col4": "1997-01-25"
    },
    {
        "col0": "N. Clarke",
        "col1": "Los Angeles Kings",
        "col2": "California",
        "col3": "Augsburger Panther",
        "col4": "1979-06-11"
    },
    {
        "col0": "N. Niederreiter",
        "col1": "New York Islanders",
        "col2": "Switzerland men's national ice hockey team",
        "col3": "Minnesota Wild",
        "col4": "1992-09-08"
    },
    {
        "col0": "N. Zherdev",
        "col1": "Columbus Blue Jackets",
        "col2": "Ukraine",
        "col3": "Torpedo Nizhny Novgorod",
        "col4": "1984-11-05"
    },
    {
        "col0": "N. Kulemin",
        "col1": "Toronto Maple Leafs",
        "col2": "Russian Soviet Federative Socialist Republic",
        "col3": "New York Islanders",
        "col4": "1986-07-14"
    },
    {
        "col0": "N. Goldobin",
        "col1": "San Jose Sharks",
        "col2": "Moscow",
        "col3": "San Jose Sharks",
        "col4": "1995-10-07"
    },
    {
        "col0": "N. Ehlers",
        "col1": "Winnipeg Jets",
        "col2": "Aalborg",
        "col3": "Winnipeg Jets",
        "col4": "1996-02-14"
    },
    {
        "col0": "N. Prokhorkin",
        "col1": "Los Angeles Kings",
        "col2": "Russia",
        "col3": "Salavat Yulaev Ufa",
        "col4": "1993-09-17"
    },
    {
        "col0": "N. Lemtyugov",
        "col1": "St. Louis Blues",
        "col2": "USSR",
        "col3": "Atlant Moscow Oblast",
        "col4": "1986-01-15"
    },
    {
        "col0": "N. Snellman",
        "col1": "Nashville Predators",
        "col2": "Finland",
        "col3": "Jokipojat",
        "col4": "1988-03-12"
    },
    {
        "col0": "N. Mikkola",
        "col1": "St. Louis Blues",
        "col2": "Finland",
        "col3": "KalPa",
        "col4": "1996-04-27"
    },
    {
        "col0": "N. Kapanen",
        "col1": "Dallas Stars",
        "col2": "Finland",
        "col3": "HPK",
        "col4": "1978-04-29"
    },
    {
        "col0": "N. Hovinen",
        "col1": "Minnesota Wild",
        "col2": "Finland",
        "col3": "KHL Medvescak Zagreb",
        "col4": "1988-03-16"
    },
    {
        "col0": "N. Dimitrakos",
        "col1": "San Jose Sharks",
        "col2": "Massachusetts",
        "col3": "Ilves",
        "col4": "1979-05-21"
    },
    {
        "col0": "N. Tikkinen",
        "col1": "Phoenix Coyotes",
        "col2": "Espoo",
        "col3": "Timra IK",
        "col4": "1994-06-01"
    },
    {
        "col0": "N. Lundstrom",
        "col1": "St. Louis Blues",
        "col2": "Sweden",
        "col3": "IF Bjorkloven",
        "col4": "1993-01-10"
    },
    {
        "col0": "N. Kronwall",
        "col1": "Detroit Red Wings",
        "col2": "Stockholm",
        "col3": "Detroit Red Wings",
        "col4": "1981-01-12"
    },
    {
        "col0": "N. Hjalmarsson",
        "col1": "Chicago Blackhawks",
        "col2": "Sweden men's national ice hockey team",
        "col3": "Chicago Blackhawks",
        "col4": "1987-06-06"
    },
    {
        "col0": "N. Hansson",
        "col1": "Dallas Stars",
        "col2": "Sweden",
        "col3": "Rogle BK",
        "col4": "1995-01-08"
    },
    {
        "col0": "N. Hagman",
        "col1": "Florida Panthers",
        "col2": "Espoo",
        "col3": "Oulun Karpat",
        "col4": "1979-12-05"
    },
    {
        "col0": "N. Anger",
        "col1": "Montreal Canadiens",
        "col2": "Stockholm",
        "col3": "EHC Basel",
        "col4": "1977-07-14"
    },
    {
        "col0": "N. Zadorov",
        "col1": "Buffalo Sabres",
        "col2": "Moscow",
        "col3": "Colorado Avalanche",
        "col4": "1995-04-16"
    },
    {
        "col0": "N. Tryamkin",
        "col1": "Vancouver Canucks",
        "col2": "Russia",
        "col3": "Vancouver Canucks",
        "col4": "1994-08-30"
    },
    {
        "col0": "N. Scherbak",
        "col1": "Montreal Canadiens",
        "col2": "Moscow",
        "col3": "Montreal Canadiens",
        "col4": "1995-12-30"
    },
    {
        "col0": "N. Nesterov",
        "col1": "Tampa Bay Lightning",
        "col2": "Russia",
        "col3": "Tampa Bay Lightning",
        "col4": "1993-03-28"
    },
    {
        "col0": "N. Kucherov",
        "col1": "Tampa Bay Lightning",
        "col2": "Russia",
        "col3": "Tampa Bay Lightning",
        "col4": "1993-06-17"
    },
    {
        "col0": "N. Korovkin",
        "col1": "Philadelphia Flyers",
        "col2": "USSR",
        "col3": "Traktor Chelyabinsk",
        "col4": "1983-12-03"
    },
    {
        "col0": "N. Gusev",
        "col1": "Tampa Bay Lightning",
        "col2": "Moscow",
        "col3": "Tampa Bay Lightning",
        "col4": "1992-07-08"
    },
    {
        "col0": "N. Filatov",
        "col1": "Columbus Blue Jackets",
        "col2": "Moscow",
        "col3": "Admiral Vladivostok",
        "col4": "1990-05-25"
    },
    {
        "col0": "N. Antropov",
        "col1": "Toronto Maple Leafs",
        "col2": "Kazakh SSR",
        "col3": "Barys Astana",
        "col4": "1980-02-18"
    },
    {
        "col0": "N. Dawes",
        "col1": "New York Rangers",
        "col2": "Canada",
        "col3": "Barys Astana",
        "col4": "1985-02-09"
    },
    {
        "col0": "N. Petan",
        "col1": "Winnipeg Jets",
        "col2": "British Columbia",
        "col3": "Winnipeg Jets",
        "col4": "1995-03-22"
    },
    {
        "col0": "N. Meloche",
        "col1": "Colorado Avalanche",
        "col2": "Canada",
        "col3": "Gatineau Olympiques",
        "col4": "1997-07-18"
    },
    {
        "col0": "N. Deslauriers",
        "col1": "Los Angeles Kings",
        "col2": "Canada",
        "col3": "Buffalo Sabres",
        "col4": "1991-02-22"
    },
    {
        "col0": "N. Deschamps",
        "col1": "Anaheim Ducks",
        "col2": "Canada",
        "col3": "IK Oskarshamn",
        "col4": "1990-01-06"
    },
    {
        "col0": "N. Riopel",
        "col1": "Philadelphia Flyers",
        "col2": "Canada",
        "col3": "Syracuse Crunch",
        "col4": "1989-02-20"
    },
    {
        "col0": "N. Lucenius",
        "col1": "Atlanta Thrashers",
        "col2": "Finland",
        "col3": "Dinamo Riga",
        "col4": "1989-05-03"
    },
    {
        "col0": "N. Bergfors",
        "col1": "New Jersey Devils",
        "col2": "Sweden",
        "col3": "Amur Khabarovsk",
        "col4": "1987-03-07"
    },
    {
        "col0": "N. Andersen",
        "col1": "Los Angeles Kings",
        "col2": "Grums Municipality",
        "col3": "Avtomobilist Yekaterinburg",
        "col4": "1988-04-28"
    },
    {
        "col0": "N. Almari",
        "col1": "Pittsburgh Penguins",
        "col2": "Espoo",
        "col3": "HPK",
        "col4": "1998-05-11"
    },
    {
        "col0": "N. Lasu",
        "col1": "Atlanta Thrashers",
        "col2": "Sweden",
        "col3": "Frolunda HC",
        "col4": "1989-09-16"
    },
    {
        "col0": "N. Jensen",
        "col1": "Vancouver Canucks",
        "col2": "Denmark",
        "col3": "New York Rangers",
        "col4": "1993-03-06"
    },
    {
        "col0": "N. Grossmann",
        "col1": "Dallas Stars",
        "col2": "Stockholm",
        "col3": "Calgary Flames",
        "col4": "1985-01-22"
    },
    {
        "col0": "N. Danielsson",
        "col1": "Vancouver Canucks",
        "col2": "Uppsala",
        "col3": "Lausanne HC",
        "col4": "1984-12-07"
    },
    {
        "col0": "N. Backstrom",
        "col1": "Washington Capitals",
        "col2": "Gavle",
        "col3": "Washington Capitals",
        "col4": "1987-11-23"
    },
    {
        "col0": "N. Tarnasky",
        "col1": "Tampa Bay Lightning",
        "col2": "Alberta",
        "col3": "San Diego Gulls",
        "col4": "1984-11-25"
    },
    {
        "col0": "N. Sorensen",
        "col1": "Anaheim Ducks",
        "col2": "Denmark",
        "col3": "Anaheim Ducks",
        "col4": "1994-10-23"
    },
    {
        "col0": "N. Spaling",
        "col1": "Nashville Predators",
        "col2": "Canada",
        "col3": "Geneve-Servette HC",
        "col4": "1988-09-19"
    },
    {
        "col0": "N. Shore",
        "col1": "Los Angeles Kings",
        "col2": "Denver",
        "col3": "Los Angeles Kings",
        "col4": "1992-09-26"
    },
    {
        "col0": "N. Schultz",
        "col1": "Minnesota Wild",
        "col2": "Canada",
        "col3": "Philadelphia Flyers",
        "col4": "1982-08-25"
    },
    {
        "col0": "N. Schmaltz",
        "col1": "Chicago Blackhawks",
        "col2": "Madison, Wisconsin",
        "col3": "Chicago Blackhawks",
        "col4": "1996-02-23"
    },
    {
        "col0": "N. Sorensen",
        "col1": "Anaheim Ducks",
        "col2": "Denmark",
        "col3": "Anaheim Ducks",
        "col4": "1994-10-23"
    },
    {
        "col0": "N. Ross",
        "col1": "Phoenix Coyotes",
        "col2": "Alberta",
        "col3": "HC TWK Innsbruck",
        "col4": "1989-02-10"
    },
    {
        "col0": "N. Ritchie",
        "col1": "Anaheim Ducks",
        "col2": "Orangeville, Ontario",
        "col3": "Anaheim Ducks",
        "col4": "1995-12-05"
    },
    {
        "col0": "N. Petersen",
        "col1": "Pittsburgh Penguins",
        "col2": "Canada",
        "col3": "Eisbaren Berlin",
        "col4": "1989-05-27"
    },
    {
        "col0": "N. Paul",
        "col1": "Dallas Stars",
        "col2": "Canada",
        "col3": "Ottawa Senators",
        "col4": "1995-03-20"
    },
    {
        "col0": "N. Palmieri",
        "col1": "New Jersey Devils",
        "col2": "New York",
        "col3": "HCB South Tyrol",
        "col4": "1989-07-12"
    },
    {
        "col0": "N. Naumenko",
        "col1": "St. Louis Blues",
        "col2": "Chicago",
        "col3": "SCL Tigers",
        "col4": "1974-07-07"
    },
    {
        "col0": "N. Merkley",
        "col1": "Arizona Coyotes",
        "col2": "Alberta",
        "col3": "Arizona Coyotes",
        "col4": "1997-05-23"
    },
    {
        "col0": "N. Leddy",
        "col1": "Minnesota Wild",
        "col2": "Eden Prairie, Minnesota",
        "col3": "New York Islanders",
        "col4": "1991-03-20"
    },
    {
        "col0": "N. Johnson",
        "col1": "Pittsburgh Penguins",
        "col2": "Alberta",
        "col3": "Brynas IF",
        "col4": "1985-12-24"
    },
    {
        "col0": "N. Jensen",
        "col1": "Detroit Red Wings",
        "col2": "Minnesota",
        "col3": "Detroit Red Wings",
        "col4": "1990-09-21"
    },
    {
        "col0": "N. Foligno",
        "col1": "Ottawa Senators",
        "col2": "Buffalo, New York",
        "col3": "Columbus Blue Jackets",
        "col4": "1987-10-31"
    },
    {
        "col0": "N. Crawford",
        "col1": "Buffalo Sabres",
        "col2": "Canada",
        "col3": "Dornbirner EC",
        "col4": "1990-02-23"
    },
    {
        "col0": "N. Cousins",
        "col1": "Philadelphia Flyers",
        "col2": "Belleville, Ontario",
        "col3": "Philadelphia Flyers",
        "col4": "1993-07-20"
    },
    {
        "col0": "N. Boucher",
        "col1": "Pittsburgh Penguins",
        "col2": "Alberta",
        "col3": "Fort Wayne Komets",
        "col4": "1980-12-29"
    },
    {
        "col0": "N. Bonino",
        "col1": "San Jose Sharks",
        "col2": "Hartford, Connecticut",
        "col3": "Pittsburgh Penguins",
        "col4": "1988-04-20"
    },
    {
        "col0": "N. Bjugstad",
        "col1": "Florida Panthers",
        "col2": "Minneapolis",
        "col3": "Florida Panthers",
        "col4": "1992-07-17"
    },
    {
        "col0": "N. Baptiste",
        "col1": "Buffalo Sabres",
        "col2": "Canada",
        "col3": "Buffalo Sabres",
        "col4": "1995-08-05"
    },
    {
        "col0": "N. Torp",
        "col1": "Montreal Canadiens",
        "col2": "Jonkoping",
        "col3": "Leksands IF",
        "col4": "1989-04-10"
    },
    {
        "col0": "N. Kerdiles",
        "col1": "Anaheim Ducks",
        "col2": "Texas",
        "col3": "Anaheim Ducks",
        "col4": "1994-01-11"
    },
    {
        "col0": "N. Dowd",
        "col1": "Los Angeles Kings",
        "col2": "Alabama",
        "col3": "Los Angeles Kings",
        "col4": "1990-05-27"
    },
    {
        "col0": "N. Petruic",
        "col1": "Ottawa Senators",
        "col2": "Canada",
        "col3": "Hamilton Bulldogs",
        "col4": "1982-07-30"
    },
    {
        "col0": "N. Lukacevic",
        "col1": "Los Angeles Kings",
        "col2": "Podgorica",
        "col3": "GKS Katowice",
        "col4": "1986-02-11"
    },
    {
        "col0": "N. Kadri",
        "col1": "Toronto Maple Leafs",
        "col2": "London, Ontario",
        "col3": "Toronto Maple Leafs",
        "col4": "1990-10-06"
    },
    {
        "col0": "N. Walker",
        "col1": "Washington Capitals",
        "col2": "Cardiff",
        "col3": "Washington Capitals",
        "col4": "1994-02-07"
    },
    {
        "col0": "N. Saunders",
        "col1": "Anaheim Ducks",
        "col2": "Canada",
        "col3": "Texas Brahmas",
        "col4": "1985-04-25"
    },
    {
        "col0": "N. Perkovich",
        "col1": "New Jersey Devils",
        "col2": "Michigan",
        "col3": "KHL Medvescak Zagreb",
        "col4": "1985-10-15"
    },
    {
        "col0": "N. Paetsch",
        "col1": "Buffalo Sabres",
        "col2": "Canada",
        "col3": "Grand Rapids Griffins",
        "col4": "1983-03-30"
    },
    {
        "col0": "N. MacKinnon",
        "col1": "Colorado Avalanche",
        "col2": "Halifax, Nova Scotia",
        "col3": "Colorado Avalanche",
        "col4": "1995-09-01"
    },
    {
        "col0": "N. Lieuwen",
        "col1": "Buffalo Sabres",
        "col2": "Abbotsford, British Columbia",
        "col3": "San Antonio Rampage",
        "col4": "1991-08-08"
    },
    {
        "col0": "N. Horton",
        "col1": "Florida Panthers",
        "col2": "Canada",
        "col3": "Toronto Maple Leafs",
        "col4": "1985-05-29"
    },
    {
        "col0": "N. Gerbe",
        "col1": "Buffalo Sabres",
        "col2": "Oxford, Michigan",
        "col3": "Geneve-Servette HC",
        "col4": "1987-07-24"
    },
    {
        "col0": "N. Beaulieu",
        "col1": "Montreal Canadiens",
        "col2": "Strathroy-Caradoc",
        "col3": "Montreal Canadiens",
        "col4": "1992-12-05"
    },
    {
        "col0": "N. Thompson",
        "col1": "Boston Bruins",
        "col2": "Anchorage, Alaska",
        "col3": "Anaheim Ducks",
        "col4": "1984-10-05"
    },
    {
        "col0": "N. Guenin",
        "col1": "New York Rangers",
        "col2": "Aliquippa, Pennsylvania",
        "col3": "Anaheim Ducks",
        "col4": "1982-12-10"
    },
    {
        "col0": "N. Yakupov",
        "col1": "Edmonton Oilers",
        "col2": "Nizhnekamsk",
        "col3": "St. Louis Blues",
        "col4": "1993-10-06"
    },
    {
        "col0": "M. Karsums",
        "col1": "Boston Bruins",
        "col2": "Latvian Soviet Socialist Republic",
        "col3": "HC Dynamo Moscow",
        "col4": "1986-02-26"
    },
    {
        "col0": "M. Bliznak",
        "col1": "Vancouver Canucks",
        "col2": "Czechoslovakia",
        "col3": "HC Plzen",
        "col4": "1987-03-06"
    },
    {
        "col0": "M. Madsen",
        "col1": "Minnesota Wild",
        "col2": "Denmark",
        "col3": "Karlskrona HK",
        "col4": "1987-01-16"
    },
    {
        "col0": "M. Rielly",
        "col1": "Toronto Maple Leafs",
        "col2": "Vancouver",
        "col3": "Toronto Maple Leafs",
        "col4": "1994-03-09"
    },
    {
        "col0": "M. Klimchuk",
        "col1": "Calgary Flames",
        "col2": "Canada",
        "col3": "Calgary Flames",
        "col4": "1995-03-02"
    },
    {
        "col0": "M. Ellis",
        "col1": "Montreal Canadiens",
        "col2": "Canada",
        "col3": "St. Louis Blues",
        "col4": "1992-04-30"
    },
    {
        "col0": "M. Stephens",
        "col1": "Tampa Bay Lightning",
        "col2": "Canada",
        "col3": "Tampa Bay Lightning",
        "col4": "1997-02-05"
    },
    {
        "col0": "M. Marner",
        "col1": "Toronto Maple Leafs",
        "col2": "Markham, Ontario",
        "col3": "Toronto Maple Leafs",
        "col4": "1997-05-05"
    },
    {
        "col0": "M. Heard",
        "col1": "Colorado Avalanche",
        "col2": "Canada",
        "col3": "Charlotte Checkers",
        "col4": "1992-03-12"
    }
]