[
    {
        "col0": "WBXJ-CD",
        "col1": "98",
        "col2": "10 (VHF, 1987-2002)",
        "col3": "W10AX (1984-1995)"
    },
    {
        "col0": "WBUY-TV",
        "col1": "122",
        "col2": "40 (UHF, 1991-2009)",
        "col3": "WBUY (1991-2003)"
    },
    {
        "col0": "WBUW",
        "col1": "387",
        "col2": "57 (UHF, 1999-2009)",
        "col3": "WHPN-TV (1999-2002)"
    },
    {
        "col0": "WBUI",
        "col1": "401",
        "col2": "23 (UHF, 1984-2009)",
        "col3": "WFHL (1984-1998)"
    },
    {
        "col0": "WBRZ-TV",
        "col1": "515",
        "col2": "2 (VHF, 1955-2009)",
        "col3": "WBRZ (1955-1981)"
    },
    {
        "col0": "WBQM-LD",
        "col1": "173",
        "col2": "38 (UHF) (1998), 3 (2001?-09)",
        "col3": "W03BM (1998-2004)"
    },
    {
        "col0": "WBQC-LD",
        "col1": "150",
        "col2": "25 (UHF, 1988-2005)",
        "col3": "DW25AI (1/1989-2/1989)"
    },
    {
        "col0": "WBPX-TV",
        "col1": "292",
        "col2": "68 (UHF, 1979-2009)",
        "col3": "WABU (1993-1999)"
    },
    {
        "col0": "WBNG-TV",
        "col1": "342",
        "col2": "12 (VHF, 1949-2009)",
        "col3": "WNBF-TV (1949-1973)"
    },
    {
        "col0": "WBND-LD",
        "col1": "361",
        "col2": "49 (UHF, 2007-2012)",
        "col3": "W58BT (1990-1995)"
    },
    {
        "col0": "WBME-CD",
        "col1": "317",
        "col2": "13 (VHF, 2007-2012)",
        "col3": "W41CI (2000-2001)"
    },
    {
        "col0": "WBKO-DT3",
        "col1": "220",
        "col2": "33.3 (UHFdigital, 2006-2009)",
        "col3": "\"WBWG\" (1998-2006)"
    },
    {
        "col0": "WBKO",
        "col1": "220",
        "col2": "13 (VHFanalog, 1962-2009)",
        "col3": "WLTV (1962-1971)"
    },
    {
        "col0": "WBGH-CD",
        "col1": "204",
        "col2": "20 (UHF, 2001-2015)",
        "col3": "W08DL (1996-1997)"
    },
    {
        "col0": "WBEC-TV",
        "col1": "285",
        "col2": "63 (UHF, 1986-2009)",
        "col3": "WPPB-TV (1986-2008)"
    },
    {
        "col0": "WBDT",
        "col1": "349",
        "col2": "18 (UHF, until 2009)",
        "col3": "WDPX (1998-1999)"
    },
    {
        "col0": "WBBZ-TV",
        "col1": "175",
        "col2": "Analog: 67 (1997-2009)",
        "col3": "Buffalo WiNGS"
    },
    {
        "col0": "WBBM-TV",
        "col1": "497",
        "col2": "* 2 (VHF, 1953-2009)",
        "col3": "WBKB (1946-1953)"
    },
    {
        "col0": "WBBJ-TV",
        "col1": "302",
        "col2": "7 (VHFanalog, 1955-2009)",
        "col3": "WDXI-TV (1955-1967)"
    },
    {
        "col0": "WAZE-TV",
        "col1": "216",
        "col2": "19 (1983-2009)",
        "col3": "WLCN (1983-1997)"
    },
    {
        "col0": "WAWV-TV",
        "col1": "248",
        "col2": "38 (UHF, 1973-2009)",
        "col3": "WBAK-TV (1979-2005)"
    },
    {
        "col0": "WATM-TV",
        "col1": "311",
        "col2": "23 (1986-2009)",
        "col3": "WOPC (1974-1986)"
    },
    {
        "col0": "WATE-TV",
        "col1": "529",
        "col2": "Analog: 6 (1953-2009)",
        "col3": "WROL-TV (1953-1955)"
    },
    {
        "col0": "WASA-LD",
        "col1": "544",
        "col2": "64 (UHF analog, 1970-2010)",
        "col3": "W64AA (1970-1983 and 2001)"
    },
    {
        "col0": "WAPK-CD",
        "col1": "689",
        "col2": "30 (UHF, 1989-2003)",
        "col3": "W30AP (1989-1995)"
    },
    {
        "col0": "WANN-CD",
        "col1": "333",
        "col2": "32 (analog)",
        "col3": "W34AG, W22CD,"
    },
    {
        "col0": "WANE-TV",
        "col1": "232",
        "col2": "15 (UHF, 1954-2009)",
        "col3": "WINT (1954-1957)"
    },
    {
        "col0": "WAND",
        "col1": "390",
        "col2": "17 (UHF, 1953-2009)",
        "col3": "Analog:"
    },
    {
        "col0": "WAKA",
        "col1": "496",
        "col2": "55 (UHF, 2005-2008)",
        "col3": "WSLA (1960-1984)"
    },
    {
        "col0": "WAHU-CD",
        "col1": "324",
        "col2": "27 (UHF, 2005-2009)",
        "col3": "WADA-LP (1998-2005)"
    },
    {
        "col0": "WAGT",
        "col1": "483",
        "col2": "26 (UHF, 1968-2009)",
        "col3": "WATU-TV (1968-1981)"
    },
    {
        "col0": "WAGC-LD",
        "col1": "333",
        "col2": "42, 50 (analog)",
        "col3": ","
    },
    {
        "col0": "WAFF",
        "col1": "576",
        "col2": "23 (1954-1968)",
        "col3": "WMSL-TV (1954-1975)"
    },
    {
        "col0": "WAFB",
        "col1": "511",
        "col2": "28 (UHF, 1953-1960)",
        "col3": "WAFB-TV (1953-1988)"
    },
    {
        "col0": "WACY-TV",
        "col1": "367",
        "col2": "32 (UHF, 1984-2009)",
        "col3": "WBOU (1983)"
    },
    {
        "col0": "WACX",
        "col1": "493",
        "col2": "55 (UHF, 1982-2006)",
        "col3": "WIYE (1982-1988)"
    },
    {
        "col0": "WACH",
        "col1": "464",
        "col2": "57 (UHF, 1985-2009)",
        "col3": "WCCT-TV (1985-1988)"
    },
    {
        "col0": "WAAY-TV",
        "col1": "537",
        "col2": "31 (1959-2009)",
        "col3": "WAFG-TV (1959-1963)"
    }
]