[
    {
        "col0": "A. Kirkaldy",
        "col1": "CRS Racing",
        "col2": "St Andrews",
        "col3": "1976-03-01",
        "col4": "1976-03-01"
    },
    {
        "col0": "A. Jordan",
        "col1": "Motorbase Performance",
        "col2": "Sutton Coldfield",
        "col3": "1989-05-24",
        "col4": "1989-05-24"
    },
    {
        "col0": "A. Bakkerud",
        "col1": "Hoonigan Racing Division",
        "col2": "Bergen",
        "col3": "1991-10-10",
        "col4": "1991-10-10"
    },
    {
        "col0": "A. Pizzitola",
        "col1": "Manor Motorsport",
        "col2": "Montpellier",
        "col3": "1992-06-19",
        "col4": "1992-06-19"
    },
    {
        "col0": "A. Piccini",
        "col1": "Hexis AMR",
        "col2": "Sansepolcro",
        "col3": "1978-12-12",
        "col4": "1978-12-12"
    },
    {
        "col0": "A. Caldarelli",
        "col1": "Lexus",
        "col2": "Pescara",
        "col3": "1990-02-14",
        "col4": "1990-02-14"
    },
    {
        "col0": "A. Bertolini",
        "col1": "AF Corse",
        "col2": "Sassuolo",
        "col3": "1973-12-01",
        "col4": "1973-12-01"
    },
    {
        "col0": "A. Barlesi",
        "col1": "SUNRED Engineering",
        "col2": "France",
        "col3": "1991-06-15",
        "col4": "1991-06-15"
    },
    {
        "col0": "A. Lotterer",
        "col1": "Audi Sport Team Joest",
        "col2": "Duisburg",
        "col3": "1981-11-19",
        "col4": "1981-11-19"
    },
    {
        "col0": "A. Krohn",
        "col1": "Bryan Herta Autosport",
        "col2": "Stavanger",
        "col3": "1987-11-15",
        "col4": "1987-11-15"
    },
    {
        "col0": "A. C. Jr.",
        "col1": "ART Grand Prix",
        "col2": "Mexico City",
        "col3": "1996-09-18",
        "col4": "1996-09-18"
    },
    {
        "col0": "A. S. Negrao",
        "col1": "Vitaphone Racing",
        "col2": "Brazil",
        "col3": "1985-10-14",
        "col4": "1985-10-14"
    },
    {
        "col0": "A. Premat",
        "col1": "Triple Eight Race Engineering",
        "col2": "Juvisy-sur-Orge",
        "col3": "1982-04-05",
        "col4": "1982-04-05"
    },
    {
        "col0": "A. Cougnaud",
        "col1": "RP Motorsport",
        "col2": "Les Sables-d'Olonne",
        "col3": "1991-12-05",
        "col4": "1991-12-05"
    },
    {
        "col0": "A. Sims",
        "col1": "Carlin Motorsport",
        "col2": "London",
        "col3": "1988-03-15",
        "col4": "1988-03-15"
    },
    {
        "col0": "A. Mies",
        "col1": "Kratingdaeng Racing Team",
        "col2": "Germany",
        "col3": "1992-05-25",
        "col4": "1992-05-25"
    },
    {
        "col0": "A. Khateeb",
        "col1": "Carlin Motorsport",
        "col2": "Bath, Somerset",
        "col3": "1984-06-08",
        "col4": "1984-06-08"
    },
    {
        "col0": "A. Hvaal",
        "col1": "Eklund Motorsport",
        "col2": "Larvik",
        "col3": "1992-05-25",
        "col4": "1992-05-25"
    },
    {
        "col0": "A. Albon",
        "col1": "ART Grand Prix",
        "col2": "England",
        "col3": "1996-03-23",
        "col4": "1996-03-23"
    },
    {
        "col0": "A. Muller",
        "col1": "Triple H Team Hegersport",
        "col2": "Emmerich am Rhein",
        "col3": "1979-01-20",
        "col4": "1979-01-20"
    },
    {
        "col0": "A. Martin",
        "col1": "Team Parker Racing",
        "col2": "Wiltshire",
        "col3": "1987-04-21",
        "col4": "1987-04-21"
    },
    {
        "col0": "A. MacDowall",
        "col1": "Aston Martin Racing",
        "col2": "Carlisle, Cumbria",
        "col3": "1991-01-22",
        "col4": "1991-01-22"
    },
    {
        "col0": "A. Muller",
        "col1": "Triple H Team Hegersport",
        "col2": "Emmerich am Rhein",
        "col3": "1979-01-20",
        "col4": "1979-01-20"
    },
    {
        "col0": "A. Lynn",
        "col1": "DAMS",
        "col2": "London",
        "col3": "1992-9-17",
        "col4": "1992-9-17"
    },
    {
        "col0": "A. Fontana",
        "col1": "Status Grand Prix",
        "col2": "Lugano",
        "col3": "1992-08-05",
        "col4": "1992-08-05"
    },
    {
        "col0": "A. Figge",
        "col1": "K-Pax Racing",
        "col2": "Boulder, Colorado",
        "col3": "1981-01-29",
        "col4": "1981-01-29"
    },
    {
        "col0": "A. Picariello",
        "col1": "Mucke Motorsport",
        "col2": "Gosselies",
        "col3": "1993-08-27",
        "col4": "1993-08-27"
    },
    {
        "col0": "A. Latif",
        "col1": "Flying Lizard Motorsports",
        "col2": "London",
        "col3": "1996-04-11",
        "col4": "1996-04-11"
    },
    {
        "col0": "A. Neri",
        "col1": "B.D. Racing",
        "col2": "Italy",
        "col3": "1988-04-10",
        "col4": "1988-04-10"
    },
    {
        "col0": "A. Vasilyev",
        "col1": "Team LMP Motorsport",
        "col2": "Moscow",
        "col3": "1972-01-13",
        "col4": "1972-01-13"
    },
    {
        "col0": "A. Valerio",
        "col1": "Coloni Motorsport",
        "col2": "Ipatinga",
        "col3": "1985-09-06",
        "col4": "1985-09-06"
    },
    {
        "col0": "A. Menu",
        "col1": "Team BMR",
        "col2": "Geneva",
        "col3": "1963-08-09",
        "col4": "1963-08-09"
    },
    {
        "col0": "A. Pellinen",
        "col1": "WestCoast Racing",
        "col2": "Finland",
        "col3": "1993-05-17",
        "col4": "1993-05-17"
    },
    {
        "col0": "A. A. Harthy",
        "col1": "Motorbase Performance",
        "col2": "Muscat, Oman",
        "col3": "1981-08-31",
        "col4": "1981-08-31"
    },
    {
        "col0": "A. Paya",
        "col1": "Mercedes-Benz in Formula One",
        "col2": "Barcelona",
        "col3": "1971-06-08",
        "col4": "1971-06-08"
    },
    {
        "col0": "A. C. Jr.",
        "col1": "Team Moore Racing",
        "col2": "Valencia",
        "col3": "1988-10-05",
        "col4": "1988-10-05"
    },
    {
        "col0": "A. Tambay",
        "col1": "Team Rosberg",
        "col2": "Paris",
        "col3": "1991-02-25",
        "col4": "1991-02-25"
    },
    {
        "col0": "A. Buzaid",
        "col1": "Carlin Motorsport",
        "col2": "Sao Paulo",
        "col3": "1988-07-05",
        "col4": "1988-07-05"
    }
]