[
    {
        "col0": "Westchester County Bar Association",
        "col1": "1896-02-11",
        "col2": "1896",
        "col3": "2,200"
    },
    {
        "col0": "West African Development Bank",
        "col1": "1973-11-14",
        "col2": "1973",
        "col3": "8 countries"
    },
    {
        "col0": "Putnam County Port Authority",
        "col1": "1967-07-04",
        "col2": "1967",
        "col3": "Putnam County Board of County Commissioners"
    },
    {
        "col0": "Portland Center Stage",
        "col1": "1988-11-12",
        "col2": "1988",
        "col3": "Portland, Oregon"
    },
    {
        "col0": "North American Electric Reliability Corporation",
        "col1": "2006-03-28",
        "col2": "2006",
        "col3": "1,900+"
    },
    {
        "col0": "Mahamevnawa Buddhist Monastery",
        "col1": "1999-08-14",
        "col2": "1999",
        "col3": "Practicing Buddhists"
    },
    {
        "col0": "Kansas Board of Regents",
        "col1": "1925-07-01",
        "col2": "1925",
        "col3": "32 public institutions"
    },
    {
        "col0": "International Finance Corporation",
        "col1": "1956-07-20",
        "col2": "1956",
        "col3": "184 countries"
    },
    {
        "col0": "Institute of Physics",
        "col1": "1874-02-14",
        "col2": "1874",
        "col3": "51,809 (2015)"
    },
    {
        "col0": "Financial Ombudsman Service",
        "col1": "2008-07-01",
        "col2": "2008",
        "col3": "Australian Financial Companies"
    },
    {
        "col0": "Fanderson",
        "col1": "1981-08-20",
        "col2": "1981",
        "col3": "1,300 (peak 2,000 approx. (1996))"
    },
    {
        "col0": "Eurasian Development Bank",
        "col1": "2006-01-12",
        "col2": "2006",
        "col3": "6 countries"
    },
    {
        "col0": "Congregation of Holy Cross",
        "col1": "1837-03-01",
        "col2": "1837",
        "col3": "1478 (of whom 741 are priests)"
    },
    {
        "col0": "Asian Development Bank",
        "col1": "1966-12-19",
        "col2": "1966",
        "col3": "67 countries"
    },
    {
        "col0": "Airlines Reporting Corporation",
        "col1": "1985-01-01",
        "col2": "1985",
        "col3": "200 airlines, 9,400 travel agencies, 13,000 points of sale"
    },
    {
        "col0": "African Development Bank",
        "col1": "1964-09-10",
        "col2": "1964",
        "col3": "78 countries"
    }
]