[
    {
        "col0": "A. o. England",
        "col1": "London",
        "col2": "London",
        "col3": "London",
        "col4": "Charles I of England",
        "col5": "1640-11-05"
    },
    {
        "col0": "A. o. Denmark",
        "col1": "Westminster Abbey",
        "col2": "Skanderborg",
        "col3": "Hampton Court Palace",
        "col4": "Frederick II of Denmark",
        "col5": "1619-03-02"
    },
    {
        "col0": "A. o. Burgundy",
        "col1": "Paris",
        "col2": "Paris",
        "col3": "Paris",
        "col4": "J. t. Fearless",
        "col5": "1432-11-14"
    },
    {
        "col0": "A. o. Bohemia",
        "col1": "Westminster Abbey",
        "col2": "Kingdom of Bohemia",
        "col3": "Sheen Priory",
        "col4": "Charles IV, Holy Roman Emperor",
        "col5": "1394-06-07"
    },
    {
        "col0": "Anne of Austria, Queen of Poland",
        "col1": "Krakow",
        "col2": "Austria",
        "col3": "Poland",
        "col4": "Maria Anna of Bavaria",
        "col5": "1598-02-10"
    },
    {
        "col0": "Anne de Mowbray, 8th Countess of Norfolk",
        "col1": "Westminster Abbey",
        "col2": "Suffolk",
        "col3": "Greater London",
        "col4": "Elizabeth de Mowbray, Duchess of Norfolk",
        "col5": "1481-11-19"
    },
    {
        "col0": "A. Neville",
        "col1": "Westminster Abbey",
        "col2": "Warwickshire",
        "col3": "Westminster",
        "col4": "Richard Neville, 16th Earl of Warwick",
        "col5": "1485-03-16"
    },
    {
        "col0": "Anne Marie de Bourbon",
        "col1": "France",
        "col2": "Paris",
        "col3": "Asnieres-sur-Seine",
        "col4": "Anne Henriette of Bavaria",
        "col5": "1700-10-23"
    },
    {
        "col0": "Anne Marie Louise de La Tour d'Auvergne",
        "col1": "Paris",
        "col2": "Paris",
        "col3": "France",
        "col4": "D. o. Bouillon",
        "col5": "1739-09-19"
    },
    {
        "col0": "Anne Marie Louise d'Orleans, Duchess of Montpensier",
        "col1": "Basilica of St Denis",
        "col2": "Paris",
        "col3": "Luxembourg Palace",
        "col4": "Gaston, Duke of Orleans",
        "col5": "1693-04-05"
    },
    {
        "col0": "A. Hyde",
        "col1": "Westminster Abbey",
        "col2": "Kingdom of England",
        "col3": "Kingdom of England",
        "col4": "Edward Hyde, 1st Earl of Clarendon",
        "col5": "1671-03-31"
    },
    {
        "col0": "Anne Henriette of Bavaria",
        "col1": "France",
        "col2": "Paris",
        "col3": "Paris",
        "col4": "Edward, Count Palatine of Simmern",
        "col5": "1723-02-23"
    },
    {
        "col0": "Anne Genevieve de Bourbon",
        "col1": "Paris",
        "col2": "Chateau de Vincennes",
        "col3": "France",
        "col4": "Charlotte Marguerite de Montmorency",
        "col5": "1679-04-05"
    },
    {
        "col0": "Anne Christine of Sulzbach, Princess of Piedmont",
        "col1": "Basilica of Superga",
        "col2": "Sulzbach-Rosenberg",
        "col3": "Turin",
        "col4": "Theodore Eustace, Count Palatine of Sulzbach",
        "col5": "1723-03-12"
    },
    {
        "col0": "Anne, Queen of Great Britain",
        "col1": "Westminster Abbey",
        "col2": "Westminster",
        "col3": "Kensington Palace",
        "col4": "James II of England",
        "col5": "1714-08-01"
    },
    {
        "col0": "Anne, Princess Royal and Princess of Orange",
        "col1": "Nieuwe Kerk",
        "col2": "Herrenhausen",
        "col3": "The Hague",
        "col4": "C. o. Ansbach",
        "col5": "1759-01-12"
    },
    {
        "col0": "A. o. Tyrol",
        "col1": "Imperial Crypt, Vienna",
        "col2": "Austria",
        "col3": "Austria",
        "col4": "Ferdinand II, Archduke of Austria",
        "col5": "1618-12-14"
    },
    {
        "col0": "Anna of Austria, Queen of Spain",
        "col1": "El Escorial",
        "col2": "Spain",
        "col3": "Spain",
        "col4": "Maximilian II, Holy Roman Emperor",
        "col5": "1580-10-26"
    },
    {
        "col0": "Anna Vasa of Sweden",
        "col1": "Polish-Lithuanian Commonwealth",
        "col2": "Sweden",
        "col3": "Polish-Lithuanian Commonwealth",
        "col4": "John III of Sweden",
        "col5": "1625-02-26"
    },
    {
        "col0": "Anna Pavlovna of Russia",
        "col1": "Delft",
        "col2": "Russian Empire",
        "col3": "Netherlands",
        "col4": "M. Feodorovna",
        "col5": "1865-03-01"
    },
    {
        "col0": "Anna Maria of Liechtenstein",
        "col1": "Vienna",
        "col2": "Habsburg Monarchy",
        "col3": "Habsburg Monarchy",
        "col4": "Anton Florian, Prince of Liechtenstein",
        "col5": "1753-01-20"
    },
    {
        "col0": "Anna Maria Luisa de' Medici",
        "col1": "Basilica of San Lorenzo, Florence",
        "col2": "Palazzo Pitti",
        "col3": "Florence",
        "col4": "Cosimo III de' Medici, Grand Duke of Tuscany",
        "col5": "1743-02-18"
    },
    {
        "col0": "Anna Jagiellon, Duchess of Pomerania",
        "col1": "Eldena Abbey",
        "col2": "Nieszawa",
        "col3": "Ueckermunde",
        "col4": "C. I. Jagiellon",
        "col5": "1503-08-12"
    },
    {
        "col0": "A. Dandolo",
        "col1": "Sopocani",
        "col2": "Republic of Venice",
        "col3": "Kingdom of Serbia",
        "col4": "R. Dandolo",
        "col5": "1246-1-1"
    },
    {
        "col0": "Ankhesenamun",
        "col1": "KV21",
        "col2": "Amarna",
        "col3": "Memphis, Egypt",
        "col4": "Akhenaten",
        "col5": "-1323-0-0"
    },
    {
        "col0": "Andriantsitakatrandriana",
        "col1": "Rova of Antananarivo",
        "col2": "Twelve sacred hills of Imerina",
        "col3": "Antananarivo",
        "col4": "Andrianjaka",
        "col5": "1650-0-0"
    },
    {
        "col0": "Andriamasinavalona",
        "col1": "Rova of Antananarivo",
        "col2": "Twelve sacred hills of Imerina",
        "col3": "Antananarivo",
        "col4": "Andriantsimitoviaminandriandehibe",
        "col5": "1710-1-1"
    },
    {
        "col0": "Andriamanelo",
        "col1": "Twelve sacred hills of Imerina",
        "col2": "Twelve sacred hills of Imerina",
        "col3": "Twelve sacred hills of Imerina",
        "col4": "Rafohy",
        "col5": "1575-0-0"
    },
    {
        "col0": "Andrew III of Hungary",
        "col1": "Buda",
        "col2": "Venice",
        "col3": "Buda",
        "col4": "S. t. Posthumous",
        "col5": "1301-1-14"
    },
    {
        "col0": "A. o. Kiev",
        "col1": "Styria",
        "col2": "Kiev",
        "col3": "Styria",
        "col4": "Y. t. Wise",
        "col5": "1074-1-1"
    },
    {
        "col0": "A. Drummond",
        "col1": "Dunfermline Abbey",
        "col2": "Dunfermline",
        "col3": "Scone, Perth and Kinross",
        "col4": "Thegn",
        "col5": "1401-10-1"
    },
    {
        "col0": "A. Cuaran",
        "col1": "Iona Abbey",
        "col2": "York",
        "col3": "Dublin",
        "col4": "E. o. Polesworth",
        "col5": "981-1-1"
    },
    {
        "col0": "A. A. Shah",
        "col1": "Lucknow",
        "col2": "Lucknow",
        "col3": "Lucknow",
        "col4": "M. A. Shah",
        "col5": "1847-02-13"
    },
    {
        "col0": "Amedeus Alexander of Savoy",
        "col1": "Basilica of Superga",
        "col2": "Royal Palace of Turin",
        "col3": "Turin",
        "col4": "Maria Antonietta of Spain",
        "col5": "1755-04-29"
    },
    {
        "col0": "A. o. Zweibrucken-Birkenfeld",
        "col1": "Dresden",
        "col2": "Mannheim",
        "col3": "Dresden",
        "col4": "Countess Palatine Maria Franziska of Sulzbach",
        "col5": "1828-11-15"
    },
    {
        "col0": "Amalie Auguste of Bavaria",
        "col1": "Katholische Hofkirche",
        "col2": "Munich",
        "col3": "Dresden",
        "col4": "Maximilian I Joseph of Bavaria",
        "col5": "1877-11-08"
    },
    {
        "col0": "Amadeo I of Spain",
        "col1": "Kingdom of Italy",
        "col2": "Kingdom of Sardinia",
        "col3": "Turin",
        "col4": "Victor Emmanuel II of Italy",
        "col5": "1890-01-18"
    },
    {
        "col0": "Aloys II, Prince of Liechtenstein",
        "col1": "Brno",
        "col2": "Holy Roman Empire",
        "col3": "Moravia",
        "col4": "Johann I Joseph, Prince of Liechtenstein",
        "col5": "1858-11-12"
    },
    {
        "col0": "Aloys I, Prince of Liechtenstein",
        "col1": "Brno",
        "col2": "Vienna",
        "col3": "Vienna",
        "col4": "Franz Joseph I, Prince of Liechtenstein",
        "col5": "1805-03-24"
    },
    {
        "col0": "A. Sultan",
        "col1": "Constantinople",
        "col2": "Ciragan Palace",
        "col3": "Constantinople",
        "col4": "M. V",
        "col5": "1903-09-19"
    },
    {
        "col0": "A. b. Ali",
        "col1": "Adhamiyah",
        "col2": "Mecca",
        "col3": "Baghdad",
        "col4": "A. o. Hejaz",
        "col5": "1950-12-21"
    },
    {
        "col0": "Alice of Saluzzo, Countess of Arundel",
        "col1": "England",
        "col2": "Italy",
        "col3": "Shropshire",
        "col4": "Thomas I of Saluzzo",
        "col5": "1292-09-25"
    },
    {
        "col0": "A. Heine",
        "col1": "Pere Lachaise Cemetery",
        "col2": "New Orleans",
        "col3": "French Third Republic",
        "col4": "M. Heine",
        "col5": "1925-12-22"
    },
    {
        "col0": "A. o. Hejaz",
        "col1": "Adhamiyah",
        "col2": "Mecca",
        "col3": "Baghdad",
        "col4": "Hussein bin Ali, Sharif of Mecca",
        "col5": "1935-02-13"
    },
    {
        "col0": "A. t. Great",
        "col1": "Hyde Abbey",
        "col2": "Berkshire",
        "col3": "Winchester",
        "col4": "AE. o. Wessex",
        "col5": "0899-10-26"
    },
    {
        "col0": "Alfred, Hereditary Prince of Saxe-Coburg and Gotha",
        "col1": "German Empire",
        "col2": "Buckingham Palace",
        "col3": "Austria-Hungary",
        "col4": "Alfred, Duke of Saxe-Coburg and Gotha",
        "col5": "1899-02-06"
    },
    {
        "col0": "Alfred, Duke of Saxe-Coburg and Gotha",
        "col1": "Coburg",
        "col2": "United Kingdom",
        "col3": "Coburg",
        "col4": "A. P. Consort",
        "col5": "1900-07-30"
    },
    {
        "col0": "A. t. Battler",
        "col1": "Abbey of San Pedro el Viejo",
        "col2": "Jaca",
        "col3": "Polenino",
        "col4": "F. d. Roucy",
        "col5": "1134-09-08"
    },
    {
        "col0": "Alfonso XII of Spain",
        "col1": "El Escorial",
        "col2": "Madrid",
        "col3": "Madrid",
        "col4": "Francis of Assisi de Bourbon",
        "col5": "1885-11-25"
    },
    {
        "col0": "Alfonso XIII of Spain",
        "col1": "El Escorial",
        "col2": "Madrid",
        "col3": "Kingdom of Italy",
        "col4": "Alfonso XII of Spain",
        "col5": "1941-02-28"
    },
    {
        "col0": "Alfonso VI of Leon and Castile",
        "col1": "Sahagun, Leon",
        "col2": "Santiago de Compostela",
        "col3": "Toledo, Spain",
        "col4": "Ferdinand I of Leon",
        "col5": "1109-07-01"
    },
    {
        "col0": "Alfonso I of Asturias",
        "col1": "Santa Cueva de Covadonga",
        "col2": "Cantabria",
        "col3": "Asturias",
        "col4": "P. o. Cantabria",
        "col5": "757-1-1"
    },
    {
        "col0": "Alfonso, Duke of Anjou and Cadiz",
        "col1": "Convent of Las Descalzas Reales",
        "col2": "Rome",
        "col3": "Beaver Creek Resort",
        "col4": "Infante Jaime, Duke of Segovia",
        "col5": "1989-01-30"
    },
    {
        "col0": "A. o. Denmark",
        "col1": "St George's Chapel, Windsor Castle",
        "col2": "Copenhagen",
        "col3": "Norfolk",
        "col4": "L. o. Hesse-Kassel",
        "col5": "1925-11-20"
    },
    {
        "col0": "A. o. Greece",
        "col1": "Kingdom of Greece",
        "col2": "Kingdom of Greece",
        "col3": "Athens",
        "col4": "Constantine I of Greece",
        "col5": "1920-10-25"
    },
    {
        "col0": "A. o. Battenberg",
        "col1": "Battenberg Mausoleum",
        "col2": "Verona",
        "col3": "Austria-Hungary",
        "col4": "Prince Alexander of Hesse and by Rhine",
        "col5": "1893-10-23"
    },
    {
        "col0": "A. Jagiellon",
        "col1": "Lithuania",
        "col2": "Krakow",
        "col3": "Lithuania",
        "col4": "C. I. Jagiellon",
        "col5": "1506-08-19"
    },
    {
        "col0": "Alexander I of Yugoslavia",
        "col1": "Oplenac",
        "col2": "Cetinje Municipality",
        "col3": "French Third Republic",
        "col4": "Princess Zorka of Montenegro",
        "col5": "1934-10-09"
    },
    {
        "col0": "Alexander III of Scotland",
        "col1": "Dunfermline Abbey",
        "col2": "Roxburgh",
        "col3": "Fife",
        "col4": "Alexander II of Scotland",
        "col5": "1286-03-19"
    },
    {
        "col0": "Alexander Georgievich, 7th Duke of Leuchtenberg",
        "col1": "Salies-de-Bearn",
        "col2": "Russian Empire",
        "col3": "Salies-de-Bearn",
        "col4": "George Maximilianovich, 6th Duke of Leuchtenberg",
        "col5": "1942-09-26"
    },
    {
        "col0": "Alexander, Prince of Orange",
        "col1": "Delft",
        "col2": "Netherlands",
        "col3": "Netherlands",
        "col4": "William III of the Netherlands",
        "col5": "1884-06-21"
    },
    {
        "col0": "Albrecht, Duke of Bavaria",
        "col1": "Bavaria",
        "col2": "Kingdom of Bavaria",
        "col3": "Starnberg",
        "col4": "Rupprecht, Crown Prince of Bavaria",
        "col5": "1996-07-08"
    },
    {
        "col0": "Alboin",
        "col1": "Verona",
        "col2": "Pannonia",
        "col3": "Kingdom of the Lombards",
        "col4": "Audoin",
        "col5": "0572-06-28"
    },
    {
        "col0": "A. o. Saxony",
        "col1": "Katholische Hofkirche",
        "col2": "Dresden",
        "col3": "Szczodre",
        "col4": "Amalie Auguste of Bavaria",
        "col5": "1902-06-19"
    },
    {
        "col0": "Albert I of Germany",
        "col1": "Speyer Cathedral",
        "col2": "Rheinfelden",
        "col3": "Brugg",
        "col4": "Rudolph I of Germany",
        "col5": "1308-05-01"
    },
    {
        "col0": "Albert II of Germany",
        "col1": "Szekesfehervar",
        "col2": "Austria",
        "col3": "Hungary",
        "col4": "Albert IV, Duke of Austria",
        "col5": "1439-10-27"
    },
    {
        "col0": "Albert III, Duke of Saxony",
        "col1": "Meissen",
        "col2": "Grimma",
        "col3": "Emden",
        "col4": "Frederick II, Elector of Saxony",
        "col5": "1500-09-12"
    },
    {
        "col0": "Albert II, Duke of Saxony",
        "col1": "Wittenberg",
        "col2": "Wittenberg",
        "col3": "Aken",
        "col4": "Albert I, Duke of Saxony",
        "col5": "1298-08-25"
    },
    {
        "col0": "Albert I, Prince of Monaco",
        "col1": "Saint Nicholas Cathedral, Monaco",
        "col2": "Paris",
        "col3": "French Third Republic",
        "col4": "Charles III, Prince of Monaco",
        "col5": "1922-06-26"
    },
    {
        "col0": "Albert Casimir, Duke of Teschen",
        "col1": "Austria",
        "col2": "Electorate of Saxony",
        "col3": "Vienna",
        "col4": "Augustus III of Poland",
        "col5": "1822-02-10"
    },
    {
        "col0": "A. P. Consort",
        "col1": "Windsor, Berkshire",
        "col2": "German Confederation",
        "col3": "Berkshire",
        "col4": "Ernest I, Duke of Saxe-Coburg and Gotha",
        "col5": "1861-12-14"
    },
    {
        "col0": "Albert, King of Sweden",
        "col1": "Doberan Abbey",
        "col2": "Mecklenburg",
        "col3": "Doberan Abbey",
        "col4": "Albert II, Duke of Mecklenburg",
        "col5": "1412-4-1"
    },
    {
        "col0": "Albert, 8th Prince of Thurn and Taxis",
        "col1": "Regensburg",
        "col2": "Regensburg",
        "col3": "Regensburg",
        "col4": "Duchess Helene in Bavaria",
        "col5": "1952-01-22"
    },
    {
        "col0": "Alaungpaya",
        "col1": "Shwebo",
        "col2": "Shwebo",
        "col3": "Mottama",
        "col4": "M. N. San",
        "col5": "1760-05-11"
    },
    {
        "col0": "Alan IV, Duke of Brittany",
        "col1": "Redon Abbey",
        "col2": "Chateaulin",
        "col3": "Redon, Ille-et-Vilaine",
        "col4": "Hoel II, Duke of Brittany",
        "col5": "1119-10-13"
    },
    {
        "col0": "A. II",
        "col1": "Humayun's Tomb",
        "col2": "Mughal Empire",
        "col3": "Mughal Empire",
        "col4": "J. Shah",
        "col5": "1759-11-29"
    },
    {
        "col0": "Al-Mu'tasim",
        "col1": "Abbasid Samarra",
        "col2": "Baghdad",
        "col3": "Samarra",
        "col4": "H. al-Rashid",
        "col5": "0842-01-05"
    },
    {
        "col0": "A. II",
        "col1": "Delhi",
        "col2": "Mughal Empire",
        "col3": "Constantinople",
        "col4": "S. A. II",
        "col5": "1837-09-28"
    },
    {
        "col0": "Akbar",
        "col1": "Sikandra, Agra",
        "col2": "Umarkot Fort",
        "col3": "Agra",
        "col4": "Humayun",
        "col5": "1605-10-26"
    },
    {
        "col0": "A. Desta",
        "col1": "Addis Ababa",
        "col2": "Ethiopian Empire",
        "col3": "Alexandria, Virginia",
        "col4": "D. Damtew",
        "col5": "2013-01-15"
    },
    {
        "col0": "A. Tajuddin",
        "col1": "Kubah Makam Di Raja",
        "col2": "Brunei",
        "col3": "Singapore General Hospital",
        "col4": "Muhammad Jamalul Alam II",
        "col5": "1950-06-03"
    },
    {
        "col0": "A. S. Bahadur",
        "col1": "Delhi",
        "col2": "Delhi",
        "col3": "Delhi",
        "col4": "M. Shah",
        "col5": "1775-01-01"
    },
    {
        "col0": "A. t. Younger",
        "col1": "Misenum",
        "col2": "Cologne",
        "col3": "Misenum",
        "col4": "A. t. Elder",
        "col5": "59-3-17"
    },
    {
        "col0": "A. t. Elder",
        "col1": "Mausoleum of Augustus",
        "col2": "Athens",
        "col3": "Ventotene",
        "col4": "J. t. Elder",
        "col5": "33-10-16"
    },
    {
        "col0": "A. o. Austria",
        "col1": "Holy Roman Empire",
        "col2": "Vienna",
        "col3": "Holy Roman Empire",
        "col4": "Albert I of Germany",
        "col5": "1364-06-10"
    },
    {
        "col0": "Afonso V of Portugal",
        "col1": "Monastery of Batalha",
        "col2": "Sintra",
        "col3": "Kingdom of Portugal",
        "col4": "E. o. Portugal",
        "col5": "1481-08-28"
    },
    {
        "col0": "Afonso I of Portugal",
        "col1": "Portugal",
        "col2": "Portugal",
        "col3": "Kingdom of Portugal",
        "col4": "Henry, Count of Portugal",
        "col5": "1185-12-06"
    },
    {
        "col0": "Afonso IV of Portugal",
        "col1": "Lisbon Cathedral",
        "col2": "Coimbra",
        "col3": "Kingdom of Portugal",
        "col4": "D. o. Portugal",
        "col5": "1357-05-28"
    },
    {
        "col0": "Afonso II of Portugal",
        "col1": "Portugal",
        "col2": "Kingdom of Portugal",
        "col3": "Santarem, Portugal",
        "col4": "Sancho I of Portugal",
        "col5": "1223-03-25"
    },
    {
        "col0": "Afonso III of Portugal",
        "col1": "Monastery of Alcobaca",
        "col2": "Kingdom of Portugal",
        "col3": "Kingdom of Portugal",
        "col4": "Afonso II of Portugal",
        "col5": "1279-02-16"
    },
    {
        "col0": "Aedh mac Felim O Conchobair",
        "col1": "County Roscommon",
        "col2": "Connacht",
        "col3": "Connacht",
        "col4": "F. U. Conchobair",
        "col5": "1274-05-03"
    },
    {
        "col0": "Adolf Frederick, King of Sweden",
        "col1": "Stockholm",
        "col2": "Schleswig",
        "col3": "Stockholm",
        "col4": "Albertina Frederica of Baden-Durlach",
        "col5": "1771-02-12"
    },
    {
        "col0": "A. Sultan",
        "col1": "Eyup",
        "col2": "Constantinople",
        "col3": "Ottoman Empire",
        "col4": "M. II",
        "col5": "1899-02-12"
    },
    {
        "col0": "A. o. Louvain",
        "col1": "Landgraviate of Brabant",
        "col2": "Leuven",
        "col3": "Landgraviate of Brabant",
        "col4": "Godfrey I, Count of Louvain",
        "col5": "1151-04-23"
    },
    {
        "col0": "A. o. Saxe-Meiningen",
        "col1": "Windsor, Berkshire",
        "col2": "Meiningen",
        "col3": "Middlesex",
        "col4": "George I, Duke of Saxe-Meiningen",
        "col5": "1849-12-02"
    },
    {
        "col0": "Abdullah of Saudi Arabia",
        "col1": "Riyadh",
        "col2": "Riyadh",
        "col3": "Riyadh",
        "col4": "I. Saud",
        "col5": "2015-01-23"
    },
    {
        "col0": "Abdullah I of Jordan",
        "col1": "Raghadan Palace",
        "col2": "Mecca",
        "col3": "Jerusalem",
        "col4": "Hussein bin Ali, Sharif of Mecca",
        "col5": "1951-07-20"
    },
    {
        "col0": "Abdul Rahman of Negeri Sembilan",
        "col1": "Negeri Sembilan",
        "col2": "Seri Menanti",
        "col3": "Federation of Malaya",
        "col4": "Muhammad of Negeri Sembilan",
        "col5": "1960-04-01"
    },
    {
        "col0": "A. R. Khan-I-Khana",
        "col1": "Delhi",
        "col2": "Lahore",
        "col3": "Agra",
        "col4": "B. Khan",
        "col5": "1626-1-1"
    },
    {
        "col0": "A. III",
        "col1": "Alcazar de los Reyes Cristianos",
        "col2": "Cordoba, Spain",
        "col3": "Cordoba, Spain",
        "col4": "Abdullah ibn Muhammad al-Umawi",
        "col5": "0961-10-15"
    },
    {
        "col0": "A. Mirza",
        "col1": "Mashhad",
        "col2": "Mazandaran",
        "col3": "Iran",
        "col4": "Fat'h Ali Shah Qajar",
        "col5": "1833-10-25"
    },
    {
        "col0": "'. al-Dawla",
        "col1": "Najaf",
        "col2": "Isfahan",
        "col3": "Baghdad",
        "col4": "R. al-Dawla",
        "col5": "0983-03-26"
    },
    {
        "col0": "S. Mustafa",
        "col1": "Bursa",
        "col2": "Manisa",
        "col3": "Konya",
        "col4": "S. t. Magnificent",
        "col5": "1553-10-06"
    },
    {
        "col0": "S. Korkut",
        "col1": "Muradiye Complex",
        "col2": "Amasya",
        "col3": "Ottoman Empire",
        "col4": "N. Hatun",
        "col5": "1513-3-13"
    },
    {
        "col0": "S. Cihangir",
        "col1": "Sehzade Mosque",
        "col2": "Ottoman Empire",
        "col3": "Aleppo",
        "col4": "H. Sultan",
        "col5": "1553-11-27"
    },
    {
        "col0": "S. Sultan",
        "col1": "Yavuz Selim Mosque",
        "col2": "Manisa",
        "col3": "Constantinople",
        "col4": "S. I",
        "col5": "1572-1-1"
    },
    {
        "col0": "E. C. d'Orleans",
        "col1": "Nancy, France",
        "col2": "Saint-Cloud",
        "col3": "Commercy",
        "col4": "Philippe I, Duke of Orleans",
        "col5": "1744-12-23"
    },
    {
        "col0": "Elisabeth Alexandrine de Bourbon",
        "col1": "France",
        "col2": "France",
        "col3": "France",
        "col4": "Louis III, Prince of Conde",
        "col5": "1765-04-15"
    },
    {
        "col0": "AEthelwulf",
        "col1": "Steyning",
        "col2": "Aachen",
        "col3": "Wessex",
        "col4": "E. o. Wessex",
        "col5": "0858-01-13"
    },
    {
        "col0": "AEthelstan",
        "col1": "Malmesbury Abbey",
        "col2": "Kingdom of Wessex",
        "col3": "Gloucester",
        "col4": "Ecgwynn",
        "col5": "0939-10-27"
    },
    {
        "col0": "AE. o. Wessex",
        "col1": "Sherborne Abbey",
        "col2": "England",
        "col3": "Sherborne",
        "col4": "AE. o. Wessex",
        "col5": "865-1-1"
    },
    {
        "col0": "AE. o. Wessex",
        "col1": "Sherborne Abbey",
        "col2": "Wessex",
        "col3": "Dorset",
        "col4": "AE. o. Wessex",
        "col5": "0860-12-20"
    }
]