[
    {
        "col0": "W. Kaidel",
        "col1": "Schweinfurt",
        "col2": "1978-4-2",
        "col3": "1912-4-20",
        "col4": "1912-4-20"
    },
    {
        "col0": "W. Bartholomae",
        "col1": "Krefeld",
        "col2": "2000-1-1",
        "col3": "1885-1-31",
        "col4": "1885-1-31"
    },
    {
        "col0": "W. Menne",
        "col1": "Wurzburg",
        "col2": "1945-3-27",
        "col3": "1910-8-11",
        "col4": "1910-8-11"
    },
    {
        "col0": "W. Dehn",
        "col1": "Schoneberg",
        "col2": "1960-1-1",
        "col3": "1889-9-17",
        "col4": "1889-9-17"
    },
    {
        "col0": "W. Volle",
        "col1": "Mannheim",
        "col2": "2002-10-27",
        "col3": "1913-9-18",
        "col4": "1913-9-18"
    },
    {
        "col0": "W. Meyer",
        "col1": "Tangermunde",
        "col2": "1949-12-5",
        "col3": "1904-9-14",
        "col4": "1904-9-14"
    },
    {
        "col0": "W. Katzenstein",
        "col1": "Lisbon",
        "col2": "1929-9-9",
        "col3": "1878-10-8",
        "col4": "1878-10-8"
    },
    {
        "col0": "W. Flinsch",
        "col1": "New York City",
        "col2": "1943-2-3",
        "col3": "1903-2-7",
        "col4": "1903-2-7"
    },
    {
        "col0": "R. Reichelt",
        "col1": "Berlin",
        "col2": "2000-1-1",
        "col3": "1890-3-24",
        "col4": "1890-3-24"
    },
    {
        "col0": "R. Fickeisen",
        "col1": "Trippstadt",
        "col2": "1943-8-21",
        "col3": "1885-5-15",
        "col4": "1885-5-15"
    },
    {
        "col0": "R. Kubail",
        "col1": "Berlin",
        "col2": "1981-8-15",
        "col3": "1952-4-30",
        "col4": "1952-4-30"
    },
    {
        "col0": "P. Sollner",
        "col1": "Davos",
        "col2": "1991-4-8",
        "col3": "1911-6-5",
        "col4": "1911-6-5"
    },
    {
        "col0": "O. Liebing",
        "col1": "Berlin",
        "col2": "1967-11-7",
        "col3": "1891-3-31",
        "col4": "1891-3-31"
    },
    {
        "col0": "O. Fickeisen",
        "col1": "Ludwigshafen",
        "col2": "1963-12-15",
        "col3": "1879-12-24",
        "col4": "1879-12-24"
    },
    {
        "col0": "O. Gossler",
        "col1": "Hamburg",
        "col2": "1953-2-15",
        "col3": "1875-6-26",
        "col4": "1875-6-26"
    },
    {
        "col0": "M. Broske",
        "col1": "Konigsberg",
        "col2": "2000-1-1",
        "col3": "1882-7-25",
        "col4": "1882-7-25"
    },
    {
        "col0": "M. Winter",
        "col1": "Zerbst",
        "col2": "1988-2-21",
        "col3": "1955-11-5",
        "col4": "1955-11-5"
    },
    {
        "col0": "M. Karl",
        "col1": "Wurzburg",
        "col2": "1942-3-1",
        "col3": "1911-6-3",
        "col4": "1911-6-3"
    },
    {
        "col0": "M. Rulffs",
        "col1": "Kiel",
        "col2": "2007-1-15",
        "col3": "1935-3-6",
        "col4": "1935-3-6"
    },
    {
        "col0": "K. Runge",
        "col1": "Brandenburg an der Havel",
        "col2": "1959-11-6",
        "col3": "1887-9-13",
        "col4": "1887-9-13"
    },
    {
        "col0": "K. Ludwig",
        "col1": "Sulechow",
        "col2": "2016-5-18",
        "col3": "1943-1-2",
        "col4": "1943-1-2"
    },
    {
        "col0": "K. Renneberg",
        "col1": "Gelsenkirchen",
        "col2": "1999-10-21",
        "col3": "1927-1-29",
        "col4": "1927-1-29"
    },
    {
        "col0": "K. Aletter",
        "col1": "Mannheim",
        "col2": "1991-3-29",
        "col3": "1906-7-8",
        "col4": "1906-7-8"
    },
    {
        "col0": "K. Adam",
        "col1": "Hagen",
        "col2": "1976-6-18",
        "col3": "1912-5-2",
        "col4": "1912-5-2"
    },
    {
        "col0": "K. Hopp",
        "col1": "Olsztyn",
        "col2": "2007-2-11",
        "col3": "1936-11-20",
        "col4": "1936-11-20"
    },
    {
        "col0": "J. Spremberg",
        "col1": "Berlin",
        "col2": "1975-1-1",
        "col3": "1908-11-3",
        "col4": "1908-11-3"
    },
    {
        "col0": "J. Bohmer",
        "col1": "Berlin",
        "col2": "1999-12-28",
        "col3": "1940-10-01",
        "col4": "1940-10-01"
    },
    {
        "col0": "H. Strauss",
        "col1": "Mannheim",
        "col2": "1941-11-1",
        "col3": "1907-6-25",
        "col4": "1907-6-25"
    },
    {
        "col0": "H. Hoeck",
        "col1": "Berlin",
        "col2": "1969-4-12",
        "col3": "1904-5-19",
        "col4": "1904-5-19"
    },
    {
        "col0": "H. Arndt",
        "col1": "Konigsberg",
        "col2": "2014-10-19",
        "col3": "1934-9-19",
        "col4": "1934-9-19"
    },
    {
        "col0": "H. Buhtz",
        "col1": "Magdeburg",
        "col2": "2006-6-7",
        "col3": "1911-4-12",
        "col4": "1911-4-12"
    },
    {
        "col0": "H. Adamski",
        "col1": "Berlin",
        "col2": "1941-8-11",
        "col3": "1910-4-30",
        "col4": "1910-4-30"
    },
    {
        "col0": "H. Heinhold",
        "col1": "Bremen",
        "col2": "2008-11-7",
        "col3": "1927-7-1",
        "col4": "1927-7-1"
    }
]