[
    {
        "col0": "N. E. Sonbaty",
        "col1": "Stuttgart, Germany",
        "col2": "Cairo, Egypt",
        "col3": "1965-10-15",
        "col4": "2013-03-20",
        "col5": "1965-10-15"
    },
    {
        "col0": "M. Roy",
        "col1": "British India",
        "col2": "India",
        "col3": "1916-10-21",
        "col4": "2005-06-29",
        "col5": "1916-10-21"
    },
    {
        "col0": "M. Benaziza",
        "col1": "Algeria",
        "col2": "Zeeland",
        "col3": "1959-1-1",
        "col4": "1992-10-04",
        "col5": "1959-1-1"
    },
    {
        "col0": "M. Mentzer",
        "col1": "Pennsylvania",
        "col2": "California",
        "col3": "1951-11-15",
        "col4": "2001-06-10",
        "col5": "1951-11-15"
    },
    {
        "col0": "M. Matarazzo",
        "col1": "Boston",
        "col2": "Palo Alto, California",
        "col3": "1965-11-08",
        "col4": "2014-08-16",
        "col5": "1965-11-08"
    },
    {
        "col0": "M. Aich",
        "col1": "Comilla",
        "col2": "India",
        "col3": "1912-03-17",
        "col4": "2016-06-05",
        "col5": "1912-03-17"
    },
    {
        "col0": "L. Combes",
        "col1": "Racine, Wisconsin",
        "col2": "Odessa, Florida",
        "col3": "1953-10-19",
        "col4": "1989-10-04",
        "col5": "1953-10-19"
    },
    {
        "col0": "L. Scott",
        "col1": "United States",
        "col2": "United States",
        "col3": "1938-10-12",
        "col4": "2014-03-08",
        "col5": "1938-10-12"
    },
    {
        "col0": "K. Baxter",
        "col1": "Ohio",
        "col2": "Los Angeles, California",
        "col3": "1945-10-03",
        "col4": "1988-05-16",
        "col5": "1945-10-03"
    },
    {
        "col0": "J. Grimek",
        "col1": "Perth Amboy, New Jersey",
        "col2": "York, Pennsylvania",
        "col3": "1910-06-17",
        "col4": "1998-11-20",
        "col5": "1910-06-17"
    },
    {
        "col0": "J. Weider",
        "col1": "Quebec",
        "col2": "California",
        "col3": "1920-11-11",
        "col4": "2013-03-23",
        "col5": "1920-11-11"
    },
    {
        "col0": "J. Gold",
        "col1": "Boyle Heights, Los Angeles",
        "col2": "Marina del Rey, California",
        "col3": "1922-3-10",
        "col4": "2004-7-11",
        "col5": "1922-3-10"
    },
    {
        "col0": "I. Koszewski",
        "col1": "Camden, New Jersey",
        "col2": "Doylestown, Pennsylvania",
        "col3": "1922-08-20",
        "col4": "2009-03-29",
        "col5": "1922-08-20"
    },
    {
        "col0": "G. Kovacs",
        "col1": "Ontario",
        "col2": "Ontario",
        "col3": "1968-12-16",
        "col4": "2013-11-22",
        "col5": "1968-12-16"
    },
    {
        "col0": "F. R. Rivera",
        "col1": "Ponce, Puerto Rico",
        "col2": "Caguas, Puerto Rico",
        "col3": "1972-03-19",
        "col4": "2010-02-16",
        "col5": "1972-03-19"
    },
    {
        "col0": "F. Hodzic",
        "col1": "Prijedor",
        "col2": "Prijedor",
        "col3": "1953-06-26",
        "col4": "1992-07-09",
        "col5": "1953-06-26"
    },
    {
        "col0": "F. Saied",
        "col1": "Syria",
        "col2": "Dubai",
        "col3": "1981-01-17",
        "col4": "2015-06-06",
        "col5": "1981-01-17"
    },
    {
        "col0": "E. Sandow",
        "col1": "Kingdom of Prussia",
        "col2": "London",
        "col3": "1867-04-02",
        "col4": "1925-10-14",
        "col5": "1867-04-02"
    },
    {
        "col0": "D. Tinerino",
        "col1": "Brooklyn",
        "col2": "California",
        "col3": "1945-12-23",
        "col4": "2010-05-07",
        "col5": "1945-12-23"
    },
    {
        "col0": "D. Dobbins",
        "col1": "Philippines",
        "col2": "Los Angeles, California",
        "col3": "1963-10-28",
        "col4": "1993-12-30",
        "col5": "1963-10-28"
    },
    {
        "col0": "D. Seccarecci",
        "col1": "Livorno",
        "col2": "Italy",
        "col3": "1980-06-10",
        "col4": "2013-09-03",
        "col5": "1980-06-10"
    },
    {
        "col0": "C. Csencsits",
        "col1": "Northampton County, Pennsylvania",
        "col2": "Tulsa County, Oklahoma",
        "col3": "1955-12-29",
        "col4": "1989-01-11",
        "col5": "1955-12-29"
    },
    {
        "col0": "A. Shavershian",
        "col1": "Moscow",
        "col2": "Bangkok",
        "col3": "1989-03-24",
        "col4": "2011-08-05",
        "col5": "1989-03-24"
    },
    {
        "col0": "A. Munzer",
        "col1": "Pack, Styria",
        "col2": "Munich",
        "col3": "1964-10-25",
        "col4": "1996-3-14",
        "col5": "1964-10-25"
    },
    {
        "col0": "A. Steel",
        "col1": "Kingdom of Italy",
        "col2": "Kingdom of Italy",
        "col3": "1935-09-07",
        "col4": "2015-09-05",
        "col5": "1935-09-07"
    },
    {
        "col0": "A. \". Stockton",
        "col1": "Santa Monica, California",
        "col2": "California",
        "col3": "1917-08-11",
        "col4": "2006-06-26",
        "col5": "1917-08-11"
    }
]