[
    {
        "col0": "The Texas Chain Saw Massacre",
        "col1": "D. Pearl",
        "col2": "J. Larroquette",
        "col3": "T. Hooper",
        "col4": "5040"
    },
    {
        "col0": "The Ten Commandments",
        "col1": "L. Griggs",
        "col2": "C. B. DeMille",
        "col3": "E. Bernstein",
        "col4": "13200"
    },
    {
        "col0": "The Story of Ruth",
        "col1": "A. E. Arling",
        "col2": "E. Franz",
        "col3": "F. Waxman",
        "col4": "7920"
    },
    {
        "col0": "The St. Valentine's Day Massacre",
        "col1": "M. R. Krasner",
        "col2": "P. Frees",
        "col3": "F. Steiner",
        "col4": "6000"
    },
    {
        "col0": "The Spanish Earth",
        "col1": "J. Ivens",
        "col2": "O. Welles",
        "col3": "M. Blitzstein",
        "col4": "3120"
    },
    {
        "col0": "The Song of Ceylon",
        "col1": "B. Wright",
        "col2": "L. Wendt",
        "col3": "W. Leigh",
        "col4": "2280"
    },
    {
        "col0": "The Solid Gold Cadillac",
        "col1": "C. Lang",
        "col2": "G. Burns",
        "col3": "C. J. Mockridge",
        "col4": "5940"
    },
    {
        "col0": "The Snows of Kilimanjaro",
        "col1": "L. Shamroy",
        "col2": "G. Peck",
        "col3": "B. Herrmann",
        "col4": "7020"
    },
    {
        "col0": "The Smurfs 2",
        "col1": "P. Meheux",
        "col2": "T. Kane",
        "col3": "H. Pereira",
        "col4": "6300"
    },
    {
        "col0": "The Smurfs",
        "col1": "P. Meheux",
        "col2": "T. Kane",
        "col3": "H. Pereira",
        "col4": "6180"
    },
    {
        "col0": "The Simple-Minded Murderer",
        "col1": "J. Persson",
        "col2": "S. Skarsgard",
        "col3": "G. Verdi",
        "col4": "6480"
    },
    {
        "col0": "The Shiralee",
        "col1": "P. Beeson",
        "col2": "C. Tingwell",
        "col3": "J. Addison",
        "col4": "5940"
    },
    {
        "col0": "The Shaggy Dog",
        "col1": "E. Colman",
        "col2": "P. Frees",
        "col3": "P. Smith",
        "col4": "6240"
    },
    {
        "col0": "The Serpent and the Rainbow",
        "col1": "J. Lindley",
        "col2": "B. Pullman",
        "col3": "B. Fiedel",
        "col4": "5880"
    },
    {
        "col0": "The Sea Around Us",
        "col1": "D. Harrison",
        "col2": "T. v. Eltz",
        "col3": "C. Bakaleinikoff",
        "col4": "3660"
    },
    {
        "col0": "The Salton Sea",
        "col1": "A. Mokri",
        "col2": "V. Kilmer",
        "col3": "T. Newman",
        "col4": "6180"
    },
    {
        "col0": "The Saint of Fort Washington",
        "col1": "F. Elmes",
        "col2": "D. Glover",
        "col3": "J. N. Howard",
        "col4": "5940"
    },
    {
        "col0": "The Royal Tenenbaums",
        "col1": "R. Yeoman",
        "col2": "A. Baldwin",
        "col3": "M. Mothersbaugh",
        "col4": "6540"
    },
    {
        "col0": "The Road",
        "col1": "J. Aguirresarobe",
        "col2": "V. Mortensen",
        "col3": "N. Cave",
        "col4": "6660"
    },
    {
        "col0": "The Rise of Catherine the Great",
        "col1": "G. Perinal",
        "col2": "A. Kerensky",
        "col3": "E. Toch",
        "col4": "5640"
    },
    {
        "col0": "The Right Stuff",
        "col1": "C. Deschanel",
        "col2": "L. Helm",
        "col3": "B. Conti",
        "col4": "11520"
    },
    {
        "col0": "The Return of Don Camillo",
        "col1": "A. Brizzi",
        "col2": "E. Cigoli",
        "col3": "A. Cicognini",
        "col4": "6900"
    },
    {
        "col0": "The Resurrection of Broncho Billy",
        "col1": "N. Castle",
        "col2": "R. Hussey",
        "col3": "J. Carpenter",
        "col4": "1380"
    },
    {
        "col0": "The Reivers",
        "col1": "R. Moore",
        "col2": "B. Meredith",
        "col3": "J. Williams",
        "col4": "6420"
    },
    {
        "col0": "The Red Badge of Courage",
        "col1": "H. Rosson",
        "col2": "J. Whitmore",
        "col3": "B. Kaper",
        "col4": "4140"
    },
    {
        "col0": "The Railway Children",
        "col1": "A. Ibbetson",
        "col2": "J. Agutter",
        "col3": "J. Douglas",
        "col4": "6600"
    },
    {
        "col0": "The Quiet Man",
        "col1": "W. Hoch",
        "col2": "W. Bond",
        "col3": "V. Young",
        "col4": "7740"
    },
    {
        "col0": "The Princess Bride",
        "col1": "A. Biddle",
        "col2": "P. Falk",
        "col3": "M. Knopfler",
        "col4": "5880"
    },
    {
        "col0": "The Powerpuff Girls Movie",
        "col1": "G. Tartakovsky",
        "col2": "T. Kenny",
        "col3": "J. L. Venable",
        "col4": "4500"
    },
    {
        "col0": "The Poppy Is Also a Flower",
        "col1": "H. Alekan",
        "col2": "G. Kelly",
        "col3": "G. Garvarentz",
        "col4": "4800"
    },
    {
        "col0": "The Plunderers",
        "col1": "G. Polito",
        "col2": "J. Chandler",
        "col3": "L. Rosenman",
        "col4": "5640"
    },
    {
        "col0": "The Picture of Dorian Gray",
        "col1": "H. Stradling",
        "col2": "C. Hardwicke",
        "col3": "H. Stothart",
        "col4": "6600"
    },
    {
        "col0": "The Perfect Holiday",
        "col1": "T. Maniaci",
        "col2": "Q. Latifah",
        "col3": "C. Lennertz",
        "col4": "5760"
    },
    {
        "col0": "The Other Guys",
        "col1": "O. Wood",
        "col2": "Ice-T",
        "col3": "J. Brion",
        "col4": "6420"
    },
    {
        "col0": "The Oscar",
        "col1": "J. Ruttenberg",
        "col2": "T. Bennett",
        "col3": "P. Faith",
        "col4": "7140"
    },
    {
        "col0": "The Old Man and the Sea",
        "col1": "U. photography",
        "col2": "S. Tracy",
        "col3": "D. Tiomkin",
        "col4": "5160"
    },
    {
        "col0": "The Notebook",
        "col1": "R. Fraisse",
        "col2": "J. Garner",
        "col3": "A. Zigman",
        "col4": "7440"
    },
    {
        "col0": "The Night Before",
        "col1": "B. Trost",
        "col2": "T. Morgan",
        "col3": "M. Beltrami",
        "col4": "6060"
    },
    {
        "col0": "The NeverEnding Story",
        "col1": "J. Vacano",
        "col2": "A. Oppenheimer",
        "col3": "G. Moroder",
        "col4": "5580"
    },
    {
        "col0": "The Naked City",
        "col1": "W. H. Daniels",
        "col2": "M. Hellinger",
        "col3": "M. Rozsa",
        "col4": "5760"
    },
    {
        "col0": "The Mirror",
        "col1": "G. Rerberg",
        "col2": "A. Tarkovsky",
        "col3": "E. Artemyev",
        "col4": "6360"
    },
    {
        "col0": "The Message",
        "col1": "J. Hildyard",
        "col2": "R. Johnson",
        "col3": "M. Jarre",
        "col4": "10680"
    },
    {
        "col0": "The Married Couple of the Year Two",
        "col1": "C. Renoir",
        "col2": "J. Marielle",
        "col3": "M. Legrand",
        "col4": "5880"
    },
    {
        "col0": "The Manchurian Candidate",
        "col1": "L. Lindon",
        "col2": "P. Frees",
        "col3": "D. Amram",
        "col4": "7560"
    },
    {
        "col0": "The Magnificent Ambersons",
        "col1": "S. Cortez",
        "col2": "O. Welles",
        "col3": "T. M. Ambersons",
        "col4": "5280"
    },
    {
        "col0": "The Lover",
        "col1": "R. Fraisse",
        "col2": "J. Moreau",
        "col3": "G. Yared",
        "col4": "6900"
    },
    {
        "col0": "The Long Walk Home",
        "col1": "R. Deakins",
        "col2": "M. Steenburgen",
        "col3": "G. Fenton",
        "col4": "5820"
    },
    {
        "col0": "The Long Ships",
        "col1": "C. Challis",
        "col2": "E. Judd",
        "col3": "D. Radic",
        "col4": "7560"
    },
    {
        "col0": "The Long Gray Line",
        "col1": "C. Lang",
        "col2": "T. Power",
        "col3": "G. Duning",
        "col4": "8280"
    },
    {
        "col0": "The Long Days of Summer",
        "col1": "C. Correll",
        "col2": "C. Aidman",
        "col3": "W. Scharf",
        "col4": "4860"
    },
    {
        "col0": "The Living Desert",
        "col1": "N. Paul Kenworthy Jr.",
        "col2": "W. Hibler",
        "col3": "P. Smith",
        "col4": "4140"
    },
    {
        "col0": "The Lion Has Wings",
        "col1": "O. Borradaile",
        "col2": "L. Thomas",
        "col3": "R. Addinsell",
        "col4": "4560"
    },
    {
        "col0": "The Legend of Pancho Barnes and the Happy Bottom Riding Club",
        "col1": "C. Westervelt",
        "col2": "T. Skerritt",
        "col3": "N. Wang",
        "col4": "3840"
    },
    {
        "col0": "The Legend of Lobo",
        "col1": "J. Couffer",
        "col2": "R. Allen",
        "col3": "R. B. Sherman",
        "col4": "4020"
    },
    {
        "col0": "The Legend of Bagger Vance",
        "col1": "M. Ballhaus",
        "col2": "J. Lemmon",
        "col3": "R. Portman",
        "col4": "7560"
    },
    {
        "col0": "The Last of England",
        "col1": "D. Jarman",
        "col2": "N. Terry",
        "col3": "D. Galas",
        "col4": "5220"
    },
    {
        "col0": "The Last Airbender",
        "col1": "A. Lesnie",
        "col2": "N. Peltz",
        "col3": "J. N. Howard",
        "col4": "6180"
    },
    {
        "col0": "The Land That Time Forgot",
        "col1": "A. Hume",
        "col2": "D. McClure",
        "col3": "D. Gamley",
        "col4": "5460"
    },
    {
        "col0": "The Lady from Shanghai",
        "col1": "R. Mate",
        "col2": "O. Welles",
        "col3": "H. Roemheld",
        "col4": "5220"
    },
    {
        "col0": "The Killing",
        "col1": "L. Ballard",
        "col2": "A. Gilmore",
        "col3": "G. Fried",
        "col4": "5100"
    },
    {
        "col0": "The Killer That Stalked New York",
        "col1": "J. F. Biroc",
        "col2": "R. Hadley",
        "col3": "H. J. Salter",
        "col4": "4740"
    },
    {
        "col0": "The Keys of the Kingdom",
        "col1": "A. C. Miller",
        "col2": "S. C. Hardwicke",
        "col3": "A. Newman",
        "col4": "8160"
    },
    {
        "col0": "The Jungle Book",
        "col1": "B. Pope",
        "col2": "B. Kingsley",
        "col3": "J. Debney",
        "col4": "6300"
    },
    {
        "col0": "The Iron Curtain",
        "col1": "C. G. Clarke",
        "col2": "R. Hadley",
        "col3": "A. Newman",
        "col4": "5220"
    },
    {
        "col0": "The Inner Eye",
        "col1": "S. Roy",
        "col2": "S. Ray",
        "col3": "S. Ray",
        "col4": "1200"
    },
    {
        "col0": "The Informant!",
        "col1": "P. Andrews",
        "col2": "M. Damon",
        "col3": "M. Hamlisch",
        "col4": "6480"
    },
    {
        "col0": "The Incredible Journey",
        "col1": "K. Peach",
        "col2": "R. Allen",
        "col3": "O. Wallace",
        "col4": "4800"
    },
    {
        "col0": "The Huntsman: Winter's War",
        "col1": "P. Papamichael",
        "col2": "L. Neeson",
        "col3": "J. N. Howard",
        "col4": "6840"
    },
    {
        "col0": "The House on 92nd Street",
        "col1": "N. Brodine",
        "col2": "R. Hadley",
        "col3": "D. Buttolph",
        "col4": "5280"
    },
    {
        "col0": "The Hotel New Hampshire",
        "col1": "D. Watkin",
        "col2": "R. Lowe",
        "col3": "J. Offenbach",
        "col4": "6600"
    },
    {
        "col0": "The Horseman on the Roof",
        "col1": "T. Arbogast",
        "col2": "J. Weber",
        "col3": "J. Petit",
        "col4": "8100"
    },
    {
        "col0": "The Hire",
        "col1": "R. Richardson",
        "col2": "C. Owen",
        "col3": "H. Gregson-Williams",
        "col4": "3840"
    },
    {
        "col0": "The Highwayman",
        "col1": "H. Neumann",
        "col2": "B. Aherne",
        "col3": "H. B. Gilbert",
        "col4": "4920"
    },
    {
        "col0": "The Hateful Eight",
        "col1": "R. Richardson",
        "col2": "Q. Tarantino",
        "col3": "E. Morricone",
        "col4": "10080"
    },
    {
        "col0": "The Guns of Navarone",
        "col1": "O. Morris",
        "col2": "J. R. Justice",
        "col3": "D. Tiomkin",
        "col4": "9480"
    },
    {
        "col0": "The Green Glove",
        "col1": "C. Renoir",
        "col2": "J. Dehner",
        "col3": "J. Kosma",
        "col4": "5340"
    },
    {
        "col0": "The Greatest Show on Earth",
        "col1": "G. Barnes",
        "col2": "C. B. DeMille",
        "col3": "V. Young",
        "col4": "9120"
    },
    {
        "col0": "The Great Northfield Minnesota Raid",
        "col1": "B. Surtees",
        "col2": "P. Frees",
        "col3": "D. Grusin",
        "col4": "5460"
    },
    {
        "col0": "The Great Gatsby",
        "col1": "S. Duggan",
        "col2": "T. Maguire",
        "col3": "C. Armstrong",
        "col4": "8520"
    },
    {
        "col0": "The Great Ecstasy of Woodcarver Steiner",
        "col1": "J. Schmidt-Reitwein",
        "col2": "W. Herzog",
        "col3": "P. Vuh",
        "col4": "2700"
    },
    {
        "col0": "The Great American Cowboy",
        "col1": "R. Smoot",
        "col2": "J. McCrea",
        "col3": "H. Farberman",
        "col4": "5340"
    },
    {
        "col0": "The Grass Harp",
        "col1": "J. A. Alonzo",
        "col2": "B. Gaines",
        "col3": "P. Williams",
        "col4": "6420"
    },
    {
        "col0": "The Gospel of John",
        "col1": "M. Baszak",
        "col2": "C. Plummer",
        "col3": "J. Danna",
        "col4": "10800"
    },
    {
        "col0": "The Gentle Sex",
        "col1": "R. Krasker",
        "col2": "L. Howard",
        "col3": "John D. H. Greenwood",
        "col4": "5520"
    },
    {
        "col0": "The Gallant Hours",
        "col1": "J. MacDonald",
        "col2": "R. Montgomery",
        "col3": "R. Wagner",
        "col4": "6900"
    },
    {
        "col0": "The Fourth Estate",
        "col1": "J. E. Rogers",
        "col2": "N. Hannen",
        "col3": "W. Leigh",
        "col4": "3780"
    },
    {
        "col0": "The Forgotten Village",
        "col1": "A. Hammid",
        "col2": "B. Meredith",
        "col3": "H. Eisler",
        "col4": "4020"
    },
    {
        "col0": "The Forbidden Street",
        "col1": "G. Perinal",
        "col2": "M. O'Hara",
        "col3": "M. Arnold",
        "col4": "5400"
    },
    {
        "col0": "The First Wives Club",
        "col1": "D. E. Thorin",
        "col2": "D. Keaton",
        "col3": "M. Shaiman",
        "col4": "6180"
    },
    {
        "col0": "The Endless Summer",
        "col1": "B. Brown",
        "col2": "B. Brown",
        "col3": "T. Sandals",
        "col4": "5700"
    },
    {
        "col0": "The Enchanted Cottage",
        "col1": "T. Tetzlaff",
        "col2": "H. Marshall",
        "col3": "R. Webb",
        "col4": "5460"
    },
    {
        "col0": "The Dukes of Hazzard",
        "col1": "L. Sher",
        "col2": "J. Brown",
        "col3": "N. Barr",
        "col4": "6360"
    },
    {
        "col0": "The Dirty Picture",
        "col1": "B. Singh",
        "col2": "E. Hashmi",
        "col3": "Vishal-Shekhar",
        "col4": "8640"
    },
    {
        "col0": "The Devil's Disciple",
        "col1": "J. Hildyard",
        "col2": "P. Leeds",
        "col3": "R. R. Bennett",
        "col4": "4980"
    },
    {
        "col0": "The Devil's Backbone",
        "col1": "G. Navarro",
        "col2": "F. Luppi",
        "col3": "J. Navarrete",
        "col4": "6420"
    },
    {
        "col0": "The Desert Rats",
        "col1": "L. Ballard",
        "col2": "M. Rennie",
        "col3": "L. Harline",
        "col4": "5280"
    },
    {
        "col0": "The Desert Hawk",
        "col1": "R. Metty",
        "col2": "J. Chandler",
        "col3": "F. Skinner",
        "col4": "4620"
    }
]