[
    {
        "col0": "Being Nikki",
        "col1": "Airhead",
        "col2": "PZ7.C11165 Bd 2009",
        "col3": "978-0-545-04056-3"
    },
    {
        "col0": "Begums Thugs and White Mughals",
        "col1": "White Mughals",
        "col2": "DS412 .P24 2002",
        "col3": "0-907871-88-7"
    },
    {
        "col0": "Beggars Ride",
        "col1": "Beggars and Choosers",
        "col2": "PS3561.R46 B44 1996",
        "col3": "0-312-85817-5"
    },
    {
        "col0": "Beetle in the Anthill",
        "col1": "The Kid from Hell",
        "col2": "PG3476.S78835 Z4913",
        "col3": "0-02-615120-0"
    },
    {
        "col0": "Beebo Brinker",
        "col1": "Journey to a Woman",
        "col2": "PS3552.A495 B44 2003",
        "col3": "1-57344-125-2"
    },
    {
        "col0": "Because the Night",
        "col1": "Blood on the Moon",
        "col2": "PS3555.L6274 B4 1984",
        "col3": "978-0-89296-071-2"
    },
    {
        "col0": "Beautiful Stranger",
        "col1": "Heart of Glass",
        "col2": "PZ7.D3473 Bea 2007",
        "col3": "0-316-11352-2"
    },
    {
        "col0": "Bearing an Hourglass",
        "col1": "On A Pale Horse",
        "col2": "PS3551.N73 B4 1984",
        "col3": "978-0-345-31314-0"
    },
    {
        "col0": "Beach Music",
        "col1": "The Prince of Tides",
        "col2": "PS3553.O5198 B43 1995",
        "col3": "0-385-41304-1"
    },
    {
        "col0": "Basket Case",
        "col1": "Sick Puppy",
        "col2": "PS3558.I217 B37 2002",
        "col3": "0-375-41107-0"
    },
    {
        "col0": "Barbarian Princess",
        "col1": "The Centurions",
        "col2": "N/A",
        "col3": "978-0-345-29826-3"
    },
    {
        "col0": "Banquets of the Black Widowers",
        "col1": "Casebook of the Black Widowers",
        "col2": "PS3551.S5 B3 1984",
        "col3": "0-385-19541-9"
    },
    {
        "col0": "Balance Point",
        "col1": "Agents of Chaos: Jedi Eclipse",
        "col2": "PS3570.Y4 B35 2000",
        "col3": "0-345-42857-9"
    },
    {
        "col0": "Baking with Julia",
        "col1": "In Julia's Kitchen with Master Chefs",
        "col2": "TX763 .G654 1996",
        "col3": "0-688-14657-0"
    },
    {
        "col0": "Bad Business",
        "col1": "Back Story",
        "col2": "PS3566.A686 B34 2004",
        "col3": "0-399-15145-1"
    },
    {
        "col0": "Back to Bologna",
        "col1": "Medusa",
        "col2": "PR6054.I26 B33 2005",
        "col3": "0-571-22775-9"
    },
    {
        "col0": "Back in Black",
        "col1": "Tall Cool One",
        "col2": "PZ7.D3473 Bac 2005",
        "col3": "0-316-01092-8"
    },
    {
        "col0": "Babylon 5: Legions of Fire - Out of the Darkness",
        "col1": "Babylon 5: Legions of Fire - Armies of Light and Dark",
        "col2": "PS3554.A92144 B3 2000",
        "col3": "0-345-42720-3"
    },
    {
        "col0": "Axis",
        "col1": "Spin",
        "col2": "PR9199.3.W4987A97",
        "col3": "978-0765348265"
    },
    {
        "col0": "Avatar",
        "col1": "Hollywood Noir",
        "col2": "CPB Box no. 1911 vol. 19",
        "col3": "0-7434-0698-2"
    },
    {
        "col0": "Aunts Aren't Gentlemen",
        "col1": "Much Obliged, Jeeves",
        "col2": "PZ3.W817 Au PR6045.O53",
        "col3": "0-214-20047-7"
    },
    {
        "col0": "Atlantis Found",
        "col1": "Flood Tide",
        "col2": "PS3553.U75 A94 1999",
        "col3": "0-399-14588-5"
    },
    {
        "col0": "At All Costs",
        "col1": "War of Honor",
        "col2": "PS3573.E217 A94 2005",
        "col3": "1-4165-0911-9"
    },
    {
        "col0": "Assassins",
        "col1": "Apollyon",
        "col2": "PS3562.A315 A94 1999",
        "col3": "0-8423-2920-X"
    },
    {
        "col0": "Asleep",
        "col1": "Amrita",
        "col2": "PL865.O7138 S5413 2000",
        "col3": "0-8021-1669-8"
    },
    {
        "col0": "Ashes of Victory",
        "col1": "Echoes of Honor",
        "col2": "PS3573.E217 A87 2000",
        "col3": "0-671-57854-5"
    },
    {
        "col0": "As Sure as the Dawn",
        "col1": "An Echo in the Darkness",
        "col2": "PS3568.I83165 V65 1993",
        "col3": "978-0842339766"
    },
    {
        "col0": "As She Climbed Across the Table",
        "col1": "The Wall of the Sky, the Wall of the Eye",
        "col2": "PS3562.E8544 A9 1997",
        "col3": "0-385-48517-4"
    },
    {
        "col0": "Artemis Fowl: The Arctic Incident",
        "col1": "Artemis Fowl",
        "col2": "MLCS 2006/41940 (P)",
        "col3": "978-0-43945070-6"
    },
    {
        "col0": "Armageddon",
        "col1": "The Remnant",
        "col2": "PS3562.A315 A76 2003",
        "col3": "0-8423-3234-0"
    },
    {
        "col0": "Armageddon's Children",
        "col1": "Angel Fire East",
        "col2": "PS3552.R6596 A83 2006",
        "col3": "0-345-48408-8"
    },
    {
        "col0": "Ark Angel",
        "col1": "Scorpia",
        "col2": "PZ7.H7875 Ar 2005",
        "col3": "0-7445-8324-1"
    },
    {
        "col0": "Argall: The True Story of Pocahontas and Captain John Smith",
        "col1": "Fathers and Crows",
        "col2": "PS3572.O395 A83 2001",
        "col3": "0-670-91030-9"
    },
    {
        "col0": "Are You There, Vodka? It's Me, Chelsea",
        "col1": "My Horizontal Life: A Collection of One-Night Stands",
        "col2": "HQ801 .H3193 2008",
        "col3": "978-1-4169-5412-5"
    },
    {
        "col0": "Are You Afraid of the Dark?",
        "col1": "The Sky Is Falling",
        "col2": "PS3569.H3927 A83 2004",
        "col3": "0-06-055934-9"
    },
    {
        "col0": "Arctic Drift",
        "col1": "Treasure of Khan",
        "col2": "PS3553.U75 A89 2008b",
        "col3": "978-0-399-15529-1"
    },
    {
        "col0": "ArchEnemy",
        "col1": "Seeing Redd",
        "col2": "PZ7.B3817982 Ev 2009",
        "col3": "978-0-8037-3156-1"
    },
    {
        "col0": "Apollyon",
        "col1": "Soul Harvest",
        "col2": "PS3562.A315 A56 1999",
        "col3": "0-8423-2916-1"
    },
    {
        "col0": "Apocalypse Memories",
        "col1": "Wicked Willow",
        "col2": "CPB Box no. 2208 vol. 14",
        "col3": "978-0-689-86700-2"
    },
    {
        "col0": "Antrax",
        "col1": "Ilse Witch",
        "col2": "PS3552.R6596 V69 2001",
        "col3": "0-345-39766-5"
    },
    {
        "col0": "Antony and Cleopatra",
        "col1": "The October Horse",
        "col2": "PR9619.3.M32 A58 2007",
        "col3": "1-4165-5294-4"
    },
    {
        "col0": "Annihilation",
        "col1": "Extinction",
        "col2": "PS3601.T46 A85 2004",
        "col3": "0-7869-3237-6"
    },
    {
        "col0": "Angry Lead Skies",
        "col1": "Faded Steel Heat",
        "col2": "CPB Box no. 1851 vol. 13",
        "col3": "0-451-45875-3"
    },
    {
        "col0": "Angels Flight",
        "col1": "Trunk Music",
        "col2": "PS3553.O51165 A8 1999",
        "col3": "978-0-316-15219-8"
    },
    {
        "col0": "Angel and Apostle",
        "col1": "The Scarlet Letter",
        "col2": "PZ7.N96157 Ang 2005",
        "col3": "1-932961-10-0"
    },
    {
        "col0": "Angel Fire East",
        "col1": "A Knight of the Word",
        "col2": "PS3552.R6596 A8 1999",
        "col3": "0-345-37964-0"
    },
    {
        "col0": "And Eternity",
        "col1": "For Love of Evil",
        "col2": "PS3551.N73 A8 1990",
        "col3": "978-0-688-08688-6"
    },
    {
        "col0": "Anansi Boys",
        "col1": "American Gods",
        "col2": "PR6057.A319 A85 2005",
        "col3": "0-06-051518-X"
    },
    {
        "col0": "An Urchin in the Storm",
        "col1": "Time's Arrow, Time's Cycle",
        "col2": "QH311 .G68 1987",
        "col3": "0-393-02492-X"
    },
    {
        "col0": "An Invitation to the White House",
        "col1": "Dear Socks, Dear Buddy",
        "col2": "F204.W5 C58 2000",
        "col3": "0-684-85799-5"
    },
    {
        "col0": "An Experiment in Treason",
        "col1": "Smuggler's Moon",
        "col2": "PS3553.O55314 E97 2002",
        "col3": "0-399-14923-6"
    },
    {
        "col0": "An April Shroud",
        "col1": "Ruling Passion",
        "col2": "PZ4.H64856 Ap PR6058.I448",
        "col3": "0-00-231842-3"
    },
    {
        "col0": "An Anthropologist on Mars",
        "col1": "Seeing Voices",
        "col2": "RC351 .S1948 1995",
        "col3": "0-679-43785-1"
    },
    {
        "col0": "An Acceptable Time",
        "col1": "Many Waters",
        "col2": "PZ7.L5385 Ac 1989",
        "col3": "0-374-30027-5"
    },
    {
        "col0": "Amrita",
        "col1": "Lizard",
        "col2": "PL865.O7138 A4813 1994",
        "col3": "0-8021-1590-X"
    },
    {
        "col0": "Among the Free",
        "col1": "Among the Enemy",
        "col2": "PZ7.H1164 Alf 2006",
        "col3": "0-689-85798-5"
    },
    {
        "col0": "Among the Enemy",
        "col1": "Among the Brave",
        "col2": "PZ7.H1164 Ale 2005",
        "col3": "0-689-85796-9"
    },
    {
        "col0": "Among the Brave",
        "col1": "Among the Barons",
        "col2": "PZ7.H1164 Al 2004",
        "col3": "0-689-85794-2"
    },
    {
        "col0": "Among the Betrayed",
        "col1": "Among the Impostors",
        "col2": "PZ7.H1164 Ak 2002",
        "col3": "0-689-83905-7"
    },
    {
        "col0": "Among the Barons",
        "col1": "Among the Betrayed",
        "col2": "PZ7.H1164 Aj 2003",
        "col3": "0-689-83906-5"
    },
    {
        "col0": "Amnesia Moon",
        "col1": "Gun, with Occasional Music",
        "col2": "PS3562.E8544 A8 1995",
        "col3": "0-15-100091-3"
    },
    {
        "col0": "American Smooth",
        "col1": "On the Bus with Rosa Parks",
        "col2": "PS3554.O884 A77 2004",
        "col3": "978-0-393-05987-8"
    },
    {
        "col0": "American Empire: The Victorious Opposition",
        "col1": "American Empire: The Center Cannot Hold",
        "col2": "PS3570.U76 A84 2003",
        "col3": "0-345-44423-X"
    },
    {
        "col0": "American Empire: Blood and Iron",
        "col1": "The Great War: Breakthroughs",
        "col2": "PS3570.U76 A8 2001",
        "col3": "0-345-40565-X"
    },
    {
        "col0": "American Beauty",
        "col1": "Some Like It Hot",
        "col2": "PZ7.D3473 Am 2006",
        "col3": "978-0-316-01094-8"
    },
    {
        "col0": "Amber and Iron",
        "col1": "Amber and Ashes",
        "col2": "PS3573.E3978 A85 2006",
        "col3": "0-7869-3796-3"
    },
    {
        "col0": "Amazons II",
        "col1": "Amazons!",
        "col2": "CPB Box no. 2892 vol. 4",
        "col3": "0-87997-736-1"
    },
    {
        "col0": "Alvin Journeyman",
        "col1": "Prentice Alvin",
        "col2": "PS3553.A655 A78 1995",
        "col3": "0-312-85053-0"
    },
    {
        "col0": "Alta",
        "col1": "Joust",
        "col2": "PS3562.A246 A79 2004",
        "col3": "978-0-7564-0216-7"
    },
    {
        "col0": "Alphabet of Thorn",
        "col1": "In the Forests of Serre",
        "col2": "PS3563.C38 A78 2004",
        "col3": "0-441-01130-6"
    },
    {
        "col0": "Ally",
        "col1": "Matriarch",
        "col2": "CPB Box no. 2691 vol. 15",
        "col3": "9780060882327"
    },
    {
        "col0": "Aller Retour New York",
        "col1": "Tropic of Cancer",
        "col2": "PS3525.I5454 Z462 1993",
        "col3": "978-0-8112-1226-7"
    },
    {
        "col0": "Allegiant",
        "col1": "Insurgent",
        "col2": "PZ7.R7375 Al 2013",
        "col3": "0-06-202406-X"
    },
    {
        "col0": "All the Rage",
        "col1": "Conspiracies",
        "col2": "PS3573.I45695 A79 2000",
        "col3": "1-887368-29-9"
    },
    {
        "col0": "All the Beautiful Sinners",
        "col1": "The Fast Red Road: A Plainsong",
        "col2": "PS3560.O5395 A78 2003",
        "col3": "1-59071-008-8"
    },
    {
        "col0": "Alida's Song",
        "col1": "The Cookcamp",
        "col2": "PZ7.P2843 Ag 1999",
        "col3": "0-385-32586-X"
    },
    {
        "col0": "Alfred Kropp: The Seal of Solomon",
        "col1": "The Extraordinary Adventures of Alfred Kropp",
        "col2": "PZ7.Y19197 Alf 2007",
        "col3": "978-1-59990-045-2"
    },
    {
        "col0": "Alcatraz Versus the Scrivener's Bones",
        "col1": "Alcatraz Versus the Evil Librarians",
        "col2": "PZ7.S19797 Als 2008",
        "col3": "978-0-439-92553-2"
    },
    {
        "col0": "Alamut series",
        "col1": "Alamut state",
        "col2": "PS3570.A655 A79 1989",
        "col3": "0-385-24720-6"
    },
    {
        "col0": "Airframe",
        "col1": "The Lost World",
        "col2": "PS3553.R48 A77 1996",
        "col3": "0-679-44648-6"
    },
    {
        "col0": "Air Apparent",
        "col1": "Stork Naked",
        "col2": "PS3551.N73 A75 2007",
        "col3": "978-0-7653-0410-0"
    },
    {
        "col0": "Agatha Christie: An Autobiography",
        "col1": "Sleeping Murder",
        "col2": "PR6005.H66 Z512 1977b",
        "col3": "0-00-216012-9"
    },
    {
        "col0": "Aenir",
        "col1": "Castle",
        "col2": "CPB Box no. 1881 vol. 20",
        "col3": "0-439-17684-0"
    },
    {
        "col0": "Adrian Mole and the Weapons of Mass Destruction",
        "col1": "Adrian Mole: The Cappuccino Years",
        "col2": "PR6070.O897 A65 2004",
        "col3": "0-7181-4689-1"
    },
    {
        "col0": "Acts of God",
        "col1": "Birth of an Age",
        "col2": "CPB Box no. 2316 vol. 11",
        "col3": "0-446-61329-0"
    },
    {
        "col0": "Across the Sea of Suns",
        "col1": "In the Ocean of Night",
        "col2": "PS3552.E542 A65 1984",
        "col3": "0-671-44668-1"
    },
    {
        "col0": "Acorna's People",
        "col1": "Acorna's Quest",
        "col2": "PS3563.A255 A646 1999",
        "col3": "0-06-105094-6"
    },
    {
        "col0": "Academ's Fury",
        "col1": "Furies of Calderon",
        "col2": "PS3602.U85 A63 2005",
        "col3": "0-441-01283-3"
    },
    {
        "col0": "Abyss",
        "col1": "Cloak",
        "col2": "CPB Box no. 1920 vol. 2",
        "col3": "0-671-77478-6"
    },
    {
        "col0": "Absolution Gap",
        "col1": "Redemption Ark",
        "col2": "PR6068.E95 A623 2003",
        "col3": "0-575-07434-5"
    },
    {
        "col0": "Absolute Zero",
        "col1": "Ordinary Jack",
        "col2": "PZ7.C8645 Ab",
        "col3": "978-0-571-11155-8"
    },
    {
        "col0": "Absolute Friends",
        "col1": "The Constant Gardener",
        "col2": "PR6062.E33 A65 2004",
        "col3": "0-340-83287-8"
    },
    {
        "col0": "Absalom, Absalom!",
        "col1": "Pylon",
        "col2": "PS3511.A86",
        "col3": "0-679-73218-7"
    },
    {
        "col0": "Above the Veil",
        "col1": "Aenir",
        "col2": "CPB Box no. 1881 vol. 26",
        "col3": "0-439-17685-9"
    },
    {
        "col0": "Abide with Me",
        "col1": "Amy and Isabelle",
        "col2": "PS3569.T736 A64 2006",
        "col3": "1-4000-6207-1"
    },
    {
        "col0": "A Year Down Yonder",
        "col1": "A Long Way from Chicago",
        "col2": "PZ7.P338 Yh 2000",
        "col3": "803725183"
    },
    {
        "col0": "A Writer's Nightmare",
        "col1": "Talkative Man",
        "col2": "PR9499.3.N3 A6 1987",
        "col3": "978-0-14-010791-3"
    },
    {
        "col0": "A World of Hurt",
        "col1": "Lazarus Rising",
        "col2": "PS3569.H4175 W67 2004",
        "col3": "0-345-46052-9"
    },
    {
        "col0": "A Wolf at the Table",
        "col1": "Possible Side Effects",
        "col2": "PS3552.U745 Z48 2008",
        "col3": "0-312-34202-0"
    },
    {
        "col0": "A Wizard of Mars",
        "col1": "Wizards at War",
        "col2": "PZ7.D84915 Wji 2010",
        "col3": "978-0-15-204770-2"
    },
    {
        "col0": "A Winter Haunting",
        "col1": "Summer of Night",
        "col2": "PS3569.I47292 W5 2002",
        "col3": "0-380-97886-5"
    },
    {
        "col0": "A Wind in the Door",
        "col1": "A Wrinkle in Time",
        "col2": "PZ7.L5385 Wi",
        "col3": "978-0-374-38443-2"
    },
    {
        "col0": "A Wild Sheep Chase",
        "col1": "Pinball, 1973",
        "col2": "PL856.U673 H5713 1989",
        "col3": "0-87011-905-2"
    },
    {
        "col0": "A Widow for One Year",
        "col1": "A Son of the Circus",
        "col2": "PS3559.R8 W53 1998",
        "col3": "0-375-50137-1"
    },
    {
        "col0": "A War of Gifts: An Ender Story",
        "col1": "Children of the Mind",
        "col2": "PS3553.A655 W37 2007",
        "col3": "0-7653-1282-4"
    },
    {
        "col0": "A Visit from the Goon Squad",
        "col1": "The Keep",
        "col2": "PS3555.G292 V57 2010",
        "col3": "978-0307592835"
    },
    {
        "col0": "A Universe from Nothing",
        "col1": "Quantum Man: Richard Feynman's Life in Science",
        "col2": "QB981 .K773 2012",
        "col3": "978-1-4516-2445-8"
    },
    {
        "col0": "A Tragic Legacy",
        "col1": "How Would a Patriot Act?",
        "col2": "E903.3 .G74 2007",
        "col3": "978-0-307-35419-8"
    },
    {
        "col0": "A Touch of Dead",
        "col1": "Dead and Gone",
        "col2": "PS3558.A6427 T68 2009",
        "col3": "978-0-441-01783-6"
    },
    {
        "col0": "A Taste for Death",
        "col1": "Death of an Expert Witness",
        "col2": "PR6060.A467 T3 1986b",
        "col3": "0-571-13799-7"
    },
    {
        "col0": "A Study in Sorcery",
        "col1": "Ten Little Wizards",
        "col2": "CPB Box no. 1752 vol. 11",
        "col3": "0-441-79092-5"
    },
    {
        "col0": "A Stroke of Midnight",
        "col1": "Seduced by Moonlight",
        "col2": "PS3558.A443357 S77 2005",
        "col3": "0-345-44357-8"
    },
    {
        "col0": "A Stranger Is Watching",
        "col1": "Where Are The Children?",
        "col2": "PZ4.C5942 St 1978 PS3553.L287",
        "col3": "0-671-23071-9"
    },
    {
        "col0": "A Storm of Swords",
        "col1": "A Clash of Kings",
        "col2": "PS3563.A7239 S7 2000",
        "col3": "0-553-10663-5"
    },
    {
        "col0": "A Spectacle of Corruption",
        "col1": "A Conspiracy of Paper",
        "col2": "PS3562.17814S64 2004",
        "col3": "0-375-50855-4"
    },
    {
        "col0": "A Son of the Circus",
        "col1": "A Prayer for Owen Meany",
        "col2": "PS3559.R8 S64 1994",
        "col3": "0-679-43496-8"
    },
    {
        "col0": "A Small Town in Germany",
        "col1": "The Looking-Glass War",
        "col2": "PZ4.L4526 Sm PR6062.E33",
        "col3": "0-434-10930-4"
    },
    {
        "col0": "A Slipping-Down Life",
        "col1": "The Tin Can Tree",
        "col2": "PZ4.T979 Sl PS3570.Y45 (76098663 )",
        "col3": "9780394445731"
    },
    {
        "col0": "A Sleeping Life",
        "col1": "Shake Hands Forever",
        "col2": "PZ4.R4132 Sl 1978b PR6068.E63",
        "col3": "0-09-132540-4"
    },
    {
        "col0": "A Severed Wasp",
        "col1": "The Small Rain",
        "col2": "PS3523.E55 S4 1982",
        "col3": "0-374-26131-8"
    },
    {
        "col0": "A Ring of Endless Light",
        "col1": "The Young Unicorns",
        "col2": "PZ7.L5385 Ri 1980",
        "col3": "0-374-36299-8"
    },
    {
        "col0": "A Pretext for War",
        "col1": "Body of Secrets",
        "col2": "DS79.76 .B36 2005",
        "col3": "978-1-4000-3034-7"
    },
    {
        "col0": "A Place in England",
        "col1": "The Hired Man",
        "col2": "PZ4.B8125 Pl PR6052.R263",
        "col3": "0-436-06706-4"
    },
    {
        "col0": "A Pinch of Snuff",
        "col1": "An April Shroud",
        "col2": "PZ4.H64856 Pi PR6058.I448",
        "col3": "0-00-231643-9"
    },
    {
        "col0": "A Perfect Spy",
        "col1": "The Little Drummer Girl",
        "col2": "PR6062.E33 P47 1986",
        "col3": "0-394-55141-9"
    },
    {
        "col0": "A Pattern Language",
        "col1": "The Timeless Way of Building",
        "col2": "HT166.A6147",
        "col3": "0-19-501919-9"
    },
    {
        "col0": "A Mysterious Affair of Style",
        "col1": "The Act of Roger Murgatroyd",
        "col2": "PR6051.D287 M97 2007",
        "col3": "978-0-571-23425-7"
    },
    {
        "col0": "A Month in the Country",
        "col1": "How Steeple Sinderby Wanderers Won the F.A. Cup",
        "col2": "PR6053.A694 M6",
        "col3": "978-0-85527-328-6"
    },
    {
        "col0": "A Mercy",
        "col1": "Love",
        "col2": "PS3563.O8749 M47 2008",
        "col3": "978-0-307-26423-7"
    },
    {
        "col0": "A Meeting at Corvallis",
        "col1": "The Protector's War",
        "col2": "PS3569.T543 M44 2006",
        "col3": "0-451-46111-8"
    },
    {
        "col0": "A Loyal Character Dancer",
        "col1": "Death of a Red Heroine",
        "col2": "PS3553.H537 L69 2002",
        "col3": "1-56947-301-3"
    },
    {
        "col0": "A Long Long Way",
        "col1": "Annie Dunne",
        "col2": "PR6052.A729 L66 2005",
        "col3": "0-670-03380-4"
    },
    {
        "col0": "A Little House Traveler",
        "col1": "West from Home",
        "col2": "S3545.I342 Z42 2006",
        "col3": "9780060724917"
    },
    {
        "col0": "A Letter of Mary",
        "col1": "A Monstrous Regiment of Women",
        "col2": "PS3561.I4813 L47 1997",
        "col3": "0-312-14670-1"
    }
]