[
    {
        "col0": "2014 German Grand Prix",
        "col1": "Mercedes-Benz in Formula One",
        "col2": "L. Hamilton",
        "col3": "Germany",
        "col4": "Mercedes-Benz in Formula One"
    },
    {
        "col0": "2010 Hungarian Grand Prix",
        "col1": "Red Bull Racing",
        "col2": "S. Vettel",
        "col3": "2010 German Grand Prix",
        "col4": "Red Bull Racing"
    },
    {
        "col0": "2008 Singapore Grand Prix",
        "col1": "McLaren",
        "col2": "L. Hamilton",
        "col3": "Brazil",
        "col4": "Scuderia Ferrari"
    },
    {
        "col0": "2008 Brazilian Grand Prix",
        "col1": "Scuderia Ferrari",
        "col2": "K. Raikkonen",
        "col3": "Brazil",
        "col4": "Scuderia Ferrari"
    },
    {
        "col0": "2008 Belgian Grand Prix",
        "col1": "McLaren",
        "col2": "L. Hamilton",
        "col3": "United Kingdom",
        "col4": "McLaren"
    },
    {
        "col0": "2006 Spanish Grand Prix",
        "col1": "Renault F1",
        "col2": "G. Fisichella",
        "col3": "Spain",
        "col4": "Renault F1"
    },
    {
        "col0": "2006 Brazilian Grand Prix",
        "col1": "Honda F1",
        "col2": "J. Button",
        "col3": "Brazil",
        "col4": "Scuderia Ferrari"
    },
    {
        "col0": "2005 European Grand Prix",
        "col1": "Scuderia Ferrari",
        "col2": "R. Barrichello",
        "col3": "Germany",
        "col4": "WilliamsF1"
    },
    {
        "col0": "2004 German Grand Prix",
        "col1": "Renault in Formula One",
        "col2": "F. Alonso",
        "col3": "Germany",
        "col4": "Scuderia Ferrari"
    },
    {
        "col0": "2004 European Grand Prix",
        "col1": "British American Racing",
        "col2": "J. Button",
        "col3": "Germany",
        "col4": "Scuderia Ferrari"
    },
    {
        "col0": "2004 Brazilian Grand Prix",
        "col1": "Scuderia Ferrari",
        "col2": "R. Barrichello",
        "col3": "Brazil",
        "col4": "Scuderia Ferrari"
    },
    {
        "col0": "2003 Brazilian Grand Prix",
        "col1": "Renault in Formula One",
        "col2": "F. Alonso",
        "col3": "Brazil",
        "col4": "Scuderia Ferrari"
    },
    {
        "col0": "2001 European Grand Prix",
        "col1": "McLaren",
        "col2": "D. Coulthard",
        "col3": "Germany",
        "col4": "Scuderia Ferrari"
    },
    {
        "col0": "1999 European Grand Prix",
        "col1": "Stewart Grand Prix",
        "col2": "R. Barrichello",
        "col3": "Germany",
        "col4": "Jordan Grand Prix"
    },
    {
        "col0": "1994 San Marino Grand Prix",
        "col1": "McLaren",
        "col2": "M. Hakkinen",
        "col3": "Brazil",
        "col4": "WilliamsF1"
    },
    {
        "col0": "1994 Brazilian Grand Prix",
        "col1": "Scuderia Ferrari",
        "col2": "J. Alesi",
        "col3": "Brazil",
        "col4": "WilliamsF1"
    },
    {
        "col0": "1991 Brazilian Grand Prix",
        "col1": "McLaren",
        "col2": "G. Berger",
        "col3": "Brazil",
        "col4": "McLaren"
    },
    {
        "col0": "1990 Brazilian Grand Prix",
        "col1": "McLaren",
        "col2": "A. Senna",
        "col3": "Brazil",
        "col4": "McLaren"
    },
    {
        "col0": "1989 San Marino Grand Prix",
        "col1": "Benetton Formula",
        "col2": "A. Nannini",
        "col3": "1989 Brazilian Grand Prix",
        "col4": "McLaren"
    },
    {
        "col0": "1989 Japanese Grand Prix",
        "col1": "WilliamsF1",
        "col2": "T. Boutsen",
        "col3": "1989 Brazilian Grand Prix",
        "col4": "McLaren"
    },
    {
        "col0": "1989 French Grand Prix",
        "col1": "WilliamsF1",
        "col2": "R. Patrese",
        "col3": "France",
        "col4": "McLaren"
    },
    {
        "col0": "1988 Portuguese Grand Prix",
        "col1": "Benetton Formula",
        "col2": "T. Boutsen",
        "col3": "1988 French Grand Prix",
        "col4": "McLaren"
    },
    {
        "col0": "1988 French Grand Prix",
        "col1": "Scuderia Ferrari",
        "col2": "M. Alboreto",
        "col3": "France",
        "col4": "McLaren"
    },
    {
        "col0": "1988 Brazilian Grand Prix",
        "col1": "Team Lotus",
        "col2": "N. Piquet",
        "col3": "Brazil",
        "col4": "Team McLaren"
    },
    {
        "col0": "1986 Brazilian Grand Prix",
        "col1": "Equipe Ligier",
        "col2": "J. Laffite",
        "col3": "Brazil",
        "col4": "Team Lotus"
    },
    {
        "col0": "1983 European Grand Prix",
        "col1": "Team Lotus",
        "col2": "N. Mansell",
        "col3": "1983 Italian Grand Prix",
        "col4": "Team Lotus"
    },
    {
        "col0": "1982 Swiss Grand Prix",
        "col1": "Team McLaren",
        "col2": "N. Lauda",
        "col3": "France",
        "col4": "Renault F1"
    },
    {
        "col0": "1980 New Zealand Grand Prix",
        "col1": "March Engineering",
        "col2": "A. d. Cesaris",
        "col3": "New Zealand",
        "col4": "Ralt"
    },
    {
        "col0": "1978 New Zealand Grand Prix",
        "col1": "March Engineering",
        "col2": "D. Sullivan",
        "col3": "New Zealand",
        "col4": "Ralt"
    },
    {
        "col0": "1976 New Zealand Grand Prix",
        "col1": "Lola Cars",
        "col2": "K. Bartlett",
        "col3": "New Zealand",
        "col4": "Lola Cars"
    },
    {
        "col0": "1975 New Zealand Grand Prix",
        "col1": "Lola Cars",
        "col2": "G. Lawrence",
        "col3": "New Zealand",
        "col4": "Chevrolet"
    },
    {
        "col0": "1975 Italian Grand Prix",
        "col1": "Scuderia Ferrari",
        "col2": "N. Lauda",
        "col3": "Austria",
        "col4": "Scuderia Ferrari"
    },
    {
        "col0": "1973 Swedish Grand Prix",
        "col1": "Tyrrell Racing",
        "col2": "F. Cevert",
        "col3": "Sweden",
        "col4": "Team Lotus"
    },
    {
        "col0": "1972 New Zealand Grand Prix",
        "col1": "McLaren",
        "col2": "D. Hobbs",
        "col3": "New Zealand",
        "col4": "Chevrolet"
    },
    {
        "col0": "1971 Race of Champions",
        "col1": "Surtees",
        "col2": "J. Surtees",
        "col3": "UK",
        "col4": "Tyrrell Racing"
    },
    {
        "col0": "1970 Race of Champions",
        "col1": "McLaren",
        "col2": "D. Hulme",
        "col3": "UK",
        "col4": "March Engineering"
    },
    {
        "col0": "1970 Austrian Grand Prix",
        "col1": "Brabham",
        "col2": "R. Stommelen",
        "col3": "Austria",
        "col4": "Team Lotus"
    },
    {
        "col0": "1969 Race of Champions",
        "col1": "McLaren",
        "col2": "D. Hulme",
        "col3": "UK",
        "col4": "Team Lotus"
    },
    {
        "col0": "1968 BRDC International Trophy",
        "col1": "Scuderia Ferrari",
        "col2": "C. Amon",
        "col3": "New Zealand",
        "col4": "McLaren"
    },
    {
        "col0": "1968 Australian Grand Prix",
        "col1": "Lotus Cars",
        "col2": "G. Hill",
        "col3": "Australia",
        "col4": "Brabham"
    },
    {
        "col0": "1965 Race of Champions",
        "col1": "Brabham",
        "col2": "J. Bonnier",
        "col3": "UK",
        "col4": "Team Lotus"
    },
    {
        "col0": "1965 Australian Grand Prix",
        "col1": "Cooper Car Company",
        "col2": "P. Hill",
        "col3": "Australia",
        "col4": "Brabham"
    },
    {
        "col0": "1964 Australian Grand Prix",
        "col1": "Cooper Car Company",
        "col2": "J. Youl",
        "col3": "Australia",
        "col4": "Brabham"
    },
    {
        "col0": "1962 New Zealand Grand Prix",
        "col1": "Cooper T53",
        "col2": "B. McLaren",
        "col3": "New Zealand",
        "col4": "Cooper T53"
    },
    {
        "col0": "1957 Pau Grand Prix",
        "col1": "Connaught Engineering",
        "col2": "I. Bueb",
        "col3": "France",
        "col4": "Maserati in motorsport"
    },
    {
        "col0": "1957 New Zealand Grand Prix",
        "col1": "Maserati 250F",
        "col2": "S. Jones",
        "col3": "New Zealand",
        "col4": "Ferrari 375"
    },
    {
        "col0": "1953 Italian Grand Prix",
        "col1": "Scuderia Ferrari",
        "col2": "L. Villoresi",
        "col3": "Italy",
        "col4": "Scuderia Ferrari"
    },
    {
        "col0": "1952 Italian Grand Prix",
        "col1": "Scuderia Ferrari",
        "col2": "L. Villoresi",
        "col3": "Italy",
        "col4": "Scuderia Ferrari"
    },
    {
        "col0": "1952 Buenos Aires Grand Prix",
        "col1": "Scuderia Ferrari",
        "col2": "C. Landi",
        "col3": "Argentina",
        "col4": "Scuderia Ferrari"
    },
    {
        "col0": "1952 Buenos Aires Grand Prix",
        "col1": "Scuderia Ferrari",
        "col2": "C. Landi",
        "col3": "Argentina",
        "col4": "Scuderia Ferrari"
    },
    {
        "col0": "1951 San Remo Grand Prix",
        "col1": "Scuderia Ferrari",
        "col2": "R. Fischer",
        "col3": "Italy",
        "col4": "Scuderia Ferrari"
    },
    {
        "col0": "1951 Buenos Aires Grand Prix",
        "col1": "Mercedes-Benz W154",
        "col2": "J. M. Fangio",
        "col3": "Argentina",
        "col4": "Mercedes-Benz W154"
    },
    {
        "col0": "1950 San Remo Grand Prix",
        "col1": "Maserati in motorsport",
        "col2": "A. PiA n",
        "col3": "Italy",
        "col4": "Scuderia Ferrari"
    },
    {
        "col0": "1949 Italian Grand Prix",
        "col1": "Maserati in motorsport",
        "col2": "B. Bhanudej",
        "col3": "Italy",
        "col4": "Scuderia Ferrari"
    },
    {
        "col0": "1948 San Remo Grand Prix",
        "col1": "Maserati in motorsport",
        "col2": "C. Bucci",
        "col3": "Italy",
        "col4": "Maserati in motorsport"
    },
    {
        "col0": "1947 Italian Grand Prix",
        "col1": "Alfa Romeo in motorsport",
        "col2": "C. Sanesi",
        "col3": "Italy",
        "col4": "Alfa Romeo in motorsport"
    },
    {
        "col0": "1947 French Grand Prix",
        "col1": "Talbot-Lago",
        "col2": "E. Chaboud",
        "col3": "France",
        "col4": "Maserati in motorsport"
    },
    {
        "col0": "1946 Turin Grand Prix",
        "col1": "Maserati",
        "col2": "R. Sommer",
        "col3": "Italy",
        "col4": "Alfa Romeo in motorsport"
    }
]