[
    {
        "col0": "American Legion Forest CCC Shelter",
        "col1": "C. C. Corps",
        "col2": "26304",
        "col3": "1986-09-04"
    },
    {
        "col0": "American Legion Building",
        "col1": "Lockwood, Greene and Company",
        "col2": "18210",
        "col3": "2003-04-18"
    },
    {
        "col0": "American Club",
        "col1": "R. Philipp",
        "col2": "16187",
        "col3": "1978-05-22"
    },
    {
        "col0": "American Baptist Publication Society building",
        "col1": "F. M. Day",
        "col2": "1214",
        "col3": "1980-06-27"
    },
    {
        "col0": "Amboy Illinois Central Depot",
        "col1": "J. Nocquet",
        "col2": "4046",
        "col3": "1992-08-18"
    },
    {
        "col0": "Alton Chapter House",
        "col1": "Hirsch and Watson Helfensteller",
        "col2": "4451",
        "col3": "1980-11-28"
    },
    {
        "col0": "Allenwood River Bridge",
        "col1": "Groton Bridge & Manufacturing Co.",
        "col2": "3642",
        "col3": "1988-06-22"
    },
    {
        "col0": "Allendale Mill",
        "col1": "J. H. Greene",
        "col2": "20234",
        "col3": "1973-05-07"
    },
    {
        "col0": "Allen-Lambe House",
        "col1": "F. L. Wright",
        "col2": "4046",
        "col3": "1973-03-07"
    },
    {
        "col0": "Allegheny High School",
        "col1": "F. J. Osterling",
        "col2": "12140",
        "col3": "1986-09-30"
    },
    {
        "col0": "All Souls Church",
        "col1": "S. &. Cobb",
        "col2": "4046",
        "col3": "1978-01-31"
    },
    {
        "col0": "All Saints Memorial Church",
        "col1": "E. T. Potter",
        "col2": "4046",
        "col3": "1980-01-07"
    },
    {
        "col0": "All Saints Church",
        "col1": "R. A. Cram",
        "col2": "6474",
        "col3": "1980-12-01"
    },
    {
        "col0": "All Saints' Episcopal Church",
        "col1": "R. Upjohn",
        "col2": "16187",
        "col3": "2002-05-14"
    },
    {
        "col0": "Alfred Hocking House",
        "col1": "C. Dickey",
        "col2": "2023",
        "col3": "1984-11-15"
    },
    {
        "col0": "Alexandria National Cemetery",
        "col1": "M. C. Meigs",
        "col2": "22257",
        "col3": "1995-03-02"
    },
    {
        "col0": "Alexandria Hotel and Annex",
        "col1": "W. H. Corlett",
        "col2": "809",
        "col3": "1982-01-11"
    },
    {
        "col0": "Alexander W. Arbuckle I House",
        "col1": "J. W. Dunn",
        "col2": "20234",
        "col3": "1976-05-03"
    },
    {
        "col0": "Alexander State Forest Headquarters Building",
        "col1": "C. C. Corps",
        "col2": "28327",
        "col3": "1987-05-21"
    },
    {
        "col0": "Aldworth Manor",
        "col1": "Fuller & Delano Company",
        "col2": "16187",
        "col3": "1988-01-14"
    },
    {
        "col0": "Aldrich Free Public Library",
        "col1": "C. F. Wilcox",
        "col2": "1214",
        "col3": "1994-07-27"
    },
    {
        "col0": "Alden Dow House and Studio",
        "col1": "A. B. Dow",
        "col2": "110074",
        "col3": "1989-06-29"
    },
    {
        "col0": "Albright Memorial Building",
        "col1": "G. &. Wicks",
        "col2": "1214",
        "col3": "1978-05-22"
    },
    {
        "col0": "Albert and Edith Adelman House",
        "col1": "F. L. Wright",
        "col2": "10117",
        "col3": "2005-08-26"
    },
    {
        "col0": "Albert Spencer Wilcox Building",
        "col1": "H. Wood",
        "col2": "2023",
        "col3": "1979-05-31"
    },
    {
        "col0": "Albert Fisher Mansion and Carriage House",
        "col1": "R. K. Kletting",
        "col2": "4046",
        "col3": "2008-10-08"
    }
]