[
    {
        "col0": "Castlevania: Curse of Darkness",
        "col1": "M. Yamane",
        "col2": "K. Igarashi",
        "col3": "Konami"
    },
    {
        "col0": "Castlevania: Aria of Sorrow",
        "col1": "M. Yamane",
        "col2": "K. Igarashi",
        "col3": "Konami"
    },
    {
        "col0": "Call of Duty 3",
        "col1": "J. Goldsmith",
        "col2": "M. Guggenheim",
        "col3": "Activision"
    },
    {
        "col0": "Call of Duty: Modern Warfare 3",
        "col1": "B. Tyler",
        "col2": "P. Haggis",
        "col3": "Activision"
    },
    {
        "col0": "Call of Duty: Ghosts",
        "col1": "D. Buckley",
        "col2": "S. Gaghan",
        "col3": "Activision"
    },
    {
        "col0": "Call of Duty: Black Ops II",
        "col1": "J. Wall",
        "col2": "D. S. Goyer",
        "col3": "Activision"
    },
    {
        "col0": "Call of Duty: Black Ops",
        "col1": "S. Murray",
        "col2": "D. S. Goyer",
        "col3": "Activision"
    },
    {
        "col0": "Call of Duty: Advanced Warfare",
        "col1": "H. Gregson-Williams",
        "col2": "M. Boal",
        "col3": "Activision"
    },
    {
        "col0": "Bully",
        "col1": "S. Lee",
        "col2": "D. Houser",
        "col3": "Rockstar Games"
    },
    {
        "col0": "Brutal Legend",
        "col1": "P. McConnell",
        "col2": "T. Schafer",
        "col3": "Electronic Arts"
    },
    {
        "col0": "Broken Sword: The Shadow of the Templars",
        "col1": "B. Pheloung",
        "col2": "C. Cecil",
        "col3": "Virgin Interactive"
    },
    {
        "col0": "Broken Age",
        "col1": "P. McConnell",
        "col2": "T. Schafer",
        "col3": "Double Fine Productions"
    },
    {
        "col0": "Brutal Legend",
        "col1": "P. McConnell",
        "col2": "T. Schafer",
        "col3": "Electronic Arts"
    },
    {
        "col0": "Borderlands 2",
        "col1": "J. Kyd",
        "col2": "Hey Ash, Whatcha Playin'?",
        "col3": "2K Games"
    },
    {
        "col0": "Blue Dragon",
        "col1": "N. Uematsu",
        "col2": "H. Sakaguchi",
        "col3": "Microsoft Studios"
    },
    {
        "col0": "Blood of Bahamut",
        "col1": "N. Mizuta",
        "col2": "M. Toriyama",
        "col3": "Square Enix"
    },
    {
        "col0": "Blood Omen 2",
        "col1": "J. Hedges",
        "col2": "B. Robbins",
        "col3": "Eidos Interactive"
    },
    {
        "col0": "Black Rock Shooter: The Game",
        "col1": "M. Namiki",
        "col2": "K. Nojima",
        "col3": "Nippon Ichi Software"
    },
    {
        "col0": "BioShock Infinite: Burial at Sea",
        "col1": "G. Schyman",
        "col2": "K. Levine",
        "col3": "2K Games"
    }
]