[
    {
        "col0": "Zappa confluentus",
        "col1": "Goby",
        "col2": "iucn3.1",
        "col3": "NE"
    },
    {
        "col0": "Zapotec salamander",
        "col1": "Plethodontidae",
        "col2": "IUCN3.1",
        "col3": "DD"
    },
    {
        "col0": "Zapogon evermanni",
        "col1": "Apogoninae",
        "col2": "iucn3.1",
        "col3": "NE"
    },
    {
        "col0": "Zaphir's shrew",
        "col1": "Soricidae",
        "col2": "IUCN3.1",
        "col3": "DD"
    },
    {
        "col0": "Zapata wren",
        "col1": "Wren",
        "col2": "IUCN3.1",
        "col3": "EN"
    },
    {
        "col0": "Zapata sparrow",
        "col1": "Emberizidae",
        "col2": "IUCN3.1",
        "col3": "EN"
    },
    {
        "col0": "Zapata rail",
        "col1": "Rallidae",
        "col2": "IUCN3.1",
        "col3": "CR"
    },
    {
        "col0": "Zanzibar red colobus",
        "col1": "Cercopithecidae",
        "col2": "iucn3.1",
        "col3": "EN"
    },
    {
        "col0": "Zanzibar red bishop",
        "col1": "Ploceidae",
        "col2": "IUCN3.1",
        "col3": "LC"
    },
    {
        "col0": "Zanzibar guitarfish",
        "col1": "Rhinobatidae",
        "col2": "IUCN3.1",
        "col3": "NT"
    },
    {
        "col0": "Zanzibar bushbaby",
        "col1": "Galagidae",
        "col2": "iucn3.1",
        "col3": "LC"
    },
    {
        "col0": "Zanzibar barb",
        "col1": "Cyprinidae",
        "col2": "IUCN3.1",
        "col3": "LC"
    },
    {
        "col0": "Zanj sun squirrel",
        "col1": "Sciuridae",
        "col2": "iucn3.1",
        "col3": "DD"
    },
    {
        "col0": "Zaniolepis latipinnis",
        "col1": "Hexagrammidae",
        "col2": "iucn3.1",
        "col3": "NE"
    },
    {
        "col0": "Zander",
        "col1": "Percidae",
        "col2": "IUCN3.1",
        "col3": "LC"
    },
    {
        "col0": "Zanclorhynchus spinifer",
        "col1": "Congiopodidae",
        "col2": "iucn3.1",
        "col3": "LC"
    },
    {
        "col0": "Zanclistius",
        "col1": "Pentacerotidae",
        "col2": "iucn3.1",
        "col3": "NE"
    },
    {
        "col0": "Zamboanga bulbul",
        "col1": "Pycnonotidae",
        "col2": "IUCN3.1",
        "col3": "NT"
    },
    {
        "col0": "Zambezi indigobird",
        "col1": "Viduidae",
        "col2": "IUCN3.1",
        "col3": "LC"
    },
    {
        "col0": "Zambezi flapshell turtle",
        "col1": "Trionychidae",
        "col2": "IUCN2.3",
        "col3": "LR/nt"
    },
    {
        "col0": "Zaisan mole vole",
        "col1": "Cricetidae",
        "col2": "IUCN3.1",
        "col3": "LC"
    },
    {
        "col0": "Zaireichthys zonatus",
        "col1": "Amphiliidae",
        "col2": "iucn3.1",
        "col3": "DD"
    },
    {
        "col0": "Zaireichthys wamiensis",
        "col1": "Amphiliidae",
        "col2": "iucn3.1",
        "col3": "VU"
    },
    {
        "col0": "Zaireichthys rotundiceps",
        "col1": "Amphiliidae",
        "col2": "iucn3.1",
        "col3": "LC"
    },
    {
        "col0": "Zaireichthys mandevillei",
        "col1": "Amphiliidae",
        "col2": "iucn3.1",
        "col3": "DD"
    },
    {
        "col0": "Zaireichthys heterurus",
        "col1": "Amphiliidae",
        "col2": "iucn3.1",
        "col3": "LC"
    },
    {
        "col0": "Zaireichthys flavomaculatus",
        "col1": "Amphiliidae",
        "col2": "iucn3.1",
        "col3": "DD"
    }
]