[
    {
        "col0": "SM UC-100",
        "col1": "1916-01-12",
        "col2": "5",
        "col3": "1918-09-30"
    },
    {
        "col0": "SM UC-10",
        "col1": "1914-11-14",
        "col2": "3",
        "col3": "1915-07-17"
    },
    {
        "col0": "SM UB-99",
        "col1": "1917-02-08",
        "col2": "5",
        "col3": "1918-09-04"
    },
    {
        "col0": "SM UB-98",
        "col1": "1917-02-08",
        "col2": "5",
        "col3": "1918-08-08"
    },
    {
        "col0": "SM UB-97",
        "col1": "1917-02-08",
        "col2": "5",
        "col3": "1918-07-25"
    },
    {
        "col0": "SM UB-96",
        "col1": "1917-02-08",
        "col2": "5",
        "col3": "1918-07-03"
    },
    {
        "col0": "SM UB-95",
        "col1": "1917-02-08",
        "col2": "5",
        "col3": "1918-06-20"
    },
    {
        "col0": "SM UB-94",
        "col1": "1917-02-08",
        "col2": "5",
        "col3": "1918-06-01"
    },
    {
        "col0": "SM UB-93",
        "col1": "1917-02-08",
        "col2": "5",
        "col3": "1918-05-15"
    },
    {
        "col0": "SM UB-92",
        "col1": "1917-02-08",
        "col2": "5",
        "col3": "1918-04-27"
    },
    {
        "col0": "SM UB-91",
        "col1": "1917-02-08",
        "col2": "5",
        "col3": "1918-04-11"
    },
    {
        "col0": "SM UB-90",
        "col1": "1917-02-08",
        "col2": "5",
        "col3": "1918-03-21"
    },
    {
        "col0": "SM UB-9",
        "col1": "1914-10-15",
        "col2": "3",
        "col3": "1915-02-18"
    },
    {
        "col0": "SM UB-89",
        "col1": "1917-02-08",
        "col2": "5",
        "col3": "1918-02-25"
    },
    {
        "col0": "SM UB-88",
        "col1": "1917-02-08",
        "col2": "5",
        "col3": "1918-01-26"
    },
    {
        "col0": "SM UB-87",
        "col1": "1916-09-23",
        "col2": "5",
        "col3": "1917-12-27"
    },
    {
        "col0": "SM UB-86",
        "col1": "1916-09-23",
        "col2": "5",
        "col3": "1917-11-10"
    },
    {
        "col0": "SM UB-85",
        "col1": "1916-09-23",
        "col2": "5",
        "col3": "1917-11-24"
    },
    {
        "col0": "SM UB-84",
        "col1": "1916-09-23",
        "col2": "5",
        "col3": "1917-10-31"
    },
    {
        "col0": "SM UB-83",
        "col1": "1916-09-23",
        "col2": "5",
        "col3": "1917-10-15"
    },
    {
        "col0": "SM UB-82",
        "col1": "1916-09-23",
        "col2": "5",
        "col3": "1917-10-02"
    },
    {
        "col0": "SM UB-81",
        "col1": "1916-09-23",
        "col2": "5",
        "col3": "1917-09-18"
    },
    {
        "col0": "SM UB-80",
        "col1": "1916-09-23",
        "col2": "5",
        "col3": "1917-09-08"
    },
    {
        "col0": "SM UB-8",
        "col1": "1914-10-15",
        "col2": "3",
        "col3": "1915-04-23"
    },
    {
        "col0": "SM UB-79",
        "col1": "1916-09-23",
        "col2": "5",
        "col3": "1917-10-27"
    },
    {
        "col0": "SM UB-78",
        "col1": "1916-09-23",
        "col2": "5",
        "col3": "1917-10-20"
    },
    {
        "col0": "SM UB-77",
        "col1": "1916-09-23",
        "col2": "5",
        "col3": "1917-10-02"
    },
    {
        "col0": "SM UB-76",
        "col1": "1916-09-23",
        "col2": "5",
        "col3": "1917-09-23"
    },
    {
        "col0": "SM UB-75",
        "col1": "1916-09-23",
        "col2": "5",
        "col3": "1917-09-11"
    },
    {
        "col0": "SM UB-74",
        "col1": "1916-09-23",
        "col2": "5",
        "col3": "1917-10-24"
    },
    {
        "col0": "SM UB-73",
        "col1": "1916-09-23",
        "col2": "5",
        "col3": "1917-10-02"
    },
    {
        "col0": "SM UB-72",
        "col1": "1916-09-23",
        "col2": "5",
        "col3": "1917-09-09"
    },
    {
        "col0": "SM UB-71",
        "col1": "1916-05-20",
        "col2": "5",
        "col3": "1917-11-23"
    },
    {
        "col0": "SM UB-70",
        "col1": "1916-05-20",
        "col2": "5",
        "col3": "1917-10-12"
    },
    {
        "col0": "SM UB-7",
        "col1": "1914-10-15",
        "col2": "3",
        "col3": "1915-05-06"
    },
    {
        "col0": "SM UB-69",
        "col1": "1916-05-20",
        "col2": "5",
        "col3": "1917-10-12"
    },
    {
        "col0": "SM UB-68",
        "col1": "1916-05-20",
        "col2": "5",
        "col3": "1917-10-05"
    },
    {
        "col0": "SM UB-67",
        "col1": "1916-05-20",
        "col2": "5",
        "col3": "1917-08-23"
    },
    {
        "col0": "SM UB-66",
        "col1": "1916-05-20",
        "col2": "5",
        "col3": "1917-08-01"
    },
    {
        "col0": "SM UB-65",
        "col1": "1916-05-20",
        "col2": "5",
        "col3": "1917-08-18"
    },
    {
        "col0": "SM UB-64",
        "col1": "1916-05-20",
        "col2": "5",
        "col3": "1917-08-05"
    },
    {
        "col0": "SM UB-63",
        "col1": "1916-05-20",
        "col2": "5",
        "col3": "1917-07-23"
    },
    {
        "col0": "SM UB-62",
        "col1": "1916-05-20",
        "col2": "5",
        "col3": "1917-07-09"
    },
    {
        "col0": "SM UB-61",
        "col1": "1916-05-20",
        "col2": "5",
        "col3": "1917-06-23"
    },
    {
        "col0": "SM UB-60",
        "col1": "1916-05-20",
        "col2": "5",
        "col3": "1917-06-06"
    },
    {
        "col0": "SM UB-6",
        "col1": "1914-11-15",
        "col2": "3",
        "col3": "1915-04-08"
    },
    {
        "col0": "SM UB-59",
        "col1": "1916-05-20",
        "col2": "5",
        "col3": "1917-08-25"
    },
    {
        "col0": "SM UB-58",
        "col1": "1916-05-20",
        "col2": "5",
        "col3": "1917-08-10"
    },
    {
        "col0": "SM UB-57",
        "col1": "1916-05-20",
        "col2": "5",
        "col3": "1917-07-30"
    },
    {
        "col0": "SM UB-56",
        "col1": "1916-05-20",
        "col2": "5",
        "col3": "1917-07-19"
    },
    {
        "col0": "SM UB-55",
        "col1": "1916-05-20",
        "col2": "5",
        "col3": "1917-07-01"
    },
    {
        "col0": "SM UB-54",
        "col1": "1916-05-20",
        "col2": "5",
        "col3": "1917-06-12"
    },
    {
        "col0": "SM UB-53",
        "col1": "1916-05-20",
        "col2": "5",
        "col3": "1917-08-21"
    },
    {
        "col0": "SM UB-52",
        "col1": "1916-05-20",
        "col2": "5",
        "col3": "1917-08-09"
    },
    {
        "col0": "SM UB-51",
        "col1": "1916-05-20",
        "col2": "5",
        "col3": "1917-07-26"
    },
    {
        "col0": "SM UB-50",
        "col1": "1916-05-20",
        "col2": "5",
        "col3": "1917-07-12"
    },
    {
        "col0": "SM UB-5",
        "col1": "1914-11-15",
        "col2": "3",
        "col3": "1915-03-25"
    },
    {
        "col0": "SM UB-49",
        "col1": "1916-05-20",
        "col2": "5",
        "col3": "1917-06-28"
    },
    {
        "col0": "SM UB-48",
        "col1": "1916-05-20",
        "col2": "5",
        "col3": "1917-06-11"
    },
    {
        "col0": "SM UB-47",
        "col1": "1915-07-31",
        "col2": "3",
        "col3": "1916-07-04"
    },
    {
        "col0": "SM UB-46",
        "col1": "1915-07-31",
        "col2": "3",
        "col3": "1916-06-12"
    },
    {
        "col0": "SM UB-45",
        "col1": "1915-07-31",
        "col2": "3",
        "col3": "1916-05-26"
    },
    {
        "col0": "SM UB-44",
        "col1": "1915-07-31",
        "col2": "3",
        "col3": "1916-05-11"
    },
    {
        "col0": "SM UB-43",
        "col1": "1915-07-31",
        "col2": "3",
        "col3": "1916-04-24"
    },
    {
        "col0": "SM UB-42",
        "col1": "1915-07-31",
        "col2": "3",
        "col3": "1916-03-23"
    },
    {
        "col0": "SM UB-41",
        "col1": "1915-07-22",
        "col2": "3",
        "col3": "1916-08-25"
    },
    {
        "col0": "SM UB-40",
        "col1": "1915-07-22",
        "col2": "3",
        "col3": "1916-08-17"
    },
    {
        "col0": "SM UB-4",
        "col1": "1914-11-15",
        "col2": "3",
        "col3": "1915-03-23"
    },
    {
        "col0": "SM UB-39",
        "col1": "1915-07-22",
        "col2": "3",
        "col3": "1916-04-29"
    },
    {
        "col0": "SM UB-38",
        "col1": "1915-07-22",
        "col2": "3",
        "col3": "1916-07-19"
    },
    {
        "col0": "SM UB-37",
        "col1": "1915-07-22",
        "col2": "3",
        "col3": "1916-06-17"
    },
    {
        "col0": "SM UB-36",
        "col1": "1915-07-22",
        "col2": "3",
        "col3": "1916-05-22"
    },
    {
        "col0": "SM UB-35",
        "col1": "1915-07-22",
        "col2": "3",
        "col3": "1916-06-22"
    },
    {
        "col0": "SM UB-34",
        "col1": "1915-07-22",
        "col2": "3",
        "col3": "1916-06-10"
    },
    {
        "col0": "SM UB-33",
        "col1": "1915-07-22",
        "col2": "3",
        "col3": "1916-04-22"
    },
    {
        "col0": "SM UB-32",
        "col1": "1915-07-22",
        "col2": "3",
        "col3": "1916-04-11"
    },
    {
        "col0": "SM UB-31",
        "col1": "1915-07-22",
        "col2": "3",
        "col3": "1916-03-25"
    },
    {
        "col0": "SM UB-30",
        "col1": "1915-07-22",
        "col2": "3",
        "col3": "1916-03-18"
    },
    {
        "col0": "SM UB-3",
        "col1": "1914-11-15",
        "col2": "3",
        "col3": "1915-03-14"
    },
    {
        "col0": "SM UB-29",
        "col1": "1915-04-30",
        "col2": "3",
        "col3": "1916-01-18"
    },
    {
        "col0": "SM UB-28",
        "col1": "1915-04-30",
        "col2": "3",
        "col3": "1915-12-27"
    },
    {
        "col0": "SM UB-27",
        "col1": "1915-04-30",
        "col2": "3",
        "col3": "1916-02-23"
    },
    {
        "col0": "SM UB-26",
        "col1": "1915-04-30",
        "col2": "3",
        "col3": "1916-01-07"
    },
    {
        "col0": "SM UB-25",
        "col1": "1915-04-30",
        "col2": "3",
        "col3": "1915-12-11"
    },
    {
        "col0": "SM UB-24",
        "col1": "1915-04-30",
        "col2": "3",
        "col3": "1915-11-18"
    },
    {
        "col0": "SM UB-23",
        "col1": "1915-04-30",
        "col2": "3",
        "col3": "1916-03-13"
    },
    {
        "col0": "SM UB-22",
        "col1": "1915-04-30",
        "col2": "3",
        "col3": "1916-03-02"
    },
    {
        "col0": "SM UB-21",
        "col1": "1915-04-30",
        "col2": "3",
        "col3": "1916-02-20"
    },
    {
        "col0": "SM UB-20",
        "col1": "1915-04-30",
        "col2": "3",
        "col3": "1916-02-10"
    },
    {
        "col0": "SM UB-2",
        "col1": "1914-11-15",
        "col2": "3",
        "col3": "1915-02-10"
    },
    {
        "col0": "SM UB-19",
        "col1": "1915-04-30",
        "col2": "3",
        "col3": "1915-12-16"
    },
    {
        "col0": "SM UB-18",
        "col1": "1915-04-30",
        "col2": "3",
        "col3": "1915-12-11"
    },
    {
        "col0": "SM UB-17",
        "col1": "1914-11-25",
        "col2": "3",
        "col3": "1915-05-04"
    },
    {
        "col0": "SM UB-16",
        "col1": "1914-11-25",
        "col2": "3",
        "col3": "1915-05-12"
    },
    {
        "col0": "SM UB-150",
        "col1": "1917-06-27",
        "col2": "5",
        "col3": "1919-03-27"
    },
    {
        "col0": "SM UB-149",
        "col1": "1917-06-27",
        "col2": "5",
        "col3": "1918-10-22"
    },
    {
        "col0": "SM UB-148",
        "col1": "1917-06-27",
        "col2": "5",
        "col3": "1918-09-19"
    },
    {
        "col0": "SM UB-143",
        "col1": "1917-06-27",
        "col2": "5",
        "col3": "1918-10-03"
    },
    {
        "col0": "SM UB-142",
        "col1": "1917-06-27",
        "col2": "5",
        "col3": "1918-08-31"
    },
    {
        "col0": "SM UB-14",
        "col1": "1914-10-15",
        "col2": "3",
        "col3": "1915-03-25"
    },
    {
        "col0": "SM UB-132",
        "col1": "1917-02-08",
        "col2": "5",
        "col3": "1918-07-25"
    },
    {
        "col0": "SM UB-131",
        "col1": "1917-02-08",
        "col2": "5",
        "col3": "1918-07-04"
    }
]