[
    {
        "col0": "G. V. Walle",
        "col1": "Belgium",
        "col2": "Belgium men's national volleyball team",
        "col3": "Antwerp",
        "col4": "1987-08-07"
    },
    {
        "col0": "G. Dimitrova",
        "col1": "Bulgaria",
        "col2": "Bulgaria women's national volleyball team",
        "col3": "Bulgaria",
        "col4": "1996-02-28"
    },
    {
        "col0": "G. Mondzolevski",
        "col1": "Belarusians",
        "col2": "Soviet Union",
        "col3": "Belarus",
        "col4": "1934-01-26"
    },
    {
        "col0": "G. Stefanou",
        "col1": "Greece women's national volleyball team",
        "col2": "Greece women's national volleyball team",
        "col3": "Greece",
        "col4": "1981-01-12"
    },
    {
        "col0": "G. Lykoudis",
        "col1": "Greece",
        "col2": "Greece men's national volleyball team",
        "col3": "Thessaloniki",
        "col4": "1964-02-04"
    },
    {
        "col0": "G. Pinedo",
        "col1": "Argentina",
        "col2": "Argentina women's national volleyball team",
        "col3": "Buenos Aires",
        "col4": "1981-05-30"
    },
    {
        "col0": "G. Tzanakaki",
        "col1": "Greece women's national volleyball team",
        "col2": "Greece women's national volleyball team",
        "col3": "Greece",
        "col4": "1980-12-01"
    },
    {
        "col0": "G. Wiebel",
        "col1": "Germany",
        "col2": "Germany men's national volleyball team",
        "col3": "Karlsruhe",
        "col4": "1977-04-06"
    },
    {
        "col0": "G. Gendrey",
        "col1": "France",
        "col2": "France men's national volleyball team",
        "col3": "Pointe-A -Pitre",
        "col4": "1985-11-30"
    },
    {
        "col0": "G. Muagututia",
        "col1": "United States",
        "col2": "United States men's national volleyball team",
        "col3": "Oceanside, California",
        "col4": "1988-2-26"
    },
    {
        "col0": "G. Burbelyuk",
        "col1": "Ukraine",
        "col2": "Ukraine women's national volleyball team",
        "col3": "Simferopol",
        "col4": "1993-06-15"
    },
    {
        "col0": "G. Alikaya",
        "col1": "Turkey",
        "col2": "Turkey women's national volleyball team",
        "col3": "Constantinople",
        "col4": "1993-01-01"
    },
    {
        "col0": "G. Nelli",
        "col1": "Italy",
        "col2": "Italy men's national volleyball team",
        "col3": "Lucca",
        "col4": "1993-12-04"
    },
    {
        "col0": "G. Maruotti",
        "col1": "Italy",
        "col2": "Italy men's national volleyball team",
        "col3": "Italy",
        "col4": "1988-03-25"
    },
    {
        "col0": "G. Polanska",
        "col1": "Poland",
        "col2": "Poland women's national volleyball team",
        "col3": "Rzeszow",
        "col4": "1988-11-27"
    },
    {
        "col0": "G. Jasinska",
        "col1": "Poland",
        "col2": "Poland women's national volleyball team",
        "col3": "Szczecin",
        "col4": "1992-07-14"
    },
    {
        "col0": "G. Zobo-Lebay",
        "col1": "France",
        "col2": "France men's national volleyball team",
        "col3": "Brazzaville",
        "col4": "1979-01-08"
    },
    {
        "col0": "G. Arroyo",
        "col1": "Argentina women's national volleyball team",
        "col2": "Argentina women's national volleyball team",
        "col3": "Buenos Aires",
        "col4": "1977-03-03"
    },
    {
        "col0": "G. Hardy-Dessources",
        "col1": "France",
        "col2": "France men's national volleyball team",
        "col3": "Fort-de-France",
        "col4": "1983-02-09"
    },
    {
        "col0": "G. Bodo",
        "col1": "Hungary",
        "col2": "Hungary men's national volleyball team",
        "col3": "Balatonfured",
        "col4": "1941-08-05"
    },
    {
        "col0": "F. Menara",
        "col1": "France",
        "col2": "France women's national volleyball team",
        "col3": "Sevres",
        "col4": "1991-06-23"
    },
    {
        "col0": "F. Moriya",
        "col1": "Japan",
        "col2": "Japan women's national volleyball team",
        "col3": "Katsushika",
        "col4": "1992-04-07"
    },
    {
        "col0": "F. Gibert",
        "col1": "France",
        "col2": "France men's national volleyball team",
        "col3": "Autun",
        "col4": "1973-04-15"
    },
    {
        "col0": "F. Thieme",
        "col1": "Germany",
        "col2": "Germany women's national volleyball team",
        "col3": "Zittau",
        "col4": "1987-04-16"
    },
    {
        "col0": "F. Aelbrecht",
        "col1": "Belgium",
        "col2": "Belgium women's national volleyball team",
        "col3": "Zutendaal",
        "col4": "1990-02-10"
    },
    {
        "col0": "F. Cedeno",
        "col1": "Venezuela women's national volleyball team",
        "col2": "Venezuela women's national volleyball team",
        "col3": "Caracas",
        "col4": "1981-09-10"
    },
    {
        "col0": "F. Brooks",
        "col1": "Cuba",
        "col2": "Cuba men's national volleyball team",
        "col3": "Cuba",
        "col4": "1969-8-10"
    },
    {
        "col0": "F. Dirickx",
        "col1": "Belgium",
        "col2": "Belgium women's national volleyball team",
        "col3": "Belgium",
        "col4": "1980-01-03"
    },
    {
        "col0": "F. Lecat",
        "col1": "Belgium",
        "col2": "Belgium men's national volleyball team",
        "col3": "Brussels",
        "col4": "1993-04-19"
    },
    {
        "col0": "F. Bremer",
        "col1": "Germany",
        "col2": "Germany women's national volleyball team",
        "col3": "Cottbus",
        "col4": "1985-06-27"
    },
    {
        "col0": "F. Sokol",
        "col1": "Czech Republic",
        "col2": "Czech Republic",
        "col3": "Czechoslovakia",
        "col4": "1939-02-05"
    },
    {
        "col0": "F. Ogurcak",
        "col1": "Slovakia",
        "col2": "Slovakia men's national volleyball team",
        "col3": "Spisska Nova Ves",
        "col4": "1984-04-24"
    },
    {
        "col0": "F. Sokol",
        "col1": "Czech Republic",
        "col2": "Czech Republic",
        "col3": "Czechoslovakia",
        "col4": "1939-02-05"
    },
    {
        "col0": "F. Ogurcak",
        "col1": "Slovakia",
        "col2": "Slovakia men's national volleyball team",
        "col3": "Spisska Nova Ves",
        "col4": "1984-04-24"
    },
    {
        "col0": "F. Lafitte",
        "col1": "France",
        "col2": "France men's national volleyball team",
        "col3": "Saint-Martin-d'Heres",
        "col4": "1989-3-8"
    },
    {
        "col0": "F. Jackson",
        "col1": "Dominican Republic",
        "col2": "Dominican Republic women's national volleyball team",
        "col3": "Dominican Republic",
        "col4": "1975-11-08"
    },
    {
        "col0": "F. Fortunato",
        "col1": "Italy",
        "col2": "Italy men's national volleyball team",
        "col3": "Bassano del Grappa",
        "col4": "1977-07-23"
    },
    {
        "col0": "F. D. Marchi",
        "col1": "Italy",
        "col2": "Italy men's national volleyball team",
        "col3": "Padua",
        "col4": "1986-06-17"
    },
    {
        "col0": "F. Biribanti",
        "col1": "Italy",
        "col2": "Italy men's national volleyball team",
        "col3": "Terni",
        "col4": "1976-01-17"
    },
    {
        "col0": "F. Piccinini",
        "col1": "Italy",
        "col2": "Italy women's national volleyball team",
        "col3": "Italy",
        "col4": "1979-01-10"
    },
    {
        "col0": "F. Marcon",
        "col1": "Italy",
        "col2": "Italy women's national volleyball team",
        "col3": "Conegliano",
        "col4": "1983-07-09"
    },
    {
        "col0": "F. Ferretti",
        "col1": "Italy",
        "col2": "Italy",
        "col3": "Italy",
        "col4": "1984-02-15"
    },
    {
        "col0": "F. Lecat",
        "col1": "Belgium",
        "col2": "Belgium men's national volleyball team",
        "col3": "Brussels",
        "col4": "1993-04-19"
    },
    {
        "col0": "F. Gibert",
        "col1": "France",
        "col2": "France men's national volleyball team",
        "col3": "Autun",
        "col4": "1973-04-15"
    },
    {
        "col0": "Fofao",
        "col1": "Brazil",
        "col2": "Brazil women's national volleyball team",
        "col3": "Brazil",
        "col4": "1970-03-10"
    },
    {
        "col0": "F. Cruz",
        "col1": "Portugal",
        "col2": "Portugal men's national volleyball team",
        "col3": "Portugal",
        "col4": "1982-08-28"
    },
    {
        "col0": "F. Bertone",
        "col1": "Italy",
        "col2": "Italy women's national volleyball team",
        "col3": "Cuneo",
        "col4": "1992-11-19"
    },
    {
        "col0": "F. Kilama",
        "col1": "France",
        "col2": "France men's national volleyball team",
        "col3": "Saint-Louis, Haut-Rhin",
        "col4": "1982-03-29"
    },
    {
        "col0": "F. Gravesteijn",
        "col1": "Netherlands",
        "col2": "Netherlands women's national volleyball team",
        "col3": "Gouda, South Holland",
        "col4": "1987-04-26"
    },
    {
        "col0": "F. Savelkoel",
        "col1": "Netherlands",
        "col2": "Netherlands women's national volleyball team",
        "col3": "Deventer",
        "col4": "1995-08-22"
    },
    {
        "col0": "F. Cruz",
        "col1": "Portugal",
        "col2": "Portugal men's national volleyball team",
        "col3": "Portugal",
        "col4": "1982-08-28"
    },
    {
        "col0": "F. Morales",
        "col1": "Puerto Rico",
        "col2": "Puerto Rico men's national volleyball team",
        "col3": "San Juan, Puerto Rico",
        "col4": "1982-02-04"
    },
    {
        "col0": "F. Hernandez",
        "col1": "Cuba",
        "col2": "Cuba men's national volleyball team",
        "col3": "Havana",
        "col4": "1989-09-11"
    },
    {
        "col0": "F. Kuchenbecker",
        "col1": "Brazil",
        "col2": "Brazil women's national volleyball team",
        "col3": "Brusque, Santa Catarina",
        "col4": "1992-01-24"
    },
    {
        "col0": "F. Garay",
        "col1": "Brazil",
        "col2": "Brazil women's national volleyball team",
        "col3": "Brazil",
        "col4": "1986-10-05"
    },
    {
        "col0": "F. Ferreira",
        "col1": "Brazil",
        "col2": "Brazil women's national volleyball team",
        "col3": "Brazil",
        "col4": "1980-01-10"
    },
    {
        "col0": "F. Isaak",
        "col1": "Germany",
        "col2": "Germany men's national volleyball team",
        "col3": "Wiesbaden",
        "col4": "1989-09-02"
    },
    {
        "col0": "F. Fischer",
        "col1": "Germany",
        "col2": "Germany men's national volleyball team",
        "col3": "Berlin",
        "col4": "1983-02-27"
    },
    {
        "col0": "F. Lashchonov",
        "col1": "Russia",
        "col2": "Soviet Union",
        "col3": "Russia",
        "col4": "1950-11-04"
    },
    {
        "col0": "F. Pereyra",
        "col1": "Argentina women's national volleyball team",
        "col2": "Argentina women's national volleyball team",
        "col3": "San Juan, Argentina",
        "col4": "1988-06-19"
    },
    {
        "col0": "F. Oukazi",
        "col1": "Algeria",
        "col2": "Algeria women's national volleyball team",
        "col3": "Chlef",
        "col4": "1984-01-18"
    },
    {
        "col0": "F. Linlin",
        "col1": "China",
        "col2": "China women's national volleyball team",
        "col3": "Beijing",
        "col4": "1991-12-01"
    },
    {
        "col0": "F. Steinke",
        "col1": "Germany",
        "col2": "Germany men's national volleyball team",
        "col3": "Beelitz",
        "col4": "1985-03-26"
    },
    {
        "col0": "F. Santucci",
        "col1": "Argentina",
        "col2": "Argentina men's national volleyball team",
        "col3": "Corrientes",
        "col4": "1987-03-06"
    },
    {
        "col0": "F. Dias",
        "col1": "Brazil",
        "col2": "Brazil men's national volleyball team",
        "col3": "Sao Paulo",
        "col4": "1979-01-12"
    },
    {
        "col0": "F. Soli",
        "col1": "Italy",
        "col2": "Italy women's national volleyball team",
        "col3": "Formigine",
        "col4": "1979-09-28"
    },
    {
        "col0": "F. Ricci",
        "col1": "Italy",
        "col2": "Italy men's national volleyball team",
        "col3": "Faenza",
        "col4": "1994-07-11"
    },
    {
        "col0": "F. d. Oliveira",
        "col1": "Brazil",
        "col2": "Brazil women's national volleyball team",
        "col3": "Brazil",
        "col4": "1980-03-07"
    },
    {
        "col0": "F. Claudino",
        "col1": "Brazil",
        "col2": "Brazil women's national volleyball team",
        "col3": "Brazil",
        "col4": "1985-01-24"
    },
    {
        "col0": "F. Menara",
        "col1": "France",
        "col2": "France women's national volleyball team",
        "col3": "Sevres",
        "col4": "1991-06-23"
    },
    {
        "col0": "E. Dagdelenler",
        "col1": "Turkey",
        "col2": "Turkey women's national volleyball team",
        "col3": "Ankara",
        "col4": "1993-11-03"
    },
    {
        "col0": "E. Gommans",
        "col1": "Netherlands",
        "col2": "Netherlands men's national volleyball team",
        "col3": "Voorschoten",
        "col4": "1990-11-17"
    },
    {
        "col0": "E. Tobiasz",
        "col1": "Poland",
        "col2": "Poland women's national volleyball team",
        "col3": "Tarnow",
        "col4": "1994-02-06"
    },
    {
        "col0": "E. Sieczka",
        "col1": "Poland",
        "col2": "Poland women's national volleyball team",
        "col3": "Sosnowiec",
        "col4": "1988-01-26"
    },
    {
        "col0": "E. Kowalkowska",
        "col1": "Poland",
        "col2": "Poland women's national volleyball team",
        "col3": "Bydgoszcz",
        "col4": "1975-02-23"
    },
    {
        "col0": "E. Sivozhelez",
        "col1": "Russia",
        "col2": "Russia men's national volleyball team",
        "col3": "Chaykovsky, Perm Krai",
        "col4": "1986-08-06"
    },
    {
        "col0": "E. Krasilnikov",
        "col1": "Russia",
        "col2": "Russia men's national volleyball team",
        "col3": "Russian SFSR",
        "col4": "1965-04-07"
    },
    {
        "col0": "E. Carrera",
        "col1": "Dominican Republic",
        "col2": "Dominican Republic women's national volleyball team",
        "col3": "Santo Domingo",
        "col4": "1971-10-05"
    },
    {
        "col0": "E. Tsvetanova",
        "col1": "Bulgaria",
        "col2": "Bulgaria women's national volleyball team",
        "col3": "Sofia",
        "col4": "1974-04-22"
    },
    {
        "col0": "E. Patak",
        "col1": "United States",
        "col2": "United States men's national volleyball team",
        "col3": "Santa Maria, California",
        "col4": "1984-06-23"
    },
    {
        "col0": "E. Stepancikova",
        "col1": "Czech Republic",
        "col2": "Czech Republic women's national volleyball team",
        "col3": "Prerov",
        "col4": "1972-12-11"
    },
    {
        "col0": "E. Mori",
        "col1": "Slovenia",
        "col2": "Slovenia women's national volleyball team",
        "col3": "Kanal, Kanal",
        "col4": "1996-03-13"
    },
    {
        "col0": "E. Hodanova",
        "col1": "Czech Republic",
        "col2": "Czech Republic women's national volleyball team",
        "col3": "Stribrec",
        "col4": "1993-12-18"
    },
    {
        "col0": "E. Chantava",
        "col1": "Greece",
        "col2": "Greece women's national volleyball team",
        "col3": "Grevena",
        "col4": "1990-10-26"
    },
    {
        "col0": "E. Stepancikova",
        "col1": "Czech Republic",
        "col2": "Czech Republic women's national volleyball team",
        "col3": "Prerov",
        "col4": "1972-12-11"
    },
    {
        "col0": "E. Peixoto",
        "col1": "Portugal",
        "col2": "Portugal men's national volleyball team",
        "col3": "Trofa",
        "col4": "1981-05-13"
    },
    {
        "col0": "E. Bakumovski",
        "col1": "Germany",
        "col2": "Germany men's national volleyball team",
        "col3": "Zaporizhia",
        "col4": "1980-10-11"
    },
    {
        "col0": "E. v. Berkel",
        "col1": "Netherlands",
        "col2": "Netherlands women's national volleyball team",
        "col3": "Veghel",
        "col4": "1990-08-31"
    },
    {
        "col0": "E. Querard",
        "col1": "France",
        "col2": "France women's national volleyball team",
        "col3": "Rennes",
        "col4": "1979-03-19"
    },
    {
        "col0": "E. Gomez",
        "col1": "Venezuela",
        "col2": "Venezuela men's national volleyball team",
        "col3": "Caracas",
        "col4": "1982-7-30"
    },
    {
        "col0": "E. Isobe",
        "col1": "Japan",
        "col2": "Japan women's national volleyball team",
        "col3": "Adachi, Tokyo",
        "col4": "1977-08-23"
    },
    {
        "col0": "E. Schuil",
        "col1": "Netherlands",
        "col2": "Netherlands women's national volleyball team",
        "col3": "Leeuwarden",
        "col4": "1977-10-16"
    },
    {
        "col0": "E. Salemme",
        "col1": "Italy",
        "col2": "Italy",
        "col3": "Rome",
        "col4": "1946-03-26"
    },
    {
        "col0": "E. Cester",
        "col1": "Italy",
        "col2": "Italy men's national volleyball team",
        "col3": "Motta di Livenza",
        "col4": "1988-03-16"
    },
    {
        "col0": "E. Merlo",
        "col1": "Italy",
        "col2": "Italy women's national volleyball team",
        "col3": "Este, Veneto",
        "col4": "1988-12-28"
    },
    {
        "col0": "E. G. Bonilla",
        "col1": "Spain",
        "col2": "Spain women's national volleyball team",
        "col3": "Granada",
        "col4": "1979-10-04"
    },
    {
        "col0": "E. Ragondet",
        "col1": "France",
        "col2": "France men's national volleyball team",
        "col3": "La Seyne-sur-Mer",
        "col4": "1987-08-06"
    },
    {
        "col0": "E. Kajzer",
        "col1": "Poland",
        "col2": "Poland women's national volleyball team",
        "col3": "Tychy",
        "col4": "1992-03-10"
    },
    {
        "col0": "E. Kohut",
        "col1": "Slovakia",
        "col2": "Slovakia men's national volleyball team",
        "col3": "Bratislava",
        "col4": "1982-07-21"
    },
    {
        "col0": "E. Batista",
        "col1": "Puerto Rico",
        "col2": "Puerto Rico men's national volleyball team",
        "col3": "Caguas, Puerto Rico",
        "col4": "1989-01-12"
    },
    {
        "col0": "E. Phanusit",
        "col1": "Thailand",
        "col2": "Thailand women's national volleyball team",
        "col3": "Thailand",
        "col4": "1988-03-25"
    },
    {
        "col0": "E. Skowronska",
        "col1": "Poland",
        "col2": "Poland women's national volleyball team",
        "col3": "Debica",
        "col4": "1983-07-06"
    },
    {
        "col0": "E. Karamosli",
        "col1": "Tunisia",
        "col2": "Tunisia men's national volleyball team",
        "col3": "Tunis",
        "col4": "1989-08-22"
    },
    {
        "col0": "E. Palomino",
        "col1": "Dominican Republic",
        "col2": "Dominican Republic men's national volleyball team",
        "col3": "Dominican Republic",
        "col4": "1986-07-02"
    },
    {
        "col0": "E. Braga",
        "col1": "Brazil",
        "col2": "Brazil women's national volleyball team",
        "col3": "Recife",
        "col4": "1991-06-12"
    },
    {
        "col0": "E. Wijnhoven",
        "col1": "Netherlands",
        "col2": "Netherlands women's national volleyball team",
        "col3": "Cuijk",
        "col4": "1981-01-03"
    },
    {
        "col0": "E. Vasileva",
        "col1": "Bulgaria",
        "col2": "Bulgaria women's national volleyball team",
        "col3": "Bulgaria",
        "col4": "1990-05-13"
    },
    {
        "col0": "E. Thomas",
        "col1": "United States",
        "col2": "United States women's national volleyball team",
        "col3": "Long Beach, California",
        "col4": "1981-07-20"
    },
    {
        "col0": "E. Cella",
        "col1": "Italy",
        "col2": "Italy women's national volleyball team",
        "col3": "Prato",
        "col4": "1982-06-04"
    },
    {
        "col0": "E. Bossi",
        "col1": "Italy",
        "col2": "Italy men's national volleyball team",
        "col3": "Trieste",
        "col4": "1994-08-15"
    },
    {
        "col0": "E. L. Bianco",
        "col1": "Italy",
        "col2": "Italy women's national volleyball team",
        "col3": "Italy",
        "col4": "1979-12-22"
    },
    {
        "col0": "E. Kiosi",
        "col1": "Greece women's national volleyball team",
        "col2": "Greece women's national volleyball team",
        "col3": "Thessaloniki",
        "col4": "1985-02-27"
    },
    {
        "col0": "E. Steinemann",
        "col1": "Switzerland",
        "col2": "Switzerland women's national volleyball team",
        "col3": "Frauenfeld",
        "col4": "1994-12-08"
    },
    {
        "col0": "E. Sennikova",
        "col1": "Russia",
        "col2": "Russia women's national volleyball team",
        "col3": "Yekaterinburg",
        "col4": "1979-03-20"
    },
    {
        "col0": "E. Perinelli",
        "col1": "Italy",
        "col2": "Italy women's national volleyball team",
        "col3": "Varese",
        "col4": "1995-06-27"
    },
    {
        "col0": "E. Keldibekova",
        "col1": "Kazakhstan",
        "col2": "Peru women's national volleyball team",
        "col3": "Almaty",
        "col4": "1974-06-23"
    },
    {
        "col0": "E. Ezhova",
        "col1": "Russia",
        "col2": "Russia women's national volleyball team",
        "col3": "Melitopol",
        "col4": "1977-08-14"
    },
    {
        "col0": "E. Esteban",
        "col1": "Spain",
        "col2": "Spain women's national volleyball team",
        "col3": "Murillo de Rio Leza",
        "col4": "1982-06-13"
    },
    {
        "col0": "E. Chebukina",
        "col1": "Russia",
        "col2": "Russia",
        "col3": "Almaty",
        "col4": "1965-10-11"
    },
    {
        "col0": "E. Hatzinikou",
        "col1": "Greece women's national volleyball team",
        "col2": "Greece women's national volleyball team",
        "col3": "Greece",
        "col4": "1978-04-20"
    },
    {
        "col0": "E. Skowronska",
        "col1": "Poland",
        "col2": "Poland women's national volleyball team",
        "col3": "Debica",
        "col4": "1983-07-06"
    },
    {
        "col0": "E. Ulanova",
        "col1": "Russia",
        "col2": "Russia women's national volleyball team",
        "col3": "Soviet Union",
        "col4": "1986-08-05"
    },
    {
        "col0": "E. Orlova",
        "col1": "Russia",
        "col2": "Russia women's national volleyball team",
        "col3": "Kaliningrad",
        "col4": "1987-10-21"
    },
    {
        "col0": "E. Lyubushkina",
        "col1": "Russia",
        "col2": "Russia women's national volleyball team",
        "col3": "Russia",
        "col4": "1990-01-02"
    },
    {
        "col0": "E. Kliuka",
        "col1": "Russia",
        "col2": "Russia men's national volleyball team",
        "col3": "Kobryn",
        "col4": "1995-06-15"
    },
    {
        "col0": "E. Jago",
        "col1": "Estonia",
        "col2": "Estonia men's national volleyball team",
        "col3": "Tallinn",
        "col4": "1980-12-29"
    },
    {
        "col0": "E. Tervaportti",
        "col1": "Finland",
        "col2": "Finland men's national volleyball team",
        "col3": "Aetsa",
        "col4": "1989-7-26"
    },
    {
        "col0": "E. Kraisch",
        "col1": "Brazil",
        "col2": "Brazil women's national volleyball team",
        "col3": "Luiz Alves",
        "col4": "1993-05-07"
    },
    {
        "col0": "E. Sibiryakov",
        "col1": "Russia",
        "col2": "Soviet Union",
        "col3": "Russia",
        "col4": "1941-11-27"
    },
    {
        "col0": "E. Dobi",
        "col1": "Hungary",
        "col2": "Hungary women's national volleyball team",
        "col3": "Eger",
        "col4": "1987-10-22"
    },
    {
        "col0": "E. Goas",
        "col1": "Puerto Rico",
        "col2": "Puerto Rico men's national volleyball team",
        "col3": "San Juan, Puerto Rico",
        "col4": "1989-1-27"
    },
    {
        "col0": "E. Sequeira",
        "col1": "Portugal",
        "col2": "Portugal men's national volleyball team",
        "col3": "Odivelas",
        "col4": "1980-10-28"
    },
    {
        "col0": "D. Meszaros",
        "col1": "Hungary",
        "col2": "Hungary men's national volleyball team",
        "col3": "Budapest",
        "col4": "1976-10-26"
    },
    {
        "col0": "D. Horvath",
        "col1": "Hungary",
        "col2": "Hungary women's national volleyball team",
        "col3": "Budapest",
        "col4": "1988-03-04"
    },
    {
        "col0": "D. Ortschitt",
        "col1": "France",
        "col2": "France women's national volleyball team",
        "col3": "Mulhouse",
        "col4": "1987-06-10"
    },
    {
        "col0": "D. Petkovic",
        "col1": "Serbia",
        "col2": "Serbia men's national volleyball team",
        "col3": "NiA!",
        "col4": "1992-01-27"
    },
    {
        "col0": "D. Sipahioglu",
        "col1": "Turkey",
        "col2": "Turkey women's national volleyball team",
        "col3": "Ankara",
        "col4": "1979-10-31"
    },
    {
        "col0": "D. Petkovic",
        "col1": "Serbia",
        "col2": "Serbia men's national volleyball team",
        "col3": "NiA!",
        "col4": "1992-01-27"
    },
    {
        "col0": "D. Costa",
        "col1": "Brazil",
        "col2": "Brazil women's national volleyball team",
        "col3": "Brazil",
        "col4": "1996-06-01"
    },
    {
        "col0": "D. Pykosz",
        "col1": "Poland",
        "col2": "Poland women's national volleyball team",
        "col3": "Jaslo",
        "col4": "1978-10-22"
    },
    {
        "col0": "D. Medynska",
        "col1": "Poland",
        "col2": "Poland women's national volleyball team",
        "col3": "Boleslawiec",
        "col4": "1993-04-25"
    },
    {
        "col0": "D. D. Lunga",
        "col1": "Italy",
        "col2": "Italy men's national volleyball team",
        "col3": "Chiaravalle, Marche",
        "col4": "1984-07-25"
    },
    {
        "col0": "D. Sobolska",
        "col1": "Belgium",
        "col2": "Belgium women's national volleyball team",
        "col3": "Menen",
        "col4": "1991-12-03"
    },
    {
        "col0": "D. Steffen",
        "col1": "Germany",
        "col2": "Germany women's national volleyball team",
        "col3": "Berlin",
        "col4": "1987-12-17"
    },
    {
        "col0": "D. Dimitrov",
        "col1": "Bulgarians",
        "col2": "Bulgaria men's national volleyball team",
        "col3": "Pazardzhik",
        "col4": "1991-07-07"
    },
    {
        "col0": "D. Rabadzieva",
        "col1": "Bulgaria",
        "col2": "Bulgaria women's national volleyball team",
        "col3": "Bulgaria",
        "col4": "1991-06-14"
    },
    {
        "col0": "D. Shcherbinin",
        "col1": "Russia",
        "col2": "Russia men's national volleyball team",
        "col3": "Moscow",
        "col4": "1989-09-10"
    }
]