[
    {
        "col0": "You're Gonna Go Far, Kid",
        "col1": "Kristy, Are You Doing Okay?",
        "col2": "D. Holland",
        "col3": "The Offspring"
    },
    {
        "col0": "You're Gonna Get Yours",
        "col1": "Rebel Without a Pause",
        "col2": "C. D",
        "col3": "Public Enemy"
    },
    {
        "col0": "You're Gonna Change",
        "col1": "My Bucket's Got a Hole in It",
        "col2": "H. Williams",
        "col3": "Hank Williams"
    },
    {
        "col0": "You're Gone",
        "col1": "Don't Hurt Yourself",
        "col2": "M. Kelly",
        "col3": "Marillion"
    },
    {
        "col0": "You're Gone",
        "col1": "Unbelievable",
        "col2": "P. Williams",
        "col3": "Diamond Rio"
    },
    {
        "col0": "You're Going Out of My Mind",
        "col1": "Fooled Around and Fell in Love",
        "col2": "W. Holyfield",
        "col3": "T.G. Sheppard"
    },
    {
        "col0": "You're Going Down",
        "col1": "Odd One",
        "col2": "S. Moore",
        "col3": "Sick Puppies"
    },
    {
        "col0": "You're Easy on the Eyes",
        "col1": "Everytime I Cry",
        "col2": "T. Clark",
        "col3": "Terri Clark"
    },
    {
        "col0": "You're Beginning to Get to Me",
        "col1": "She's Always Right",
        "col2": "T. Shapiro",
        "col3": "Clay Walker"
    },
    {
        "col0": "You're Beautiful",
        "col1": "Goodbye My Lover",
        "col2": "J. Blunt",
        "col3": "James Blunt"
    },
    {
        "col0": "You're Amazing",
        "col1": "I Want You",
        "col2": "G. Pratt",
        "col3": "Robert Palmer"
    },
    {
        "col0": "You're All I Need to Get By",
        "col1": "Keep On Lovin' Me Honey",
        "col2": "N. Ashford",
        "col3": "Marvin Gaye"
    },
    {
        "col0": "You're All I Have",
        "col1": "Chasing Cars",
        "col2": "G. Lightbody",
        "col3": "Snow Patrol"
    },
    {
        "col0": "You'll See",
        "col1": "One More Chance",
        "col2": "Madonna",
        "col3": "Madonna"
    },
    {
        "col0": "You'll Rock",
        "col1": "I'm Bad",
        "col2": "L. C. J",
        "col3": "LL Cool J"
    },
    {
        "col0": "You'll Never Take That Away",
        "col1": "Rewind",
        "col2": "J. McDell",
        "col3": "Jamie McDell"
    },
    {
        "col0": "You'll Never Stop Me Loving You",
        "col1": "Can't Forget You",
        "col2": "Stock, Aitken & Waterman",
        "col3": "Sonia"
    },
    {
        "col0": "You'll Never Know What You're Missing",
        "col1": "Love's Such a Wonderful Thing",
        "col2": "C. Amoo",
        "col3": "The Real Thing"
    },
    {
        "col0": "You'll Never Get to Heaven",
        "col1": "Reach Out for Me",
        "col2": "B. Bacharach",
        "col3": "Dionne Warwick"
    },
    {
        "col0": "You'll Lose a Good Thing",
        "col1": "Vaya con Dios",
        "col2": "B. Lynn",
        "col3": "Barbara Lynn"
    },
    {
        "col0": "You'll Follow Me Down",
        "col1": "Tear the Place Up",
        "col2": "Skin",
        "col3": "Skunk Anansie"
    },
    {
        "col0": "You'll Be in My Heart",
        "col1": "Strangers Like Me",
        "col2": "P. Collins",
        "col3": "Phil Collins"
    },
    {
        "col0": "You'll Be Mine",
        "col1": "I'm Not Giving You Up",
        "col2": "E. Estefan",
        "col3": "Gloria Estefan"
    },
    {
        "col0": "You'll Be Mine",
        "col1": "Cayenne",
        "col2": "Lennon-McCartney",
        "col3": "The Beatles"
    },
    {
        "col0": "You'll Always Be My Baby",
        "col1": "As If",
        "col2": "S. Evans",
        "col3": "Sara Evans"
    },
    {
        "col0": "You'll Always Be Loved by Me",
        "col1": "Ain't Nothing 'bout You",
        "col2": "R. Dunn",
        "col3": "Brooks & Dunn"
    },
    {
        "col0": "Yoshi City",
        "col1": "Crystal Clear Ice",
        "col2": "Y. Lean",
        "col3": "Yung Lean"
    }
]