[
    {
        "col0": "Blasted",
        "col1": "S. Kane",
        "col2": "English language",
        "col3": "Cate"
    },
    {
        "col0": "Black Comedy",
        "col1": "P. Shaffer",
        "col2": "English language",
        "col3": "Brindsley Miller"
    },
    {
        "col0": "Biloxi Blues",
        "col1": "N. Simon",
        "col2": "English language",
        "col3": "Arnold Epstein"
    },
    {
        "col0": "Bidasari",
        "col1": "M. Miguel",
        "col2": "Filipino language",
        "col3": "Bidasari"
    },
    {
        "col0": "Bhopal",
        "col1": "R. Varma",
        "col2": "Hindi",
        "col3": "Devraj Sarthi"
    },
    {
        "col0": "Bellerophon",
        "col1": "Euripides",
        "col2": "Ancient Greek",
        "col3": "Bellerophon,Glaucos, others"
    },
    {
        "col0": "Bedroom Farce",
        "col1": "A. Ayckbourn",
        "col2": "English language",
        "col3": "Delia"
    },
    {
        "col0": "Becket",
        "col1": "J. Anouilh",
        "col2": "French language",
        "col3": "Bishop Folliot"
    },
    {
        "col0": "Be Like Water",
        "col1": "D. Kwong",
        "col2": "English language",
        "col3": "Bruce Lee"
    },
    {
        "col0": "Barricade",
        "col1": "U. Dutt",
        "col2": "Bengali language",
        "col3": "An engineer, an author, an artist and a journalist"
    },
    {
        "col0": "Arias with a Twist",
        "col1": "J. Arias",
        "col2": "English language",
        "col3": "Joey"
    },
    {
        "col0": "Archelaus",
        "col1": "Euripides",
        "col2": "Ancient Greek",
        "col3": "Archelaos,Cisseus, Others"
    },
    {
        "col0": "Antigone",
        "col1": "Sophocles",
        "col2": "Ancient Greek",
        "col3": "A boy"
    },
    {
        "col0": "Antigone",
        "col1": "Euripides",
        "col2": "Ancient Greek",
        "col3": "Antigone"
    },
    {
        "col0": "Anne Pedersdotter",
        "col1": "H. Wiers-Jenssen",
        "col2": "Norwegian language",
        "col3": "Absalon Pedersson"
    },
    {
        "col0": "Anna in the Tropics",
        "col1": "N. Cruz",
        "col2": "English language",
        "col3": "Cheche"
    },
    {
        "col0": "Anna Lucasta",
        "col1": "P. Yordan",
        "col2": "English language",
        "col3": "Anna"
    },
    {
        "col0": "Angels in America: A Gay Fantasia on National Themes",
        "col1": "T. Kushner",
        "col2": "English language",
        "col3": "Angel"
    },
    {
        "col0": "Angel City",
        "col1": "S. Shepard",
        "col2": "English language",
        "col3": "Lanx"
    },
    {
        "col0": "Andromeda",
        "col1": "Euripides",
        "col2": "Ancient Greek",
        "col3": "Andromeda"
    },
    {
        "col0": "Andromache",
        "col1": "Euripides",
        "col2": "Ancient Greek",
        "col3": "Andromache"
    },
    {
        "col0": "Andha Yug",
        "col1": "D. Bharati",
        "col2": "Hindi",
        "col3": "Ashwatthama"
    },
    {
        "col0": "Anatomy of Gray",
        "col1": "J. Leonard",
        "col2": "English language",
        "col3": "Belva Collins"
    }
]