[
    {
        "col0": "Pokemon Red and Blue",
        "col1": "J. Masuda",
        "col2": "S. Tajiri",
        "col3": "Nintendo"
    },
    {
        "col0": "Pokemon FireRed and LeafGreen",
        "col1": "J. Masuda",
        "col2": "S. Tajiri",
        "col3": "The Pokemon Company"
    },
    {
        "col0": "Pokemon Yellow",
        "col1": "J. Masuda",
        "col2": "S. Tajiri",
        "col3": "Nintendo"
    },
    {
        "col0": "Pokemon Red and Blue",
        "col1": "J. Masuda",
        "col2": "S. Tajiri",
        "col3": "Nintendo"
    },
    {
        "col0": "Pokemon FireRed and LeafGreen",
        "col1": "J. Masuda",
        "col2": "S. Tajiri",
        "col3": "The Pokemon Company"
    },
    {
        "col0": "PlayStation Move Heroes",
        "col1": "D. Bergeaud",
        "col2": "M. Wright",
        "col3": "Sony Computer Entertainment"
    },
    {
        "col0": "Planet's Edge",
        "col1": "G. Sanger",
        "col2": "N. Hallford",
        "col3": "New World Computing"
    },
    {
        "col0": "Phoenix Wright: Ace Attorney - Trials and Tribulations",
        "col1": "N. Iwadare",
        "col2": "S. Takumi",
        "col3": "Capcom"
    },
    {
        "col0": "Parasite Eve",
        "col1": "Y. Shimomura",
        "col2": "T. Tokita",
        "col3": "Square"
    },
    {
        "col0": "Pac-Man and the Ghostly Adventures",
        "col1": "I. Yamada",
        "col2": "D. Ellis",
        "col3": "Bandai Namco Entertainment"
    },
    {
        "col0": "Overlord II",
        "col1": "Michiel van den Bos",
        "col2": "R. Pratchett",
        "col3": "Codemasters"
    },
    {
        "col0": "Overlord: Fellowship of Evil",
        "col1": "M. Knight",
        "col2": "R. Pratchett",
        "col3": "Codemasters"
    },
    {
        "col0": "Operation Stealth",
        "col1": "J. Baudlot",
        "col2": "P. Cuisset",
        "col3": "Interplay Entertainment"
    },
    {
        "col0": "Onimusha 2: Samurai's Destiny",
        "col1": "T. Iwashiro",
        "col2": "N. Sugimura",
        "col3": "Capcom"
    },
    {
        "col0": "Onimusha: Warlords",
        "col1": "T. Niigaki",
        "col2": "N. Sugimura",
        "col3": "Capcom"
    },
    {
        "col0": "Omikron: The Nomad Soul",
        "col1": "D. Bowie",
        "col2": "D. Cage",
        "col3": "Eidos Interactive"
    },
    {
        "col0": "Ninja Gaiden 3: Razor's Edge",
        "col1": "T. Saito",
        "col2": "M. Kato",
        "col3": "Tecmo Koei"
    },
    {
        "col0": "Ni no Kuni: Wrath of the White Witch",
        "col1": "J. Hisaishi",
        "col2": "A. Hino",
        "col3": "Bandai Namco Entertainment"
    },
    {
        "col0": "Ni no Kuni: Dominion of the Dark Djinn",
        "col1": "J. Hisaishi",
        "col2": "A. Hino",
        "col3": "Level-5"
    },
    {
        "col0": "Neverwinter Nights",
        "col1": "J. Soule",
        "col2": "D. Karpyshyn",
        "col3": "Infogrames"
    },
    {
        "col0": "Need for Speed: The Run",
        "col1": "B. Tyler",
        "col2": "A. D. Rakoff",
        "col3": "Electronic Arts"
    },
    {
        "col0": "Mother",
        "col1": "K. Suzuki",
        "col2": "S. Itoi",
        "col3": "Nintendo"
    },
    {
        "col0": "Moon: Remix RPG Adventure",
        "col1": "M. Higashino",
        "col2": "T. Kudou",
        "col3": "ASCII"
    },
    {
        "col0": "Mirror's Edge",
        "col1": "S. Fields",
        "col2": "R. Pratchett",
        "col3": "Electronic Arts"
    },
    {
        "col0": "Mighty No. 9",
        "col1": "M. Matsumae",
        "col2": "K. Inafune",
        "col3": "Deep Silver"
    },
    {
        "col0": "Midnight Star",
        "col1": "S. Tankian",
        "col2": "J. Scalzi",
        "col3": "Industrial Toys"
    },
    {
        "col0": "Metroid",
        "col1": "H. Tanaka",
        "col2": "M. Kano",
        "col3": "Nintendo"
    },
    {
        "col0": "Metroid: Other M",
        "col1": "K. Haishima",
        "col2": "Y. Sakamoto",
        "col3": "Nintendo"
    },
    {
        "col0": "Metal Gear Solid V: The Phantom Pain",
        "col1": "J. Burnett",
        "col2": "H. Kojima",
        "col3": "Konami Digital Entertainment"
    },
    {
        "col0": "Metal Gear Solid V: Ground Zeroes",
        "col1": "H. Gregson-Williams",
        "col2": "H. Kojima",
        "col3": "Konami Digital Entertainment"
    },
    {
        "col0": "Metal Gear Solid 4: Guns of the Patriots",
        "col1": "H. Gregson-Williams",
        "col2": "H. Kojima",
        "col3": "Konami"
    },
    {
        "col0": "Metal Gear Solid 3: Snake Eater",
        "col1": "H. Gregson-Williams",
        "col2": "H. Kojima",
        "col3": "Konami Corporation"
    },
    {
        "col0": "Metal Gear Solid 2: Sons of Liberty",
        "col1": "H. Gregson-Williams",
        "col2": "H. Kojima",
        "col3": "Konami"
    },
    {
        "col0": "Metal Gear Solid: The Twin Snakes",
        "col1": "N. Hibino",
        "col2": "H. Kojima",
        "col3": "Konami"
    },
    {
        "col0": "Metal Gear Solid: Portable Ops",
        "col1": "N. Hibino",
        "col2": "G. Mikumo",
        "col3": "Konami"
    },
    {
        "col0": "Metal Gear 2: Solid Snake",
        "col1": "T. Sekito",
        "col2": "H. Kojima",
        "col3": "Konami"
    },
    {
        "col0": "Medal of Honor: Allied Assault",
        "col1": "M. Giacchino",
        "col2": "S. Spielberg",
        "col3": "Aspyr"
    },
    {
        "col0": "Max Payne 3",
        "col1": "Health",
        "col2": "D. Houser",
        "col3": "Rockstar Games"
    },
    {
        "col0": "Max Payne 2: The Fall of Max Payne",
        "col1": "P. Kivilaakso",
        "col2": "S. Lake",
        "col3": "Rockstar Games"
    },
    {
        "col0": "Max Payne",
        "col1": "K. Hatakka",
        "col2": "S. Lake",
        "col3": "Gathering of Developers"
    },
    {
        "col0": "Matt Hazard: Blood Bath and Beyond",
        "col1": "R. Abernethy",
        "col2": "D. Ellis",
        "col3": "D3 Publisher"
    },
    {
        "col0": "Master of the Lamps",
        "col1": "R. Lieblich",
        "col2": "R. Lieblich",
        "col3": "Activision"
    },
    {
        "col0": "Mass Effect 2",
        "col1": "J. Wall",
        "col2": "D. Karpyshyn",
        "col3": "Electronic Arts"
    },
    {
        "col0": "Mass Effect",
        "col1": "J. Wall",
        "col2": "D. Karpyshyn",
        "col3": "Electronic Arts"
    },
    {
        "col0": "Marvel: Ultimate Alliance 2",
        "col1": "T. Morris",
        "col2": "R. Marz",
        "col3": "Activision"
    },
    {
        "col0": "Mario Golf: World Tour",
        "col1": "M. Sakuraba",
        "col2": "H. Takahashi",
        "col3": "Nintendo"
    },
    {
        "col0": "Lost Odyssey",
        "col1": "N. Uematsu",
        "col2": "H. Sakaguchi",
        "col3": "Microsoft Game Studios"
    },
    {
        "col0": "Lost Eden",
        "col1": "S. Picq",
        "col2": "S. Jackson",
        "col3": "Virgin Interactive"
    },
    {
        "col0": "Lost: Via Domus",
        "col1": "M. Giacchino",
        "col2": "D. Lindelof",
        "col3": "Ubisoft"
    },
    {
        "col0": "Lord of Arcana",
        "col1": "N. Uematsu",
        "col2": "K. Nojima",
        "col3": "Square Enix"
    },
    {
        "col0": "Live A Live",
        "col1": "Y. Shimomura",
        "col2": "T. Tokita",
        "col3": "Square"
    },
    {
        "col0": "Lightning Returns: Final Fantasy XIII",
        "col1": "M. Hamauzu",
        "col2": "D. Watanabe",
        "col3": "Square Enix"
    },
    {
        "col0": "Leisure Suit Larry in the Land of the Lounge Lizards",
        "col1": "A. Lowe",
        "col2": "A. Lowe",
        "col3": "Sierra Entertainment"
    },
    {
        "col0": "Leisure Suit Larry Goes Looking for Love",
        "col1": "A. Lowe",
        "col2": "A. Lowe",
        "col3": "Sierra Entertainment"
    },
    {
        "col0": "Lego Dimensions",
        "col1": "I. Livingstone",
        "col2": "J. Burton",
        "col3": "Warner Bros. Interactive Entertainment"
    },
    {
        "col0": "Legend of Mana",
        "col1": "Y. Shimomura",
        "col2": "N. Inoue",
        "col3": "Square"
    },
    {
        "col0": "Legacy of Kain: Soul Reaver",
        "col1": "K. Harland",
        "col2": "A. Hennig",
        "col3": "Eidos Interactive"
    },
    {
        "col0": "Legacy of Kain: Defiance",
        "col1": "J. Hedges",
        "col2": "A. Hennig",
        "col3": "Eidos Interactive"
    },
    {
        "col0": "Left 4 Dead 2",
        "col1": "M. Morasky",
        "col2": "C. Faliszek",
        "col3": "Valve Corporation"
    },
    {
        "col0": "Left 4 Dead",
        "col1": "M. Morasky",
        "col2": "C. Faliszek",
        "col3": "Valve Corporation"
    },
    {
        "col0": "Leather Goddesses of Phobos 2: Gas Pump Girls Meet the Pulsating Inconvenience from Planet X!",
        "col1": "R. Lieblich",
        "col2": "S. Meretzky",
        "col3": "Activision"
    },
    {
        "col0": "Law & Order: Legacies",
        "col1": "M. Post",
        "col2": "A. Kaplan",
        "col3": "Telltale Games"
    },
    {
        "col0": "Last Ranker",
        "col1": "Y. Shimomura",
        "col2": "K. Nojima",
        "col3": "Capcom"
    },
    {
        "col0": "L.O.L.: Lack of Love",
        "col1": "R. Sakamoto",
        "col2": "K. Nishi",
        "col3": "ASCII"
    },
    {
        "col0": "Koudelka",
        "col1": "H. Kikuta",
        "col2": "H. Kikuta",
        "col3": "SNK Playmore"
    },
    {
        "col0": "Knack",
        "col1": "W. Hokoyama",
        "col2": "M. Cerny",
        "col3": "Sony Computer Entertainment"
    },
    {
        "col0": "Kingdoms of Amalur: Reckoning",
        "col1": "G. Kirkhope",
        "col2": "R. A. Salvatore",
        "col3": "Electronic Arts"
    },
    {
        "col0": "Kingdom Hearts II",
        "col1": "Y. Shimomura",
        "col2": "K. Nojima",
        "col3": "Square Enix"
    },
    {
        "col0": "Kingdom Hearts HD 2.5 Remix",
        "col1": "Y. Shimomura",
        "col2": "D. Watanabe",
        "col3": "Square Enix"
    },
    {
        "col0": "Kingdom Hearts HD 1.5 Remix",
        "col1": "Y. Shimomura",
        "col2": "D. Watanabe",
        "col3": "Square Enix"
    },
    {
        "col0": "Kingdom Hearts Coded",
        "col1": "Y. Shimomura",
        "col2": "T. Nomura",
        "col3": "Square Enix"
    },
    {
        "col0": "Kingdom Hearts Birth by Sleep",
        "col1": "T. Sekito",
        "col2": "D. Watanabe",
        "col3": "Ubisoft"
    },
    {
        "col0": "Kingdom Hearts 3D: Dream Drop Distance",
        "col1": "T. Sekito",
        "col2": "T. Nomura",
        "col3": "Square Enix"
    },
    {
        "col0": "Kingdom Hearts 358/2 Days",
        "col1": "Y. Shimomura",
        "col2": "T. Nomura",
        "col3": "Square Enix"
    },
    {
        "col0": "Kingdom Hearts: Chain of Memories",
        "col1": "Y. Shimomura",
        "col2": "D. Watanabe",
        "col3": "Square Enix"
    },
    {
        "col0": "King's Quest II",
        "col1": "A. Lowe",
        "col2": "R. Williams",
        "col3": "Sierra Entertainment"
    },
    {
        "col0": "King's Quest: Mask of Eternity",
        "col1": "K. Manthei",
        "col2": "R. Williams",
        "col3": "Sierra Entertainment"
    },
    {
        "col0": "Killer7",
        "col1": "M. Takada",
        "col2": "S. Mikami",
        "col3": "Capcom"
    },
    {
        "col0": "Kaeru no Tame ni Kane wa Naru",
        "col1": "K. Totaka",
        "col2": "Y. Sakamoto",
        "col3": "Nintendo"
    },
    {
        "col0": "Just Cause",
        "col1": "R. Lord",
        "col2": "M. J. Costello",
        "col3": "Eidos Interactive"
    },
    {
        "col0": "Jurassic Park: The Game",
        "col1": "J. Emerson-Johnson",
        "col2": "M. Darin",
        "col3": "Telltale Games"
    },
    {
        "col0": "James Bond 007: Everything or Nothing",
        "col1": "S. Callery",
        "col2": "B. Feirstein",
        "col3": "Electronic Arts"
    },
    {
        "col0": "James Bond 007: Blood Stone",
        "col1": "R. Jacques",
        "col2": "B. Feirstein",
        "col3": "Activision"
    },
    {
        "col0": "Jak and Daxter: The Precursor Legacy",
        "col1": "J. Mancell",
        "col2": "J. Rubin",
        "col3": "Sony Computer Entertainment"
    },
    {
        "col0": "Jak 3",
        "col1": "J. Mancell",
        "col2": "J. Rubin",
        "col3": "Sony Computer Entertainment"
    },
    {
        "col0": "Iron Brigade",
        "col1": "P. McConnell",
        "col2": "T. Schafer",
        "col3": "Microsoft Studios"
    },
    {
        "col0": "Insecticide",
        "col1": "P. McConnell",
        "col2": "J. Mandel",
        "col3": "Gamecock Media Group"
    },
    {
        "col0": "Injustice: Gods Among Us",
        "col1": "C. Velasco",
        "col2": "J. Vogel",
        "col3": "Warner Bros. Interactive Entertainment"
    },
    {
        "col0": "Infinite Undiscovery",
        "col1": "M. Sakuraba",
        "col2": "R. Mizuno",
        "col3": "Square Enix"
    },
    {
        "col0": "Indiana Jones and the Fate of Atlantis",
        "col1": "C. Bajakian",
        "col2": "H. Barwood",
        "col3": "LucasArts"
    },
    {
        "col0": "Indiana Jones and His Desktop Adventures",
        "col1": "C. Bajakian",
        "col2": "H. Barwood",
        "col3": "LucasArts"
    },
    {
        "col0": "Heroes of Might and Magic V",
        "col1": "P. Romero",
        "col2": "J. Spock",
        "col3": "Ubisoft"
    },
    {
        "col0": "Heroes of Mana",
        "col1": "Y. Shimomura",
        "col2": "M. Kato",
        "col3": "Square Enix"
    },
    {
        "col0": "Heavy Rain",
        "col1": "N. Corbeil",
        "col2": "D. Cage",
        "col3": "Sony Computer Entertainment"
    },
    {
        "col0": "Heavenly Sword",
        "col1": "N. Sawhney",
        "col2": "A. Serkis",
        "col3": "Sony Computer Entertainment"
    },
    {
        "col0": "Haven: Call of the King",
        "col1": "Andy Blythe and Marten Joustra",
        "col2": "J. Burton",
        "col3": "Midway Games"
    },
    {
        "col0": "Halo Wars",
        "col1": "S. Rippy",
        "col2": "G. Devine",
        "col3": "Microsoft Game Studios"
    },
    {
        "col0": "Halo 3: ODST",
        "col1": "M. O'Donnell",
        "col2": "J. Staten",
        "col3": "Microsoft Studios"
    },
    {
        "col0": "Half-Life",
        "col1": "K. Bailey",
        "col2": "M. Laidlaw",
        "col3": "Sierra Studios"
    },
    {
        "col0": "Guild Wars 2",
        "col1": "J. Soule",
        "col2": "J. Grubb",
        "col3": "NCSOFT"
    },
    {
        "col0": "Grim Fandango",
        "col1": "P. McConnell",
        "col2": "T. Schafer",
        "col3": "LucasArts"
    },
    {
        "col0": "Gravity Rush",
        "col1": "K. Tanaka",
        "col2": "K. Toyama",
        "col3": "Sony Computer Entertainment"
    },
    {
        "col0": "Grand Theft Auto V",
        "col1": "T. Dream",
        "col2": "D. Houser",
        "col3": "Rockstar Games"
    },
    {
        "col0": "Grand Theft Auto IV",
        "col1": "M. Hunter",
        "col2": "D. Houser",
        "col3": "Rockstar Games"
    },
    {
        "col0": "Grand Theft Auto: The Ballad of Gay Tony",
        "col1": "J. Murphy",
        "col2": "D. Houser",
        "col3": "Rockstar Games"
    },
    {
        "col0": "Grand Theft Auto: San Andreas",
        "col1": "M. Hunter",
        "col2": "D. Pooh",
        "col3": "Rockstar Games"
    },
    {
        "col0": "Golden Sun",
        "col1": "M. Sakuraba",
        "col2": "H. Takahashi",
        "col3": "Nintendo"
    },
    {
        "col0": "GoldenEye 007",
        "col1": "D. Arnold",
        "col2": "B. Feirstein",
        "col3": "Activision"
    },
    {
        "col0": "GoldenEye 007",
        "col1": "G. Kirkhope",
        "col2": "D. Doak",
        "col3": "Nintendo"
    },
    {
        "col0": "GoldenEye: Rogue Agent",
        "col1": "P. Oakenfold",
        "col2": "D. Bilson",
        "col3": "Electronic Arts"
    },
    {
        "col0": "God of War III",
        "col1": "J. Rona",
        "col2": "M. Krawczyk",
        "col3": "Sony Computer Entertainment"
    },
    {
        "col0": "God of War II",
        "col1": "C. Velasco",
        "col2": "M. Krawczyk",
        "col3": "Sony Computer Entertainment"
    },
    {
        "col0": "God of War",
        "col1": "B. McCreary",
        "col2": "C. Barlog",
        "col3": "Sony Interactive Entertainment"
    },
    {
        "col0": "God of War",
        "col1": "W. Phillips",
        "col2": "M. Krawczyk",
        "col3": "Sony Computer Entertainment"
    },
    {
        "col0": "God of War: Ghost of Sparta",
        "col1": "G. Marino",
        "col2": "M. Krawczyk",
        "col3": "Sony Computer Entertainment"
    },
    {
        "col0": "God of War: Chains of Olympus",
        "col1": "G. Marino",
        "col2": "M. Krawczyk",
        "col3": "Sony Computer Entertainment"
    },
    {
        "col0": "God of War: Ascension",
        "col1": "T. Bates",
        "col2": "M. Krawczyk",
        "col3": "Sony Computer Entertainment"
    },
    {
        "col0": "Glory of Heracles",
        "col1": "Y. Hirota",
        "col2": "K. Nojima",
        "col3": "Nintendo"
    },
    {
        "col0": "Gears of War 4",
        "col1": "R. Djawadi",
        "col2": "T. Bissell",
        "col3": "Microsoft Studios"
    },
    {
        "col0": "Gears of War 3",
        "col1": "S. Jablonsky",
        "col2": "K. Traviss",
        "col3": "Microsoft Studios"
    },
    {
        "col0": "Gears of War 2",
        "col1": "S. Jablonsky",
        "col2": "J. Ortega",
        "col3": "Microsoft Game Studios"
    },
    {
        "col0": "Gears of War",
        "col1": "K. Riepl",
        "col2": "E. Nylund",
        "col3": "Microsoft Game Studios"
    },
    {
        "col0": "Gears of War: Judgment",
        "col1": "S. Jablonsky",
        "col2": "T. Bissell",
        "col3": "Microsoft Studios"
    },
    {
        "col0": "Gabriel Knight 3: Blood of the Sacred, Blood of the Damned",
        "col1": "R. Holmes",
        "col2": "J. Jensen",
        "col3": "Sierra Entertainment"
    },
    {
        "col0": "Gabriel Knight: Sins of the Fathers",
        "col1": "R. Holmes",
        "col2": "J. Jensen",
        "col3": "Sierra Entertainment"
    },
    {
        "col0": "Full Throttle",
        "col1": "P. McConnell",
        "col2": "D. Grossman",
        "col3": "LucasArts"
    },
    {
        "col0": "Front Mission Evolved",
        "col1": "G. Schyman",
        "col2": "D. Watanabe",
        "col3": "Square Enix"
    },
    {
        "col0": "Front Mission",
        "col1": "N. Matsueda",
        "col2": "T. Tsuchida",
        "col3": "Square"
    },
    {
        "col0": "From Dust",
        "col1": "T. Salta",
        "col2": "L. Genefort",
        "col3": "Ubisoft"
    },
    {
        "col0": "Forbidden Siren 2",
        "col1": "K. Haishima",
        "col2": "K. Toyama",
        "col3": "Sony Computer Entertainment"
    },
    {
        "col0": "Firewatch",
        "col1": "C. Remo",
        "col2": "J. Rodkin",
        "col3": "Panic"
    },
    {
        "col0": "Fire Emblem Gaiden",
        "col1": "Y. Tsujiyoko",
        "col2": "S. Kaga",
        "col3": "Nintendo"
    },
    {
        "col0": "Fire Emblem: Thracia 776",
        "col1": "Y. Tsujiyoko",
        "col2": "S. Kaga",
        "col3": "Nintendo"
    },
    {
        "col0": "Fire Emblem: Shadow Dragon and the Blade of Light",
        "col1": "Y. Tsujiyoko",
        "col2": "S. Kaga",
        "col3": "Nintendo"
    }
]