[
    {
        "col0": "A. Toth",
        "col1": "Burbank, California",
        "col2": "New York City",
        "col3": "2006-5-27",
        "col4": "1928-6-25"
    },
    {
        "col0": "A. Schomburg",
        "col1": "Hillsboro, Oregon",
        "col2": "Aguadilla, Puerto Rico",
        "col3": "1998-4-7",
        "col4": "1905-5-10"
    },
    {
        "col0": "A. Raymond",
        "col1": "Westport, Connecticut",
        "col2": "New Rochelle, New York",
        "col3": "1956-9-6",
        "col4": "1909-10-2"
    },
    {
        "col0": "A. Giolitti",
        "col1": "Rome",
        "col2": "Rome",
        "col3": "1993-4-15",
        "col4": "1923-11-14"
    },
    {
        "col0": "A. Breccia",
        "col1": "Buenos Aires",
        "col2": "Montevideo",
        "col3": "1993-11-10",
        "col4": "1919-4-15"
    },
    {
        "col0": "A. Chartier",
        "col1": "Joliette",
        "col2": "Montreal",
        "col3": "2004-2-21",
        "col4": "1912-6-16"
    },
    {
        "col0": "A. Saint-Ogan",
        "col1": "Paris",
        "col2": "Colombes",
        "col3": "1974-6-22",
        "col4": "1895-8-7"
    },
    {
        "col0": "A. Williamson",
        "col1": "New York City",
        "col2": "New York City",
        "col3": "2010-6-12",
        "col4": "1931-3-21"
    },
    {
        "col0": "A. Taliaferro",
        "col1": "Glendale, California",
        "col2": "Montrose, Colorado",
        "col3": "1969-2-3",
        "col4": "1905-8-29"
    },
    {
        "col0": "A. Smith",
        "col1": "Rutland",
        "col2": "New York City",
        "col3": "1986-11-24",
        "col4": "1902-3-2"
    },
    {
        "col0": "A. Plastino",
        "col1": "Patchogue, New York",
        "col2": "Manhattan",
        "col3": "2013-11-25",
        "col4": "1921-12-15"
    },
    {
        "col0": "A. McWilliams",
        "col1": "Stamford, Connecticut",
        "col2": "New York City",
        "col3": "1993-3-19",
        "col4": "1916-2-2"
    },
    {
        "col0": "A. Kilgore",
        "col1": "New York City",
        "col2": "Newark, New Jersey",
        "col3": "1983-8-15",
        "col4": "1927-12-19"
    },
    {
        "col0": "A. Hartley",
        "col1": "Fort Myers, Florida",
        "col2": "Kearny, New Jersey",
        "col3": "2003-5-27",
        "col4": "1921-10-25"
    },
    {
        "col0": "A. Feldstein",
        "col1": "Paradise Valley",
        "col2": "Brooklyn",
        "col3": "2014-4-29",
        "col4": "1925-10-24"
    },
    {
        "col0": "A. Roy",
        "col1": "Austin, Texas",
        "col2": "Verona",
        "col3": "2010-12-14",
        "col4": "1953-6-28"
    }
]