[
    {
        "col0": "Yuseong Spa Station",
        "col1": "2",
        "col2": "Bongmyeong-dong,Yuseong District,Daejeon",
        "col3": "116"
    },
    {
        "col0": "Yulli Station",
        "col1": "2",
        "col2": "Geumgok-dong,Buk District,Busan",
        "col3": "236"
    },
    {
        "col0": "Youngsan University Station",
        "col1": "2",
        "col2": "Bansong-dong,Haeundae District,Busan",
        "col3": "411"
    },
    {
        "col0": "Yongsan Station",
        "col1": "2",
        "col2": "Yongsan-dong,Dalseo District,Daegu",
        "col3": "223"
    },
    {
        "col0": "Yongmun Station",
        "col1": "2",
        "col2": "Yongmun-dong,Jung District,Daejeon",
        "col3": "109"
    },
    {
        "col0": "Yeungnam University Station",
        "col1": "2",
        "col2": "Dae-dong,Gyeongsan,North Gyeongsang Province",
        "col3": "244"
    },
    {
        "col0": "Yeonsan Station",
        "col1": "2",
        "col2": "Yeonsan-dong,Yeonje District,Busan",
        "col3": "122"
    },
    {
        "col0": "Yeonji Park Station",
        "col1": "2",
        "col2": "Gusan-dong,Gimhae",
        "col3": "19"
    },
    {
        "col0": "Yeonho Station",
        "col1": "2",
        "col2": "Yeonho-dong,Suseong District,Daegu",
        "col3": "237"
    },
    {
        "col0": "Yangjeong Station",
        "col1": "2",
        "col2": "Yangjeong-dong,Busanjin District,Busan",
        "col3": "121"
    },
    {
        "col0": "Yangdong Market Station",
        "col1": "2",
        "col2": "Seo-dong,Seo District,Gwangju",
        "col3": "107"
    },
    {
        "col0": "World Cup Stadium Station",
        "col1": "2",
        "col2": "Noeun-dong,Yuseong District,Daejeon",
        "col3": "119"
    },
    {
        "col0": "Wondae Station",
        "col1": "2",
        "col2": "Wondae-dong,Seo District,Daegu",
        "col3": "325"
    },
    {
        "col0": "Wolpyeong Station",
        "col1": "2",
        "col2": "Wolpyeong-dong,Seo District,Daejeon",
        "col3": "114"
    },
    {
        "col0": "Wolbae Station",
        "col1": "2",
        "col2": "Jincheon-dong,Dalseo District,Daegu",
        "col3": "119"
    },
    {
        "col0": "Uncheon Station",
        "col1": "2",
        "col2": "Ssangchon-dong,Seo District,Gwangju",
        "col3": "112"
    },
    {
        "col0": "Toseong Station",
        "col1": "2",
        "col2": "Toseong-dong,Seo District,Busan",
        "col3": "109"
    },
    {
        "col0": "Tanbang Station",
        "col1": "2",
        "col2": "Tanbang-dong,Seo District,Daejeon",
        "col3": "110"
    },
    {
        "col0": "Taejeon Station",
        "col1": "2",
        "col2": "Taejeon-dong,Buk District,Daegu",
        "col3": "318"
    },
    {
        "col0": "Suyeong Station",
        "col1": "2",
        "col2": "U-dong,Suyeong District,Busan",
        "col3": "* Line 2: 208"
    },
    {
        "col0": "Suseongmot Station",
        "col1": "2",
        "col2": "Jisan-dong,Suseong District,Daegu",
        "col3": "338"
    },
    {
        "col0": "Suseong Market Station",
        "col1": "2",
        "col2": "Suseong-dong,Suseong District,Daegu",
        "col3": "334"
    },
    {
        "col0": "Suseong District Stadium Station",
        "col1": "2",
        "col2": "Beomeo-dong,Suseong District,Daegu",
        "col3": "335"
    },
    {
        "col0": "Suseong-gu Office Station",
        "col1": "2",
        "col2": "Beomeo-dong,Suseong District,Daegu",
        "col3": "234"
    },
    {
        "col0": "Sukdeung Station",
        "col1": "2",
        "col2": "Deokcheon-dong,Buk District,Busan",
        "col3": "312"
    },
    {
        "col0": "Sujeong Station",
        "col1": "2",
        "col2": "Hwamyeong-dong,Buk District,Busan",
        "col3": "234"
    },
    {
        "col0": "Suan Station",
        "col1": "2",
        "col2": "Suan-dong,Dongnae District,Busan",
        "col3": "403"
    },
    {
        "col0": "Ssangchon Station",
        "col1": "2",
        "col2": "Ssangchon-dong,Seo District,Gwangju",
        "col3": "111"
    },
    {
        "col0": "Sports Park Station",
        "col1": "2",
        "col2": "Daejeo-dong,Gangseo District,Busan",
        "col3": "316"
    },
    {
        "col0": "Sports Complex Station",
        "col1": "2",
        "col2": "Geoje-dong,Yeonje District,Busan",
        "col3": "307"
    },
    {
        "col0": "Songjeong Park Station",
        "col1": "2",
        "col2": "Songjeong-dong,Gwangsan District,Gwangju",
        "col3": "116"
    },
    {
        "col0": "Songhyeon Station",
        "col1": "2",
        "col2": "Songhyeon-dong,Dalseo District,Daegu",
        "col3": "122"
    },
    {
        "col0": "Sinpyeong Station",
        "col1": "2",
        "col2": "Sinpyeong-dong,Saha District,Busan",
        "col3": "101"
    },
    {
        "col0": "Sinnam Station",
        "col1": "2",
        "col2": "Dongsan-dong,Jung District,Daegu",
        "col3": "* Line 2: 229"
    },
    {
        "col0": "Sinmae Station",
        "col1": "2",
        "col2": "Maeho-dong,Suseong District,Daegu",
        "col3": "240"
    },
    {
        "col0": "Sinheung Station",
        "col1": "2",
        "col2": "Panam-dong,Dong District,Daejeon",
        "col3": "102"
    },
    {
        "col0": "Seongseo Industrial Complex Station",
        "col1": "2",
        "col2": "Igok-dong,Dalseo District,Daegu",
        "col3": "221"
    },
    {
        "col0": "Seongdangmot Station",
        "col1": "2",
        "col2": "Daemyeong-dong,Nam District/Songhyeon-dong,Dalseo District,Daegu",
        "col3": "123"
    },
    {
        "col0": "Seomun Market Station",
        "col1": "2",
        "col2": "Daesin-dong,Jung District,Daegu",
        "col3": "328"
    },
    {
        "col0": "Seokdae Station",
        "col1": "2",
        "col2": "Seokdae-dong,Haeundae District,Busan",
        "col3": "410"
    },
    {
        "col0": "Seodaesin Station",
        "col1": "2",
        "col2": "Seodaesin-dong,Seo District,Busan",
        "col3": "107"
    },
    {
        "col0": "Seodaejeon Negeori Station",
        "col1": "2",
        "col2": "Yongdu-dong,Jung District,Daejeon",
        "col3": "107"
    },
    {
        "col0": "Seobusan Yutongjigu Station",
        "col1": "2",
        "col2": "Daejeo-dong,Gangseo District,Busan",
        "col3": "3"
    },
    {
        "col0": "Seo-dong Station",
        "col1": "2",
        "col2": "Seo-dong,Geumjeong District,Busan",
        "col3": "407"
    },
    {
        "col0": "Sawol Station",
        "col1": "2",
        "col2": "Sinmae-dong,Suseong District,Daegu",
        "col3": "241"
    },
    {
        "col0": "Sasang Station",
        "col1": "2",
        "col2": "Gwaebeop-dong,Sasang District,Busan",
        "col3": "1"
    },
    {
        "col0": "Sangmu Station",
        "col1": "2",
        "col2": "Maneuk-dong,Seo District,Gwangju",
        "col3": "113"
    },
    {
        "col0": "Sangin Station",
        "col1": "2",
        "col2": "Sangin-dong,Dalseo District,Daegu",
        "col3": "120"
    },
    {
        "col0": "Sajik Station",
        "col1": "2",
        "col2": "Sajik-dong,Dongnae District,Busan",
        "col3": "308"
    },
    {
        "col0": "Royal Tomb of King Suro Station",
        "col1": "2",
        "col2": "Oe-dong,Gimhae",
        "col3": "17"
    },
    {
        "col0": "Pyeonggang Station",
        "col1": "2",
        "col2": "Daejeo-dong,Gangseo District,Busan",
        "col3": "8"
    },
    {
        "col0": "Pyeongdong Station",
        "col1": "2",
        "col2": "Woljeon-dong,Gwangsan District,Gwangju",
        "col3": "119"
    },
    {
        "col0": "Pusan National University Yangsan Campus Station",
        "col1": "2",
        "col2": "Mulgeum-eup,Yangsan,South Gyeongsang",
        "col3": "241"
    },
    {
        "col0": "Pusan National University Station",
        "col1": "2",
        "col2": "Jangjeon-dong,Geumjeong District,Busan",
        "col3": "128"
    },
    {
        "col0": "Presbyterian University Station",
        "col1": "2",
        "col2": "Samgye-dong,Gimhae",
        "col3": "20"
    },
    {
        "col0": "Panam Station",
        "col1": "3",
        "col2": "Panam-dong,Dong District,Daejeon",
        "col3": "101"
    },
    {
        "col0": "Oryong Station",
        "col1": "2",
        "col2": "Oryu-dong,Jung District,Daejeon",
        "col3": "108"
    },
    {
        "col0": "Oncheonjang Station",
        "col1": "2",
        "col2": "Oncheon-dong,Dongnae District,Busan",
        "col3": "127"
    },
    {
        "col0": "Nopo Station",
        "col1": "2",
        "col2": "Nopo-dong,Geumjeong District,Busan",
        "col3": "134"
    },
    {
        "col0": "Nongseong Station",
        "col1": "2",
        "col2": "Nongseong-dong,Seo District,Gwangju",
        "col3": "109"
    },
    {
        "col0": "Noeun Station",
        "col1": "2",
        "col2": "Noeun-dong,Yuseong District,Daejeon",
        "col3": "120"
    },
    {
        "col0": "National Cemetery Station",
        "col1": "2",
        "col2": "Guam-dong,Yuseong District,Daejeon",
        "col3": "118"
    },
    {
        "col0": "Nangmin Station",
        "col1": "2",
        "col2": "Nangmin-dong,Dongnae District,Busan",
        "col3": "404"
    },
    {
        "col0": "Namyangsan Station",
        "col1": "2",
        "col2": "Mulgeum-eup,Yangsan,South Gyeongsang",
        "col3": "242"
    },
    {
        "col0": "Namsanjeong Station",
        "col1": "2",
        "col2": "Mandeok-dong,Buk District,Busan",
        "col3": "311"
    },
    {
        "col0": "Namsan Station",
        "col1": "2",
        "col2": "Namsan-dong,Jung District,Daegu",
        "col3": "319"
    },
    {
        "col0": "Namsan Station",
        "col1": "2",
        "col2": "Namsan-dong,Geumjeong District,Busan",
        "col3": "132"
    },
    {
        "col0": "Nampo Station",
        "col1": "2",
        "col2": "Nampo-dong,Jung District,Busan",
        "col3": "111"
    },
    {
        "col0": "Namcheon Station",
        "col1": "2",
        "col2": "Namcheon-dong,Suyeong District,Busan",
        "col3": "211"
    },
    {
        "col0": "Naengjeong Station",
        "col1": "2",
        "col2": "Jurye-dong,Sasang District,Busan",
        "col3": "224"
    },
    {
        "col0": "Naedang Station",
        "col1": "2",
        "col2": "Naedang-dong,Seo District,Daegu",
        "col3": "227"
    },
    {
        "col0": "Myeongnyun Station",
        "col1": "2",
        "col2": "Myeongnyun-dong,Dongnae District,Busan",
        "col3": "126"
    },
    {
        "col0": "Myeongjang Station",
        "col1": "2",
        "col2": "Allak-dong,Dongnae District,Busan",
        "col3": "406"
    },
    {
        "col0": "Munyang Station",
        "col1": "2",
        "col2": "Munyang-ri,Dasa-eup,Dalseong County,Daegu",
        "col3": "216"
    },
    {
        "col0": "Munhyeon Station",
        "col1": "2",
        "col2": "Munhyeon-dong,Nam District,Busan",
        "col3": "216"
    },
    {
        "col0": "Mulmangol Station",
        "col1": "2",
        "col2": "Yeonsan-dong,Yeonje District,Busan",
        "col3": "304"
    },
    {
        "col0": "Motgol Station",
        "col1": "2",
        "col2": "Daeyeon-dong,Nam District,Busan",
        "col3": "214"
    },
    {
        "col0": "Mora Station",
        "col1": "2",
        "col2": "Mora-dong,Sasang District,Busan",
        "col3": "230"
    },
    {
        "col0": "Modeok Station",
        "col1": "2",
        "col2": "Deokpo-dong,Sasang District,Busan",
        "col3": "229"
    },
    {
        "col0": "Minam Station",
        "col1": "2",
        "col2": "Oncheon-dong,Dongnae District,Busan",
        "col3": "* Line 3: 309"
    },
    {
        "col0": "Millak Station",
        "col1": "2",
        "col2": "Suyeong-dong,Suyeong District,Busan",
        "col3": "207"
    },
    {
        "col0": "Manpyeong Station",
        "col1": "2",
        "col2": "Nowon-dong,Buk District,Daegu",
        "col3": "323"
    },
    {
        "col0": "Mangmi Station",
        "col1": "2",
        "col2": "Mangmi-dong,Suyeong District,Busan",
        "col3": "302"
    },
    {
        "col0": "Mandeok Station",
        "col1": "2",
        "col2": "Mandeok-dong,Buk District,Busan",
        "col3": "310"
    },
    {
        "col0": "Manchon Station",
        "col1": "2",
        "col2": "Manchon-dong,Suseong District,Daegu",
        "col3": "235"
    },
    {
        "col0": "Maecheon Station",
        "col1": "2",
        "col2": "Maecheon-dong,Buk District,Daegu",
        "col3": "319"
    },
    {
        "col0": "Maecheon Market Station",
        "col1": "2",
        "col2": "Maecheon-dong,Buk District,Daegu",
        "col3": "320"
    },
    {
        "col0": "Kyungsung University-Pukyong National University Station",
        "col1": "2",
        "col2": "Daeyeon-dong,Nam District,Busan",
        "col3": "212"
    },
    {
        "col0": "Kyungpook National University Hospital Station",
        "col1": "2",
        "col2": "Samdeok-dong,Jung District,Daegu",
        "col3": "231"
    },
    {
        "col0": "Kim Daejung Convention Center Station",
        "col1": "2",
        "col2": "Maneuk-dong,Seo District,Gwangju",
        "col3": "114"
    },
    {
        "col0": "Keimyung University Station",
        "col1": "2",
        "col2": "Sindang-dong,Dalseo District,Daegu",
        "col3": "220"
    },
    {
        "col0": "Jwacheon Station",
        "col1": "2",
        "col2": "Jwacheon-dong,Dong District,Busan",
        "col3": "116"
    },
    {
        "col0": "Jurye Station",
        "col1": "2",
        "col2": "Jurye-dong,Sasang District,Busan",
        "col3": "225"
    },
    {
        "col0": "Jungangno Station",
        "col1": "2",
        "col2": "Eunhang-dong,Jung District,Daejeon",
        "col3": "105"
    },
    {
        "col0": "Jungangno Station",
        "col1": "2",
        "col2": "Seongnae-dong,Jung District,Daegu",
        "col3": "131"
    },
    {
        "col0": "Jungang Station",
        "col1": "2",
        "col2": "Jungang-dong,Jung District,Busan",
        "col3": "112"
    },
    {
        "col0": "Jung-gu Office Station",
        "col1": "2",
        "col2": "Seonhwa-dong,Jung District,Daejeon",
        "col3": "106"
    },
    {
        "col0": "Jung-dong Station",
        "col1": "2",
        "col2": "Jung-dong,Haeundae District,Busan",
        "col3": "202"
    },
    {
        "col0": "Jukjeon Station",
        "col1": "2",
        "col2": "Jukjeon-dong,Dalseo District,Daegu",
        "col3": "224"
    },
    {
        "col0": "Jinae Station",
        "col1": "2",
        "col2": "Jinae-dong,Gimhae",
        "col3": "11"
    },
    {
        "col0": "Jijok Station",
        "col1": "2",
        "col2": "Jijok-dong,Yuseong District,Daejeon",
        "col3": "121"
    },
    {
        "col0": "Jigegol Station",
        "col1": "2",
        "col2": "Munhyeon-dong,Nam District,Busan",
        "col3": "215"
    },
    {
        "col0": "Jeungsan Station",
        "col1": "2",
        "col2": "Mulgeum-eup,Yangsan,South Gyeongsang",
        "col3": "240"
    },
    {
        "col0": "Jeonpo Station",
        "col1": "2",
        "col2": "Jeonpo-dong,Busanjin District,Busan",
        "col3": "218"
    },
    {
        "col0": "Jeongpyeong Station",
        "col1": "2",
        "col2": "Jeongpyeong-dong,Gyeongsan,North Gyeongsang Province",
        "col3": "242"
    },
    {
        "col0": "Jangsan Station",
        "col1": "2",
        "col2": "Jwa-dong,Haeundae District,Busan",
        "col3": "201"
    },
    {
        "col0": "Jangjeon Station",
        "col1": "2",
        "col2": "Jangjeon-dong,Geumjeong District,Busan",
        "col3": "129"
    },
    {
        "col0": "Jagalchi Station",
        "col1": "2",
        "col2": "Nampo-dong,Seo District,Busan",
        "col3": "110"
    },
    {
        "col0": "Inje University Station",
        "col1": "2",
        "col2": "Samjeong-dong,Gimhae",
        "col3": "13"
    },
    {
        "col0": "Imdang Station",
        "col1": "2",
        "col2": "Jungbang-dong,Gyeongsan,North Gyeongsang Province",
        "col3": "243"
    },
    {
        "col0": "Igok Station",
        "col1": "2",
        "col2": "Igok-dong,Dalseo District,Daegu",
        "col3": "222"
    },
    {
        "col0": "Hyeonchungno Station",
        "col1": "2",
        "col2": "Daemyeong-dong,Nam District,Daegu",
        "col3": "126"
    },
    {
        "col0": "Hwajeong Station",
        "col1": "2",
        "col2": "Hwajeong-dong,Seo District,Gwangju",
        "col3": "110"
    },
    {
        "col0": "Hopo Station",
        "col1": "2",
        "col2": "Dong-myeon,Yangsan,South Gyeongsang",
        "col3": "239"
    },
    {
        "col0": "Haeundae Station",
        "col1": "2",
        "col2": "U-dong,Haeundae District,Busan",
        "col3": "203"
    },
    {
        "col0": "Hadan Station",
        "col1": "2",
        "col2": "Hadan-dong,Saha District,Busan",
        "col3": "102"
    },
    {
        "col0": "Gwangju Songjeong Station",
        "col1": "2",
        "col2": "Songjeong-dong,Gwangsan District,Gwangju",
        "col3": "117"
    },
    {
        "col0": "Gwangan Station",
        "col1": "2",
        "col2": "Gwangan-dong,Suyeong District,Busan",
        "col3": "209"
    },
    {
        "col0": "Gwaebeop Renecite Station",
        "col1": "2",
        "col2": "Gwaebeop-dong,Sasang District,Busan",
        "col3": "2"
    },
    {
        "col0": "Guseo Station",
        "col1": "2",
        "col2": "Guseo-dong,Geumjeong District,Busan",
        "col3": "130"
    },
    {
        "col0": "Gunam Station",
        "col1": "2",
        "col2": "Gupo-dong,Buk District,Busan",
        "col3": "231"
    },
    {
        "col0": "Gumyeong Station",
        "col1": "2",
        "col2": "Gupo-dong,Buk District,Busan",
        "col3": "232"
    },
    {
        "col0": "Guam Station",
        "col1": "2",
        "col2": "Guam-dong,Yuseong District,Daejeon",
        "col3": "117"
    },
    {
        "col0": "Government Complex Daejeon Station",
        "col1": "2",
        "col2": "Dunsan-dong,Seo District,Daejeon",
        "col3": "112"
    },
    {
        "col0": "Gosan Station",
        "col1": "2",
        "col2": "Siji-dong,Suseong District,Daegu",
        "col3": "239"
    },
    {
        "col0": "Gongdan Station",
        "col1": "2",
        "col2": "Bisan-dong,Seo District,Daegu",
        "col3": "322"
    },
    {
        "col0": "Goejeong Station",
        "col1": "2",
        "col2": "Goejeong-dong,Saha District,Busan",
        "col3": "105"
    },
    {
        "col0": "Gochon Station",
        "col1": "2",
        "col2": "Cheolma-myeon,Gijang County,Busan",
        "col3": "413"
    },
    {
        "col0": "Gimhae National Museum Station",
        "col1": "2",
        "col2": "Nae-dong,Gimhae",
        "col3": "18"
    },
    {
        "col0": "Gimhae International Airport Station",
        "col1": "2",
        "col2": "Daejeo-dong,Gangseo District,Busan",
        "col3": "4"
    },
    {
        "col0": "Gimhae College Station",
        "col1": "2",
        "col2": "An-dong,Gimhae",
        "col3": "12"
    },
    {
        "col0": "Gimhae City Hall Station",
        "col1": "2",
        "col2": "Buwon-dong,Gimhae",
        "col3": "14"
    },
    {
        "col0": "Geumsa Station",
        "col1": "2",
        "col2": "Geumsa-dong,Geumjeong District,Busan",
        "col3": "408"
    },
    {
        "col0": "Geumnyeonsan Station",
        "col1": "2",
        "col2": "Namcheon-dong,Suyeong District,Busan",
        "col3": "210"
    },
    {
        "col0": "Geumnamno 5-ga Station",
        "col1": "2",
        "col2": "Buk-dong,Buk District,Gwangju",
        "col3": "106"
    },
    {
        "col0": "Geumnamno 4-ga Station",
        "col1": "2",
        "col2": "Chunggeum-dong,Dong District,Gwangju",
        "col3": "105"
    },
    {
        "col0": "Geumgok Station",
        "col1": "2",
        "col2": "Geumgok-dong,Buk District,Busan",
        "col3": "238"
    },
    {
        "col0": "Geoje Station",
        "col1": "2",
        "col2": "Geoje-dong,Yeonje District,Busan",
        "col3": "306"
    },
    {
        "col0": "Gaya Station",
        "col1": "2",
        "col2": "Gaya-dong,Busanjin District,Busan",
        "col3": "221"
    },
    {
        "col0": "Gapcheon Station",
        "col1": "2",
        "col2": "Wolpyeong-dong,Seo District,Daejeon",
        "col3": "115"
    },
    {
        "col0": "Gangseo-gu Office Station",
        "col1": "2",
        "col2": "Daejeo-dong,Gangseo District,Busan",
        "col3": "315"
    },
    {
        "col0": "Gangchang Station",
        "col1": "2",
        "col2": "Hosan-dong,Dalseo District,Daegu",
        "col3": "219"
    },
    {
        "col0": "Gamsam Station",
        "col1": "2",
        "col2": "Gamsam-dong,Dalseo District,Daegu",
        "col3": "225"
    },
    {
        "col0": "Gamjeon Station",
        "col1": "2",
        "col2": "Gamjeon-dong,Sasang District,Busan",
        "col3": "226"
    },
    {
        "col0": "Galma Station",
        "col1": "2",
        "col2": "Galma-dong,Seo District,Daejeon",
        "col3": "113"
    },
    {
        "col0": "Gaegeum Station",
        "col1": "2",
        "col2": "Gaegeum-dong,Busanjin District,Busan",
        "col3": "223"
    },
    {
        "col0": "Dusil Station",
        "col1": "2",
        "col2": "Guseo-dong,Geumjeong District,Busan",
        "col3": "131"
    },
    {
        "col0": "Duryu Station",
        "col1": "2",
        "col2": "Duryu-dong,Dalseo District,Daegu",
        "col3": "226"
    },
    {
        "col0": "Dosan Station",
        "col1": "2",
        "col2": "Dosan-dong,Gwangsan District,Gwangju",
        "col3": "118"
    },
    {
        "col0": "Dongwon Station",
        "col1": "2",
        "col2": "Geumgok-dong,Buk District,Busan",
        "col3": "237"
    },
    {
        "col0": "Dongnae Station",
        "col1": "2",
        "col2": "Oncheon-dong/Myeongnyun-dong,Dongnae District,Busan",
        "col3": "125 (Line 1)"
    },
    {
        "col0": "Dongdaesin Station",
        "col1": "2",
        "col2": "Dongdaesin-dong,Seo District,Busan",
        "col3": "108"
    },
    {
        "col0": "Dongdaegu Station",
        "col1": "2",
        "col2": "294Sinam-dong,Dong District,Daegu",
        "col3": "135"
    },
    {
        "col0": "Dongcheon Station",
        "col1": "2",
        "col2": "Dongcheon-dong,Buk District,Daegu",
        "col3": "315"
    },
    {
        "col0": "Dongbaek Station",
        "col1": "2",
        "col2": "U-dong,Haeundae District,Busan",
        "col3": "204"
    },
    {
        "col0": "Dong-eui University Station",
        "col1": "2",
        "col2": "Gaya-dong,Busanjin District,Busan",
        "col3": "222"
    },
    {
        "col0": "Dong-Pusan College Station",
        "col1": "2",
        "col2": "Bansong-dong,Haeundae District,Busan",
        "col3": "412"
    },
    {
        "col0": "Dolgogae Station",
        "col1": "2",
        "col2": "Wolsan-dong,Seo District,Gwangju",
        "col3": "108"
    },
    {
        "col0": "Deunggu Station",
        "col1": "2",
        "col2": "Daejeo-dong,Gangseo District,Busan",
        "col3": "6"
    },
    {
        "col0": "Deokpo Station",
        "col1": "2",
        "col2": "Deokpo-dong,Sasang District,Busan",
        "col3": "228"
    },
    {
        "col0": "Deokdu Station",
        "col1": "2",
        "col2": "Daejeo-dong,Gangseo District,Busan",
        "col3": "5"
    },
    {
        "col0": "Dasa Station",
        "col1": "2",
        "col2": "Maegok-ri,Dasa-eup,Dalseong,Daegu",
        "col3": "217"
    },
    {
        "col0": "Dangni Station",
        "col1": "2",
        "col2": "Dangni-dong,Saha District,Busan",
        "col3": "103"
    },
    {
        "col0": "Damti Station",
        "col1": "2",
        "col2": "Manchon-dong,Suseong District,Daegu",
        "col3": "236"
    },
    {
        "col0": "Dalseong Park Station",
        "col1": "2",
        "col2": "Soochang-dong,Jung District,Daegu",
        "col3": "327"
    },
    {
        "col0": "Daeyeon Station",
        "col1": "2",
        "col2": "Daeyeon-dong,Nam District,Busan",
        "col3": "213"
    },
    {
        "col0": "Daeti Station",
        "col1": "2",
        "col2": "Goejeong-dong,Saha District,Busan",
        "col3": "106"
    },
    {
        "col0": "Daesil Station",
        "col1": "2",
        "col2": "Jukgok-ri,Dasa-eup,Dalseong County,Daegu",
        "col3": "218"
    },
    {
        "col0": "Daesa Station",
        "col1": "2",
        "col2": "Gangdong-dong,Gangseo District,Busan",
        "col3": "9"
    },
    {
        "col0": "Daemyeong Station",
        "col1": "2",
        "col2": "Daemyeong-dong,Nam District,Daegu",
        "col3": "124"
    },
    {
        "col0": "Daejeon Station",
        "col1": "2",
        "col2": "Jeong-dong,Dong District,Daejeon",
        "col3": "104"
    },
    {
        "col0": "Daejeo Station",
        "col1": "2",
        "col2": "Daejeo-dong,Gangseo District,Busan",
        "col3": "317"
    },
    {
        "col0": "Daegu Station",
        "col1": "2",
        "col2": "Chilseong-dong,Buk District,Daegu",
        "col3": "132"
    },
    {
        "col0": "Daegu Grand Park Station",
        "col1": "2",
        "col2": "Yeonho-dong,Suseong District,Daegu",
        "col3": "238"
    },
    {
        "col0": "Daegu Bank Station",
        "col1": "2",
        "col2": "Suseong-dong,Suseong District,Daegu",
        "col3": "232"
    },
    {
        "col0": "Daegok Station",
        "col1": "2",
        "col2": "Daegok-dong,Dalseo District,Daegu",
        "col3": "117"
    },
    {
        "col0": "Daebonggyo Station",
        "col1": "2",
        "col2": "Daebong-dong,Seo District,Daegu",
        "col3": "333"
    },
    {
        "col0": "Dae-dong Station",
        "col1": "2",
        "col2": "Dae-dong,Dong District,Daejeon",
        "col3": "103"
    },
    {
        "col0": "Culture Complex Station",
        "col1": "2",
        "col2": "Gwangsan-dong,Dong District,Gwangju",
        "col3": "104"
    },
    {
        "col0": "City Hall Station",
        "col1": "2",
        "col2": "Dunsan-dong,Seo District,Daejeon",
        "col3": "111"
    },
    {
        "col0": "City Hall Station",
        "col1": "2",
        "col2": "Yeonsan-dong,Yeonje District,Busan",
        "col3": "122"
    },
    {
        "col0": "Chungnyeolsa Station",
        "col1": "2",
        "col2": "Allak-dong,Dongnae District,Busan",
        "col3": "405"
    },
    {
        "col0": "Choryang Station",
        "col1": "2",
        "col2": "Choryang-dong,Dong District,Busan",
        "col3": "114"
    },
    {
        "col0": "Chilseong Market Station",
        "col1": "2",
        "col2": "Chilseong-dong,Buk District,Daegu",
        "col3": "133"
    },
    {
        "col0": "Chilgok Kyungpook National University Medical Center Station",
        "col1": "2",
        "col2": "Gugu-dong,Buk District,Daegu",
        "col3": "312"
    }
]