[
    {
        "col0": "Yellow-legged weaver",
        "col1": "Ploceidae",
        "col2": "VU",
        "col3": "IUCN3.1"
    },
    {
        "col0": "Yellow-legged tinamou",
        "col1": "Tinamidae",
        "col2": "NT",
        "col3": "IUCN3.1"
    },
    {
        "col0": "Yellow-legged thrush",
        "col1": "Turdidae",
        "col2": "LC",
        "col3": "IUCN3.1"
    },
    {
        "col0": "Yellow-legged pigeon",
        "col1": "Columbidae",
        "col2": "VU",
        "col3": "IUCN3.1"
    },
    {
        "col0": "Yellow-legged mushroomtongue salamander",
        "col1": "Plethodontidae",
        "col2": "EN",
        "col3": "IUCN3.1"
    },
    {
        "col0": "Yellow-legged gull",
        "col1": "Laridae",
        "col2": "LC",
        "col3": "IUCN3.1"
    },
    {
        "col0": "Yellow-legged flyrobin",
        "col1": "Petroicidae",
        "col2": "LC",
        "col3": "IUCN3.1"
    },
    {
        "col0": "Yellow-legged buttonquail",
        "col1": "Turnicidae",
        "col2": "LC",
        "col3": "IUCN3.1"
    },
    {
        "col0": "Yellow-knobbed curassow",
        "col1": "Cracidae",
        "col2": "NT",
        "col3": "IUCN3.1"
    },
    {
        "col0": "Yellow-hooded blackbird",
        "col1": "Icteridae",
        "col2": "LC",
        "col3": "IUCN3.1"
    },
    {
        "col0": "Yellow-headed water monitor",
        "col1": "Varanidae",
        "col2": "LC",
        "col3": "iucn3.1"
    },
    {
        "col0": "Yellow-headed warbler",
        "col1": "Incertae sedis",
        "col2": "LC",
        "col3": "IUCN3.1"
    },
    {
        "col0": "Yellow-headed temple turtle",
        "col1": "Geoemydidae",
        "col2": "EN",
        "col3": "IUCN2.3"
    },
    {
        "col0": "Yellow-headed manakin",
        "col1": "Pipridae",
        "col2": "VU",
        "col3": "IUCN3.1"
    },
    {
        "col0": "Yellow-headed goby",
        "col1": "Gobiidae",
        "col2": "LC",
        "col3": "IUCN3.1"
    },
    {
        "col0": "Yellow-headed day gecko",
        "col1": "Gekkonidae",
        "col2": "EN",
        "col3": "IUCN3.1"
    },
    {
        "col0": "Yellow-headed caracara",
        "col1": "Falconidae",
        "col2": "LC",
        "col3": "IUCN3.1"
    },
    {
        "col0": "Yellow-headed brush finch",
        "col1": "Emberizidae",
        "col2": "EN",
        "col3": "IUCN3.1"
    },
    {
        "col0": "Yellow-headed box turtle",
        "col1": "Geoemydidae",
        "col2": "CR",
        "col3": "iucn2.3"
    },
    {
        "col0": "Yellow-headed blackbird",
        "col1": "Icteridae",
        "col2": "LC",
        "col3": "IUCN3.1"
    },
    {
        "col0": "Yellow-headed amazon",
        "col1": "Neotropical parrot",
        "col2": "EN",
        "col3": "IUCN3.1"
    },
    {
        "col0": "Yellow-haired hill rat",
        "col1": "Muridae",
        "col2": "LR/lc",
        "col3": "IUCN2.3"
    },
    {
        "col0": "Yellow-green vireo",
        "col1": "Vireonidae",
        "col2": "LC",
        "col3": "IUCN3.1"
    },
    {
        "col0": "Yellow-green grosbeak",
        "col1": "Cardinalidae",
        "col2": "LC",
        "col3": "IUCN3.1"
    },
    {
        "col0": "Yellow-green finch",
        "col1": "Emberizidae",
        "col2": "VU",
        "col3": "IUCN3.1"
    },
    {
        "col0": "Yellow-gaped honeyeater",
        "col1": "Meliphagidae",
        "col2": "LC",
        "col3": "IUCN3.1"
    },
    {
        "col0": "Yellow-fronted woodpecker",
        "col1": "Picidae",
        "col2": "LC",
        "col3": "IUCN3.1"
    },
    {
        "col0": "Yellow-fronted tinkerbird",
        "col1": "Lybiidae",
        "col2": "LC",
        "col3": "IUCN3.1"
    },
    {
        "col0": "Yellow-fronted parrot",
        "col1": "Psittacinae",
        "col2": "LC",
        "col3": "IUCN3.1"
    },
    {
        "col0": "Yellow-fronted canary",
        "col1": "Carduelinae",
        "col2": "LC",
        "col3": "IUCN3.1"
    },
    {
        "col0": "Yellow-fronted barbet",
        "col1": "Megalaimidae",
        "col2": "LC",
        "col3": "IUCN3.1"
    },
    {
        "col0": "Yellow-footed tortoise",
        "col1": "Testudinidae",
        "col2": "VU",
        "col3": "IUCN2.3"
    },
    {
        "col0": "Yellow-footed rock-wallaby",
        "col1": "Macropodidae",
        "col2": "NT",
        "col3": "iucn3.1"
    },
    {
        "col0": "Yellow-footed honeyguide",
        "col1": "Indicatoridae",
        "col2": "DD",
        "col3": "IUCN3.1"
    },
    {
        "col0": "Yellow-footed gull",
        "col1": "Laridae",
        "col2": "LC",
        "col3": "IUCN3.1"
    },
    {
        "col0": "Yellow-footed green pigeon",
        "col1": "Columbidae",
        "col2": "LC",
        "col3": "IUCN3.1"
    },
    {
        "col0": "Yellow-footed flycatcher",
        "col1": "Muscicapidae",
        "col2": "LC",
        "col3": "IUCN3.1"
    },
    {
        "col0": "Yellow-footed antechinus",
        "col1": "Dasyuridae",
        "col2": "LC",
        "col3": "iucn3.1"
    },
    {
        "col0": "Yellow-fin perchlet",
        "col1": "Ambassidae",
        "col2": "LR/lc",
        "col3": "IUCN2.3"
    },
    {
        "col0": "Yellow-faced siskin",
        "col1": "Fringillidae",
        "col2": "VU",
        "col3": "IUCN3.1"
    },
    {
        "col0": "Yellow-faced pocket gopher",
        "col1": "Geomyidae",
        "col2": "LC",
        "col3": "IUCN3.1"
    },
    {
        "col0": "Yellow-faced parrotlet",
        "col1": "Neotropical parrot",
        "col2": "VU",
        "col3": "IUCN3.1"
    },
    {
        "col0": "Yellow-faced parrot",
        "col1": "Neotropical parrot",
        "col2": "NT",
        "col3": "IUCN3.1"
    },
    {
        "col0": "Yellow-faced myna",
        "col1": "Sturnidae",
        "col2": "LC",
        "col3": "IUCN3.1"
    },
    {
        "col0": "Yellow-faced horseshoe bat",
        "col1": "Rhinolophidae",
        "col2": "LR/nt",
        "col3": "IUCN2.3"
    },
    {
        "col0": "Yellow-faced honeyeater",
        "col1": "Meliphagidae",
        "col2": "LC",
        "col3": "IUCN3.1"
    },
    {
        "col0": "Yellow-faced grassquit",
        "col1": "Thraupidae",
        "col2": "LC",
        "col3": "IUCN3.1"
    },
    {
        "col0": "Yellow-faced flameback",
        "col1": "Picidae",
        "col2": "EN",
        "col3": "IUCN3.1"
    },
    {
        "col0": "Yellow-eyed starling",
        "col1": "Sturnidae",
        "col2": "NT",
        "col3": "IUCN3.1"
    },
    {
        "col0": "Yellow-eyed pigeon",
        "col1": "Columbidae",
        "col2": "VU",
        "col3": "IUCN3.1"
    },
    {
        "col0": "Yellow-eyed penguin",
        "col1": "Spheniscidae",
        "col2": "EN",
        "col3": "IUCN3.1"
    },
    {
        "col0": "Yellow-eyed junco",
        "col1": "Emberizidae",
        "col2": "LC",
        "col3": "IUCN3.1"
    },
    {
        "col0": "Yellow-eyed black flycatcher",
        "col1": "Muscicapidae",
        "col2": "LC",
        "col3": "IUCN3.1"
    },
    {
        "col0": "Yellow-eyed babbler",
        "col1": "Sylviidae",
        "col2": "LC",
        "col3": "IUCN3.1"
    },
    {
        "col0": "Yellow-edged lyretail",
        "col1": "Serranidae",
        "col2": "LC",
        "col3": "IUCN3.1"
    },
    {
        "col0": "Yellow-eared woodpecker",
        "col1": "Picidae",
        "col2": "LC",
        "col3": "IUCN3.1"
    },
    {
        "col0": "Yellow-eared toucanet",
        "col1": "Ramphastidae",
        "col2": "LC",
        "col3": "IUCN3.1"
    },
    {
        "col0": "Yellow-eared spiderhunter",
        "col1": "Nectariniidae",
        "col2": "LC",
        "col3": "IUCN3.1"
    },
    {
        "col0": "Yellow-eared parrot",
        "col1": "True parrots",
        "col2": "EN",
        "col3": "IUCN3.1"
    },
    {
        "col0": "Yellow-eared bulbul",
        "col1": "Bulbul",
        "col2": "NT",
        "col3": "IUCN3.1"
    },
    {
        "col0": "Yellow-eared barbet",
        "col1": "Megalaimidae",
        "col2": "LC",
        "col3": "IUCN3.1"
    },
    {
        "col0": "Yellow-crowned woodpecker",
        "col1": "Picidae",
        "col2": "LC",
        "col3": "IUCN3.1"
    },
    {
        "col0": "Yellow-crowned whitestart",
        "col1": "Parulidae",
        "col2": "LC",
        "col3": "IUCN3.1"
    },
    {
        "col0": "Yellow-crowned tyrannulet",
        "col1": "Tyrannidae",
        "col2": "LC",
        "col3": "IUCN3.1"
    },
    {
        "col0": "Yellow-crowned parakeet",
        "col1": "Platycercinae",
        "col2": "NT",
        "col3": "IUCN3.1"
    },
    {
        "col0": "Yellow-crowned night heron",
        "col1": "Ardeidae",
        "col2": "LC",
        "col3": "IUCN3.1"
    },
    {
        "col0": "Yellow-crowned gonolek",
        "col1": "Malaconotidae",
        "col2": "LC",
        "col3": "IUCN3.1"
    },
    {
        "col0": "Yellow-crowned euphonia",
        "col1": "Fringillidae",
        "col2": "LC",
        "col3": "IUCN3.1"
    },
    {
        "col0": "Yellow-crowned elaenia",
        "col1": "Tyrannidae",
        "col2": "LC",
        "col3": "IUCN3.1"
    },
    {
        "col0": "Yellow-crowned canary",
        "col1": "Fringillidae",
        "col2": "LC",
        "col3": "IUCN3.1"
    },
    {
        "col0": "Yellow-crowned butterflyfish",
        "col1": "Chaetodontidae",
        "col2": "VU",
        "col3": "IUCN2.3"
    },
    {
        "col0": "Yellow-crowned brush-tailed rat",
        "col1": "Echimyidae",
        "col2": "LC",
        "col3": "iucn3.1"
    },
    {
        "col0": "Yellow-crowned bishop",
        "col1": "Ploceidae",
        "col2": "LC",
        "col3": "IUCN3.1"
    },
    {
        "col0": "Yellow-crowned barbet",
        "col1": "Megalaimidae",
        "col2": "NT",
        "col3": "IUCN3.1"
    },
    {
        "col0": "Yellow-crowned amazon",
        "col1": "Neotropical parrot",
        "col2": "LC",
        "col3": "IUCN3.1"
    },
    {
        "col0": "Yellow-crested woodpecker",
        "col1": "Picidae",
        "col2": "LC",
        "col3": "IUCN3.1"
    },
    {
        "col0": "Yellow-crested tanager",
        "col1": "Thraupidae",
        "col2": "LC",
        "col3": "IUCN3.1"
    },
    {
        "col0": "Yellow-crested manakin",
        "col1": "Pipridae",
        "col2": "LC",
        "col3": "IUCN3.1"
    },
    {
        "col0": "Yellow-crested helmetshrike",
        "col1": "Prionopidae",
        "col2": "VU",
        "col3": "IUCN3.1"
    },
    {
        "col0": "Yellow-crested cockatoo",
        "col1": "Cacatuinae",
        "col2": "CR",
        "col3": "IUCN3.1"
    },
    {
        "col0": "Yellow-collared lovebird",
        "col1": "Psittaculidae",
        "col2": "LC",
        "col3": "IUCN3.1"
    },
    {
        "col0": "Yellow-collared chlorophonia",
        "col1": "Euphoniinae",
        "col2": "LC",
        "col3": "IUCN3.1"
    },
    {
        "col0": "Yellow-chinned spinetail",
        "col1": "Furnariidae",
        "col2": "LC",
        "col3": "IUCN3.1"
    },
    {
        "col0": "Yellow-chevroned parakeet",
        "col1": "Neotropical parrot",
        "col2": "LC",
        "col3": "IUCN3.1"
    },
    {
        "col0": "Yellow-cheeked tit",
        "col1": "Paridae",
        "col2": "LC",
        "col3": "IUCN3.1"
    },
    {
        "col0": "Yellow-cheeked gibbon",
        "col1": "Hominoidea",
        "col2": "EN",
        "col3": "iucn3.1"
    },
    {
        "col0": "Yellow-cheeked chipmunk",
        "col1": "Sciuridae",
        "col2": "LC",
        "col3": "iucn3.1"
    },
    {
        "col0": "Yellow-cheeked becard",
        "col1": "Tityridae",
        "col2": "NR",
        "col3": "IUCN3.1"
    },
    {
        "col0": "Yellow-casqued hornbill",
        "col1": "Bucerotidae",
        "col2": "VU",
        "col3": "IUCN3.1"
    },
    {
        "col0": "Yellow-capped weaver",
        "col1": "Ploceidae",
        "col2": "LC",
        "col3": "IUCN3.1"
    },
    {
        "col0": "Yellow-capped pygmy parrot",
        "col1": "Psittaculinae",
        "col2": "LC",
        "col3": "IUCN3.1"
    },
    {
        "col0": "Yellow-brown wrasse",
        "col1": "Labridae",
        "col2": "LC",
        "col3": "iucn3.1"
    },
    {
        "col0": "Yellow-browed woodpecker",
        "col1": "Picidae",
        "col2": "NT",
        "col3": "IUCN3.1"
    },
    {
        "col0": "Yellow-browed warbler",
        "col1": "Phylloscopidae",
        "col2": "LC",
        "col3": "IUCN3.1"
    },
    {
        "col0": "Yellow-browed tyrant",
        "col1": "Tyrannidae",
        "col2": "LC",
        "col3": "IUCN3.1"
    },
    {
        "col0": "Yellow-browed toucanet",
        "col1": "Ramphastidae",
        "col2": "EN",
        "col3": "IUCN3.1"
    },
    {
        "col0": "Yellow-browed tody-flycatcher",
        "col1": "Tyrannidae",
        "col2": "LC",
        "col3": "IUCN3.1"
    },
    {
        "col0": "Yellow-browed tit",
        "col1": "Tit",
        "col2": "LC",
        "col3": "IUCN3.1"
    },
    {
        "col0": "Yellow-browed sparrow",
        "col1": "Emberizidae",
        "col2": "LC",
        "col3": "IUCN3.1"
    },
    {
        "col0": "Yellow-browed shrike-vireo",
        "col1": "Vireonidae",
        "col2": "LC",
        "col3": "IUCN3.1"
    },
    {
        "col0": "Yellow-browed seedeater",
        "col1": "Carduelinae",
        "col2": "NR",
        "col3": "IUCN3.1"
    },
    {
        "col0": "Yellow-browed melidectes",
        "col1": "Meliphagidae",
        "col2": "LC",
        "col3": "IUCN3.1"
    },
    {
        "col0": "Yellow-browed camaroptera",
        "col1": "Cisticolidae",
        "col2": "LC",
        "col3": "IUCN3.1"
    },
    {
        "col0": "Yellow-browed bunting",
        "col1": "Emberizidae",
        "col2": "LC",
        "col3": "IUCN3.1"
    },
    {
        "col0": "Yellow-browed bulbul",
        "col1": "Bulbul",
        "col2": "LC",
        "col3": "IUCN3.1"
    },
    {
        "col0": "Yellow-browed antbird",
        "col1": "Thamnophilidae",
        "col2": "LC",
        "col3": "IUCN3.1"
    },
    {
        "col0": "Yellow-bridled finch",
        "col1": "Thraupidae",
        "col2": "LC",
        "col3": "IUCN3.1"
    },
    {
        "col0": "Yellow-breasted wrasse",
        "col1": "Labridae",
        "col2": "LC",
        "col3": "iucn3.1"
    },
    {
        "col0": "Yellow-breasted warbling antbird",
        "col1": "Thamnophilidae",
        "col2": "LC",
        "col3": "IUCN3.1"
    },
    {
        "col0": "Yellow-breasted warbler",
        "col1": "Phylloscopidae",
        "col2": "LC",
        "col3": "IUCN3.1"
    },
    {
        "col0": "Yellow-breasted tit",
        "col1": "Paridae",
        "col2": "NR",
        "col3": "IUCN3.1"
    },
    {
        "col0": "Yellow-breasted tailorbird",
        "col1": "Cisticolidae",
        "col2": "NT",
        "col3": "IUCN3.1"
    },
    {
        "col0": "Yellow-breasted satinbird",
        "col1": "Cnemophilidae",
        "col2": "NT",
        "col3": "IUCN3.1"
    },
    {
        "col0": "Yellow-breasted racket-tail",
        "col1": "Psittaculidae",
        "col2": "NT",
        "col3": "IUCN3.1"
    },
    {
        "col0": "Yellow-breasted pipit",
        "col1": "Motacillidae",
        "col2": "VU",
        "col3": "IUCN3.1"
    },
    {
        "col0": "Yellow-breasted greenfinch",
        "col1": "Fringillidae",
        "col2": "LC",
        "col3": "IUCN3.1"
    },
    {
        "col0": "Yellow-breasted fruit dove",
        "col1": "Columbidae",
        "col2": "LC",
        "col3": "IUCN3.1"
    },
    {
        "col0": "Yellow-breasted flowerpecker",
        "col1": "Dicaeidae",
        "col2": "LC",
        "col3": "IUCN3.1"
    },
    {
        "col0": "Yellow-breasted flatbill",
        "col1": "Tyrant flycatcher",
        "col2": "LC",
        "col3": "IUCN3.1"
    },
    {
        "col0": "Yellow-breasted crake",
        "col1": "Rallidae",
        "col2": "LC",
        "col3": "IUCN3.1"
    },
    {
        "col0": "Yellow-breasted chat",
        "col1": "Incertae sedis",
        "col2": "LC",
        "col3": "IUCN3.1"
    },
    {
        "col0": "Yellow-breasted bunting",
        "col1": "Emberizidae",
        "col2": "EN",
        "col3": "IUCN3.1"
    },
    {
        "col0": "Yellow-breasted brush finch",
        "col1": "Emberizidae",
        "col2": "LC",
        "col3": "IUCN3.1"
    },
    {
        "col0": "Yellow-breasted bowerbird",
        "col1": "Ptilonorhynchidae",
        "col2": "LC",
        "col3": "IUCN3.1"
    },
    {
        "col0": "Yellow-breasted boubou",
        "col1": "Malaconotidae",
        "col2": "LC",
        "col3": "IUCN3.1"
    },
    {
        "col0": "Yellow-breasted boatbill",
        "col1": "Monarchidae",
        "col2": "LC",
        "col3": "IUCN3.1"
    },
    {
        "col0": "Yellow-breasted barbet",
        "col1": "Lybiidae",
        "col2": "LC",
        "col3": "IUCN3.1"
    },
    {
        "col0": "Yellow-breasted apalis",
        "col1": "Cisticolidae",
        "col2": "LC",
        "col3": "IUCN3.1"
    },
    {
        "col0": "Yellow-breasted antwren",
        "col1": "Thamnophilidae",
        "col2": "VU",
        "col3": "IUCN3.1"
    },
    {
        "col0": "Yellow-breasted antpitta",
        "col1": "Grallariidae",
        "col2": "LC",
        "col3": "IUCN3.1"
    },
    {
        "col0": "Yellow-blotched map turtle",
        "col1": "Deirochelyinae",
        "col2": "VU",
        "col3": "IUCN3.1"
    },
    {
        "col0": "Yellow-billed turaco",
        "col1": "Musophagidae",
        "col2": "LC",
        "col3": "IUCN3.1"
    },
    {
        "col0": "Yellow-billed tit-tyrant",
        "col1": "Tyrannidae",
        "col2": "LC",
        "col3": "IUCN3.1"
    },
    {
        "col0": "Yellow-billed tern",
        "col1": "Sternidae",
        "col2": "LC",
        "col3": "IUCN3.1"
    },
    {
        "col0": "Yellow-billed teal",
        "col1": "Anatidae",
        "col2": "LC",
        "col3": "IUCN3.1"
    },
    {
        "col0": "Yellow-billed stork",
        "col1": "Ciconiidae",
        "col2": "LC",
        "col3": "IUCN3.1"
    },
    {
        "col0": "Yellow-billed spoonbill",
        "col1": "Threskiornithidae",
        "col2": "LC",
        "col3": "IUCN3.1"
    },
    {
        "col0": "Yellow-billed shrike",
        "col1": "Laniidae",
        "col2": "LC",
        "col3": "IUCN3.1"
    }
]