[
    {
        "col0": "Underworld",
        "col1": "M. Beltrami",
        "col2": "Len Wiseman",
        "col3": "24480"
    },
    {
        "col0": "The Naked Gun",
        "col1": "I. Newborn",
        "col2": "Police Squad!",
        "col3": "15180"
    },
    {
        "col0": "Shogun",
        "col1": "M. Jarre",
        "col2": "Shogun",
        "col3": "7500"
    },
    {
        "col0": "Pirates of the Caribbean",
        "col1": "E. Whitacre",
        "col2": "Walt Disney",
        "col3": "36000"
    },
    {
        "col0": "Heidi",
        "col1": "L. Holdridge",
        "col2": "Heidi",
        "col3": "11580"
    },
    {
        "col0": "Harry Potter",
        "col1": "J. Williams",
        "col2": "Harry Potter",
        "col3": "70740"
    },
    {
        "col0": "Die Nibelungen",
        "col1": "G. Huppertz",
        "col2": "Nibelungenlied",
        "col3": "8580"
    }
]