[
    {
        "col0": "SM UC-64",
        "col1": "1916-01-12",
        "col2": "3",
        "col3": "1917-02-22"
    },
    {
        "col0": "SM UC-63",
        "col1": "1916-01-12",
        "col2": "3",
        "col3": "1917-01-30"
    },
    {
        "col0": "SM UC-62",
        "col1": "1916-01-12",
        "col2": "3",
        "col3": "1917-01-08"
    },
    {
        "col0": "SM UC-61",
        "col1": "1916-01-12",
        "col2": "3",
        "col3": "1916-12-13"
    },
    {
        "col0": "SM UC-60",
        "col1": "1916-01-12",
        "col2": "3",
        "col3": "1917-06-25"
    },
    {
        "col0": "SM UC-59",
        "col1": "1916-01-12",
        "col2": "3",
        "col3": "1917-05-12"
    },
    {
        "col0": "SM UC-58",
        "col1": "1916-01-12",
        "col2": "3",
        "col3": "1917-03-12"
    },
    {
        "col0": "SM UC-57",
        "col1": "1916-01-12",
        "col2": "3",
        "col3": "1917-01-22"
    },
    {
        "col0": "SM UC-56",
        "col1": "1916-01-12",
        "col2": "3",
        "col3": "1916-12-18"
    },
    {
        "col0": "SM UC-55",
        "col1": "1916-01-12",
        "col2": "3",
        "col3": "1916-11-15"
    },
    {
        "col0": "SM UC-54",
        "col1": "1916-01-12",
        "col2": "3",
        "col3": "1917-05-10"
    },
    {
        "col0": "SM UC-53",
        "col1": "1916-01-12",
        "col2": "3",
        "col3": "1917-04-05"
    },
    {
        "col0": "SM UC-52",
        "col1": "1916-01-12",
        "col2": "3",
        "col3": "1917-03-15"
    },
    {
        "col0": "SM UC-51",
        "col1": "1916-01-12",
        "col2": "3",
        "col3": "1917-01-06"
    },
    {
        "col0": "SM UC-50",
        "col1": "1916-01-12",
        "col2": "3",
        "col3": "1916-12-21"
    },
    {
        "col0": "SM UC-49",
        "col1": "1916-01-12",
        "col2": "3",
        "col3": "1916-12-02"
    },
    {
        "col0": "SM UC-48",
        "col1": "1915-11-20",
        "col2": "3",
        "col3": "1916-11-06"
    },
    {
        "col0": "SM UC-47",
        "col1": "1915-11-20",
        "col2": "3",
        "col3": "1916-10-13"
    },
    {
        "col0": "SM UC-46",
        "col1": "1915-11-20",
        "col2": "3",
        "col3": "1916-09-15"
    },
    {
        "col0": "SM UC-45",
        "col1": "1915-11-20",
        "col2": "3",
        "col3": "1916-11-18"
    },
    {
        "col0": "SM UC-44",
        "col1": "1915-11-20",
        "col2": "3",
        "col3": "1916-11-04"
    },
    {
        "col0": "SM UC-43",
        "col1": "1915-11-20",
        "col2": "3",
        "col3": "1916-10-25"
    },
    {
        "col0": "SM UC-42",
        "col1": "1915-11-20",
        "col2": "3",
        "col3": "1916-11-18"
    },
    {
        "col0": "SM UC-41",
        "col1": "1915-11-20",
        "col2": "3",
        "col3": "1916-10-11"
    },
    {
        "col0": "SM UC-40",
        "col1": "1915-11-20",
        "col2": "3",
        "col3": "1916-10-01"
    },
    {
        "col0": "SM UC-39",
        "col1": "1915-11-20",
        "col2": "3",
        "col3": "1916-10-31"
    },
    {
        "col0": "SM UC-38",
        "col1": "1915-11-20",
        "col2": "3",
        "col3": "1916-10-26"
    },
    {
        "col0": "SM UC-37",
        "col1": "1915-11-20",
        "col2": "3",
        "col3": "1916-10-17"
    },
    {
        "col0": "SM UC-36",
        "col1": "1915-11-20",
        "col2": "3",
        "col3": "1916-10-10"
    },
    {
        "col0": "SM UC-35",
        "col1": "1915-11-20",
        "col2": "3",
        "col3": "1916-10-02"
    },
    {
        "col0": "SM UC-33",
        "col1": "1915-08-29",
        "col2": "3",
        "col3": "1916-09-25"
    },
    {
        "col0": "SM UC-32",
        "col1": "1915-08-29",
        "col2": "3",
        "col3": "1916-09-13"
    },
    {
        "col0": "SM UC-31",
        "col1": "1915-08-29",
        "col2": "3",
        "col3": "1916-09-02"
    },
    {
        "col0": "SM UC-30",
        "col1": "1915-08-29",
        "col2": "3",
        "col3": "1916-08-22"
    },
    {
        "col0": "SM UC-29",
        "col1": "1915-08-29",
        "col2": "3",
        "col3": "1916-08-15"
    },
    {
        "col0": "SM UC-28",
        "col1": "1915-08-29",
        "col2": "3",
        "col3": "1916-08-06"
    },
    {
        "col0": "SM UC-27",
        "col1": "1915-08-29",
        "col2": "3",
        "col3": "1916-07-25"
    },
    {
        "col0": "SM UC-26",
        "col1": "1915-08-29",
        "col2": "3",
        "col3": "1916-07-18"
    },
    {
        "col0": "SM UC-25",
        "col1": "1915-08-29",
        "col2": "3",
        "col3": "1916-06-28"
    },
    {
        "col0": "SM UC-24",
        "col1": "1915-08-26",
        "col2": "3",
        "col3": "1916-08-15"
    },
    {
        "col0": "SM UC-23",
        "col1": "1915-08-26",
        "col2": "3",
        "col3": "1916-07-17"
    },
    {
        "col0": "SM UC-22",
        "col1": "1915-08-26",
        "col2": "3",
        "col3": "1916-06-30"
    },
    {
        "col0": "SM UC-21",
        "col1": "1915-08-26",
        "col2": "3",
        "col3": "1916-09-12"
    },
    {
        "col0": "SM UC-20",
        "col1": "1915-08-26",
        "col2": "3",
        "col3": "1916-09-07"
    },
    {
        "col0": "SM UC-19",
        "col1": "1915-08-26",
        "col2": "3",
        "col3": "1916-08-21"
    },
    {
        "col0": "SM UC-18",
        "col1": "1915-08-26",
        "col2": "3",
        "col3": "1916-08-15"
    },
    {
        "col0": "SM UC-17",
        "col1": "1915-08-29",
        "col2": "3",
        "col3": "1916-07-21"
    },
    {
        "col0": "SM UC-16",
        "col1": "1915-08-29",
        "col2": "3",
        "col3": "1916-06-18"
    },
    {
        "col0": "SM UC-15",
        "col1": "1914-11-23",
        "col2": "3",
        "col3": "1915-06-28"
    },
    {
        "col0": "SM UC-14",
        "col1": "1914-11-23",
        "col2": "3",
        "col3": "1915-06-05"
    },
    {
        "col0": "SM UC-13",
        "col1": "1914-11-23",
        "col2": "3",
        "col3": "1915-05-15"
    },
    {
        "col0": "SM UC-12",
        "col1": "1914-11-23",
        "col2": "3",
        "col3": "1915-05-02"
    },
    {
        "col0": "SM UC-11",
        "col1": "1914-11-23",
        "col2": "3",
        "col3": "1915-04-23"
    },
    {
        "col0": "SM UC-105",
        "col1": "1916-01-12",
        "col2": "5",
        "col3": "1918-10-28"
    },
    {
        "col0": "SM UC-104",
        "col1": "1916-01-12",
        "col2": "5",
        "col3": "1918-10-18"
    },
    {
        "col0": "SM UC-103",
        "col1": "1916-01-12",
        "col2": "5",
        "col3": "1918-10-21"
    },
    {
        "col0": "SM UC-102",
        "col1": "1916-01-12",
        "col2": "5",
        "col3": "1918-10-14"
    },
    {
        "col0": "SM UC-101",
        "col1": "1916-01-12",
        "col2": "5",
        "col3": "1918-10-08"
    }
]