[
    {
        "col0": "John Sutton Hall",
        "col1": "Indiana University of Pennsylvania",
        "col2": "1873",
        "col3": "13238"
    },
    {
        "col0": "John Rider House",
        "col1": "Danbury Museum and Historical Society",
        "col2": "1785",
        "col3": "5260"
    },
    {
        "col0": "John Muir National Historic Site",
        "col1": "National Park Service",
        "col2": "1849",
        "col3": "1396165"
    },
    {
        "col0": "John Minor Wisdom United States Court of Appeals Building",
        "col1": "General Services Administration",
        "col2": "1909",
        "col3": "6070"
    },
    {
        "col0": "John Fiechter House",
        "col1": "United States Fish and Wildlife Service",
        "col2": "1855",
        "col3": "1052"
    },
    {
        "col0": "John Deere House and Shop",
        "col1": "John Deere",
        "col2": "1836",
        "col3": "16187"
    },
    {
        "col0": "John Day Compound, Supervisor's Warehouse",
        "col1": "United States Forest Service",
        "col2": "1936",
        "col3": "35490"
    },
    {
        "col0": "John Brown House",
        "col1": "Rhode Island Historical Society",
        "col2": "1786",
        "col3": "8093"
    },
    {
        "col0": "Jersey City Reservoir No. 3",
        "col1": "Jersey City, New Jersey",
        "col2": "1870",
        "col3": "55846"
    },
    {
        "col0": "Jeremiah Platt House",
        "col1": "501",
        "col2": "1871",
        "col3": "1011"
    },
    {
        "col0": "Jefferson Park",
        "col1": "Chicago Park District",
        "col2": "1921",
        "col3": "29137"
    },
    {
        "col0": "Jefferson Memorial",
        "col1": "National Park Service",
        "col2": "1943",
        "col3": "74299"
    },
    {
        "col0": "Jefferson City National Cemetery",
        "col1": "United States Department of Veterans Affairs",
        "col2": "1867",
        "col3": "8093"
    },
    {
        "col0": "James Mangum House",
        "col1": "Federal architecture",
        "col2": "1838",
        "col3": "20234"
    },
    {
        "col0": "James A. Walsh United States Courthouse",
        "col1": "General Services Administration",
        "col2": "1928",
        "col3": "2428"
    },
    {
        "col0": "James A. Redden Federal Courthouse",
        "col1": "General Services Administration",
        "col2": "1915",
        "col3": "1625"
    },
    {
        "col0": "James A. Garfield National Historic Site",
        "col1": "National Park Service",
        "col2": "1876",
        "col3": "19829"
    },
    {
        "col0": "Jacob Weinberger United States Courthouse",
        "col1": "General Services Administration",
        "col2": "1913",
        "col3": "5260"
    },
    {
        "col0": "Independence, Pitkin County, Colorado",
        "col1": "U.S. Forest Service",
        "col2": "1880",
        "col3": "161874"
    },
    {
        "col0": "Imnaha Guard Station",
        "col1": "United States Forest Service",
        "col2": "1939",
        "col3": "4046"
    },
    {
        "col0": "Imbrie Farm",
        "col1": "McMenamins",
        "col2": "1855",
        "col3": "12140"
    },
    {
        "col0": "Illinois State Police Office",
        "col1": "Livingston County, Illinois",
        "col2": "1941",
        "col3": "10359"
    },
    {
        "col0": "Huntley",
        "col1": "Fairfax County Park Authority",
        "col2": "1820",
        "col3": "64749"
    },
    {
        "col0": "Humboldt Park",
        "col1": "Chicago Park District",
        "col2": "1870",
        "col3": "837294"
    },
    {
        "col0": "Hull House",
        "col1": "University of Illinois at Chicago",
        "col2": "1889",
        "col3": "4046"
    },
    {
        "col0": "Hulihee Palace",
        "col1": "Hawaii",
        "col2": "1838",
        "col3": "4046"
    },
    {
        "col0": "Hudson County Courthouse",
        "col1": "Hudson County, New Jersey",
        "col2": "1910",
        "col3": "8093"
    },
    {
        "col0": "Huddleston Farmhouse",
        "col1": "Indiana Landmarks",
        "col2": "1838",
        "col3": "315654"
    },
    {
        "col0": "Hotel President",
        "col1": "Hilton Hotels",
        "col2": "1926",
        "col3": "8093"
    },
    {
        "col0": "Hoosac Stores 1 & 2-Hoosac Stores 3",
        "col1": "National Park Service",
        "col2": "1875",
        "col3": "8093"
    },
    {
        "col0": "Hondo River Bridge",
        "col1": "Puerto Rico Department of Transportation and Public Works",
        "col2": "1881",
        "col3": "92"
    },
    {
        "col0": "Home of Franklin D. Roosevelt National Historic Site",
        "col1": "National Park Service",
        "col2": "1800",
        "col3": "3237485"
    },
    {
        "col0": "Holy Cross Monastery",
        "col1": "Order of the Holy Cross",
        "col2": "1904",
        "col3": "105218"
    },
    {
        "col0": "Holualoa Bay",
        "col1": "Hawaii",
        "col2": "1300",
        "col3": "114930"
    },
    {
        "col0": "Hipolito F. Garcia Federal Building and United States Courthouse",
        "col1": "General Services Administration",
        "col2": "1937",
        "col3": "5665"
    },
    {
        "col0": "High Pumping Station",
        "col1": "New York City Department of Environmental Protection",
        "col2": "1901",
        "col3": "8093"
    },
    {
        "col0": "Hertford Historic District",
        "col1": "Federal architecture",
        "col2": "1825",
        "col3": "465388"
    },
    {
        "col0": "Hershberger Mountain Lookout",
        "col1": "United States Forest Service",
        "col2": "1925",
        "col3": "11331"
    },
    {
        "col0": "Henry Klumb House",
        "col1": "University of Puerto Rico",
        "col2": "1947",
        "col3": "26304"
    },
    {
        "col0": "Hargadine Cemetery",
        "col1": "Oregon",
        "col2": "1867",
        "col3": "6070"
    },
    {
        "col0": "Hanover Square, Syracuse",
        "col1": "Syracuse, New York",
        "col2": "1834",
        "col3": "441"
    },
    {
        "col0": "Hancock's Resolution",
        "col1": "Anne Arundel County, Maryland",
        "col2": "1670",
        "col3": "60702"
    },
    {
        "col0": "Gus J. Solomon United States Courthouse",
        "col1": "General Services Administration",
        "col2": "1932",
        "col3": "10869"
    },
    {
        "col0": "Grey Towers National Historic Site",
        "col1": "U.S. Forest Service",
        "col2": "1886",
        "col3": "412779"
    },
    {
        "col0": "Great Sierra Wagon Road",
        "col1": "National Park Service",
        "col2": "1882",
        "col3": "433013"
    },
    {
        "col0": "Grants Pass Supervisor's Warehouse",
        "col1": "United States Forest Service",
        "col2": "1933",
        "col3": "15378"
    },
    {
        "col0": "Granite Stake Tabernacle",
        "col1": "The Church of Jesus Christ of Latter-day Saints",
        "col2": "1930",
        "col3": "7203"
    },
    {
        "col0": "Governor's House",
        "col1": "United States Veterans Administration",
        "col2": "1869",
        "col3": "4046"
    },
    {
        "col0": "Golda Meir School",
        "col1": "Milwaukee Public Schools",
        "col2": "1889",
        "col3": "4451"
    },
    {
        "col0": "Godfrey M. Bockius House",
        "col1": "Pajaro Valley Historical Association",
        "col2": "1870",
        "col3": "4046"
    },
    {
        "col0": "Godahl Store",
        "col1": "Nelson Township, Watonwan County, Minnesota",
        "col2": "1894",
        "col3": "2023"
    },
    {
        "col0": "Glenview Mansion",
        "col1": "Hudson River Museum",
        "col2": "1876",
        "col3": "93077"
    },
    {
        "col0": "Glendale National Cemetery",
        "col1": "U.S. Department of Veterans Affairs",
        "col2": "1866",
        "col3": "26709"
    },
    {
        "col0": "Gibson County Courthouse",
        "col1": "Gibson County, Indiana",
        "col2": "1883",
        "col3": "8093"
    },
    {
        "col0": "Germantown White House",
        "col1": "National Park Service",
        "col2": "1752",
        "col3": "4046"
    },
    {
        "col0": "German Reformed Sanctity Church Parsonage",
        "col1": "Germantown",
        "col2": "1746",
        "col3": "5260"
    },
    {
        "col0": "George Rogers Clark National Historical Park",
        "col1": "National Park Service",
        "col2": "1931",
        "col3": "98338"
    },
    {
        "col0": "George K. Heller School",
        "col1": "Pennsylvania",
        "col2": "1883",
        "col3": "4046"
    },
    {
        "col0": "Genesee County Courthouse Historic District",
        "col1": "U.S. Postal Service",
        "col2": "1841",
        "col3": "20234"
    },
    {
        "col0": "Garfield School",
        "col1": "Brunswick, New York",
        "col2": "1881",
        "col3": "3520"
    },
    {
        "col0": "Fulton Mansion Historical Site",
        "col1": "Texas Historical Commission",
        "col2": "1874",
        "col3": "4046"
    },
    {
        "col0": "Frijole Ranch",
        "col1": "National Park Service",
        "col2": "1876",
        "col3": "36421"
    },
    {
        "col0": "Fremont Powerhouse",
        "col1": "United States Forest Service",
        "col2": "1908",
        "col3": "349243"
    },
    {
        "col0": "Frank M. Johnson Jr. Federal Building and United States Courthouse",
        "col1": "General Services Administration",
        "col2": "1932",
        "col3": "6070"
    },
    {
        "col0": "Frances Canyon Ruin",
        "col1": "United States Bureau of Land Management",
        "col2": "1716",
        "col3": "10117"
    },
    {
        "col0": "Fort Verde State Historic Park",
        "col1": "Arizona State Parks",
        "col2": "1872",
        "col3": "48562"
    },
    {
        "col0": "Fort Vasquez",
        "col1": "Colorado Historical Society",
        "col2": "1835",
        "col3": "4046"
    },
    {
        "col0": "Fort Union Trading Post National Historic Site",
        "col1": "National Park Service",
        "col2": "1828",
        "col3": "1796804"
    },
    {
        "col0": "Fort Stanwix National Monument",
        "col1": "National Park Service",
        "col2": "1758",
        "col3": "64749"
    },
    {
        "col0": "Fort Stanwix",
        "col1": "National Park Service",
        "col2": "1758",
        "col3": "64749"
    },
    {
        "col0": "Fort Smith National Cemetery",
        "col1": "United States Department of Veterans Affairs",
        "col2": "1867",
        "col3": "87816"
    },
    {
        "col0": "Fort Scott National Historic Site",
        "col1": "National Park Service",
        "col2": "1842",
        "col3": "68796"
    },
    {
        "col0": "Fort Scott National Cemetery",
        "col1": "United States Department of Veterans Affairs",
        "col2": "1842",
        "col3": "27113"
    },
    {
        "col0": "Fort Raleigh National Historic Site",
        "col1": "National Park Service",
        "col2": "1585",
        "col3": "56655"
    },
    {
        "col0": "Fort Niagara",
        "col1": "New York State Office of Parks, Recreation and Historic Preservation",
        "col2": "1726",
        "col3": "1011714"
    },
    {
        "col0": "Fort Negley",
        "col1": "Nashville Board of Parks and Recreation",
        "col2": "1862",
        "col3": "16722"
    },
    {
        "col0": "Fort Nathan Hale",
        "col1": "New Haven, Connecticut",
        "col2": "2010",
        "col3": "12140"
    },
    {
        "col0": "Fort Monroe",
        "col1": "Commonwealth of Virginia",
        "col2": "1819",
        "col3": "2286473"
    },
    {
        "col0": "Fort Matanzas National Monument",
        "col1": "National Park Service",
        "col2": "1740",
        "col3": "921712"
    },
    {
        "col0": "Fort Massachusetts",
        "col1": "National Park Service",
        "col2": "1859",
        "col3": "343982"
    },
    {
        "col0": "Fort Mason",
        "col1": "National Park Service",
        "col2": "1912",
        "col3": "84983"
    },
    {
        "col0": "Fort Martin Scott",
        "col1": "Gillespie County Historical Society",
        "col2": "1848",
        "col3": "93077"
    },
    {
        "col0": "Fort Larned National Historic Site",
        "col1": "National Park Service",
        "col2": "1860",
        "col3": "2905642"
    },
    {
        "col0": "Fort Lancaster",
        "col1": "Texas Historical Commission",
        "col2": "1855",
        "col3": "157827"
    },
    {
        "col0": "Fort Inge",
        "col1": "Texas",
        "col2": "1849",
        "col3": "157827"
    },
    {
        "col0": "Fort Hunt Park",
        "col1": "National Park Service",
        "col2": "1897",
        "col3": "550372"
    },
    {
        "col0": "Fort Harrison National Cemetery",
        "col1": "U.S. Department of Veterans Affairs",
        "col2": "1866",
        "col3": "8093"
    },
    {
        "col0": "Fort Crown Point",
        "col1": "New York State Office of Parks, Recreation and Historic Preservation",
        "col2": "1759",
        "col3": "47752905"
    },
    {
        "col0": "Fort Clatsop",
        "col1": "National Park Service",
        "col2": "1805",
        "col3": "506666"
    },
    {
        "col0": "Fort Boise",
        "col1": "Idaho Department of Fish and Game",
        "col2": "1834",
        "col3": "704153"
    },
    {
        "col0": "Fort Bayard Historic District",
        "col1": "U.S. Forest Service",
        "col2": "1866",
        "col3": "2848986"
    },
    {
        "col0": "Florence National Cemetery",
        "col1": "United States Department of Veterans Affairs",
        "col2": "1872",
        "col3": "42087"
    },
    {
        "col0": "First African Baptist Church",
        "col1": "Virginia Commonwealth University",
        "col2": "1876",
        "col3": "809"
    },
    {
        "col0": "Finn's Point National Cemetery",
        "col1": "United States Department of Veterans Affairs",
        "col2": "1863",
        "col3": "260617"
    },
    {
        "col0": "Federal Office Building",
        "col1": "General Services Administration",
        "col2": "1932",
        "col3": "4856"
    },
    {
        "col0": "Federal Building and Post Office",
        "col1": "General Services Administration",
        "col2": "1885",
        "col3": "6070"
    },
    {
        "col0": "Federal Building",
        "col1": "General Services Administration",
        "col2": "1874",
        "col3": "2023"
    },
    {
        "col0": "Federal Building",
        "col1": "General Services Administration",
        "col2": "1903",
        "col3": "0"
    },
    {
        "col0": "Federal Building",
        "col1": "General Services Administration",
        "col2": "1874",
        "col3": "4451"
    },
    {
        "col0": "Federal Building",
        "col1": "General Services Administration",
        "col2": "1892",
        "col3": "14163"
    },
    {
        "col0": "Federal Building, United States Post Office and Courthouse",
        "col1": "General Services Administration",
        "col2": "1915",
        "col3": "4046"
    },
    {
        "col0": "Fayetteville National Cemetery",
        "col1": "United States Department of Veterans Affairs",
        "col2": "1867",
        "col3": "46943"
    },
    {
        "col0": "Farmers' Bank",
        "col1": "Preservation Virginia",
        "col2": "1817",
        "col3": "36421"
    },
    {
        "col0": "Eugene O'Neill National Historic Site",
        "col1": "National Park Service",
        "col2": "1937",
        "col3": "641831"
    },
    {
        "col0": "Estherwood",
        "col1": "The Masters School",
        "col2": "1894",
        "col3": "40468"
    },
    {
        "col0": "Erie Canal Lock 52 Complex",
        "col1": "New York State Thruway Authority",
        "col2": "1849",
        "col3": "13759"
    },
    {
        "col0": "Ephrata Cloister",
        "col1": "Pennsylvania Historical and Museum Commission",
        "col2": "1732",
        "col3": "121405"
    },
    {
        "col0": "Enchanted Valley Chalet",
        "col1": "National Park Service",
        "col2": "1930",
        "col3": "16187"
    },
    {
        "col0": "Embarcadero",
        "col1": "Port of San Francisco",
        "col2": "1918",
        "col3": "26709"
    },
    {
        "col0": "Ellicott's Rock",
        "col1": "United States Forest Service",
        "col2": "1813",
        "col3": "2023"
    },
    {
        "col0": "Elijah Cutler Behunin Cabin",
        "col1": "National Park Service",
        "col2": "1883",
        "col3": "404"
    },
    {
        "col0": "Elbert P. Tuttle United States Court of Appeals Building",
        "col1": "General Services Administration",
        "col2": "1911",
        "col3": "4046"
    },
    {
        "col0": "El Viejo Post Office",
        "col1": "General Services Administration",
        "col2": "1933",
        "col3": "2428"
    },
    {
        "col0": "Edward T. Gignoux United States Courthouse",
        "col1": "General Services Administration",
        "col2": "1908",
        "col3": "2832"
    },
    {
        "col0": "Edward Pulaski Tunnel and Placer Creek Escape Route",
        "col1": "United States Forest Service",
        "col2": "1910",
        "col3": "48562"
    },
    {
        "col0": "Edward Dodge House",
        "col1": "Private property",
        "col2": "1878",
        "col3": "8093"
    },
    {
        "col0": "Edificio Jose de Diego",
        "col1": "University of Puerto Rico at Mayaguez",
        "col2": "1913",
        "col3": "4046"
    },
    {
        "col0": "Eastern Michigan University Historic District",
        "col1": "Eastern Michigan University",
        "col2": "1931",
        "col3": "32374"
    },
    {
        "col0": "East Lancaster Avenue Historic District",
        "col1": "Federal architecture",
        "col2": "1700",
        "col3": "207603"
    },
    {
        "col0": "East Hawaii Cultural Center",
        "col1": "Hawaii County, Hawaii",
        "col2": "1932",
        "col3": "2306"
    },
    {
        "col0": "East 73rd Street Historic District",
        "col1": "New York City Landmarks Preservation Commission",
        "col2": "1860",
        "col3": "5665"
    },
    {
        "col0": "Eagle Ranger Station",
        "col1": "National Park Service",
        "col2": "1936",
        "col3": "16187"
    },
    {
        "col0": "E. Ross Adair Federal Building and United States Courthouse",
        "col1": "General Services Administration",
        "col2": "1932",
        "col3": "10117"
    },
    {
        "col0": "Dumbarton Oaks Park",
        "col1": "National Park Service",
        "col2": "1932",
        "col3": "109265"
    },
    {
        "col0": "Duluth Civic Center Historic District",
        "col1": "General Services Administration",
        "col2": "1909",
        "col3": "42491"
    },
    {
        "col0": "Downtown Paterson",
        "col1": "List of New Jersey Transit bus routes",
        "col2": "1851",
        "col3": "165921"
    },
    {
        "col0": "Double-O Ranch Historic District",
        "col1": "United States Fish and Wildlife Service",
        "col2": "1880",
        "col3": "40468"
    },
    {
        "col0": "Dorchester Heights",
        "col1": "National Park Service",
        "col2": "1776",
        "col3": "21853"
    },
    {
        "col0": "Don S. S. Goodloe House",
        "col1": "Bowie State University",
        "col2": "1915",
        "col3": "12140"
    },
    {
        "col0": "Dock Bridge",
        "col1": "Amtrak",
        "col2": "1935",
        "col3": "4046"
    },
    {
        "col0": "Diversion Dam and Deer Flat Embankments",
        "col1": "United States Bureau of Reclamation",
        "col2": "1906",
        "col3": "263045"
    },
    {
        "col0": "District School No. 9",
        "col1": "Daughters of the American Revolution",
        "col2": "18",
        "col3": "2023"
    },
    {
        "col0": "Dismal Swamp Canal",
        "col1": "United States Army Corps of Engineers",
        "col2": "1793",
        "col3": "4868368"
    },
    {
        "col0": "Dewey House",
        "col1": "Captain James A. Lovell Federal Health Care Center",
        "col2": "1914",
        "col3": "3237"
    },
    {
        "col0": "Deady Hall",
        "col1": "University of Oregon",
        "col2": "1873",
        "col3": "4046"
    },
    {
        "col0": "De Soto National Memorial",
        "col1": "National Park Service",
        "col2": "1539",
        "col3": "108617"
    },
    {
        "col0": "De Lamar, Idaho",
        "col1": "United States Bureau of Land Management",
        "col2": "1889",
        "col3": "6474970"
    },
    {
        "col0": "DeFreest Homestead",
        "col1": "Rensselaer Polytechnic Institute",
        "col2": "1765",
        "col3": "89030"
    },
    {
        "col0": "Danville National Cemetery",
        "col1": "U.S. Department of Veterans Affairs",
        "col2": "1866",
        "col3": "16187"
    },
    {
        "col0": "Danville Historic District",
        "col1": "Federal architecture",
        "col2": "1792",
        "col3": "312417"
    },
    {
        "col0": "Daniel Boone Homestead",
        "col1": "Pennsylvania Historical and Museum Commission",
        "col2": "1735",
        "col3": "2335036"
    },
    {
        "col0": "D.C. Booth Historic National Fish Hatchery",
        "col1": "US Fish & Wildlife Service",
        "col2": "1896",
        "col3": "40468"
    },
    {
        "col0": "Custer, Idaho",
        "col1": "United States Forest Service",
        "col2": "1877",
        "col3": "117358"
    },
    {
        "col0": "Cummins Memorial Church",
        "col1": "Reformed Episcopal Church",
        "col2": "1878",
        "col3": "404"
    },
    {
        "col0": "Culpeper National Cemetery",
        "col1": "U.S. Department of Veterans Affairs",
        "col2": "1866",
        "col3": "69605"
    },
    {
        "col0": "Cromwell Manor",
        "col1": "Bed and breakfast",
        "col2": "1820",
        "col3": "28327"
    },
    {
        "col0": "Coso Hot Springs",
        "col1": "Naval Air Weapons Station China Lake",
        "col2": "1900",
        "col3": "2063896"
    },
    {
        "col0": "Cornwall Iron Furnace",
        "col1": "Pennsylvania Historical and Museum Commission",
        "col2": "1742",
        "col3": "708199"
    },
    {
        "col0": "Corinth National Cemetery",
        "col1": "U.S. Department of Veterans Affairs",
        "col2": "1866",
        "col3": "80937"
    },
    {
        "col0": "Conrad Weiser Homestead",
        "col1": "Pennsylvania Historical and Museum Commission",
        "col2": "1729",
        "col3": "105218"
    },
    {
        "col0": "College Hill West Historic District",
        "col1": "Oregon State University",
        "col2": "1905",
        "col3": "287326"
    },
    {
        "col0": "College Hall",
        "col1": "University of Pennsylvania",
        "col2": "1872",
        "col3": "2023"
    },
    {
        "col0": "Colden Mansion Ruins",
        "col1": "Montgomery",
        "col2": "1767",
        "col3": "32374"
    },
    {
        "col0": "Cold Harbor National Cemetery",
        "col1": "U.S. Department of Veterans Affairs",
        "col2": "1866",
        "col3": "5665"
    },
    {
        "col0": "Coit Tower",
        "col1": "San Francisco Recreation & Parks Department",
        "col2": "1933",
        "col3": "6879"
    },
    {
        "col0": "Cloud Cap Inn",
        "col1": "United States Forest Service",
        "col2": "1889",
        "col3": "4046"
    },
    {
        "col0": "Cliveden",
        "col1": "National Trust for Historic Preservation",
        "col2": "1763",
        "col3": "21853"
    },
    {
        "col0": "Clatsop County Courthouse",
        "col1": "Clatsop County, Oregon",
        "col2": "1908",
        "col3": "4046"
    },
    {
        "col0": "Clarkson Chapel",
        "col1": "Columbia County, New York",
        "col2": "1860",
        "col3": "4451"
    },
    {
        "col0": "Clara Barton National Historic Site",
        "col1": "National Park Service",
        "col2": "1891",
        "col3": "36421"
    },
    {
        "col0": "City Point National Cemetery",
        "col1": "U.S. Department of Veterans Affairs",
        "col2": "1866",
        "col3": "28327"
    },
    {
        "col0": "Church of the Resurrection",
        "col1": "Episcopal Diocese of Western North Carolina",
        "col2": "1912",
        "col3": "0"
    },
    {
        "col0": "China Ditch",
        "col1": "Bureau of Land Management",
        "col2": "1890",
        "col3": "154185"
    },
    {
        "col0": "Chicago, Milwaukee, St. Paul and Pacific Railroad Company Historic District",
        "col1": "Lolo National Forest",
        "col2": "1909",
        "col3": "194249"
    },
    {
        "col0": "Chesterfield, Idaho",
        "col1": "United States Bureau of Land Management",
        "col2": "1881",
        "col3": "8741209"
    }
]