[
    {
        "col0": "B. Spengler",
        "col1": "BMW M",
        "col2": "Schiltigheim",
        "col3": "1983-08-23",
        "col4": "1983-08-23"
    },
    {
        "col0": "B. Mendez",
        "col1": "Hitech Racing",
        "col2": "La Roda",
        "col3": "1990-04-16",
        "col4": "1990-04-16"
    },
    {
        "col0": "B. Junqueira",
        "col1": "FAZZT Race Team",
        "col2": "Belo Horizonte",
        "col3": "1976-11-04",
        "col4": "1976-11-04"
    },
    {
        "col0": "B. Bonifacio",
        "col1": "Draco Racing",
        "col2": "Sao Paulo",
        "col3": "1994-11-02",
        "col4": "1994-11-02"
    },
    {
        "col0": "B. Jouanny",
        "col1": "Pescarolo Sport",
        "col2": "France",
        "col3": "1978-06-11",
        "col4": "1978-06-11"
    },
    {
        "col0": "B. Force",
        "col1": "John Force Racing",
        "col2": "Yorba Linda, California",
        "col3": "1986-07-08",
        "col4": "1986-07-08"
    },
    {
        "col0": "B. Deegan",
        "col1": "Chip Ganassi Racing",
        "col2": "Nebraska",
        "col3": "1975-05-09",
        "col4": "1975-05-09"
    },
    {
        "col0": "B. Hartley",
        "col1": "Porsche",
        "col2": "Palmerston North",
        "col3": "1989-11-10",
        "col4": "1989-11-10"
    },
    {
        "col0": "B. Newey",
        "col1": "Team Pelfrey",
        "col2": "Indianapolis, Indiana",
        "col3": "1992-08-18",
        "col4": "1992-08-18"
    },
    {
        "col0": "B. Maisano",
        "col1": "BVM Racing",
        "col2": "Cannes",
        "col3": "1993-06-24",
        "col4": "1993-06-24"
    },
    {
        "col0": "B. Smith",
        "col1": "James Hylton Motorsports",
        "col2": "Michigan",
        "col3": "1968-10-09",
        "col4": "1968-10-09"
    },
    {
        "col0": "B. Garcia",
        "col1": "RC Motorsport",
        "col2": "Valencia",
        "col3": "1982-12-15",
        "col4": "1982-12-15"
    },
    {
        "col0": "B. Gerhart",
        "col1": "Bobby Gerhart Racing",
        "col2": "Lebanon, Pennsylvania",
        "col3": "1958-07-21",
        "col4": "1958-07-21"
    },
    {
        "col0": "B. Baguette",
        "col1": "Nakajima Racing",
        "col2": "Verviers",
        "col3": "1986-02-23",
        "col4": "1986-02-23"
    },
    {
        "col0": "B. Lariche",
        "col1": "MotorSport Vision",
        "col2": "Narbonne",
        "col3": "1987-06-16",
        "col4": "1987-06-16"
    },
    {
        "col0": "B. Hanley",
        "col1": "Fisichella Motor Sport",
        "col2": "Manchester",
        "col3": "1985-01-22",
        "col4": "1985-01-22"
    },
    {
        "col0": "B. Barnicoat",
        "col1": "Hitech Racing",
        "col2": "Chesterfield",
        "col3": "1996-12-20",
        "col4": "1996-12-20"
    }
]