[
    {
        "col0": "We Don't Need Another Hero",
        "col1": "One of the Living",
        "col2": "G. Lyle",
        "col3": "Tina Turner"
    },
    {
        "col0": "We Don't Make the Wind Blow",
        "col1": "II",
        "col2": "I. DeLange",
        "col3": "The Common Linnets"
    },
    {
        "col0": "We Don't Have to Take Our Clothes Off",
        "col1": "Lucky Like That",
        "col2": "N. M. Walden",
        "col3": "Jermaine Stewart"
    },
    {
        "col0": "We Don't Have to Look Back Now",
        "col1": "Livin' on Borrowed Time",
        "col2": "M. Collins",
        "col3": "Puddle of Mudd"
    },
    {
        "col0": "We Don't Have to Do This",
        "col1": "Hangin' In",
        "col2": "V. Shaw",
        "col3": "Tanya Tucker"
    },
    {
        "col0": "We Don't Care",
        "col1": "Sexy Bitch",
        "col2": "Akon",
        "col3": "Akon"
    },
    {
        "col0": "We Didn't Start the Fire",
        "col1": "Leningrad",
        "col2": "B. Joel",
        "col3": "Billy Joel"
    },
    {
        "col0": "We Didn't Know",
        "col1": "I Will Always Love You",
        "col2": "S. Wonder",
        "col3": "Whitney Houston"
    },
    {
        "col0": "We Dem Boyz",
        "col1": "KK",
        "col2": "C. Brown",
        "col3": "Wiz Khalifa"
    },
    {
        "col0": "We Deal in Dreams",
        "col1": "The River",
        "col2": "Live",
        "col3": "Live"
    },
    {
        "col0": "We Danced Anyway",
        "col1": "Count Me In",
        "col2": "R. Scruggs",
        "col3": "Deana Carter"
    },
    {
        "col0": "We Danced",
        "col1": "Two People Fell in Love",
        "col2": "B. Paisley",
        "col3": "Brad Paisley"
    },
    {
        "col0": "We Dance On",
        "col1": "Best Behaviour",
        "col2": "J. Pachelbel",
        "col3": "N-Dubz"
    },
    {
        "col0": "We Cry",
        "col1": "The Man Who Can't Be Moved",
        "col2": "D. O'Donoghue",
        "col3": "The Script"
    },
    {
        "col0": "We Could Be Together",
        "col1": "Without You",
        "col2": "D. Gibson",
        "col3": "Debbie Gibson"
    },
    {
        "col0": "We Come Running",
        "col1": "Stars",
        "col2": "S. Katz",
        "col3": "Youngblood Hawke"
    },
    {
        "col0": "We Come 1",
        "col1": "Muhammad Ali",
        "col2": "S. Bliss",
        "col3": "Faithless"
    },
    {
        "col0": "We Close Our Eyes",
        "col1": "Call Me",
        "col2": "P. Cox",
        "col3": "Go West"
    },
    {
        "col0": "We Can Work It Out",
        "col1": "Paperback Writer",
        "col2": "Lennon-McCartney",
        "col3": "The Beatles"
    },
    {
        "col0": "We Can Try",
        "col1": "Rough Day",
        "col2": "A. Mtawarira",
        "col3": "Paulini"
    },
    {
        "col0": "We Can Only Live Today",
        "col1": "Running Low",
        "col2": "Netsky",
        "col3": "Netsky"
    },
    {
        "col0": "We Can Last Forever",
        "col1": "What Kind Of Man Would I Be?",
        "col2": "J. Scheff",
        "col3": "Chicago"
    },
    {
        "col0": "We Can Have It All",
        "col1": "Tonight",
        "col2": "D. Byrd",
        "col3": "Danny Byrd"
    },
    {
        "col0": "We Can Get Together",
        "col1": "Walls",
        "col2": "I. Davies",
        "col3": "Icehouse"
    },
    {
        "col0": "We Can't Stop",
        "col1": "Wrecking Ball",
        "col2": "D. E. Fresh",
        "col3": "Miley Cyrus"
    },
    {
        "col0": "We Can't Love Like This Anymore",
        "col1": "Give Me One More Shot",
        "col2": "W. Mobley",
        "col3": "Alabama"
    },
    {
        "col0": "We Can",
        "col1": "This Love",
        "col2": "D. Warren",
        "col3": "LeAnn Rimes"
    },
    {
        "col0": "We Came to Dance",
        "col1": "One Small Day",
        "col2": "M. Ure",
        "col3": "Ultravox"
    },
    {
        "col0": "We Built This City",
        "col1": "Sara",
        "col2": "B. Taupin",
        "col3": "Starship"
    },
    {
        "col0": "We Break the Dawn",
        "col1": "The Greatest",
        "col2": "S. Knowles",
        "col3": "Michelle Williams"
    },
    {
        "col0": "We Both Walk",
        "col1": "A Picture of Me",
        "col2": "T. Shapiro",
        "col3": "Lorrie Morgan"
    },
    {
        "col0": "We Belong Together",
        "col1": "Shake It Off",
        "col2": "Babyface",
        "col3": "Mariah Carey"
    },
    {
        "col0": "We Belong",
        "col1": "Tropico",
        "col2": "L. &. Navarro",
        "col3": "Pat Benatar"
    },
    {
        "col0": "We Believe",
        "col1": "The River",
        "col2": "B. Madden",
        "col3": "Good Charlotte"
    },
    {
        "col0": "We Be Burnin'",
        "col1": "Ever Blazin'",
        "col2": "S. \". Marsden",
        "col3": "Sean Paul"
    },
    {
        "col0": "We Are the World",
        "col1": "If You Want My Love",
        "col2": "T. 4. Seven",
        "col3": "Twenty 4 Seven"
    },
    {
        "col0": "We Are the Pigs",
        "col1": "The Wild Ones",
        "col2": "B. Anderson",
        "col3": "Suede"
    },
    {
        "col0": "We Are the People",
        "col1": "Tracing Lines / Silent Cry",
        "col2": "G. Nicholas",
        "col3": "Feeder"
    },
    {
        "col0": "We Are the People",
        "col1": "Standing on the Shore",
        "col2": "L. Steele",
        "col3": "Empire of the Sun"
    },
    {
        "col0": "We Are the Ones",
        "col1": "Heartbreaker",
        "col2": "B. Obama",
        "col3": "Will.i.am"
    },
    {
        "col0": "We Are the Champions",
        "col1": "Last Christmas",
        "col2": "F. Mercury",
        "col3": "Queen"
    },
    {
        "col0": "We Are Young",
        "col1": "Some Nights",
        "col2": "A. Dost",
        "col3": "Fun"
    },
    {
        "col0": "We Are Tonight",
        "col1": "Don't It",
        "col2": "S. Hunt",
        "col3": "Billy Currington"
    },
    {
        "col0": "We Are The Greatest/I Was Made For Lovin' You",
        "col1": "Call Me Manana",
        "col2": "P. Stanley",
        "col3": "Scooter"
    },
    {
        "col0": "We Are One Tonight",
        "col1": "Oh! Gravity.",
        "col2": "T. Foreman",
        "col3": "Switchfoot"
    },
    {
        "col0": "We Are One",
        "col1": "I Finally Found My Way",
        "col2": "G. Simmons",
        "col3": "Kiss"
    },
    {
        "col0": "We Are Never Ever Getting Back Together",
        "col1": "Ronan",
        "col2": "M. Martin",
        "col3": "Taylor Swift"
    },
    {
        "col0": "We Are Golden",
        "col1": "Rain",
        "col2": "Mika",
        "col3": "Mika"
    },
    {
        "col0": "We Are Family",
        "col1": "Lost in Music",
        "col2": "B. Edwards",
        "col3": "Sister Sledge"
    },
    {
        "col0": "We Are Done",
        "col1": "Dear Jane",
        "col2": "B. Madden",
        "col3": "The Madden Brothers"
    },
    {
        "col0": "We Are Detective",
        "col1": "Watching",
        "col2": "T. Bailey",
        "col3": "Thompson Twins"
    },
    {
        "col0": "We Are All on Drugs",
        "col1": "Perfect Situation",
        "col2": "R. Cuomo",
        "col3": "Weezer"
    },
    {
        "col0": "We Are All Prostitutes",
        "col1": "In the Beginning There Was Rhythm/Where There's a Will There's a Way",
        "col2": "T. P. Group",
        "col3": "The Pop Group"
    },
    {
        "col0": "We Are",
        "col1": "Pigskin",
        "col2": "D. Lohner",
        "col3": "Hollywood Undead"
    },
    {
        "col0": "We Are",
        "col1": "Don't Cry for Pain",
        "col2": "A. Carlsson",
        "col3": "Ana Johnsson"
    },
    {
        "col0": "We Are.",
        "col1": "Desire",
        "col2": "D. Nagao",
        "col3": "Do As Infinity"
    },
    {
        "col0": "We Apologise for Nothing",
        "col1": "Deathcar",
        "col2": "C. Simpson",
        "col3": "Fightstar"
    },
    {
        "col0": "We Alright",
        "col1": "Trophies",
        "col2": "Birdman",
        "col3": "Birdman"
    },
    {
        "col0": "We All Sleep Alone",
        "col1": "Skin Deep",
        "col2": "R. Sambora",
        "col3": "Cher"
    },
    {
        "col0": "We've Only Just Begun",
        "col1": "Merry Christmas Darling",
        "col2": "P. Williams",
        "col3": "The Carpenters"
    },
    {
        "col0": "We've Had Enough",
        "col1": "All on Black",
        "col2": "M. Skiba",
        "col3": "Alkaline Trio"
    },
    {
        "col0": "We've Got a Good Fire Goin'",
        "col1": "Heartbeat in the Darkness",
        "col2": "D. Loggins",
        "col3": "Don Williams"
    },
    {
        "col0": "We've Got Tonite",
        "col1": "Old Time Rock and Roll",
        "col2": "B. Seger",
        "col3": "Kenny Rogers"
    },
    {
        "col0": "We've Got Everything",
        "col1": "Little Motel",
        "col2": "M. Mouse",
        "col3": "Modest Mouse"
    },
    {
        "col0": "We're on the Ball",
        "col1": "Let's Get Ready to Rhumble",
        "col2": "A. McPartlin",
        "col3": "Ant & Dec"
    },
    {
        "col0": "We're in This Together",
        "col1": "Into the Void",
        "col2": "T. Reznor",
        "col3": "Nine Inch Nails"
    },
    {
        "col0": "We're from America",
        "col1": "Arma-Goddamn-Motherfuckin-Geddon",
        "col2": "M. Manson",
        "col3": "Marilyn Manson"
    },
    {
        "col0": "We're an American Band",
        "col1": "Walk Like a Man",
        "col2": "D. Brewer",
        "col3": "Poison"
    },
    {
        "col0": "We're So Good Together",
        "col1": "I'm a Survivor",
        "col2": "B. DiPiero",
        "col3": "Reba McEntire"
    },
    {
        "col0": "We're Ready",
        "col1": "Can'tcha Say",
        "col2": "T. Scholz",
        "col3": "Boston"
    },
    {
        "col0": "We're Not the Same",
        "col1": "Hang It Up",
        "col2": "J. D. Martino",
        "col3": "The Ting Tings"
    },
    {
        "col0": "We're Not Making Love No More",
        "col1": "How Deep Is Your Love",
        "col2": "Babyface",
        "col3": "Dru Hill"
    },
    {
        "col0": "We're Not Gonna Take It",
        "col1": "I Wanna Rock",
        "col2": "D. Snider",
        "col3": "Twisted Sister"
    },
    {
        "col0": "We're Not Gonna Take It",
        "col1": "The Seeker",
        "col2": "P. Townshend",
        "col3": "The Who"
    },
    {
        "col0": "We're Back!",
        "col1": "Motherlover",
        "col2": "A. Samberg",
        "col3": "The Lonely Island"
    },
    {
        "col0": "We're Almost There",
        "col1": "Just a Little Bit of You",
        "col2": "B. Holland",
        "col3": "Michael Jackson"
    },
    {
        "col0": "We're All No One",
        "col1": "Livin' My Love",
        "col2": "S. Aoki",
        "col3": "Nervo"
    },
    {
        "col0": "We'll Burn That Bridge",
        "col1": "She Used to Be Mine",
        "col2": "R. Dunn",
        "col3": "Brooks & Dunn"
    }
]