[
    {
        "col0": "Wood Lake",
        "col1": "British Columbia",
        "col2": "21",
        "col3": "21"
    },
    {
        "col0": "Tatla Lake",
        "col1": "British Columbia",
        "col2": "10",
        "col3": "10"
    },
    {
        "col0": "Taseko Lakes",
        "col1": "British Columbia",
        "col2": "43",
        "col3": "43"
    },
    {
        "col0": "Skaha Lake",
        "col1": "British Columbia",
        "col2": "26",
        "col3": "26"
    },
    {
        "col0": "Quesnel Lake",
        "col1": "British Columbia",
        "col2": "157",
        "col3": "157"
    },
    {
        "col0": "Nimpo Lake",
        "col1": "British Columbia",
        "col2": "27",
        "col3": "30"
    },
    {
        "col0": "Ness Lake",
        "col1": "British Columbia",
        "col2": "6",
        "col3": "6"
    },
    {
        "col0": "Gander Lake",
        "col1": "Newfoundland and Labrador",
        "col2": "105",
        "col3": "105"
    },
    {
        "col0": "Eagle Lake",
        "col1": "British Columbia",
        "col2": "17",
        "col3": "17"
    },
    {
        "col0": "Charlotte Lake",
        "col1": "British Columbia",
        "col2": "40",
        "col3": "40"
    },
    {
        "col0": "Canim Lake",
        "col1": "British Columbia",
        "col2": "84",
        "col3": "84"
    }
]