[
    {
        "col0": "1916 Boreas",
        "col1": "14",
        "col2": "1953-09-01",
        "col3": "492850185021",
        "col4": "186847740504"
    },
    {
        "col0": "1915 Quetzalcoatl",
        "col1": "18",
        "col2": "1953-03-09",
        "col3": "597927729400",
        "col4": "163495512888"
    },
    {
        "col0": "19139 Apian",
        "col1": "13",
        "col2": "1989-04-06",
        "col3": "416454337280",
        "col4": "356662686324"
    },
    {
        "col0": "1912 Anubis",
        "col1": "11",
        "col2": "1960-09-24",
        "col3": "474569325221",
        "col4": "393980952275"
    },
    {
        "col0": "1911 Schubart",
        "col1": "10",
        "col2": "1973-10-25",
        "col3": "697455192777",
        "col4": "495513027119"
    },
    {
        "col0": "1910 Mikhailov",
        "col1": "11",
        "col2": "1972-10-08",
        "col3": "478623427517",
        "col4": "432188248452"
    },
    {
        "col0": "190 Ismene",
        "col1": "7",
        "col2": "1878-09-22",
        "col3": "695330903013",
        "col4": "497383000503"
    },
    {
        "col0": "1909 Alekhin",
        "col1": "12",
        "col2": "1972-09-04",
        "col3": "444290716191",
        "col4": "280481047775"
    },
    {
        "col0": "1907 Rudneva",
        "col1": "12",
        "col2": "1972-09-11",
        "col3": "396928030328",
        "col4": "364674729405"
    },
    {
        "col0": "1906 Naef",
        "col1": "12",
        "col2": "1972-09-05",
        "col3": "403136341962",
        "col4": "306944911102"
    },
    {
        "col0": "1905 Ambartsumian",
        "col1": "12",
        "col2": "1972-05-14",
        "col3": "386545938101",
        "col4": "278775632049"
    },
    {
        "col0": "1904 Massevitch",
        "col1": "11",
        "col2": "1972-05-09",
        "col3": "440401171553",
        "col4": "380502184125"
    },
    {
        "col0": "1902 Shaposhnikov",
        "col1": "9",
        "col2": "1972-04-18",
        "col3": "724981200986",
        "col4": "461389752812"
    },
    {
        "col0": "1900 Katyusha",
        "col1": "12",
        "col2": "1971-12-16",
        "col3": "375086741206",
        "col4": "285866571120"
    },
    {
        "col0": "19007 Nirajnathan",
        "col1": "14",
        "col2": "2000-09-02",
        "col3": "393594555935",
        "col4": "284530243261"
    },
    {
        "col0": "18 Melpomene",
        "col1": "6",
        "col2": "1852-06-24",
        "col3": "418414000000",
        "col4": "268472000000"
    },
    {
        "col0": "189 Phthia",
        "col1": "9",
        "col2": "1878-09-09",
        "col3": "380202988384",
        "col4": "353006095490"
    },
    {
        "col0": "1897 Hind",
        "col1": "13",
        "col2": "1971-10-26",
        "col3": "390345724017",
        "col4": "292763032959"
    },
    {
        "col0": "188 Menippe",
        "col1": "9",
        "col2": "1878-06-18",
        "col3": "486821390831",
        "col4": "339452528405"
    },
    {
        "col0": "1889 Pakhmutova",
        "col1": "11",
        "col2": "1968-01-24",
        "col3": "513509650964",
        "col4": "410735913793"
    },
    {
        "col0": "18880 Toddblumberg",
        "col1": "14",
        "col2": "1999-12-10",
        "col3": "568276264564",
        "col4": "390950907243"
    },
    {
        "col0": "1887 Virton",
        "col1": "11",
        "col2": "1950-10-05",
        "col3": "500748952594",
        "col4": "398453928609"
    },
    {
        "col0": "187 Lamberta",
        "col1": "8",
        "col2": "1878-04-11",
        "col3": "506478551041",
        "col4": "309592793413"
    },
    {
        "col0": "1879 Broederstroom",
        "col1": "12",
        "col2": "1935-10-16",
        "col3": "385812908535",
        "col4": "286135847287"
    },
    {
        "col0": "1877 Marsden",
        "col1": "10",
        "col2": "1971-03-24",
        "col3": "712190583041",
        "col4": "466565839139"
    },
    {
        "col0": "1873 Agenor",
        "col1": "10",
        "col2": "1971-03-25",
        "col3": "855625021468",
        "col4": "711113478372"
    },
    {
        "col0": "1870 Glaukos",
        "col1": "10",
        "col2": "1971-03-24",
        "col3": "810132308988",
        "col4": "760106781026"
    },
    {
        "col0": "186 Celuta",
        "col1": "8",
        "col2": "1878-04-06",
        "col3": "406188138524",
        "col4": "300452363513"
    },
    {
        "col0": "1869 Philoctetes",
        "col1": "11",
        "col2": "1960-09-24",
        "col3": "833963249791",
        "col4": "730770638582"
    },
    {
        "col0": "1868 Thersites",
        "col1": "9",
        "col2": "1960-09-24",
        "col3": "882552638194",
        "col4": "709093907118"
    },
    {
        "col0": "1867 Deiphobus",
        "col1": "8",
        "col2": "1971-03-03",
        "col3": "800348608245",
        "col4": "734106671099"
    },
    {
        "col0": "1866 Sisyphus",
        "col1": "12",
        "col2": "1972-12-05",
        "col3": "435838436497",
        "col4": "130754522906"
    },
    {
        "col0": "1865 Cerberus",
        "col1": "16",
        "col2": "1971-10-26",
        "col3": "237022866337",
        "col4": "86120502204"
    },
    {
        "col0": "1864 Daedalus",
        "col1": "14",
        "col2": "1971-03-24",
        "col3": "352856497620",
        "col4": "84187697715"
    },
    {
        "col0": "1863 Antinous",
        "col1": "15",
        "col2": "1948-03-07",
        "col3": "543040270641",
        "col4": "133113681327"
    },
    {
        "col0": "1862 Apollo",
        "col1": "16",
        "col2": "1932-04-24",
        "col3": "343102716450",
        "col4": "96788326364"
    },
    {
        "col0": "1861 Komensky",
        "col1": "11",
        "col2": "1970-11-24",
        "col3": "480717797707",
        "col4": "422778542385"
    },
    {
        "col0": "18610 Arthurdent",
        "col1": "14",
        "col2": "1998-02-07",
        "col3": "462751093436",
        "col4": "299345339270"
    },
    {
        "col0": "185 Eunike",
        "col1": "7",
        "col2": "1878-03-01",
        "col3": "462616455352",
        "col4": "356686203110"
    },
    {
        "col0": "1859 Kovalevskaya",
        "col1": "10",
        "col2": "1972-09-04",
        "col3": "528738714202",
        "col4": "432457524619"
    },
    {
        "col0": "1858 Lobachevskij",
        "col1": "11",
        "col2": "1972-08-18",
        "col3": "434821170976",
        "col4": "372483738255"
    },
    {
        "col0": "1857 Parchomenko",
        "col1": "12",
        "col2": "1971-08-30",
        "col3": "380621862422",
        "col4": "290593863834"
    },
    {
        "col0": "1856 Ruzena",
        "col1": "12",
        "col2": "1969-10-08",
        "col3": "361189099018",
        "col4": "308126734280"
    },
    {
        "col0": "1855 Korolev",
        "col1": "12",
        "col2": "1969-10-08",
        "col3": "364495211960",
        "col4": "307932257048"
    },
    {
        "col0": "1854 Skvortsov",
        "col1": "12",
        "col2": "1968-10-22",
        "col3": "432592162703",
        "col4": "326796548544"
    },
    {
        "col0": "1853 McElroy",
        "col1": "10",
        "col2": "1957-12-15",
        "col3": "481376028338",
        "col4": "435554200543"
    },
    {
        "col0": "1852 Carpenter",
        "col1": "11",
        "col2": "1955-04-01",
        "col3": "477965196886",
        "col4": "424214681943"
    },
    {
        "col0": "1851 Lacroute",
        "col1": "12",
        "col2": "1950-11-09",
        "col3": "553856196692",
        "col4": "374727706316"
    },
    {
        "col0": "1850 Kohoutek",
        "col1": "12",
        "col2": "1942-03-23",
        "col3": "379185722863",
        "col4": "294378689963"
    },
    {
        "col0": "184 Dejopeja",
        "col1": "8",
        "col2": "1878-02-28",
        "col3": "508707559315",
        "col4": "444919027248"
    },
    {
        "col0": "1849 Kresak",
        "col1": "11",
        "col2": "1942-01-14",
        "col3": "464127393846",
        "col4": "448958169757"
    },
    {
        "col0": "1848 Delvaux",
        "col1": "11",
        "col2": "1933-08-18",
        "col3": "448898330609",
        "col4": "410152482098"
    },
    {
        "col0": "1847 Stobbe",
        "col1": "11",
        "col2": "1916-02-01",
        "col3": "398708244989",
        "col4": "382207599851"
    },
    {
        "col0": "1846 Bengt",
        "col1": "13",
        "col2": "1960-09-24",
        "col3": "399590872426",
        "col4": "300138207985"
    },
    {
        "col0": "1845 Helewalda",
        "col1": "11",
        "col2": "1972-10-30",
        "col3": "469303480172",
        "col4": "418754359663"
    },
    {
        "col0": "1844 Susilva",
        "col1": "10",
        "col2": "1972-10-30",
        "col3": "474344928415",
        "col4": "427805030840"
    },
    {
        "col0": "1842 Hynek",
        "col1": "12",
        "col2": "1972-01-14",
        "col3": "400398700928",
        "col4": "277489090361"
    },
    {
        "col0": "1841 Masaryk",
        "col1": "10",
        "col2": "1971-10-26",
        "col3": "563280862546",
        "col4": "460970878774"
    },
    {
        "col0": "1840 Hus",
        "col1": "11",
        "col2": "1971-10-26",
        "col3": "443946641089",
        "col4": "429121492102"
    },
    {
        "col0": "183 Istria",
        "col1": "9",
        "col2": "1878-02-08",
        "col3": "564103650835",
        "col4": "270996542773"
    },
    {
        "col0": "1837 Osita",
        "col1": "12",
        "col2": "1971-08-16",
        "col3": "358541216706",
        "col4": "301454669247"
    },
    {
        "col0": "1836 Komarov",
        "col1": "12",
        "col2": "1971-07-26",
        "col3": "496844448168",
        "col4": "336370812268"
    },
    {
        "col0": "1835 Gajdariya",
        "col1": "11",
        "col2": "1970-07-30",
        "col3": "461359833238",
        "col4": "387278967668"
    },
    {
        "col0": "1834 Palach",
        "col1": "11",
        "col2": "1969-08-22",
        "col3": "483904232353",
        "col4": "420968408149"
    },
    {
        "col0": "1832 Mrkos",
        "col1": "11",
        "col2": "1969-08-11",
        "col3": "531311797578",
        "col4": "430572591448"
    },
    {
        "col0": "1831 Nicholson",
        "col1": "12",
        "col2": "1968-04-17",
        "col3": "377734623517",
        "col4": "292284319773"
    },
    {
        "col0": "1830 Pogson",
        "col1": "12",
        "col2": "1968-04-17",
        "col3": "345675799826",
        "col4": "309009361717"
    },
    {
        "col0": "182 Elsa",
        "col1": "9",
        "col2": "1878-02-07",
        "col3": "428463261471",
        "col4": "294423569324"
    },
    {
        "col0": "1827 Atkinson",
        "col1": "12",
        "col2": "1962-09-07",
        "col3": "477516403274",
        "col4": "333438694003"
    },
    {
        "col0": "1826 Miller",
        "col1": "11",
        "col2": "1955-09-14",
        "col3": "485998602543",
        "col4": "409898165718"
    },
    {
        "col0": "1825 Klare",
        "col1": "11",
        "col2": "1954-08-31",
        "col3": "446624442974",
        "col4": "354531993771"
    },
    {
        "col0": "1824 Haworth",
        "col1": "11",
        "col2": "1952-03-30",
        "col3": "449855756981",
        "col4": "412875163344"
    },
    {
        "col0": "1823 Gliese",
        "col1": "12",
        "col2": "1951-09-04",
        "col3": "378183417129",
        "col4": "287811343439"
    },
    {
        "col0": "1822 Waterman",
        "col1": "13",
        "col2": "1950-07-25",
        "col3": "374443470362",
        "col4": "274766409114"
    },
    {
        "col0": "181 Eucharis",
        "col1": "7",
        "col2": "1878-02-02",
        "col3": "563445420204",
        "col4": "372917572080"
    },
    {
        "col0": "1818 Brahms",
        "col1": "13",
        "col2": "1939-08-15",
        "col3": "381594248581",
        "col4": "265850376020"
    },
    {
        "col0": "1817 Katanga",
        "col1": "11",
        "col2": "1939-06-20",
        "col3": "422613984727",
        "col4": "286779118131"
    },
    {
        "col0": "1815 Beethoven",
        "col1": "11",
        "col2": "1932-01-27",
        "col3": "560453462790",
        "col4": "383643739410"
    },
    {
        "col0": "18117 Jonhodge",
        "col1": "14",
        "col2": "2000-07-05",
        "col3": "382660507404",
        "col4": "320956277591"
    },
    {
        "col0": "1810 Epimetheus",
        "col1": "12",
        "col2": "1960-09-24",
        "col3": "363328348569",
        "col4": "302008181369"
    },
    {
        "col0": "180 Garumna",
        "col1": "10",
        "col2": "1878-01-29",
        "col3": "474554365434",
        "col4": "340170598184"
    },
    {
        "col0": "1809 Prometheus",
        "col1": "11",
        "col2": "1960-09-24",
        "col3": "482737368961",
        "col4": "392799129096"
    },
    {
        "col0": "1807 Slovakia",
        "col1": "12",
        "col2": "1971-08-20",
        "col3": "392320415910",
        "col4": "273898741464"
    },
    {
        "col0": "1806 Derice",
        "col1": "12",
        "col2": "1971-06-13",
        "col3": "370164971260",
        "col4": "299031183742"
    },
    {
        "col0": "1805 Dirikis",
        "col1": "11",
        "col2": "1970-04-01",
        "col3": "522320965549",
        "col4": "417273340743"
    },
    {
        "col0": "1804 Chebotarev",
        "col1": "12",
        "col2": "1967-04-06",
        "col3": "368339877237",
        "col4": "352811618258"
    },
    {
        "col0": "1803 Zwicky",
        "col1": "12",
        "col2": "1967-02-06",
        "col3": "438501278595",
        "col4": "264429196249"
    },
    {
        "col0": "1801 Titicaca",
        "col1": "11",
        "col2": "1952-09-23",
        "col3": "482886966832",
        "col4": "420714091769"
    },
    {
        "col0": "1800 Aguilar",
        "col1": "12",
        "col2": "1950-09-12",
        "col3": "400712856457",
        "col4": "304521425596"
    },
    {
        "col0": "17 Thetis",
        "col1": "7",
        "col2": "1852-04-17",
        "col3": "419069000000",
        "col4": "319991000000"
    },
    {
        "col0": "179 Klytaemnestra",
        "col1": "8",
        "col2": "1877-11-11",
        "col3": "495049273720",
        "col4": "393786475043"
    },
    {
        "col0": "1799 Koussevitzky",
        "col1": "11",
        "col2": "1950-07-25",
        "col3": "507256459969",
        "col4": "398453928609"
    },
    {
        "col0": "1798 Watts",
        "col1": "12",
        "col2": "1949-04-04",
        "col3": "369162665526",
        "col4": "288813649173"
    },
    {
        "col0": "1796 Riga",
        "col1": "9",
        "col2": "1966-05-16",
        "col3": "530369330992",
        "col4": "473447341191"
    },
    {
        "col0": "1793 Zoya",
        "col1": "12",
        "col2": "1968-02-28",
        "col3": "365123523017",
        "col4": "300302765643"
    },
    {
        "col0": "1791 Patsayev",
        "col1": "11",
        "col2": "1967-09-04",
        "col3": "469393238895",
        "col4": "353170653148"
    },
    {
        "col0": "1790 Volkov",
        "col1": "12",
        "col2": "1967-03-09",
        "col3": "368534354469",
        "col4": "301140513719"
    },
    {
        "col0": "178 Belisana",
        "col1": "9",
        "col2": "1877-11-06",
        "col3": "383913015577",
        "col4": "352288025711"
    },
    {
        "col0": "1789 Dobrovolsky",
        "col1": "12",
        "col2": "1966-08-19",
        "col3": "393636877172",
        "col4": "268617936628"
    },
    {
        "col0": "1788 Kiess",
        "col1": "11",
        "col2": "1952-07-25",
        "col3": "539629439189",
        "col4": "394250228442"
    },
    {
        "col0": "1784 Benguella",
        "col1": "12",
        "col2": "1935-06-30",
        "col3": "407728996592",
        "col4": "311747002751"
    },
    {
        "col0": "1783 Albitskij",
        "col1": "12",
        "col2": "1935-03-24",
        "col3": "450723424632",
        "col4": "346004915142"
    },
    {
        "col0": "1781 Van Biesbroeck",
        "col1": "12",
        "col2": "1906-10-17",
        "col3": "396928030328",
        "col4": "319466252879"
    },
    {
        "col0": "1780 Kippes",
        "col1": "10",
        "col2": "1906-09-12",
        "col3": "475407073297",
        "col4": "427057041487"
    },
    {
        "col0": "177 Irma",
        "col1": "9",
        "col2": "1877-11-05",
        "col3": "512522305018",
        "col4": "315801105047"
    },
    {
        "col0": "1779 Parana",
        "col1": "14",
        "col2": "1950-06-15",
        "col3": "377944060536",
        "col4": "272836596582"
    },
    {
        "col0": "17795 Elysiasegal",
        "col1": "14",
        "col2": "1998-03-20",
        "col3": "419173233701",
        "col4": "296547859088"
    },
    {
        "col0": "1778 Alfven",
        "col1": "11",
        "col2": "1960-09-26",
        "col3": "530967722475",
        "col4": "410885511664"
    },
    {
        "col0": "1777 Gehrels",
        "col1": "11",
        "col2": "1960-09-24",
        "col3": "399650711575",
        "col4": "386112104276"
    },
    {
        "col0": "1776 Kuiper",
        "col1": "11",
        "col2": "1960-09-24",
        "col3": "470260906545",
        "col4": "458023800722"
    },
    {
        "col0": "1772 Gagarin",
        "col1": "12",
        "col2": "1968-02-06",
        "col3": "417811893078",
        "col4": "338255745439"
    },
    {
        "col0": "1771 Makover",
        "col1": "10",
        "col2": "1968-01-24",
        "col3": "549368260571",
        "col4": "385079878968"
    },
    {
        "col0": "176 Iduna",
        "col1": "8",
        "col2": "1877-10-14",
        "col3": "557027671551",
        "col4": "396823311818"
    },
    {
        "col0": "1768 Appenzella",
        "col1": "12",
        "col2": "1965-09-23",
        "col3": "432098489729",
        "col4": "300946036487"
    },
    {
        "col0": "17683 Kanagawa",
        "col1": "12",
        "col2": "1997-01-10",
        "col3": "517025200926",
        "col4": "375700092475"
    },
    {
        "col0": "1767 Lampland",
        "col1": "12",
        "col2": "1962-09-07",
        "col3": "496904287317",
        "col4": "406053500441"
    },
    {
        "col0": "1766 Slipher",
        "col1": "12",
        "col2": "1962-09-07",
        "col3": "447312593180",
        "col4": "374937143335"
    },
    {
        "col0": "1765 Wrubel",
        "col1": "9",
        "col2": "1957-12-15",
        "col3": "559391317908",
        "col4": "391886582085"
    },
    {
        "col0": "1764 Cogshall",
        "col1": "11",
        "col2": "1953-11-07",
        "col3": "518850294948",
        "col4": "406726690859"
    },
    {
        "col0": "1763 Williams",
        "col1": "12",
        "col2": "1953-10-13",
        "col3": "394235268655",
        "col4": "260509732036"
    },
    {
        "col0": "1762 Russell",
        "col1": "11",
        "col2": "1953-10-08",
        "col3": "463663640447",
        "col4": "396524116077"
    },
    {
        "col0": "1761 Edmondson",
        "col1": "11",
        "col2": "1952-03-30",
        "col3": "585660704003",
        "col4": "364525131534"
    },
    {
        "col0": "1760 Sandra",
        "col1": "11",
        "col2": "1950-04-10",
        "col3": "531132280133",
        "col4": "410047763588"
    },
    {
        "col0": "175 Andromache",
        "col1": "8",
        "col2": "1877-10-01",
        "col3": "587381079516",
        "col4": "365647115564"
    },
    {
        "col0": "1759 Kienle",
        "col1": "13",
        "col2": "1942-09-11",
        "col3": "521198981518",
        "col4": "271101261282"
    },
    {
        "col0": "1757 Porvoo",
        "col1": "13",
        "col2": "1939-03-17",
        "col3": "396105242039",
        "col4": "307438584075"
    },
    {
        "col0": "1755 Lorbach",
        "col1": "10",
        "col2": "1936-11-08",
        "col3": "484562462984",
        "col4": "439982297515"
    },
    {
        "col0": "1754 Cunningham",
        "col1": "9",
        "col2": "1935-03-29",
        "col3": "689002913082",
        "col4": "489693669949"
    },
    {
        "col0": "1753 Mieke",
        "col1": "11",
        "col2": "1934-05-10",
        "col3": "487973294436",
        "col4": "413653072272"
    },
    {
        "col0": "1751 Herget",
        "col1": "11",
        "col2": "1955-07-27",
        "col3": "490277101645",
        "col4": "344134941758"
    },
    {
        "col0": "1750 Eckert",
        "col1": "13",
        "col2": "1950-07-15",
        "col3": "337986469272",
        "col4": "238488925469"
    },
    {
        "col0": "174 Phaedra",
        "col1": "8",
        "col2": "1877-09-02",
        "col3": "488556726132",
        "col4": "367591887884"
    },
    {
        "col0": "1749 Telamon",
        "col1": "9",
        "col2": "1949-09-23",
        "col3": "852992098944",
        "col4": "687521894163"
    },
    {
        "col0": "1748 Mauderli",
        "col1": "10",
        "col2": "1966-09-07",
        "col3": "720388546355",
        "col4": "455899510958"
    }
]