[
    {
        "col0": "Wyoming Legislature",
        "col1": "Wyoming House of Representatives",
        "col2": "Republican Party",
        "col3": "2012-11-06"
    },
    {
        "col0": "Wisconsin Legislature",
        "col1": "Wisconsin Senate",
        "col2": "Republican Party of Wisconsin",
        "col3": "2014-11-04"
    },
    {
        "col0": "West Virginia Legislature",
        "col1": "West Virginia House of Delegates",
        "col2": "West Virginia Republican Party",
        "col3": "2014-11-04"
    },
    {
        "col0": "Washington State Legislature",
        "col1": "Washington State Senate",
        "col2": "Democratic Party of Washington",
        "col3": "2014-11-04"
    },
    {
        "col0": "Virginia General Assembly",
        "col1": "Virginia House of Delegates",
        "col2": "Democratic Party of Virginia",
        "col3": "2015-11-03"
    },
    {
        "col0": "Vermont General Assembly",
        "col1": "Vermont Senate",
        "col2": "Republican Party of Vermont",
        "col3": "2014-11-04"
    },
    {
        "col0": "Utah State Legislature",
        "col1": "Utah House of Representatives",
        "col2": "Republican Party",
        "col3": "2014-11-04"
    },
    {
        "col0": "United States Congress",
        "col1": "United States House of Representatives",
        "col2": "Democratic Party",
        "col3": "2014-11-04"
    },
    {
        "col0": "Tower Hamlets London Borough Council",
        "col1": "Unicameral",
        "col2": "Labour Party",
        "col3": "2014-05-22"
    },
    {
        "col0": "Torbay Council",
        "col1": "Unicameral",
        "col2": "Conservative Party",
        "col3": "2011-05-05"
    },
    {
        "col0": "Texas Legislature",
        "col1": "Texas House of Representatives",
        "col2": "Republican Party of Texas",
        "col3": "2014-11-04"
    },
    {
        "col0": "Supreme Assembly",
        "col1": "Assembly of Representatives",
        "col2": "People's Democratic Party of Tajikistan",
        "col3": "2015-03-01"
    },
    {
        "col0": "States General of the Netherlands",
        "col1": "House of Representatives",
        "col2": "People's Party for Freedom and Democracy",
        "col3": "2012-09-12"
    },
    {
        "col0": "St Helens Metropolitan Borough Council",
        "col1": "Unicameral",
        "col2": "Labour Party",
        "col3": "2015-05-07"
    },
    {
        "col0": "South Hams District Council",
        "col1": "Unicameral",
        "col2": "Conservative Party",
        "col3": "2015-05-07"
    },
    {
        "col0": "South Dakota Legislature",
        "col1": "South Dakota House of Representatives",
        "col2": "Republican Party",
        "col3": "2014-11-04"
    },
    {
        "col0": "Rhode Island General Assembly",
        "col1": "Rhode Island House of Representatives",
        "col2": "Rhode Island Democratic Committee",
        "col3": "2012-11-06"
    },
    {
        "col0": "Poole Borough Council",
        "col1": "Unicameral",
        "col2": "Conservative Party",
        "col3": "2015-05-07"
    },
    {
        "col0": "Plurinational Legislative Assembly",
        "col1": "Senate of Bolivia",
        "col2": "Movement for Socialism",
        "col3": "2014-10-05"
    },
    {
        "col0": "People's Consultative Assembly",
        "col1": "People's Representative Council",
        "col2": "National Mandate Party",
        "col3": "2014-04-09"
    },
    {
        "col0": "Pennsylvania General Assembly",
        "col1": "Pennsylvania House of Representatives",
        "col2": "Democratic Party of Pennsylvania",
        "col3": "2014-11-04"
    }
]