[
    {
        "col0": "R. Coleman",
        "col1": "Leicester",
        "col2": "United Kingdom",
        "col3": "United Kingdom",
        "col4": "1996-09-10",
        "col5": "1996"
    },
    {
        "col0": "M. Bibaud",
        "col1": "Montreal",
        "col2": "Canadians",
        "col3": "Canadians",
        "col4": "1857-08-03",
        "col5": "1857"
    },
    {
        "col0": "J. Donaldson",
        "col1": "Ontario",
        "col2": "Canada",
        "col3": "Canada",
        "col4": "2006-09-07",
        "col5": "2006"
    },
    {
        "col0": "E. Josie",
        "col1": "Eagle, Alaska",
        "col2": "Canada",
        "col3": "Canada",
        "col4": "2010-01-31",
        "col5": "2010"
    },
    {
        "col0": "C. Poirier",
        "col1": "Montreal",
        "col2": "Canada",
        "col3": "Canada",
        "col4": "1968-01-12",
        "col5": "1968"
    },
    {
        "col0": "A. Dunnett",
        "col1": "Scotland",
        "col2": "Scotland",
        "col3": "Scotland",
        "col4": "1998-09-02",
        "col5": "1998"
    }
]