[
    {
        "col0": "Ventromedial nucleus of the hypothalamus",
        "col1": "Hypothalamus",
        "col2": "Ventromedial+Hypothalamic+Nucleus",
        "col3": "hier",
        "col4": "n_11"
    },
    {
        "col0": "Subthalamic nucleus",
        "col1": "Basal ganglia",
        "col2": "Subthalamic+Nucleus",
        "col3": "hier",
        "col4": "n_11"
    },
    {
        "col0": "Putamen",
        "col1": "Dorsal striatum",
        "col2": "Putamen",
        "col3": "hier",
        "col4": "p_43"
    },
    {
        "col0": "Pulvinar nuclei",
        "col1": "Thalamus",
        "col2": "Pulvinar",
        "col3": "hier",
        "col4": "p_42"
    },
    {
        "col0": "Nucleus accumbens",
        "col1": "Basal ganglia",
        "col2": "Nucleus+Accumbens",
        "col3": "hier",
        "col4": "n_11"
    },
    {
        "col0": "Medulla oblongata",
        "col1": "Brain stem",
        "col2": "Medulla+Oblongata",
        "col3": "hier",
        "col4": "m_06"
    },
    {
        "col0": "Hippocampus",
        "col1": "Temporal lobe",
        "col2": "Hippocampus",
        "col3": "hier",
        "col4": "h_12"
    },
    {
        "col0": "Brainstem",
        "col1": "Brain",
        "col2": "Brain+Stem",
        "col3": "ancil",
        "col4": "b_21"
    },
    {
        "col0": "Basal ganglia",
        "col1": "Cerebrum",
        "col2": "Basal+Ganglia",
        "col3": "hier",
        "col4": "n_11"
    },
    {
        "col0": "Arcuate nucleus",
        "col1": "Hypothalamus",
        "col2": "Arcuate+nucleus",
        "col3": "hier",
        "col4": "n_11"
    },
    {
        "col0": "Arachnoid mater",
        "col1": "Meninges",
        "col2": "Arachnoid",
        "col3": "ancil",
        "col4": "a_56"
    },
    {
        "col0": "Anterior nuclei of thalamus",
        "col1": "Thalamus",
        "col2": "Anterior+Thalamic+Nuclei",
        "col3": "hier",
        "col4": "n_11"
    }
]