[
    {
        "col0": "E. Smet",
        "col1": "France",
        "col2": "P. P. XII",
        "col3": "1871"
    },
    {
        "col0": "Enrique de Osso i Cervello",
        "col1": "Tarragona",
        "col2": "Pope John Paul II",
        "col3": "1896"
    },
    {
        "col0": "E. Alfieri",
        "col1": "Kingdom of Italy",
        "col2": "A. Amato",
        "col3": "1951"
    },
    {
        "col0": "E. Unzeitig",
        "col1": "Czech Republic",
        "col2": "A. Amato",
        "col3": "1945"
    },
    {
        "col0": "E. Uffing",
        "col1": "German Empire",
        "col2": "Pope John Paul II",
        "col3": "1955"
    },
    {
        "col0": "E. Bicchieri",
        "col1": "Duchy of Savoy",
        "col2": "P. C. XIV",
        "col3": "1314"
    },
    {
        "col0": "Elizabeth of the Trinity",
        "col1": "France",
        "col2": "Pope John Paul II",
        "col3": "1906"
    },
    {
        "col0": "E. o. Reute",
        "col1": "Bad Waldsee",
        "col2": "P. C. XIII",
        "col3": "1420"
    },
    {
        "col0": "E. Hesselblad",
        "col1": "Vastra Gotaland County",
        "col2": "Pope John Paul II",
        "col3": "1957"
    },
    {
        "col0": "E. A. Seton",
        "col1": "British Empire",
        "col2": "P. J. XXIII",
        "col3": "1821"
    },
    {
        "col0": "E. Vendramini",
        "col1": "Republic of Venice",
        "col2": "Pope John Paul II",
        "col3": "1860"
    },
    {
        "col0": "E. Sanna",
        "col1": "Kingdom of Sardinia",
        "col2": "A. Amato",
        "col3": "1857"
    },
    {
        "col0": "E. Picenardi",
        "col1": "Mantua",
        "col2": "P. P. VII",
        "col3": "1468"
    },
    {
        "col0": "E. M. Satellico",
        "col1": "Republic of Venice",
        "col2": "Pope John Paul II",
        "col3": "1745"
    },
    {
        "col0": "E. C. Mora",
        "col1": "Papal States",
        "col2": "Pope John Paul II",
        "col3": "1825"
    }
]