[
    {
        "col0": "R. Goupil",
        "col1": "Saint-Martin-du-Bois, Gironde",
        "col2": "P. P. XI",
        "col3": "1642"
    },
    {
        "col0": "R. o. Penyafort",
        "col1": "Vilafranca del Penedes",
        "col2": "P. P. III",
        "col3": "1275"
    },
    {
        "col0": "R. o. Capua",
        "col1": "Capua",
        "col2": "P. L. XIII",
        "col3": "1399"
    },
    {
        "col0": "R. Rafiringa",
        "col1": "Madagascar",
        "col2": "A. Amato",
        "col3": "1919"
    },
    {
        "col0": "R. Kalinowski",
        "col1": "Russian Empire",
        "col2": "Pope John Paul II",
        "col3": "1907"
    },
    {
        "col0": "R. Rafiringa",
        "col1": "Madagascar",
        "col2": "A. Amato",
        "col3": "1919"
    },
    {
        "col0": "R. Llull",
        "col1": "Kingdom of Majorca",
        "col2": "P. P. IX",
        "col3": "1315"
    },
    {
        "col0": "R. Sherwin",
        "col1": "Derbyshire",
        "col2": "P. L. XIII",
        "col3": "1581"
    },
    {
        "col0": "Rafqa Pietra Choboq Ar-Rayes",
        "col1": "Matn District",
        "col2": "Pope John Paul II",
        "col3": "1914"
    },
    {
        "col0": "Rafaela Ybarra de Vilallonga",
        "col1": "Spain",
        "col2": "J. P. II",
        "col3": "1900"
    },
    {
        "col0": "R. P. Ayllon",
        "col1": "Cordoba, Spain",
        "col2": "P. P. XII",
        "col3": "1925"
    },
    {
        "col0": "Rafael Guizar y Valencia",
        "col1": "Michoacan",
        "col2": "Pope John Paul II",
        "col3": "1938"
    },
    {
        "col0": "R. A. Baron",
        "col1": "Burgos",
        "col2": "Pope John Paul II",
        "col3": "1938"
    },
    {
        "col0": "P. M. Pirrotti",
        "col1": "Avellino",
        "col2": "P. L. XIII",
        "col3": "1766"
    },
    {
        "col0": "P. Viel",
        "col1": "Bourbon Restoration",
        "col2": "P. P. XII",
        "col3": "1877"
    },
    {
        "col0": "P. Puglisi",
        "col1": "Kingdom of Italy",
        "col2": "S. D. Giorgi",
        "col3": "1993"
    },
    {
        "col0": "P. Pettinaio",
        "col1": "Republic of Florence",
        "col2": "P. P. VII",
        "col3": "1289"
    },
    {
        "col0": "P. I. Orseolo",
        "col1": "Republic of Venice",
        "col2": "Arnulf",
        "col3": "987"
    },
    {
        "col0": "P. Gambacorta",
        "col1": "Pisa",
        "col2": "P. I. XII",
        "col3": "1435"
    },
    {
        "col0": "P. Corradini",
        "col1": "Papal States",
        "col2": "P. C. XIII",
        "col3": "1490"
    },
    {
        "col0": "P. Casani",
        "col1": "Lucca",
        "col2": "Pope John Paul II",
        "col3": "1647"
    },
    {
        "col0": "P. Bonilli",
        "col1": "Papal States",
        "col2": "Pope John Paul II",
        "col3": "1935"
    },
    {
        "col0": "P. Vigne",
        "col1": "France",
        "col2": "Pope John Paul II",
        "col3": "1740"
    },
    {
        "col0": "P. Dumoulin-Borie",
        "col1": "Beynat",
        "col2": "P. L. XIII",
        "col3": "1838"
    },
    {
        "col0": "P. Bonhomme",
        "col1": "First French Empire",
        "col2": "Pope John Paul II",
        "col3": "1861"
    },
    {
        "col0": "P. Rogue",
        "col1": "Kingdom of France",
        "col2": "P. P. XI",
        "col3": "1796"
    },
    {
        "col0": "P. Cassant",
        "col1": "French Third Republic",
        "col2": "Pope John Paul II",
        "col3": "1903"
    },
    {
        "col0": "P. Jamet",
        "col1": "Kingdom of France",
        "col2": "Pope John Paul II",
        "col3": "1845"
    },
    {
        "col0": "P. Toulorge",
        "col1": "Kingdom of France",
        "col2": "A. Amato",
        "col3": "1793"
    },
    {
        "col0": "P. Morosini",
        "col1": "Bergamo",
        "col2": "Pope John Paul II",
        "col3": "1957"
    },
    {
        "col0": "P. G. Frassati",
        "col1": "Kingdom of Italy",
        "col2": "Pope John Paul II",
        "col3": "1925"
    },
    {
        "col0": "P. Mareri",
        "col1": "Petrella Salto",
        "col2": "I. IV",
        "col3": "1236"
    },
    {
        "col0": "P. o. Jesus",
        "col1": "Mexico City",
        "col2": "P. U. VIII",
        "col3": "1597"
    },
    {
        "col0": "P. Neri",
        "col1": "Florence",
        "col2": "P. P. V",
        "col3": "1595"
    },
    {
        "col0": "Philip Benizi de Damiani",
        "col1": "Oltrarno",
        "col2": "P. I. X",
        "col3": "1285"
    },
    {
        "col0": "Peter of Saint Joseph de Betancur",
        "col1": "Spanish Empire",
        "col2": "Pope John Paul II",
        "col3": "1667"
    },
    {
        "col0": "Peter of Jesus Maldonado",
        "col1": "Chihuahua City",
        "col2": "St. John Paul II",
        "col3": "1937"
    },
    {
        "col0": "P. o. Alcantara",
        "col1": "Spain",
        "col2": "P. G. XV",
        "col3": "1562"
    },
    {
        "col0": "P. d. Regalado",
        "col1": "Spain",
        "col2": "P. I. XI",
        "col3": "1456"
    },
    {
        "col0": "P. T. Rot",
        "col1": "Papua New Guinea",
        "col2": "Pope John Paul II",
        "col3": "1945"
    }
]