[
    {
        "col0": "You Are the Girl",
        "col1": "R. Ocasek",
        "col2": "The Cars",
        "col3": "232",
        "col4": "\"Ta Ta Wayo Wayo\""
    },
    {
        "col0": "You Are What You Is",
        "col1": "F. Zappa",
        "col2": "Frank Zappa",
        "col3": "263",
        "col4": "\"Harder Than Your Husband\""
    },
    {
        "col0": "You Are What I Am",
        "col1": "G. Lightfoot",
        "col2": "Gordon Lightfoot",
        "col3": "157",
        "col4": "\"That Same Old Obsession\""
    },
    {
        "col0": "You Are Everything",
        "col1": "L. Creed",
        "col2": "Diana Ross",
        "col3": "175",
        "col4": "\"Country Living\""
    },
    {
        "col0": "You Are",
        "col1": "L. Richie",
        "col2": "Lionel Richie",
        "col3": "240",
        "col4": "You Mean More to Me"
    },
    {
        "col0": "You Almost Slipped My Mind",
        "col1": "T. Seals",
        "col2": "Charley Pride",
        "col3": "166",
        "col4": "\"Ghost-Written Love Letters\""
    },
    {
        "col0": "You All Goodnight",
        "col1": "G. Jones",
        "col2": "George Jones",
        "col3": "124",
        "col4": "Let Him Know"
    },
    {
        "col0": "You Ain't Woman Enough",
        "col1": "L. Lynn",
        "col2": "Loretta Lynn",
        "col3": "131",
        "col4": "\"God Gave Me a Heart to Forgive\""
    },
    {
        "col0": "You Ain't Seen Nothing Yet",
        "col1": "R. Bachman",
        "col2": "Bachman-Turner Overdrive",
        "col3": "7",
        "col4": "\"Free Wheelin'\""
    },
    {
        "col0": "You Ain't Much Fun",
        "col1": "T. Keith",
        "col2": "Toby Keith",
        "col3": "146",
        "col4": "\"Life Was a Play\""
    },
    {
        "col0": "You",
        "col1": "T. Lever",
        "col2": "S Club",
        "col3": "206",
        "col4": "\"The Long and Winding Road\""
    },
    {
        "col0": "You",
        "col1": "T. Snow",
        "col2": "Marcia Hines",
        "col3": "187",
        "col4": "\"In a Mellow Mood\""
    },
    {
        "col0": "You",
        "col1": "R. E. Jr.",
        "col2": "Janet Jackson",
        "col3": "282",
        "col4": "\"Accept Me\""
    },
    {
        "col0": "You",
        "col1": "G. Harrison",
        "col2": "George Harrison",
        "col3": "224",
        "col4": "\"World of Stone\""
    },
    {
        "col0": "You",
        "col1": "Candlebox",
        "col2": "Candlebox",
        "col3": "299",
        "col4": "Pull Away"
    },
    {
        "col0": "You & I",
        "col1": "G. Coxon",
        "col2": "Graham Coxon",
        "col3": "223",
        "col4": "\"Click Click Click\","
    },
    {
        "col0": "You've Still Got a Place in My Heart",
        "col1": "L. Payne",
        "col2": "George Jones",
        "col3": "170",
        "col4": "\"I'm Ragged but I'm Right\""
    },
    {
        "col0": "You've Really Got a Hold on Me",
        "col1": "S. Robinson",
        "col2": "The Miracles",
        "col3": "182",
        "col4": "\"You've Really Got A Hold on Me\""
    },
    {
        "col0": "You've Never Been This Far Before",
        "col1": "C. Twitty",
        "col2": "Conway Twitty",
        "col3": "182",
        "col4": "\"You Make It Hard (To Take the Easy Way Out)\""
    },
    {
        "col0": "You've Made Me So Very Happy",
        "col1": "B. G. Jr.",
        "col2": "Blood, Sweat & Tears",
        "col3": "7",
        "col4": "\"Blues - Part II\""
    },
    {
        "col0": "You've Lost That Lovin' Feelin'",
        "col1": "B. Mann",
        "col2": "Cilla Black",
        "col3": "182",
        "col4": "\"Baldry's Out\""
    },
    {
        "col0": "You've Got to Talk to Me",
        "col1": "J. O'Hara",
        "col2": "Lee Ann Womack",
        "col3": "218",
        "col4": "\"A Man with 18 Wheels\""
    },
    {
        "col0": "You've Got to Stand for Something",
        "col1": "A. Tippin",
        "col2": "Aaron Tippin",
        "col3": "184",
        "col4": "\"Up Against You\""
    },
    {
        "col0": "You've Got a Habit of Leaving",
        "col1": "D. Bowie",
        "col2": "David Bowie",
        "col3": "155",
        "col4": "\"Baby Loves That Way\""
    },
    {
        "col0": "You've Got a Good Love Comin'",
        "col1": "V. Stephenson",
        "col2": "Lee Greenwood",
        "col3": "175",
        "col4": "\"Even Love Can't Save Us Now\""
    },
    {
        "col0": "You've Got Your Troubles",
        "col1": "R. Greenaway",
        "col2": "The Fortunes",
        "col3": "203",
        "col4": "\"I've Gotta Go\""
    },
    {
        "col0": "You've Got That Somethin'",
        "col1": "Robyn",
        "col2": "Robyn",
        "col3": "224",
        "col4": "\"I Wish\""
    },
    {
        "col0": "You've Got Something on Your Mind",
        "col1": "N. Wilson",
        "col2": "Mickey Gilley",
        "col3": "169",
        "col4": "\"I Feel Good About Lovin' You"
    },
    {
        "col0": "You've Got Me to Hold On To",
        "col1": "D. Loggins",
        "col2": "Tanya Tucker",
        "col3": "185",
        "col4": "\"Ain't That a Shame\""
    },
    {
        "col0": "You've Got It Bad",
        "col1": "O. C. Scene",
        "col2": "Ocean Colour Scene",
        "col3": "266",
        "col4": "Robin Hood, I Wanna Stay Alive With You, Huckleberry Grove"
    },
    {
        "col0": "You've Got Another Thing Comin'",
        "col1": "G. Tipton",
        "col2": "Judas Priest",
        "col3": "307",
        "col4": "\"Exciter (live)\""
    },
    {
        "col0": "You're the Voice",
        "col1": "M. Ryder",
        "col2": "Alan Parsons",
        "col3": "304",
        "col4": "\"Going, Going, Gone\""
    },
    {
        "col0": "You're the Reason God Made Oklahoma",
        "col1": "Felice and Boudleaux Bryant",
        "col2": "David Frizzell",
        "col3": "204",
        "col4": "\"That's Where Lovers Go Wrong\""
    },
    {
        "col0": "You're the Only Woman",
        "col1": "D. Pack",
        "col2": "Ambrosia",
        "col3": "260",
        "col4": "\"Shape I'm In\""
    },
    {
        "col0": "You're the Only One",
        "col1": "C. B. Sager",
        "col2": "Dolly Parton",
        "col3": "203",
        "col4": "\"Down\""
    }
]