[
    {
        "col0": "Sweet Catomine",
        "col1": "Storm Bird",
        "col2": "Kris S",
        "col3": "M. Wygod"
    },
    {
        "col0": "Swale",
        "col1": "Bold Reasoning",
        "col2": "Forli",
        "col3": "C. Farm"
    },
    {
        "col0": "Swain",
        "col1": "Blushing Groom",
        "col2": "Key To The Mint",
        "col3": "Mohammed bin Rashid Al Maktoum"
    },
    {
        "col0": "Surplice",
        "col1": "Camel",
        "col2": "Priam",
        "col3": "L. G. Bentinck"
    },
    {
        "col0": "Surfside",
        "col1": "Bold Reasoning",
        "col2": "Seeking The Gold",
        "col3": "O. Farm"
    },
    {
        "col0": "Superstar Leo",
        "col1": "Sharpo",
        "col2": "General Assembly",
        "col3": "L. Piggott"
    },
    {
        "col0": "Sunshine Forever",
        "col1": "Hail To Reason",
        "col2": "Graustark",
        "col3": "J. W. Galbreath"
    },
    {
        "col0": "Sunshack",
        "col1": "Blushing Groom",
        "col2": "Roberto",
        "col3": "J. Farms"
    },
    {
        "col0": "Sun Stream",
        "col1": "Gainsborough",
        "col2": "Swynford",
        "col3": "Edward Stanley, 17th Earl of Derby"
    },
    {
        "col0": "Sun Princess",
        "col1": "Petingo",
        "col2": "Val de Loir",
        "col3": "B. Stud"
    },
    {
        "col0": "Sun Briar",
        "col1": "Amphion",
        "col2": "St. Frusquin",
        "col3": "M. Boussac"
    },
    {
        "col0": "Summer Squall",
        "col1": "Northern Dancer",
        "col2": "Secretariat",
        "col3": "William Stamps Farish III"
    },
    {
        "col0": "Sultanina",
        "col1": "Galileo",
        "col2": "Zafonic",
        "col3": "N. Stud"
    },
    {
        "col0": "Sulamani",
        "col1": "Niniski",
        "col2": "Alleged",
        "col3": "S. Niarchos"
    },
    {
        "col0": "Successor",
        "col1": "Nasrullah",
        "col2": "Princequillo",
        "col3": "W. Stable"
    },
    {
        "col0": "Suave Dancer",
        "col1": "Nijinsky II",
        "col2": "Alleged",
        "col3": "X. Farm"
    },
    {
        "col0": "Stuka",
        "col1": "Mr. Prospector",
        "col2": "Caerleon II",
        "col3": "A. E. Paulson"
    },
    {
        "col0": "Student Council",
        "col1": "Mr. Prospector",
        "col2": "Kris S",
        "col3": "William S. Farish III"
    },
    {
        "col0": "Street Cry",
        "col1": "Mr. Prospector",
        "col2": "Troy",
        "col3": "Sheikh Mohammed bin Rashid Al Maktoum"
    },
    {
        "col0": "Storm Song",
        "col1": "Storm Bird",
        "col2": "Fappiano",
        "col3": "William Stamps Farish III"
    },
    {
        "col0": "Storm Flag Flying",
        "col1": "Storm Bird",
        "col2": "Easy Goer",
        "col3": "O. Phipps"
    },
    {
        "col0": "Storm Bird",
        "col1": "Nearctic",
        "col2": "New Providence",
        "col3": "W. Farm"
    },
    {
        "col0": "Stop The Music",
        "col1": "Turn-To",
        "col2": "Tom Fool",
        "col3": "G. Stable"
    },
    {
        "col0": "Steady Growth",
        "col1": "Nearctic",
        "col2": "Crepello",
        "col3": "K. Farms"
    },
    {
        "col0": "Stately Victor",
        "col1": "Awesome Again",
        "col2": "Dynaformer",
        "col3": "A. Springs"
    },
    {
        "col0": "Starborough",
        "col1": "Nureyev",
        "col2": "Desert Wine",
        "col3": "S. Mohammed"
    },
    {
        "col0": "Star of Seville",
        "col1": "Danehill",
        "col2": "War Chant",
        "col3": "L. Bamford"
    },
    {
        "col0": "Stagehand",
        "col1": "Phalaris",
        "col2": "Fair Play",
        "col3": "J. E. Widener"
    },
    {
        "col0": "Stage Door Johnny",
        "col1": "Princequillo",
        "col2": "Ballymoss",
        "col3": "G. Stable"
    },
    {
        "col0": "St Paddy",
        "col1": "Hyperion",
        "col2": "Bois Roussel",
        "col3": "V. Sassoon"
    },
    {
        "col0": "St. Simon",
        "col1": "Vedette",
        "col2": "King Tom",
        "col3": "G. Batthyany"
    },
    {
        "col0": "Square Eddie",
        "col1": "Mr. Prospector",
        "col2": "El Gran Senor",
        "col3": "K. Farms"
    },
    {
        "col0": "Springbok",
        "col1": "West Australian",
        "col2": "Lexington",
        "col3": "W. Stud"
    },
    {
        "col0": "Spinning World",
        "col1": "Northern Dancer",
        "col2": "Riverman",
        "col3": "S. Niarchos"
    },
    {
        "col0": "Spinning Queen",
        "col1": "Nureyev",
        "col2": "Arazi",
        "col3": "Richard A. N. Bonnycastle"
    },
    {
        "col0": "Spendthrift",
        "col1": "West Australian",
        "col2": "Lexington",
        "col3": "W. Stud"
    },
    {
        "col0": "Spectrum",
        "col1": "Blushing Groom",
        "col2": "Irish River",
        "col3": "B. Stud"
    },
    {
        "col0": "Special Duty",
        "col1": "Storm Cat",
        "col2": "Distant View",
        "col3": "J. Farms"
    },
    {
        "col0": "Spearmint",
        "col1": "Musket",
        "col2": "Minting",
        "col3": "S. baronets"
    },
    {
        "col0": "Spanish Moon",
        "col1": "Sadler's Wells",
        "col2": "Rainbow Quest",
        "col3": "J. Farms"
    },
    {
        "col0": "Soviet Song",
        "col1": "Last Tycoon",
        "col2": "Soviet Star",
        "col3": "E. R. Club"
    },
    {
        "col0": "Sovereign Dancer",
        "col1": "Nearctic",
        "col2": "Bold Ruler",
        "col3": "O. M. Phipps"
    },
    {
        "col0": "Southern Image",
        "col1": "Halo",
        "col2": "Dixieland Band",
        "col3": "A. Appleton"
    },
    {
        "col0": "Southern Halo",
        "col1": "Hail To Reason",
        "col2": "Northern Dancer",
        "col3": "E. P. Taylor"
    },
    {
        "col0": "Sophisticat",
        "col1": "Storm Bird",
        "col2": "Rahy",
        "col3": "Robert and Beverly Lewis"
    },
    {
        "col0": "Son of Briartic",
        "col1": "Nearctic",
        "col2": "Round Table",
        "col3": "E. P. Taylor"
    },
    {
        "col0": "Solemia",
        "col1": "Sadler's Wells",
        "col2": "Shirley Heights",
        "col3": "W. e. Frere"
    },
    {
        "col0": "Soldier of Fortune",
        "col1": "Sadler's Wells",
        "col2": "Erins Isle",
        "col3": "J. Bolger"
    },
    {
        "col0": "Soaring Softly",
        "col1": "Roberto",
        "col2": "Key to the Mint",
        "col3": "D. D. Farm"
    },
    {
        "col0": "Soaring Free",
        "col1": "Mr. Prospector",
        "col2": "Danzig",
        "col3": "S. Farm"
    },
    {
        "col0": "So Factual",
        "col1": "In Reality",
        "col2": "Roberto",
        "col3": "J. Farms"
    },
    {
        "col0": "Snow Bride",
        "col1": "Red God",
        "col2": "Snow Knight",
        "col3": "D. Stud"
    },
    {
        "col0": "Snip",
        "col1": "Darley Arabian",
        "col2": "Basto",
        "col3": "William Cavendish, 3rd Duke of Devonshire"
    },
    {
        "col0": "Smart Strike",
        "col1": "Raise a Native",
        "col2": "Smarten",
        "col3": "S. Farm"
    },
    {
        "col0": "Slew o' Gold",
        "col1": "Bold Reasoning",
        "col2": "Buckpasser",
        "col3": "C. Farm"
    },
    {
        "col0": "Skyscraper",
        "col1": "Herod",
        "col2": "Eclipse",
        "col3": "Francis Russell, 5th Duke of Bedford"
    },
    {
        "col0": "Sky Classic",
        "col1": "Northern Dancer",
        "col2": "Nodouble",
        "col3": "S. Farm"
    },
    {
        "col0": "Siyouma",
        "col1": "Machiavellian",
        "col2": "Danehill",
        "col3": "A. K. IV"
    },
    {
        "col0": "Sir Peter Teazle",
        "col1": "Herod",
        "col2": "Snap",
        "col3": "Edward Smith-Stanley, 12th Earl of Derby"
    },
    {
        "col0": "Sir Gaylord",
        "col1": "Royal Charger",
        "col2": "Princequillo",
        "col3": "M. Farm"
    },
    {
        "col0": "Sir Gallahad",
        "col1": "Ajax",
        "col2": "Spearmint",
        "col3": "J. D. Cohn"
    },
    {
        "col0": "Sir Barton",
        "col1": "Isinglass",
        "col2": "Hanover",
        "col3": "J. E. Madden"
    },
    {
        "col0": "Sinndar",
        "col1": "Chief's Crown",
        "col2": "Lashkari",
        "col3": "A. K. IV"
    },
    {
        "col0": "Singspiel",
        "col1": "Sadler's Wells",
        "col2": "Halo",
        "col3": "Mohammed bin Rashid Al Maktoum"
    },
    {
        "col0": "Silver Spoon",
        "col1": "Bull Lea",
        "col2": "Mahmoud",
        "col3": "C. V. Whitney"
    },
    {
        "col0": "Silver Knight",
        "col1": "Alycidon",
        "col2": "Foxbridge",
        "col3": "T. Stud"
    },
    {
        "col0": "Sightseek",
        "col1": "Mr. Prospector",
        "col2": "Nureyev",
        "col3": "J. Farms"
    },
    {
        "col0": "Sherluck",
        "col1": "Khaled",
        "col2": "Dante",
        "col3": "L. W. Tippett"
    },
    {
        "col0": "Sheriff's Star",
        "col1": "Forli",
        "col2": "Kalamoun",
        "col3": "Lavinia Fitzalan-Howard, Duchess of Norfolk"
    },
    {
        "col0": "Shavian",
        "col1": "Sharpen Up",
        "col2": "Nijinsky",
        "col3": "John Scott-Ellis, 9th Baron Howard de Walden"
    },
    {
        "col0": "Sharp Cat",
        "col1": "Storm Bird",
        "col2": "Ack Ack",
        "col3": "J. A. Franks"
    },
    {
        "col0": "Shareta",
        "col1": "Grand Lodge",
        "col2": "Barathea",
        "col3": "A. K. IV"
    },
    {
        "col0": "Shamshir",
        "col1": "Sharpen Up",
        "col2": "Be My Guest",
        "col3": "L. Cumani"
    },
    {
        "col0": "Shaman Ghost",
        "col1": "Awesome Again",
        "col2": "Gilded Time",
        "col3": "A. Springs"
    },
    {
        "col0": "Shahrastani",
        "col1": "Northern Dancer",
        "col2": "Thatch",
        "col3": "A. K. IV"
    },
    {
        "col0": "Shackleford",
        "col1": "Storm Cat",
        "col2": "Unbridled",
        "col3": "B. Cubbedge"
    },
    {
        "col0": "Sette Bello",
        "col1": "Tenerani",
        "col2": "Bull Dog",
        "col3": "R. Lehman"
    },
    {
        "col0": "Sensational",
        "col1": "Tom Rolfe",
        "col2": "Bold Ruler",
        "col3": "M. H. Stable"
    },
    {
        "col0": "Seeking The Gold",
        "col1": "Raise a Native",
        "col2": "Buckpasser",
        "col3": "O. Phipps"
    },
    {
        "col0": "Seek Again",
        "col1": "Gone West",
        "col2": "Danehill",
        "col3": "J. Farms"
    },
    {
        "col0": "Secreto",
        "col1": "Nearctic",
        "col2": "Secretariat",
        "col3": "E. P. Taylor"
    },
    {
        "col0": "Secretariat",
        "col1": "Nasrullah",
        "col2": "Princequillo",
        "col3": "C. Chenery"
    },
    {
        "col0": "Searching",
        "col1": "Man o' War",
        "col2": "Black Toney",
        "col3": "O. Phipps"
    },
    {
        "col0": "Sealy Hill",
        "col1": "Thunder Gulch",
        "col2": "Boston Harbor",
        "col3": "E. Melnyk"
    },
    {
        "col0": "Sea Moon",
        "col1": "Sadler's Wells",
        "col2": "Alleged",
        "col3": "J. Farms"
    },
    {
        "col0": "Sea Hero",
        "col1": "Danzig",
        "col2": "Graustark",
        "col3": "P. Mellon"
    },
    {
        "col0": "Sceptre",
        "col1": "St. Simon",
        "col2": "Bend Or",
        "col3": "Hugh Grosvenor, 1st Duke of Westminster"
    },
    {
        "col0": "Saratoga Dew",
        "col1": "His Majesty",
        "col2": "In Reality",
        "col3": "P. Chenery"
    },
    {
        "col0": "San San",
        "col1": "Nasrullah",
        "col2": "Princequillo",
        "col3": "H. F. Guggenheim"
    },
    {
        "col0": "Saltram",
        "col1": "Marske",
        "col2": "Snap",
        "col3": "John Parker, 1st Baron Boringdon"
    },
    {
        "col0": "Sakhee",
        "col1": "Riverman",
        "col2": "Sadler's Wells",
        "col3": "Hamdan bin Rashid Al Maktoum"
    },
    {
        "col0": "Saint Ballado",
        "col1": "Hail to Reason",
        "col2": "Herbager",
        "col3": "W. Farm"
    },
    {
        "col0": "Sagamix",
        "col1": "Mendez",
        "col2": "Sagace",
        "col3": "J. Lagardere"
    },
    {
        "col0": "Saddlers' Hall",
        "col1": "Northern Dancer",
        "col2": "Val de Loir",
        "col3": "B. Stud"
    },
    {
        "col0": "Sacahuista",
        "col1": "Bold Ruler",
        "col2": "Hoist The Flag",
        "col3": "William S. Farish III"
    },
    {
        "col0": "Ryafan",
        "col1": "Roberto",
        "col2": "Northern Dancer",
        "col3": "J. Farms"
    },
    {
        "col0": "Run the Gantlet",
        "col1": "Ribot",
        "col2": "First Landing",
        "col3": "P. Mellon"
    }
]