[
    {
        "col0": "Tete a Pierre Grept",
        "col1": "Bernese Alps",
        "col2": "Switzerland",
        "col3": "2904"
    },
    {
        "col0": "Taschhorn",
        "col1": "Pennine Alps",
        "col2": "Switzerland",
        "col3": "4491"
    },
    {
        "col0": "Tallihorn",
        "col1": "Pennine Alps",
        "col2": "Switzerland",
        "col3": "3448"
    },
    {
        "col0": "Tampa, Brasov",
        "col1": "Carpathian Mountains",
        "col2": "Romania",
        "col3": "960"
    },
    {
        "col0": "Sullberg",
        "col1": "Calenberg Land",
        "col2": "Germany",
        "col3": "198"
    },
    {
        "col0": "Sulur",
        "col1": "Trollaskagi",
        "col2": "Iceland",
        "col3": "1213"
    },
    {
        "col0": "Senepy",
        "col1": "Matheysine",
        "col2": "France",
        "col3": "1769"
    },
    {
        "col0": "Saebyggjenuten",
        "col1": "Setesdalsheiene",
        "col2": "Norway",
        "col3": "1507"
    },
    {
        "col0": "Satbakkollen",
        "col1": "Trollheimen",
        "col2": "Norway",
        "col3": "1632"
    },
    {
        "col0": "Santis",
        "col1": "Appenzell Alps",
        "col2": "Canton of St. Gallen",
        "col3": "2502"
    },
    {
        "col0": "SA ileag",
        "col1": "Northwest Highlands",
        "col2": "Scotland",
        "col3": "956"
    },
    {
        "col0": "Szrenica",
        "col1": "Giant Mountains",
        "col2": "Czech Republic",
        "col3": "1362"
    },
    {
        "col0": "Symmetry Spire",
        "col1": "Teton Range",
        "col2": "Grand Teton National Park",
        "col3": "3218"
    },
    {
        "col0": "Syberg",
        "col1": "Ardey Hills",
        "col2": "Dortmund",
        "col3": "244"
    },
    {
        "col0": "Swoveberg",
        "col1": "Reading Prong",
        "col2": "Pennsylvania",
        "col3": "259"
    },
    {
        "col0": "Swirl How",
        "col1": "Lake District",
        "col2": "Cumbria",
        "col3": "802"
    },
    {
        "col0": "Swiftcurrent Mountain",
        "col1": "Lewis Range",
        "col2": "United States",
        "col3": "2571"
    },
    {
        "col0": "Sweat Mountain",
        "col1": "Appalachian Mountains",
        "col2": "Georgia",
        "col3": "514"
    },
    {
        "col0": "Swarth Fell",
        "col1": "Pennines",
        "col2": "Cumbria",
        "col3": "681"
    },
    {
        "col0": "Swargarohini",
        "col1": "Himalayas",
        "col2": "India",
        "col3": "6252"
    },
    {
        "col0": "Svinjak",
        "col1": "Julian Alps",
        "col2": "Slovenia",
        "col3": "1653"
    },
    {
        "col0": "Svilaja",
        "col1": "Dinaric Alps",
        "col2": "Croatia",
        "col3": "1508"
    },
    {
        "col0": "Suyu Parina",
        "col1": "Andes",
        "col2": "Peru",
        "col3": "5400"
    },
    {
        "col0": "Suyruqucha",
        "col1": "Andes",
        "col2": "Peru",
        "col3": "5500"
    },
    {
        "col0": "Suyruqucha",
        "col1": "Andes",
        "col2": "Peru",
        "col3": "4800"
    },
    {
        "col0": "Suyruqucha",
        "col1": "Andes",
        "col2": "Peru",
        "col3": "5500"
    },
    {
        "col0": "Suyruqucha",
        "col1": "Andes",
        "col2": "Peru",
        "col3": "4800"
    },
    {
        "col0": "Suyruqucha",
        "col1": "Andes",
        "col2": "Peru",
        "col3": "5252"
    },
    {
        "col0": "Suyruqucha",
        "col1": "Andes",
        "col2": "Peru",
        "col3": "5297"
    },
    {
        "col0": "Suyruqucha",
        "col1": "Andes",
        "col2": "Peru",
        "col3": "5000"
    },
    {
        "col0": "Suvraga Khairkhan",
        "col1": "Khangai Mountains",
        "col2": "Mongolia",
        "col3": "3179"
    },
    {
        "col0": "Suvobor",
        "col1": "Dinaric Alps",
        "col2": "Serbia",
        "col3": "866"
    },
    {
        "col0": "Sutton Peak",
        "col1": "Sutton Range",
        "col2": "Vancouver Island",
        "col3": "1874"
    },
    {
        "col0": "Sutton Bank",
        "col1": "Hambleton Hills",
        "col2": "England",
        "col3": "298"
    },
    {
        "col0": "Sutai Mountain",
        "col1": "Altai Mountains",
        "col2": "Mongolia",
        "col3": "4220"
    },
    {
        "col0": "Sut'uq",
        "col1": "Andes",
        "col2": "Peru",
        "col3": "4735"
    },
    {
        "col0": "Susunia",
        "col1": "Chota Nagpur Plateau",
        "col2": "West Bengal",
        "col3": "442"
    },
    {
        "col0": "Sustenhorn",
        "col1": "Uri Alps",
        "col2": "Canton of Bern",
        "col3": "3502"
    },
    {
        "col0": "Survey Peak",
        "col1": "Teton Range",
        "col2": "Wyoming",
        "col3": "2827"
    },
    {
        "col0": "Surupana",
        "col1": "Andes",
        "col2": "Peru",
        "col3": "5162"
    },
    {
        "col0": "Surtningssue",
        "col1": "Jotunheimen",
        "col2": "Norway",
        "col3": "2368"
    },
    {
        "col0": "Suriwiri",
        "col1": "Chila mountain range",
        "col2": "Peru",
        "col3": "5506"
    },
    {
        "col0": "Surimana",
        "col1": "Andes",
        "col2": "Peru",
        "col3": "5000"
    },
    {
        "col0": "Surimana",
        "col1": "Andes",
        "col2": "Peru",
        "col3": "5200"
    },
    {
        "col0": "Surichata",
        "col1": "Andes",
        "col2": "Peru",
        "col3": "4800"
    },
    {
        "col0": "Suri Wayku",
        "col1": "Andes",
        "col2": "Peru",
        "col3": "4800"
    },
    {
        "col0": "Suri Wasi",
        "col1": "Andes",
        "col2": "Peru",
        "col3": "4875"
    },
    {
        "col0": "Suri Phuyu",
        "col1": "Cordillera Occidental, Bolivia",
        "col2": "Sur Lipez Province",
        "col3": "5458"
    },
    {
        "col0": "Suri Phuju",
        "col1": "Andes",
        "col2": "Peru",
        "col3": "5095"
    },
    {
        "col0": "Suri",
        "col1": "Andes",
        "col2": "Peru",
        "col3": "5400"
    },
    {
        "col0": "Surettahorn",
        "col1": "Oberhalbstein Range",
        "col2": "Graubunden",
        "col3": "3027"
    },
    {
        "col0": "Surapata",
        "col1": "Willkanuta mountain range",
        "col2": "Peru",
        "col3": "5300"
    },
    {
        "col0": "Surapata",
        "col1": "Andes",
        "col2": "Bolivia",
        "col3": "5900"
    },
    {
        "col0": "Sura Wiqu",
        "col1": "Andes",
        "col2": "Peru",
        "col3": "5000"
    },
    {
        "col0": "Sura Surani",
        "col1": "Andes",
        "col2": "Bolivia",
        "col3": "4840"
    },
    {
        "col0": "Sura Qullu",
        "col1": "Andes",
        "col2": "Bolivia",
        "col3": "4752"
    },
    {
        "col0": "Sura Kallanka",
        "col1": "Andes",
        "col2": "Peru",
        "col3": "5000"
    },
    {
        "col0": "Sura K'uchu",
        "col1": "Andes",
        "col2": "Peru",
        "col3": "5000"
    },
    {
        "col0": "Sur Carungas",
        "col1": "Oberhalbstein Alps",
        "col2": "Graubunden",
        "col3": "2829"
    },
    {
        "col0": "Superstition Mountain",
        "col1": "Superstition Mountains",
        "col2": "Arizona",
        "col3": "1541"
    },
    {
        "col0": "Supay Q'asa",
        "col1": "Andes",
        "col2": "Bolivia",
        "col3": "2920"
    },
    {
        "col0": "Supay Punku",
        "col1": "Andes",
        "col2": "Bolivia",
        "col3": "4600"
    },
    {
        "col0": "Suparawra",
        "col1": "Andes",
        "col2": "Peru",
        "col3": "5029"
    },
    {
        "col0": "Sunwapta Peak",
        "col1": "Canadian Rockies",
        "col2": "Alberta",
        "col3": "3315"
    },
    {
        "col0": "Suntur",
        "col1": "Andes",
        "col2": "Peru",
        "col3": "4400"
    },
    {
        "col0": "Suntur",
        "col1": "Andes",
        "col2": "Peru",
        "col3": "4800"
    },
    {
        "col0": "Sunshine Peak",
        "col1": "San Juan Mountains",
        "col2": "Colorado",
        "col3": "4269"
    },
    {
        "col0": "Sunset Peak",
        "col1": "Himalayas",
        "col2": "India",
        "col3": "4745"
    },
    {
        "col0": "Sunrise Mountain",
        "col1": "Kittatinny Mountains",
        "col2": "New Jersey",
        "col3": "502"
    },
    {
        "col0": "Sunqu Urqu",
        "col1": "Andes",
        "col2": "Peru",
        "col3": "5191"
    },
    {
        "col0": "Sunlight Peak",
        "col1": "San Juan Mountains",
        "col2": "Colorado",
        "col3": "4287"
    },
    {
        "col0": "Suni Q'awa",
        "col1": "Andes",
        "col2": "Bolivia",
        "col3": "5018"
    },
    {
        "col0": "Suni K'ira",
        "col1": "Andes",
        "col2": "Bolivia",
        "col3": "5899"
    },
    {
        "col0": "Sunday River Whitecap",
        "col1": "Mahoosuc Range",
        "col2": "Maine",
        "col3": "1017"
    },
    {
        "col0": "Sundance Mountain",
        "col1": "Beartooth Mountains",
        "col2": "Carbon County, Montana",
        "col3": "3738"
    },
    {
        "col0": "Sunbeam Peak",
        "col1": "Wind River Range",
        "col2": "Fremont County, Wyoming",
        "col3": "4096"
    },
    {
        "col0": "Sunanda Devi",
        "col1": "Himalaya",
        "col2": "India",
        "col3": "7434"
    },
    {
        "col0": "Sumrall Peak",
        "col1": "Cordiner Peaks",
        "col2": "Pensacola Mountains",
        "col3": "1130"
    },
    {
        "col0": "Sumpiruni",
        "col1": "Willkanuta mountain range",
        "col2": "Peru",
        "col3": "5063"
    },
    {
        "col0": "Summit Peak",
        "col1": "San Juan Mountains",
        "col2": "Colorado",
        "col3": "4055"
    },
    {
        "col0": "Summit Mountain",
        "col1": "Lewis Range",
        "col2": "United States",
        "col3": "2673"
    },
    {
        "col0": "Sumas Mountain",
        "col1": "North Cascades",
        "col2": "Washington",
        "col3": "1046"
    },
    {
        "col0": "Sumantri",
        "col1": "Sudirman Range",
        "col2": "Dutch East Indies",
        "col3": "4870"
    },
    {
        "col0": "Sulzkogel",
        "col1": "Stubaier Alpen",
        "col2": "Tyrol",
        "col3": "3016"
    },
    {
        "col0": "Sulzfluh",
        "col1": "Ratikon",
        "col2": "Austria",
        "col3": "2817"
    },
    {
        "col0": "Sultan Mountain",
        "col1": "San Juan Mountains",
        "col2": "Colorado",
        "col3": "4076"
    },
    {
        "col0": "Sulphur Mountain",
        "col1": "Canadian Rockies",
        "col2": "Alberta",
        "col3": "2451"
    },
    {
        "col0": "Sulluku Llawa",
        "col1": "Andes",
        "col2": "Peru",
        "col3": "5200"
    },
    {
        "col0": "Sullu Sullu",
        "col1": "Andes",
        "col2": "Peru",
        "col3": "5100"
    },
    {
        "col0": "Sullu Marka",
        "col1": "Wansu mountain range",
        "col2": "Peru",
        "col3": "5000"
    },
    {
        "col0": "Sullivan Peaks",
        "col1": "Patuxent Range",
        "col2": "Pensacola Mountains",
        "col3": "1400"
    },
    {
        "col0": "Suli Top",
        "col1": "Himalaya",
        "col2": "India",
        "col3": "6300"
    },
    {
        "col0": "Sulegg",
        "col1": "Bernese Alps",
        "col2": "Canton of Bern",
        "col3": "2413"
    },
    {
        "col0": "Sulaiman Mountains",
        "col1": "Hindu Kush",
        "col2": "Afghanistan",
        "col3": "3487"
    },
    {
        "col0": "Sukullu",
        "col1": "Andes",
        "col2": "Peru",
        "col3": "5095"
    },
    {
        "col0": "Sukna",
        "col1": "Andes",
        "col2": "Peru",
        "col3": "5120"
    },
    {
        "col0": "Sukata Laq'a",
        "col1": "Andes",
        "col2": "Peru",
        "col3": "5100"
    },
    {
        "col0": "Suka Sukani",
        "col1": "Andes",
        "col2": "Bolivia",
        "col3": "4600"
    },
    {
        "col0": "Suj Tilla East",
        "col1": "Himalaya",
        "col2": "India",
        "col3": "6394"
    },
    {
        "col0": "Suitilla",
        "col1": "Himalaya",
        "col2": "India",
        "col3": "6373"
    },
    {
        "col0": "Sugarloaf Mountain",
        "col1": "Box Springs Mountains",
        "col2": "California",
        "col3": "593"
    },
    {
        "col0": "Sugarloaf Mountain",
        "col1": "Metacomet Ridge",
        "col2": "South Deerfield, MA",
        "col3": "198"
    },
    {
        "col0": "Sugarloaf Mountain",
        "col1": "Blue Ridge Mountains",
        "col2": "Frederick County, Maryland",
        "col3": "390"
    },
    {
        "col0": "Sugarloaf Mountain",
        "col1": "Devil's Path",
        "col2": "New York",
        "col3": "1161"
    },
    {
        "col0": "Sugarloaf Mountain",
        "col1": "Lake Wales Ridge",
        "col2": "Florida",
        "col3": "95"
    },
    {
        "col0": "Sugarloaf Knob",
        "col1": "Allegheny Mountains",
        "col2": "United States",
        "col3": "812"
    },
    {
        "col0": "Sugarloaf Hill",
        "col1": "Hudson Highlands",
        "col2": "United States",
        "col3": "231"
    },
    {
        "col0": "Sugarloaf Hill",
        "col1": "Knockmealdown Mountains",
        "col2": "County Tipperary",
        "col3": "663"
    },
    {
        "col0": "Sugarloaf",
        "col1": "Wicklow Mountains",
        "col2": "Ireland",
        "col3": "552"
    },
    {
        "col0": "Sugarloaf",
        "col1": "Caha Mountains",
        "col2": "County Cork",
        "col3": "574"
    },
    {
        "col0": "Sugar Mountain",
        "col1": "Blue Ridge Mountains",
        "col2": "North Carolina",
        "col3": "1595"
    },
    {
        "col0": "Sugar Loaf, Monmouthshire",
        "col1": "Black Mountains, Wales",
        "col2": "United Kingdom",
        "col3": "596"
    },
    {
        "col0": "Suerococha",
        "col1": "Andes",
        "col2": "Peru",
        "col3": "5100"
    },
    {
        "col0": "Suchy vrch",
        "col1": "Orlicke hory",
        "col2": "Bohemia",
        "col3": "995"
    },
    {
        "col0": "Suchusqa",
        "col1": "Andes",
        "col2": "Bolivia",
        "col3": "4280"
    },
    {
        "col0": "Suchy vrch",
        "col1": "Orlicke hory",
        "col2": "Bohemia",
        "col3": "995"
    },
    {
        "col0": "Sublett Range High Point",
        "col1": "Sublett Range",
        "col2": "United States",
        "col3": "2283"
    },
    {
        "col0": "Stumpfling",
        "col1": "Mangfall Mountains",
        "col2": "Germany",
        "col3": "1506"
    },
    {
        "col0": "Stubenwasen",
        "col1": "Black Forest",
        "col2": "Baden-Wurttemberg",
        "col3": "1386"
    },
    {
        "col0": "Stocklewald",
        "col1": "Black Forest",
        "col2": "Baden-Wurttemberg",
        "col3": "1068"
    },
    {
        "col0": "Stoberhai",
        "col1": "Harz Mountains",
        "col2": "Germany",
        "col3": "720"
    },
    {
        "col0": "Statzerhorn",
        "col1": "Plessur Alps",
        "col2": "Switzerland",
        "col3": "2575"
    },
    {
        "col0": "Stafeliflue",
        "col1": "Emmental Alps",
        "col2": "Obwalden",
        "col3": "1922"
    },
    {
        "col0": "Stybarrow Dodd",
        "col1": "Lake District",
        "col2": "Cumbria",
        "col3": "843"
    },
    {
        "col0": "Stutfield Peak",
        "col1": "Winston Churchill Range",
        "col2": "Alberta",
        "col3": "3450"
    },
    {
        "col0": "Stumpa Duloigh",
        "col1": "Mountains of the Iveragh Peninsula",
        "col2": "Ireland",
        "col3": "784"
    },
    {
        "col0": "Stuhleck",
        "col1": "Prealps East of the Mur",
        "col2": "Austria",
        "col3": "1782"
    },
    {
        "col0": "Studerhorn",
        "col1": "Bernese Alps",
        "col2": "Canton of Bern",
        "col3": "3634"
    },
    {
        "col0": "Stucklistock",
        "col1": "Urner Alps",
        "col2": "Canton of Uri",
        "col3": "3313"
    },
    {
        "col0": "Stubaier Wildspitze",
        "col1": "Stubai Alps",
        "col2": "Austria",
        "col3": "3341"
    },
    {
        "col0": "Strazov",
        "col1": "Strazov Mountains",
        "col2": "Slovakia",
        "col3": "1213"
    },
    {
        "col0": "Stranska skala",
        "col1": "Brno Highlands",
        "col2": "Czech Republic",
        "col3": "255"
    },
    {
        "col0": "Stripsenkopf",
        "col1": "Kaisergebirge",
        "col2": "Tyrol",
        "col3": "1807"
    },
    {
        "col0": "Striped Peak",
        "col1": "Olympic Mountains",
        "col2": "Clallam County, Washington",
        "col3": "355"
    },
    {
        "col0": "Stripe Mountain",
        "col1": "Bitterroot Range",
        "col2": "United States",
        "col3": "2743"
    },
    {
        "col0": "Strela",
        "col1": "Plessur Alps",
        "col2": "Switzerland",
        "col3": "2636"
    },
    {
        "col0": "Strawberry Peak",
        "col1": "San Gabriel Mountains",
        "col2": "Los Angeles County, California",
        "col3": "1879"
    },
    {
        "col0": "Strawberry Mountain",
        "col1": "Strawberry Mountains",
        "col2": "Oregon",
        "col3": "2756"
    },
    {
        "col0": "Stratton Mountain",
        "col1": "Green Mountains",
        "col2": "Vermont",
        "col3": "1200"
    },
    {
        "col0": "Stratenec",
        "col1": "Mala Fatra",
        "col2": "Slovakia",
        "col3": "1512"
    },
    {
        "col0": "Strahlkogel",
        "col1": "Stubai Alps",
        "col2": "Austria",
        "col3": "3288"
    },
    {
        "col0": "Strahlhorn",
        "col1": "Bernese Alps",
        "col2": "Switzerland",
        "col3": "3027"
    },
    {
        "col0": "Strahlhorn",
        "col1": "Bernese Alps",
        "col2": "Valais",
        "col3": "3200"
    },
    {
        "col0": "Strahlhorn",
        "col1": "Pennine Alps",
        "col2": "Valais",
        "col3": "4190"
    },
    {
        "col0": "Stranska skala",
        "col1": "Brno Highlands",
        "col2": "Czech Republic",
        "col3": "255"
    },
    {
        "col0": "Strazov",
        "col1": "Strazov Mountains",
        "col2": "Slovakia",
        "col3": "1213"
    },
    {
        "col0": "Stozek Wielki",
        "col1": "Silesian Beskids",
        "col2": "Czech Republic",
        "col3": "978"
    },
    {
        "col0": "Storzic",
        "col1": "Kamnik-Savinja Alps",
        "col2": "Slovenia",
        "col3": "2132"
    },
    {
        "col0": "Storsylen",
        "col1": "Sylan",
        "col2": "Norway",
        "col3": "1762"
    },
    {
        "col0": "Storsmeden",
        "col1": "Rondane",
        "col2": "Norway",
        "col3": "2016"
    },
    {
        "col0": "Storskrymten",
        "col1": "Dovrefjell",
        "col2": "Norway",
        "col3": "1985"
    },
    {
        "col0": "Storronden",
        "col1": "Rondane",
        "col2": "Norway",
        "col3": "2138"
    },
    {
        "col0": "Storm Mountain",
        "col1": "Misty Range",
        "col2": "Alberta",
        "col3": "3095"
    },
    {
        "col0": "Storm Castle",
        "col1": "Gallatin Range",
        "col2": "Gallatin County, Montana",
        "col3": "2183"
    },
    {
        "col0": "Storkenkopf",
        "col1": "Vosges Mountains",
        "col2": "Alsace",
        "col3": "1366"
    },
    {
        "col0": "Storjuvtinden",
        "col1": "Jotunheimen",
        "col2": "Norway",
        "col3": "2344"
    },
    {
        "col0": "Storelk Mountain",
        "col1": "Elk Range",
        "col2": "Alberta",
        "col3": "2871"
    },
    {
        "col0": "Storebjorn",
        "col1": "Jotunheimen",
        "col2": "Norway",
        "col3": "2222"
    },
    {
        "col0": "Store Venjetinden",
        "col1": "Romsdalsalpene",
        "col2": "Norway",
        "col3": "1852"
    },
    {
        "col0": "Store Trolltind",
        "col1": "Romsdalsalpene",
        "col2": "Norway",
        "col3": "1788"
    },
    {
        "col0": "Store Trollhoin",
        "col1": "Jotunheimen",
        "col2": "Lom, Norway",
        "col3": "2201"
    },
    {
        "col0": "Store Styggedalstinden",
        "col1": "Jotunheimen",
        "col2": "Norway",
        "col3": "2387"
    },
    {
        "col0": "Store Smorstabbtinden",
        "col1": "Jotunheimen",
        "col2": "Norway",
        "col3": "2208"
    },
    {
        "col0": "Store Skagastolstind",
        "col1": "Hurrungane",
        "col2": "Norway",
        "col3": "2405"
    },
    {
        "col0": "Store Memurutinden",
        "col1": "Jotunheimen",
        "col2": "Norway",
        "col3": "2366"
    },
    {
        "col0": "Store Lenangstind",
        "col1": "Lyngen Alps",
        "col2": "Norway",
        "col3": "1624"
    },
    {
        "col0": "Store Knutsholstinden",
        "col1": "Jotunheimen",
        "col2": "Norway",
        "col3": "2341"
    },
    {
        "col0": "Store Hellstugutinden",
        "col1": "Jotunheimen",
        "col2": "Norway",
        "col3": "2345"
    },
    {
        "col0": "Store Fornestinden",
        "col1": "Lyngen Alps",
        "col2": "Norway",
        "col3": "1477"
    },
    {
        "col0": "Store Bukkeholstinden",
        "col1": "Jotunheimen",
        "col2": "Norway",
        "col3": "2213"
    },
    {
        "col0": "Store Austanbotntind",
        "col1": "Hurrungane",
        "col2": "Norway",
        "col3": "2203"
    },
    {
        "col0": "Storzic",
        "col1": "Kamnik-Savinja Alps",
        "col2": "Slovenia",
        "col3": "2132"
    },
    {
        "col0": "Stony Cove Pike",
        "col1": "Lake District",
        "col2": "Cumbria",
        "col3": "763"
    },
    {
        "col0": "Stoney Indian Peaks",
        "col1": "Lewis Range",
        "col2": "United States",
        "col3": "2849"
    },
    {
        "col0": "Stonebarrow Hill",
        "col1": "South Dorset Downs",
        "col2": "Dorset",
        "col3": "148"
    },
    {
        "col0": "Stone Mountain",
        "col1": "Appalachian Mountains",
        "col2": "Pennsylvania",
        "col3": "668"
    },
    {
        "col0": "Stone Mountain",
        "col1": "Blue Ridge Mountains",
        "col2": "North Carolina",
        "col3": "702"
    },
    {
        "col0": "Stone Arthur",
        "col1": "Lake District",
        "col2": "Cumbria",
        "col3": "503"
    },
    {
        "col0": "Stolicna hora",
        "col1": "Elbe Sandstone Mountains",
        "col2": "Czech Republic",
        "col3": "289"
    },
    {
        "col0": "Stol",
        "col1": "Serbian Carpathians",
        "col2": "Serbia",
        "col3": "1156"
    },
    {
        "col0": "Stol",
        "col1": "Karawanks",
        "col2": "Austria",
        "col3": "2236"
    },
    {
        "col0": "Stokes Mountain",
        "col1": "Stokes Range",
        "col2": "Canada",
        "col3": "412"
    },
    {
        "col0": "Stok Kangri",
        "col1": "Zanskar Range",
        "col2": "Himalayas",
        "col3": "6152"
    },
    {
        "col0": "Stockton Hill",
        "col1": "Thompson Plateau",
        "col2": "British Columbia",
        "col3": "1574"
    },
    {
        "col0": "Stockhorn",
        "col1": "Pennine Alps",
        "col2": "Switzerland",
        "col3": "3532"
    },
    {
        "col0": "Stockhorn",
        "col1": "Lepontine Alps",
        "col2": "Switzerland",
        "col3": "2610"
    },
    {
        "col0": "Stockhorn",
        "col1": "Bernese Alps",
        "col2": "Switzerland",
        "col3": "3212"
    },
    {
        "col0": "Stockhorn",
        "col1": "Bernese Alps",
        "col2": "Switzerland",
        "col3": "2190"
    },
    {
        "col0": "Stockberg",
        "col1": "Appenzell Alps",
        "col2": "Canton of St. Gallen",
        "col3": "1782"
    },
    {
        "col0": "Stob na Boine Druim-fhinn",
        "col1": "Arrochar Alps",
        "col2": "Scotland",
        "col3": "658"
    },
    {
        "col0": "Stob an Eas",
        "col1": "Arrochar Alps",
        "col2": "Scotland",
        "col3": "731"
    },
    {
        "col0": "Stob a' Choire Odhair",
        "col1": "Grampian Mountains",
        "col2": "Argyll",
        "col3": "945"
    },
    {
        "col0": "Stob a' Choire Mheadhoin",
        "col1": "Grampian Mountains",
        "col2": "Highland",
        "col3": "1105"
    },
    {
        "col0": "Stob Ghabhar",
        "col1": "Grampian Mountains",
        "col2": "Argyll",
        "col3": "1090"
    },
    {
        "col0": "Stob Garbh",
        "col1": "Grampian Mountains",
        "col2": "Scotland",
        "col3": "959"
    },
    {
        "col0": "Stob Coire a' ChA irn",
        "col1": "Mamores",
        "col2": "Highland",
        "col3": "981"
    },
    {
        "col0": "Stob Coire Easain",
        "col1": "Grampian Mountains",
        "col2": "Highland",
        "col3": "1115"
    },
    {
        "col0": "Stob Choire Claurigh",
        "col1": "Grey Corries",
        "col2": "Highland",
        "col3": "1177"
    },
    {
        "col0": "Stob BA n",
        "col1": "Mamores",
        "col2": "Highland",
        "col3": "999"
    }
]