[
    {
        "col0": "Insulivitrina tuberculata",
        "col1": "Vitrinidae",
        "col2": "LR/nt",
        "col3": "IUCN2.3"
    },
    {
        "col0": "Insulivitrina reticulata",
        "col1": "Vitrinidae",
        "col2": "EN",
        "col3": "IUCN2.3"
    },
    {
        "col0": "Insulivitrina mascaensis",
        "col1": "Vitrinidae",
        "col2": "LR/nt",
        "col3": "IUCN2.3"
    },
    {
        "col0": "Insulivitrina machadoi",
        "col1": "Limacoidea",
        "col2": "LR/nt",
        "col3": "IUCN2.3"
    },
    {
        "col0": "Insular birddrop",
        "col1": "Pupilloidea",
        "col2": "LR/nt",
        "col3": "IUCN2.3"
    },
    {
        "col0": "Inflated heelsplitter",
        "col1": "Unionidae",
        "col2": "EN",
        "col3": "IUCN2.3"
    },
    {
        "col0": "Indoplanorbis",
        "col1": "Planorbidae",
        "col2": "LC",
        "col3": "IUCN3.1"
    },
    {
        "col0": "Incerticyclus martinicensis",
        "col1": "Cyclophoroidea",
        "col2": "EX",
        "col3": "IUCN2.3"
    },
    {
        "col0": "Incerticyclus cinereus",
        "col1": "Cyclophoroidea",
        "col2": "EX",
        "col3": "IUCN2.3"
    },
    {
        "col0": "Imperturbatia violescens",
        "col1": "Streptaxoidea",
        "col2": "DD",
        "col3": "IUCN2.3"
    },
    {
        "col0": "Iglica kleinzellensis",
        "col1": "Hydrobiidae",
        "col2": "VU",
        "col3": "IUCN3.1"
    },
    {
        "col0": "Iglica gratulabunda",
        "col1": "Hydrobiidae",
        "col2": "CR",
        "col3": "IUCN3.1"
    },
    {
        "col0": "Idiopoma doliaris",
        "col1": "Viviparidae",
        "col2": "LC",
        "col3": "IUCN3.1"
    },
    {
        "col0": "Idiomela subplicata",
        "col1": "Helicidae",
        "col2": "VU",
        "col3": "IUCN2.3"
    },
    {
        "col0": "Ichnusomunda sacchii",
        "col1": "Helicoidea",
        "col2": "VU",
        "col3": "IUCN2.3"
    },
    {
        "col0": "Ichetucknee siltsnail",
        "col1": "Hydrobiidae",
        "col2": "VU",
        "col3": "IUCN3.1"
    },
    {
        "col0": "Iberus gualtieranus",
        "col1": "Helicidae",
        "col2": "EN",
        "col3": "IUCN3.1"
    },
    {
        "col0": "Hystricella turricula",
        "col1": "Helicoidea",
        "col2": "VU",
        "col3": "IUCN2.3"
    },
    {
        "col0": "Hystricella oxytropis",
        "col1": "Helicoidea",
        "col2": "VU",
        "col3": "IUCN2.3"
    },
    {
        "col0": "Hystricella echinulata",
        "col1": "Helicoidea",
        "col2": "VU",
        "col3": "IUCN2.3"
    },
    {
        "col0": "Hystricella bicarinata",
        "col1": "Helicoidea",
        "col2": "VU",
        "col3": "IUCN2.3"
    },
    {
        "col0": "Hyridella glenelgensis",
        "col1": "Hyriidae",
        "col2": "CR",
        "col3": "IUCN3.1"
    },
    {
        "col0": "Hypselostoma perigyra",
        "col1": "Hypselostomatidae",
        "col2": "VU",
        "col3": "IUCN3.1"
    },
    {
        "col0": "Hypselostoma megaphonum",
        "col1": "Hypselostomatidae",
        "col2": "VU",
        "col3": "IUCN3.1"
    },
    {
        "col0": "Hypolysia usambarica",
        "col1": "Achatinoidea",
        "col2": "DD",
        "col3": "IUCN2.3"
    },
    {
        "col0": "Hypolysia connollyana",
        "col1": "Achatinoidea",
        "col2": "DD",
        "col3": "IUCN2.3"
    },
    {
        "col0": "Hypnophila remyi",
        "col1": "Cochlicopoidea",
        "col2": "DD",
        "col3": "IUCN2.3"
    },
    {
        "col0": "Hygromia golasi",
        "col1": "Helicoidea",
        "col2": "VU",
        "col3": "IUCN2.3"
    },
    {
        "col0": "Hygromia cinctella",
        "col1": "Helicoidea",
        "col2": "LC",
        "col3": "IUCN3.1"
    },
    {
        "col0": "Hydrobioides nassa",
        "col1": "Rissooidea",
        "col2": "LC",
        "col3": "IUCN3.1"
    },
    {
        "col0": "Hydrobia lineata",
        "col1": "Hydrobiidae",
        "col2": "DD",
        "col3": "IUCN3.1"
    },
    {
        "col0": "Hungerfordia pelewensis",
        "col1": "Cyclophoroidea",
        "col2": "DD",
        "col3": "IUCN2.3"
    },
    {
        "col0": "Huachuca springsnail",
        "col1": "Hydrobiidae",
        "col2": "VU",
        "col3": "IUCN2.3"
    },
    {
        "col0": "Hood ancylid",
        "col1": "Planorbidae",
        "col2": "LC",
        "col3": "IUCN3.1"
    },
    {
        "col0": "Hogolua kondorum",
        "col1": "Zonitoidea",
        "col2": "DD",
        "col3": "IUCN2.3"
    },
    {
        "col0": "Hirthia littorina",
        "col1": "Cerithioidea",
        "col2": "EN",
        "col3": "IUCN3.1"
    },
    {
        "col0": "Hirthia globosa",
        "col1": "Cerithioidea",
        "col2": "LC",
        "col3": "IUCN3.1"
    },
    {
        "col0": "Hirasiella clara",
        "col1": "Punctoidea",
        "col2": "DD",
        "col3": "IUCN2.3"
    },
    {
        "col0": "Hirasea sinuosa",
        "col1": "Punctoidea",
        "col2": "DD",
        "col3": "IUCN2.3"
    },
    {
        "col0": "Hirasea profundispira",
        "col1": "Punctoidea",
        "col2": "DD",
        "col3": "IUCN2.3"
    },
    {
        "col0": "Hirasea planulata",
        "col1": "Punctoidea",
        "col2": "EX",
        "col3": "IUCN2.3"
    },
    {
        "col0": "Hirasea operculina",
        "col1": "Punctoidea",
        "col2": "EN",
        "col3": "IUCN2.3"
    },
    {
        "col0": "Hirasea nesiotica",
        "col1": "Punctoidea",
        "col2": "DD",
        "col3": "IUCN2.3"
    },
    {
        "col0": "Hirasea mirabilis",
        "col1": "Punctoidea",
        "col2": "DD",
        "col3": "IUCN2.3"
    },
    {
        "col0": "Hirasea major",
        "col1": "Punctoidea",
        "col2": "DD",
        "col3": "iucn2.3"
    },
    {
        "col0": "Hirasea insignis",
        "col1": "Punctoidea",
        "col2": "EN",
        "col3": "IUCN2.3"
    },
    {
        "col0": "Hirasea hypolia",
        "col1": "Punctoidea",
        "col2": "DD",
        "col3": "IUCN2.3"
    },
    {
        "col0": "Hirasea goniobasis",
        "col1": "Punctoidea",
        "col2": "DD",
        "col3": "IUCN2.3"
    },
    {
        "col0": "Hirasea eutheca",
        "col1": "Punctoidea",
        "col2": "DD",
        "col3": "IUCN2.3"
    },
    {
        "col0": "Hirasea diplomphalus",
        "col1": "Punctoidea",
        "col2": "EN",
        "col3": "IUCN2.3"
    },
    {
        "col0": "Hirasea chichijimana",
        "col1": "Punctoidea",
        "col2": "EN",
        "col3": "IUCN2.3"
    },
    {
        "col0": "Hirasea biconcava",
        "col1": "Punctoidea",
        "col2": "DD",
        "col3": "IUCN2.3"
    },
    {
        "col0": "Himeroconcha rotula",
        "col1": "Charopidae",
        "col2": "DD",
        "col3": "IUCN2.3"
    },
    {
        "col0": "Himeroconcha quadrasi",
        "col1": "Charopidae",
        "col2": "DD",
        "col3": "IUCN2.3"
    },
    {
        "col0": "Himeroconcha lamlanensis",
        "col1": "Charopidae",
        "col2": "DD",
        "col3": "IUCN2.3"
    },
    {
        "col0": "Himeroconcha fusca",
        "col1": "Charopidae",
        "col2": "DD",
        "col3": "IUCN2.3"
    },
    {
        "col0": "Highnut",
        "col1": "Unionidae",
        "col2": "EX",
        "col3": "IUCN2.3"
    },
    {
        "col0": "High-spired elimia",
        "col1": "Cerithioidea",
        "col2": "EX",
        "col3": "IUCN2.3"
    },
    {
        "col0": "Higgins' eye pearly mussel",
        "col1": "Unionidae",
        "col2": "EN",
        "col3": "IUCN2.3"
    },
    {
        "col0": "Hidden pebblesnail",
        "col1": "Hydrobiidae",
        "col2": "DD",
        "col3": "IUCN3.1"
    },
    {
        "col0": "Heteropoma turritum",
        "col1": "Rissooidea",
        "col2": "DD",
        "col3": "IUCN2.3"
    },
    {
        "col0": "Heteropoma tuberculatum",
        "col1": "Rissooidea",
        "col2": "DD",
        "col3": "IUCN2.3"
    },
    {
        "col0": "Heteropoma quadrasi",
        "col1": "Rissooidea",
        "col2": "DD",
        "col3": "IUCN2.3"
    },
    {
        "col0": "Heteropoma pyramis",
        "col1": "Rissooidea",
        "col2": "DD",
        "col3": "IUCN2.3"
    },
    {
        "col0": "Heteropoma glabratum",
        "col1": "Rissooidea",
        "col2": "DD",
        "col3": "IUCN2.3"
    },
    {
        "col0": "Heteropoma fulva",
        "col1": "Rissooidea",
        "col2": "DD",
        "col3": "IUCN2.3"
    },
    {
        "col0": "Heterocyclus petiti",
        "col1": "Hydrobiidae",
        "col2": "EN",
        "col3": "IUCN2.3"
    },
    {
        "col0": "Heterocyclus perroquini",
        "col1": "Hydrobiidae",
        "col2": "EN",
        "col3": "IUCN2.3"
    },
    {
        "col0": "Hemistomia yalayu",
        "col1": "Hydrobiidae",
        "col2": "CR",
        "col3": "IUCN3.1"
    },
    {
        "col0": "Hemistomia xaracuu",
        "col1": "Hydrobiidae",
        "col2": "CR",
        "col3": "IUCN3.1"
    },
    {
        "col0": "Hemistomia whiteleggei",
        "col1": "Hydrobiidae",
        "col2": "CR",
        "col3": "IUCN2.3"
    },
    {
        "col0": "Hemistomia shostakovichi",
        "col1": "Hydrobiidae",
        "col2": "CR",
        "col3": "IUCN3.1"
    },
    {
        "col0": "Hemistomia pusillior",
        "col1": "Hydrobiidae",
        "col2": "EN",
        "col3": "IUCN2.3"
    },
    {
        "col0": "Hemistomia neku",
        "col1": "Hydrobiidae",
        "col2": "CR",
        "col3": "IUCN3.1"
    },
    {
        "col0": "Hemistomia napaia",
        "col1": "Hydrobiidae",
        "col2": "VU",
        "col3": "IUCN3.1"
    },
    {
        "col0": "Hemistomia minutissima",
        "col1": "Hydrobiidae",
        "col2": "LC",
        "col3": "IUCN3.1"
    },
    {
        "col0": "Hemistomia lacinia",
        "col1": "Hydrobiidae",
        "col2": "CR",
        "col3": "IUCN3.1"
    },
    {
        "col0": "Hemistomia gorotitei",
        "col1": "Hydrobiidae",
        "col2": "CR",
        "col3": "IUCN3.1"
    },
    {
        "col0": "Hemistomia gemma",
        "col1": "Hydrobiidae",
        "col2": "LR/nt",
        "col3": "IUCN2.3"
    },
    {
        "col0": "Hemistomia flexicolumella",
        "col1": "Hydrobiidae",
        "col2": "VU",
        "col3": "IUCN2.3"
    },
    {
        "col0": "Hemistomia crosseana",
        "col1": "Hydrobiidae",
        "col2": "CR",
        "col3": "IUCN3.1"
    },
    {
        "col0": "Hemistomia beaumonti",
        "col1": "Hydrobiidae",
        "col2": "DD",
        "col3": "IUCN3.1"
    },
    {
        "col0": "Hemicycla saulcyi",
        "col1": "Helicidae",
        "col2": "CR",
        "col3": "IUCN2.3"
    },
    {
        "col0": "Hemicycla pouchet",
        "col1": "Helicidae",
        "col2": "VU",
        "col3": "IUCN3.1"
    },
    {
        "col0": "Hemicycla plicaria",
        "col1": "Helicidae",
        "col2": "LR/lc",
        "col3": "IUCN2.3"
    },
    {
        "col0": "Hemicycla modesta",
        "col1": "Helicidae",
        "col2": "LR/lc",
        "col3": "IUCN2.3"
    },
    {
        "col0": "Hemicycla mascaensis",
        "col1": "Helicidae",
        "col2": "LR/nt",
        "col3": "IUCN2.3"
    },
    {
        "col0": "Hemicycla inutilis",
        "col1": "Helicidae",
        "col2": "VU",
        "col3": "IUCN3.1"
    },
    {
        "col0": "Hemicycla berkeleyi",
        "col1": "Helicidae",
        "col2": "LR/nt",
        "col3": "IUCN2.3"
    },
    {
        "col0": "Helix texta",
        "col1": "Helicidae",
        "col2": "EN",
        "col3": "IUCN2.3"
    },
    {
        "col0": "Helix pomatia",
        "col1": "Helicidae",
        "col2": "LC",
        "col3": "iucn3.1"
    },
    {
        "col0": "Helix obruta",
        "col1": "Helicidae",
        "col2": "VU",
        "col3": "IUCN2.3"
    },
    {
        "col0": "Helix nucula",
        "col1": "Helicidae",
        "col2": "LC",
        "col3": "iucn3.1"
    },
    {
        "col0": "Helix mazzullii",
        "col1": "Helicidae",
        "col2": "VU",
        "col3": "IUCN2.3"
    },
    {
        "col0": "Helix godetiana",
        "col1": "Helicidae",
        "col2": "EN",
        "col3": "IUCN3.1"
    },
    {
        "col0": "Helix figulina",
        "col1": "Helicidae",
        "col2": "LC",
        "col3": "iucn3.1"
    },
    {
        "col0": "Helicostyla smargadina",
        "col1": "Helicoidea",
        "col2": "CR",
        "col3": "IUCN2.3"
    },
    {
        "col0": "Helicopsis striata",
        "col1": "Helicoidea",
        "col2": "LC",
        "col3": "IUCN3.1"
    },
    {
        "col0": "Helicopsis conopsis",
        "col1": "Helicoidea",
        "col2": "LR/nt",
        "col3": "IUCN2.3"
    },
    {
        "col0": "Helicophanta souverbiana",
        "col1": "Acavoidea",
        "col2": "NE",
        "col3": "iucn3.1"
    },
    {
        "col0": "Helicophanta ibaraoensis",
        "col1": "Acavoidea",
        "col2": "NE",
        "col3": "iucn3.1"
    },
    {
        "col0": "Helicodonta obvoluta",
        "col1": "Helicoidea",
        "col2": "LC",
        "col3": "iucn3.1"
    },
    {
        "col0": "Helicodiscus hexodon",
        "col1": "Punctoidea",
        "col2": "LR/nt",
        "col3": "IUCN2.3"
    },
    {
        "col0": "Helicodiscus diadema",
        "col1": "Punctoidea",
        "col2": "LR/nt",
        "col3": "IUCN2.3"
    },
    {
        "col0": "Helicina rostrata",
        "col1": "Helicinidae",
        "col2": "EN",
        "col3": "IUCN2.3"
    },
    {
        "col0": "Helicella striatitala",
        "col1": "Helicoidea",
        "col2": "LR/nt",
        "col3": "IUCN2.3"
    },
    {
        "col0": "Helicella stiparum",
        "col1": "Helicoidea",
        "col2": "VU",
        "col3": "IUCN2.3"
    },
    {
        "col0": "Helicella orzai",
        "col1": "Helicoidea",
        "col2": "NT",
        "col3": "IUCN3.1"
    },
    {
        "col0": "Helicarion rubicundus",
        "col1": "Helicarionidae",
        "col2": "VU",
        "col3": "IUCN2.3"
    },
    {
        "col0": "Helicarion leopardina",
        "col1": "Helicarionidae",
        "col2": "VU",
        "col3": "IUCN2.3"
    },
    {
        "col0": "Helicarion australis",
        "col1": "Helicarionidae",
        "col2": "LR/lc",
        "col3": "IUCN2.3"
    },
    {
        "col0": "Helenodiscus vernoni",
        "col1": "Charopidae",
        "col2": "EX",
        "col3": "IUCN2.3"
    },
    {
        "col0": "Helenodiscus bilamellata",
        "col1": "Charopidae",
        "col2": "EX",
        "col3": "IUCN2.3"
    },
    {
        "col0": "Helenoconcha sexdentata",
        "col1": "Charopidae",
        "col2": "EX",
        "col3": "IUCN2.3"
    },
    {
        "col0": "Helenoconcha relicta",
        "col1": "Charopidae",
        "col2": "CR",
        "col3": "IUCN3.1"
    },
    {
        "col0": "Helenoconcha pseustes",
        "col1": "Charopidae",
        "col2": "EX",
        "col3": "IUCN2.3"
    },
    {
        "col0": "Helenoconcha polyodon",
        "col1": "Charopidae",
        "col2": "EX",
        "col3": "IUCN2.3"
    },
    {
        "col0": "Helenoconcha minutissima",
        "col1": "Charopidae",
        "col2": "EX",
        "col3": "IUCN2.3"
    },
    {
        "col0": "Helenoconcha leptalea",
        "col1": "Charopidae",
        "col2": "EX",
        "col3": "IUCN2.3"
    },
    {
        "col0": "Hedleyoconcha ailaketoae",
        "col1": "Charopidae",
        "col2": "VU",
        "col3": "IUCN2.3"
    },
    {
        "col0": "Hedleya macleayi",
        "col1": "Cyclophoroidea",
        "col2": "VU",
        "col3": "IUCN2.3"
    },
    {
        "col0": "Hebetancylus excentricus",
        "col1": "Planorbidae",
        "col2": "G5",
        "col3": "TNC"
    },
    {
        "col0": "Heavy pigtoe",
        "col1": "Unionidae",
        "col2": "EX",
        "col3": "IUCN2.3"
    },
    {
        "col0": "Hearty elimia",
        "col1": "Cerithioidea",
        "col2": "EX",
        "col3": "IUCN2.3"
    },
    {
        "col0": "Hazel pigtoe",
        "col1": "Unionidae",
        "col2": "EX",
        "col3": "IUCN2.3"
    },
    {
        "col0": "Hauffenia wienerwaldensis",
        "col1": "Hydrobiidae",
        "col2": "EN",
        "col3": "IUCN3.1"
    },
    {
        "col0": "Hauffenia sp. nov.",
        "col1": "Hydrobiidae",
        "col2": "VU",
        "col3": "IUCN2.3"
    },
    {
        "col0": "Hauffenia minuta",
        "col1": "Hydrobiidae",
        "col2": "DD",
        "col3": "IUCN2.3"
    },
    {
        "col0": "Hauffenia lucidulus",
        "col1": "Hydrobiidae",
        "col2": "CR",
        "col3": "iucn3.1"
    },
    {
        "col0": "Hauffenia kerschneri",
        "col1": "Hydrobiidae",
        "col2": "EN",
        "col3": "IUCN3.1"
    },
    {
        "col0": "Harney Basin duskysnail",
        "col1": "Hydrobiidae",
        "col2": "VU",
        "col3": "IUCN2.3"
    },
    {
        "col0": "Harmogenanina subdetecta",
        "col1": "Helicarionidae",
        "col2": "EX",
        "col3": "IUCN2.3"
    },
    {
        "col0": "Harmogenanina linophora",
        "col1": "Helicarionidae",
        "col2": "EX",
        "col3": "IUCN2.3"
    },
    {
        "col0": "Harmogenanina implicata",
        "col1": "Helicarionidae",
        "col2": "CR",
        "col3": "IUCN2.3"
    },
    {
        "col0": "Harmogenanina detecta",
        "col1": "Helicarionidae",
        "col2": "DD",
        "col3": "IUCN2.3"
    },
    {
        "col0": "Harmogenanina argentea",
        "col1": "Helicarionidae",
        "col2": "VU",
        "col3": "IUCN2.3"
    },
    {
        "col0": "Halolimnohelix conradti",
        "col1": "Helicoidea",
        "col2": "DD",
        "col3": "IUCN2.3"
    },
    {
        "col0": "Hadra wilsoni",
        "col1": "Camaenidae",
        "col2": "VU",
        "col3": "IUCN2.3"
    },
    {
        "col0": "Hadopyrgus rawhiti",
        "col1": "Hydrobiidae",
        "col2": "NC",
        "col3": "NZTCS"
    },
    {
        "col0": "Hadopyrgus ngataana",
        "col1": "Truncatelloidea",
        "col2": "NC",
        "col3": "NZTCS"
    },
    {
        "col0": "Hacrochlamys lineolatus",
        "col1": "Gastrodontoidea",
        "col2": "EN",
        "col3": "IUCN2.3"
    },
    {
        "col0": "Gyraulus parvus",
        "col1": "Planorbidae",
        "col2": "LC",
        "col3": "IUCN3.1"
    },
    {
        "col0": "Gyraulus pamphylicus",
        "col1": "Planorbidae",
        "col2": "VU",
        "col3": "IUCN3.1"
    },
    {
        "col0": "Gyraulus nedyalkovi",
        "col1": "Planorbidae",
        "col2": "VU",
        "col3": "IUCN3.1"
    },
    {
        "col0": "Gyraulus mauritianus",
        "col1": "Planorbidae",
        "col2": "VU",
        "col3": "IUCN2.3"
    },
    {
        "col0": "Gyraulus crista",
        "col1": "Planorbidae",
        "col2": "LC",
        "col3": "iucn3.1"
    },
    {
        "col0": "Gyraulus costulatus",
        "col1": "Planorbidae",
        "col2": "LC",
        "col3": "IUCN3.1"
    },
    {
        "col0": "Gyraulus cockburni",
        "col1": "Planorbidae",
        "col2": "CR",
        "col3": "IUCN2.3"
    },
    {
        "col0": "Gyraulus bekaensis",
        "col1": "Planorbidae",
        "col2": "VU",
        "col3": "IUCN3.1"
    },
    {
        "col0": "Gyraulus argaeicus",
        "col1": "Planorbidae",
        "col2": "VU",
        "col3": "IUCN3.1"
    },
    {
        "col0": "Gyliotrachela catherina",
        "col1": "Pupilloidea",
        "col2": "LR/nt",
        "col3": "IUCN2.3"
    },
    {
        "col0": "Gundlachia ticaga",
        "col1": "Planorbidae",
        "col2": "LC",
        "col3": "iucn3.1"
    },
    {
        "col0": "Gundlachia lucasi",
        "col1": "Planorbidae",
        "col2": "DD",
        "col3": "iucn3.1"
    },
    {
        "col0": "Gulickia alexandri",
        "col1": "Achatinelloidea",
        "col2": "CR",
        "col3": "IUCN2.3"
    },
    {
        "col0": "Gulf moccasinshell",
        "col1": "Unionidae",
        "col2": "CR",
        "col3": "IUCN2.3"
    },
    {
        "col0": "Gulella usambarica",
        "col1": "Streptaxoidea",
        "col2": "DD",
        "col3": "IUCN2.3"
    },
    {
        "col0": "Gulella unidentata",
        "col1": "Streptaxoidea",
        "col2": "DD",
        "col3": "IUCN2.3"
    },
    {
        "col0": "Gulella translucida",
        "col1": "Streptaxoidea",
        "col2": "DD",
        "col3": "IUCN2.3"
    },
    {
        "col0": "Gulella taitensis",
        "col1": "Streptaxoidea",
        "col2": "EN",
        "col3": "IUCN3.1"
    },
    {
        "col0": "Gulella salpinx",
        "col1": "Streptaxoidea",
        "col2": "CR",
        "col3": "IUCN3.1"
    },
    {
        "col0": "Gulella puzeyi",
        "col1": "Streptaxoidea",
        "col2": "CR",
        "col3": "IUCN3.1"
    },
    {
        "col0": "Gulella paucidens",
        "col1": "Streptaxoidea",
        "col2": "DD",
        "col3": "IUCN2.3"
    },
    {
        "col0": "Gulella ndamanyiluensis",
        "col1": "Streptaxoidea",
        "col2": "DD",
        "col3": "IUCN2.3"
    },
    {
        "col0": "Gulella mayottensis",
        "col1": "Streptaxoidea",
        "col2": "EX",
        "col3": "IUCN2.3"
    },
    {
        "col0": "Gulella ludwigi",
        "col1": "Streptaxoidea",
        "col2": "DD",
        "col3": "IUCN2.3"
    },
    {
        "col0": "Gulella intrusa",
        "col1": "Streptaxoidea",
        "col2": "DD",
        "col3": "IUCN2.3"
    },
    {
        "col0": "Gulella inconspicua",
        "col1": "Streptaxoidea",
        "col2": "DD",
        "col3": "IUCN2.3"
    },
    {
        "col0": "Gulella grossa",
        "col1": "Streptaxoidea",
        "col2": "DD",
        "col3": "IUCN2.3"
    },
    {
        "col0": "Gulella greenwayi",
        "col1": "Streptaxoidea",
        "col2": "DD",
        "col3": "IUCN2.3"
    },
    {
        "col0": "Gulella foliifera",
        "col1": "Streptaxoidea",
        "col2": "DD",
        "col3": "IUCN2.3"
    },
    {
        "col0": "Gulella cuspidata",
        "col1": "Streptaxoidea",
        "col2": "DD",
        "col3": "IUCN2.3"
    },
    {
        "col0": "Gulella claustralis",
        "col1": "Streptaxoidea",
        "col2": "EN",
        "col3": "IUCN3.1"
    },
    {
        "col0": "Gulella bomolensis",
        "col1": "Streptaxoidea",
        "col2": "DD",
        "col3": "IUCN2.3"
    },
    {
        "col0": "Gulella aprosdoketa",
        "col1": "Streptaxoidea",
        "col2": "EN",
        "col3": "IUCN3.1"
    },
    {
        "col0": "Gulella antelmeana",
        "col1": "Streptaxoidea",
        "col2": "EN",
        "col3": "IUCN2.3"
    },
    {
        "col0": "Gulella amboniensis",
        "col1": "Streptaxoidea",
        "col2": "VU",
        "col3": "IUCN2.3"
    },
    {
        "col0": "Gulella amaniensis",
        "col1": "Streptaxoidea",
        "col2": "DD",
        "col3": "IUCN2.3"
    }
]