[
    {
        "col0": "Sweden at the 1948 Winter Olympics",
        "col1": "3",
        "col2": "3",
        "col3": "4"
    },
    {
        "col0": "Sweden at the 1948 Summer Olympics",
        "col1": "17",
        "col2": "11",
        "col3": "16"
    },
    {
        "col0": "Sweden at the 1936 Winter Olympics",
        "col1": "3",
        "col2": "2",
        "col3": "2"
    },
    {
        "col0": "Sweden at the 1936 Summer Olympics",
        "col1": "9",
        "col2": "5",
        "col3": "6"
    },
    {
        "col0": "Sweden at the 1932 Winter Olympics",
        "col1": "0",
        "col2": "2",
        "col3": "1"
    },
    {
        "col0": "Sweden at the 1932 Summer Olympics",
        "col1": "9",
        "col2": "5",
        "col3": "9"
    },
    {
        "col0": "Sweden at the 1928 Winter Olympics",
        "col1": "1",
        "col2": "2",
        "col3": "2"
    },
    {
        "col0": "Sweden at the 1928 Summer Olympics",
        "col1": "12",
        "col2": "6",
        "col3": "7"
    },
    {
        "col0": "Sweden at the 1924 Winter Olympics",
        "col1": "0",
        "col2": "1",
        "col3": "1"
    },
    {
        "col0": "Sweden at the 1924 Summer Olympics",
        "col1": "12",
        "col2": "13",
        "col3": "4"
    },
    {
        "col0": "Sweden at the 1920 Summer Olympics",
        "col1": "25",
        "col2": "20",
        "col3": "19"
    },
    {
        "col0": "Sweden at the 1912 Summer Olympics",
        "col1": "17",
        "col2": "24",
        "col3": "24"
    },
    {
        "col0": "Sweden at the 1908 Summer Olympics",
        "col1": "11",
        "col2": "6",
        "col3": "8"
    },
    {
        "col0": "Sweden at the 1906 Intercalated Games",
        "col1": "7",
        "col2": "5",
        "col3": "2"
    },
    {
        "col0": "Sweden at the 1900 Summer Olympics",
        "col1": "1",
        "col2": "0",
        "col3": "0"
    },
    {
        "col0": "Refugee Olympic Team at the 2016 Summer Olympics",
        "col1": "0",
        "col2": "0",
        "col3": "0"
    },
    {
        "col0": "Norway at the 2014 Winter Olympics",
        "col1": "10",
        "col2": "5",
        "col3": "11"
    },
    {
        "col0": "Norway at the 2012 Summer Olympics",
        "col1": "1",
        "col2": "1",
        "col3": "2"
    },
    {
        "col0": "Norway at the 2010 Winter Olympics",
        "col1": "6",
        "col2": "8",
        "col3": "9"
    },
    {
        "col0": "Norway at the 2008 Summer Olympics",
        "col1": "1",
        "col2": "5",
        "col3": "3"
    },
    {
        "col0": "Norway at the 2006 Winter Olympics",
        "col1": "9",
        "col2": "8",
        "col3": "2"
    },
    {
        "col0": "Norway at the 2004 Summer Olympics",
        "col1": "1",
        "col2": "0",
        "col3": "5"
    },
    {
        "col0": "Norway at the 2002 Winter Olympics",
        "col1": "7",
        "col2": "5",
        "col3": "13"
    },
    {
        "col0": "Norway at the 2000 Summer Olympics",
        "col1": "3",
        "col2": "3",
        "col3": "4"
    },
    {
        "col0": "Norway at the 1998 Winter Olympics",
        "col1": "5",
        "col2": "10",
        "col3": "10"
    },
    {
        "col0": "Norway at the 1996 Summer Olympics",
        "col1": "3",
        "col2": "2",
        "col3": "2"
    },
    {
        "col0": "Norway at the 1994 Winter Olympics",
        "col1": "5",
        "col2": "11",
        "col3": "10"
    },
    {
        "col0": "Norway at the 1992 Winter Olympics",
        "col1": "5",
        "col2": "6",
        "col3": "9"
    },
    {
        "col0": "Norway at the 1992 Summer Olympics",
        "col1": "1",
        "col2": "4",
        "col3": "2"
    },
    {
        "col0": "Norway at the 1988 Winter Olympics",
        "col1": "2",
        "col2": "3",
        "col3": "0"
    },
    {
        "col0": "Norway at the 1988 Summer Olympics",
        "col1": "0",
        "col2": "3",
        "col3": "2"
    },
    {
        "col0": "Norway at the 1984 Winter Olympics",
        "col1": "4",
        "col2": "2",
        "col3": "3"
    },
    {
        "col0": "Norway at the 1984 Summer Olympics",
        "col1": "2",
        "col2": "1",
        "col3": "0"
    },
    {
        "col0": "Norway at the 1980 Winter Olympics",
        "col1": "6",
        "col2": "3",
        "col3": "1"
    },
    {
        "col0": "Norway at the 1976 Winter Olympics",
        "col1": "1",
        "col2": "3",
        "col3": "3"
    },
    {
        "col0": "Norway at the 1976 Summer Olympics",
        "col1": "0",
        "col2": "1",
        "col3": "1"
    },
    {
        "col0": "Norway at the 1972 Winter Olympics",
        "col1": "5",
        "col2": "5",
        "col3": "2"
    },
    {
        "col0": "Norway at the 1972 Summer Olympics",
        "col1": "1",
        "col2": "1",
        "col3": "2"
    },
    {
        "col0": "Norway at the 1968 Winter Olympics",
        "col1": "2",
        "col2": "6",
        "col3": "6"
    },
    {
        "col0": "Norway at the 1968 Summer Olympics",
        "col1": "0",
        "col2": "1",
        "col3": "1"
    },
    {
        "col0": "Norway at the 1964 Winter Olympics",
        "col1": "6",
        "col2": "6",
        "col3": "3"
    },
    {
        "col0": "Norway at the 1960 Winter Olympics",
        "col1": "0",
        "col2": "3",
        "col3": "3"
    },
    {
        "col0": "Norway at the 1960 Summer Olympics",
        "col1": "0",
        "col2": "0",
        "col3": "1"
    },
    {
        "col0": "Norway at the 1956 Winter Olympics",
        "col1": "1",
        "col2": "1",
        "col3": "2"
    },
    {
        "col0": "Norway at the 1956 Summer Olympics",
        "col1": "2",
        "col2": "0",
        "col3": "1"
    },
    {
        "col0": "Norway at the 1952 Winter Olympics",
        "col1": "6",
        "col2": "3",
        "col3": "7"
    },
    {
        "col0": "Norway at the 1952 Summer Olympics",
        "col1": "0",
        "col2": "2",
        "col3": "3"
    },
    {
        "col0": "Norway at the 1948 Winter Olympics",
        "col1": "3",
        "col2": "3",
        "col3": "4"
    },
    {
        "col0": "Norway at the 1948 Summer Olympics",
        "col1": "3",
        "col2": "3",
        "col3": "1"
    },
    {
        "col0": "Norway at the 1936 Winter Olympics",
        "col1": "3",
        "col2": "5",
        "col3": "7"
    },
    {
        "col0": "Norway at the 1936 Summer Olympics",
        "col1": "2",
        "col2": "3",
        "col3": "1"
    },
    {
        "col0": "Norway at the 1932 Winter Olympics",
        "col1": "3",
        "col2": "4",
        "col3": "3"
    },
    {
        "col0": "Norway at the 1928 Winter Olympics",
        "col1": "5",
        "col2": "4",
        "col3": "6"
    },
    {
        "col0": "Norway at the 1928 Summer Olympics",
        "col1": "1",
        "col2": "2",
        "col3": "1"
    },
    {
        "col0": "Norway at the 1924 Winter Olympics",
        "col1": "6",
        "col2": "7",
        "col3": "4"
    },
    {
        "col0": "Norway at the 1924 Summer Olympics",
        "col1": "3",
        "col2": "2",
        "col3": "5"
    },
    {
        "col0": "Norway at the 1920 Summer Olympics",
        "col1": "9",
        "col2": "9",
        "col3": "13"
    },
    {
        "col0": "Norway at the 1912 Summer Olympics",
        "col1": "4",
        "col2": "1",
        "col3": "4"
    },
    {
        "col0": "Norway at the 1908 Summer Olympics",
        "col1": "3",
        "col2": "3",
        "col3": "2"
    },
    {
        "col0": "Norway at the 1906 Intercalated Games",
        "col1": "0",
        "col2": "1",
        "col3": "1"
    },
    {
        "col0": "Norway at the 1900 Summer Olympics",
        "col1": "3",
        "col2": "2",
        "col3": "0"
    },
    {
        "col0": "Netherlands at the 2016 Summer Olympics",
        "col1": "4",
        "col2": "7",
        "col3": "8"
    },
    {
        "col0": "Netherlands at the 2014 Winter Olympics",
        "col1": "9",
        "col2": "7",
        "col3": "8"
    },
    {
        "col0": "Netherlands at the 2012 Summer Olympics",
        "col1": "8",
        "col2": "6",
        "col3": "6"
    },
    {
        "col0": "Netherlands at the 2010 Winter Olympics",
        "col1": "3",
        "col2": "1",
        "col3": "4"
    },
    {
        "col0": "Netherlands at the 2008 Summer Olympics",
        "col1": "4",
        "col2": "5",
        "col3": "7"
    },
    {
        "col0": "Netherlands at the 2006 Winter Olympics",
        "col1": "4",
        "col2": "2",
        "col3": "3"
    },
    {
        "col0": "Netherlands at the 2004 Summer Olympics",
        "col1": "9",
        "col2": "9",
        "col3": "4"
    },
    {
        "col0": "Netherlands at the 2002 Winter Olympics",
        "col1": "0",
        "col2": "5",
        "col3": "3"
    },
    {
        "col0": "Netherlands at the 2000 Summer Olympics",
        "col1": "4",
        "col2": "9",
        "col3": "12"
    },
    {
        "col0": "Netherlands at the 1998 Winter Olympics",
        "col1": "2",
        "col2": "4",
        "col3": "5"
    },
    {
        "col0": "Netherlands at the 1996 Summer Olympics",
        "col1": "10",
        "col2": "5",
        "col3": "4"
    },
    {
        "col0": "Netherlands at the 1994 Winter Olympics",
        "col1": "3",
        "col2": "1",
        "col3": "0"
    },
    {
        "col0": "Netherlands at the 1992 Winter Olympics",
        "col1": "2",
        "col2": "1",
        "col3": "1"
    },
    {
        "col0": "Netherlands at the 1992 Summer Olympics",
        "col1": "7",
        "col2": "6",
        "col3": "2"
    },
    {
        "col0": "Netherlands at the 1988 Winter Olympics",
        "col1": "2",
        "col2": "2",
        "col3": "3"
    },
    {
        "col0": "Netherlands at the 1988 Summer Olympics",
        "col1": "5",
        "col2": "2",
        "col3": "2"
    },
    {
        "col0": "Netherlands at the 1984 Winter Olympics",
        "col1": "0",
        "col2": "0",
        "col3": "0"
    },
    {
        "col0": "Netherlands at the 1984 Summer Olympics",
        "col1": "6",
        "col2": "2",
        "col3": "5"
    },
    {
        "col0": "Netherlands at the 1980 Winter Olympics",
        "col1": "1",
        "col2": "2",
        "col3": "1"
    },
    {
        "col0": "Netherlands at the 1980 Summer Olympics",
        "col1": "2",
        "col2": "1",
        "col3": "0"
    },
    {
        "col0": "Netherlands at the 1976 Winter Olympics",
        "col1": "3",
        "col2": "2",
        "col3": "1"
    },
    {
        "col0": "Netherlands at the 1976 Summer Olympics",
        "col1": "3",
        "col2": "2",
        "col3": "0"
    },
    {
        "col0": "Netherlands at the 1972 Winter Olympics",
        "col1": "2",
        "col2": "3",
        "col3": "4"
    },
    {
        "col0": "Netherlands at the 1972 Summer Olympics",
        "col1": "1",
        "col2": "1",
        "col3": "3"
    },
    {
        "col0": "Netherlands at the 1968 Winter Olympics",
        "col1": "3",
        "col2": "3",
        "col3": "3"
    },
    {
        "col0": "Netherlands at the 1968 Summer Olympics",
        "col1": "1",
        "col2": "3",
        "col3": "3"
    },
    {
        "col0": "Netherlands at the 1964 Winter Olympics",
        "col1": "0",
        "col2": "1",
        "col3": "1"
    },
    {
        "col0": "Netherlands at the 1964 Summer Olympics",
        "col1": "4",
        "col2": "4",
        "col3": "2"
    },
    {
        "col0": "Netherlands at the 1960 Winter Olympics",
        "col1": "1",
        "col2": "1",
        "col3": "0"
    },
    {
        "col0": "Netherlands at the 1960 Summer Olympics",
        "col1": "2",
        "col2": "1",
        "col3": "0"
    },
    {
        "col0": "Netherlands at the 1956 Winter Olympics",
        "col1": "0",
        "col2": "0",
        "col3": "0"
    },
    {
        "col0": "Netherlands at the 1952 Winter Olympics",
        "col1": "0",
        "col2": "3",
        "col3": "0"
    },
    {
        "col0": "Netherlands at the 1952 Summer Olympics",
        "col1": "0",
        "col2": "5",
        "col3": "0"
    },
    {
        "col0": "Netherlands at the 1948 Summer Olympics",
        "col1": "9",
        "col2": "2",
        "col3": "5"
    },
    {
        "col0": "Netherlands at the 1936 Summer Olympics",
        "col1": "7",
        "col2": "4",
        "col3": "6"
    },
    {
        "col0": "Netherlands at the 1932 Summer Olympics",
        "col1": "0",
        "col2": "5",
        "col3": "2"
    },
    {
        "col0": "Netherlands at the 1928 Summer Olympics",
        "col1": "4",
        "col2": "9",
        "col3": "6"
    },
    {
        "col0": "Netherlands at the 1924 Summer Olympics",
        "col1": "5",
        "col2": "1",
        "col3": "4"
    },
    {
        "col0": "Netherlands at the 1920 Summer Olympics",
        "col1": "5",
        "col2": "2",
        "col3": "4"
    },
    {
        "col0": "Netherlands at the 1912 Summer Olympics",
        "col1": "3",
        "col2": "0",
        "col3": "0"
    },
    {
        "col0": "Netherlands at the 1908 Summer Olympics",
        "col1": "2",
        "col2": "0",
        "col3": "0"
    },
    {
        "col0": "Netherlands at the 1906 Intercalated Games",
        "col1": "2",
        "col2": "1",
        "col3": "0"
    },
    {
        "col0": "Netherlands at the 1900 Summer Olympics",
        "col1": "3",
        "col2": "1",
        "col3": "0"
    },
    {
        "col0": "List of flag bearers for Italy at the Olympics",
        "col1": "185",
        "col2": "166",
        "col3": "199"
    },
    {
        "col0": "Italy at the Olympics",
        "col1": "193",
        "col2": "178",
        "col3": "206"
    },
    {
        "col0": "Italy at the 2016 Summer Olympics",
        "col1": "8",
        "col2": "12",
        "col3": "8"
    },
    {
        "col0": "Italy at the 2014 Winter Olympics",
        "col1": "6",
        "col2": "2",
        "col3": "0"
    },
    {
        "col0": "Italy at the 2012 Summer Olympics",
        "col1": "11",
        "col2": "9",
        "col3": "8"
    },
    {
        "col0": "Italy at the 2010 Winter Olympics",
        "col1": "3",
        "col2": "1",
        "col3": "1"
    },
    {
        "col0": "Italy at the 2008 Summer Olympics",
        "col1": "10",
        "col2": "9",
        "col3": "8"
    },
    {
        "col0": "Italy at the 2006 Winter Olympics",
        "col1": "6",
        "col2": "0",
        "col3": "5"
    },
    {
        "col0": "Italy at the 2004 Summer Olympics",
        "col1": "11",
        "col2": "11",
        "col3": "10"
    },
    {
        "col0": "Italy at the 2002 Winter Olympics",
        "col1": "5",
        "col2": "4",
        "col3": "4"
    },
    {
        "col0": "Italy at the 2000 Summer Olympics",
        "col1": "13",
        "col2": "8",
        "col3": "13"
    },
    {
        "col0": "Italy at the 1998 Winter Olympics",
        "col1": "2",
        "col2": "6",
        "col3": "2"
    },
    {
        "col0": "Italy at the 1996 Summer Olympics",
        "col1": "12",
        "col2": "10",
        "col3": "13"
    },
    {
        "col0": "Italy at the 1994 Winter Olympics",
        "col1": "8",
        "col2": "5",
        "col3": "7"
    },
    {
        "col0": "Italy at the 1992 Winter Olympics",
        "col1": "4",
        "col2": "6",
        "col3": "4"
    },
    {
        "col0": "Italy at the 1992 Summer Olympics",
        "col1": "8",
        "col2": "5",
        "col3": "6"
    },
    {
        "col0": "Italy at the 1988 Winter Olympics",
        "col1": "2",
        "col2": "1",
        "col3": "2"
    },
    {
        "col0": "Italy at the 1988 Summer Olympics",
        "col1": "4",
        "col2": "4",
        "col3": "6"
    },
    {
        "col0": "Italy at the 1984 Winter Olympics",
        "col1": "0",
        "col2": "0",
        "col3": "2"
    },
    {
        "col0": "Italy at the 1984 Summer Olympics",
        "col1": "12",
        "col2": "6",
        "col3": "14"
    },
    {
        "col0": "Italy at the 1980 Winter Olympics",
        "col1": "0",
        "col2": "2",
        "col3": "0"
    },
    {
        "col0": "Italy at the 1980 Summer Olympics",
        "col1": "4",
        "col2": "3",
        "col3": "8"
    },
    {
        "col0": "Italy at the 1976 Winter Olympics",
        "col1": "1",
        "col2": "2",
        "col3": "1"
    },
    {
        "col0": "Italy at the 1976 Summer Olympics",
        "col1": "4",
        "col2": "7",
        "col3": "2"
    },
    {
        "col0": "Italy at the 1972 Winter Olympics",
        "col1": "1",
        "col2": "2",
        "col3": "2"
    },
    {
        "col0": "Italy at the 1972 Summer Olympics",
        "col1": "10",
        "col2": "3",
        "col3": "5"
    },
    {
        "col0": "Italy at the 1968 Winter Olympics",
        "col1": "0",
        "col2": "0",
        "col3": "4"
    },
    {
        "col0": "Italy at the 1968 Summer Olympics",
        "col1": "9",
        "col2": "4",
        "col3": "3"
    },
    {
        "col0": "Italy at the 1964 Winter Olympics",
        "col1": "3",
        "col2": "1",
        "col3": "0"
    },
    {
        "col0": "Italy at the 1964 Summer Olympics",
        "col1": "7",
        "col2": "10",
        "col3": "10"
    },
    {
        "col0": "Italy at the 1960 Winter Olympics",
        "col1": "1",
        "col2": "0",
        "col3": "0"
    },
    {
        "col0": "Italy at the 1960 Summer Olympics",
        "col1": "13",
        "col2": "10",
        "col3": "13"
    },
    {
        "col0": "Italy at the 1956 Winter Olympics",
        "col1": "0",
        "col2": "2",
        "col3": "1"
    },
    {
        "col0": "Italy at the 1956 Summer Olympics",
        "col1": "9",
        "col2": "8",
        "col3": "8"
    },
    {
        "col0": "Italy at the 1952 Winter Olympics",
        "col1": "1",
        "col2": "0",
        "col3": "1"
    },
    {
        "col0": "Italy at the 1952 Summer Olympics",
        "col1": "4",
        "col2": "9",
        "col3": "8"
    },
    {
        "col0": "Italy at the 1948 Winter Olympics",
        "col1": "0",
        "col2": "0",
        "col3": "1"
    },
    {
        "col0": "Italy at the 1948 Summer Olympics",
        "col1": "8",
        "col2": "11",
        "col3": "8"
    },
    {
        "col0": "Italy at the 1936 Summer Olympics",
        "col1": "5",
        "col2": "9",
        "col3": "8"
    },
    {
        "col0": "Italy at the 1932 Summer Olympics",
        "col1": "12",
        "col2": "12",
        "col3": "12"
    },
    {
        "col0": "Italy at the 1928 Summer Olympics",
        "col1": "7",
        "col2": "5",
        "col3": "7"
    },
    {
        "col0": "Italy at the 1924 Winter Olympics",
        "col1": "0",
        "col2": "0",
        "col3": "0"
    },
    {
        "col0": "Italy at the 1924 Summer Olympics",
        "col1": "5",
        "col2": "3",
        "col3": "8"
    },
    {
        "col0": "Italy at the 1920 Summer Olympics",
        "col1": "5",
        "col2": "5",
        "col3": "13"
    },
    {
        "col0": "Italy at the 1912 Summer Olympics",
        "col1": "2",
        "col2": "1",
        "col3": "3"
    },
    {
        "col0": "Italy at the 1908 Summer Olympics",
        "col1": "0",
        "col2": "2",
        "col3": "2"
    },
    {
        "col0": "Italy at the 1906 Intercalated Games",
        "col1": "3",
        "col2": "6",
        "col3": "7"
    },
    {
        "col0": "Italy at the 1900 Summer Olympics",
        "col1": "0",
        "col2": "2",
        "col3": "2"
    },
    {
        "col0": "Independent Olympic Participants at the 1992 Summer Olympics",
        "col1": "2",
        "col2": "1",
        "col3": "0"
    },
    {
        "col0": "Hungary at the 2016 Summer Olympics",
        "col1": "4",
        "col2": "3",
        "col3": "8"
    },
    {
        "col0": "Hungary at the 2012 Summer Olympics",
        "col1": "6",
        "col2": "4",
        "col3": "8"
    },
    {
        "col0": "Hungary at the 2008 Summer Olympics",
        "col1": "2",
        "col2": "5",
        "col3": "3"
    },
    {
        "col0": "Hungary at the 2004 Summer Olympics",
        "col1": "3",
        "col2": "6",
        "col3": "8"
    },
    {
        "col0": "Hungary at the 2000 Summer Olympics",
        "col1": "3",
        "col2": "6",
        "col3": "8"
    },
    {
        "col0": "Hungary at the 1996 Summer Olympics",
        "col1": "10",
        "col2": "4",
        "col3": "7"
    },
    {
        "col0": "Hungary at the 1992 Summer Olympics",
        "col1": "7",
        "col2": "12",
        "col3": "11"
    },
    {
        "col0": "Hungary at the 1988 Summer Olympics",
        "col1": "6",
        "col2": "6",
        "col3": "11"
    },
    {
        "col0": "Hungary at the 1980 Winter Olympics",
        "col1": "0",
        "col2": "1",
        "col3": "0"
    },
    {
        "col0": "Hungary at the 1980 Summer Olympics",
        "col1": "15",
        "col2": "10",
        "col3": "7"
    },
    {
        "col0": "Hungary at the 1976 Summer Olympics",
        "col1": "13",
        "col2": "5",
        "col3": "4"
    },
    {
        "col0": "Hungary at the 1972 Summer Olympics",
        "col1": "16",
        "col2": "13",
        "col3": "6"
    },
    {
        "col0": "Hungary at the 1968 Summer Olympics",
        "col1": "12",
        "col2": "10",
        "col3": "10"
    },
    {
        "col0": "Hungary at the 1964 Summer Olympics",
        "col1": "5",
        "col2": "7",
        "col3": "10"
    },
    {
        "col0": "Hungary at the 1960 Summer Olympics",
        "col1": "7",
        "col2": "8",
        "col3": "6"
    },
    {
        "col0": "Hungary at the 1956 Winter Olympics",
        "col1": "1",
        "col2": "0",
        "col3": "0"
    },
    {
        "col0": "Hungary at the 1956 Summer Olympics",
        "col1": "7",
        "col2": "10",
        "col3": "9"
    },
    {
        "col0": "Hungary at the 1952 Winter Olympics",
        "col1": "1",
        "col2": "0",
        "col3": "0"
    },
    {
        "col0": "Hungary at the 1952 Summer Olympics",
        "col1": "16",
        "col2": "10",
        "col3": "16"
    },
    {
        "col0": "Hungary at the 1948 Winter Olympics",
        "col1": "0",
        "col2": "1",
        "col3": "0"
    },
    {
        "col0": "Hungary at the 1948 Summer Olympics",
        "col1": "12",
        "col2": "5",
        "col3": "10"
    },
    {
        "col0": "Hungary at the 1936 Winter Olympics",
        "col1": "1",
        "col2": "0",
        "col3": "0"
    },
    {
        "col0": "Hungary at the 1936 Summer Olympics",
        "col1": "5",
        "col2": "1",
        "col3": "10"
    },
    {
        "col0": "Hungary at the 1932 Winter Olympics",
        "col1": "1",
        "col2": "0",
        "col3": "0"
    },
    {
        "col0": "Hungary at the 1932 Summer Olympics",
        "col1": "5",
        "col2": "4",
        "col3": "6"
    },
    {
        "col0": "Hungary at the 1928 Summer Olympics",
        "col1": "0",
        "col2": "5",
        "col3": "4"
    },
    {
        "col0": "Hungary at the 1924 Winter Olympics",
        "col1": "0",
        "col2": "0",
        "col3": "0"
    },
    {
        "col0": "Hungary at the 1924 Summer Olympics",
        "col1": "4",
        "col2": "3",
        "col3": "2"
    },
    {
        "col0": "Hungary at the 1912 Summer Olympics",
        "col1": "3",
        "col2": "2",
        "col3": "3"
    },
    {
        "col0": "Hungary at the 1908 Summer Olympics",
        "col1": "2",
        "col2": "4",
        "col3": "3"
    }
]