[
    {
        "col0": "Tirthapati Institution",
        "col1": "Urban area",
        "col2": "1932-01-04",
        "col3": "7"
    },
    {
        "col0": "St. George's Grammar School",
        "col1": "Suburban",
        "col2": "1848-04-11",
        "col3": "52"
    },
    {
        "col0": "Pretoria Boys High School",
        "col1": "Urban",
        "col2": "1901-06-03",
        "col3": "100"
    },
    {
        "col0": "Kendriya Vidyalaya No. 1 AFA, Dundigal",
        "col1": "Co-educational",
        "col2": "1977-03-24",
        "col3": "47"
    },
    {
        "col0": "Kendriya Vidyalaya Hebbal, Bangalore",
        "col1": "Co-educational",
        "col2": "1965-09-01",
        "col3": "85"
    },
    {
        "col0": "Jefferson City High School",
        "col1": "High School and Nichols Career Center",
        "col2": "1964-01-22",
        "col3": "167"
    },
    {
        "col0": "Ghana Senior High School",
        "col1": "Residential garden-style Setting",
        "col2": "1937-11-17",
        "col3": "82"
    },
    {
        "col0": "Dhaka Imperial College",
        "col1": "Urban",
        "col2": "1995-06-10",
        "col3": "38"
    },
    {
        "col0": "Calderglen High School",
        "col1": "Urban",
        "col2": "2008-02-18",
        "col3": "121"
    },
    {
        "col0": "Bangladesh Air Force Shaheen College, Dhaka",
        "col1": "Sub-urban",
        "col2": "1960-03-01",
        "col3": "65"
    },
    {
        "col0": "Army Public School, Dagshai",
        "col1": "Residential",
        "col2": "1986-06-01",
        "col3": "50"
    },
    {
        "col0": "Aggrey Memorial A.M.E. Zion Senior High School",
        "col1": "Rural",
        "col2": "1940-01-22",
        "col3": "200"
    },
    {
        "col0": "Achimota School",
        "col1": "Residential garden-style Setting",
        "col2": "1927-01-28",
        "col3": "82"
    }
]