[
    {
        "col0": "Chilgok-Unam Station",
        "col1": "2",
        "col2": "Guam-dong,Buk District,Daegu",
        "col3": "316"
    },
    {
        "col0": "Children's Hall Station",
        "col1": "2",
        "col2": "Hwanggeum-dong,Suseong District,Daegu",
        "col3": "336"
    },
    {
        "col0": "Centum City Station",
        "col1": "2",
        "col2": "U-dong,Haeundae District,Busan",
        "col3": "206"
    },
    {
        "col0": "Buwon Station",
        "col1": "2",
        "col2": "Buwon-dong,Gimhae",
        "col3": "15"
    },
    {
        "col0": "Busanjin Station",
        "col1": "3",
        "col2": "Sujeong-dong,Dong District,Busan",
        "col3": "115"
    },
    {
        "col0": "Busan Station",
        "col1": "2",
        "col2": "Choryang-dong,Dong District,Busan",
        "col3": "113"
    },
    {
        "col0": "Busan National University of Education Station",
        "col1": "2",
        "col2": "Geoje-dong,Yeonje District,Busan",
        "col3": "124"
    },
    {
        "col0": "Busan Museum of Art Station",
        "col1": "2",
        "col2": "U-dong,Haeundae District,Busan",
        "col3": "205"
    },
    {
        "col0": "Busan International Finance Center-Busan Bank Station",
        "col1": "2",
        "col2": "Munhyeon-dong,Nam District,Busan",
        "col3": "217"
    },
    {
        "col0": "Buram Station",
        "col1": "2",
        "col2": "Buram-dong,Gimhae",
        "col3": "10"
    },
    {
        "col0": "Buk-gu Office Station",
        "col1": "2",
        "col2": "Wondae-dong,Seo District,Daegu",
        "col3": "326"
    },
    {
        "col0": "Bujeon Station",
        "col1": "2",
        "col2": "Bujeon-dong,Busanjin District,Busan",
        "col3": "120"
    },
    {
        "col0": "Buam Station",
        "col1": "2",
        "col2": "Beomcheon-dong,Busanjin District,Busan",
        "col3": "220"
    },
    {
        "col0": "Bonghwang Station",
        "col1": "2",
        "col2": "Jeonha-dong,Gimhae",
        "col3": "16"
    },
    {
        "col0": "Beomnaegol Station",
        "col1": "2",
        "col2": "Beomcheon-dong,Busanjin District,Busan",
        "col3": "118"
    },
    {
        "col0": "Beomil Station",
        "col1": "2",
        "col2": "Beomil-dong,Dong District,Busan",
        "col3": "117"
    },
    {
        "col0": "Beomeosa Station",
        "col1": "2",
        "col2": "Cheongnyong-dong,Geumjeong District,Busan",
        "col3": "133"
    },
    {
        "col0": "Beomeo Station",
        "col1": "2",
        "col2": "Beomeo-dong,Suseong District,Daegu",
        "col3": "233"
    },
    {
        "col0": "Banyeo Agricultural Market Station",
        "col1": "2",
        "col2": "Seokdae-dong,Haeundae District,Busan",
        "col3": "409"
    },
    {
        "col0": "Banseok Station",
        "col1": "3",
        "col2": "Banseok-dong,Yuseong District,Daejeon",
        "col3": "122"
    },
    {
        "col0": "Bangogae Station",
        "col1": "2",
        "col2": "Duryu-dong,Dalseo District,Daegu",
        "col3": "228"
    },
    {
        "col0": "Bakkai Station",
        "col1": "2",
        "col2": "Wakkanai,Hokkaido",
        "col3": "W78"
    },
    {
        "col0": "Baesan Station",
        "col1": "2",
        "col2": "Yeonsan-dong,Yeonje District,Busan",
        "col3": "303"
    },
    {
        "col0": "Ansim Station",
        "col1": "2",
        "col2": "536-1 Goejeon-dong",
        "col3": "146"
    },
    {
        "col0": "Anpyeong Station",
        "col1": "2",
        "col2": "Cheolma-myeon,Gijang County,Busan",
        "col3": "414"
    },
    {
        "col0": "Airport Station",
        "col1": "2",
        "col2": "Sinchon-dong,Gwangsan District,Gwangju",
        "col3": "115"
    }
]