[
    {
        "col0": "William Donald Patrick, Lord Patrick",
        "col1": "Edinburgh",
        "col2": "University of Glasgow",
        "col3": "William Donald Patrick"
    },
    {
        "col0": "T. R. Dalton",
        "col1": "United States",
        "col2": "College of William & Mary",
        "col3": "Theodore Roosevelt Dalton"
    },
    {
        "col0": "R. Wilson",
        "col1": "Western Australia",
        "col2": "University of Pennsylvania",
        "col3": "Ronald Darling Wilson"
    },
    {
        "col0": "Robert Smith Johnston, Lord Kincraig",
        "col1": "Edinburgh",
        "col2": "St John's College, Cambridge",
        "col3": "Robert Smith Johnston"
    },
    {
        "col0": "Petrus Peckius the Elder",
        "col1": "Mechelen",
        "col2": "Old University of Leuven",
        "col3": "Pieter Peck"
    },
    {
        "col0": "M. G. Cedarbaum",
        "col1": "Manhattan",
        "col2": "Barnard College",
        "col3": "Miriam Goldman"
    },
    {
        "col0": "Michael Mustill, Baron Mustill",
        "col1": "Harrogate",
        "col2": "St John's College, Cambridge",
        "col3": "Michael John Mustill"
    },
    {
        "col0": "K. S. Rajah",
        "col1": "Singapore",
        "col2": "National University of Singapore",
        "col3": "Kasinather Saunthararajah"
    },
    {
        "col0": "J. D. Lowe",
        "col1": "Edinburgh",
        "col2": "University of Glasgow",
        "col3": "John Duncan Lowe"
    },
    {
        "col0": "J. C. Turk",
        "col1": "United States",
        "col2": "Roanoke College",
        "col3": "James C. Turk"
    },
    {
        "col0": "Geoffrey Lawrence, 1st Baron Oaksey",
        "col1": "Malmesbury",
        "col2": "New College, Oxford",
        "col3": "Geoffrey Lawrence"
    },
    {
        "col0": "E. Sachs",
        "col1": "Wadhurst",
        "col2": "Christ Church, Oxford",
        "col3": "Eric Leopold Otho Sachs"
    },
    {
        "col0": "D. Patel",
        "col1": "Islamabad",
        "col2": "Juris Doctor",
        "col3": "Dorab Framrose Patel"
    },
    {
        "col0": "C. Singh",
        "col1": "Singapore",
        "col2": "University of London",
        "col3": "Choor Singh Sidhu"
    },
    {
        "col0": "C. M. Sharif",
        "col1": "Bahawalpur",
        "col2": "Lahore",
        "col3": "(chwhdry mHmd shryf)"
    },
    {
        "col0": "B. O'Keefe",
        "col1": "New South Wales",
        "col2": "University of Sydney",
        "col3": "Barry Stanley John O'Keefe"
    },
    {
        "col0": "A. L. Roaf",
        "col1": "Little Rock, Arkansas",
        "col2": "Michigan State University",
        "col3": "Andree Yvonne Layton"
    },
    {
        "col0": "A. Rashid",
        "col1": "Islamabad",
        "col2": "Cambridge University",
        "col3": "Abdul Rashid"
    }
]