[
    {
        "col0": "Yellow-throated bunting",
        "col1": "Emberizidae",
        "col2": "IUCN3.1",
        "col3": "LC"
    },
    {
        "col0": "Yellow-throated bulbul",
        "col1": "Bulbul",
        "col2": "IUCN3.1",
        "col3": "VU"
    },
    {
        "col0": "Yellow-throated big-eared bat",
        "col1": "Phyllostomidae",
        "col2": "IUCN3.1",
        "col3": "LC"
    },
    {
        "col0": "Yellow-throated apalis",
        "col1": "Cisticolidae",
        "col2": "IUCN3.1",
        "col3": "EN"
    },
    {
        "col0": "Yellow-throated antwren",
        "col1": "Thamnophilidae",
        "col2": "IUCN3.1",
        "col3": "LC"
    },
    {
        "col0": "Yellow-thighed finch",
        "col1": "Emberizidae",
        "col2": "IUCN3.1",
        "col3": "LC"
    },
    {
        "col0": "Yellow-tailed woolly monkey",
        "col1": "Atelidae",
        "col2": "iucn3.1",
        "col3": "CR"
    },
    {
        "col0": "Yellow-tailed rat",
        "col1": "Muridae",
        "col2": "IUCN2.3",
        "col3": "LR/lc"
    },
    {
        "col0": "Yellow-tailed parrot",
        "col1": "Neotropical parrot",
        "col2": "IUCN3.1",
        "col3": "VU"
    },
    {
        "col0": "Yellow-tailed oriole",
        "col1": "Icteridae",
        "col2": "IUCN3.1",
        "col3": "LC"
    },
    {
        "col0": "Yellow-tailed black cockatoo",
        "col1": "Cacatuidae",
        "col2": "IUCN3.1",
        "col3": "LC"
    },
    {
        "col0": "Yellow-striped poison frog",
        "col1": "Dendrobatidae",
        "col2": "IUCN3.1",
        "col3": "LC"
    },
    {
        "col0": "Yellow-striped caecilian",
        "col1": "Ichthyophiidae",
        "col2": "iucn3.1",
        "col3": "LC"
    },
    {
        "col0": "Yellow-striped brush finch",
        "col1": "Emberizidae",
        "col2": "IUCN3.1",
        "col3": "LC"
    },
    {
        "col0": "Yellow-streaked warbler",
        "col1": "Phylloscopidae",
        "col2": "IUCN3.1",
        "col3": "LC"
    },
    {
        "col0": "Yellow-streaked greenbul",
        "col1": "Pycnonotidae",
        "col2": "IUCN3.1",
        "col3": "LC"
    },
    {
        "col0": "Yellow-spotted salamander",
        "col1": "Hynobiidae",
        "col2": "IUCN3.1",
        "col3": "VU"
    },
    {
        "col0": "Yellow-spotted rock hyrax",
        "col1": "Procaviidae",
        "col2": "iucn3.1",
        "col3": "LC"
    },
    {
        "col0": "Yellow-spotted river turtle",
        "col1": "Podocnemididae",
        "col2": "iucn2.3",
        "col3": "VU"
    },
    {
        "col0": "Yellow-spotted petronia",
        "col1": "Passeroidea",
        "col2": "IUCN3.1",
        "col3": "LC"
    },
    {
        "col0": "Yellow-spotted newt",
        "col1": "Salamandridae",
        "col2": "IUCN3.1",
        "col3": "VU"
    },
    {
        "col0": "Yellow-spotted keelback",
        "col1": "Colubridae",
        "col2": "IUCN3.1",
        "col3": "LC"
    },
    {
        "col0": "Yellow-spotted honeyeater",
        "col1": "Meliphagidae",
        "col2": "IUCN3.1",
        "col3": "LC"
    },
    {
        "col0": "Yellow-spotted brush-furred rat",
        "col1": "Muridae",
        "col2": "IUCN3.1",
        "col3": "LC"
    },
    {
        "col0": "Yellow-spotted barbet",
        "col1": "Lybiidae",
        "col2": "iucn3.1",
        "col3": "LC"
    },
    {
        "col0": "Yellow-sided opossum",
        "col1": "Didelphidae",
        "col2": "iucn3.1",
        "col3": "LC"
    },
    {
        "col0": "Yellow-sided flowerpecker",
        "col1": "Dicaeidae",
        "col2": "IUCN3.1",
        "col3": "LC"
    },
    {
        "col0": "Yellow-shouldered grosbeak",
        "col1": "Thraupidae",
        "col2": "IUCN3.1",
        "col3": "LC"
    },
    {
        "col0": "Yellow-shouldered grassquit",
        "col1": "Thraupidae",
        "col2": "IUCN3.1",
        "col3": "LC"
    },
    {
        "col0": "Yellow-shouldered blackbird",
        "col1": "Icterid",
        "col2": "IUCN3.1",
        "col3": "EN"
    },
    {
        "col0": "Yellow-shouldered amazon",
        "col1": "Neotropical parrot",
        "col2": "IUCN3.1",
        "col3": "VU"
    },
    {
        "col0": "Yellow-scarfed tanager",
        "col1": "Thraupidae",
        "col2": "IUCN3.1",
        "col3": "LC"
    },
    {
        "col0": "Yellow-rumped warbler",
        "col1": "Parulidae",
        "col2": "IUCN3.1",
        "col3": "LC"
    },
    {
        "col0": "Yellow-rumped tinkerbird",
        "col1": "Lybiidae",
        "col2": "IUCN3.1",
        "col3": "LC"
    },
    {
        "col0": "Yellow-rumped thornbill",
        "col1": "Acanthizidae",
        "col2": "IUCN3.1",
        "col3": "LC"
    },
    {
        "col0": "Yellow-rumped siskin",
        "col1": "Fringillidae",
        "col2": "IUCN3.1",
        "col3": "LC"
    },
    {
        "col0": "Yellow-rumped seedeater",
        "col1": "Carduelinae",
        "col2": "IUCN3.1",
        "col3": "LC"
    },
    {
        "col0": "Yellow-rumped marshbird",
        "col1": "Icteridae",
        "col2": "IUCN3.1",
        "col3": "LC"
    },
    {
        "col0": "Yellow-rumped mannikin",
        "col1": "Estrildidae",
        "col2": "IUCN3.1",
        "col3": "LC"
    },
    {
        "col0": "Yellow-rumped leaf-eared mouse",
        "col1": "Cricetidae",
        "col2": "IUCN2.3",
        "col3": "LR/lc"
    },
    {
        "col0": "Yellow-rumped honeyguide",
        "col1": "Honeyguide",
        "col2": "IUCN3.1",
        "col3": "NT"
    },
    {
        "col0": "Yellow-rumped flycatcher",
        "col1": "Muscicapidae",
        "col2": "IUCN3.1",
        "col3": "LC"
    },
    {
        "col0": "Yellow-rumped flowerpecker",
        "col1": "Dicaeidae",
        "col2": "IUCN3.1",
        "col3": "LC"
    },
    {
        "col0": "Yellow-rumped cacique",
        "col1": "Icteridae",
        "col2": "IUCN3.1",
        "col3": "LC"
    },
    {
        "col0": "Yellow-rumped antwren",
        "col1": "Thamnophilidae",
        "col2": "IUCN3.1",
        "col3": "EN"
    },
    {
        "col0": "Yellow-ringed white-eye",
        "col1": "Zosteropidae",
        "col2": "IUCN3.1",
        "col3": "LC"
    },
    {
        "col0": "Yellow-plumed honeyeater",
        "col1": "Meliphagidae",
        "col2": "IUCN3.1",
        "col3": "LC"
    },
    {
        "col0": "Yellow-pine chipmunk",
        "col1": "Sciuridae",
        "col2": "iucn3.1",
        "col3": "LC"
    },
    {
        "col0": "Yellow-peppered salamander",
        "col1": "Ambystomatidae",
        "col2": "IUCN3.1",
        "col3": "DD"
    },
    {
        "col0": "Yellow-olive flatbill",
        "col1": "Tyrannidae",
        "col2": "IUCN3.1",
        "col3": "LC"
    },
    {
        "col0": "Yellow-nosed cotton rat",
        "col1": "Cricetidae",
        "col2": "iucn3.1",
        "col3": "LC"
    },
    {
        "col0": "Yellow-necked spurfowl",
        "col1": "Phasianidae",
        "col2": "IUCN3.1",
        "col3": "LC"
    },
    {
        "col0": "Yellow-necked mouse",
        "col1": "Muridae",
        "col2": "IUCN",
        "col3": "lc"
    },
    {
        "col0": "Yellow-naped amazon",
        "col1": "Neotropical parrot",
        "col2": "IUCN3.1",
        "col3": "VU"
    },
    {
        "col0": "Yellow-margined flatbill",
        "col1": "Tyrannidae",
        "col2": "IUCN3.1",
        "col3": "LC"
    },
    {
        "col0": "Yellow-mantled widowbird",
        "col1": "Ploceidae",
        "col2": "IUCN3.1",
        "col3": "LC"
    },
    {
        "col0": "Yellow-mantled weaver",
        "col1": "Ploceidae",
        "col2": "IUCN3.1",
        "col3": "LC"
    },
    {
        "col0": "Yellow-lored tody-flycatcher",
        "col1": "Tyrannidae",
        "col2": "IUCN3.1",
        "col3": "LC"
    },
    {
        "col0": "Yellow-lored bristlebill",
        "col1": "Pycnonotidae",
        "col2": "IUCN3.1",
        "col3": "LC"
    },
    {
        "col0": "Yellow-lipped bat",
        "col1": "Vespertilionidae",
        "col2": "IUCN",
        "col3": "LC"
    },
    {
        "col0": "Yellow-legged weaver",
        "col1": "Ploceidae",
        "col2": "IUCN3.1",
        "col3": "VU"
    },
    {
        "col0": "Yellow-legged tinamou",
        "col1": "Tinamidae",
        "col2": "IUCN3.1",
        "col3": "NT"
    },
    {
        "col0": "Yellow-legged thrush",
        "col1": "Turdidae",
        "col2": "IUCN3.1",
        "col3": "LC"
    },
    {
        "col0": "Yellow-legged pigeon",
        "col1": "Columbidae",
        "col2": "IUCN3.1",
        "col3": "VU"
    },
    {
        "col0": "Yellow-legged mushroomtongue salamander",
        "col1": "Plethodontidae",
        "col2": "IUCN3.1",
        "col3": "EN"
    },
    {
        "col0": "Yellow-legged gull",
        "col1": "Laridae",
        "col2": "IUCN3.1",
        "col3": "LC"
    },
    {
        "col0": "Yellow-legged flyrobin",
        "col1": "Petroicidae",
        "col2": "IUCN3.1",
        "col3": "LC"
    },
    {
        "col0": "Yellow-legged buttonquail",
        "col1": "Turnicidae",
        "col2": "IUCN3.1",
        "col3": "LC"
    },
    {
        "col0": "Yellow-knobbed curassow",
        "col1": "Cracidae",
        "col2": "IUCN3.1",
        "col3": "NT"
    },
    {
        "col0": "Yellow-hooded blackbird",
        "col1": "Icteridae",
        "col2": "IUCN3.1",
        "col3": "LC"
    },
    {
        "col0": "Yellow-headed water monitor",
        "col1": "Varanidae",
        "col2": "iucn3.1",
        "col3": "LC"
    },
    {
        "col0": "Yellow-headed warbler",
        "col1": "Incertae sedis",
        "col2": "IUCN3.1",
        "col3": "LC"
    },
    {
        "col0": "Yellow-headed temple turtle",
        "col1": "Geoemydidae",
        "col2": "IUCN2.3",
        "col3": "EN"
    },
    {
        "col0": "Yellow-headed manakin",
        "col1": "Pipridae",
        "col2": "IUCN3.1",
        "col3": "VU"
    },
    {
        "col0": "Yellow-headed goby",
        "col1": "Gobiidae",
        "col2": "IUCN3.1",
        "col3": "LC"
    },
    {
        "col0": "Yellow-headed day gecko",
        "col1": "Gekkonidae",
        "col2": "IUCN3.1",
        "col3": "EN"
    },
    {
        "col0": "Yellow-headed caracara",
        "col1": "Falconidae",
        "col2": "IUCN3.1",
        "col3": "LC"
    },
    {
        "col0": "Yellow-headed brush finch",
        "col1": "Emberizidae",
        "col2": "IUCN3.1",
        "col3": "EN"
    },
    {
        "col0": "Yellow-headed box turtle",
        "col1": "Geoemydidae",
        "col2": "iucn2.3",
        "col3": "CR"
    },
    {
        "col0": "Yellow-headed blackbird",
        "col1": "Icteridae",
        "col2": "IUCN3.1",
        "col3": "LC"
    },
    {
        "col0": "Yellow-headed amazon",
        "col1": "Neotropical parrot",
        "col2": "IUCN3.1",
        "col3": "EN"
    },
    {
        "col0": "Yellow-haired hill rat",
        "col1": "Muridae",
        "col2": "IUCN2.3",
        "col3": "LR/lc"
    },
    {
        "col0": "Yellow-green vireo",
        "col1": "Vireonidae",
        "col2": "IUCN3.1",
        "col3": "LC"
    },
    {
        "col0": "Yellow-green grosbeak",
        "col1": "Cardinalidae",
        "col2": "IUCN3.1",
        "col3": "LC"
    },
    {
        "col0": "Yellow-green finch",
        "col1": "Emberizidae",
        "col2": "IUCN3.1",
        "col3": "VU"
    },
    {
        "col0": "Yellow-gaped honeyeater",
        "col1": "Meliphagidae",
        "col2": "IUCN3.1",
        "col3": "LC"
    },
    {
        "col0": "Yellow-fronted woodpecker",
        "col1": "Picidae",
        "col2": "IUCN3.1",
        "col3": "LC"
    },
    {
        "col0": "Yellow-fronted tinkerbird",
        "col1": "Lybiidae",
        "col2": "IUCN3.1",
        "col3": "LC"
    },
    {
        "col0": "Yellow-fronted parrot",
        "col1": "Psittacidae",
        "col2": "IUCN3.1",
        "col3": "LC"
    },
    {
        "col0": "Yellow-fronted canary",
        "col1": "Carduelinae",
        "col2": "IUCN3.1",
        "col3": "LC"
    },
    {
        "col0": "Yellow-fronted barbet",
        "col1": "Megalaimidae",
        "col2": "IUCN3.1",
        "col3": "LC"
    },
    {
        "col0": "Yellow-footed tortoise",
        "col1": "Testudinidae",
        "col2": "IUCN2.3",
        "col3": "VU"
    },
    {
        "col0": "Yellow-footed rock-wallaby",
        "col1": "Macropodidae",
        "col2": "iucn3.1",
        "col3": "NT"
    },
    {
        "col0": "Yellow-footed honeyguide",
        "col1": "Indicatoridae",
        "col2": "IUCN3.1",
        "col3": "DD"
    },
    {
        "col0": "Yellow-footed gull",
        "col1": "Laridae",
        "col2": "IUCN3.1",
        "col3": "LC"
    },
    {
        "col0": "Yellow-footed green pigeon",
        "col1": "Columbidae",
        "col2": "IUCN3.1",
        "col3": "LC"
    },
    {
        "col0": "Yellow-footed flycatcher",
        "col1": "Muscicapidae",
        "col2": "IUCN3.1",
        "col3": "LC"
    },
    {
        "col0": "Yellow-footed antechinus",
        "col1": "Dasyuridae",
        "col2": "iucn3.1",
        "col3": "LC"
    },
    {
        "col0": "Yellow-fin perchlet",
        "col1": "Ambassidae",
        "col2": "IUCN2.3",
        "col3": "LR/lc"
    },
    {
        "col0": "Yellow-faced siskin",
        "col1": "Fringillidae",
        "col2": "IUCN3.1",
        "col3": "VU"
    },
    {
        "col0": "Yellow-faced pocket gopher",
        "col1": "Geomyidae",
        "col2": "IUCN3.1",
        "col3": "LC"
    },
    {
        "col0": "Yellow-faced parrotlet",
        "col1": "Neotropical parrot",
        "col2": "IUCN3.1",
        "col3": "VU"
    },
    {
        "col0": "Yellow-faced parrot",
        "col1": "Neotropical parrot",
        "col2": "IUCN3.1",
        "col3": "NT"
    },
    {
        "col0": "Yellow-faced myna",
        "col1": "Sturnidae",
        "col2": "IUCN3.1",
        "col3": "LC"
    },
    {
        "col0": "Yellow-faced horseshoe bat",
        "col1": "Rhinolophidae",
        "col2": "IUCN2.3",
        "col3": "LR/nt"
    },
    {
        "col0": "Yellow-faced honeyeater",
        "col1": "Meliphagidae",
        "col2": "IUCN3.1",
        "col3": "LC"
    },
    {
        "col0": "Yellow-faced grassquit",
        "col1": "Thraupidae",
        "col2": "IUCN3.1",
        "col3": "LC"
    }
]