[
    {
        "col0": "S. Rutherford",
        "col1": "Los Angeles",
        "col2": "\"Pilot: Part 1\"",
        "col3": "1984-0-0",
        "col4": "2004-11-8"
    },
    {
        "col0": "P. t. Pup",
        "col1": "Los Angeles",
        "col2": "1927",
        "col3": "1929-1-22",
        "col4": "1946-1-28"
    },
    {
        "col0": "M. Dawson",
        "col1": "New York City",
        "col2": "\"Pilot, Part 1\"",
        "col3": "1970-0-0",
        "col4": "2004-12-30"
    },
    {
        "col0": "L. McGarry",
        "col1": "Chicago",
        "col2": "\"Pilot\"",
        "col3": "1948-0-0",
        "col4": "2006-11-7"
    },
    {
        "col0": "J. Locke",
        "col1": "Tustin, California",
        "col2": "\"Pilot, Part 1\"",
        "col3": "1956-5-30",
        "col4": "2007-11-17"
    },
    {
        "col0": "J. Shephard",
        "col1": "Los Angeles",
        "col2": "\"Pilot (Part 1)\"",
        "col3": "1969-12-3",
        "col4": "2007-12-6"
    },
    {
        "col0": "E. Cullen",
        "col1": "Chicago",
        "col2": "Twilight",
        "col3": "1901-0-0",
        "col4": "1918-0-0"
    },
    {
        "col0": "C. d. Rochefort",
        "col1": "Orleanais",
        "col2": "The Three Musketeers",
        "col3": "1615-1-1",
        "col4": "1687-1-1"
    },
    {
        "col0": "C. Pace",
        "col1": "Manchester, New Hampshire",
        "col2": "\"Pilot: Part 1\"",
        "col3": "1976-12-8",
        "col4": "2004-12-21"
    },
    {
        "col0": "C. A. Dupin",
        "col1": "Boston",
        "col2": "\"The Murders in the Rue Morgue\"",
        "col3": "1841-0-0",
        "col4": "1890-0-0"
    },
    {
        "col0": "B. Carlyle",
        "col1": "Malibu, California",
        "col2": "\"Pilot: Part 1\"",
        "col3": "1981-0-0",
        "col4": "2004-11-1"
    },
    {
        "col0": "B. Munchausen",
        "col1": "Bodenwerder",
        "col2": "Baron Munchausen's Narrative of his Marvellous Travels and Campaigns in Russia (1785)",
        "col3": "1720-5-11",
        "col4": "1797-2-22"
    },
    {
        "col0": "A. L. Cortez",
        "col1": "Los Angeles",
        "col2": "\"Exodus\"",
        "col3": "1975-0-0",
        "col4": "2004-11-24"
    }
]