[
    {
        "col0": "Whooping crane",
        "col1": "Gruidae",
        "col2": "EN",
        "col3": "IUCN3.1"
    },
    {
        "col0": "Whooper swan",
        "col1": "Anatidae",
        "col2": "LC",
        "col3": "IUCN3.1"
    },
    {
        "col0": "Whitsunday wire eel",
        "col1": "Nettastomatidae",
        "col2": "NE",
        "col3": "IUCN3.1"
    },
    {
        "col0": "Whitish dwarf squirrel",
        "col1": "Sciuridae",
        "col2": "DD",
        "col3": "iucn3.1"
    },
    {
        "col0": "Whitfieldia preussii",
        "col1": "Acanthaceae",
        "col2": "VU",
        "col3": "IUCN3.1"
    },
    {
        "col0": "Whitetip weasel shark",
        "col1": "Hemigaleidae",
        "col2": "DD",
        "col3": "IUCN3.1"
    },
    {
        "col0": "Whitetip reef shark",
        "col1": "Requiem shark",
        "col2": "NT",
        "col3": "IUCN3.1"
    },
    {
        "col0": "Whitetail dogfish",
        "col1": "Somniosidae",
        "col2": "DD",
        "col3": "IUCN3.1"
    },
    {
        "col0": "Whitespotted whipray",
        "col1": "Dasyatidae",
        "col2": "VU",
        "col3": "IUCN3.1"
    },
    {
        "col0": "Whitespotted toadfish",
        "col1": "Batrachoididae",
        "col2": "VU",
        "col3": "IUCN2.3"
    },
    {
        "col0": "Whitespotted smooth-hound",
        "col1": "Houndshark",
        "col2": "DD",
        "col3": "IUCN3.1"
    },
    {
        "col0": "Whitespotted pygmy filefish",
        "col1": "Monacanthidae",
        "col2": "NE",
        "col3": "IUCN3.1"
    },
    {
        "col0": "Whitespotted grouper",
        "col1": "Serranidae",
        "col2": "LC",
        "col3": "iucn3.1"
    },
    {
        "col0": "Whitespotted bullhead shark",
        "col1": "Bullhead shark",
        "col2": "DD",
        "col3": "IUCN3.1"
    },
    {
        "col0": "Whitespotted bamboo shark",
        "col1": "Hemiscylliidae",
        "col2": "NT",
        "col3": "IUCN3.1"
    },
    {
        "col0": "Whitespot hawkfish",
        "col1": "Cirrhitidae",
        "col2": "NE",
        "col3": "iucn3.1"
    },
    {
        "col0": "Whitesaddled catshark",
        "col1": "Catshark",
        "col2": "DD",
        "col3": "IUCN3.1"
    },
    {
        "col0": "Whitenose whipray",
        "col1": "Dasyatidae",
        "col2": "VU",
        "col3": "IUCN3.1"
    },
    {
        "col0": "Whitenose shark",
        "col1": "Requiem shark",
        "col2": "DD",
        "col3": "IUCN3.1"
    },
    {
        "col0": "Whitemouth shiner",
        "col1": "Cyprinidae",
        "col2": "LC",
        "col3": "IUCN3.1"
    },
    {
        "col0": "Whitemargin unicornfish",
        "col1": "Acanthuridae",
        "col2": "LC",
        "col3": "IUCN3.1"
    },
    {
        "col0": "Whitelined toadfish",
        "col1": "Batrachoididae",
        "col2": "VU",
        "col3": "IUCN2.3"
    },
    {
        "col0": "Whiteline topminnow",
        "col1": "Fundulidae",
        "col2": "EX",
        "col3": "IUCN2.3"
    },
    {
        "col0": "Whitehead",
        "col1": "Mohoua",
        "col2": "LC",
        "col3": "IUCN3.1"
    },
    {
        "col0": "Whitehead's woolly bat",
        "col1": "Vespertilionidae",
        "col2": "LC",
        "col3": "IUCN3.1"
    },
    {
        "col0": "Whitehead's trogon",
        "col1": "Trogonidae",
        "col2": "NT",
        "col3": "IUCN3.1"
    },
    {
        "col0": "Whitehead's swiftlet",
        "col1": "Apodidae",
        "col2": "DD",
        "col3": "IUCN3.1"
    },
    {
        "col0": "Whitehead's spiny rat",
        "col1": "Muridae",
        "col2": "VU",
        "col3": "IUCN3.1"
    },
    {
        "col0": "Whitehead's spiderhunter",
        "col1": "Nectariniidae",
        "col2": "LC",
        "col3": "IUCN3.1"
    },
    {
        "col0": "Whitehead's broadbill",
        "col1": "Eurylaimidae",
        "col2": "LC",
        "col3": "IUCN3.1"
    },
    {
        "col0": "Whitefin topeshark",
        "col1": "Houndshark",
        "col2": "EN",
        "col3": "IUCN3.1"
    },
    {
        "col0": "Whitefin swellshark",
        "col1": "Catshark",
        "col2": "NT",
        "col3": "IUCN3.1"
    },
    {
        "col0": "Whitefin dogfish",
        "col1": "Etmopteridae",
        "col2": "DD",
        "col3": "IUCN3.1"
    },
    {
        "col0": "Whitecheek surgeonfish",
        "col1": "Acanthuridae",
        "col2": "LC",
        "col3": "IUCN3.1"
    },
    {
        "col0": "Whitecheek shark",
        "col1": "Requiem shark",
        "col2": "NT",
        "col3": "IUCN3.1"
    },
    {
        "col0": "Whitebelly tree frog",
        "col1": "Hylidae",
        "col2": "LC",
        "col3": "IUCN3.1"
    },
    {
        "col0": "White woodpecker",
        "col1": "Woodpecker",
        "col2": "LC",
        "col3": "IUCN3.1"
    },
    {
        "col0": "White warty-back pearly mussel",
        "col1": "Unionidae",
        "col2": "CR",
        "col3": "IUCN3.1"
    },
    {
        "col0": "White wagtail",
        "col1": "Motacillidae",
        "col2": "LC",
        "col3": "IUCN3.1"
    },
    {
        "col0": "White tern",
        "col1": "Sternidae",
        "col2": "LC",
        "col3": "IUCN3.1"
    },
    {
        "col0": "White suckerfish",
        "col1": "Echeneidae",
        "col2": "LC",
        "col3": "iucn3.1"
    },
    {
        "col0": "White sturgeon",
        "col1": "Acipenseridae",
        "col2": "LC",
        "col3": "IUCN3.1"
    },
    {
        "col0": "White stork",
        "col1": "Ciconiidae",
        "col2": "LC",
        "col3": "IUCN3.1"
    },
    {
        "col0": "White steenbras",
        "col1": "Sparidae",
        "col2": "LR/cd",
        "col3": "IUCN2.3"
    },
    {
        "col0": "White spotted sapphire",
        "col1": "Lycaenidae",
        "col2": "VU",
        "col3": "IUCN2.3"
    },
    {
        "col0": "White rhinoceros",
        "col1": "Rhinoceros",
        "col2": "NT",
        "col3": "IUCN3.1"
    },
    {
        "col0": "White perch",
        "col1": "Moronidae",
        "col2": "LC",
        "col3": "iucn3.1"
    },
    {
        "col0": "White monjita",
        "col1": "Tyrannidae",
        "col2": "LC",
        "col3": "IUCN3.1"
    },
    {
        "col0": "White marmoset",
        "col1": "Callitrichidae",
        "col2": "VU",
        "col3": "iucn3.1"
    },
    {
        "col0": "White marlin",
        "col1": "Istiophoridae",
        "col2": "VU",
        "col3": "iucn3.1"
    },
    {
        "col0": "White hawk",
        "col1": "Accipitridae",
        "col2": "LC",
        "col3": "IUCN3.1"
    },
    {
        "col0": "White ghost catshark",
        "col1": "Catshark",
        "col2": "DD",
        "col3": "IUCN3.1"
    },
    {
        "col0": "White eared pheasant",
        "col1": "Phasianidae",
        "col2": "NT",
        "col3": "IUCN3.1"
    },
    {
        "col0": "White desert snail",
        "col1": "Helicoidea",
        "col2": "VU",
        "col3": "IUCN2.3"
    },
    {
        "col0": "White crappie",
        "col1": "Centrarchidae",
        "col2": "LC",
        "col3": "IUCN3.1"
    },
    {
        "col0": "White cockatoo",
        "col1": "Cockatoo",
        "col2": "EN",
        "col3": "IUCN3.1"
    },
    {
        "col0": "White bellbird",
        "col1": "Cotingidae",
        "col2": "LC",
        "col3": "IUCN3.1"
    },
    {
        "col0": "White bass",
        "col1": "Moronidae",
        "col2": "LC",
        "col3": "iucn3.1"
    },
    {
        "col0": "White Sands pupfish",
        "col1": "Cyprinodontidae",
        "col2": "EN",
        "col3": "IUCN3.1"
    },
    {
        "col0": "White River springfish",
        "col1": "Goodeidae",
        "col2": "EN",
        "col3": "IUCN3.1"
    },
    {
        "col0": "White River spinedace",
        "col1": "Cyprinidae",
        "col2": "CR",
        "col3": "iucn2.3"
    },
    {
        "col0": "White Cloud Mountain minnow",
        "col1": "Cyprinidae",
        "col2": "DD",
        "col3": "IUCN3.1"
    },
    {
        "col0": "White-winged woodpecker",
        "col1": "Picidae",
        "col2": "LC",
        "col3": "IUCN3.1"
    },
    {
        "col0": "White-winged widowbird",
        "col1": "Ploceidae",
        "col2": "LC",
        "col3": "IUCN3.1"
    },
    {
        "col0": "White-winged warbler",
        "col1": "Incertae sedis",
        "col2": "VU",
        "col3": "IUCN3.1"
    },
    {
        "col0": "White-winged vampire bat",
        "col1": "Phyllostomidae",
        "col2": "LC",
        "col3": "IUCN3.1"
    },
    {
        "col0": "White-winged triller",
        "col1": "Campephagidae",
        "col2": "LC",
        "col3": "IUCN3.1"
    },
    {
        "col0": "White-winged tern",
        "col1": "Sternidae",
        "col2": "LC",
        "col3": "IUCN3.1"
    },
    {
        "col0": "White-winged tanager",
        "col1": "Cardinalidae",
        "col2": "LC",
        "col3": "IUCN3.1"
    },
    {
        "col0": "White-winged swamp warbler",
        "col1": "Locustellidae",
        "col2": "LC",
        "col3": "IUCN3.1"
    },
    {
        "col0": "White-winged swallow",
        "col1": "Hirundinidae",
        "col2": "LC",
        "col3": "IUCN3.1"
    },
    {
        "col0": "White-winged snowfinch",
        "col1": "Sparrow",
        "col2": "LC",
        "col3": "IUCN3.1"
    },
    {
        "col0": "White-winged shrike-tanager",
        "col1": "Thraupidae",
        "col2": "LC",
        "col3": "IUCN3.1"
    },
    {
        "col0": "White-winged serotine",
        "col1": "Vespertilionidae",
        "col2": "LC",
        "col3": "IUCN3.1"
    },
    {
        "col0": "White-winged scoter",
        "col1": "Anatidae",
        "col2": "LC",
        "col3": "IUCN3.1"
    },
    {
        "col0": "White-winged robin",
        "col1": "Petroicidae",
        "col2": "LC",
        "col3": "IUCN3.1"
    },
    {
        "col0": "White-winged potoo",
        "col1": "Potoo",
        "col2": "LC",
        "col3": "IUCN3.1"
    },
    {
        "col0": "White-winged parakeet",
        "col1": "Neotropical parrot",
        "col2": "LC",
        "col3": "IUCN3.1"
    },
    {
        "col0": "White-winged nightjar",
        "col1": "Caprimulgidae",
        "col2": "EN",
        "col3": "IUCN3.1"
    },
    {
        "col0": "White-winged magpie",
        "col1": "Corvidae",
        "col2": "LC",
        "col3": "IUCN3.1"
    },
    {
        "col0": "White-winged lark",
        "col1": "Alaudidae",
        "col2": "LC",
        "col3": "IUCN3.1"
    },
    {
        "col0": "White-winged junco",
        "col1": "Emberizidae",
        "col2": "T4",
        "col3": "TNC"
    },
    {
        "col0": "White-winged guan",
        "col1": "Cracidae",
        "col2": "CR",
        "col3": "IUCN3.1"
    },
    {
        "col0": "White-winged grosbeak",
        "col1": "Fringillidae",
        "col2": "LC",
        "col3": "IUCN3.1"
    },
    {
        "col0": "White-winged flying fox",
        "col1": "Pteropodidae",
        "col2": "LC",
        "col3": "IUCN3.1"
    },
    {
        "col0": "White-winged flufftail",
        "col1": "Rallidae",
        "col2": "CR",
        "col3": "IUCN3.1"
    },
    {
        "col0": "White-winged fairywren",
        "col1": "Maluridae",
        "col2": "LC",
        "col3": "IUCN3.1"
    },
    {
        "col0": "White-winged duck",
        "col1": "Anatidae",
        "col2": "EN",
        "col3": "IUCN3.1"
    },
    {
        "col0": "White-winged dove",
        "col1": "Columbidae",
        "col2": "LC",
        "col3": "IUCN3.1"
    },
    {
        "col0": "White-winged dog-like bat",
        "col1": "Emballonuridae",
        "col2": "LC",
        "col3": "IUCN3.1"
    },
    {
        "col0": "White-winged diuca finch",
        "col1": "Thraupidae",
        "col2": "LC",
        "col3": "IUCN3.1"
    },
    {
        "col0": "White-winged cuckooshrike",
        "col1": "Campephagidae",
        "col2": "VU",
        "col3": "IUCN3.1"
    },
    {
        "col0": "White-winged cotinga",
        "col1": "Cotingidae",
        "col2": "EN",
        "col3": "IUCN3.1"
    },
    {
        "col0": "White-winged coot",
        "col1": "Rallidae",
        "col2": "LC",
        "col3": "IUCN3.1"
    },
    {
        "col0": "White-winged collared dove",
        "col1": "Columbidae",
        "col2": "NT",
        "col3": "IUCN3.1"
    },
    {
        "col0": "White-winged cliff chat",
        "col1": "Muscicapidae",
        "col2": "LC",
        "col3": "IUCN3.1"
    },
    {
        "col0": "White-winged cinclodes",
        "col1": "Furnariidae",
        "col2": "LC",
        "col3": "IUCN3.1"
    },
    {
        "col0": "White-winged chough",
        "col1": "Corcoracidae",
        "col2": "LC",
        "col3": "IUCN3.1"
    },
    {
        "col0": "White-winged brush finch",
        "col1": "Emberizidae",
        "col2": "LC",
        "col3": "IUCN3.1"
    },
    {
        "col0": "White-winged black tyrant",
        "col1": "Tyrannidae",
        "col2": "LC",
        "col3": "IUCN3.1"
    },
    {
        "col0": "White-winged black tit",
        "col1": "Tit",
        "col2": "LC",
        "col3": "IUCN3.1"
    },
    {
        "col0": "White-winged becard",
        "col1": "Tityridae",
        "col2": "LC",
        "col3": "IUCN3.1"
    },
    {
        "col0": "White-winged apalis",
        "col1": "Cisticolidae",
        "col2": "VU",
        "col3": "IUCN3.1"
    },
    {
        "col0": "White-whiskered spinetail",
        "col1": "Furnariidae",
        "col2": "LC",
        "col3": "IUCN3.1"
    },
    {
        "col0": "White-whiskered puffbird",
        "col1": "Puffbird",
        "col2": "LC",
        "col3": "IUCN3.1"
    },
    {
        "col0": "White-whiskered laughingthrush",
        "col1": "Timaliidae",
        "col2": "LC",
        "col3": "IUCN3.1"
    },
    {
        "col0": "White-whiskered hermit",
        "col1": "Trochilidae",
        "col2": "LC",
        "col3": "IUCN3.1"
    },
    {
        "col0": "White-wedged piculet",
        "col1": "Picidae",
        "col2": "LC",
        "col3": "IUCN3.1"
    },
    {
        "col0": "White-vented whistler",
        "col1": "Pachycephalidae",
        "col2": "LC",
        "col3": "IUCN3.1"
    },
    {
        "col0": "White-vented violetear",
        "col1": "Trochilidae",
        "col2": "LC",
        "col3": "IUCN3.1"
    },
    {
        "col0": "White-vented shama",
        "col1": "Muscicapidae",
        "col2": "LC",
        "col3": "IUCN3.1"
    },
    {
        "col0": "White-vented plumeleteer",
        "col1": "Trochilidae",
        "col2": "LC",
        "col3": "IUCN3.1"
    },
    {
        "col0": "White-vented euphonia",
        "col1": "Fringillidae",
        "col2": "LC",
        "col3": "IUCN3.1"
    },
    {
        "col0": "White-tufted sunbeam",
        "col1": "Trochilidae",
        "col2": "LC",
        "col3": "IUCN3.1"
    },
    {
        "col0": "White-tufted grebe",
        "col1": "Podicipedidae",
        "col2": "LC",
        "col3": "IUCN3.1"
    },
    {
        "col0": "White-toothed woodrat",
        "col1": "Cricetidae",
        "col2": "LC",
        "col3": "iucn3.1"
    },
    {
        "col0": "White-toothed tuco-tuco",
        "col1": "Ctenomyidae",
        "col2": "LC",
        "col3": "iucn3.1"
    },
    {
        "col0": "White-toothed brush mouse",
        "col1": "Muridae",
        "col2": "EN",
        "col3": "IUCN2.3"
    },
    {
        "col0": "White-tipped tufted-tailed rat",
        "col1": "Nesomyidae",
        "col2": "EN",
        "col3": "iucn3.1"
    },
    {
        "col0": "White-tipped swift",
        "col1": "Apodidae",
        "col2": "LC",
        "col3": "IUCN3.1"
    },
    {
        "col0": "White-tipped sicklebill",
        "col1": "Trochilidae",
        "col2": "LC",
        "col3": "IUCN3.1"
    },
    {
        "col0": "White-tipped quetzal",
        "col1": "Trogonidae",
        "col2": "LC",
        "col3": "IUCN3.1"
    },
    {
        "col0": "White-tipped plantcutter",
        "col1": "Cotingidae",
        "col2": "LC",
        "col3": "IUCN3.1"
    },
    {
        "col0": "White-tipped monarch",
        "col1": "Monarchidae",
        "col2": "EN",
        "col3": "IUCN3.1"
    },
    {
        "col0": "White-tipped dove",
        "col1": "Columbidae",
        "col2": "LC",
        "col3": "IUCN3.1"
    },
    {
        "col0": "White-tipped Oldfield mouse",
        "col1": "Cricetidae",
        "col2": "LC",
        "col3": "IUCN3.1"
    },
    {
        "col0": "White-tip catshark",
        "col1": "Catshark",
        "col2": "DD",
        "col3": "IUCN3.1"
    },
    {
        "col0": "White-throated wren-babbler",
        "col1": "Pellorneidae",
        "col2": "EN",
        "col3": "IUCN3.1"
    }
]