[
    {
        "col0": "H. Glencross",
        "col1": "Dundee",
        "col2": "United Kingdom",
        "col3": "Electric guitar",
        "col4": "1978-02-13",
        "col5": "1978-02-13"
    },
    {
        "col0": "G. Green",
        "col1": "England",
        "col2": "United Kingdom",
        "col3": "Mandolin",
        "col4": "1950-11-20",
        "col5": "1950-11-20"
    },
    {
        "col0": "G. Sager",
        "col1": "Edinburgh",
        "col2": "United Kingdom",
        "col3": "Guitar",
        "col4": "1960-1-1",
        "col5": "1960-1-1"
    },
    {
        "col0": "D. Taylor",
        "col1": "Dartford",
        "col2": "United Kingdom",
        "col3": "Gibson Les Paul",
        "col4": "1943-01-28",
        "col5": "1943-01-28"
    },
    {
        "col0": "C. Urbanowicz",
        "col1": "Aslockton",
        "col2": "United Kingdom",
        "col3": "Guitar",
        "col4": "1981-06-22",
        "col5": "1981-06-22"
    },
    {
        "col0": "B. Schwarz",
        "col1": "Suffolk",
        "col2": "United Kingdom",
        "col3": "Saxophone",
        "col4": "1947-03-25",
        "col5": "1947-03-25"
    },
    {
        "col0": "B. Whalley",
        "col1": "Lancashire",
        "col2": "United Kingdom",
        "col3": "Guitar",
        "col4": "1961-01-01",
        "col5": "1961-01-01"
    },
    {
        "col0": "B. Lurie",
        "col1": "London",
        "col2": "United Kingdom",
        "col3": "Guitar",
        "col4": "1968-06-13",
        "col5": "1968-06-13"
    },
    {
        "col0": "A. Dunlop",
        "col1": "Scotland",
        "col2": "United Kingdom",
        "col3": "Accordion",
        "col4": "1972-03-16",
        "col5": "1972-03-16"
    },
    {
        "col0": "A. White",
        "col1": "England",
        "col2": "United Kingdom",
        "col3": "Fender Telecaster",
        "col4": "1974-08-28",
        "col5": "1974-08-28"
    },
    {
        "col0": "A. Rankine",
        "col1": "Bridge of Allan",
        "col2": "United Kingdom",
        "col3": "Guitar",
        "col4": "1958-05-17",
        "col5": "1958-05-17"
    }
]