[
    {
        "col0": "Seattle Song",
        "col1": "Seattle Slew",
        "col2": "Bold Reasoning",
        "col3": "Prince Blessed"
    },
    {
        "col0": "Searching",
        "col1": "War Admiral",
        "col2": "Man o' War",
        "col3": "Black Toney"
    },
    {
        "col0": "Sealy Hill",
        "col1": "Point Given",
        "col2": "Thunder Gulch",
        "col3": "Boston Harbor"
    },
    {
        "col0": "Seabreeze",
        "col1": "Isonomy",
        "col2": "Sterling",
        "col3": "Hermit"
    },
    {
        "col0": "Seabiscuit",
        "col1": "Hard Tack",
        "col2": "Man o' War",
        "col3": "Whisk Broom II"
    },
    {
        "col0": "Sea the Stars",
        "col1": "Cape Cross",
        "col2": "Green Desert",
        "col3": "Miswaki"
    },
    {
        "col0": "Sea The Moon",
        "col1": "Sea The Stars",
        "col2": "Cape Cross",
        "col3": "Monsun"
    },
    {
        "col0": "Sea Moon",
        "col1": "Beat Hollow",
        "col2": "Sadler's Wells",
        "col3": "Alleged"
    },
    {
        "col0": "Scottish Union",
        "col1": "Cameronian",
        "col2": "Pharos",
        "col3": "Bachelor's Double"
    },
    {
        "col0": "Scorpion",
        "col1": "Montjeu",
        "col2": "Sadler's Wells",
        "col3": "Law Society"
    },
    {
        "col0": "Scintillo",
        "col1": "Fantastic Light",
        "col2": "Rahy",
        "col3": "Thatching"
    },
    {
        "col0": "Sceptre",
        "col1": "Persimmon",
        "col2": "St. Simon",
        "col3": "Bend Or"
    },
    {
        "col0": "Scenic",
        "col1": "Sadler's Wells",
        "col2": "Northern Dancer",
        "col3": "Foolish Pleasure"
    },
    {
        "col0": "Savabeel",
        "col1": "Zabeel",
        "col2": "Sir Tristram",
        "col3": "Success Express"
    },
    {
        "col0": "Saratoga Springs",
        "col1": "El Gran Senor",
        "col2": "Northern Dancer",
        "col3": "General Assembly"
    },
    {
        "col0": "Santa Claus",
        "col1": "Chamossaire",
        "col2": "Precipitation",
        "col3": "Arctic Prince"
    },
    {
        "col0": "San San",
        "col1": "Bald Eagle",
        "col2": "Nasrullah",
        "col3": "Princequillo"
    },
    {
        "col0": "Samantha Miss",
        "col1": "Redoute's Choice",
        "col2": "Danehill",
        "col3": "Zabeel"
    },
    {
        "col0": "Saltram",
        "col1": "Eclipse",
        "col2": "Marske",
        "col3": "Snap"
    },
    {
        "col0": "Salsabil",
        "col1": "Sadler's Wells",
        "col2": "Northern Dancer",
        "col3": "Artaius"
    },
    {
        "col0": "Sakhee's Secret",
        "col1": "Sakhee",
        "col2": "Bahri",
        "col3": "Secreto"
    },
    {
        "col0": "Sakhee",
        "col1": "Bahri",
        "col2": "Riverman",
        "col3": "Sadler's Wells"
    },
    {
        "col0": "Saint Ballado",
        "col1": "Halo",
        "col2": "Hail to Reason",
        "col3": "Herbager"
    },
    {
        "col0": "Sadler's Wells",
        "col1": "Northern Dancer",
        "col2": "Nearctic",
        "col3": "Bold Reason"
    },
    {
        "col0": "Saddlers' Hall",
        "col1": "Sadler's Wells",
        "col2": "Northern Dancer",
        "col3": "Val de Loir"
    },
    {
        "col0": "Sacahuista",
        "col1": "Raja Baba",
        "col2": "Bold Ruler",
        "col3": "Hoist The Flag"
    },
    {
        "col0": "Sabirli",
        "col1": "Strike the Gold",
        "col2": "Alydar",
        "col3": "Shareef Dancer"
    },
    {
        "col0": "Ryafan",
        "col1": "Lear Fan",
        "col2": "Roberto",
        "col3": "Northern Dancer"
    },
    {
        "col0": "Russian Rhythm",
        "col1": "Kingmambo",
        "col2": "Mr. Prospector",
        "col3": "Nijinsky II"
    },
    {
        "col0": "Run the Gantlet",
        "col1": "Tom Rolfe",
        "col2": "Ribot",
        "col3": "First Landing"
    },
    {
        "col0": "Rumplestiltskin",
        "col1": "Danehill",
        "col2": "Danzig",
        "col3": "Mr. Prospector"
    },
    {
        "col0": "Ruler of the World",
        "col1": "Galileo",
        "col2": "Sadler's Wells",
        "col3": "Kingmambo"
    },
    {
        "col0": "Rule of Law",
        "col1": "Kingmambo",
        "col2": "Mr. Prospector",
        "col3": "Royal Academy"
    },
    {
        "col0": "Ruffian",
        "col1": "Reviewer",
        "col2": "Bold Ruler",
        "col3": "Native Dancer"
    },
    {
        "col0": "Royal Orbit",
        "col1": "Royal Charger",
        "col2": "Nearco",
        "col3": "War Admiral"
    },
    {
        "col0": "Royal Glint",
        "col1": "Round Table",
        "col2": "Princequillo",
        "col3": "Hail To Reason"
    },
    {
        "col0": "Royal Delta",
        "col1": "Empire Maker",
        "col2": "Unbridled",
        "col3": "A P Indy"
    },
    {
        "col0": "Royal Charger",
        "col1": "Nearco",
        "col2": "Pharos",
        "col3": "Solario"
    },
    {
        "col0": "Royal Anthem",
        "col1": "Theatrical",
        "col2": "Nureyev",
        "col3": "Ack Ack"
    },
    {
        "col0": "Royal Academy",
        "col1": "Nijinsky II",
        "col2": "Northern Dancer",
        "col3": "Crimson Satan"
    },
    {
        "col0": "Roussalka",
        "col1": "Habitat",
        "col2": "Sir Gaylord",
        "col3": "Graustark"
    },
    {
        "col0": "Round Pond",
        "col1": "Awesome Again",
        "col2": "Deputy Minister",
        "col3": "Trempolino"
    },
    {
        "col0": "Roses In May",
        "col1": "Devil His Due",
        "col2": "Devil's Bag",
        "col3": "Speak John"
    },
    {
        "col0": "Roseate Tern",
        "col1": "Blakeney",
        "col2": "Hethersett",
        "col3": "High Top"
    },
    {
        "col0": "Rose Kingdom",
        "col1": "King Kamehameha",
        "col2": "Kingmambo",
        "col3": "Sunday Silence"
    },
    {
        "col0": "Roderic O'Connor",
        "col1": "Galileo",
        "col2": "Sadler's Wells",
        "col3": "Danehill"
    },
    {
        "col0": "Rock of Gibraltar",
        "col1": "Danehill",
        "col2": "Danzig",
        "col3": "Be My Guest"
    },
    {
        "col0": "Rock Sand",
        "col1": "Sainfoin",
        "col2": "Springfield",
        "col3": "St. Simon"
    },
    {
        "col0": "Rock Hard Ten",
        "col1": "Kris S.",
        "col2": "Roberto",
        "col3": "Mr. Prospector"
    },
    {
        "col0": "Roberto",
        "col1": "Hail To Reason",
        "col2": "Turn-To",
        "col3": "Nashua"
    },
    {
        "col0": "Riverman",
        "col1": "Never Bend",
        "col2": "Nasrullah",
        "col3": "Prince John"
    },
    {
        "col0": "River Memories",
        "col1": "Riverman",
        "col2": "Never Bend",
        "col3": "Vaguely Noble"
    },
    {
        "col0": "Riva Ridge",
        "col1": "First Landing",
        "col2": "Turn-To",
        "col3": "Heliopolis"
    },
    {
        "col0": "Rite of Passage",
        "col1": "Giant's Causeway",
        "col2": "Storm Cat",
        "col3": "Kris S"
    },
    {
        "col0": "Risen Star",
        "col1": "Secretariat",
        "col2": "Bold Ruler",
        "col3": "His Majesty"
    },
    {
        "col0": "Rip Van Winkle",
        "col1": "Galileo",
        "col2": "Sadler's Wells",
        "col3": "Stravinsky"
    },
    {
        "col0": "Riley",
        "col1": "Longfellow",
        "col2": "Leamington",
        "col3": "War Dance"
    },
    {
        "col0": "Riddlesworth",
        "col1": "Emilius",
        "col2": "Orville",
        "col3": "Soothsayer"
    },
    {
        "col0": "Ribocco",
        "col1": "Ribot",
        "col2": "Tenerani",
        "col3": "Hyperion"
    },
    {
        "col0": "Ribero",
        "col1": "Ribot",
        "col2": "Tenerani",
        "col3": "Hyperion"
    },
    {
        "col0": "Rhythm",
        "col1": "Mr. Prospector",
        "col2": "Raise a Native",
        "col3": "Northern Dancer"
    },
    {
        "col0": "Reviewer",
        "col1": "Bold Ruler",
        "col2": "Nasrullah",
        "col3": "Hasty Road"
    },
    {
        "col0": "Revidere",
        "col1": "Reviewer",
        "col2": "Bold Ruler",
        "col3": "Princequillo"
    },
    {
        "col0": "Reliable Man",
        "col1": "Dalakhani",
        "col2": "Darshaan",
        "col3": "Sadler's Wells"
    },
    {
        "col0": "Reine de Saba",
        "col1": "Lyphard",
        "col2": "Northern Dancer",
        "col3": "Sicambre"
    },
    {
        "col0": "Regret",
        "col1": "Broomstick",
        "col2": "Ben Brush",
        "col3": "Hamburg"
    },
    {
        "col0": "Regal Rose",
        "col1": "Danehill",
        "col2": "Danzig",
        "col3": "Conquistador Cielo"
    },
    {
        "col0": "Regal Gleam",
        "col1": "Hail To Reason",
        "col2": "Turn-To",
        "col3": "Stymie"
    },
    {
        "col0": "Regal Engagement",
        "col1": "Cat Thief",
        "col2": "Storm Cat",
        "col3": "Forty Niner"
    },
    {
        "col0": "Regal Classic",
        "col1": "Vice Regent",
        "col2": "Northern Dancer",
        "col3": "Nodouble"
    },
    {
        "col0": "Refuse To Bend",
        "col1": "Sadler's Wells",
        "col2": "Northern Dancer",
        "col3": "Gulch"
    },
    {
        "col0": "Reference Point",
        "col1": "Mill Reef",
        "col2": "Never Bend",
        "col3": "Habitat"
    },
    {
        "col0": "Redoute's Dancer",
        "col1": "Redoute's Choice",
        "col2": "Danehill",
        "col3": "El Gran Senor"
    },
    {
        "col0": "Red Rocks",
        "col1": "Galileo",
        "col2": "Sadler's Wells",
        "col3": "Machiavellian"
    },
    {
        "col0": "Red Ransom",
        "col1": "Roberto",
        "col2": "Hail To Reason",
        "col3": "Damascus"
    },
    {
        "col0": "Red God",
        "col1": "Nasrullah",
        "col2": "Nearco",
        "col3": "Menow"
    },
    {
        "col0": "Red Giant",
        "col1": "Giant's Causeway",
        "col2": "Storm Cat",
        "col3": "Kingmambo"
    },
    {
        "col0": "Red Clubs",
        "col1": "Red Ransom",
        "col2": "Roberto",
        "col3": "First Trump"
    },
    {
        "col0": "Red Bullet",
        "col1": "Unbridled",
        "col2": "Fappiano",
        "col3": "Caro"
    },
    {
        "col0": "Red Bloom",
        "col1": "Selkirk",
        "col2": "Sharpen Up",
        "col3": "Polar Falcon"
    },
    {
        "col0": "Recapturetheglory",
        "col1": "Cherokee Run",
        "col2": "Runaway Groom",
        "col3": "Dehere"
    },
    {
        "col0": "Reams of Verse",
        "col1": "Nureyev",
        "col2": "Northern Dancer",
        "col3": "Roberto"
    },
    {
        "col0": "Real Shadai",
        "col1": "Roberto",
        "col2": "Hail To Reason",
        "col3": "In Reality"
    },
    {
        "col0": "Real Quiet",
        "col1": "Quiet American",
        "col2": "Fappiano",
        "col3": "Believe It"
    },
    {
        "col0": "Real Delight",
        "col1": "Bull Lea",
        "col2": "Bull Dog",
        "col3": "Blue Larkspur"
    },
    {
        "col0": "Ravinella",
        "col1": "Mr Prospector",
        "col2": "Raise A Native",
        "col3": "Northern Dancer"
    },
    {
        "col0": "Rapid Redux",
        "col1": "Pleasantly Perfect",
        "col2": "Pleasant Colony",
        "col3": "Storm Cat"
    },
    {
        "col0": "Rajeem",
        "col1": "Diktat",
        "col2": "Warning",
        "col3": "Cadeaux Genereux"
    },
    {
        "col0": "Raja Baba",
        "col1": "Bold Ruler",
        "col2": "Nasrullah",
        "col3": "My Babu"
    },
    {
        "col0": "Raintrap",
        "col1": "Rainbow Quest",
        "col2": "Blushing Groom",
        "col3": "Roberto"
    },
    {
        "col0": "Rainbows for Life",
        "col1": "Lyphard",
        "col2": "Northern Dancer",
        "col3": "Halo"
    },
    {
        "col0": "Rainbow View",
        "col1": "Dynaformer",
        "col2": "Roberto",
        "col3": "Nureyev"
    },
    {
        "col0": "Rainbow Quest",
        "col1": "Blushing Groom",
        "col2": "Red God",
        "col3": "Herbager"
    },
    {
        "col0": "Rail Link",
        "col1": "Dansili",
        "col2": "Danehill",
        "col3": "Theatrical"
    }
]