[
    {
        "col0": "Wrist",
        "col1": "Logic",
        "col2": "Flexicution",
        "col3": "206"
    },
    {
        "col0": "Wrist",
        "col1": "Chris Brown",
        "col2": "Fine by Me",
        "col3": "194"
    },
    {
        "col0": "Wrinkles",
        "col1": "Diamond Rio",
        "col2": "I Believe",
        "col3": "189"
    },
    {
        "col0": "Wretched and Divine: The Story of the Wild Ones",
        "col1": "Black Veil Brides",
        "col2": "In the End",
        "col3": "3068"
    },
    {
        "col0": "Wretch",
        "col1": "Kyuss",
        "col2": "Sons of Kyuss",
        "col3": "2929"
    },
    {
        "col0": "Wrecking Everything",
        "col1": "Overkill",
        "col2": "Bloodletting",
        "col3": "4252"
    },
    {
        "col0": "Wrecking Ball",
        "col1": "Neil Young",
        "col2": "On Broadway",
        "col3": "308"
    },
    {
        "col0": "Wrecking Ball",
        "col1": "Miley Cyrus",
        "col2": "We Can't Stop",
        "col3": "221"
    },
    {
        "col0": "Wrecking Ball",
        "col1": "Emmylou Harris",
        "col2": "Cowgirl's Prayer",
        "col3": "3186"
    },
    {
        "col0": "Wrecking Ball",
        "col1": "Dead Confederate",
        "col2": "Dead Confederate EP",
        "col3": "3360"
    },
    {
        "col0": "Wrecking Ball",
        "col1": "Bruce Springsteen",
        "col2": "The Promise",
        "col3": "3100"
    },
    {
        "col0": "Wrecked",
        "col1": "Raymond Watts",
        "col2": "Sinsation",
        "col3": "3480"
    },
    {
        "col0": "Wreck Your Life",
        "col1": "Old 97's",
        "col2": "Hitchhike To Rhome",
        "col3": "2980"
    },
    {
        "col0": "Wreck",
        "col1": "Unsane",
        "col2": "Visqueen",
        "col3": "2464"
    },
    {
        "col0": "Wrathrash",
        "col1": "Orcustus",
        "col2": "World Dirtnap",
        "col3": "463"
    },
    {
        "col0": "Wrath of the Math",
        "col1": "Jeru the Damaja",
        "col2": "The Sun Rises in the East",
        "col3": "3107"
    },
    {
        "col0": "Wrath",
        "col1": "Lamb of God",
        "col2": "Sacrament",
        "col3": "2683"
    },
    {
        "col0": "Wrath",
        "col1": "Iris",
        "col2": "Awakening",
        "col3": "2580"
    },
    {
        "col0": "Wrapped in Red",
        "col1": "Kelly Clarkson",
        "col2": "PrizeFighter",
        "col3": "216"
    },
    {
        "col0": "Wrapped in Red",
        "col1": "Kelly Clarkson",
        "col2": "The Smoakstack Sessions Vol. 2",
        "col3": "2809"
    },
    {
        "col0": "Wrapped Up in Pinstripes",
        "col1": "Farewell, My Love",
        "col2": "Gold Tattoos",
        "col3": "1159"
    },
    {
        "col0": "Wrapped Up",
        "col1": "Olly Murs",
        "col2": "Hand on Heart",
        "col3": "185"
    },
    {
        "col0": "Wrapped Tight",
        "col1": "Coleman Hawkins",
        "col2": "Sonny Meets Hawk!",
        "col3": "2588"
    },
    {
        "col0": "Wrapped Around Your Finger",
        "col1": "The Police",
        "col2": "Every Breath You Take",
        "col3": "313"
    },
    {
        "col0": "Wrapped Around",
        "col1": "Brad Paisley",
        "col2": "Two People Fell in Love",
        "col3": "186"
    },
    {
        "col0": "Wrapped",
        "col1": "Gloria Estefan",
        "col2": "Y-Tu-Conga",
        "col3": "207"
    },
    {
        "col0": "Wrapped",
        "col1": "George Strait",
        "col2": "It Just Comes Natural",
        "col3": "249"
    },
    {
        "col0": "Wrap Your Troubles in Dreams",
        "col1": "The 69 Eyes",
        "col2": "Savage Garden",
        "col3": "2400"
    },
    {
        "col0": "Wrap Your Arms Around Me",
        "col1": "Agnetha Faltskog",
        "col2": "The Heat Is On",
        "col3": "232"
    },
    {
        "col0": "Wrap Your Arms Around Me",
        "col1": "Agnetha Faltskog",
        "col2": "Nu tandas tusen juleljus",
        "col3": "2776"
    },
    {
        "col0": "Wrap My Body Tight",
        "col1": "Johnny Gill",
        "col2": "Fairweather Friend",
        "col3": "224"
    },
    {
        "col0": "Wrap Me Up",
        "col1": "Alex Party",
        "col2": "Don't Give Me Your Life",
        "col3": "229"
    },
    {
        "col0": "Wrap Her Up",
        "col1": "Elton John",
        "col2": "Nikita",
        "col3": "364"
    },
    {
        "col0": "Wrap Around Joy",
        "col1": "Carole King",
        "col2": "Fantasy",
        "col3": "2535"
    },
    {
        "col0": "Woz Not Woz",
        "col1": "Eric Prydz",
        "col2": "Call on Me",
        "col3": "181"
    },
    {
        "col0": "Woyaya",
        "col1": "Osibisa",
        "col2": "Osibisa",
        "col3": "2444"
    },
    {
        "col0": "Wowee Zowee",
        "col1": "Pavement",
        "col2": "Crooked Rain, Crooked Rain",
        "col3": "3351"
    },
    {
        "col0": "Wow Oh Wow",
        "col1": "Jedward",
        "col2": "Bad Behaviour",
        "col3": "200"
    },
    {
        "col0": "Wow 2",
        "col1": "Boredoms",
        "col2": "Super Roots",
        "col3": "3258"
    },
    {
        "col0": "Wow",
        "col1": "Superbus",
        "col2": "Pop'n'gum",
        "col3": "2697"
    },
    {
        "col0": "Wow",
        "col1": "Kylie Minogue",
        "col2": "2 Hearts",
        "col3": "193"
    },
    {
        "col0": "Wow",
        "col1": "Kate Bush",
        "col2": "Hammer Horror",
        "col3": "221"
    },
    {
        "col0": "Wow",
        "col1": "Inna",
        "col2": "Endless",
        "col3": "189"
    },
    {
        "col0": "Wow",
        "col1": "Beck",
        "col2": "Dreams",
        "col3": "220"
    },
    {
        "col0": "Wow/Grape Jam",
        "col1": "Moby Grape",
        "col2": "Moby Grape",
        "col3": "2251"
    },
    {
        "col0": "Wow!",
        "col1": "Bananarama",
        "col2": "True Confessions",
        "col3": "2559"
    },
    {
        "col0": "Wovoka",
        "col1": "Redbone",
        "col2": "Already Here",
        "col3": "2286"
    },
    {
        "col0": "Woven Cord",
        "col1": "Iona",
        "col2": "Heaven's Bright Sun",
        "col3": "4688"
    },
    {
        "col0": "Wounds Wide Open",
        "col1": "To/Die/For",
        "col2": "IV",
        "col3": "2455"
    },
    {
        "col0": "Wounds",
        "col1": "The Funeral Pyre",
        "col2": "The Nature of Betrayal",
        "col3": "3015"
    },
    {
        "col0": "Wounded Rhymes",
        "col1": "Lykke Li",
        "col2": "Youth Novels",
        "col3": "2456"
    },
    {
        "col0": "Wounded",
        "col1": "Enchant",
        "col2": "A Blueprint of the World",
        "col3": "3807"
    },
    {
        "col0": "Wouldn't You",
        "col1": "N-Dubz",
        "col2": "Number 1",
        "col3": "234"
    },
    {
        "col0": "Wouldn't It Be Nice",
        "col1": "The Beach Boys",
        "col2": "Sloop John B",
        "col3": "153"
    },
    {
        "col0": "Wouldn't It Be Good",
        "col1": "Nik Kershaw",
        "col2": "I Won't Let the Sun Go Down on Me",
        "col3": "272"
    },
    {
        "col0": "Wouldn't I Be Someone",
        "col1": "Bee Gees",
        "col2": "Saw a New Morning",
        "col3": "210"
    },
    {
        "col0": "Wouldn't Get Far",
        "col1": "The Game",
        "col2": "Let's Ride",
        "col3": "218"
    },
    {
        "col0": "Wouldn't Change a Thing",
        "col1": "Kylie Minogue",
        "col2": "Hand on Your Heart",
        "col3": "194"
    },
    {
        "col0": "Wouldn't Believe It",
        "col1": "The Get Up Kids",
        "col2": "Action & Action",
        "col3": "870"
    },
    {
        "col0": "Would You Raise Your Hands?",
        "col1": "Rogue Traders",
        "col2": "Love Is a War",
        "col3": "208"
    },
    {
        "col0": "Would You Lay with Me",
        "col1": "Tanya Tucker",
        "col2": "Blood Red and Goin' Down",
        "col3": "143"
    },
    {
        "col0": "Would You Go with Me",
        "col1": "Josh Turner",
        "col2": "Your Man",
        "col3": "228"
    },
    {
        "col0": "Would You Catch a Falling Star",
        "col1": "John Anderson",
        "col2": "I Just Came Home to Count the Memories",
        "col3": "176"
    },
    {
        "col0": "Would You Believe",
        "col1": "Ace of Base",
        "col2": "All for You",
        "col3": "170"
    },
    {
        "col0": "Would You Believe?",
        "col1": "The Hollies",
        "col2": "Hollies",
        "col3": "1531"
    },
    {
        "col0": "Would You Be Mine?",
        "col1": "Diama",
        "col2": "Mare",
        "col3": "208"
    },
    {
        "col0": "Would You?",
        "col1": "Iris",
        "col2": "Wonderful",
        "col3": "179"
    },
    {
        "col0": "Would It Kill You?",
        "col1": "Hellogoodbye",
        "col2": "Ukulele Recordings",
        "col3": "2138"
    },
    {
        "col0": "Would I Lie to You?",
        "col1": "Eurythmics",
        "col2": "Julia",
        "col3": "262"
    },
    {
        "col0": "Would?",
        "col1": "Alice in Chains",
        "col2": "Sea of Sorrow",
        "col3": "207"
    },
    {
        "col0": "Wot",
        "col1": "Captain Sensible",
        "col2": "Happy Talk",
        "col3": "7"
    },
    {
        "col0": "Worthless Recluse",
        "col1": "Jandek",
        "col2": "This Narrow Road",
        "col3": "2823"
    },
    {
        "col0": "Worth the Weight",
        "col1": "Anvil",
        "col2": "Past and Present - Live in Concert",
        "col3": "2889"
    },
    {
        "col0": "Worth It All",
        "col1": "Meredith Andrews",
        "col2": "As Long as It Takes",
        "col3": "2973"
    },
    {
        "col0": "Worth It",
        "col1": "Fifth Harmony",
        "col2": "Sledgehammer",
        "col3": "224"
    },
    {
        "col0": "Worth Every Mile",
        "col1": "Travis Tritt",
        "col2": "Looking Out for Number One",
        "col3": "306"
    },
    {
        "col0": "Worst Thing I've Been Cursed With",
        "col1": "Sparks the Rescue",
        "col2": "Eyes to the Sun",
        "col3": "2462"
    },
    {
        "col0": "Worst Part Is Over",
        "col1": "Anna Abreu",
        "col2": "Hysteria",
        "col3": "218"
    },
    {
        "col0": "Worst Fears Confirmed",
        "col1": "Vakill",
        "col2": "The Darkest Cloud",
        "col3": "3165"
    },
    {
        "col0": "Worst Case Scenario",
        "col1": "The Hoosiers",
        "col2": "Goodbye Mr A",
        "col3": "155"
    },
    {
        "col0": "Worst Case Scenario",
        "col1": "Deus",
        "col2": "Zea",
        "col3": "3313"
    },
    {
        "col0": "Worst Behavior",
        "col1": "Drake",
        "col2": "Believe Me",
        "col3": "270"
    },
    {
        "col0": "Worshippers of the Seventh Tyranny",
        "col1": "Impiety",
        "col2": "Terroreign",
        "col3": "2312"
    },
    {
        "col0": "Worship with Don Moen",
        "col1": "Don Moen",
        "col2": "Eternal God",
        "col3": "2860"
    },
    {
        "col0": "Worship the Glitch",
        "col1": "ELpH",
        "col2": "Born Again Pagans",
        "col3": "3236"
    },
    {
        "col0": "Worship and Tribute",
        "col1": "Glassjaw",
        "col2": "Everything You Ever Wanted to Know About Silence",
        "col3": "2745"
    },
    {
        "col0": "Worship and Believe",
        "col1": "Steven Curtis Chapman",
        "col2": "The Glorious Unfolding",
        "col3": "4348"
    },
    {
        "col0": "Worship Volume One: I Stand for You",
        "col1": "Tree63",
        "col2": "The Answer to the Question",
        "col3": "4410"
    },
    {
        "col0": "Worship Music",
        "col1": "Anthrax",
        "col2": "We've Come for You All",
        "col3": "3943"
    },
    {
        "col0": "Worship Is the Cleansing of the Imagination",
        "col1": "Justin Broadrick",
        "col2": "Posthuman",
        "col3": "2070"
    },
    {
        "col0": "Worship God",
        "col1": "Rebecca St. James",
        "col2": "Transform",
        "col3": "2682"
    },
    {
        "col0": "Worship",
        "col1": "A Place to Bury Strangers",
        "col2": "Exploding Head",
        "col3": "2672"
    },
    {
        "col0": "Worse for the Wear",
        "col1": "The New Amsterdams",
        "col2": "Para Toda Vida",
        "col3": "1942"
    },
    {
        "col0": "Worse Than a Fairy Tale",
        "col1": "Drop Dead, Gorgeous",
        "col2": "In Vogue",
        "col3": "2940"
    },
    {
        "col0": "Worse Than Alone",
        "col1": "The Number Twelve Looks Like You",
        "col2": "Here at the End of All Things",
        "col3": "2768"
    },
    {
        "col0": "Worse Comes to Worst",
        "col1": "Billy Joel",
        "col2": "Piano Man",
        "col3": "168"
    },
    {
        "col0": "Worry Bomb",
        "col1": "Carter the Unstoppable Sex Machine",
        "col2": "Starry Eyed and Bollock Naked",
        "col3": "3496"
    },
    {
        "col0": "Worry About You",
        "col1": "Tyler James",
        "col2": "Single Tear",
        "col3": "217"
    },
    {
        "col0": "Worry About You",
        "col1": "Ivy",
        "col2": "Lucy Doesn't Love You",
        "col3": "239"
    },
    {
        "col0": "Worry About It Later",
        "col1": "The Futureheads",
        "col2": "Skip to the End",
        "col3": "195"
    },
    {
        "col0": "Worrisome Heart",
        "col1": "Melody Gardot",
        "col2": "Some Lessons: The Bedroom Sessions",
        "col3": "1994"
    },
    {
        "col0": "Worried Man Blues: Their Complete Victor Recordings",
        "col1": "Carter Family",
        "col2": "When the Roses Bloom in Dixieland: Their Complete Victor Recordings",
        "col3": "2652"
    },
    {
        "col0": "Worn Thin",
        "col1": "Weep",
        "col2": "Never Ever",
        "col3": "2793"
    },
    {
        "col0": "Worn Copy",
        "col1": "Ariel Pink",
        "col2": "Holy Shit EP",
        "col3": "4579"
    },
    {
        "col0": "Wormwood",
        "col1": "Moe.",
        "col2": "Season's Greetings from moe.",
        "col3": "3443"
    },
    {
        "col0": "Wormwood",
        "col1": "The Acacia Strain",
        "col2": "Continent",
        "col3": "2852"
    },
    {
        "col0": "Wormwood",
        "col1": "Marduk",
        "col2": "Rom 5:12",
        "col3": "2759"
    },
    {
        "col0": "Wormwood: Curious Stories from the Bible",
        "col1": "The Residents",
        "col2": "Have a Bad Day",
        "col3": "3613"
    },
    {
        "col0": "Worms for the Garden",
        "col1": "Buckethead",
        "col2": "Pancake Heater",
        "col3": "1807"
    },
    {
        "col0": "Worm Tamer",
        "col1": "Grinderman",
        "col2": "Heathen Child",
        "col3": "193"
    },
    {
        "col0": "Worm Infested",
        "col1": "Cannibal Corpse",
        "col2": "Gore Obsessed",
        "col3": "1362"
    },
    {
        "col0": "Worlock",
        "col1": "Skinny Puppy",
        "col2": "Tin Omen",
        "col3": "1288"
    },
    {
        "col0": "Worldwide Underground",
        "col1": "Erykah Badu",
        "col2": "Mama's Gun",
        "col3": "3261"
    },
    {
        "col0": "Worldwide Favourites",
        "col1": "Adam Again",
        "col2": "Perfecta",
        "col3": "4219"
    },
    {
        "col0": "Worldwide",
        "col1": "Everything but the Girl",
        "col2": "The Language of Life",
        "col3": "2641"
    },
    {
        "col0": "Worldwide",
        "col1": "Audio Adrenaline",
        "col2": "Lift",
        "col3": "2436"
    },
    {
        "col0": "Worlds Torn Asunder",
        "col1": "Warbringer",
        "col2": "Waking into Nightmares",
        "col3": "2484"
    }
]