[
    {
        "col0": "Todo Por Tu Amor",
        "col1": "Contra Viento y Marea",
        "col2": "1997-07-08",
        "col3": "2700"
    },
    {
        "col0": "Today with Kris Aquino",
        "col1": "Talk TV",
        "col2": "2001-03-09",
        "col3": "1800"
    },
    {
        "col0": "Today Tonight",
        "col1": "Prime Time",
        "col2": "1992-08-27",
        "col3": "1800"
    },
    {
        "col0": "Today's Business",
        "col1": "Capital Connection",
        "col2": "2007-03-23",
        "col3": "3600"
    },
    {
        "col0": "Today's Business",
        "col1": "Wake Up Call",
        "col2": "2002-02-01",
        "col3": "7200"
    },
    {
        "col0": "To the Dearest Intruder",
        "col1": "Thirty Something",
        "col2": "2015-12-05",
        "col3": "5400"
    },
    {
        "col0": "To the Beautiful You",
        "col1": "The Great Seer",
        "col2": "2012-10-04",
        "col3": "1315"
    },
    {
        "col0": "To Play the King",
        "col1": "The Final Cut",
        "col2": "1993-12-12",
        "col3": "3000"
    },
    {
        "col0": "ToGetHer",
        "col1": "Boys Over Flowers",
        "col2": "2009-05-03",
        "col3": "5400"
    },
    {
        "col0": "Tinker Tailor Soldier Spy",
        "col1": "Smiley's People",
        "col2": "1979-10-22",
        "col3": "17400"
    },
    {
        "col0": "Tinig",
        "col1": "Duyan",
        "col2": "2006-04-12",
        "col3": "1800"
    },
    {
        "col0": "Time Signs",
        "col1": "Time Team",
        "col2": "1991-07-21",
        "col3": "1800"
    },
    {
        "col0": "Tim and Eric Awesome Show, Great Job!",
        "col1": "Check It Out! with Dr. Steve Brule",
        "col2": "2010-05-02",
        "col3": "660"
    },
    {
        "col0": "Till Death...",
        "col1": "In Sickness and in Health",
        "col2": "1981-07-03",
        "col3": "1800"
    },
    {
        "col0": "Til Love Do Us Lie",
        "col1": "Come Home Love",
        "col2": "2012-05-11",
        "col3": "1320"
    },
    {
        "col0": "Tiger Mum",
        "col1": "Mind Game",
        "col2": "2015-05-06",
        "col3": "2700"
    }
]