[
    {
        "col0": "A. Langlois",
        "col1": "P. Archetto",
        "col2": "S. Bourne",
        "col3": "C. Hay",
        "col4": "1981-7-21"
    },
    {
        "col0": "A. Ucar",
        "col1": "J. Maitz",
        "col2": "K. Engi",
        "col3": "A. Agafonova",
        "col4": "1985-1-19"
    },
    {
        "col0": "A. Agafonova",
        "col1": "D. Dun",
        "col2": "I. Shpilband",
        "col3": "A. Ucar",
        "col4": "1991-1-15"
    },
    {
        "col0": "A. Savchenko",
        "col1": "R. Szolkowy",
        "col2": "I. Steuer",
        "col3": "B. Massot",
        "col4": "1984-1-19"
    },
    {
        "col0": "A. Aldridge",
        "col1": "D. Eaton",
        "col2": "M. Zueva",
        "col3": "M. Blackmer",
        "col4": "1994-5-7"
    },
    {
        "col0": "A. Zaboev",
        "col1": "N. Zabijako",
        "col2": "S. Todorov",
        "col3": "N. Takahashi",
        "col4": "1989-9-1"
    },
    {
        "col0": "A. Smirnov",
        "col1": "E. Vasilieva",
        "col2": "I. Bobrin",
        "col3": "Y. Kavaguti",
        "col4": "1984-10-11"
    },
    {
        "col0": "A. Enbert",
        "col1": "K. Ozerova",
        "col2": "N. Bestemianova",
        "col3": "N. Zabijako",
        "col4": "1989-4-17"
    },
    {
        "col0": "A. S. Knierim",
        "col1": "I. Dimitrov",
        "col2": "I. Shpilband",
        "col3": "C. Knierim",
        "col4": "1991-6-10"
    },
    {
        "col0": "A. Kido",
        "col1": "N. Tsuzuki",
        "col2": "N. Linichuk",
        "col3": "N. Watanabe",
        "col4": "1975-8-28"
    },
    {
        "col0": "A. Diaz",
        "col1": "S. Hurtado",
        "col2": "P. Lauzon",
        "col3": "O. Smart",
        "col4": "1990-9-17"
    }
]