[
    {
        "col0": "B. Gaughran",
        "col1": "UCD GAA",
        "col2": "1945-7-16",
        "col3": "1945-7-16"
    },
    {
        "col0": "B. Tansey",
        "col1": "Ballyforan",
        "col2": "1953-6-22",
        "col3": "1953-6-22"
    },
    {
        "col0": "B. Murphy",
        "col1": "Scariff GAA",
        "col2": "1975-7-7",
        "col3": "1975-7-7"
    },
    {
        "col0": "B. McGoldrick",
        "col1": "CLG Eoghan Rua",
        "col2": "1985-4-29",
        "col3": "1985-4-29"
    },
    {
        "col0": "B. Johnson",
        "col1": "Bride Rovers",
        "col2": "1984-6-17",
        "col3": "1984-6-17"
    },
    {
        "col0": "B. Hennessy",
        "col1": "Kilmallock GAA",
        "col2": "1989-10-14",
        "col3": "1989-10-14"
    },
    {
        "col0": "B. Moylan",
        "col1": "St. Rynagh's GAA",
        "col2": "1943-0-0",
        "col3": "1943-0-0"
    },
    {
        "col0": "A. Walsh",
        "col1": "Kildorrery GAA",
        "col2": "1977-1-1",
        "col3": "1977-1-1"
    },
    {
        "col0": "A. O'Toole",
        "col1": "Templeogue Synge Street",
        "col2": "1951-0-0",
        "col3": "1951-0-0"
    },
    {
        "col0": "A. Tohill",
        "col1": "Swatragh GAC",
        "col2": "1971-8-2",
        "col3": "1971-8-2"
    },
    {
        "col0": "A. Fleming",
        "col1": "Mount Sion GAA",
        "col2": "1916-4-23",
        "col3": "1916-4-23"
    },
    {
        "col0": "A. Fenton",
        "col1": "Kiltormer GAA",
        "col2": "1952-1-1",
        "col3": "1952-1-1"
    },
    {
        "col0": "A. Buckley",
        "col1": "Blackrock GAA",
        "col2": "1884-0-0",
        "col3": "1884-0-0"
    },
    {
        "col0": "A. Quinn",
        "col1": "Tulla GAA",
        "col2": "1983-5-25",
        "col3": "1983-5-25"
    },
    {
        "col0": "A. O'Flynn",
        "col1": "Glen Rovers GAA",
        "col2": "1946-1-1",
        "col3": "1946-1-1"
    },
    {
        "col0": "A. Murray",
        "col1": "Clann Eireann GAC",
        "col2": "1914-1-1",
        "col3": "1914-1-1"
    },
    {
        "col0": "A. Kennedy",
        "col1": "Sarsfield's GAA",
        "col2": "1986-1-4",
        "col3": "1986-1-4"
    },
    {
        "col0": "A. O'Sullivan",
        "col1": "Dromid Pearses",
        "col2": "1987-1-1",
        "col3": "1987-1-1"
    },
    {
        "col0": "A. O'Shea",
        "col1": "Glenbeigh-Glencar",
        "col2": "1985-1-1",
        "col3": "1985-1-1"
    },
    {
        "col0": "A. O'Rourke",
        "col1": "Dromintee St Patrick's GAC",
        "col2": "1984-1-1",
        "col3": "1984-1-1"
    },
    {
        "col0": "A. Fennelly",
        "col1": "Portlaoise GAA",
        "col2": "1981-8-20",
        "col3": "1981-8-20"
    },
    {
        "col0": "A. Mannix",
        "col1": "Kilworth GAA",
        "col2": "1988-3-4",
        "col3": "1988-3-4"
    },
    {
        "col0": "A. Cush",
        "col1": "Donaghmore St. Patrick's",
        "col2": "1970-6-12",
        "col3": "1970-6-12"
    },
    {
        "col0": "E. O'Donoghue",
        "col1": "Ballylongford GAA",
        "col2": "1946-0-0",
        "col3": "1946-0-0"
    },
    {
        "col0": "E. Goulding",
        "col1": "Glen Rovers GAA",
        "col2": "1934-1-1",
        "col3": "1934-1-1"
    },
    {
        "col0": "E. Cregan",
        "col1": "Claughaun GAA",
        "col2": "1945-5-21",
        "col3": "1945-5-21"
    }
]