[
    {
        "col0": "W. Jackson",
        "col1": "South Lanarkshire",
        "col2": "1871-3-14",
        "col3": "1955-1-26"
    },
    {
        "col0": "W. Knock",
        "col1": "Halifax, Nova Scotia",
        "col2": "1913-11-23",
        "col3": "1988-02-11"
    },
    {
        "col0": "V. Wood",
        "col1": "Manitoba",
        "col2": "1886-08-28",
        "col3": "1979-09-10"
    },
    {
        "col0": "V. Wetterstrom",
        "col1": "Stockholm",
        "col2": "1884-08-27",
        "col3": "1956-05-11"
    },
    {
        "col0": "V. Peters",
        "col1": "Winnipeg",
        "col2": "1955-03-24",
        "col3": "2016-03-27"
    },
    {
        "col0": "T. Murray",
        "col1": "South Lanarkshire",
        "col2": "1877-10-3",
        "col3": "1944-6-3"
    },
    {
        "col0": "S. Patterson",
        "col1": "Ontario",
        "col2": "1969-1-1",
        "col3": "2004-1-25"
    },
    {
        "col0": "S. Penwarden",
        "col1": "Manitoba",
        "col2": "1885-07-19",
        "col3": "1930-05-23"
    },
    {
        "col0": "R. Singbush",
        "col1": "Manitoba",
        "col2": "1896-12-17",
        "col3": "1950-12-29"
    },
    {
        "col0": "R. H. Pickering",
        "col1": "Alberta",
        "col2": "1932-09-19",
        "col3": "2015-06-24"
    },
    {
        "col0": "R. Werner",
        "col1": "Fort Saskatchewan, Alberta",
        "col2": "1935-0-0",
        "col3": "1998-0-0"
    },
    {
        "col0": "P. Canivet",
        "col1": "Garches",
        "col2": "1890-1-1",
        "col3": "1982-1-25"
    },
    {
        "col0": "P. Wood",
        "col1": "Manitoba",
        "col2": "1888-08-29",
        "col3": "1978-12-28"
    },
    {
        "col0": "N. Harrison",
        "col1": "Ontario",
        "col2": "1949-01-23",
        "col3": "2014-02-24"
    },
    {
        "col0": "M. Macneill",
        "col1": "Halifax, Nova Scotia",
        "col2": "1877-01-07",
        "col3": "1951-02-16"
    },
    {
        "col0": "M. Campbell",
        "col1": "Trois-Rivieres",
        "col2": "1919-11-28",
        "col3": "2014-7-4"
    },
    {
        "col0": "M. Frederickson",
        "col1": "Manitoba",
        "col2": "1906-04-06",
        "col3": "1992-04-28"
    },
    {
        "col0": "L. Dagg",
        "col1": "Kelowna",
        "col2": "1929-07-27",
        "col3": "1975-05-14"
    },
    {
        "col0": "L. Campbell",
        "col1": "Emerald Park, Saskatchewan",
        "col2": "1915-01-04",
        "col3": "2016-05-25"
    },
    {
        "col0": "L. Wood",
        "col1": "Manitoba",
        "col2": "1889-06-02",
        "col3": "1965-09-17"
    },
    {
        "col0": "L. Johnson",
        "col1": "Manitoba",
        "col2": "1899-01-29",
        "col3": "1970-11-08"
    },
    {
        "col0": "L. Johnson",
        "col1": "Manitoba",
        "col2": "1901-06-12",
        "col3": "1976-03-06"
    },
    {
        "col0": "L. Jackson",
        "col1": "South Lanarkshire",
        "col2": "1900-9-16",
        "col3": "1984-7-27"
    },
    {
        "col0": "K. Watson",
        "col1": "Manitoba",
        "col2": "1904-08-12",
        "col3": "1986-07-26"
    },
    {
        "col0": "K. Stearne",
        "col1": "Adelaide",
        "col2": "1958-07-02",
        "col3": "2016-05-09"
    },
    {
        "col0": "K. Reilly",
        "col1": "Ontario",
        "col2": "1938-0-0",
        "col3": "2012-0-0"
    },
    {
        "col0": "K. Wahlberg",
        "col1": "Stockholm",
        "col2": "1874-03-31",
        "col3": "1934-08-01"
    },
    {
        "col0": "J. Watson",
        "col1": "Manitoba",
        "col2": "1914-0-0",
        "col3": "1974-2-18"
    },
    {
        "col0": "J. Welsh",
        "col1": "Winnipeg, Manitoba",
        "col2": "1910-02-10",
        "col3": "1988-10-24"
    },
    {
        "col0": "J. Congalton",
        "col1": "Manitoba",
        "col2": "1879-09-26",
        "col3": "1947-10-10"
    },
    {
        "col0": "J. Williams",
        "col1": "Stonewall, Manitoba",
        "col2": "1916-09-08",
        "col3": "2004-08-22"
    },
    {
        "col0": "H. Gervais",
        "col1": "Edmonton, Alberta",
        "col2": "1934-1-1",
        "col3": "1997-7-19"
    },
    {
        "col0": "G. Hummelt",
        "col1": "Germany",
        "col2": "1931-07-21",
        "col3": "2010-07-03"
    },
    {
        "col0": "G. Watson",
        "col1": "Thunder Bay, Ontario",
        "col2": "1905-10-31",
        "col3": "1977-04-06"
    },
    {
        "col0": "G. Hudson",
        "col1": "Winnipeg",
        "col2": "1894-01-05",
        "col3": "1959-07-10"
    },
    {
        "col0": "G. Campbell",
        "col1": "Regina, Saskatchewan",
        "col2": "1916-09-23",
        "col3": "2005-02-01"
    },
    {
        "col0": "G. Andre",
        "col1": "Versailles, Yvelines",
        "col2": "1876-7-26",
        "col3": "1945-3-19"
    },
    {
        "col0": "G. Richardson",
        "col1": "Regina, Saskatchewan",
        "col2": "1933-11-06",
        "col3": "2016-01-21"
    },
    {
        "col0": "G. Campbell",
        "col1": "Okotoks, Alberta",
        "col2": "1927-01-11",
        "col3": "2011-12-30"
    },
    {
        "col0": "G. Hummelt",
        "col1": "Germany",
        "col2": "1931-07-21",
        "col3": "2010-07-03"
    },
    {
        "col0": "F. Dyke",
        "col1": "Coldbrook, Nova Scotia",
        "col2": "1922-12-27",
        "col3": "2012-06-28"
    },
    {
        "col0": "F. Britton",
        "col1": "Calgary, Alberta",
        "col2": "1932-08-16",
        "col3": "2014-09-12"
    },
    {
        "col0": "E. Severin",
        "col1": "Stockholm",
        "col2": "1879-07-18",
        "col3": "1942-11-15"
    },
    {
        "col0": "D. Rollo",
        "col1": "Winnipeg, Manitoba",
        "col2": "1887-03-11",
        "col3": "1948-04-13"
    },
    {
        "col0": "D. Oyler",
        "col1": "Halifax, Nova Scotia",
        "col2": "1907-03-08",
        "col3": "1989-09-19"
    },
    {
        "col0": "C. Scrymgeour",
        "col1": "Manitoba",
        "col2": "1914-06-15",
        "col3": "2000-11-24"
    },
    {
        "col0": "C. W. Petersen",
        "col1": "San Diego",
        "col2": "1884-03-28",
        "col3": "1973-10-03"
    },
    {
        "col0": "C. A. Pettersson",
        "col1": "Stockholm",
        "col2": "1874-04-13",
        "col3": "1962-05-31"
    },
    {
        "col0": "B. Gourley",
        "col1": "La Jolla, California",
        "col2": "1878-02-20",
        "col3": "1976-03-11"
    },
    {
        "col0": "B. Walsh",
        "col1": "Winnipeg",
        "col2": "1917-01-20",
        "col3": "1971-10-07"
    },
    {
        "col0": "B. Rose",
        "col1": "Sedgewick, Alberta",
        "col2": "1904-04-11",
        "col3": "1987-10-06"
    },
    {
        "col0": "B. Tetley",
        "col1": "Thunder Bay, Ontario",
        "col2": "1933-07-11",
        "col3": "2003-06-09"
    },
    {
        "col0": "B. Grant",
        "col1": "Manitoba",
        "col2": "1882-06-16",
        "col3": "1942-04-16"
    },
    {
        "col0": "B. Naimark",
        "col1": "Halfmoon Bay, British Columbia",
        "col2": "1932-07-01",
        "col3": "2004-12-03"
    },
    {
        "col0": "A. Pollon",
        "col1": "Salmon Arm, British Columbia",
        "col2": "1914-08-20",
        "col3": "2009-03-28"
    },
    {
        "col0": "A. Kleinmeyer",
        "col1": "Athabasca, Alberta",
        "col2": "1914-0-0",
        "col3": "2000-12-23"
    },
    {
        "col0": "A. McWilliams",
        "col1": "Winnipeg, Manitoba",
        "col2": "1916-10-16",
        "col3": "1995-03-23"
    },
    {
        "col0": "A. Welsh",
        "col1": "Winnipeg, Manitoba",
        "col2": "1907-10-12",
        "col3": "1971-01-04"
    },
    {
        "col0": "A. Langlois",
        "col1": "Manitoba",
        "col2": "1915-08-04",
        "col3": "2005-01-30"
    },
    {
        "col0": "A. Gowanlock",
        "col1": "Dauphin, Manitoba",
        "col2": "1900-12-14",
        "col3": "1988-09-27"
    }
]