[
    {
        "col0": "Taupe",
        "col1": "0",
        "col2": "60",
        "col3": "60",
        "col4": "50",
        "col5": "17"
    },
    {
        "col0": "Tan",
        "col1": "0",
        "col2": "180",
        "col3": "14",
        "col4": "140",
        "col5": "33"
    },
    {
        "col0": "Sunset",
        "col1": "0",
        "col2": "214",
        "col3": "14",
        "col4": "165",
        "col5": "34"
    },
    {
        "col0": "Straw",
        "col1": "0",
        "col2": "217",
        "col3": "5",
        "col4": "111",
        "col5": "51"
    },
    {
        "col0": "Steel blue",
        "col1": "61",
        "col2": "130",
        "col3": "28",
        "col4": "180",
        "col5": "61"
    },
    {
        "col0": "Spring bud",
        "col1": "20",
        "col2": "252",
        "col3": "0",
        "col4": "0",
        "col5": "90"
    },
    {
        "col0": "Slate gray",
        "col1": "60",
        "col2": "128",
        "col3": "43",
        "col4": "144",
        "col5": "22"
    },
    {
        "col0": "Sky blue",
        "col1": "43",
        "col2": "206",
        "col3": "12",
        "col4": "235",
        "col5": "43"
    },
    {
        "col0": "Shades of yellow",
        "col1": "0",
        "col2": "255",
        "col3": "0",
        "col4": "0",
        "col5": "100"
    },
    {
        "col0": "Shades of white",
        "col1": "0",
        "col2": "255",
        "col3": "0",
        "col4": "255",
        "col5": "0"
    },
    {
        "col0": "Shades of violet",
        "col1": "44",
        "col2": "0",
        "col3": "100",
        "col4": "255",
        "col5": "100"
    },
    {
        "col0": "Shades of pink",
        "col1": "0",
        "col2": "192",
        "col3": "20",
        "col4": "203",
        "col5": "25"
    },
    {
        "col0": "Shades of orange",
        "col1": "0",
        "col2": "127",
        "col3": "50",
        "col4": "0",
        "col5": "100"
    },
    {
        "col0": "Shades of magenta",
        "col1": "3",
        "col2": "0",
        "col3": "100",
        "col4": "255",
        "col5": "100"
    },
    {
        "col0": "Shades of gray",
        "col1": "0",
        "col2": "128",
        "col3": "0",
        "col4": "128",
        "col5": "0"
    },
    {
        "col0": "Shades of cyan",
        "col1": "100",
        "col2": "255",
        "col3": "0",
        "col4": "255",
        "col5": "100"
    },
    {
        "col0": "Shades of brown",
        "col1": "0",
        "col2": "75",
        "col3": "50",
        "col4": "0",
        "col5": "100"
    },
    {
        "col0": "Shades of blue",
        "col1": "100",
        "col2": "0",
        "col3": "100",
        "col4": "255",
        "col5": "100"
    },
    {
        "col0": "Sepia",
        "col1": "0",
        "col2": "66",
        "col3": "41",
        "col4": "20",
        "col5": "82"
    },
    {
        "col0": "Seashell",
        "col1": "0",
        "col2": "245",
        "col3": "3",
        "col4": "238",
        "col5": "7"
    },
    {
        "col0": "Seal brown",
        "col1": "39",
        "col2": "38",
        "col3": "80",
        "col4": "11",
        "col5": "60"
    },
    {
        "col0": "School bus yellow",
        "col1": "1",
        "col2": "216",
        "col3": "12",
        "col4": "0",
        "col5": "100"
    },
    {
        "col0": "Scarlet",
        "col1": "0",
        "col2": "36",
        "col3": "86",
        "col4": "0",
        "col5": "100"
    },
    {
        "col0": "Sapphire",
        "col1": "92",
        "col2": "82",
        "col3": "56",
        "col4": "186",
        "col5": "91"
    },
    {
        "col0": "Salmon",
        "col1": "0",
        "col2": "128",
        "col3": "45",
        "col4": "114",
        "col5": "52"
    },
    {
        "col0": "Saffron",
        "col1": "4",
        "col2": "196",
        "col3": "23",
        "col4": "48",
        "col5": "80"
    },
    {
        "col0": "Safety orange",
        "col1": "0",
        "col2": "121",
        "col3": "55",
        "col4": "0",
        "col5": "100"
    },
    {
        "col0": "Rust",
        "col1": "22",
        "col2": "65",
        "col3": "85",
        "col4": "14",
        "col5": "92"
    },
    {
        "col0": "Russet",
        "col1": "0",
        "col2": "70",
        "col3": "45",
        "col4": "27",
        "col5": "79"
    },
    {
        "col0": "Ruby",
        "col1": "0",
        "col2": "17",
        "col3": "92",
        "col4": "95",
        "col5": "92"
    },
    {
        "col0": "Royal blue",
        "col1": "100",
        "col2": "35",
        "col3": "66",
        "col4": "102",
        "col5": "100"
    },
    {
        "col0": "Rose",
        "col1": "0",
        "col2": "0",
        "col3": "100",
        "col4": "127",
        "col5": "100"
    },
    {
        "col0": "Robin egg blue",
        "col1": "67",
        "col2": "204",
        "col3": "0",
        "col4": "204",
        "col5": "100"
    },
    {
        "col0": "Raspberry",
        "col1": "0",
        "col2": "11",
        "col3": "95",
        "col4": "92",
        "col5": "95"
    },
    {
        "col0": "Raisin black",
        "col1": "0",
        "col2": "33",
        "col3": "8",
        "col4": "36",
        "col5": "8"
    },
    {
        "col0": "Purple",
        "col1": "50",
        "col2": "0",
        "col3": "100",
        "col4": "128",
        "col5": "100"
    },
    {
        "col0": "Puce",
        "col1": "0",
        "col2": "47",
        "col3": "59",
        "col4": "55",
        "col5": "59"
    },
    {
        "col0": "Powder blue",
        "col1": "24",
        "col2": "224",
        "col3": "2",
        "col4": "230",
        "col5": "70"
    },
    {
        "col0": "Plum",
        "col1": "0",
        "col2": "69",
        "col3": "51",
        "col4": "133",
        "col5": "514"
    },
    {
        "col0": "Pink",
        "col1": "0",
        "col2": "192",
        "col3": "20",
        "col4": "203",
        "col5": "25"
    },
    {
        "col0": "Persian green",
        "col1": "80",
        "col2": "166",
        "col3": "0",
        "col4": "147",
        "col5": "75"
    },
    {
        "col0": "Persian blue",
        "col1": "100",
        "col2": "57",
        "col3": "100",
        "col4": "187",
        "col5": "85"
    },
    {
        "col0": "Periwinkle",
        "col1": "20",
        "col2": "204",
        "col3": "20",
        "col4": "255",
        "col5": "20"
    },
    {
        "col0": "Peach",
        "col1": "0",
        "col2": "229",
        "col3": "10",
        "col4": "180",
        "col5": "29"
    },
    {
        "col0": "Oxford Blue",
        "col1": "100",
        "col2": "33",
        "col3": "80",
        "col4": "71",
        "col5": "100"
    },
    {
        "col0": "Orchid",
        "col1": "0",
        "col2": "112",
        "col3": "49",
        "col4": "214",
        "col5": "49"
    },
    {
        "col0": "Orange",
        "col1": "0",
        "col2": "127",
        "col3": "50",
        "col4": "0",
        "col5": "100"
    },
    {
        "col0": "Olive",
        "col1": "0",
        "col2": "128",
        "col3": "0",
        "col4": "0",
        "col5": "100"
    },
    {
        "col0": "Old gold",
        "col1": "0",
        "col2": "181",
        "col3": "13",
        "col4": "59",
        "col5": "71"
    },
    {
        "col0": "Ochre",
        "col1": "0",
        "col2": "119",
        "col3": "42",
        "col4": "34",
        "col5": "83"
    },
    {
        "col0": "Navy blue",
        "col1": "100",
        "col2": "0",
        "col3": "98",
        "col4": "128",
        "col5": "100"
    },
    {
        "col0": "Navajo white",
        "col1": "0",
        "col2": "222",
        "col3": "13",
        "col4": "173",
        "col5": "32"
    },
    {
        "col0": "Naples yellow",
        "col1": "0",
        "col2": "218",
        "col3": "13",
        "col4": "94",
        "col5": "62"
    },
    {
        "col0": "NIVO",
        "col1": "15",
        "col2": "76",
        "col3": "0",
        "col4": "65",
        "col5": "15"
    },
    {
        "col0": "Mustard",
        "col1": "1",
        "col2": "219",
        "col3": "12",
        "col4": "88",
        "col5": "66"
    },
    {
        "col0": "Mikado yellow",
        "col1": "0",
        "col2": "196",
        "col3": "23",
        "col4": "12",
        "col5": "95"
    },
    {
        "col0": "Midnight green",
        "col1": "100",
        "col2": "73",
        "col3": "15",
        "col4": "83",
        "col5": "100"
    },
    {
        "col0": "Midnight blue",
        "col1": "97",
        "col2": "25",
        "col3": "78",
        "col4": "112",
        "col5": "78"
    },
    {
        "col0": "Mauve",
        "col1": "12",
        "col2": "176",
        "col3": "31",
        "col4": "255",
        "col5": "31"
    },
    {
        "col0": "Marigold",
        "col1": "0",
        "col2": "162",
        "col3": "31",
        "col4": "33",
        "col5": "85"
    },
    {
        "col0": "Marian blue",
        "col1": "194",
        "col2": "235",
        "col3": "44",
        "col4": "238",
        "col5": "30"
    },
    {
        "col0": "Marengo",
        "col1": "25",
        "col2": "88",
        "col3": "14",
        "col4": "102",
        "col5": "25"
    },
    {
        "col0": "Maize",
        "col1": "0",
        "col2": "236",
        "col3": "6",
        "col4": "93",
        "col5": "63"
    },
    {
        "col0": "Mahogany",
        "col1": "0",
        "col2": "64",
        "col3": "67",
        "col4": "0",
        "col5": "100"
    },
    {
        "col0": "Magenta",
        "col1": "0",
        "col2": "0",
        "col3": "100",
        "col4": "255",
        "col5": "100"
    },
    {
        "col0": "Liver",
        "col1": "0",
        "col2": "76",
        "col3": "26",
        "col4": "71",
        "col5": "31"
    },
    {
        "col0": "Lion",
        "col1": "0",
        "col2": "154",
        "col3": "45",
        "col4": "107",
        "col5": "45"
    },
    {
        "col0": "Lime",
        "col1": "25",
        "col2": "255",
        "col3": "0",
        "col4": "0",
        "col5": "100"
    },
    {
        "col0": "Lilac",
        "col1": "0",
        "col2": "162",
        "col3": "19",
        "col4": "200",
        "col5": "19"
    },
    {
        "col0": "Lavender",
        "col1": "8",
        "col2": "230",
        "col3": "8",
        "col4": "250",
        "col5": "8"
    },
    {
        "col0": "Lava",
        "col1": "0",
        "col2": "60",
        "col3": "17",
        "col4": "50",
        "col5": "31"
    },
    {
        "col0": "Kobicha",
        "col1": "0",
        "col2": "68",
        "col3": "36",
        "col4": "35",
        "col5": "67"
    },
    {
        "col0": "Jonquil",
        "col1": "0",
        "col2": "202",
        "col3": "17",
        "col4": "22",
        "col5": "91"
    },
    {
        "col0": "Jasmine",
        "col1": "0",
        "col2": "222",
        "col3": "11",
        "col4": "126",
        "col5": "49"
    },
    {
        "col0": "Ivory",
        "col1": "0",
        "col2": "255",
        "col3": "0",
        "col4": "240",
        "col5": "6"
    },
    {
        "col0": "Indigo",
        "col1": "42",
        "col2": "0",
        "col3": "100",
        "col4": "130",
        "col5": "100"
    },
    {
        "col0": "Indian red",
        "col1": "0",
        "col2": "92",
        "col3": "52",
        "col4": "92",
        "col5": "52"
    },
    {
        "col0": "Heliotrope",
        "col1": "13",
        "col2": "115",
        "col3": "55",
        "col4": "255",
        "col5": "55"
    },
    {
        "col0": "Grey",
        "col1": "0",
        "col2": "128",
        "col3": "0",
        "col4": "128",
        "col5": "0"
    },
    {
        "col0": "Goldenrod",
        "col1": "0",
        "col2": "165",
        "col3": "24",
        "col4": "32",
        "col5": "85"
    },
    {
        "col0": "Gold",
        "col1": "0",
        "col2": "215",
        "col3": "16",
        "col4": "0",
        "col5": "100"
    },
    {
        "col0": "Glaucous",
        "col1": "47",
        "col2": "130",
        "col3": "29",
        "col4": "182",
        "col5": "47"
    },
    {
        "col0": "Fulvous",
        "col1": "0",
        "col2": "132",
        "col3": "42",
        "col4": "0",
        "col5": "100"
    },
    {
        "col0": "Forest green",
        "col1": "83",
        "col2": "139",
        "col3": "21",
        "col4": "34",
        "col5": "76"
    },
    {
        "col0": "Flax",
        "col1": "7",
        "col2": "220",
        "col3": "8",
        "col4": "130",
        "col5": "45"
    },
    {
        "col0": "Fire engine red",
        "col1": "0",
        "col2": "32",
        "col3": "89",
        "col4": "41",
        "col5": "89"
    },
    {
        "col0": "Federal Standard 595 camouflage colours",
        "col1": "50",
        "col2": "152",
        "col3": "40",
        "col4": "159",
        "col5": "8"
    },
    {
        "col0": "Fallow",
        "col1": "0",
        "col2": "154",
        "col3": "14",
        "col4": "107",
        "col5": "45"
    },
    {
        "col0": "Electric green",
        "col1": "100",
        "col2": "255",
        "col3": "0",
        "col4": "0",
        "col5": "100"
    },
    {
        "col0": "Electric blue",
        "col1": "51",
        "col2": "249",
        "col3": "2",
        "col4": "255",
        "col5": "51"
    },
    {
        "col0": "Eggshell",
        "col1": "0",
        "col2": "234",
        "col3": "2",
        "col4": "214",
        "col5": "11"
    },
    {
        "col0": "Duke blue",
        "col1": "100",
        "col2": "0",
        "col3": "75",
        "col4": "156",
        "col5": "100"
    },
    {
        "col0": "Desert sand",
        "col1": "0",
        "col2": "201",
        "col3": "15",
        "col4": "175",
        "col5": "26"
    }
]