[
    {
        "col0": "S. Dinsmoor",
        "col1": "United States",
        "col2": "G. Reid",
        "col3": "1766-07-01"
    },
    {
        "col0": "R. C. Moody",
        "col1": "United Kingdom of Great Britain and Ireland",
        "col2": "J. W. Webb-Jones",
        "col3": "1813-02-13"
    },
    {
        "col0": "Juan Ponce de Leon II",
        "col1": "Puerto Ricans",
        "col2": "Juan Ponce de Leon",
        "col3": "1524-0-0"
    },
    {
        "col0": "H. D. III",
        "col1": "Philippines",
        "col2": "H. D. Jr.",
        "col3": "1964-08-25"
    },
    {
        "col0": "H. M. Araujo",
        "col1": "Colombian people",
        "col2": "A. A. Castro",
        "col3": "1961-08-28"
    },
    {
        "col0": "G. Garcia",
        "col1": "Philippines",
        "col2": "W. Garcia",
        "col3": "1955-10-12"
    },
    {
        "col0": "E. Osmena",
        "col1": "Philippines",
        "col2": "S. Osmena",
        "col3": "1938-09-11"
    },
    {
        "col0": "C. A. FitzRoy",
        "col1": "Great Britain",
        "col2": "R. FitzRoy",
        "col3": "1796-06-10"
    },
    {
        "col0": "A. Havelock",
        "col1": "United Kingdom",
        "col2": "H. Havelock",
        "col3": "1844-05-07"
    }
]