[
    {
        "col0": "Un uomo a metA ",
        "col1": "E. Morricone",
        "col2": "D. D. Palma",
        "col3": "V. D. Seta"
    },
    {
        "col0": "Un povero ricco",
        "col1": "S. Cipriani",
        "col2": "F. D. Giacomo",
        "col3": "R. Pozzetto"
    },
    {
        "col0": "Un mandarino per Teo",
        "col1": "G. Kramer",
        "col2": "G. D. Venanzo",
        "col3": "P. Garinei"
    },
    {
        "col0": "Un maledetto imbroglio",
        "col1": "C. Rustichelli",
        "col2": "L. Barboni",
        "col3": "C. E. Gadda"
    },
    {
        "col0": "Un grand cri d'amour",
        "col1": "C. Ringer",
        "col2": "G. d. Battista",
        "col3": "J. Balasko"
    },
    {
        "col0": "Un giorno nella vita",
        "col1": "E. Masetti",
        "col2": "M. Craveri",
        "col3": "M. Chiari"
    },
    {
        "col0": "Un giorno in pretura",
        "col1": "A. Trovajoli",
        "col2": "M. Scarpelli",
        "col3": "L. Fulci"
    },
    {
        "col0": "Un chant d'amour",
        "col1": "P. Nunn",
        "col2": "J. Cocteau",
        "col3": "J. Genet"
    },
    {
        "col0": "Un centavo de mujer",
        "col1": "T. Ribero",
        "col2": "A. G. Paz",
        "col3": "H. Moser"
    },
    {
        "col0": "Un amore",
        "col1": "G. Gaslini",
        "col2": "A. Scavarda",
        "col3": "E. D. Concini"
    },
    {
        "col0": "Un Samayal Arayil",
        "col1": "Ilaiyaraaja",
        "col2": "P. Jayaraman",
        "col3": "P. Raj"
    },
    {
        "col0": "Un Pecado Por Mes",
        "col1": "G. Andreani",
        "col2": "A. Traverso",
        "col3": "J. Porter"
    },
    {
        "col0": "Un Kannil Neer Vazhindal",
        "col1": "Ilaiyaraaja",
        "col2": "B. Mahendra",
        "col3": "B. Mahendra"
    },
    {
        "col0": "Umrao Jaan",
        "col1": "A. Malik",
        "col2": "A. Bose",
        "col3": "N. Vora"
    },
    {
        "col0": "Umrao Jaan",
        "col1": "M. Z. Khayyam",
        "col2": "P. Bhatt",
        "col3": "J. Siddiqui"
    },
    {
        "col0": "Umberto D.",
        "col1": "A. Cicognini",
        "col2": "G. Aldo",
        "col3": "C. Zavattini"
    },
    {
        "col0": "Umaanilayam",
        "col1": "Shyam",
        "col2": "J. Vincent",
        "col3": "C. Haneefa"
    },
    {
        "col0": "Ulzana's Raid",
        "col1": "F. D. Vol",
        "col2": "J. F. Biroc",
        "col3": "A. Sharp"
    },
    {
        "col0": "Ulysses",
        "col1": "S. Myers",
        "col2": "W. Suschitzky",
        "col3": "J. Strick"
    },
    {
        "col0": "Ulysses",
        "col1": "A. Cicognini",
        "col2": "M. Bava",
        "col3": "B. Hecht"
    },
    {
        "col0": "Ultraviolet",
        "col1": "K. Badelt",
        "col2": "A. Wong",
        "col3": "K. Wimmer"
    },
    {
        "col0": "Ultra",
        "col1": "A. Venditti",
        "col2": "A. G. Torresi",
        "col3": "R. Tognazzi"
    },
    {
        "col0": "Ultimatum",
        "col1": "A. Borchard",
        "col2": "R. Lefebvre",
        "col3": "A. Arnoux"
    },
    {
        "col0": "Ulli and Marei",
        "col1": "A. Melichar",
        "col2": "G. Anders",
        "col3": "E. Kock"
    },
    {
        "col0": "Ullathai Allitha",
        "col1": "Sirpy",
        "col2": "U. K. Senthil Kumar",
        "col3": "S. C."
    },
    {
        "col0": "Ullam Kollai Poguthae",
        "col1": "K. Raja",
        "col2": "U. K. Senthil Kumar",
        "col3": "S. C."
    },
    {
        "col0": "Ullam Ketkumae",
        "col1": "H. Jayaraj",
        "col2": "Jeeva",
        "col3": "Jeeva"
    },
    {
        "col0": "Ullaasam",
        "col1": "K. Raja",
        "col2": "Jeeva",
        "col3": "Balakumaran"
    },
    {
        "col0": "Ulkadal",
        "col1": "O. N. V. Kurup",
        "col2": "B. Mahendra",
        "col3": "G. Onakkoor"
    },
    {
        "col0": "Uliyin Osai",
        "col1": "Ilaiyaraja",
        "col2": "B. Kannan",
        "col3": "M. Karunanidhi"
    },
    {
        "col0": "Ugetsu",
        "col1": "F. Hayasaka",
        "col2": "K. Miyagawa",
        "col3": "M. Kawaguchi"
    },
    {
        "col0": "Udta Punjab",
        "col1": "A. Trivedi",
        "col2": "R. Ravi",
        "col3": "A. Chaubey"
    },
    {
        "col0": "Udhyanapalakan",
        "col1": "Johnson",
        "col2": "V. Isc",
        "col3": "Lohithadas"
    },
    {
        "col0": "Udhayam NH4",
        "col1": "G. V. Prakash Kumar",
        "col2": "Velraj",
        "col3": "Vetrimaaran"
    },
    {
        "col0": "Udhaya",
        "col1": "A. R. Rahman",
        "col2": "Priyan",
        "col3": "S. Rangarajan"
    },
    {
        "col0": "Udhavikku Varalaamaa",
        "col1": "Sirpy",
        "col2": "J. Vincent",
        "col3": "G. Krishnan"
    },
    {
        "col0": "Udayananu Tharam",
        "col1": "Ouseppachan",
        "col2": "S. K. ISC",
        "col3": "Sreenivasan"
    },
    {
        "col0": "Udan Pirappu",
        "col1": "Ilaiyaraaja",
        "col2": "J. Vincent",
        "col3": "P. Vasu"
    },
    {
        "col0": "Uchithanai Muharnthaal",
        "col1": "D. Imman",
        "col2": "B. Kannan",
        "col3": "T. manian"
    },
    {
        "col0": "U Turn",
        "col1": "E. Morricone",
        "col2": "R. Richardson",
        "col3": "O. Stone"
    },
    {
        "col0": "U.S. Marshals",
        "col1": "J. Goldsmith",
        "col2": "A. Bartkowiak",
        "col3": "R. Huggins"
    },
    {
        "col0": "U.F.O.",
        "col1": "R. \". Brown",
        "col2": "P. Wheeler",
        "col3": "R. Hall"
    },
    {
        "col0": "U-571",
        "col1": "R. Marvin",
        "col2": "O. Wood",
        "col3": "D. Ayer"
    },
    {
        "col0": "Tahdet kertovat, komisario Palmu",
        "col1": "O. Lindeman",
        "col2": "E. Toyri",
        "col3": "M. Waltari"
    },
    {
        "col0": "Two on the Tiles",
        "col1": "F. Spencer",
        "col2": "R. Elton",
        "col3": "A. Coppel"
    },
    {
        "col0": "Two on a Vacation",
        "col1": "G. Fusco",
        "col2": "A. Brizzi",
        "col3": "C. L. Bragaglia"
    },
    {
        "col0": "Two of a Kind",
        "col1": "P. Williams",
        "col2": "F. J. Koenekamp",
        "col3": "J. Herzfeld"
    },
    {
        "col0": "Two in a Crowd",
        "col1": "H. Roemheld",
        "col2": "J. A. Valentine",
        "col3": "L. R. Foster"
    },
    {
        "col0": "Two in a Car",
        "col1": "W. Schmidt-Gentner",
        "col2": "J. Bachelet",
        "col3": "E. Marischka"
    },
    {
        "col0": "Two in Revolt",
        "col1": "A. Colombo",
        "col2": "J. MacKenzie",
        "col3": "F. H. Clark"
    },
    {
        "col0": "Two for the Seesaw",
        "col1": "A. Previn",
        "col2": "T. D. McCord",
        "col3": "W. Gibson"
    },
    {
        "col0": "Two for the Road",
        "col1": "H. Mancini",
        "col2": "C. Challis",
        "col3": "F. Raphael"
    },
    {
        "col0": "Two for the Money",
        "col1": "C. Beck",
        "col2": "C. W. Hall",
        "col3": "D. Gilroy"
    },
    {
        "col0": "Two for Tonight",
        "col1": "M. Gordon",
        "col2": "K. Struss",
        "col3": "G. M. Jr."
    },
    {
        "col0": "Two for Danger",
        "col1": "B. Byrd",
        "col2": "B. Emmott",
        "col3": "B. Woon"
    },
    {
        "col0": "Two a Penny",
        "col1": "C. Richard",
        "col2": "M. Reed",
        "col3": "S. Linden"
    },
    {
        "col0": "Two Yanks in Trinidad",
        "col1": "J. Leipold",
        "col2": "P. Tannura",
        "col3": "S. Bartlett"
    },
    {
        "col0": "Two Women",
        "col1": "A. Trovajoli",
        "col2": "G. Pogany",
        "col3": "V. D. Sica"
    },
    {
        "col0": "Two Wise Maids",
        "col1": "K. Hajos",
        "col2": "E. Miller",
        "col3": "S. Ornitz"
    },
    {
        "col0": "Two Weeks with Love",
        "col1": "G. Stoll",
        "col2": "A. Gilks",
        "col3": "D. Kingsley"
    },
    {
        "col0": "Two Weeks in September",
        "col1": "M. Magne",
        "col2": "E. Sechan",
        "col3": "S. Bourguignon"
    },
    {
        "col0": "Two Weeks in Another Town",
        "col1": "D. Raksin",
        "col2": "M. R. Krasner",
        "col3": "C. Schnee"
    },
    {
        "col0": "Two Weeks Off",
        "col1": "A. Reiser",
        "col2": "S. Hickox",
        "col3": "J. Poland"
    },
    {
        "col0": "Two Weeks Notice",
        "col1": "J. Powell",
        "col2": "L. Kovacs",
        "col3": "M. Lawrence"
    },
    {
        "col0": "Two Too Young",
        "col1": "L. Shield",
        "col2": "A. Lloyd",
        "col3": "L. McManus"
    },
    {
        "col0": "Two Times Lotte",
        "col1": "A. Melichar",
        "col2": "F. Weihmayr",
        "col3": "E. Kastner"
    },
    {
        "col0": "Two Tickets to Broadway",
        "col1": "W. Scharf",
        "col2": "H. J. Wild",
        "col3": "S. Cahn"
    },
    {
        "col0": "Two Thoroughbreds",
        "col1": "R. Webb",
        "col2": "F. Redman",
        "col3": "J. Fields"
    },
    {
        "col0": "Two Red Roses",
        "col1": "W. Kollo",
        "col2": "A. Martinelli",
        "col3": "R. Liebmann"
    },
    {
        "col0": "Two Players from the Bench",
        "col1": "M. Matisic",
        "col2": "V. Vrdoljak",
        "col3": "D. A orak"
    },
    {
        "col0": "Two Mules for Sister Sara",
        "col1": "E. Morricone",
        "col2": "G. Figueroa",
        "col3": "A. Maltz"
    },
    {
        "col0": "Two Much",
        "col1": "M. Camilo",
        "col2": "J. L. Alcaine",
        "col3": "D. Trueba"
    },
    {
        "col0": "Two Missionaries",
        "col1": "Guido & Maurizio De Angelis",
        "col2": "G. Pogany",
        "col3": "F. Rossi"
    },
    {
        "col0": "Two Men in Manhattan",
        "col1": "M. Solal",
        "col2": "N. Hayer",
        "col3": "J. Melville"
    },
    {
        "col0": "Two Loves",
        "col1": "B. Kaper",
        "col2": "J. Ruttenberg",
        "col3": "B. Maddow"
    },
    {
        "col0": "Two Lovers",
        "col1": "H. Riesenfeld",
        "col2": "G. Barnes",
        "col3": "J. Colton"
    },
    {
        "col0": "Two Left Feet",
        "col1": "P. Green",
        "col2": "W. Cooper",
        "col3": "R. W. Baker"
    },
    {
        "col0": "Two Kinds of Women",
        "col1": "J. Leipold",
        "col2": "K. Struss",
        "col3": "B. Glazer"
    },
    {
        "col0": "Two If by Sea",
        "col1": "P. Moloney",
        "col2": "A. Lesnie",
        "col3": "D. Leary"
    },
    {
        "col0": "Two Heavenly Blue Eyes",
        "col1": "F. Raymond",
        "col2": "W. Hameister",
        "col3": "E. Neubach"
    },
    {
        "col0": "Two Hearts in Waltz Time",
        "col1": "R. Stolz",
        "col2": "G. Faithfull",
        "col3": "W. Reisch"
    },
    {
        "col0": "Two Hearts Beat as One",
        "col1": "J. Gilbert",
        "col2": "C. Hoffmann",
        "col3": "A. Birabeau"
    },
    {
        "col0": "Two Hearts Among the Beasts",
        "col1": "E. Carabella",
        "col2": "U. Lombardi",
        "col3": "Steno"
    },
    {
        "col0": "Two Good Comrades",
        "col1": "B. Reisfeld",
        "col2": "G. Seeber",
        "col3": "B. E. Luthge"
    },
    {
        "col0": "Two Girls on Broadway",
        "col1": "D. Raksin",
        "col2": "G. J. Folsey",
        "col3": "J. Fields"
    },
    {
        "col0": "Two Girls and a Sailor",
        "col1": "G. Stoll",
        "col2": "R. Surtees",
        "col3": "G. Lehman"
    },
    {
        "col0": "Two Funny Guys",
        "col1": "G. d. Godzinsky",
        "col2": "E. Toyri",
        "col3": "K. Nuorvala"
    },
    {
        "col0": "Two Friends",
        "col1": "P. Sarde",
        "col2": "C. Mathon",
        "col3": "C. Honore"
    },
    {
        "col0": "Two Flags West",
        "col1": "H. Friedhofer",
        "col2": "L. Shamroy",
        "col3": "C. Robinson"
    },
    {
        "col0": "Two English Girls",
        "col1": "G. Delerue",
        "col2": "N. Almendros",
        "col3": "F. Truffaut"
    },
    {
        "col0": "Two Cents Worth of Hope",
        "col1": "N. Rota",
        "col2": "A. Gallea",
        "col3": "R. Castellani"
    },
    {
        "col0": "Two",
        "col1": "S. Ray",
        "col2": "S. Roy",
        "col3": "S. Ray"
    },
    {
        "col0": "Two-Way Stretch",
        "col1": "K. Jones",
        "col2": "G. Faithfull",
        "col3": "A. Hackney"
    },
    {
        "col0": "Two-Fisted Tales",
        "col1": "M. Kamen",
        "col2": "H. Narita",
        "col3": "F. Darabont"
    },
    {
        "col0": "Two-Faced Woman",
        "col1": "B. Kaper",
        "col2": "J. Ruttenberg",
        "col3": "S. N. Behrman"
    },
    {
        "col0": "Twister",
        "col1": "E. V. Halen",
        "col2": "J. N. Green",
        "col3": "J. Whedon"
    },
    {
        "col0": "Twister",
        "col1": "H. Zimmer",
        "col2": "R. Berta",
        "col3": "M. Almereyda"
    },
    {
        "col0": "Twisted Obsession",
        "col1": "A. Duhamel",
        "col2": "J. L. Alcaine",
        "col3": "M. Meyjes"
    },
    {
        "col0": "Twisted Nerve",
        "col1": "B. Herrmann",
        "col2": "H. Waxman",
        "col3": "L. Marks"
    },
    {
        "col0": "Twisted",
        "col1": "Q. Lazzarus",
        "col2": "H. Toro",
        "col3": "S. M. Donsky"
    },
    {
        "col0": "Twin Sitters",
        "col1": "P. Sabu",
        "col2": "J. Hartigan",
        "col3": "J. Paragon"
    },
    {
        "col0": "Twin Dragons",
        "col1": "B. Pheloung",
        "col2": "A. Wong",
        "col3": "T. Hark"
    },
    {
        "col0": "Twilight on the Trail",
        "col1": "J. Leipold",
        "col2": "R. Harlan",
        "col3": "E. Corby"
    },
    {
        "col0": "Twilight of Shadows",
        "col1": "Vangelis",
        "col2": "A. Pesci",
        "col3": "M. Lakhdar-Hamina"
    },
    {
        "col0": "Twilight in the Sierras",
        "col1": "N. Scott",
        "col2": "J. MacBurnie",
        "col3": "S. Nibley"
    },
    {
        "col0": "Twilight for the Gods",
        "col1": "D. Raksin",
        "col2": "I. Glassberg",
        "col3": "E. K. Gann"
    },
    {
        "col0": "Twilight Zone: The Movie",
        "col1": "J. Goldsmith",
        "col2": "A. Daviau",
        "col3": "J. Bixby"
    },
    {
        "col0": "Twilight Time",
        "col1": "W. Scharf",
        "col2": "T. Pinter",
        "col3": "D. Tana"
    },
    {
        "col0": "Twilight Hour",
        "col1": "H. May",
        "col2": "J. Wilson",
        "col3": "J. Whittingham"
    },
    {
        "col0": "Twilight",
        "col1": "E. Bernstein",
        "col2": "P. Sobocinski",
        "col3": "R. Benton"
    },
    {
        "col0": "Twilight",
        "col1": "R. Lavista",
        "col2": "A. Phillips",
        "col3": "J. Bracho"
    },
    {
        "col0": "Twilight",
        "col1": "K. Schroder",
        "col2": "H. v. Kaweczynski",
        "col3": "A. Pohl"
    },
    {
        "col0": "Twilight's Last Gleaming",
        "col1": "J. Goldsmith",
        "col2": "R. B. Hauser",
        "col3": "W. Wager"
    },
    {
        "col0": "Twice in a Lifetime",
        "col1": "P. Metheny",
        "col2": "N. McLean",
        "col3": "C. Welland"
    },
    {
        "col0": "Twice Round the Daffodils",
        "col1": "E. Crispin",
        "col2": "A. Hume",
        "col3": "P. Cargill"
    },
    {
        "col0": "Twice Blessed",
        "col1": "D. Snell",
        "col2": "R. June",
        "col3": "E. Hill"
    },
    {
        "col0": "Twenty Million Sweethearts",
        "col1": "H. Warren",
        "col2": "S. Hickox",
        "col3": "J. Wald"
    },
    {
        "col0": "Twentieth Century",
        "col1": "H. Jackson",
        "col2": "J. H. August",
        "col3": "P. Sturges"
    },
    {
        "col0": "Twelve Women",
        "col1": "M. Maurano",
        "col2": "J. Alton",
        "col3": "L. M. Barth"
    },
    {
        "col0": "Twelve O'Clock High",
        "col1": "A. Newman",
        "col2": "L. Shamroy",
        "col3": "S. Bartlett"
    },
    {
        "col0": "Twelve Hours to Kill",
        "col1": "P. Dunlap",
        "col2": "F. Crosby",
        "col3": "J. Sohl"
    },
    {
        "col0": "Twelve Crowded Hours",
        "col1": "R. R. Bennett",
        "col2": "N. Musuraca",
        "col3": "G. Fort"
    },
    {
        "col0": "Turner & Hooch",
        "col1": "C. Gross",
        "col2": "A. Greenberg",
        "col3": "D. P. Jr."
    },
    {
        "col0": "Turn the Key Softly",
        "col1": "M. Spoliansky",
        "col2": "G. Unsworth",
        "col3": "J. Lee"
    }
]