[
    {
        "Rank": "1",
        "Was": "1",
        "Peak": "1",
        "Days on Chart": "418",
        "System": "Xbox 360",
        "Game": "The Elder Scrolls V: Skyrim"
    },
    {
        "Rank": "2",
        "Was": "2",
        "Peak": "2",
        "Days on Chart": "235",
        "System": "PlayStation 3",
        "Game": "Final Fantasy XIII-2"
    },
    {
        "Rank": "3",
        "Was": "3",
        "Peak": "2",
        "Days on Chart": "183",
        "System": "PC",
        "Game": "The Elder Scrolls V: Skyrim"
    },
    {
        "Rank": "4",
        "Was": "4",
        "Peak": "4",
        "Days on Chart": "36",
        "System": "PlayStation 3",
        "Game": "SoulCalibur V"
    },
    {
        "Rank": "5",
        "Was": "5",
        "Peak": "3",
        "Days on Chart": "107",
        "System": "PlayStation 3",
        "Game": "The Elder Scrolls V: Skyrim"
    },
    {
        "Rank": "6",
        "Was": "6",
        "Peak": "3",
        "Days on Chart": "189",
        "System": "PC",
        "Game": "Star Wars: The Old Republic"
    },
    {
        "Rank": "7",
        "Was": "7",
        "Peak": "1",
        "Days on Chart": "1214",
        "System": "PlayStation 3",
        "Game": "Final Fantasy XIII"
    },
    {
        "Rank": "8",
        "Was": "8",
        "Peak": "1",
        "Days on Chart": "172",
        "System": "PlayStation 3",
        "Game": "Dark Souls"
    },
    {
        "Rank": "9",
        "Was": "9",
        "Peak": "9",
        "Days on Chart": "11",
        "System": "Xbox 360",
        "Game": "SoulCalibur V"
    },
    {
        "Rank": "10",
        "Was": "11",
        "Peak": "1",
        "Days on Chart": "622",
        "System": "PC",
        "Game": "League of Legends"
    },
    {
        "Rank": "11",
        "Was": "10",
        "Peak": "4",
        "Days on Chart": "608",
        "System": "Wii",
        "Game": "The Legend of Zelda: Skyward Sword"
    },
    {
        "Rank": "12",
        "Was": "12",
        "Peak": "1",
        "Days on Chart": "711",
        "System": "DS",
        "Game": "Pokemon Black Version"
    },
    {
        "Rank": "13",
        "Was": "14",
        "Peak": "13",
        "Days on Chart": "15",
        "System": "Xbox 360",
        "Game": "Final Fantasy XIII-2"
    },
    {
        "Rank": "14",
        "Was": "15",
        "Peak": "1",
        "Days on Chart": "2611",
        "System": "PC",
        "Game": "World of Warcraft"
    },
    {
        "Rank": "15",
        "Was": "13",
        "Peak": "1",
        "Days on Chart": "246",
        "System": "Xbox 360",
        "Game": "Call of Duty: Modern Warfare 3"
    },
    {
        "Rank": "16",
        "Was": "16",
        "Peak": "13",
        "Days on Chart": "18",
        "System": "Xbox 360",
        "Game": "Kingdoms of Amalur: Reckoning"
    },
    {
        "Rank": "17",
        "Was": "17",
        "Peak": "12",
        "Days on Chart": "21",
        "System": "3DS",
        "Game": "Resident Evil: Revelations"
    },
    {
        "Rank": "18",
        "Was": "18",
        "Peak": "2",
        "Days on Chart": "221",
        "System": "PlayStation 3",
        "Game": "DC Universe Online"
    },
    {
        "Rank": "19",
        "Was": "19",
        "Peak": "2",
        "Days on Chart": "119",
        "System": "Xbox 360",
        "Game": "Batman: Arkham City"
    },
    {
        "Rank": "20",
        "Was": "23",
        "Peak": "7",
        "Days on Chart": "189",
        "System": "Xbox 360",
        "Game": "Mass Effect 3"
    },
    {
        "Rank": "21",
        "Was": "21",
        "Peak": "4",
        "Days on Chart": "198",
        "System": "PlayStation 3",
        "Game": "Ultimate Marvel vs. Capcom 3"
    },
    {
        "Rank": "22",
        "Was": "22",
        "Peak": "2",
        "Days on Chart": "195",
        "System": "Xbox 360",
        "Game": "Battlefield 3"
    },
    {
        "Rank": "23",
        "Was": "20",
        "Peak": "7",
        "Days on Chart": "108",
        "System": "Xbox 360",
        "Game": "WWE '12"
    },
    {
        "Rank": "24",
        "Was": "26",
        "Peak": "1",
        "Days on Chart": "798",
        "System": "Xbox 360",
        "Game": "Mass Effect 2"
    },
    {
        "Rank": "25",
        "Was": "24",
        "Peak": "1",
        "Days on Chart": "4865",
        "System": "PlayStation",
        "Game": "Final Fantasy VII"
    },
    {
        "Rank": "26",
        "Was": "25",
        "Peak": "3",
        "Days on Chart": "121",
        "System": "PlayStation 3",
        "Game": "Batman: Arkham City"
    },
    {
        "Rank": "27",
        "Was": "28",
        "Peak": "2",
        "Days on Chart": "723",
        "System": "Xbox 360",
        "Game": "Final Fantasy XIII"
    },
    {
        "Rank": "28",
        "Was": "27",
        "Peak": "2",
        "Days on Chart": "500",
        "System": "PC",
        "Game": "Minecraft"
    },
    {
        "Rank": "29",
        "Was": "30",
        "Peak": "4",
        "Days on Chart": "98",
        "System": "PlayStation 3",
        "Game": "Call of Duty: Modern Warfare 3"
    },
    {
        "Rank": "30",
        "Was": "29",
        "Peak": "11",
        "Days on Chart": "25",
        "System": "PC",
        "Game": "Katawa Shoujo"
    },
    {
        "Rank": "31",
        "Was": "32",
        "Peak": "1",
        "Days on Chart": "511",
        "System": "Xbox 360",
        "Game": "Fallout: New Vegas"
    },
    {
        "Rank": "32",
        "Was": "34",
        "Peak": "1",
        "Days on Chart": "227",
        "System": "Xbox 360",
        "Game": "Gears of War 3"
    },
    {
        "Rank": "33",
        "Was": "31",
        "Peak": "2",
        "Days on Chart": "133",
        "System": "Xbox 360",
        "Game": "Dark Souls"
    },
    {
        "Rank": "34",
        "Was": "35",
        "Peak": "1",
        "Days on Chart": "2108",
        "System": "PlayStation 2",
        "Game": "Final Fantasy XII"
    },
    {
        "Rank": "35",
        "Was": "33",
        "Peak": "10",
        "Days on Chart": "79",
        "System": "PlayStation 3",
        "Game": "WWE '12"
    },
    {
        "Rank": "36",
        "Was": "47",
        "Peak": "25",
        "Days on Chart": "17",
        "System": "PlayStation 3",
        "Game": "Kingdoms of Amalur: Reckoning"
    },
    {
        "Rank": "37",
        "Was": "42",
        "Peak": "2",
        "Days on Chart": "1301",
        "System": "PC",
        "Game": "Team Fortress 2"
    },
    {
        "Rank": "38",
        "Was": "36",
        "Peak": "7",
        "Days on Chart": "82",
        "System": "PlayStation 3",
        "Game": "Assassin's Creed: Revelations"
    },
    {
        "Rank": "39",
        "Was": "37",
        "Peak": "1",
        "Days on Chart": "724",
        "System": "PC",
        "Game": "Starcraft II: Wings of Liberty"
    },
    {
        "Rank": "40",
        "Was": "38",
        "Peak": "2",
        "Days on Chart": "3843",
        "System": "PlayStation 2",
        "Game": "Final Fantasy X"
    },
    {
        "Rank": "41",
        "Was": "48",
        "Peak": "41",
        "Days on Chart": "4",
        "System": "PlayStation 3",
        "Game": "Twisted Metal"
    },
    {
        "Rank": "42",
        "Was": "41",
        "Peak": "41",
        "Days on Chart": "92",
        "System": "PlayStation 3",
        "Game": "Naruto Shippuden: Ultimate Ninja Storm Generations"
    },
    {
        "Rank": "43",
        "Was": "44",
        "Peak": "3",
        "Days on Chart": "3799",
        "System": "PC",
        "Game": "Diablo II: Lord of Destruction"
    },
    {
        "Rank": "44",
        "Was": "43",
        "Peak": "2",
        "Days on Chart": "2813",
        "System": "Game Boy Advance",
        "Game": "Pokemon FireRed Version"
    },
    {
        "Rank": "45",
        "Was": "40",
        "Peak": "4",
        "Days on Chart": "102",
        "System": "Xbox 360",
        "Game": "Saints Row: The Third"
    },
    {
        "Rank": "46",
        "Was": "39",
        "Peak": "1",
        "Days on Chart": "151",
        "System": "PC",
        "Game": "Battlefield 3"
    },
    {
        "Rank": "47",
        "Was": "45",
        "Peak": "18",
        "Days on Chart": "3779",
        "System": "PlayStation",
        "Game": "Final Fantasy VIII"
    },
    {
        "Rank": "48",
        "Was": "46",
        "Peak": "1",
        "Days on Chart": "460",
        "System": "PlayStation 3",
        "Game": "Gran Turismo 5"
    },
    {
        "Rank": "49",
        "Was": "49",
        "Peak": "7",
        "Days on Chart": "129",
        "System": "PlayStation 3",
        "Game": "Battlefield 3"
    },
    {
        "Rank": "50",
        "Was": "50",
        "Peak": "18",
        "Days on Chart": "2823",
        "System": "PlayStation",
        "Game": "Final Fantasy IX"
    },
    {
        "Rank": "51",
        "Was": "51",
        "Peak": "1",
        "Days on Chart": "2537",
        "System": "Game Boy Advance",
        "Game": "Pokemon Emerald Version"
    },
    {
        "Rank": "52",
        "Was": "52",
        "Peak": "11",
        "Days on Chart": "84",
        "System": "PlayStation 3",
        "Game": "Tales of Graces f"
    },
    {
        "Rank": "53",
        "Was": "58",
        "Peak": "2",
        "Days on Chart": "2585",
        "System": "PC",
        "Game": "MapleStory"
    },
    {
        "Rank": "54",
        "Was": "56",
        "Peak": "1",
        "Days on Chart": "844",
        "System": "PC",
        "Game": "Dragon Age: Origins"
    },
    {
        "Rank": "55",
        "Was": "57",
        "Peak": "1",
        "Days on Chart": "999",
        "System": "DS",
        "Game": "Pokemon HeartGold Version"
    },
    {
        "Rank": "56",
        "Was": "54",
        "Peak": "1",
        "Days on Chart": "1217",
        "System": "PSP",
        "Game": "Monster Hunter Freedom Unite"
    },
    {
        "Rank": "57",
        "Was": "55",
        "Peak": "4",
        "Days on Chart": "1236",
        "System": "PlayStation 2",
        "Game": "Shin Megami Tensei: Persona 4"
    },
    {
        "Rank": "58",
        "Was": "53",
        "Peak": "23",
        "Days on Chart": "44",
        "System": "PlayStation 3",
        "Game": "Street Fighter X Tekken"
    },
    {
        "Rank": "59",
        "Was": "59",
        "Peak": "7",
        "Days on Chart": "87",
        "System": "3DS",
        "Game": "Mario Kart 7"
    },
    {
        "Rank": "60",
        "Was": "60",
        "Peak": "2",
        "Days on Chart": "222",
        "System": "Wii",
        "Game": "Xenoblade Chronicles"
    },
    {
        "Rank": "61",
        "Was": "64",
        "Peak": "5",
        "Days on Chart": "4392",
        "System": "Nintendo 64",
        "Game": "The Legend of Zelda: Ocarina of Time"
    },
    {
        "Rank": "62",
        "Was": "61",
        "Peak": "1",
        "Days on Chart": "1313",
        "System": "DS",
        "Game": "Pokemon Platinum Version"
    },
    {
        "Rank": "63",
        "Was": "62",
        "Peak": "1",
        "Days on Chart": "605",
        "System": "DS",
        "Game": "Dragon Quest IX: Sentinels of the Starry Skies"
    },
    {
        "Rank": "64",
        "Was": "63",
        "Peak": "2",
        "Days on Chart": "721",
        "System": "Wii",
        "Game": "Monster Hunter Tri"
    },
    {
        "Rank": "65",
        "Was": "65",
        "Peak": "1",
        "Days on Chart": "1224",
        "System": "Xbox 360",
        "Game": "Fallout 3"
    },
    {
        "Rank": "66",
        "Was": "70",
        "Peak": "2",
        "Days on Chart": "512",
        "System": "PSP",
        "Game": "Dissidia 012: Duodecim Final Fantasy"
    },
    {
        "Rank": "67",
        "Was": "68",
        "Peak": "13",
        "Days on Chart": "81",
        "System": "PlayStation 3",
        "Game": "Saints Row: The Third"
    },
    {
        "Rank": "68",
        "Was": "66",
        "Peak": "19",
        "Days on Chart": "345",
        "System": "DS",
        "Game": "Yu-Gi-Oh! 5D's World Championship 2011: Over the Nexus"
    },
    {
        "Rank": "69",
        "Was": "83",
        "Peak": "16",
        "Days on Chart": "125",
        "System": "3DS",
        "Game": "Kingdom Hearts 3D: Dream Drop Distance"
    },
    {
        "Rank": "70",
        "Was": "67",
        "Peak": "2",
        "Days on Chart": "346",
        "System": "DS",
        "Game": "Pokemon White Version"
    },
    {
        "Rank": "71",
        "Was": "73",
        "Peak": "1",
        "Days on Chart": "2652",
        "System": "PlayStation 2",
        "Game": "Grand Theft Auto: San Andreas"
    },
    {
        "Rank": "72",
        "Was": "85",
        "Peak": "3",
        "Days on Chart": "153",
        "System": "PlayStation 3",
        "Game": "Uncharted 3: Drake's Deception"
    },
    {
        "Rank": "73",
        "Was": "77",
        "Peak": "2",
        "Days on Chart": "468",
        "System": "PC",
        "Game": "Mass Effect 2"
    },
    {
        "Rank": "74",
        "Was": "72",
        "Peak": "16",
        "Days on Chart": "66",
        "System": "Xbox 360",
        "Game": "NBA 2K12"
    },
    {
        "Rank": "75",
        "Was": "76",
        "Peak": "1",
        "Days on Chart": "265",
        "System": "PC",
        "Game": "The Witcher 2: Assassins of Kings"
    },
    {
        "Rank": "76",
        "Was": "71",
        "Peak": "5",
        "Days on Chart": "120",
        "System": "Wii U",
        "Game": "Super Smash Bros. Wii U"
    },
    {
        "Rank": "77",
        "Was": "78",
        "Peak": "2",
        "Days on Chart": "479",
        "System": "PC",
        "Game": "Fallout: New Vegas"
    },
    {
        "Rank": "78",
        "Was": "75",
        "Peak": "1",
        "Days on Chart": "672",
        "System": "Xbox 360",
        "Game": "Red Dead Redemption"
    },
    {
        "Rank": "79",
        "Was": "79",
        "Peak": "32",
        "Days on Chart": "71",
        "System": "PlayStation 3",
        "Game": "NBA 2K12"
    },
    {
        "Rank": "80",
        "Was": "74",
        "Peak": "3",
        "Days on Chart": "620",
        "System": "PSP",
        "Game": "Shin Megami Tensei: Persona 3 Portable"
    },
    {
        "Rank": "81",
        "Was": "89",
        "Peak": "4",
        "Days on Chart": "307",
        "System": "PSP",
        "Game": "Metal Gear Solid: Peace Walker"
    },
    {
        "Rank": "82",
        "Was": "84",
        "Peak": "1",
        "Days on Chart": "405",
        "System": "3DS",
        "Game": "The Legend of Zelda: Ocarina of Time 3D"
    },
    {
        "Rank": "83",
        "Was": "82",
        "Peak": "10",
        "Days on Chart": "80",
        "System": "Xbox 360",
        "Game": "Assassin's Creed: Revelations"
    },
    {
        "Rank": "84",
        "Was": "94",
        "Peak": "7",
        "Days on Chart": "999",
        "System": "PC",
        "Game": "Plants vs. Zombies"
    },
    {
        "Rank": "85",
        "Was": "88",
        "Peak": "11",
        "Days on Chart": "131",
        "System": "PlayStation 3",
        "Game": "White Knight Chronicles II"
    },
    {
        "Rank": "86",
        "Was": "87",
        "Peak": "1",
        "Days on Chart": "1182",
        "System": "PSP",
        "Game": "Kingdom Hearts: Birth by Sleep"
    },
    {
        "Rank": "87",
        "Was": "81",
        "Peak": "3",
        "Days on Chart": "177",
        "System": "PlayStation 3",
        "Game": "Disgaea 4: A Promise Unforgotten"
    },
    {
        "Rank": "88",
        "Was": "93",
        "Peak": "1",
        "Days on Chart": "556",
        "System": "Xbox 360",
        "Game": "Call of Duty: Black Ops"
    },
    {
        "Rank": "89",
        "Was": "86",
        "Peak": "1",
        "Days on Chart": "841",
        "System": "Xbox 360",
        "Game": "Dragon Age: Origins"
    },
    {
        "Rank": "90",
        "Was": "80",
        "Peak": "7",
        "Days on Chart": "1144",
        "System": "PlayStation 2",
        "Game": "Shin Megami Tensei: Persona 3 FES"
    },
    {
        "Rank": "91",
        "Was": "90",
        "Peak": "11",
        "Days on Chart": "452",
        "System": "PSP",
        "Game": "Monster Hunter Portable 3rd"
    },
    {
        "Rank": "92",
        "Was": "92",
        "Peak": "1",
        "Days on Chart": "960",
        "System": "PC",
        "Game": "The Sims 3"
    },
    {
        "Rank": "93",
        "Was": "91",
        "Peak": "5",
        "Days on Chart": "306",
        "System": "PSP",
        "Game": "Tactics Ogre: Let Us Cling Together"
    },
    {
        "Rank": "94",
        "Was": "95",
        "Peak": "1",
        "Days on Chart": "1882",
        "System": "DS",
        "Game": "Pokemon Diamond Version"
    },
    {
        "Rank": "95",
        "Was": "99",
        "Peak": "72",
        "Days on Chart": "6",
        "System": "PC",
        "Game": "Kingdoms of Amalur: Reckoning"
    },
    {
        "Rank": "96",
        "Was": "96",
        "Peak": "1",
        "Days on Chart": "812",
        "System": "Xbox 360",
        "Game": "Mass Effect"
    },
    {
        "Rank": "97",
        "Was": "97",
        "Peak": "1",
        "Days on Chart": "1123",
        "System": "Xbox 360",
        "Game": "Tales of Vesperia"
    },
    {
        "Rank": "98",
        "Was": "Ret",
        "Peak": "3",
        "Days on Chart": "595",
        "System": "DS",
        "Game": "Pokemon SoulSilver Version"
    },
    {
        "Rank": "99",
        "Was": "Ret",
        "Peak": "12",
        "Days on Chart": "229",
        "System": "PSP",
        "Game": "Final Fantasy Type-0"
    },
    {
        "Rank": "100",
        "Was": "Ret",
        "Peak": "2",
        "Days on Chart": "787",
        "System": "PC",
        "Game": "Grand Theft Auto: San Andreas"
    }
]