[
    {
        "Fans' Rank": "28",
        "Title": "Saving Private Ryan",
        "Year": "1998",
        "Director(s)": "Steven Spielberg",
        "Overall Rank": "50"
    },
    {
        "Fans' Rank": "498",
        "Title": "Say Anything?",
        "Year": "1989",
        "Director(s)": "Cameron Crowe",
        "Overall Rank": "448"
    },
    {
        "Fans' Rank": "88",
        "Title": "Scarface",
        "Year": "1983",
        "Director(s)": "Brian De Palma",
        "Overall Rank": "239"
    },
    {
        "Fans' Rank": "390",
        "Title": "Scent of a Woman",
        "Year": "1992",
        "Director(s)": "Martin Brest",
        "Overall Rank": "1753"
    },
    {
        "Fans' Rank": "11",
        "Title": "Schindler's List",
        "Year": "1993",
        "Director(s)": "Steven Spielberg",
        "Overall Rank": "22"
    },
    {
        "Fans' Rank": "309",
        "Title": "Scream",
        "Year": "1996",
        "Director(s)": "Wes Craven",
        "Overall Rank": "324"
    },
    {
        "Fans' Rank": "80",
        "Title": "The Searchers",
        "Year": "1956",
        "Director(s)": "John Ford",
        "Overall Rank": "28"
    },
    {
        "Fans' Rank": "478",
        "Title": "Sense and Sensibility",
        "Year": "1995",
        "Director(s)": "Ang Lee",
        "Overall Rank": "405"
    },
    {
        "Fans' Rank": "42",
        "Title": "Seven",
        "Year": "1995",
        "Director(s)": "David Fincher",
        "Overall Rank": "112"
    },
    {
        "Fans' Rank": "40",
        "Title": "The Seven Samurai",
        "Year": "1954",
        "Director(s)": "Akira Kurosawa",
        "Overall Rank": "32"
    },
    {
        "Fans' Rank": "103",
        "Title": "The Seventh Seal",
        "Year": "1957",
        "Director(s)": "Ingmar Bergman",
        "Overall Rank": "119"
    },
    {
        "Fans' Rank": "361",
        "Title": "Shadow of a Doubt",
        "Year": "1943",
        "Director(s)": "Alfred Hitchcock",
        "Overall Rank": "382"
    },
    {
        "Fans' Rank": "245",
        "Title": "Shakespeare in Love",
        "Year": "1998",
        "Director(s)": "John Madden",
        "Overall Rank": "244"
    },
    {
        "Fans' Rank": "313",
        "Title": "Shane",
        "Year": "1953",
        "Director(s)": "George Stevens",
        "Overall Rank": "200"
    },
    {
        "Fans' Rank": "13",
        "Title": "The Shawshank Redemption",
        "Year": "1994",
        "Director(s)": "Frank Darabont",
        "Overall Rank": "46"
    },
    {
        "Fans' Rank": "373",
        "Title": "Sherlock, Jr.",
        "Year": "1924",
        "Director(s)": "Buster Keaton",
        "Overall Rank": "261"
    },
    {
        "Fans' Rank": "38",
        "Title": "The Shining",
        "Year": "1980",
        "Director(s)": "Stanley Kubrick",
        "Overall Rank": "87"
    },
    {
        "Fans' Rank": "424",
        "Title": "Short Cuts",
        "Year": "1993",
        "Director(s)": "Robert Altman",
        "Overall Rank": "603"
    },
    {
        "Fans' Rank": "233",
        "Title": "Shrek",
        "Year": "2001",
        "Director(s)": "Andrew Adamson and Vicky Jenson",
        "Overall Rank": "284"
    },
    {
        "Fans' Rank": "497",
        "Title": "Signs",
        "Year": "2002",
        "Director(s)": "M. Night Shyamalan",
        "Overall Rank": "1858"
    },
    {
        "Fans' Rank": "17",
        "Title": "The Silence of the Lambs",
        "Year": "1991",
        "Director(s)": "Jonathan Demme",
        "Overall Rank": "30"
    },
    {
        "Fans' Rank": "490",
        "Title": "A Simple Plan",
        "Year": "1998",
        "Director(s)": "Sam Raimi",
        "Overall Rank": "1494"
    },
    {
        "Fans' Rank": "488",
        "Title": "Sin City",
        "Year": "2005",
        "Director(s)": "Frank Miller and Robert Rodriguez",
        "Overall Rank": "575"
    },
    {
        "Fans' Rank": "48",
        "Title": "Singin' in the Rain",
        "Year": "1952",
        "Director(s)": "Stanley Donen and Gene Kelly",
        "Overall Rank": "6"
    },
    {
        "Fans' Rank": "84",
        "Title": "The Sixth Sense",
        "Year": "1999",
        "Director(s)": "M. Night Shyamalan",
        "Overall Rank": "171"
    },
    {
        "Fans' Rank": "451",
        "Title": "Sleeper",
        "Year": "1973",
        "Director(s)": "Woody Allen",
        "Overall Rank": "553"
    },
    {
        "Fans' Rank": "493",
        "Title": "Sleepy Hollow",
        "Year": "1999",
        "Director(s)": "Tim Burton",
        "Overall Rank": "1516"
    },
    {
        "Fans' Rank": "273",
        "Title": "Sling Blade",
        "Year": "1996",
        "Director(s)": "Billy Bob Thornton",
        "Overall Rank": "826"
    },
    {
        "Fans' Rank": "234",
        "Title": "Snatch.",
        "Year": "2000",
        "Director(s)": "Guy Ritchie",
        "Overall Rank": "1088"
    },
    {
        "Fans' Rank": "255",
        "Title": "Snow White and the Seven Dwarfs",
        "Year": "1937",
        "Director(s)": "David Hand",
        "Overall Rank": "89"
    },
    {
        "Fans' Rank": "402",
        "Title": "Solaris",
        "Year": "1972",
        "Director(s)": "Andrei Tarkovsky",
        "Overall Rank": "377"
    },
    {
        "Fans' Rank": "56",
        "Title": "Some Like It Hot",
        "Year": "1959",
        "Director(s)": "Billy Wilder",
        "Overall Rank": "10"
    },
    {
        "Fans' Rank": "169",
        "Title": "The Sound of Music",
        "Year": "1965",
        "Director(s)": "Robert Wise",
        "Overall Rank": "79"
    },
    {
        "Fans' Rank": "342",
        "Title": "South Park: Bigger Longer & Uncut",
        "Year": "1999",
        "Director(s)": "Trey Parker",
        "Overall Rank": "466"
    },
    {
        "Fans' Rank": "193",
        "Title": "Spartacus",
        "Year": "1960",
        "Director(s)": "Stanley Kubrick",
        "Overall Rank": "211"
    },
    {
        "Fans' Rank": "323",
        "Title": "Speed",
        "Year": "1994",
        "Director(s)": "Jan de Bont",
        "Overall Rank": "370"
    },
    {
        "Fans' Rank": "265",
        "Title": "Spider-Man",
        "Year": "2002",
        "Director(s)": "Sam Raimi",
        "Overall Rank": "501"
    },
    {
        "Fans' Rank": "394",
        "Title": "Spider-Man 2",
        "Year": "2004",
        "Director(s)": "Sam Raimi",
        "Overall Rank": "765"
    },
    {
        "Fans' Rank": "260",
        "Title": "Spirited Away",
        "Year": "2001",
        "Director(s)": "Hayao Miyazaki",
        "Overall Rank": "174"
    },
    {
        "Fans' Rank": "272",
        "Title": "Stagecoach",
        "Year": "1939",
        "Director(s)": "John Ford",
        "Overall Rank": "106"
    },
    {
        "Fans' Rank": "395",
        "Title": "Stalag 17",
        "Year": "1953",
        "Director(s)": "Billy Wilder",
        "Overall Rank": "569"
    },
    {
        "Fans' Rank": "375",
        "Title": "Stalker",
        "Year": "1979",
        "Director(s)": "Andrei Tarkovsky",
        "Overall Rank": "509"
    },
    {
        "Fans' Rank": "165",
        "Title": "Stand by Me",
        "Year": "1986",
        "Director(s)": "Rob Reiner",
        "Overall Rank": "315"
    },
    {
        "Fans' Rank": "336",
        "Title": "Star Trek: The Wrath of Khan",
        "Year": "1982",
        "Director(s)": "Nicholas Meyer",
        "Overall Rank": "507"
    },
    {
        "Fans' Rank": "5",
        "Title": "Star Wars",
        "Year": "1977",
        "Director(s)": "George Lucas",
        "Overall Rank": "8"
    },
    {
        "Fans' Rank": "398",
        "Title": "Star Wars: Episode I - The Phantom Menace",
        "Year": "1999",
        "Director(s)": "George Lucas",
        "Overall Rank": "876"
    },
    {
        "Fans' Rank": "130",
        "Title": "The Sting",
        "Year": "1973",
        "Director(s)": "George Roy Hill",
        "Overall Rank": "281"
    },
    {
        "Fans' Rank": "285",
        "Title": "La Strada",
        "Year": "1954",
        "Director(s)": "Federico Fellini",
        "Overall Rank": "243"
    },
    {
        "Fans' Rank": "167",
        "Title": "Strangers on a Train",
        "Year": "1951",
        "Director(s)": "Alfred Hitchcock",
        "Overall Rank": "235"
    },
    {
        "Fans' Rank": "139",
        "Title": "A Streetcar Named Desire",
        "Year": "1951",
        "Director(s)": "Elia Kazan",
        "Overall Rank": "145"
    },
    {
        "Fans' Rank": "393",
        "Title": "Sullivan's Travels",
        "Year": "1941",
        "Director(s)": "Preston Sturges",
        "Overall Rank": "125"
    },
    {
        "Fans' Rank": "230",
        "Title": "Sunrise",
        "Year": "1927",
        "Director(s)": "F.W. Murnau",
        "Overall Rank": "99"
    },
    {
        "Fans' Rank": "50",
        "Title": "Sunset Blvd.",
        "Year": "1950",
        "Director(s)": "Billy Wilder",
        "Overall Rank": "33"
    },
    {
        "Fans' Rank": "300",
        "Title": "Superman",
        "Year": "1978",
        "Director(s)": "Richard Donner",
        "Overall Rank": "272"
    },
    {
        "Fans' Rank": "319",
        "Title": "The Sweet Hereafter",
        "Year": "1997",
        "Director(s)": "Atom Egoyan",
        "Overall Rank": "512"
    },
    {
        "Fans' Rank": "438",
        "Title": "Sweet Smell of Success",
        "Year": "1957",
        "Director(s)": "Alexander Mackendrick",
        "Overall Rank": "177"
    },
    {
        "Fans' Rank": "379",
        "Title": "Swingers",
        "Year": "1996",
        "Director(s)": "Doug Liman",
        "Overall Rank": "860"
    },
    {
        "Fans' Rank": "8",
        "Title": "Taxi Driver",
        "Year": "1976",
        "Director(s)": "Martin Scorsese",
        "Overall Rank": "19"
    },
    {
        "Fans' Rank": "377",
        "Title": "The Ten Commandments",
        "Year": "1956",
        "Director(s)": "Cecil B. DeMille",
        "Overall Rank": "403"
    },
    {
        "Fans' Rank": "63",
        "Title": "Terminator 2: Judgment Day",
        "Year": "1991",
        "Director(s)": "James Cameron",
        "Overall Rank": "98"
    },
    {
        "Fans' Rank": "73",
        "Title": "The Terminator",
        "Year": "1984",
        "Director(s)": "James Cameron",
        "Overall Rank": "95"
    },
    {
        "Fans' Rank": "298",
        "Title": "The Texas Chain Saw Massacre",
        "Year": "1974",
        "Director(s)": "Tobe Hooper",
        "Overall Rank": "233"
    },
    {
        "Fans' Rank": "413",
        "Title": "Thelma & Louise",
        "Year": "1991",
        "Director(s)": "Ridley Scott",
        "Overall Rank": "228"
    },
    {
        "Fans' Rank": "320",
        "Title": "There's Something about Mary",
        "Year": "1998",
        "Director(s)": "Bobby and Peter Farrelly",
        "Overall Rank": "420"
    },
    {
        "Fans' Rank": "419",
        "Title": "The Thin Man",
        "Year": "1934",
        "Director(s)": "W.S. Van Dyke",
        "Overall Rank": "409"
    },
    {
        "Fans' Rank": "211",
        "Title": "The Thin Red Line",
        "Year": "1998",
        "Director(s)": "Terrence Malick",
        "Overall Rank": "357"
    },
    {
        "Fans' Rank": "217",
        "Title": "The Thing",
        "Year": "1982",
        "Director(s)": "John Carpenter",
        "Overall Rank": "210"
    },
    {
        "Fans' Rank": "49",
        "Title": "The Third Man",
        "Year": "1949",
        "Director(s)": "Carol Reed",
        "Overall Rank": "27"
    },
    {
        "Fans' Rank": "119",
        "Title": "This Is Spinal Tap",
        "Year": "1984",
        "Director(s)": "Rob Reiner",
        "Overall Rank": "78"
    },
    {
        "Fans' Rank": "338",
        "Title": "Three Colors: Blue",
        "Year": "1993",
        "Director(s)": "Krzysztof Kieslowski",
        "Overall Rank": "278"
    },
    {
        "Fans' Rank": "243",
        "Title": "Three Colors: Red",
        "Year": "1994",
        "Director(s)": "Krzysztof Kieslowski",
        "Overall Rank": "232"
    },
    {
        "Fans' Rank": "382",
        "Title": "Three Kings",
        "Year": "1999",
        "Director(s)": "David O. Russell",
        "Overall Rank": "663"
    },
    {
        "Fans' Rank": "362",
        "Title": "Throne of Blood",
        "Year": "1957",
        "Director(s)": "Akira Kurosawa",
        "Overall Rank": "712"
    },
    {
        "Fans' Rank": "82",
        "Title": "Titanic",
        "Year": "1997",
        "Director(s)": "James Cameron",
        "Overall Rank": "63"
    },
    {
        "Fans' Rank": "64",
        "Title": "To Kill a Mockingbird",
        "Year": "1962",
        "Director(s)": "Robert Mulligan",
        "Overall Rank": "62"
    },
    {
        "Fans' Rank": "249",
        "Title": "Tokyo Story",
        "Year": "1953",
        "Director(s)": "Yasujiro Ozu",
        "Overall Rank": "110"
    },
    {
        "Fans' Rank": "369",
        "Title": "Tombstone",
        "Year": "1993",
        "Director(s)": "George P. Cosmatos",
        "Overall Rank": "1573"
    },
    {
        "Fans' Rank": "253",
        "Title": "Tootsie",
        "Year": "1982",
        "Director(s)": "Sydney Pollack",
        "Overall Rank": "197"
    },
    {
        "Fans' Rank": "447",
        "Title": "Top Gun",
        "Year": "1986",
        "Director(s)": "Tony Scott",
        "Overall Rank": "411"
    },
    {
        "Fans' Rank": "411",
        "Title": "Top Hat",
        "Year": "1935",
        "Director(s)": "Mark Sandrich",
        "Overall Rank": "172"
    },
    {
        "Fans' Rank": "403",
        "Title": "Total Recall",
        "Year": "1990",
        "Director(s)": "Paul Verhoeven",
        "Overall Rank": "846"
    },
    {
        "Fans' Rank": "75",
        "Title": "Touch of Evil",
        "Year": "1958",
        "Director(s)": "Orson Welles",
        "Overall Rank": "54"
    },
    {
        "Fans' Rank": "91",
        "Title": "Toy Story",
        "Year": "1995",
        "Director(s)": "John Lasseter",
        "Overall Rank": "64"
    },
    {
        "Fans' Rank": "218",
        "Title": "Toy Story 2",
        "Year": "1999",
        "Director(s)": "John Lasseter",
        "Overall Rank": "268"
    },
    {
        "Fans' Rank": "205",
        "Title": "Traffic",
        "Year": "2000",
        "Director(s)": "Steven Soderbergh",
        "Overall Rank": "713"
    },
    {
        "Fans' Rank": "113",
        "Title": "Trainspotting",
        "Year": "1996",
        "Director(s)": "Danny Boyle",
        "Overall Rank": "117"
    },
    {
        "Fans' Rank": "101",
        "Title": "The Treasure of the Sierra Madre",
        "Year": "1948",
        "Director(s)": "John Huston",
        "Overall Rank": "92"
    },
    {
        "Fans' Rank": "228",
        "Title": "True Romance",
        "Year": "1993",
        "Director(s)": "Tony Scott",
        "Overall Rank": "430"
    },
    {
        "Fans' Rank": "146",
        "Title": "The Truman Show",
        "Year": "1998",
        "Director(s)": "Peter Weir",
        "Overall Rank": "291"
    },
    {
        "Fans' Rank": "112",
        "Title": "Twelve Monkeys",
        "Year": "1995",
        "Director(s)": "Terry Gilliam",
        "Overall Rank": "341"
    },
    {
        "Fans' Rank": "449",
        "Title": "Ugetsu",
        "Year": "1953",
        "Director(s)": "Kenji Mizoguchi",
        "Overall Rank": "273"
    },
    {
        "Fans' Rank": "504",
        "Title": "Un chien andalou",
        "Year": "1929",
        "Director(s)": "Luis Bu?uel",
        "Overall Rank": "410"
    },
    {
        "Fans' Rank": "354",
        "Title": "Unbreakable",
        "Year": "2000",
        "Director(s)": "M. Night Shyamalan",
        "Overall Rank": "1920"
    },
    {
        "Fans' Rank": "68",
        "Title": "Unforgiven",
        "Year": "1992",
        "Director(s)": "Clint Eastwood",
        "Overall Rank": "73"
    },
    {
        "Fans' Rank": "150",
        "Title": "The Untouchables",
        "Year": "1987",
        "Director(s)": "Brian De Palma",
        "Overall Rank": "408"
    },
    {
        "Fans' Rank": "29",
        "Title": "The Usual Suspects",
        "Year": "1995",
        "Director(s)": "Bryan Singer",
        "Overall Rank": "55"
    },
    {
        "Fans' Rank": "22",
        "Title": "Vertigo",
        "Year": "1958",
        "Director(s)": "Alfred Hitchcock",
        "Overall Rank": "11"
    },
    {
        "Fans' Rank": "459",
        "Title": "The Wages of Fear",
        "Year": "1953",
        "Director(s)": "Henri-Georges Clouzot",
        "Overall Rank": "230"
    },
    {
        "Fans' Rank": "134",
        "Title": "West Side Story",
        "Year": "1961",
        "Director(s)": "Jerome Robbins and Robert Wise",
        "Overall Rank": "88"
    },
    {
        "Fans' Rank": "489",
        "Title": "What's Eating Gilbert Grape",
        "Year": "1993",
        "Director(s)": "Lasse Hallstr?m",
        "Overall Rank": "1326"
    },
    {
        "Fans' Rank": "235",
        "Title": "When Harry Met Sally?",
        "Year": "1989",
        "Director(s)": "Rob Reiner",
        "Overall Rank": "167"
    },
    {
        "Fans' Rank": "259",
        "Title": "Who Framed Roger Rabbit",
        "Year": "1988",
        "Director(s)": "Robert Zemeckis",
        "Overall Rank": "367"
    },
    {
        "Fans' Rank": "271",
        "Title": "Who's Afraid of Virginia Woolf?",
        "Year": "1966",
        "Director(s)": "Mike Nichols",
        "Overall Rank": "476"
    },
    {
        "Fans' Rank": "93",
        "Title": "The Wild Bunch",
        "Year": "1969",
        "Director(s)": "Sam Peckinpah",
        "Overall Rank": "51"
    },
    {
        "Fans' Rank": "213",
        "Title": "Wild Strawberries",
        "Year": "1957",
        "Director(s)": "Ingmar Bergman",
        "Overall Rank": "208"
    },
    {
        "Fans' Rank": "288",
        "Title": "Willy Wonka & the Chocolate Factory",
        "Year": "1971",
        "Director(s)": "Mel Stuart",
        "Overall Rank": "348"
    },
    {
        "Fans' Rank": "264",
        "Title": "Wings of Desire",
        "Year": "1987",
        "Director(s)": "Wim Wenders",
        "Overall Rank": "195"
    },
    {
        "Fans' Rank": "374",
        "Title": "Witness",
        "Year": "1985",
        "Director(s)": "Peter Weir",
        "Overall Rank": "510"
    },
    {
        "Fans' Rank": "33",
        "Title": "The Wizard of Oz",
        "Year": "1939",
        "Director(s)": "Victor Fleming",
        "Overall Rank": "5"
    },
    {
        "Fans' Rank": "465",
        "Title": "X2",
        "Year": "2003",
        "Director(s)": "Bryan Singer",
        "Overall Rank": "888"
    },
    {
        "Fans' Rank": "406",
        "Title": "X-Men",
        "Year": "2000",
        "Director(s)": "Bryan Singer",
        "Overall Rank": "858"
    },
    {
        "Fans' Rank": "254",
        "Title": "Yojimbo",
        "Year": "1961",
        "Director(s)": "Akira Kurosawa",
        "Overall Rank": "342"
    },
    {
        "Fans' Rank": "147",
        "Title": "Young Frankenstein",
        "Year": "1974",
        "Director(s)": "Mel Brooks",
        "Overall Rank": "260"
    }
]