[
    {
        "Province": "Colombie-Britannique",
        "Ville": "Vancouver",
        "Hopital": "Vancouver General Hospital",
        "Participation": "Oui",
        "Option*": "3"
    },
    {
        "Province": "",
        "Ville": "Vancouver",
        "Hopital": "Richmond General Hospital",
        "Participation": "Oui",
        "Option*": "3"
    },
    {
        "Province": "",
        "Ville": "Vancouver",
        "Hopital": "Lion\u0092s Gate",
        "Participation": "Oui",
        "Option*": "3"
    },
    {
        "Province": "",
        "Ville": "Vancouver",
        "Hopital": "Powell River",
        "Participation": "Oui",
        "Option*": "3"
    },
    {
        "Province": "",
        "Ville": "Vancouver",
        "Hopital": "St. Mary\u0092s Hospital",
        "Participation": "Oui",
        "Option*": "3"
    },
    {
        "Province": "",
        "Ville": "Vancouver",
        "Hopital": "Squamish Hospital",
        "Participation": "",
        "Option*": "3"
    },
    {
        "Province": "",
        "Ville": "Vancouver",
        "Hopital": "Victoria General",
        "Participation": "",
        "Option*": "3"
    },
    {
        "Province": "",
        "Ville": "Vancouver",
        "Hopital": "Royal Jubilee",
        "Participation": "",
        "Option*": ""
    },
    {
        "Province": "",
        "Ville": "Vancouver",
        "Hopital": "Children\u0092s and Women\u0092s Health Center",
        "Participation": "",
        "Option*": ""
    },
    {
        "Province": "Alberta",
        "Ville": "Calgary",
        "Hopital": "Peter Lougheed",
        "Participation": "",
        "Option*": ""
    },
    {
        "Province": "",
        "Ville": "Calgary",
        "Hopital": "Rockyview General",
        "Participation": "",
        "Option*": ""
    },
    {
        "Province": "",
        "Ville": "Calgary",
        "Hopital": "Foothills Hospital",
        "Participation": "",
        "Option*": ""
    },
    {
        "Province": "",
        "Ville": "Calgary",
        "Hopital": "Alberta Children\u0092s Hospital",
        "Participation": "Oui",
        "Option*": "P\u00e9d VEN\u0086"
    },
    {
        "Province": "",
        "Ville": "Calgary",
        "Hopital": "Rockyview Hospital",
        "Participation": "",
        "Option*": ""
    },
    {
        "Province": "",
        "Ville": "Edmonton",
        "Hopital": "University of Alberta Hospital",
        "Participation": "Oui",
        "Option*": "3"
    },
    {
        "Province": "",
        "Ville": "Edmonton",
        "Hopital": "Stollery Children\u0092s Hospital",
        "Participation": "Oui",
        "Option*": "P\u00e9d VEN\u0086"
    },
    {
        "Province": "Saskatchewan",
        "Ville": "Saskatoon",
        "Hopital": "Royal University Hospital",
        "Participation": "Oui",
        "Option*": "3"
    },
    {
        "Province": "Manitoba",
        "Ville": "Winnipeg",
        "Hopital": "",
        "Participation": "Oui",
        "Option*": "3"
    },
    {
        "Province": "",
        "Ville": "Winnipeg",
        "Hopital": "Universit\u00e9 du Manitoba, Maladies infectieuses p\u00e9diatriques",
        "Participation": "Oui",
        "Option*": "P\u00e9d VEN\u0086"
    },
    {
        "Province": "Ontario",
        "Ville": "London",
        "Hopital": "St. Joseph\u0092s Health care",
        "Participation": "",
        "Option*": ""
    },
    {
        "Province": "",
        "Ville": "London",
        "Hopital": "Children\u0092s Hospital of Western Ontario",
        "Participation": "",
        "Option*": ""
    },
    {
        "Province": "",
        "Ville": "London",
        "Hopital": "Victoria Hospital",
        "Participation": "",
        "Option*": ""
    },
    {
        "Province": "",
        "Ville": "London",
        "Hopital": "University Hospital",
        "Participation": "",
        "Option*": ""
    },
    {
        "Province": "",
        "Ville": "Toronto",
        "Hopital": "Toronto Western Hospital",
        "Participation": "Oui",
        "Option*": "3"
    },
    {
        "Province": "",
        "Ville": "Toronto",
        "Hopital": "Toronto General Hospital",
        "Participation": "",
        "Option*": ""
    },
    {
        "Province": "",
        "Ville": "Toronto",
        "Hopital": "Princess Margaret Hospital",
        "Participation": "",
        "Option*": ""
    },
    {
        "Province": "",
        "Ville": "Toronto",
        "Hopital": "Mount Sinai Hospital",
        "Participation": "Oui",
        "Option*": "3"
    },
    {
        "Province": "",
        "Ville": "Toronto",
        "Hopital": "Sunnybrook Health Science Centre",
        "Participation": "Oui",
        "Option*": "1"
    },
    {
        "Province": "",
        "Ville": "Toronto",
        "Hopital": "The Hospital for Sick Children",
        "Participation": "Oui",
        "Option*": "P\u00e9d VEN\u0086"
    },
    {
        "Province": "",
        "Ville": "Kingston",
        "Hopital": "Kingston General Hospital",
        "Participation": "",
        "Option*": ""
    },
    {
        "Province": "",
        "Ville": "Hamilton",
        "Hopital": "Hamilton Health Sciences Centre",
        "Participation": "Oui",
        "Option*": "3"
    },
    {
        "Province": "",
        "Ville": "Hamilton",
        "Hopital": "McMaster Site",
        "Participation": "Non",
        "Option*": ""
    },
    {
        "Province": "",
        "Ville": "Hamilton",
        "Hopital": "Chedoke",
        "Participation": "Non",
        "Option*": ""
    },
    {
        "Province": "",
        "Ville": "Hamilton",
        "Hopital": "Henderson & General Sites",
        "Participation": "Non",
        "Option*": ""
    },
    {
        "Province": "",
        "Ville": "Hamilton",
        "Hopital": "St. Joseph\u0092s Healthcare",
        "Participation": "Oui",
        "Option*": "1"
    },
    {
        "Province": "",
        "Ville": "Ottawa",
        "Hopital": "L\u0092H\u00f4pital d\u0092Ottawa",
        "Participation": "Oui",
        "Option*": "(Sept)"
    },
    {
        "Province": "",
        "Ville": "Ottawa",
        "Hopital": "Campus Civic",
        "Participation": "Oui",
        "Option*": ""
    },
    {
        "Province": "",
        "Ville": "Ottawa",
        "Hopital": "Institut g\u00e9n\u00e9ral et de cardiologie",
        "Participation": "Oui",
        "Option*": ""
    },
    {
        "Province": "",
        "Ville": "Ottawa",
        "Hopital": "Centre hospitalier pour enfants de l'Est de l'Ontario",
        "Participation": "Oui",
        "Option*": "P\u00e9d VEN\u0086"
    },
    {
        "Province": "Qu\u00e9bec",
        "Ville": "Montr\u00e9al",
        "Hopital": "H\u00f4pital g\u00e9n\u00e9ral juif \u0096 SMBD",
        "Participation": "Oui",
        "Option*": "3"
    },
    {
        "Province": "",
        "Ville": "Montr\u00e9al",
        "Hopital": "H\u00f4pital de Montr\u00e9al pour enfants",
        "Participation": "Oui",
        "Option*": "P\u00e9d VEN\u0086"
    },
    {
        "Province": "",
        "Ville": "Montr\u00e9al",
        "Hopital": "H\u00f4pital Maisonneuve-Rosemont",
        "Participation": "",
        "Option*": ""
    },
    {
        "Province": "",
        "Ville": "Montr\u00e9al",
        "Hopital": "H\u00f4pital g\u00e9n\u00e9ral de Montr\u00e9al",
        "Participation": "Oui",
        "Option*": "3"
    },
    {
        "Province": "",
        "Ville": "Montr\u00e9al",
        "Hopital": "H\u00f4pital Royal Victoria",
        "Participation": "Oui",
        "Option*": "3"
    },
    {
        "Province": "",
        "Ville": "Montr\u00e9al",
        "Hopital": "Institut neurologique de Montr\u00e9al",
        "Participation": "Oui",
        "Option*": "3"
    },
    {
        "Province": "",
        "Ville": "Montr\u00e9al",
        "Hopital": "Institut thoracique de Montr\u00e9al",
        "Participation": "Oui",
        "Option*": "3"
    },
    {
        "Province": "",
        "Ville": "Sherbrooke",
        "Hopital": "CHUS H\u00f4pital Fleurimont",
        "Participation": "Non",
        "Option*": ""
    },
    {
        "Province": "",
        "Ville": "Qu\u00e9bec City",
        "Hopital": "H\u00f4tel-Dieu de Qu\u00e9bec du CHUQ",
        "Participation": "Non",
        "Option*": ""
    },
    {
        "Province": "Nouveau-Brunswick",
        "Ville": "Moncton",
        "Hopital": "The Moncton Hospital",
        "Participation": "Oui",
        "Option*": "3"
    },
    {
        "Province": "Nouvelle-\u00c9cosse",
        "Ville": "Halifax",
        "Hopital": "QEII Health Sciences Centre",
        "Participation": "Oui",
        "Option*": "3"
    },
    {
        "Province": "",
        "Ville": "Halifax",
        "Hopital": "IWK Health Centre",
        "Participation": "Oui",
        "Option*": "P\u00e9d VEN\u0086"
    },
    {
        "Province": "Terre-Neuve-et-Labrador",
        "Ville": "St John\u0092s",
        "Hopital": "Health care Corp. of St. John\u0092s General & Miller Sites",
        "Participation": "",
        "Option*": ""
    },
    {
        "Province": "",
        "Ville": "St John\u0092s",
        "Hopital": "Janeway Site",
        "Participation": "",
        "Option*": ""
    },
    {
        "Province": "",
        "Ville": "St John\u0092s",
        "Hopital": "St. Clare Site",
        "Participation": "",
        "Option*": ""
    }
]