[
    {
        "Game": "Aliens: Colonial Marines",
        "Genre": "Shooter",
        "Platform": "PS3",
        "Release": "Late 2008"
    },
    {
        "Game": "All-Pro Football 2K8",
        "Genre": "Sports",
        "Platform": "PS3",
        "Release": "07/16/07"
    },
    {
        "Game": "Alone in the Dark",
        "Genre": "Survival Horror",
        "Platform": "PS3",
        "Release": "11/18/08"
    },
    {
        "Game": "Alpha Protocol",
        "Genre": "RPG",
        "Platform": "PS3",
        "Release": "TBA 2009"
    },
    {
        "Game": "Army Of Two",
        "Genre": "Action",
        "Platform": "PS3",
        "Release": "03/04/08"
    },
    {
        "Game": "Army of Two: The 40th Day",
        "Genre": "Action",
        "Platform": "PS3",
        "Release": "01/12/10"
    },
    {
        "Game": "Assassin's Creed",
        "Genre": "Action",
        "Platform": "PS3",
        "Release": "11/13/07"
    },
    {
        "Game": "Batman: Arkham Asylum",
        "Genre": "Action",
        "Platform": "PS3",
        "Release": "08/25/09"
    },
    {
        "Game": "Bioshock",
        "Genre": "Action",
        "Platform": "PS3",
        "Release": "10/21/08"
    },
    {
        "Game": "Blacksite: Area 51",
        "Genre": "Action",
        "Platform": "PS3",
        "Release": "12/10/07"
    },
    {
        "Game": "Bladestorm: The Hundred Years War",
        "Genre": "Real Time Strategy",
        "Platform": "PS3",
        "Release": "11/06/07"
    },
    {
        "Game": "Blazing Angels: Squadrons of WWII",
        "Genre": "Flight - Action",
        "Platform": "PS3",
        "Release": "12/12/06"
    },
    {
        "Game": "Blur",
        "Genre": "Racing",
        "Platform": "PS3",
        "Release": "05/25/10"
    },
    {
        "Game": "Borderlands",
        "Genre": "Action",
        "Platform": "PS3",
        "Release": "Holiday 2008"
    },
    {
        "Game": "Brothers in Arms: Hell's Highway",
        "Genre": "First Person Shooter",
        "Platform": "PS3",
        "Release": "09/23/08"
    },
    {
        "Game": "Burnout Paradise",
        "Genre": "Racing",
        "Platform": "PS3",
        "Release": "01/22/08"
    },
    {
        "Game": "Call of Duty 3",
        "Genre": "First Person Shooter",
        "Platform": "PS3",
        "Release": "12/14/06"
    },
    {
        "Game": "Call of Duty 4: Modern Warfare",
        "Genre": "Shooter",
        "Platform": "PS3",
        "Release": "11/05/07"
    },
    {
        "Game": "Call of Duty: World at War",
        "Genre": "First Person Shooter",
        "Platform": "PS3",
        "Release": "11/11/08"
    },
    {
        "Game": "Calling All Cars",
        "Genre": "Action",
        "Platform": "PS3",
        "Release": "05/10/07"
    },
    {
        "Game": "Civilization Revolution",
        "Genre": "Strategy",
        "Platform": "PS3",
        "Release": "Spring 2008"
    },
    {
        "Game": "College Hoops 2K8",
        "Genre": "Sports",
        "Platform": "PS3",
        "Release": "11/19/07"
    },
    {
        "Game": "Conan",
        "Genre": "Action",
        "Platform": "PS3",
        "Release": "10/23/07"
    },
    {
        "Game": "Condemned 2: Bloodshot",
        "Genre": "Action",
        "Platform": "PS3",
        "Release": "03/11/08"
    },
    {
        "Game": "Conflict: Denied Ops",
        "Genre": "Shooter",
        "Platform": "PS3",
        "Release": "02/12/08"
    },
    {
        "Game": "Damnation",
        "Genre": "Action",
        "Platform": "PS3",
        "Release": "TBA 2008"
    },
    {
        "Game": "Dark Sector",
        "Genre": "Action",
        "Platform": "PS3",
        "Release": "03/25/08"
    },
    {
        "Game": "Darksiders: Wrath of War",
        "Genre": "Action",
        "Platform": "PS3",
        "Release": "TBA 2008"
    },
    {
        "Game": "Dead Space",
        "Genre": "Action",
        "Platform": "PS3",
        "Release": "10/20/08"
    },
    {
        "Game": "Destroy All Humans! Path of the Furon",
        "Genre": "Action",
        "Platform": "PS3",
        "Release": "Q1 2008"
    },
    {
        "Game": "Devil May Cry 4",
        "Genre": "Action",
        "Platform": "PS3",
        "Release": "02/05/08"
    },
    {
        "Game": "DiRT",
        "Genre": "Racing",
        "Platform": "PS3",
        "Release": "09/11/07"
    },
    {
        "Game": "DJ Hero",
        "Genre": "Music",
        "Platform": "PS3",
        "Release": "09/27/09"
    },
    {
        "Game": "Dynasty Warriors 6",
        "Genre": "Action",
        "Platform": "PS3",
        "Release": "02/19/08"
    },
    {
        "Game": "Eternal Sonata",
        "Genre": "RPG",
        "Platform": "PS3",
        "Release": "10/21/08"
    },
    {
        "Game": "F.E.A.R.",
        "Genre": "Shooter",
        "Platform": "PS3",
        "Release": "04/24/07"
    },
    {
        "Game": "Facebreaker",
        "Genre": "Sports",
        "Platform": "PS3",
        "Release": "09/03/08"
    },
    {
        "Game": "Fallout 3",
        "Genre": "RPG",
        "Platform": "PS3",
        "Release": "10/28/08"
    },
    {
        "Game": "Fantastic 4: Rise of the Silver Surfer",
        "Genre": "Action",
        "Platform": "PS3",
        "Release": "06/15/07"
    },
    {
        "Game": "Far Cry 2",
        "Genre": "First Person Shooter",
        "Platform": "PS3",
        "Release": "10/21/08"
    },
    {
        "Game": "Fatal Inertia",
        "Genre": "Racing Action",
        "Platform": "PS3",
        "Release": "May 2008"
    },
    {
        "Game": "FIFA Soccer 08",
        "Genre": "Sports",
        "Platform": "PS3",
        "Release": "10/09/07"
    },
    {
        "Game": "Fight Night Round 3",
        "Genre": "Sports",
        "Platform": "PS3",
        "Release": "12/05/06"
    },
    {
        "Game": "Final Fantasy XIII",
        "Genre": "RPG",
        "Platform": "PS3",
        "Release": "TBA 2009"
    },
    {
        "Game": "Folklore",
        "Genre": "RPG",
        "Platform": "PS3",
        "Release": "10/09/07"
    },
    {
        "Game": "Fracture",
        "Genre": "Action",
        "Platform": "PS3",
        "Release": "10/07/08"
    },
    {
        "Game": "Full Auto 2: Battlelines",
        "Genre": "Racing Action",
        "Platform": "PS3",
        "Release": "12/12/06"
    },
    {
        "Game": "Genji: Days Of The Blade",
        "Genre": "Action",
        "Platform": "PS3",
        "Release": "11/17/06"
    },
    {
        "Game": "Ghostbusters: The Video Game",
        "Genre": "Action",
        "Platform": "PS3",
        "Release": "TBA"
    },
    {
        "Game": "God of War III",
        "Genre": "Action",
        "Platform": "PS3",
        "Release": "TBA"
    },
    {
        "Game": "God of War III",
        "Genre": "Action",
        "Platform": "PS3",
        "Release": "03/06/10"
    },
    {
        "Game": "Gran Turismo 5 Prologue",
        "Genre": "Racing",
        "Platform": "PS3",
        "Release": "04/15/08"
    },
    {
        "Game": "Grand Theft Auto IV",
        "Genre": "Action",
        "Platform": "PS3",
        "Release": "04/29/08"
    },
    {
        "Game": "Guitar Hero III: Legends of Rock",
        "Genre": "Music",
        "Platform": "PS3",
        "Release": "10/29/07"
    },
    {
        "Game": "Guitar Hero World Tour",
        "Genre": "Music",
        "Platform": "PS3",
        "Release": "10/26/08"
    },
    {
        "Game": "Guitar Hero: Aerosmith",
        "Genre": "Music",
        "Platform": "PS3",
        "Release": "06/29/08"
    },
    {
        "Game": "Guitar Hero: Metallica",
        "Genre": "Music",
        "Platform": "PS3",
        "Release": "03/29/09"
    },
    {
        "Game": "Harry Potter and the Order of the Phoenix",
        "Genre": "Adventure",
        "Platform": "PS3",
        "Release": "06/25/07"
    },
    {
        "Game": "Haze",
        "Genre": "Action",
        "Platform": "PS3",
        "Release": "05/20/08"
    },
    {
        "Game": "Heavenly Sword",
        "Genre": "Action",
        "Platform": "PS3",
        "Release": "09/12/07"
    },
    {
        "Game": "Heavy Rain",
        "Genre": "Adventure",
        "Platform": "PS3",
        "Release": "02/23/10"
    },
    {
        "Game": "Hellboy: Science of Evil",
        "Genre": "Action",
        "Platform": "PS3",
        "Release": "TBA 2008"
    },
    {
        "Game": "Hot Shots Golf: Out of Bounds",
        "Genre": "Sports",
        "Platform": "PS3",
        "Release": "03/18/08"
    },
    {
        "Game": "Infamous",
        "Genre": "Action",
        "Platform": "PS3",
        "Release": "TBA 2008"
    },
    {
        "Game": "Iron Man",
        "Genre": "Action",
        "Platform": "PS3",
        "Release": "05/02/08"
    },
    {
        "Game": "James Bond 007 in Quantum of Solace",
        "Genre": "Action",
        "Platform": "PS3",
        "Release": "11/04/08"
    },
    {
        "Game": "Jericho",
        "Genre": "Actin",
        "Platform": "PS3",
        "Release": "10/23/07"
    },
    {
        "Game": "John Woo Presents Stranglehold",
        "Genre": "Action",
        "Platform": "PS3",
        "Release": "10/29/07"
    },
    {
        "Game": "Juiced 2: Hot Import Nights",
        "Genre": "Racing",
        "Platform": "PS3",
        "Release": "09/25/07"
    },
    {
        "Game": "Kane & Lynch: Dead Men",
        "Genre": "Action",
        "Platform": "PS3",
        "Release": "11/13/07"
    },
    {
        "Game": "Killzone 2",
        "Genre": "Action",
        "Platform": "PS3",
        "Release": "TBA 2008"
    },
    {
        "Game": "Lair",
        "Genre": "Action",
        "Platform": "PS3",
        "Release": "09/04/07"
    },
    {
        "Game": "Legendary",
        "Genre": "Shooter",
        "Platform": "PS3",
        "Release": "Summer 2008"
    },
    {
        "Game": "LEGO Batman: The Videogame",
        "Genre": "Action",
        "Platform": "PS3",
        "Release": "09/23/08"
    },
    {
        "Game": "Little Big Planet",
        "Genre": "Action",
        "Platform": "PS3",
        "Release": "10/21/08"
    },
    {
        "Game": "Lost Planet: Extreme Condition",
        "Genre": "Action",
        "Platform": "PS3",
        "Release": "02/26/08"
    },
    {
        "Game": "Lost: Via Domus",
        "Genre": "Adventure",
        "Platform": "PS3",
        "Release": "02/26/08"
    },
    {
        "Game": "Madden NFL 07",
        "Genre": "Sports",
        "Platform": "PS3",
        "Release": "11/17/06"
    },
    {
        "Game": "Madden NFL 08",
        "Genre": "Sports",
        "Platform": "PS3",
        "Release": "08/14/07"
    },
    {
        "Game": "Madden NFL 09",
        "Genre": "Sports",
        "Platform": "PS3",
        "Release": "08/12/08"
    },
    {
        "Game": "Major League Baseball 2K7",
        "Genre": "Sports",
        "Platform": "PS3",
        "Release": "02/27/07"
    },
    {
        "Game": "Major League Baseball 2K8",
        "Genre": "Sports",
        "Platform": "PS3",
        "Release": "03/04/08"
    },
    {
        "Game": "Marvel: Ultimate Alliance",
        "Genre": "Action RPG",
        "Platform": "PS3",
        "Release": "11/07/06"
    },
    {
        "Game": "Marvel: Ultimate Alliance 2",
        "Genre": "Action - RPG",
        "Platform": "PS3",
        "Release": "09/15/09"
    },
    {
        "Game": "Medal of Honor Airborne",
        "Genre": "Shooter",
        "Platform": "PS3",
        "Release": "11/19/07"
    },
    {
        "Game": "Mercenaries 2: World in Flames",
        "Genre": "Action",
        "Platform": "PS3",
        "Release": "08/31/08"
    },
    {
        "Game": "Metal Gear Online",
        "Genre": "Action",
        "Platform": "PS3",
        "Release": "TBA"
    },
    {
        "Game": "Metal Gear Solid 4: Guns of the Patriots",
        "Genre": "Action",
        "Platform": "PS3",
        "Release": "06/12/08"
    },
    {
        "Game": "Midnight Club: Los Angeles",
        "Genre": "Racing",
        "Platform": "PS3",
        "Release": "10/07/08"
    },
    {
        "Game": "MLB 07: The Show",
        "Genre": "Sports",
        "Platform": "PS3",
        "Release": "05/15/07"
    },
    {
        "Game": "MLB 08: The Show",
        "Genre": "Sports",
        "Platform": "PS3",
        "Release": "03/04/08"
    },
    {
        "Game": "Mobile Suit Gundam: Crossfire",
        "Genre": "Action",
        "Platform": "PS3",
        "Release": "11/13/06"
    },
    {
        "Game": "Mortal Kombat vs. DC Universe",
        "Genre": "Fighting",
        "Platform": "PS3",
        "Release": "11/10/08"
    },
    {
        "Game": "MotorStorm",
        "Genre": "Racing",
        "Platform": "PS3",
        "Release": "03/06/07"
    },
    {
        "Game": "MotorStorm: Pacific Rift",
        "Genre": "Racing",
        "Platform": "PS3",
        "Release": "10/07/08"
    },
    {
        "Game": "MX vs ATV Untamed",
        "Genre": "Racing",
        "Platform": "PS3",
        "Release": "12/17/07"
    },
    {
        "Game": "NASCAR 08",
        "Genre": "Sports",
        "Platform": "PS3",
        "Release": "07/23/07"
    },
    {
        "Game": "NBA 2K7",
        "Genre": "Sports",
        "Platform": "PS3",
        "Release": "11/13/06"
    },
    {
        "Game": "NBA 2K8",
        "Genre": "Sports",
        "Platform": "PS3",
        "Release": "10/02/07"
    },
    {
        "Game": "NBA 2K9",
        "Genre": "Sports",
        "Platform": "PS3",
        "Release": "10/31/08"
    },
    {
        "Game": "NBA Live 08",
        "Genre": "Sports",
        "Platform": "PS3",
        "Release": "10/02/07"
    },
    {
        "Game": "NBA Live 09",
        "Genre": "Sports",
        "Platform": "PS3",
        "Release": "10/07/08"
    },
    {
        "Game": "NBA '07",
        "Genre": "Sports",
        "Platform": "PS3",
        "Release": "11/13/06"
    },
    {
        "Game": "NBA '09: The Inside",
        "Genre": "Sports",
        "Platform": "PS3",
        "Release": "10/07/08"
    },
    {
        "Game": "NBA ?08",
        "Genre": "Sports",
        "Platform": "PS3",
        "Release": "10/02/07"
    },
    {
        "Game": "NCAA Football 08",
        "Genre": "Sports",
        "Platform": "PS3",
        "Release": "07/17/07"
    },
    {
        "Game": "Need for Speed Carbon",
        "Genre": "Racing",
        "Platform": "PS3",
        "Release": "11/14/06"
    },
    {
        "Game": "Need for Speed ProStreet",
        "Genre": "Racing",
        "Platform": "PS3",
        "Release": "11/13/07"
    },
    {
        "Game": "Need for Speed Undercover",
        "Genre": "Racing",
        "Platform": "PS3",
        "Release": "11/18/08"
    },
    {
        "Game": "NFL Tour",
        "Genre": "Sports",
        "Platform": "PS3",
        "Release": "01/08/08"
    },
    {
        "Game": "NHL 08",
        "Genre": "Sports",
        "Platform": "PS3",
        "Release": "09/11/07"
    },
    {
        "Game": "NHL 09",
        "Genre": "Sports",
        "Platform": "PS3",
        "Release": "09/09/08"
    },
    {
        "Game": "NHL 2K7",
        "Genre": "Sports",
        "Platform": "PS3",
        "Release": "03/23/07"
    },
    {
        "Game": "NHL 2K8",
        "Genre": "Sports",
        "Platform": "PS3",
        "Release": "09/10/07"
    },
    {
        "Game": "NHL 2K9",
        "Genre": "Sports",
        "Platform": "PS3",
        "Release": "09/08/08"
    },
    {
        "Game": "Ninja Gaiden Sigma",
        "Genre": "Action",
        "Platform": "PS3",
        "Release": "07/03/07"
    },
    {
        "Game": "Pirates of the Caribbean: At World's End",
        "Genre": "Action",
        "Platform": "PS3",
        "Release": "05/22/07"
    },
    {
        "Game": "Prototype",
        "Genre": "Action",
        "Platform": "PS3",
        "Release": "Summer 2008"
    },
    {
        "Game": "Pure",
        "Genre": "Racing",
        "Platform": "PS3",
        "Release": "09/16/08"
    },
    {
        "Game": "Ratatouille",
        "Genre": "Action",
        "Platform": "PS3",
        "Release": "October 2007"
    },
    {
        "Game": "Ratchet & Clank Future: Tools of Destruction",
        "Genre": "Action",
        "Platform": "PS3",
        "Release": "10/23/07"
    },
    {
        "Game": "Red Faction: Guerrilla",
        "Genre": "Shooter",
        "Platform": "PS3",
        "Release": "TBA 2009"
    },
    {
        "Game": "Resident Evil 5",
        "Genre": "Action / Survival Horror",
        "Platform": "PS3",
        "Release": "TBA 2008"
    },
    {
        "Game": "Resistance 2",
        "Genre": "First Person Shooter",
        "Platform": "PS3",
        "Release": "11/04/08"
    },
    {
        "Game": "Resistance: Fall of Man",
        "Genre": "FPS",
        "Platform": "PS3",
        "Release": "11/14/06"
    },
    {
        "Game": "Ridge Racer 7",
        "Genre": "Racing",
        "Platform": "PS3",
        "Release": "11/13/06"
    },
    {
        "Game": "Rock Band",
        "Genre": "Music",
        "Platform": "PS3",
        "Release": "11/20/07"
    },
    {
        "Game": "Saints Row 2",
        "Genre": "Action",
        "Platform": "PS3",
        "Release": "10/14/08"
    },
    {
        "Game": "Saint's Row",
        "Genre": "Action",
        "Platform": "PS3",
        "Release": "Cancelled"
    },
    {
        "Game": "SEGA Rally Revo",
        "Genre": "Racing",
        "Platform": "PS3",
        "Release": "10/09/07"
    },
    {
        "Game": "Shaun White Snowboarding",
        "Genre": "Sports",
        "Platform": "PS3",
        "Release": "11/17/08"
    },
    {
        "Game": "Silent Hill 5",
        "Genre": "Adventure",
        "Platform": "PS3",
        "Release": "TBA 2008"
    },
    {
        "Game": "Silent Hill: Homecoming",
        "Genre": "Action/Adventure",
        "Platform": "PS3",
        "Release": "09/30/08"
    },
    {
        "Game": "Skate",
        "Genre": "Sports",
        "Platform": "PS3",
        "Release": "09/24/07"
    },
    {
        "Game": "SOCOM: Confrontation",
        "Genre": "Action",
        "Platform": "PS3",
        "Release": "10/14/08"
    },
    {
        "Game": "Soldier of Fortune: Pay Back",
        "Genre": "FPS",
        "Platform": "PS3",
        "Release": "11/13/07"
    },
    {
        "Game": "Sonic the Hedgehog",
        "Genre": "Platformer",
        "Platform": "PS3",
        "Release": "01/30/07"
    },
    {
        "Game": "Spider-Man 3",
        "Genre": "Action",
        "Platform": "PS3",
        "Release": "05/04/07"
    },
    {
        "Game": "Spider-Man: Web of Shadows",
        "Genre": "Action/Adventure",
        "Platform": "PS3",
        "Release": "10/21/08"
    },
    {
        "Game": "Star Wars: The Force Unleashed",
        "Genre": "Action",
        "Platform": "PS3",
        "Release": "09/16/08"
    },
    {
        "Game": "Street Fighter IV",
        "Genre": "Fighting",
        "Platform": "PS3",
        "Release": "TBA 2008"
    },
    {
        "Game": "Street Fighter IV",
        "Genre": "Fighting",
        "Platform": "PS3",
        "Release": "TBA 2008"
    },
    {
        "Game": "Stuntman: Ignition",
        "Genre": "Racing Action",
        "Platform": "PS3",
        "Release": "09/17/07"
    },
    {
        "Game": "Super Street Fighter IV",
        "Genre": "Fighting",
        "Platform": "PS3",
        "Release": "Spring 2010"
    },
    {
        "Game": "Surf's Up",
        "Genre": "Action",
        "Platform": "PS3",
        "Release": "05/29/07"
    },
    {
        "Game": "The Agency",
        "Genre": "Shooter",
        "Platform": "PS3",
        "Release": "TBA"
    },
    {
        "Game": "The BIGS",
        "Genre": "Sports",
        "Platform": "PS3",
        "Release": "06/25/07"
    },
    {
        "Game": "The Bourne Conspiracy",
        "Genre": "Action",
        "Platform": "PS3",
        "Release": "06/03/08"
    },
    {
        "Game": "The Chronicles of Narnia: Prince Caspian",
        "Genre": "Action",
        "Platform": "PS3",
        "Release": "05/16/08"
    },
    {
        "Game": "The Chronicles of Riddick: Assault on Dark Athena",
        "Genre": "FPS",
        "Platform": "PS3",
        "Release": "TBA 2008"
    },
    {
        "Game": "The Club",
        "Genre": "Action",
        "Platform": "PS3",
        "Release": "02/19/08"
    },
    {
        "Game": "The Darkness",
        "Genre": "Action",
        "Platform": "PS3",
        "Release": "06/25/07"
    },
    {
        "Game": "The Elder Scrolls IV: Oblivion",
        "Genre": "RPG",
        "Platform": "PS3",
        "Release": "03/19/07"
    },
    {
        "Game": "The Godfather: The Don's Edition",
        "Genre": "Action",
        "Platform": "PS3",
        "Release": "03/22/07"
    },
    {
        "Game": "The Incredible Hulk",
        "Genre": "Action",
        "Platform": "PS3",
        "Release": "06/05/08"
    },
    {
        "Game": "The Orange Box",
        "Genre": "Action",
        "Platform": "PS3",
        "Release": "12/11/07"
    },
    {
        "Game": "The Simpsons Game",
        "Genre": "Adventure",
        "Platform": "PS3",
        "Release": "10/30/07"
    },
    {
        "Game": "Tiger Woods PGA Tour 07",
        "Genre": "Sports",
        "Platform": "PS3",
        "Release": "11/14/06"
    },
    {
        "Game": "Tiger Woods PGA Tour 08",
        "Genre": "Sports",
        "Platform": "PS3",
        "Release": "08/28/07"
    },
    {
        "Game": "Tiger Woods PGA Tour 09",
        "Genre": "Sports",
        "Platform": "PS3",
        "Release": "08/26/08"
    },
    {
        "Game": "Time Crisis 4",
        "Genre": "Shooter",
        "Platform": "PS3",
        "Release": "11/20/07"
    },
    {
        "Game": "TimeShift",
        "Genre": "Shooter",
        "Platform": "PS3",
        "Release": "12/19/07"
    },
    {
        "Game": "TNA iMPACT",
        "Genre": "Sports",
        "Platform": "PS3",
        "Release": "09/09/08"
    },
    {
        "Game": "Tom Clancy's Ghost Recon Advanced Warfighter 2",
        "Genre": "FPS",
        "Platform": "PS3",
        "Release": "08/21/07"
    },
    {
        "Game": "Tom Clancy's Rainbow Six: Vegas",
        "Genre": "FPS",
        "Platform": "PS3",
        "Release": "06/26/07"
    },
    {
        "Game": "Tom Clancy?s Rainbow Six Vegas 2",
        "Genre": "Action",
        "Platform": "PS3",
        "Release": "03/18/08"
    },
    {
        "Game": "Tomb Raider Underworld",
        "Genre": "Action/Adventure",
        "Platform": "PS3",
        "Release": "11/18/08"
    },
    {
        "Game": "Tony Hawk's Project 8",
        "Genre": "Sports",
        "Platform": "PS3",
        "Release": "11/07/06"
    },
    {
        "Game": "Tony Hawk's Proving Ground",
        "Genre": "Sports",
        "Platform": "PS3",
        "Release": "10/15/07"
    },
    {
        "Game": "Top Spin 3",
        "Genre": "Sports",
        "Platform": "PS3",
        "Release": "06/23/08"
    },
    {
        "Game": "Transformers: The Game",
        "Genre": "Action",
        "Platform": "PS3",
        "Release": "06/26/07"
    },
    {
        "Game": "Turning Point: Fall of Liberty",
        "Genre": "FPS",
        "Platform": "PS3",
        "Release": "02/26/08"
    },
    {
        "Game": "Turok",
        "Genre": "Action",
        "Platform": "PS3",
        "Release": "02/05/08"
    },
    {
        "Game": "Uncharted 2: Among Thieves",
        "Genre": "Action",
        "Platform": "PS3",
        "Release": "10/13/09"
    },
    {
        "Game": "Uncharted: Drake?s Fortune",
        "Genre": "Action",
        "Platform": "PS3",
        "Release": "11/20/07"
    },
    {
        "Game": "Unreal Tournament 3",
        "Genre": "FPS",
        "Platform": "PS3",
        "Release": "12/10/07"
    },
    {
        "Game": "Untold Legends: Dark Kingdom",
        "Genre": "RPG",
        "Platform": "PS3",
        "Release": "11/15/06"
    },
    {
        "Game": "Viking: Battle for Asgard",
        "Genre": "Action",
        "Platform": "PS3",
        "Release": "03/25/08"
    },
    {
        "Game": "Virtua Fighter 5",
        "Genre": "Fighting",
        "Platform": "PS3",
        "Release": "02/20/07"
    },
    {
        "Game": "Virtua Tennis 3",
        "Genre": "Sports",
        "Platform": "PS3",
        "Release": "03/22/07"
    },
    {
        "Game": "Warhawk",
        "Genre": "Action - Flight",
        "Platform": "PS3",
        "Release": "08/28/07"
    },
    {
        "Game": "World in Conflict",
        "Genre": "Strategy",
        "Platform": "PS3",
        "Release": "Fall 2008"
    },
    {
        "Game": "WWE SmackDown! vs. Raw 2008",
        "Genre": "Sports",
        "Platform": "PS3",
        "Release": "11/13/07"
    },
    {
        "Game": "X-Men Origins: Wolverine",
        "Genre": "Action",
        "Platform": "PS3",
        "Release": "05/01/09"
    }
]