[
    {
        "Common Name (Animals)": "Acadian flycatcher",
        "Scientific Name": "Empidonax virescens",
        "Category": "Bird"
    },
    {
        "Common Name (Animals)": "Alder flycatcher",
        "Scientific Name": "Empidonax alnorum",
        "Category": "Bird"
    },
    {
        "Common Name (Animals)": "American burying beetle",
        "Scientific Name": "Nicrophorus americanus",
        "Category": "Insect"
    },
    {
        "Common Name (Animals)": "American coot",
        "Scientific Name": "Fulica americana",
        "Category": "Bird"
    },
    {
        "Common Name (Animals)": "American crow",
        "Scientific Name": "Corvus brachyrhynchos",
        "Category": "Bird"
    },
    {
        "Common Name (Animals)": "American eel",
        "Scientific Name": "Anguilla rostrata",
        "Category": "Fish"
    },
    {
        "Common Name (Animals)": "American goldfinch",
        "Scientific Name": "Carduelis tristis",
        "Category": "Bird"
    },
    {
        "Common Name (Animals)": "American kestrel",
        "Scientific Name": "Falco sparverius",
        "Category": "Bird"
    },
    {
        "Common Name (Animals)": "American redstart",
        "Scientific Name": "Setophaga ruticilla",
        "Category": "Bird"
    },
    {
        "Common Name (Animals)": "American robin",
        "Scientific Name": "Turdus migratorius",
        "Category": "Bird"
    },
    {
        "Common Name (Animals)": "American tree sparrow",
        "Scientific Name": "Spizella arborea",
        "Category": "Bird"
    },
    {
        "Common Name (Animals)": "American wigeon",
        "Scientific Name": "Anas americana",
        "Category": "Bird"
    },
    {
        "Common Name (Animals)": "American woodcock",
        "Scientific Name": "Scolopax minor",
        "Category": "Bird"
    },
    {
        "Common Name (Animals)": "Asiatic clam",
        "Scientific Name": "Corbicula fluminea",
        "Category": "Mussel"
    },
    {
        "Common Name (Animals)": "Bachman's sparrow",
        "Scientific Name": "Aimophila aestivalis",
        "Category": "Bird"
    },
    {
        "Common Name (Animals)": "Bald eagle",
        "Scientific Name": "Haliaeetus leucocephalus",
        "Category": "Bird"
    },
    {
        "Common Name (Animals)": "Baltimore oriole",
        "Scientific Name": "Icterus galbula",
        "Category": "Bird"
    },
    {
        "Common Name (Animals)": "Banded darter",
        "Scientific Name": "Etheostoma zonale",
        "Category": "Fish"
    },
    {
        "Common Name (Animals)": "Banded sculpin",
        "Scientific Name": "Cottus carolinae",
        "Category": "Fish"
    },
    {
        "Common Name (Animals)": "Barn owl",
        "Scientific Name": "Tyto alba",
        "Category": "Bird"
    },
    {
        "Common Name (Animals)": "Barn swallow",
        "Scientific Name": "Hirundo rustica",
        "Category": "Bird"
    },
    {
        "Common Name (Animals)": "Barred owl",
        "Scientific Name": "Strix varia",
        "Category": "Bird"
    },
    {
        "Common Name (Animals)": "Bay-breasted warbler",
        "Scientific Name": "Dendroica castanea",
        "Category": "Bird"
    },
    {
        "Common Name (Animals)": "Beaver",
        "Scientific Name": "Castor canadensis",
        "Category": "Mammal"
    },
    {
        "Common Name (Animals)": "Bell's vireo",
        "Scientific Name": "Vireo bellii",
        "Category": "Bird"
    },
    {
        "Common Name (Animals)": "Belted kingfisher",
        "Scientific Name": "Ceryle alcyon",
        "Category": "Bird"
    },
    {
        "Common Name (Animals)": "Bewick's wren",
        "Scientific Name": "Thryomanes bewickii",
        "Category": "Bird"
    },
    {
        "Common Name (Animals)": "Big brown bat",
        "Scientific Name": "Eptesicus fuscus",
        "Category": "Mammal"
    },
    {
        "Common Name (Animals)": "Bigeye shiner",
        "Scientific Name": "Notropis boops",
        "Category": "Fish"
    },
    {
        "Common Name (Animals)": "Bison",
        "Scientific Name": "Bison bison",
        "Category": "Mammal"
    },
    {
        "Common Name (Animals)": "Black bear",
        "Scientific Name": "Ursus americanus",
        "Category": "Mammal"
    },
    {
        "Common Name (Animals)": "Black bullhead",
        "Scientific Name": "Ameiurus melas",
        "Category": "Fish"
    },
    {
        "Common Name (Animals)": "Black crappie",
        "Scientific Name": "Pomoxis nigromaculatus",
        "Category": "Fish"
    },
    {
        "Common Name (Animals)": "Black rat snake",
        "Scientific Name": "Elaphe obsoleta obsoleta",
        "Category": "Reptile"
    },
    {
        "Common Name (Animals)": "Black redhorse",
        "Scientific Name": "Moxostoma duquesnei",
        "Category": "Fish"
    },
    {
        "Common Name (Animals)": "Black sandshell",
        "Scientific Name": "Ligumia recta",
        "Category": "Mussel"
    },
    {
        "Common Name (Animals)": "Black-and-white warbler",
        "Scientific Name": "Mniotilta varia",
        "Category": "Bird"
    },
    {
        "Common Name (Animals)": "Black-billed cuckoo",
        "Scientific Name": "Coccyzus erythropthalmus",
        "Category": "Bird"
    },
    {
        "Common Name (Animals)": "Blackburnian warbler",
        "Scientific Name": "Dendroica fusca",
        "Category": "Bird"
    },
    {
        "Common Name (Animals)": "Black-capped chickadee",
        "Scientific Name": "Parus atricapillus",
        "Category": "Bird"
    },
    {
        "Common Name (Animals)": "Black-crowned night heron",
        "Scientific Name": "Nycticorax nycticorax",
        "Category": "Bird"
    },
    {
        "Common Name (Animals)": "Blacknose shiner",
        "Scientific Name": "Notropis heterolepis",
        "Category": "Fish"
    },
    {
        "Common Name (Animals)": "Blackpoll warbler",
        "Scientific Name": "Dendroica striata",
        "Category": "Bird"
    },
    {
        "Common Name (Animals)": "Blackspotted topminnow",
        "Scientific Name": "Fundulus olivaceus",
        "Category": "Fish"
    },
    {
        "Common Name (Animals)": "Black-throated green warbler",
        "Scientific Name": "Dendroica virens",
        "Category": "Bird"
    },
    {
        "Common Name (Animals)": "Blanchard's cricket frog",
        "Scientific Name": "Acris crepitans blanchardi",
        "Category": "Amphibian"
    },
    {
        "Common Name (Animals)": "Bleeding shiner",
        "Scientific Name": "Luxilus zonatus",
        "Category": "Fish"
    },
    {
        "Common Name (Animals)": "Blue grosbeak",
        "Scientific Name": "Guiraca caerulea",
        "Category": "Bird"
    },
    {
        "Common Name (Animals)": "Blue jay",
        "Scientific Name": "Cyanocitta cristata",
        "Category": "Bird"
    },
    {
        "Common Name (Animals)": "Bluegill",
        "Scientific Name": "Lepomis macrochirus",
        "Category": "Fish"
    },
    {
        "Common Name (Animals)": "Blue-gray gnatcatcher",
        "Scientific Name": "Polioptila caerulea",
        "Category": "Bird"
    },
    {
        "Common Name (Animals)": "Bluestripe darter",
        "Scientific Name": "Percina cymatotaenia",
        "Category": "Fish"
    },
    {
        "Common Name (Animals)": "Blue-winged teal",
        "Scientific Name": "Anas discors",
        "Category": "Bird"
    },
    {
        "Common Name (Animals)": "Blue-winged warbler",
        "Scientific Name": "Vermivora pinus",
        "Category": "Bird"
    },
    {
        "Common Name (Animals)": "Bluntnose minnow",
        "Scientific Name": "Pimephales notatus",
        "Category": "Fish"
    },
    {
        "Common Name (Animals)": "Bobolink",
        "Scientific Name": "Dolichonyx oryzivorus",
        "Category": "Bird"
    },
    {
        "Common Name (Animals)": "Broadhead skink",
        "Scientific Name": "Eumeces laticeps",
        "Category": "Reptile"
    },
    {
        "Common Name (Animals)": "Broad-winged hawk",
        "Scientific Name": "Buteo platypterus",
        "Category": "Bird"
    },
    {
        "Common Name (Animals)": "Brook silverside",
        "Scientific Name": "Labidesthes sicculus",
        "Category": "Fish"
    },
    {
        "Common Name (Animals)": "Brown creeper",
        "Scientific Name": "Certhia americana",
        "Category": "Bird"
    },
    {
        "Common Name (Animals)": "Brown thrasher",
        "Scientific Name": "Toxostoma rufum",
        "Category": "Bird"
    },
    {
        "Common Name (Animals)": "Brown-headed cowbird",
        "Scientific Name": "Molothrus ater",
        "Category": "Bird"
    },
    {
        "Common Name (Animals)": "Bufflehead",
        "Scientific Name": "Bucephala albeola",
        "Category": "Bird"
    },
    {
        "Common Name (Animals)": "Bull frog",
        "Scientific Name": "Rana catesbeiana",
        "Category": "Amphibian"
    },
    {
        "Common Name (Animals)": "Bullsnake",
        "Scientific Name": "Pituophis melanoleucus sayi",
        "Category": "Reptile"
    },
    {
        "Common Name (Animals)": "Canada goose",
        "Scientific Name": "Branta canadensis",
        "Category": "Bird"
    },
    {
        "Common Name (Animals)": "Canada warbler",
        "Scientific Name": "Wilsonia canadensis",
        "Category": "Bird"
    },
    {
        "Common Name (Animals)": "Canvasback",
        "Scientific Name": "Aythya valisineria",
        "Category": "Bird"
    },
    {
        "Common Name (Animals)": "Carolina chickadee",
        "Scientific Name": "Parus carolinensis",
        "Category": "Bird"
    },
    {
        "Common Name (Animals)": "Carolina wren",
        "Scientific Name": "Thryothorus ludovicianus",
        "Category": "Bird"
    },
    {
        "Common Name (Animals)": "Caspian tern",
        "Scientific Name": "Sterna caspia",
        "Category": "Bird"
    },
    {
        "Common Name (Animals)": "Cattle egret",
        "Scientific Name": "Bubulcus ibis",
        "Category": "Bird"
    },
    {
        "Common Name (Animals)": "Cave salamander",
        "Scientific Name": "Eurycea lucifuga",
        "Category": "Amphibian"
    },
    {
        "Common Name (Animals)": "Cedar waxwing",
        "Scientific Name": "Bombycilla cedrorum",
        "Category": "Bird"
    },
    {
        "Common Name (Animals)": "Central Missouri cave amphipod",
        "Scientific Name": "Allocrangonyx hubrichti",
        "Category": "Crustacean"
    },
    {
        "Common Name (Animals)": "Central newt",
        "Scientific Name": "Notophthalamus viridescens louisianensis",
        "Category": "Amphibian"
    },
    {
        "Common Name (Animals)": "Central stoneroller",
        "Scientific Name": "Campostoma anomalum",
        "Category": "Fish"
    },
    {
        "Common Name (Animals)": "Cerulean warbler",
        "Scientific Name": "Dendroica cerulea",
        "Category": "Bird"
    },
    {
        "Common Name (Animals)": "Channel catfish",
        "Scientific Name": "Ictalurus punctatus",
        "Category": "Fish"
    },
    {
        "Common Name (Animals)": "Chestnut lamprey",
        "Scientific Name": "Ichthyomyzon castaneus",
        "Category": "Fish"
    },
    {
        "Common Name (Animals)": "Chestnut-sided warbler",
        "Scientific Name": "Dendroica pensylvanica",
        "Category": "Bird"
    },
    {
        "Common Name (Animals)": "Chimney swift",
        "Scientific Name": "Chaetura pelagica",
        "Category": "Bird"
    },
    {
        "Common Name (Animals)": "Chipping sparrow",
        "Scientific Name": "Spizella passerina",
        "Category": "Bird"
    },
    {
        "Common Name (Animals)": "Chuck-will's-widow",
        "Scientific Name": "Caprimulgus carolinensis",
        "Category": "Bird"
    },
    {
        "Common Name (Animals)": "Cliff swallow",
        "Scientific Name": "Hirundo pyrrhonota",
        "Category": "Bird"
    },
    {
        "Common Name (Animals)": "Common carp",
        "Scientific Name": "Cyprinus carpio",
        "Category": "Fish"
    },
    {
        "Common Name (Animals)": "Common goldeneye",
        "Scientific Name": "Bucephala clangula",
        "Category": "Bird"
    },
    {
        "Common Name (Animals)": "Common grackle",
        "Scientific Name": "Quiscalus quiscula",
        "Category": "Bird"
    },
    {
        "Common Name (Animals)": "Common loon",
        "Scientific Name": "Gavia immer",
        "Category": "Bird"
    },
    {
        "Common Name (Animals)": "Common map turtle",
        "Scientific Name": "Graptemys geographica",
        "Category": "Reptile"
    },
    {
        "Common Name (Animals)": "Common merganser",
        "Scientific Name": "Mergus merganser",
        "Category": "Bird"
    },
    {
        "Common Name (Animals)": "Common moorhen",
        "Scientific Name": "Gallinula chloropus",
        "Category": "Bird"
    },
    {
        "Common Name (Animals)": "Common musk turtle",
        "Scientific Name": "Sternotherus odoratus",
        "Category": "Reptile"
    },
    {
        "Common Name (Animals)": "Common nighthawk",
        "Scientific Name": "Chordeiles minor",
        "Category": "Bird"
    },
    {
        "Common Name (Animals)": "Common snapping turtle",
        "Scientific Name": "Chelydra serpentina serpentina",
        "Category": "Reptile"
    },
    {
        "Common Name (Animals)": "Common snipe",
        "Scientific Name": "Gallinago gallinago",
        "Category": "Bird"
    },
    {
        "Common Name (Animals)": "Common yellowthroat",
        "Scientific Name": "Geothlypis trichas",
        "Category": "Bird"
    },
    {
        "Common Name (Animals)": "Connecticut warbler",
        "Scientific Name": "Oporornis agilis",
        "Category": "Bird"
    },
    {
        "Common Name (Animals)": "Cooper's hawk",
        "Scientific Name": "Accipiter cooperii",
        "Category": "Bird"
    },
    {
        "Common Name (Animals)": "Creek chub",
        "Scientific Name": "Semotilus atromaculatus",
        "Category": "Fish"
    },
    {
        "Common Name (Animals)": "Dark-eyed junco",
        "Scientific Name": "Junco hyemalis",
        "Category": "Bird"
    },
    {
        "Common Name (Animals)": "Dark-sided salamander",
        "Scientific Name": "Eurycea longicauda melanopleura",
        "Category": "Amphibian"
    },
    {
        "Common Name (Animals)": "Deer mouse",
        "Scientific Name": "Peromyscus maniculatus",
        "Category": "Mammal"
    },
    {
        "Common Name (Animals)": "Devil crayfish",
        "Scientific Name": "Cambarus diogenes",
        "Category": "Crustacean"
    },
    {
        "Common Name (Animals)": "Dickcissel",
        "Scientific Name": "Spiza americana",
        "Category": "Bird"
    },
    {
        "Common Name (Animals)": "Double-crested cormorant",
        "Scientific Name": "Phalacrocorax auritus",
        "Category": "Bird"
    },
    {
        "Common Name (Animals)": "Downy woodpecker",
        "Scientific Name": "Picoides pubescens",
        "Category": "Bird"
    },
    {
        "Common Name (Animals)": "Dwarf American toad",
        "Scientific Name": "Bufo americanus charlesmithi",
        "Category": "Amphibian"
    },
    {
        "Common Name (Animals)": "Eastern bluebird",
        "Scientific Name": "Sialia sialis",
        "Category": "Bird"
    },
    {
        "Common Name (Animals)": "Eastern chipmunk",
        "Scientific Name": "Tamias striatus",
        "Category": "Mammal"
    },
    {
        "Common Name (Animals)": "Eastern coachwhip",
        "Scientific Name": "Masticophis flagellum flagellum",
        "Category": "Reptile"
    },
    {
        "Common Name (Animals)": "Eastern collared lizard",
        "Scientific Name": "Crotaphytus collaris collaris",
        "Category": "Reptiles"
    },
    {
        "Common Name (Animals)": "Eastern cottontail",
        "Scientific Name": "Sylvilagus floridanus",
        "Category": "Mammal"
    },
    {
        "Common Name (Animals)": "Eastern garter snake",
        "Scientific Name": "Thamnophis sirtalis sirtalis",
        "Category": "Reptile"
    },
    {
        "Common Name (Animals)": "Eastern gray treefrog",
        "Scientific Name": "Hyla versicolor",
        "Category": "Amphibian"
    },
    {
        "Common Name (Animals)": "Eastern hellbender",
        "Scientific Name": "Cryptobranchus alleganiensis alleganiensis",
        "Category": "Amphibian"
    },
    {
        "Common Name (Animals)": "Eastern hognose snake",
        "Scientific Name": "Heterodon platirhinos",
        "Category": "Reptile"
    },
    {
        "Common Name (Animals)": "Eastern kingbird",
        "Scientific Name": "Tyrannus tyrannus",
        "Category": "Bird"
    },
    {
        "Common Name (Animals)": "Eastern meadowlark",
        "Scientific Name": "Sturnella magna",
        "Category": "Bird"
    },
    {
        "Common Name (Animals)": "Eastern narrowmouth toad",
        "Scientific Name": "Gastrophryne carolinensis",
        "Category": "Amphibian"
    },
    {
        "Common Name (Animals)": "Eastern phoebe",
        "Scientific Name": "Sayornis phoebe",
        "Category": "Bird"
    },
    {
        "Common Name (Animals)": "Eastern pipistrelle",
        "Scientific Name": "Pipistrellus subflavus",
        "Category": "Mammal"
    },
    {
        "Common Name (Animals)": "Eastern screech-owl",
        "Scientific Name": "Otus asio",
        "Category": "Bird"
    },
    {
        "Common Name (Animals)": "Eastern small-footed myotis",
        "Scientific Name": "Myotis leibii",
        "Category": "Mammal"
    },
    {
        "Common Name (Animals)": "Eastern spiny softshell",
        "Scientific Name": "Apalone spinifer spinifer",
        "Category": "Reptile"
    },
    {
        "Common Name (Animals)": "Eastern tiger salamander",
        "Scientific Name": "Ambystoma tigrinum tigrinum",
        "Category": "Amphibian"
    },
    {
        "Common Name (Animals)": "Eastern towhee",
        "Scientific Name": "Pipilo erythrophthalmus",
        "Category": "Bird"
    },
    {
        "Common Name (Animals)": "Eastern wood rat",
        "Scientific Name": "Neotoma floridana",
        "Category": "Mammal"
    },
    {
        "Common Name (Animals)": "Eastern wood-pewee",
        "Scientific Name": "Contopus virens",
        "Category": "Bird"
    },
    {
        "Common Name (Animals)": "Eastern yellowbelly racer",
        "Scientific Name": "Coluber constrictor flaviventris",
        "Category": "Reptile"
    },
    {
        "Common Name (Animals)": "Elk",
        "Scientific Name": "Cervus elaphus",
        "Category": "Mammal"
    },
    {
        "Common Name (Animals)": "Elktoe",
        "Scientific Name": "Alasmidonta marginata",
        "Category": "Mollusk"
    },
    {
        "Common Name (Animals)": "Ellipse",
        "Scientific Name": "Venustaconcha ellipsiformis",
        "Category": "Mussel"
    },
    {
        "Common Name (Animals)": "European starling",
        "Scientific Name": "Sturnus vulgaris",
        "Category": "Bird"
    },
    {
        "Common Name (Animals)": "Evening grosbeak",
        "Scientific Name": "Coccothraustes vespertinus",
        "Category": "Bird"
    },
    {
        "Common Name (Animals)": "False map turtle",
        "Scientific Name": "Graptemys p. pseudogeographica",
        "Category": "Reptile"
    },
    {
        "Common Name (Animals)": "Fantail darter",
        "Scientific Name": "Etheostoma flabellare",
        "Category": "Fish"
    },
    {
        "Common Name (Animals)": "Fathead minnow",
        "Scientific Name": "Pimephales promelas",
        "Category": "Fish"
    },
    {
        "Common Name (Animals)": "Fatmucket or eastern lampmussel",
        "Scientific Name": "Lampsilis siliquoidea (=radiata)",
        "Category": "Mussel"
    },
    {
        "Common Name (Animals)": "Field sparrow",
        "Scientific Name": "Spizella pusila",
        "Category": "Bird"
    },
    {
        "Common Name (Animals)": "Five-lined skink",
        "Scientific Name": "Eumeces fasciatus",
        "Category": "Reptile"
    },
    {
        "Common Name (Animals)": "Flathead catfish",
        "Scientific Name": "Pylodictis olivaris",
        "Category": "Fish"
    },
    {
        "Common Name (Animals)": "Flathead snake",
        "Scientific Name": "Tantilla gracilis",
        "Category": "Reptile"
    },
    {
        "Common Name (Animals)": "Fluted-shell",
        "Scientific Name": "Lasmigona costata",
        "Category": "Mussel"
    },
    {
        "Common Name (Animals)": "Forster's tern",
        "Scientific Name": "Sterna forsteri",
        "Category": "Bird"
    },
    {
        "Common Name (Animals)": "Four-toed salamander",
        "Scientific Name": "Hemidactylium scutatum",
        "Category": "Amphibian"
    },
    {
        "Common Name (Animals)": "Fowler's toad",
        "Scientific Name": "Bufo woodhousei fowleri",
        "Category": "Amphibian"
    },
    {
        "Common Name (Animals)": "Fox sparrow",
        "Scientific Name": "Passerella iliaca",
        "Category": "Bird"
    },
    {
        "Common Name (Animals)": "Fragile papershell",
        "Scientific Name": "Leptodea fragilis",
        "Category": "Mussel"
    },
    {
        "Common Name (Animals)": "Freshwater drum",
        "Scientific Name": "Aplodinotus grunniens",
        "Category": "Fish"
    },
    {
        "Common Name (Animals)": "Gadwall",
        "Scientific Name": "Anas strepera",
        "Category": "Bird"
    },
    {
        "Common Name (Animals)": "Giant floater",
        "Scientific Name": "Pyganodon (=Anodonta) grandis",
        "Category": "Mussel"
    },
    {
        "Common Name (Animals)": "Gilt darter",
        "Scientific Name": "Percina evides",
        "Category": "Fish"
    },
    {
        "Common Name (Animals)": "Gizzard shad",
        "Scientific Name": "Dorosoma cepedianum",
        "Category": "Fish"
    },
    {
        "Common Name (Animals)": "Golden crayfish",
        "Scientific Name": "Orconectes luteus",
        "Category": "Crustacean"
    },
    {
        "Common Name (Animals)": "Golden eagle",
        "Scientific Name": "Aquila chrysaetos",
        "Category": "Bird"
    },
    {
        "Common Name (Animals)": "Golden mouse",
        "Scientific Name": "Ochrotomys nuttalli",
        "Category": "Mammal"
    },
    {
        "Common Name (Animals)": "Golden redhorse",
        "Scientific Name": "Moxostoma erythrurum",
        "Category": "Fish"
    },
    {
        "Common Name (Animals)": "Golden shiner",
        "Scientific Name": "Notemigonus crysoleucas",
        "Category": "Fish"
    },
    {
        "Common Name (Animals)": "Golden-crowned kinglet",
        "Scientific Name": "Regulus satrapa",
        "Category": "Bird"
    },
    {
        "Common Name (Animals)": "Golden-winged warbler",
        "Scientific Name": "Vermivora chrysoptera",
        "Category": "Bird"
    },
    {
        "Common Name (Animals)": "Goldfish",
        "Scientific Name": "Carassius auratus",
        "Category": "Fish"
    },
    {
        "Common Name (Animals)": "Grasshopper sparrow",
        "Scientific Name": "Ammodramus savannarum",
        "Category": "Bird"
    },
    {
        "Common Name (Animals)": "Gravel chub",
        "Scientific Name": "Erimystax x-punctatus",
        "Category": "Fish"
    },
    {
        "Common Name (Animals)": "Gray bat",
        "Scientific Name": "Myotis grisecens",
        "Category": "Mammal"
    },
    {
        "Common Name (Animals)": "Gray catbird",
        "Scientific Name": "Dumetella carolinensis",
        "Category": "Bird"
    },
    {
        "Common Name (Animals)": "Gray wolf",
        "Scientific Name": "Canis lupus",
        "Category": "Mammal"
    },
    {
        "Common Name (Animals)": "Graybelly salamander",
        "Scientific Name": "Eurycea multiplicata griseogaster",
        "Category": "Amphibian"
    },
    {
        "Common Name (Animals)": "Gray-cheeked thrush",
        "Scientific Name": "Catharus minimus",
        "Category": "Bird"
    },
    {
        "Common Name (Animals)": "Great blue heron",
        "Scientific Name": "Ardea herodias",
        "Category": "Bird"
    },
    {
        "Common Name (Animals)": "Great crested flycatcher",
        "Scientific Name": "Myiarchus crinitus",
        "Category": "Bird"
    },
    {
        "Common Name (Animals)": "Great egret",
        "Scientific Name": "Ardea albus",
        "Category": "Bird"
    },
    {
        "Common Name (Animals)": "Great horned owl",
        "Scientific Name": "Bubo virginianus",
        "Category": "Bird"
    },
    {
        "Common Name (Animals)": "Great Plains rat snake",
        "Scientific Name": "Elaphe guttata emoryi",
        "Category": "Reptile"
    },
    {
        "Common Name (Animals)": "Greater yellowlegs",
        "Scientific Name": "Tringa melanoleuca",
        "Category": "Bird"
    },
    {
        "Common Name (Animals)": "Green frog",
        "Scientific Name": "Rana clamitans melanota",
        "Category": "Amphibian"
    },
    {
        "Common Name (Animals)": "Green heron",
        "Scientific Name": "Butorides virescens",
        "Category": "Bird"
    },
    {
        "Common Name (Animals)": "Green sunfish",
        "Scientific Name": "Lepomis cyanellus",
        "Category": "Fish"
    },
    {
        "Common Name (Animals)": "Greenside darter",
        "Scientific Name": "Etheostoma blennioides",
        "Category": "Fish"
    },
    {
        "Common Name (Animals)": "Green-winged teal",
        "Scientific Name": "Anas crecca",
        "Category": "Bird"
    },
    {
        "Common Name (Animals)": "Grotto salamander",
        "Scientific Name": "Typhlotriton spelaeus",
        "Category": "Amphibian"
    },
    {
        "Common Name (Animals)": "Ground skink",
        "Scientific Name": "Scincella lateralis",
        "Category": "Reptile"
    },
    {
        "Common Name (Animals)": "Hairy woodpecker",
        "Scientific Name": "Picoides villosus",
        "Category": "Bird"
    },
    {
        "Common Name (Animals)": "Henslow's sparrow",
        "Scientific Name": "Ammodramus henslowii",
        "Category": "Bird"
    },
    {
        "Common Name (Animals)": "Hermit thrush",
        "Scientific Name": "Catharus guttatus",
        "Category": "Bird"
    },
    {
        "Common Name (Animals)": "Herring gull",
        "Scientific Name": "Larus argentatus",
        "Category": "Bird"
    },
    {
        "Common Name (Animals)": "Highfin carpsucker",
        "Scientific Name": "Carpiodes velifer",
        "Category": "Fish"
    },
    {
        "Common Name (Animals)": "Hooded merganser",
        "Scientific Name": "Lophodytes cucullatus",
        "Category": "Bird"
    },
    {
        "Common Name (Animals)": "Hooded warbler",
        "Scientific Name": "Wilsonia citrina",
        "Category": "Bird"
    },
    {
        "Common Name (Animals)": "Horned grebe",
        "Scientific Name": "Podiceps auritus",
        "Category": "Bird"
    },
    {
        "Common Name (Animals)": "Horned lark",
        "Scientific Name": "Eremophila alpestris",
        "Category": "Bird"
    },
    {
        "Common Name (Animals)": "Hornyhead chub",
        "Scientific Name": "Nocomis biguttatus",
        "Category": "Fish"
    },
    {
        "Common Name (Animals)": "House sparrow",
        "Scientific Name": "Passera domesticus",
        "Category": "Bird"
    },
    {
        "Common Name (Animals)": "House wren",
        "Scientific Name": "Troglodytes aedon",
        "Category": "Bird"
    },
    {
        "Common Name (Animals)": "Hybrid sunfish",
        "Scientific Name": "Lepomis sp.",
        "Category": "Fish"
    },
    {
        "Common Name (Animals)": "Indiana bat",
        "Scientific Name": "Myotis sodalis",
        "Category": "Mammal"
    },
    {
        "Common Name (Animals)": "Indigo bunting",
        "Scientific Name": "Passerina cyanea",
        "Category": "Bird"
    },
    {
        "Common Name (Animals)": "Kentucky warbler",
        "Scientific Name": "Oporornis formosus",
        "Category": "Bird"
    },
    {
        "Common Name (Animals)": "Killdeer",
        "Scientific Name": "Charadrius vociferus",
        "Category": "Bird"
    },
    {
        "Common Name (Animals)": "Largemouth bass",
        "Scientific Name": "Micropterus salmoides",
        "Category": "Fish"
    },
    {
        "Common Name (Animals)": "Largescale stoneroller",
        "Scientific Name": "Campostoma oligolepis",
        "Category": "Fish"
    },
    {
        "Common Name (Animals)": "Lark sparrow",
        "Scientific Name": "Chondestes grammacus",
        "Category": "Bird"
    },
    {
        "Common Name (Animals)": "Laughing gull",
        "Scientific Name": "Larus atricilla",
        "Category": "Bird"
    },
    {
        "Common Name (Animals)": "Least flycatcher",
        "Scientific Name": "Empidonax minimus",
        "Category": "Bird"
    },
    {
        "Common Name (Animals)": "Least sandpiper",
        "Scientific Name": "Calidris minutilla",
        "Category": "Bird"
    },
    {
        "Common Name (Animals)": "Lesser scaup",
        "Scientific Name": "Aythya affinis",
        "Category": "Bird"
    },
    {
        "Common Name (Animals)": "Lesser yellowlegs",
        "Scientific Name": "Tringa flavipes",
        "Category": "Bird"
    },
    {
        "Common Name (Animals)": "Little brown bat",
        "Scientific Name": "Myotis lucifugus",
        "Category": "Mammal"
    },
    {
        "Common Name (Animals)": "Loggerhead shrike",
        "Scientific Name": "Lanius ludovicianus",
        "Category": "Bird"
    },
    {
        "Common Name (Animals)": "Logperch",
        "Scientific Name": "Percina caprodes",
        "Category": "Fish"
    },
    {
        "Common Name (Animals)": "Longear sunfish",
        "Scientific Name": "Lepomis megalotis",
        "Category": "Fish"
    },
    {
        "Common Name (Animals)": "Longnose gar",
        "Scientific Name": "Lepisosteus osseus",
        "Category": "Fish"
    },
    {
        "Common Name (Animals)": "Long-tailed weasel",
        "Scientific Name": "Mustela frenata",
        "Category": "Mammal"
    },
    {
        "Common Name (Animals)": "Louisiana waterthrush",
        "Scientific Name": "Seiurus motacilla",
        "Category": "Bird"
    },
    {
        "Common Name (Animals)": "Magnolia warbler",
        "Scientific Name": "Dendroica magnolia",
        "Category": "Bird"
    },
    {
        "Common Name (Animals)": "Mallard",
        "Scientific Name": "Anas platyrhynchos",
        "Category": "Bird"
    },
    {
        "Common Name (Animals)": "Marbled salamander",
        "Scientific Name": "Ambystoma opacum",
        "Category": "Amphibian"
    },
    {
        "Common Name (Animals)": "Marsh wren",
        "Scientific Name": "Cistothorus palustris",
        "Category": "Bird"
    },
    {
        "Common Name (Animals)": "Merlin",
        "Scientific Name": "Falco columbarius",
        "Category": "Bird"
    },
    {
        "Common Name (Animals)": "Midland brown snake",
        "Scientific Name": "Storeria dekayi wrightorum",
        "Category": "Reptile"
    },
    {
        "Common Name (Animals)": "Midland smooth softshell",
        "Scientific Name": "Apalone muticus muticus",
        "Category": "Reptile"
    },
    {
        "Common Name (Animals)": "Mink",
        "Scientific Name": "Mustela vison",
        "Category": "Mammal"
    },
    {
        "Common Name (Animals)": "Missouri River cooter",
        "Scientific Name": "Pseudemys concinna metteri",
        "Category": "Reptile"
    },
    {
        "Common Name (Animals)": "Missouri saddled darter",
        "Scientific Name": "Etheostoma tetrazonum",
        "Category": "Fish"
    },
    {
        "Common Name (Animals)": "Monkeyface",
        "Scientific Name": "Quadrula metanevra",
        "Category": "Mussel"
    },
    {
        "Common Name (Animals)": "Mooneye",
        "Scientific Name": "Hiodon tergisus",
        "Category": "Fish"
    },
    {
        "Common Name (Animals)": "Mosquitofish",
        "Scientific Name": "Gambusia affinis",
        "Category": "Fish"
    },
    {
        "Common Name (Animals)": "Mountain lion",
        "Scientific Name": "Felis concolor",
        "Category": "Mammal"
    },
    {
        "Common Name (Animals)": "Mourning dove",
        "Scientific Name": "Zenaida macroura",
        "Category": "Bird"
    },
    {
        "Common Name (Animals)": "Mourning warbler",
        "Scientific Name": "Oporornis philadelphia",
        "Category": "Bird"
    },
    {
        "Common Name (Animals)": "Mucket",
        "Scientific Name": "Actinonaias ligamentina",
        "Category": "Mussel"
    },
    {
        "Common Name (Animals)": "Mudpuppy",
        "Scientific Name": "Necturus maculosus",
        "Category": "Amphibian"
    },
    {
        "Common Name (Animals)": "Muskrat",
        "Scientific Name": "Ondatra zibethicus",
        "Category": "Mammal"
    },
    {
        "Common Name (Animals)": "Nashville warbler",
        "Scientific Name": "Vermivora ruficapilla",
        "Category": "Bird"
    },
    {
        "Common Name (Animals)": "Northen spring peeper",
        "Scientific Name": "Hyla crucifer crucifer",
        "Category": "Amphibian"
    },
    {
        "Common Name (Animals)": "Northern bobwhite",
        "Scientific Name": "Colinus virginianus",
        "Category": "Bird"
    },
    {
        "Common Name (Animals)": "Northern broken-ray",
        "Scientific Name": "Lampsilis reeviana brittsi",
        "Category": "Mussel"
    },
    {
        "Common Name (Animals)": "Northern brook lamprey",
        "Scientific Name": "Ichthyomyzon fossor",
        "Category": "Fish"
    },
    {
        "Common Name (Animals)": "Northern cardinal",
        "Scientific Name": "Cardinalis cardinalis",
        "Category": "Bird"
    },
    {
        "Common Name (Animals)": "Northern fence lizard",
        "Scientific Name": "Sceloporus undulatus hyacinthinus",
        "Category": "Reptile"
    },
    {
        "Common Name (Animals)": "Northern flicker",
        "Scientific Name": "Colaptes auratus",
        "Category": "Bird"
    },
    {
        "Common Name (Animals)": "Northern harrier",
        "Scientific Name": "Circus cyaneus",
        "Category": "Bird"
    },
    {
        "Common Name (Animals)": "Northern hog sucker",
        "Scientific Name": "Hypentelium nigricans",
        "Category": "Fish"
    },
    {
        "Common Name (Animals)": "Northern mockingbird",
        "Scientific Name": "Mimus polyglottos",
        "Category": "Bird"
    },
    {
        "Common Name (Animals)": "Northern parula",
        "Scientific Name": "Parula americana",
        "Category": "Bird"
    },
    {
        "Common Name (Animals)": "Northern pintail",
        "Scientific Name": "Anas acuta",
        "Category": "Bird"
    },
    {
        "Common Name (Animals)": "Northern redbelly snake",
        "Scientific Name": "Storeria occipitomaculata occipitomaculata",
        "Category": "Reptile"
    },
    {
        "Common Name (Animals)": "Northern rough-winged swallow",
        "Scientific Name": "Stelgidopteryx serripennis",
        "Category": "Bird"
    },
    {
        "Common Name (Animals)": "Northern scarlet snake",
        "Scientific Name": "Cemophora coccinea copei",
        "Category": "Reptiles"
    },
    {
        "Common Name (Animals)": "Northern shoveler",
        "Scientific Name": "Anas clypeata",
        "Category": "Bird"
    },
    {
        "Common Name (Animals)": "Northern studfish",
        "Scientific Name": "Fundulus catenatus",
        "Category": "Fish"
    },
    {
        "Common Name (Animals)": "Northern water snake",
        "Scientific Name": "Nerodia sipedon sipedon",
        "Category": "Reptile"
    },
    {
        "Common Name (Animals)": "Northern waterthrush",
        "Scientific Name": "Seiurus noveboracensis",
        "Category": "Bird"
    },
    {
        "Common Name (Animals)": "Onondaga cave amphipod",
        "Scientific Name": "Stygobromus onondagaensis",
        "Category": "Crustacean"
    },
    {
        "Common Name (Animals)": "Orange-crowned warbler",
        "Scientific Name": "Vermicora celata",
        "Category": "Bird"
    },
    {
        "Common Name (Animals)": "Orangespotted sunfish",
        "Scientific Name": "Lepomis humilis",
        "Category": "Fish"
    },
    {
        "Common Name (Animals)": "Orangethroat darter",
        "Scientific Name": "Etheostoma spectabile",
        "Category": "Fish"
    },
    {
        "Common Name (Animals)": "Orchard oriole",
        "Scientific Name": "Icterus spurius",
        "Category": "Bird"
    },
    {
        "Common Name (Animals)": "Ornate box turtle",
        "Scientific Name": "Terrapene ornata ornata",
        "Category": "Reptile"
    },
    {
        "Common Name (Animals)": "Osage copperhead",
        "Scientific Name": "Agkistrodon contortrix phaeogaster",
        "Category": "Reptile"
    },
    {
        "Common Name (Animals)": "Osprey",
        "Scientific Name": "Pandion haliaetus",
        "Category": "Bird"
    },
    {
        "Common Name (Animals)": "Ouachita kidneyshell",
        "Scientific Name": "Ptychobranchus occidentalis",
        "Category": "Mussel"
    },
    {
        "Common Name (Animals)": "Ovenbird",
        "Scientific Name": "Seiurus aurocapillus",
        "Category": "Bird"
    },
    {
        "Common Name (Animals)": "Ozark broken-ray",
        "Scientific Name": "Lampsilis reeviana brevicula",
        "Category": "Mussel"
    },
    {
        "Common Name (Animals)": "Ozark minnow",
        "Scientific Name": "Notropis nubilus",
        "Category": "Fish"
    },
    {
        "Common Name (Animals)": "Ozark pigtoe",
        "Scientific Name": "Fusconaia ozarkensis",
        "Category": "Mussel"
    },
    {
        "Common Name (Animals)": "Ozark sculpin",
        "Scientific Name": "Cottus hypselurus",
        "Category": "Fish"
    },
    {
        "Common Name (Animals)": "Palm warbler",
        "Scientific Name": "Dendroica palmarum",
        "Category": "Bird"
    },
    {
        "Common Name (Animals)": "Paper pondshell",
        "Scientific Name": "Utterbackia (=Anodonta) imbecillis",
        "Category": "Mussel"
    },
    {
        "Common Name (Animals)": "Pickerel frog",
        "Scientific Name": "Rana palustris",
        "Category": "Amphibian"
    },
    {
        "Common Name (Animals)": "Pied-billed grebe",
        "Scientific Name": "Podilymbus podiceps",
        "Category": "Bird"
    },
    {
        "Common Name (Animals)": "Pileated woodpecker",
        "Scientific Name": "Dryocopus pileatus",
        "Category": "Bird"
    },
    {
        "Common Name (Animals)": "Pimpleback",
        "Scientific Name": "Quadrula pustulosa",
        "Category": "Mussel"
    },
    {
        "Common Name (Animals)": "Pine warbler",
        "Scientific Name": "Dendroica pinus",
        "Category": "Bird"
    },
    {
        "Common Name (Animals)": "Pink heelsplitter",
        "Scientific Name": "Potamilus alatus",
        "Category": "Mussel"
    },
    {
        "Common Name (Animals)": "Pistolgrip",
        "Scientific Name": "Tritogonia verrucosa",
        "Category": "Mussel"
    },
    {
        "Common Name (Animals)": "Plain pocketbook",
        "Scientific Name": "Lampsilis cardium",
        "Category": "Mussel"
    },
    {
        "Common Name (Animals)": "Plains topminnow",
        "Scientific Name": "Fundulus sciadicus",
        "Category": "Fish"
    },
    {
        "Common Name (Animals)": "Pondmussel",
        "Scientific Name": "Ligumia subrostrata",
        "Category": "Mussel"
    },
    {
        "Common Name (Animals)": "Prairie kingsnake",
        "Scientific Name": "Lampropeltis calligaster calligaster",
        "Category": "Reptile"
    },
    {
        "Common Name (Animals)": "Prairie racerunner",
        "Scientific Name": "Cnemidophorus sexlineatus viridis",
        "Category": "Reptile"
    },
    {
        "Common Name (Animals)": "Prairie ringneck snake",
        "Scientific Name": "Diadophis punctatus arnyi",
        "Category": "Reptile"
    },
    {
        "Common Name (Animals)": "Prairie vole",
        "Scientific Name": "Microtus ochrogaster",
        "Category": "Mammal"
    },
    {
        "Common Name (Animals)": "Prairie warbler",
        "Scientific Name": "Dendroica discolor",
        "Category": "Bird"
    },
    {
        "Common Name (Animals)": "Prothonotary warbler",
        "Scientific Name": "Protonotaria citrea",
        "Category": "Bird"
    },
    {
        "Common Name (Animals)": "Purple finch",
        "Scientific Name": "Carpodacus purpureus",
        "Category": "Bird"
    },
    {
        "Common Name (Animals)": "Purple martin",
        "Scientific Name": "Progne subis",
        "Category": "Bird"
    },
    {
        "Common Name (Animals)": "Purple wartyback",
        "Scientific Name": "Cyclonaias tuberculata",
        "Category": "Mussel"
    },
    {
        "Common Name (Animals)": "Quillback",
        "Scientific Name": "Carpiodes cyprinus",
        "Category": "Fish"
    },
    {
        "Common Name (Animals)": "Raccoon",
        "Scientific Name": "Procyon lotor",
        "Category": "Mammal"
    },
    {
        "Common Name (Animals)": "Rainbow darter",
        "Scientific Name": "Etheostoma caeruleum",
        "Category": "Fish"
    },
    {
        "Common Name (Animals)": "Rainbow trout",
        "Scientific Name": "Oncorhynchus mykiss",
        "Category": "Fish"
    },
    {
        "Common Name (Animals)": "Red milk snake",
        "Scientific Name": "Lampropeltis triangulum syspila",
        "Category": "Reptile"
    },
    {
        "Common Name (Animals)": "Red-bellied woodpecker",
        "Scientific Name": "Melanerpes carolinus",
        "Category": "Bird"
    },
    {
        "Common Name (Animals)": "Red-breasted nuthatch",
        "Scientific Name": "Sitta canadensis",
        "Category": "Bird"
    },
    {
        "Common Name (Animals)": "Red-eared slider",
        "Scientific Name": "Trachemys scripta elegans",
        "Category": "Reptile"
    },
    {
        "Common Name (Animals)": "Red-eyed vireo",
        "Scientific Name": "Vireo olivaceus",
        "Category": "Bird"
    },
    {
        "Common Name (Animals)": "Redfin shiner",
        "Scientific Name": "Lythrurus umbratilis",
        "Category": "Fish"
    },
    {
        "Common Name (Animals)": "Redhead",
        "Scientific Name": "Aythya americana",
        "Category": "Bird"
    },
    {
        "Common Name (Animals)": "Red-headed woodpecker",
        "Scientific Name": "Melanerpes erythrocephalus",
        "Category": "Bird"
    },
    {
        "Common Name (Animals)": "Redhorse sp.",
        "Scientific Name": "Moxostoma sp.",
        "Category": "Fish"
    },
    {
        "Common Name (Animals)": "Red-shouldered hawk",
        "Scientific Name": "Buteo lineatus",
        "Category": "Bird"
    },
    {
        "Common Name (Animals)": "Red-tailed hawk",
        "Scientific Name": "Buteo jamaicensis",
        "Category": "Bird"
    },
    {
        "Common Name (Animals)": "Red-winged blackbird",
        "Scientific Name": "Agelaius phoeniceus",
        "Category": "Bird"
    },
    {
        "Common Name (Animals)": "Ringed salamander",
        "Scientific Name": "Ambystoma annulatum",
        "Category": "Amphibian"
    },
    {
        "Common Name (Animals)": "Ring-necked duck",
        "Scientific Name": "Aythya collaris",
        "Category": "Bird"
    },
    {
        "Common Name (Animals)": "River carpsucker",
        "Scientific Name": "Carpiodes carpio",
        "Category": "Fish"
    },
    {
        "Common Name (Animals)": "River redhorse",
        "Scientific Name": "Moxostoma carinatum",
        "Category": "Fish"
    },
    {
        "Common Name (Animals)": "Rock bass",
        "Scientific Name": "Ambloplites rupestris",
        "Category": "Fish"
    },
    {
        "Common Name (Animals)": "Rock dove",
        "Scientific Name": "Columba livia",
        "Category": "Bird"
    },
    {
        "Common Name (Animals)": "Rose-breasted grosbeak",
        "Scientific Name": "Pheucticus ludovicianus",
        "Category": "Bird"
    },
    {
        "Common Name (Animals)": "Rosyface shiner",
        "Scientific Name": "Notropis rubellus",
        "Category": "Fish"
    },
    {
        "Common Name (Animals)": "Rough earth snake",
        "Scientific Name": "Virginia striatula",
        "Category": "Reptile"
    },
    {
        "Common Name (Animals)": "Rough green snake",
        "Scientific Name": "Opheodrys aestivus",
        "Category": "Reptile"
    },
    {
        "Common Name (Animals)": "Round pigtoe",
        "Scientific Name": "Pleurobema coccineum",
        "Category": "Mussel"
    },
    {
        "Common Name (Animals)": "Ruby-crowned kinglet",
        "Scientific Name": "Regulus calendula",
        "Category": "Bird"
    },
    {
        "Common Name (Animals)": "Ruby-throated hummingbird",
        "Scientific Name": "Archilochus colubris",
        "Category": "Bird"
    },
    {
        "Common Name (Animals)": "Ruddy duck",
        "Scientific Name": "Oxyura jamaicensis",
        "Category": "Bird"
    },
    {
        "Common Name (Animals)": "Ruffed grouse",
        "Scientific Name": "Bonasa umbellus",
        "Category": "Bird"
    },
    {
        "Common Name (Animals)": "Salem cave crayfish",
        "Scientific Name": "Cambarus hubrichti",
        "Category": "Crustacean"
    },
    {
        "Common Name (Animals)": "Sand shiner",
        "Scientific Name": "Notropis stramineus",
        "Category": "Fish"
    },
    {
        "Common Name (Animals)": "Savannah sparrow",
        "Scientific Name": "Passerculus sandwichensis",
        "Category": "Bird"
    },
    {
        "Common Name (Animals)": "Scarlet tanager",
        "Scientific Name": "Piranga olivacea",
        "Category": "Bird"
    },
    {
        "Common Name (Animals)": "Scissor-tailed flycatcher",
        "Scientific Name": "Tyrannus forficatus",
        "Category": "Bird"
    },
    {
        "Common Name (Animals)": "Sedge wren",
        "Scientific Name": "Cistothorus platensis",
        "Category": "Bird"
    },
    {
        "Common Name (Animals)": "Semipalmated sandpiper",
        "Scientific Name": "Calidris pusilla",
        "Category": "Bird"
    },
    {
        "Common Name (Animals)": "Sharp-shinned hawk",
        "Scientific Name": "Accipiter striatus",
        "Category": "Bird"
    },
    {
        "Common Name (Animals)": "Shorthead redhorse",
        "Scientific Name": "Moxostoma macrolepidotum",
        "Category": "Fish"
    },
    {
        "Common Name (Animals)": "Shortnose gar",
        "Scientific Name": "Lepisosteus platostomus",
        "Category": "Fish"
    },
    {
        "Common Name (Animals)": "Silver redhorse",
        "Scientific Name": "Moxostoma anisurum",
        "Category": "Fish"
    },
    {
        "Common Name (Animals)": "Skipjack herring",
        "Scientific Name": "Alosa chrysochloris",
        "Category": "Fish"
    },
    {
        "Common Name (Animals)": "Slender madtom",
        "Scientific Name": "Noturus exilis",
        "Category": "Fish"
    },
    {
        "Common Name (Animals)": "Slenderhead darter",
        "Scientific Name": "Percina phoxocephala",
        "Category": "Fish"
    },
    {
        "Common Name (Animals)": "Slippershell mussel",
        "Scientific Name": "Alasmidonta viridis",
        "Category": "Mussel"
    },
    {
        "Common Name (Animals)": "Smallmouth bass",
        "Scientific Name": "Micropterus dolomieu",
        "Category": "Fish"
    },
    {
        "Common Name (Animals)": "Smallmouth buffalo",
        "Scientific Name": "Ictiobus bubalus",
        "Category": "Fish"
    },
    {
        "Common Name (Animals)": "Snow goose",
        "Scientific Name": "Chen caerulescens",
        "Category": "Bird"
    },
    {
        "Common Name (Animals)": "Snowy egret",
        "Scientific Name": "Egretta thula",
        "Category": "Bird"
    },
    {
        "Common Name (Animals)": "Softshell turtles",
        "Scientific Name": "Trionyx spp.",
        "Category": "Reptile"
    },
    {
        "Common Name (Animals)": "Solitary vireo",
        "Scientific Name": "Vireo solitarius",
        "Category": "Bird"
    },
    {
        "Common Name (Animals)": "Song sparrow",
        "Scientific Name": "Melospiza melodia",
        "Category": "Bird"
    },
    {
        "Common Name (Animals)": "Sora",
        "Scientific Name": "Porzana carolina",
        "Category": "Bird"
    },
    {
        "Common Name (Animals)": "Southern coal skink",
        "Scientific Name": "Eumeces anthracinus pluvialis",
        "Category": "Reptile"
    },
    {
        "Common Name (Animals)": "Southern leopard frog",
        "Scientific Name": "Rana utricularia",
        "Category": "Amphibian"
    },
    {
        "Common Name (Animals)": "Southern redback salamander",
        "Scientific Name": "Plethodon serratus",
        "Category": "Amphibian"
    },
    {
        "Common Name (Animals)": "Southern redbelly dace",
        "Scientific Name": "Phoxinus erythrogaster",
        "Category": "Fish"
    },
    {
        "Common Name (Animals)": "Speckled kingsnake",
        "Scientific Name": "Lampropeltis getula holbrooki",
        "Category": "Reptile"
    },
    {
        "Common Name (Animals)": "Spectaclecase",
        "Scientific Name": "Cumberlandia monodonta",
        "Category": "Mollusk"
    },
    {
        "Common Name (Animals)": "Spike",
        "Scientific Name": "Elliptio dilatata",
        "Category": "Mussel"
    },
    {
        "Common Name (Animals)": "Spotfin shiner",
        "Scientific Name": "Cyprinella spiloptera",
        "Category": "Fish"
    },
    {
        "Common Name (Animals)": "Spothanded crayfish",
        "Scientific Name": "Orconectes punctimanus",
        "Category": "Crustacean"
    },
    {
        "Common Name (Animals)": "Spotted bass",
        "Scientific Name": "Micropterus punctulatus",
        "Category": "Fish"
    },
    {
        "Common Name (Animals)": "Spotted salamander",
        "Scientific Name": "Ambystoma maculatum",
        "Category": "Amphibian"
    },
    {
        "Common Name (Animals)": "Spotted sandpiper",
        "Scientific Name": "Actitis macularia",
        "Category": "Bird"
    },
    {
        "Common Name (Animals)": "Squawfoot",
        "Scientific Name": "Strophitus undulatus",
        "Category": "Mussel"
    },
    {
        "Common Name (Animals)": "Stippled darter",
        "Scientific Name": "Etheostoma punctulatum",
        "Category": "Fish"
    },
    {
        "Common Name (Animals)": "Stonecat",
        "Scientific Name": "Noturus flavus",
        "Category": "Fish"
    },
    {
        "Common Name (Animals)": "Striped shiner",
        "Scientific Name": "Luxilus chrysocephalus",
        "Category": "Fish"
    },
    {
        "Common Name (Animals)": "Striped skunk",
        "Scientific Name": "Mephitis mephitis",
        "Category": "Mammal"
    },
    {
        "Common Name (Animals)": "Summer tanager",
        "Scientific Name": "Piranga rubra",
        "Category": "Bird"
    },
    {
        "Common Name (Animals)": "Swainson's thrush",
        "Scientific Name": "Catharus ustulatus",
        "Category": "Bird"
    },
    {
        "Common Name (Animals)": "Swainson's warbler",
        "Scientific Name": "Limnothlypis swainsonii",
        "Category": "Bird"
    },
    {
        "Common Name (Animals)": "Tennessee warbler",
        "Scientific Name": "Vermivora peregrina",
        "Category": "Bird"
    },
    {
        "Common Name (Animals)": "Threehorn wartyback",
        "Scientific Name": "Obliquaria reflexa",
        "Category": "Mussel"
    },
    {
        "Common Name (Animals)": "Threeridge",
        "Scientific Name": "Amblema plicata",
        "Category": "Mussel"
    },
    {
        "Common Name (Animals)": "Three-toed box turtle",
        "Scientific Name": "Terrapene carolina triunguis",
        "Category": "Reptile"
    },
    {
        "Common Name (Animals)": "Timber rattlesnake",
        "Scientific Name": "Crotalus horridus",
        "Category": "Reptile"
    },
    {
        "Common Name (Animals)": "Tree swallow",
        "Scientific Name": "Tachycineta bicolor",
        "Category": "Bird"
    },
    {
        "Common Name (Animals)": "Tufted titmouse",
        "Scientific Name": "Parus bicolor",
        "Category": "Bird"
    },
    {
        "Common Name (Animals)": "Tundra swan",
        "Scientific Name": "Cygnus columbianus",
        "Category": "Bird"
    },
    {
        "Common Name (Animals)": "Turkey vulture",
        "Scientific Name": "Cathartes aura",
        "Category": "Bird"
    },
    {
        "Common Name (Animals)": "Unknown minnow",
        "Scientific Name": "Cyprinidae sp.",
        "Category": "Fish"
    },
    {
        "Common Name (Animals)": "Veery",
        "Scientific Name": "Catharus fuscescens",
        "Category": "Bird"
    },
    {
        "Common Name (Animals)": "Virginia rail",
        "Scientific Name": "Rallus limicola",
        "Category": "Bird"
    },
    {
        "Common Name (Animals)": "Wabash pigtoe",
        "Scientific Name": "Fusconaia flava",
        "Category": "Mussel"
    },
    {
        "Common Name (Animals)": "Walleye",
        "Scientific Name": "Stizostedion vitreum",
        "Category": "Fish"
    },
    {
        "Common Name (Animals)": "Warbling vireo",
        "Scientific Name": "Vireo gilvus",
        "Category": "Bird"
    },
    {
        "Common Name (Animals)": "Wedgespot shiner",
        "Scientific Name": "Notropis greenei",
        "Category": "Fish"
    },
    {
        "Common Name (Animals)": "Western chorus frog",
        "Scientific Name": "Pseudacris triseriata triseriata",
        "Category": "Amphibian"
    },
    {
        "Common Name (Animals)": "Western cottonmouth",
        "Scientific Name": "Agkistrodon piscivorus leucostoma",
        "Category": "Reptile"
    },
    {
        "Common Name (Animals)": "Western earth snake",
        "Scientific Name": "Virginia valeriae elegans",
        "Category": "Reptile"
    },
    {
        "Common Name (Animals)": "Western painted turtle",
        "Scientific Name": "Chrysemys picta bellii",
        "Category": "Reptile"
    },
    {
        "Common Name (Animals)": "Western ribbon snake",
        "Scientific Name": "Thamnophis proximus proximus",
        "Category": "Reptile"
    },
    {
        "Common Name (Animals)": "Western slender glass lizard",
        "Scientific Name": "Ophisaurus attenuatus attenuatus",
        "Category": "Reptile"
    },
    {
        "Common Name (Animals)": "Western slimy salamander",
        "Scientific Name": "Plethodon albagula",
        "Category": "Amphibian"
    },
    {
        "Common Name (Animals)": "Western spiny softshell",
        "Scientific Name": "Apalone spinifera hartwegi",
        "Category": "Reptile"
    },
    {
        "Common Name (Animals)": "Western worm snake",
        "Scientific Name": "Carphophis vermis",
        "Category": "Reptile"
    },
    {
        "Common Name (Animals)": "Whip-poor-will",
        "Scientific Name": "Caprimulgus vociferus",
        "Category": "Bird"
    },
    {
        "Common Name (Animals)": "White crappie",
        "Scientific Name": "Pomoxis annularis",
        "Category": "Fish"
    },
    {
        "Common Name (Animals)": "White sucker",
        "Scientific Name": "Catostomus commersoni",
        "Category": "Fish"
    },
    {
        "Common Name (Animals)": "White-breasted nuthatch",
        "Scientific Name": "Sitta carolinensis",
        "Category": "Bird"
    },
    {
        "Common Name (Animals)": "White-crowned sparrow",
        "Scientific Name": "Zonotrichia leucophrys",
        "Category": "Bird"
    },
    {
        "Common Name (Animals)": "White-eyed vireo",
        "Scientific Name": "Vireo griseus",
        "Category": "Bird"
    },
    {
        "Common Name (Animals)": "White-footed mouse",
        "Scientific Name": "Peromyscus leucopus",
        "Category": "Mammal"
    },
    {
        "Common Name (Animals)": "White-tailed deer",
        "Scientific Name": "Odocoileus virginianus",
        "Category": "Mammal"
    },
    {
        "Common Name (Animals)": "White-throated sparrow",
        "Scientific Name": "Zonotrichia albicollis",
        "Category": "Bird"
    },
    {
        "Common Name (Animals)": "Wild turkey",
        "Scientific Name": "Meleagris gallopavo",
        "Category": "Bird"
    },
    {
        "Common Name (Animals)": "Willow flycatcher",
        "Scientific Name": "Empidonax traillii",
        "Category": "Bird"
    },
    {
        "Common Name (Animals)": "Wilson's phalarope",
        "Scientific Name": "Phalaropus tricolor",
        "Category": "Bird"
    },
    {
        "Common Name (Animals)": "Wilson's warbler",
        "Scientific Name": "Wilsonia pusilla",
        "Category": "Bird"
    },
    {
        "Common Name (Animals)": "Winter wren",
        "Scientific Name": "Troglodytes troglodytes",
        "Category": "Bird"
    },
    {
        "Common Name (Animals)": "Wood duck",
        "Scientific Name": "Aix sponsa",
        "Category": "Bird"
    },
    {
        "Common Name (Animals)": "Wood thrush",
        "Scientific Name": "Hylocichla mustelina",
        "Category": "Bird"
    },
    {
        "Common Name (Animals)": "Worm-eating warbler",
        "Scientific Name": "Helmitheros vermivorus",
        "Category": "Bird"
    },
    {
        "Common Name (Animals)": "Yellow bullhead",
        "Scientific Name": "Ameiurus natalis",
        "Category": "Fish"
    },
    {
        "Common Name (Animals)": "Yellow sandshell",
        "Scientific Name": "Lampsilis teres",
        "Category": "Mussel"
    },
    {
        "Common Name (Animals)": "Yellow warbler",
        "Scientific Name": "Dendroica petechia",
        "Category": "Bird"
    },
    {
        "Common Name (Animals)": "Yellow-bellied sapsucker",
        "Scientific Name": "Sphyrapicus varius",
        "Category": "Bird"
    },
    {
        "Common Name (Animals)": "Yellow-billed cuckoo",
        "Scientific Name": "Coccyzus americanus",
        "Category": "Bird"
    },
    {
        "Common Name (Animals)": "Yellow-breasted chat",
        "Scientific Name": "Icteria virens",
        "Category": "Bird"
    },
    {
        "Common Name (Animals)": "Yellow-crowned night-heron",
        "Scientific Name": "Nyctanessa violaceus",
        "Category": "Bird"
    },
    {
        "Common Name (Animals)": "Yellow-rumped warbler",
        "Scientific Name": "Dendroica coronata",
        "Category": "Bird"
    },
    {
        "Common Name (Animals)": "Yellow-throated vireo",
        "Scientific Name": "Vireo flavifrons",
        "Category": "Bird"
    },
    {
        "Common Name (Animals)": "Yellow-throated warbler",
        "Scientific Name": "Dendroica dominica",
        "Category": "Bird"
    }
]