[
    {
        "Company": "Abbott Laboratories",
        "Industry": "Pharmaceuticals",
        "Overall score": "6.68"
    },
    {
        "Company": "Adobe Systems",
        "Industry": "Computer Software",
        "Overall score": "7.31"
    },
    {
        "Company": "Aetna",
        "Industry": "Health Care: Insurance and Managed Care",
        "Overall score": "6.79"
    },
    {
        "Company": "Alcoa",
        "Industry": "Metals",
        "Overall score": "7.24"
    },
    {
        "Company": "Apple",
        "Industry": "Computers",
        "Overall score": "7.95"
    },
    {
        "Company": "Aramark",
        "Industry": "Diversified Outsourcing Services",
        "Overall score": "6.60"
    },
    {
        "Company": "Archer Daniels Midland",
        "Industry": "Food Production",
        "Overall score": "7.20"
    },
    {
        "Company": "Automatic Data Processing",
        "Industry": "Financial Data Services",
        "Overall score": "6.69"
    },
    {
        "Company": "Avnet",
        "Industry": "Wholesalers: Office Equipment and Electronics",
        "Overall score": "6.55"
    },
    {
        "Company": "BASF",
        "Industry": "Chemicals",
        "Overall score": "7.04"
    },
    {
        "Company": "Becton Dickinson",
        "Industry": "Medical and Other Precision Equipment",
        "Overall score": "6.90"
    },
    {
        "Company": "Berkshire Hathaway",
        "Industry": "Insurance: Property and Casualty",
        "Overall score": "7.12"
    },
    {
        "Company": "BMW",
        "Industry": "Motor vehicles",
        "Overall score": "6.94"
    },
    {
        "Company": "C.H. Robinson Worldwide",
        "Industry": "Trucking, Transportation, Logistics",
        "Overall score": "7.14"
    },
    {
        "Company": "Caterpillar",
        "Industry": "Industrial and Farm Equipment",
        "Overall score": "7.06"
    },
    {
        "Company": "Cisco Systems",
        "Industry": "Network and Other Communications Equipment",
        "Overall score": "7.83"
    },
    {
        "Company": "Coca-Cola",
        "Industry": "Beverages",
        "Overall score": "6.98"
    },
    {
        "Company": "Costco Wholesale",
        "Industry": "Specialty Retailers",
        "Overall score": "6.67"
    },
    {
        "Company": "CVS/Caremark",
        "Industry": "Food and Drug Stores",
        "Overall score": "6.67"
    },
    {
        "Company": "DaVita",
        "Industry": "Health Care: Medical Facilities",
        "Overall score": "6.54"
    },
    {
        "Company": "E.ON",
        "Industry": "Energy",
        "Overall score": "7.06"
    },
    {
        "Company": "EMCOR Group",
        "Industry": "Engineering and Construction",
        "Overall score": "6.42"
    },
    {
        "Company": "Exxon Mobil",
        "Industry": "Petroleum Refining",
        "Overall score": "7.36"
    },
    {
        "Company": "FMC Technologies",
        "Industry": "Oil and Gas Equipment, Services",
        "Overall score": "7.94"
    },
    {
        "Company": "FPL Group",
        "Industry": "Electric & Gas Utilities",
        "Overall score": "7.05"
    },
    {
        "Company": "General Electric",
        "Industry": "Electronics",
        "Overall score": "7.07"
    },
    {
        "Company": "Goldman Sachs Group",
        "Industry": "Megabanks",
        "Overall score": "7.66"
    },
    {
        "Company": "Google",
        "Industry": "Internet Services and Retailing",
        "Overall score": "7.70"
    },
    {
        "Company": "Herman Miller",
        "Industry": "Home Equipment, Furnishings",
        "Overall score": "6.39"
    },
    {
        "Company": "IBM",
        "Industry": "Information Technology Services",
        "Overall score": "7.60"
    },
    {
        "Company": "Intel",
        "Industry": "Semiconductors",
        "Overall score": "7.96"
    },
    {
        "Company": "International Paper",
        "Industry": "Forest and Paper Products",
        "Overall score": "6.12"
    },
    {
        "Company": "Marriott International",
        "Industry": "Hotels, Casinos, Resorts",
        "Overall score": "7.81"
    },
    {
        "Company": "McDonald's",
        "Industry": "Food Services",
        "Overall score": "8.08"
    },
    {
        "Company": "McKesson",
        "Industry": "Wholesalers: Health Care",
        "Overall score": "7.28"
    },
    {
        "Company": "Medco Health Solutions",
        "Industry": "Health Care: Pharmacy and Other Services",
        "Overall score": "6.57"
    },
    {
        "Company": "Nestl\u00e9",
        "Industry": "Consumer Food Products",
        "Overall score": "7.63"
    },
    {
        "Company": "New York Life",
        "Industry": "Insurance: Life and Health",
        "Overall score": "6.72"
    },
    {
        "Company": "Nike",
        "Industry": "Apparel",
        "Overall score": "8.15"
    },
    {
        "Company": "Northern Trust",
        "Industry": "Superregional Banks",
        "Overall score": "6.94"
    },
    {
        "Company": "Occidental Petroleum",
        "Industry": "Mining, Crude-Oil Production",
        "Overall score": "7.27"
    },
    {
        "Company": "Philip Morris International",
        "Industry": "Tobacco",
        "Overall score": "7.72"
    },
    {
        "Company": "Procter & Gamble",
        "Industry": "Soaps and Cosmetics",
        "Overall score": "7.94"
    },
    {
        "Company": "Robert Bosch",
        "Industry": "Motor Vehicle Parts",
        "Overall score": "6.90"
    },
    {
        "Company": "Robert Half International",
        "Industry": "Temporary Help",
        "Overall score": "6.12"
    },
    {
        "Company": "Singapore Airlines",
        "Industry": "Airlines",
        "Overall score": "6.68"
    },
    {
        "Company": "Sysco",
        "Industry": "Wholesalers: Food and Grocery",
        "Overall score": "7.77"
    },
    {
        "Company": "Toll Brothers",
        "Industry": "Homebuilders",
        "Overall score": "6.77"
    },
    {
        "Company": "United Technologies",
        "Industry": "Aerospace and Defense",
        "Overall score": "7.32"
    },
    {
        "Company": "UPS",
        "Industry": "Delivery",
        "Overall score": "8.20"
    },
    {
        "Company": "Verizon Communications",
        "Industry": "Telecommunications",
        "Overall score": "6.67"
    },
    {
        "Company": "Visa",
        "Industry": "Consumer Credit Card and Services",
        "Overall score": "7.21"
    },
    {
        "Company": "W.W. Grainger",
        "Industry": "Wholesalers: Diversified",
        "Overall score": "7.55"
    },
    {
        "Company": "Wal-Mart Stores",
        "Industry": "General Merchandisers",
        "Overall score": "7.14"
    },
    {
        "Company": "Walt Disney",
        "Industry": "Entertainment",
        "Overall score": "8.00"
    }
]