[
    {
        "Rank": "1",
        "Company": "JPMorgan Chase",
        "Country": "United States",
        "Industry": "Banking",
        "Sales ($bil)": "115.63",
        "Profits ($bil)": "11.65",
        "Assets ($bil)": "2,031.99",
        "Market Value ($bil)": "166.19"
    },
    {
        "Rank": "2",
        "Company": "General Electric",
        "Country": "United States",
        "Industry": "Conglomerates",
        "Sales ($bil)": "156.78",
        "Profits ($bil)": "11.03",
        "Assets ($bil)": "781.82",
        "Market Value ($bil)": "169.65"
    },
    {
        "Rank": "3",
        "Company": "Bank of America",
        "Country": "United States",
        "Industry": "Banking",
        "Sales ($bil)": "150.45",
        "Profits ($bil)": "6.28",
        "Assets ($bil)": "2,223.30",
        "Market Value ($bil)": "167.63"
    },
    {
        "Rank": "4",
        "Company": "ExxonMobil",
        "Country": "United States",
        "Industry": "Oil & Gas Operations",
        "Sales ($bil)": "275.56",
        "Profits ($bil)": "19.28",
        "Assets ($bil)": "233.32",
        "Market Value ($bil)": "308.77"
    },
    {
        "Rank": "5",
        "Company": "ICBC",
        "Country": "China",
        "Industry": "Banking",
        "Sales ($bil)": "71.86",
        "Profits ($bil)": "16.27",
        "Assets ($bil)": "1,428.46",
        "Market Value ($bil)": "242.23"
    },
    {
        "Rank": "6",
        "Company": "Banco Santander",
        "Country": "Spain",
        "Industry": "Banking",
        "Sales ($bil)": "109.57",
        "Profits ($bil)": "12.34",
        "Assets ($bil)": "1,438.68",
        "Market Value ($bil)": "107.12"
    },
    {
        "Rank": "7",
        "Company": "Wells Fargo",
        "Country": "United States",
        "Industry": "Banking",
        "Sales ($bil)": "98.64",
        "Profits ($bil)": "12.28",
        "Assets ($bil)": "1,243.65",
        "Market Value ($bil)": "141.69"
    },
    {
        "Rank": "8",
        "Company": "HSBC Holdings",
        "Country": "United Kingdom",
        "Industry": "Banking",
        "Sales ($bil)": "103.74",
        "Profits ($bil)": "5.83",
        "Assets ($bil)": "2,355.83",
        "Market Value ($bil)": "178.27"
    },
    {
        "Rank": "8",
        "Company": "Royal Dutch Shell",
        "Country": "Netherlands",
        "Industry": "Oil & Gas Operations",
        "Sales ($bil)": "278.19",
        "Profits ($bil)": "12.52",
        "Assets ($bil)": "287.64",
        "Market Value ($bil)": "168.63"
    },
    {
        "Rank": "10",
        "Company": "BP",
        "Country": "United Kingdom",
        "Industry": "Oil & Gas Operations",
        "Sales ($bil)": "239.27",
        "Profits ($bil)": "16.58",
        "Assets ($bil)": "235.45",
        "Market Value ($bil)": "167.13"
    },
    {
        "Rank": "11",
        "Company": "BNP Paribas",
        "Country": "France",
        "Industry": "Banking",
        "Sales ($bil)": "101.06",
        "Profits ($bil)": "8.37",
        "Assets ($bil)": "2,952.22",
        "Market Value ($bil)": "86.67"
    },
    {
        "Rank": "12",
        "Company": "PetroChina",
        "Country": "China",
        "Industry": "Oil & Gas Operations",
        "Sales ($bil)": "157.22",
        "Profits ($bil)": "16.80",
        "Assets ($bil)": "174.95",
        "Market Value ($bil)": "333.84"
    },
    {
        "Rank": "13",
        "Company": "AT&T",
        "Country": "United States",
        "Industry": "Telecommunications Services",
        "Sales ($bil)": "123.02",
        "Profits ($bil)": "12.54",
        "Assets ($bil)": "268.75",
        "Market Value ($bil)": "147.55"
    },
    {
        "Rank": "14",
        "Company": "Wal-Mart Stores",
        "Country": "United States",
        "Industry": "Retailing",
        "Sales ($bil)": "408.21",
        "Profits ($bil)": "14.34",
        "Assets ($bil)": "170.71",
        "Market Value ($bil)": "205.37"
    },
    {
        "Rank": "15",
        "Company": "Berkshire Hathaway",
        "Country": "United States",
        "Industry": "Diversified Financials",
        "Sales ($bil)": "112.49",
        "Profits ($bil)": "8.06",
        "Assets ($bil)": "297.12",
        "Market Value ($bil)": "190.86"
    },
    {
        "Rank": "16",
        "Company": "Gazprom",
        "Country": "Russia",
        "Industry": "Oil & Gas Operations",
        "Sales ($bil)": "115.25",
        "Profits ($bil)": "24.33",
        "Assets ($bil)": "234.77",
        "Market Value ($bil)": "132.58"
    },
    {
        "Rank": "17",
        "Company": "China Construction Bank",
        "Country": "China",
        "Industry": "Banking",
        "Sales ($bil)": "59.16",
        "Profits ($bil)": "13.59",
        "Assets ($bil)": "1,106.20",
        "Market Value ($bil)": "184.32"
    },
    {
        "Rank": "18",
        "Company": "Petrobras-Petr\u00f3leo Brasil",
        "Country": "Brazil",
        "Industry": "Oil & Gas Operations",
        "Sales ($bil)": "104.81",
        "Profits ($bil)": "16.63",
        "Assets ($bil)": "198.26",
        "Market Value ($bil)": "190.34"
    },
    {
        "Rank": "19",
        "Company": "Total",
        "Country": "France",
        "Industry": "Oil & Gas Operations",
        "Sales ($bil)": "160.68",
        "Profits ($bil)": "12.10",
        "Assets ($bil)": "183.29",
        "Market Value ($bil)": "131.80"
    },
    {
        "Rank": "20",
        "Company": "Chevron",
        "Country": "United States",
        "Industry": "Oil & Gas Operations",
        "Sales ($bil)": "159.29",
        "Profits ($bil)": "10.48",
        "Assets ($bil)": "164.62",
        "Market Value ($bil)": "146.23"
    },
    {
        "Rank": "21",
        "Company": "Barclays",
        "Country": "United Kingdom",
        "Industry": "Banking",
        "Sales ($bil)": "65.91",
        "Profits ($bil)": "15.17",
        "Assets ($bil)": "2,223.04",
        "Market Value ($bil)": "56.15"
    },
    {
        "Rank": "22",
        "Company": "Bank of China",
        "Country": "China",
        "Industry": "Banking",
        "Sales ($bil)": "52.20",
        "Profits ($bil)": "9.45",
        "Assets ($bil)": "1,016.31",
        "Market Value ($bil)": "147.00"
    },
    {
        "Rank": "23",
        "Company": "Allianz",
        "Country": "Germany",
        "Industry": "Insurance",
        "Sales ($bil)": "130.06",
        "Profits ($bil)": "6.16",
        "Assets ($bil)": "834.04",
        "Market Value ($bil)": "52.74"
    },
    {
        "Rank": "24",
        "Company": "GDF Suez",
        "Country": "France",
        "Industry": "Utilities",
        "Sales ($bil)": "114.65",
        "Profits ($bil)": "6.42",
        "Assets ($bil)": "245.95",
        "Market Value ($bil)": "83.36"
    },
    {
        "Rank": "25",
        "Company": "E.ON",
        "Country": "Germany",
        "Industry": "Utilities",
        "Sales ($bil)": "117.38",
        "Profits ($bil)": "12.05",
        "Assets ($bil)": "214.58",
        "Market Value ($bil)": "68.26"
    },
    {
        "Rank": "25",
        "Company": "Goldman Sachs Group",
        "Country": "United States",
        "Industry": "Diversified Financials",
        "Sales ($bil)": "51.67",
        "Profits ($bil)": "13.39",
        "Assets ($bil)": "849.00",
        "Market Value ($bil)": "84.95"
    },
    {
        "Rank": "27",
        "Company": "EDF Group",
        "Country": "France",
        "Industry": "Utilities",
        "Sales ($bil)": "95.17",
        "Profits ($bil)": "5.60",
        "Assets ($bil)": "342.63",
        "Market Value ($bil)": "92.23"
    },
    {
        "Rank": "28",
        "Company": "AXA Group",
        "Country": "France",
        "Industry": "Insurance",
        "Sales ($bil)": "145.86",
        "Profits ($bil)": "5.17",
        "Assets ($bil)": "1,016.70",
        "Market Value ($bil)": "46.02"
    },
    {
        "Rank": "29",
        "Company": "Lloyds Banking Group",
        "Country": "United Kingdom",
        "Industry": "Banking",
        "Sales ($bil)": "106.67",
        "Profits ($bil)": "4.57",
        "Assets ($bil)": "1,650.78",
        "Market Value ($bil)": "50.25"
    },
    {
        "Rank": "29",
        "Company": "Procter & Gamble",
        "Country": "United States",
        "Industry": "Household & Personal Products",
        "Sales ($bil)": "76.78",
        "Profits ($bil)": "13.05",
        "Assets ($bil)": "135.29",
        "Market Value ($bil)": "184.47"
    },
    {
        "Rank": "31",
        "Company": "ENI",
        "Country": "Italy",
        "Industry": "Oil & Gas Operations",
        "Sales ($bil)": "121.01",
        "Profits ($bil)": "6.27",
        "Assets ($bil)": "163.52",
        "Market Value ($bil)": "82.22"
    },
    {
        "Rank": "32",
        "Company": "Telef\u00f3nica",
        "Country": "Spain",
        "Industry": "Telecommunications Services",
        "Sales ($bil)": "79.11",
        "Profits ($bil)": "10.84",
        "Assets ($bil)": "154.98",
        "Market Value ($bil)": "108.19"
    },
    {
        "Rank": "33",
        "Company": "IBM",
        "Country": "United States",
        "Industry": "Software & Services",
        "Sales ($bil)": "95.76",
        "Profits ($bil)": "13.43",
        "Assets ($bil)": "109.02",
        "Market Value ($bil)": "167.01"
    },
    {
        "Rank": "34",
        "Company": "UniCredit Group",
        "Country": "Italy",
        "Industry": "Banking",
        "Sales ($bil)": "92.17",
        "Profits ($bil)": "5.59",
        "Assets ($bil)": "1,438.91",
        "Market Value ($bil)": "43.95"
    },
    {
        "Rank": "35",
        "Company": "Hewlett-Packard",
        "Country": "United States",
        "Industry": "Technology Hardware & Equip",
        "Sales ($bil)": "116.92",
        "Profits ($bil)": "8.13",
        "Assets ($bil)": "113.62",
        "Market Value ($bil)": "121.33"
    },
    {
        "Rank": "36",
        "Company": "Nestl\u00e9",
        "Country": "Switzerland",
        "Industry": "Food, Drink & Tobacco",
        "Sales ($bil)": "97.08",
        "Profits ($bil)": "10.07",
        "Assets ($bil)": "105.16",
        "Market Value ($bil)": "173.67"
    },
    {
        "Rank": "37",
        "Company": "Verizon Communications",
        "Country": "United States",
        "Industry": "Telecommunications Services",
        "Sales ($bil)": "107.81",
        "Profits ($bil)": "3.65",
        "Assets ($bil)": "227.25",
        "Market Value ($bil)": "82.21"
    },
    {
        "Rank": "38",
        "Company": "China Mobile",
        "Country": "Hong Kong/China",
        "Industry": "Telecommunications Services",
        "Sales ($bil)": "66.22",
        "Profits ($bil)": "16.87",
        "Assets ($bil)": "104.46",
        "Market Value ($bil)": "199.73"
    },
    {
        "Rank": "39",
        "Company": "ConocoPhillips",
        "Country": "United States",
        "Industry": "Oil & Gas Operations",
        "Sales ($bil)": "136.02",
        "Profits ($bil)": "4.86",
        "Assets ($bil)": "152.59",
        "Market Value ($bil)": "72.72"
    },
    {
        "Rank": "40",
        "Company": "Pfizer",
        "Country": "United States",
        "Industry": "Drugs & Biotechnology",
        "Sales ($bil)": "50.01",
        "Profits ($bil)": "8.64",
        "Assets ($bil)": "212.95",
        "Market Value ($bil)": "143.23"
    },
    {
        "Rank": "41",
        "Company": "Nippon Telegraph & Tel",
        "Country": "Japan",
        "Industry": "Telecommunications Services",
        "Sales ($bil)": "106.98",
        "Profits ($bil)": "5.53",
        "Assets ($bil)": "181.48",
        "Market Value ($bil)": "68.68"
    },
    {
        "Rank": "42",
        "Company": "ENEL",
        "Country": "Italy",
        "Industry": "Utilities",
        "Sales ($bil)": "91.87",
        "Profits ($bil)": "7.74",
        "Assets ($bil)": "221.26",
        "Market Value ($bil)": "50.92"
    },
    {
        "Rank": "43",
        "Company": "Deutsche Bank",
        "Country": "Germany",
        "Industry": "Banking",
        "Sales ($bil)": "62.98",
        "Profits ($bil)": "6.93",
        "Assets ($bil)": "2,150.60",
        "Market Value ($bil)": "39.75"
    },
    {
        "Rank": "44",
        "Company": "Credit Suisse Group",
        "Country": "Switzerland",
        "Industry": "Diversified Financials",
        "Sales ($bil)": "50.26",
        "Profits ($bil)": "6.11",
        "Assets ($bil)": "988.91",
        "Market Value ($bil)": "53.93"
    },
    {
        "Rank": "45",
        "Company": "Sinopec-China Petroleum",
        "Country": "China",
        "Industry": "Oil & Gas Operations",
        "Sales ($bil)": "208.47",
        "Profits ($bil)": "4.37",
        "Assets ($bil)": "110.66",
        "Market Value ($bil)": "130.06"
    },
    {
        "Rank": "46",
        "Company": "Vodafone",
        "Country": "United Kingdom",
        "Industry": "Telecommunications Services",
        "Sales ($bil)": "58.35",
        "Profits ($bil)": "4.38",
        "Assets ($bil)": "217.97",
        "Market Value ($bil)": "112.26"
    },
    {
        "Rank": "47",
        "Company": "Johnson & Johnson",
        "Country": "United States",
        "Industry": "Drugs & Biotechnology",
        "Sales ($bil)": "61.90",
        "Profits ($bil)": "12.27",
        "Assets ($bil)": "94.68",
        "Market Value ($bil)": "174.90"
    },
    {
        "Rank": "48",
        "Company": "BBVA-Banco Bilbao Vizcaya",
        "Country": "Spain",
        "Industry": "Banking",
        "Sales ($bil)": "49.27",
        "Profits ($bil)": "6.03",
        "Assets ($bil)": "760.39",
        "Market Value ($bil)": "48.20"
    },
    {
        "Rank": "49",
        "Company": "Microsoft",
        "Country": "United States",
        "Industry": "Software & Services",
        "Sales ($bil)": "58.69",
        "Profits ($bil)": "16.26",
        "Assets ($bil)": "82.10",
        "Market Value ($bil)": "254.52"
    },
    {
        "Rank": "50",
        "Company": "Siemens",
        "Country": "Germany",
        "Industry": "Conglomerates",
        "Sales ($bil)": "112.23",
        "Profits ($bil)": "3.36",
        "Assets ($bil)": "133.94",
        "Market Value ($bil)": "80.07"
    },
    {
        "Rank": "51",
        "Company": "Banco Bradesco",
        "Country": "Brazil",
        "Industry": "Banking",
        "Sales ($bil)": "59.10",
        "Profits ($bil)": "4.60",
        "Assets ($bil)": "281.40",
        "Market Value ($bil)": "54.50"
    },
    {
        "Rank": "52",
        "Company": "Banco do Brasil",
        "Country": "Brazil",
        "Industry": "Banking",
        "Sales ($bil)": "56.10",
        "Profits ($bil)": "5.82",
        "Assets ($bil)": "406.46",
        "Market Value ($bil)": "42.78"
    },
    {
        "Rank": "53",
        "Company": "Royal Bank of Canada",
        "Country": "Canada",
        "Industry": "Banking",
        "Sales ($bil)": "35.41",
        "Profits ($bil)": "3.58",
        "Assets ($bil)": "608.05",
        "Market Value ($bil)": "78.17"
    },
    {
        "Rank": "54",
        "Company": "Intesa Sanpaolo",
        "Country": "Italy",
        "Industry": "Banking",
        "Sales ($bil)": "50.71",
        "Profits ($bil)": "3.56",
        "Assets ($bil)": "877.66",
        "Market Value ($bil)": "44.67"
    },
    {
        "Rank": "55",
        "Company": "Samsung Electronics",
        "Country": "South Korea",
        "Industry": "Semiconductors",
        "Sales ($bil)": "97.28",
        "Profits ($bil)": "4.43",
        "Assets ($bil)": "83.30",
        "Market Value ($bil)": "94.48"
    },
    {
        "Rank": "56",
        "Company": "France Telecom",
        "Country": "France",
        "Industry": "Telecommunications Services",
        "Sales ($bil)": "65.92",
        "Profits ($bil)": "4.30",
        "Assets ($bil)": "132.06",
        "Market Value ($bil)": "62.39"
    },
    {
        "Rank": "57",
        "Company": "Sanofi-aventis",
        "Country": "France",
        "Industry": "Drugs & Biotechnology",
        "Sales ($bil)": "41.99",
        "Profits ($bil)": "7.54",
        "Assets ($bil)": "114.85",
        "Market Value ($bil)": "98.07"
    },
    {
        "Rank": "58",
        "Company": "Ford Motor",
        "Country": "United States",
        "Industry": "Consumer Durables",
        "Sales ($bil)": "118.31",
        "Profits ($bil)": "2.72",
        "Assets ($bil)": "194.85",
        "Market Value ($bil)": "41.80"
    },
    {
        "Rank": "59",
        "Company": "Commonwealth Bank",
        "Country": "Australia",
        "Industry": "Banking",
        "Sales ($bil)": "31.84",
        "Profits ($bil)": "3.81",
        "Assets ($bil)": "500.20",
        "Market Value ($bil)": "75.10"
    },
    {
        "Rank": "60",
        "Company": "RWE Group",
        "Country": "Germany",
        "Industry": "Utilities",
        "Sales ($bil)": "66.57",
        "Profits ($bil)": "4.98",
        "Assets ($bil)": "130.36",
        "Market Value ($bil)": "47.93"
    },
    {
        "Rank": "61",
        "Company": "Novartis",
        "Country": "Switzerland",
        "Industry": "Drugs & Biotechnology",
        "Sales ($bil)": "44.27",
        "Profits ($bil)": "8.40",
        "Assets ($bil)": "90.89",
        "Market Value ($bil)": "126.22"
    },
    {
        "Rank": "62",
        "Company": "BHP Billiton",
        "Country": "Australia/United Kingdom",
        "Industry": "Materials",
        "Sales ($bil)": "50.21",
        "Profits ($bil)": "5.88",
        "Assets ($bil)": "74.86",
        "Market Value ($bil)": "192.45"
    },
    {
        "Rank": "63",
        "Company": "Zurich Financial Services",
        "Country": "Switzerland",
        "Industry": "Insurance",
        "Sales ($bil)": "70.27",
        "Profits ($bil)": "3.22",
        "Assets ($bil)": "366.66",
        "Market Value ($bil)": "34.71"
    },
    {
        "Rank": "64",
        "Company": "Statoil",
        "Country": "Norway",
        "Industry": "Oil & Gas Operations",
        "Sales ($bil)": "79.76",
        "Profits ($bil)": "3.16",
        "Assets ($bil)": "97.09",
        "Market Value ($bil)": "72.26"
    },
    {
        "Rank": "65",
        "Company": "Generali Group",
        "Country": "Italy",
        "Industry": "Insurance",
        "Sales ($bil)": "123.14",
        "Profits ($bil)": "1.83",
        "Assets ($bil)": "607.37",
        "Market Value ($bil)": "35.19"
    },
    {
        "Rank": "66",
        "Company": "Roche Holding",
        "Country": "Switzerland",
        "Industry": "Drugs & Biotechnology",
        "Sales ($bil)": "47.35",
        "Profits ($bil)": "7.51",
        "Assets ($bil)": "69.64",
        "Market Value ($bil)": "146.19"
    },
    {
        "Rank": "67",
        "Company": "Westpac Banking Group",
        "Country": "Australia",
        "Industry": "Banking",
        "Sales ($bil)": "31.19",
        "Profits ($bil)": "3.04",
        "Assets ($bil)": "519.03",
        "Market Value ($bil)": "70.99"
    },
    {
        "Rank": "68",
        "Company": "Rio Tinto",
        "Country": "United Kingdom/Australia",
        "Industry": "Materials",
        "Sales ($bil)": "41.83",
        "Profits ($bil)": "4.87",
        "Assets ($bil)": "95.01",
        "Market Value ($bil)": "118.34"
    },
    {
        "Rank": "69",
        "Company": "Lukoil",
        "Country": "Russia",
        "Industry": "Oil & Gas Operations",
        "Sales ($bil)": "86.34",
        "Profits ($bil)": "9.14",
        "Assets ($bil)": "70.94",
        "Market Value ($bil)": "45.18"
    },
    {
        "Rank": "70",
        "Company": "Anheuser-Busch InBev",
        "Country": "Belgium",
        "Industry": "Food, Drink & Tobacco",
        "Sales ($bil)": "36.76",
        "Profits ($bil)": "4.61",
        "Assets ($bil)": "111.58",
        "Market Value ($bil)": "81.48"
    },
    {
        "Rank": "71",
        "Company": "GlaxoSmithKline",
        "Country": "United Kingdom",
        "Industry": "Drugs & Biotechnology",
        "Sales ($bil)": "45.83",
        "Profits ($bil)": "8.94",
        "Assets ($bil)": "65.38",
        "Market Value ($bil)": "95.36"
    },
    {
        "Rank": "72",
        "Company": "Merck & Co",
        "Country": "United States",
        "Industry": "Drugs & Biotechnology",
        "Sales ($bil)": "27.43",
        "Profits ($bil)": "12.90",
        "Assets ($bil)": "112.09",
        "Market Value ($bil)": "116.11"
    },
    {
        "Rank": "73",
        "Company": "Cr\u00e9dit Agricole",
        "Country": "France",
        "Industry": "Banking",
        "Sales ($bil)": "91.96",
        "Profits ($bil)": "1.61",
        "Assets ($bil)": "2,227.22",
        "Market Value ($bil)": "34.42"
    },
    {
        "Rank": "74",
        "Company": "Munich Re",
        "Country": "Germany",
        "Industry": "Insurance",
        "Sales ($bil)": "59.31",
        "Profits ($bil)": "3.67",
        "Assets ($bil)": "284.21",
        "Market Value ($bil)": "30.12"
    },
    {
        "Rank": "75",
        "Company": "Apple",
        "Country": "United States",
        "Industry": "Technology Hardware & Equip",
        "Sales ($bil)": "46.71",
        "Profits ($bil)": "9.36",
        "Assets ($bil)": "53.93",
        "Market Value ($bil)": "189.51"
    },
    {
        "Rank": "75",
        "Company": "Cisco Systems",
        "Country": "United States",
        "Industry": "Technology Hardware & Equip",
        "Sales ($bil)": "35.53",
        "Profits ($bil)": "6.07",
        "Assets ($bil)": "76.40",
        "Market Value ($bil)": "140.85"
    },
    {
        "Rank": "77",
        "Company": "Rosneft",
        "Country": "Russia",
        "Industry": "Oil & Gas Operations",
        "Sales ($bil)": "34.70",
        "Profits ($bil)": "6.51",
        "Assets ($bil)": "83.11",
        "Market Value ($bil)": "83.19"
    },
    {
        "Rank": "78",
        "Company": "Mitsubishi Corp",
        "Country": "Japan",
        "Industry": "Trading Companies",
        "Sales ($bil)": "63.12",
        "Profits ($bil)": "3.80",
        "Assets ($bil)": "109.74",
        "Market Value ($bil)": "42.64"
    },
    {
        "Rank": "79",
        "Company": "National Australia Bank",
        "Country": "Australia",
        "Industry": "Banking",
        "Sales ($bil)": "32.50",
        "Profits ($bil)": "2.29",
        "Assets ($bil)": "574.41",
        "Market Value ($bil)": "48.80"
    },
    {
        "Rank": "80",
        "Company": "Vale",
        "Country": "Brazil",
        "Industry": "Materials",
        "Sales ($bil)": "27.82",
        "Profits ($bil)": "5.88",
        "Assets ($bil)": "100.81",
        "Market Value ($bil)": "145.14"
    },
    {
        "Rank": "81",
        "Company": "CVS Caremark",
        "Country": "United States",
        "Industry": "Retailing",
        "Sales ($bil)": "98.73",
        "Profits ($bil)": "3.70",
        "Assets ($bil)": "61.64",
        "Market Value ($bil)": "47.85"
    },
    {
        "Rank": "82",
        "Company": "Ita\u00fasa",
        "Country": "Brazil",
        "Industry": "Conglomerates",
        "Sales ($bil)": "66.36",
        "Profits ($bil)": "2.25",
        "Assets ($bil)": "342.63",
        "Market Value ($bil)": "28.74"
    },
    {
        "Rank": "83",
        "Company": "ANZ Banking",
        "Country": "Australia",
        "Industry": "Banking",
        "Sales ($bil)": "26.91",
        "Profits ($bil)": "2.60",
        "Assets ($bil)": "420.52",
        "Market Value ($bil)": "53.72"
    },
    {
        "Rank": "84",
        "Company": "Tesco",
        "Country": "United Kingdom",
        "Industry": "Food Markets",
        "Sales ($bil)": "77.94",
        "Profits ($bil)": "3.10",
        "Assets ($bil)": "65.61",
        "Market Value ($bil)": "51.43"
    },
    {
        "Rank": "85",
        "Company": "Unilever",
        "Country": "Netherlands/United Kingdom",
        "Industry": "Food, Drink & Tobacco",
        "Sales ($bil)": "57.05",
        "Profits ($bil)": "4.83",
        "Assets ($bil)": "52.05",
        "Market Value ($bil)": "91.33"
    },
    {
        "Rank": "86",
        "Company": "Honda Motor",
        "Country": "Japan",
        "Industry": "Consumer Durables",
        "Sales ($bil)": "102.82",
        "Profits ($bil)": "1.41",
        "Assets ($bil)": "117.24",
        "Market Value ($bil)": "63.22"
    },
    {
        "Rank": "86",
        "Company": "Toronto-Dominion Bank",
        "Country": "Canada",
        "Industry": "Banking",
        "Sales ($bil)": "23.60",
        "Profits ($bil)": "2.90",
        "Assets ($bil)": "517.28",
        "Market Value ($bil)": "55.43"
    },
    {
        "Rank": "88",
        "Company": "Iberdrola",
        "Country": "Spain",
        "Industry": "Utilities",
        "Sales ($bil)": "35.15",
        "Profits ($bil)": "3.94",
        "Assets ($bil)": "125.21",
        "Market Value ($bil)": "42.16"
    },
    {
        "Rank": "89",
        "Company": "Comcast",
        "Country": "United States",
        "Industry": "Media",
        "Sales ($bil)": "35.76",
        "Profits ($bil)": "3.64",
        "Assets ($bil)": "112.73",
        "Market Value ($bil)": "47.76"
    },
    {
        "Rank": "90",
        "Company": "China Life Insurance",
        "Country": "China",
        "Industry": "Insurance",
        "Sales ($bil)": "24.01",
        "Profits ($bil)": "3.12",
        "Assets ($bil)": "153.13",
        "Market Value ($bil)": "118.75"
    },
    {
        "Rank": "91",
        "Company": "Bank of Nova Scotia",
        "Country": "Canada",
        "Industry": "Banking",
        "Sales ($bil)": "23.27",
        "Profits ($bil)": "3.29",
        "Assets ($bil)": "460.93",
        "Market Value ($bil)": "47.26"
    },
    {
        "Rank": "92",
        "Company": "UnitedHealth Group",
        "Country": "United States",
        "Industry": "Health Care Equipment & Svcs",
        "Sales ($bil)": "87.14",
        "Profits ($bil)": "3.82",
        "Assets ($bil)": "59.05",
        "Market Value ($bil)": "39.40"
    },
    {
        "Rank": "93",
        "Company": "Sberbank",
        "Country": "Russia",
        "Industry": "Banking",
        "Sales ($bil)": "23.27",
        "Profits ($bil)": "3.20",
        "Assets ($bil)": "220.62",
        "Market Value ($bil)": "57.70"
    },
    {
        "Rank": "94",
        "Company": "United Technologies",
        "Country": "United States",
        "Industry": "Conglomerates",
        "Sales ($bil)": "52.92",
        "Profits ($bil)": "3.83",
        "Assets ($bil)": "55.76",
        "Market Value ($bil)": "65.28"
    },
    {
        "Rank": "95",
        "Company": "Nordea Bank",
        "Country": "Sweden",
        "Industry": "Banking",
        "Sales ($bil)": "22.81",
        "Profits ($bil)": "3.41",
        "Assets ($bil)": "729.06",
        "Market Value ($bil)": "39.42"
    },
    {
        "Rank": "96",
        "Company": "Bank of Communications",
        "Country": "China",
        "Industry": "Banking",
        "Sales ($bil)": "19.05",
        "Profits ($bil)": "4.17",
        "Assets ($bil)": "392.83",
        "Market Value ($bil)": "57.34"
    },
    {
        "Rank": "97",
        "Company": "BASF",
        "Country": "Germany",
        "Industry": "Chemicals",
        "Sales ($bil)": "72.63",
        "Profits ($bil)": "2.02",
        "Assets ($bil)": "72.06",
        "Market Value ($bil)": "52.12"
    },
    {
        "Rank": "98",
        "Company": "Walt Disney",
        "Country": "United States",
        "Industry": "Media",
        "Sales ($bil)": "36.29",
        "Profits ($bil)": "3.31",
        "Assets ($bil)": "69.31",
        "Market Value ($bil)": "61.17"
    },
    {
        "Rank": "99",
        "Company": "Standard Chartered Group",
        "Country": "United Kingdom",
        "Industry": "Banking",
        "Sales ($bil)": "20.94",
        "Profits ($bil)": "3.38",
        "Assets ($bil)": "435.56",
        "Market Value ($bil)": "46.16"
    },
    {
        "Rank": "100",
        "Company": "AstraZeneca",
        "Country": "United Kingdom",
        "Industry": "Drugs & Biotechnology",
        "Sales ($bil)": "32.80",
        "Profits ($bil)": "7.52",
        "Assets ($bil)": "53.63",
        "Market Value ($bil)": "63.56"
    }
]