[
    {
        "Name of Attraction": "British Museum",
        "Category": "Museums/Art Galleries",
        "Visitor 2009": "5569981",
        "Visitor 2010": "5842000",
        "% Change 09-10": "4.9"
    },
    {
        "Name of Attraction": "Tate Modern",
        "Category": "Museums/Art Galleries",
        "Visitor 2009": "4747537",
        "Visitor 2010": "5061172",
        "% Change 09-10": "6.6"
    },
    {
        "Name of Attraction": "National Gallery",
        "Category": "Museums/Art Galleries",
        "Visitor 2009": "4780030",
        "Visitor 2010": "4954914",
        "% Change 09-10": "3.7"
    },
    {
        "Name of Attraction": "Natural History Museum",
        "Category": "Museums/Art Galleries",
        "Visitor 2009": "4105106",
        "Visitor 2010": "4647613",
        "% Change 09-10": "13.2"
    },
    {
        "Name of Attraction": "Science Museum",
        "Category": "Museums/Art Galleries",
        "Visitor 2009": "2753493",
        "Visitor 2010": "2757917",
        "% Change 09-10": "0.2"
    },
    {
        "Name of Attraction": "Victoria and Albert Museum",
        "Category": "Museums/Art Galleries",
        "Visitor 2009": "2269880",
        "Visitor 2010": "2629065",
        "% Change 09-10": "15.8"
    },
    {
        "Name of Attraction": "National Portrait Gallery",
        "Category": "Museums/Art Galleries",
        "Visitor 2009": "1961843",
        "Visitor 2010": "1819442",
        "% Change 09-10": "-7.3"
    },
    {
        "Name of Attraction": "Tate Britain",
        "Category": "Museums/Art Galleries",
        "Visitor 2009": "1501837",
        "Visitor 2010": "1665291",
        "% Change 09-10": "10.9"
    },
    {
        "Name of Attraction": "Royal Observatory Greenwich",
        "Category": "Museums/Art Galleries",
        "Visitor 2009": "1569886",
        "Visitor 2010": "1576640",
        "% Change 09-10": "0.4"
    },
    {
        "Name of Attraction": "British Library",
        "Category": "Museums/Art Galleries",
        "Visitor 2009": "1379475",
        "Visitor 2010": "1454612",
        "% Change 09-10": "5.4"
    },
    {
        "Name of Attraction": "Old Royal Naval College",
        "Category": "Historic Properties",
        "Visitor 2009": "544522",
        "Visitor 2010": "1330260",
        "% Change 09-10": "144.3"
    },
    {
        "Name of Attraction": "Imperial War Museum",
        "Category": "Museums/Art Galleries",
        "Visitor 2009": "887246",
        "Visitor 2010": "1069358",
        "% Change 09-10": "20.5"
    },
    {
        "Name of Attraction": "Ashmolean Museum",
        "Category": "Museums/Art Galleries",
        "Visitor 2009": "227752",
        "Visitor 2010": "1042350",
        "% Change 09-10": "357.7"
    },
    {
        "Name of Attraction": "Merseyside Maritime Museum",
        "Category": "Museums/Art Galleries",
        "Visitor 2009": "946699",
        "Visitor 2010": "1027475",
        "% Change 09-10": "8.5"
    },
    {
        "Name of Attraction": "Museums Sheffield: Millennium Gallery",
        "Category": "Museums/Art Galleries",
        "Visitor 2009": "770644",
        "Visitor 2010": "879598",
        "% Change 09-10": "14.1"
    },
    {
        "Name of Attraction": "National Maritime Museum",
        "Category": "Museums/Art Galleries",
        "Visitor 2009": "669199",
        "Visitor 2010": "804988",
        "% Change 09-10": "20.3"
    },
    {
        "Name of Attraction": "Holkham NNR",
        "Category": "Wildlife",
        "Visitor 2009": "800000",
        "Visitor 2010": "800000",
        "% Change 09-10": "0"
    },
    {
        "Name of Attraction": "World Museum Liverpool",
        "Category": "Museums/Art Galleries",
        "Visitor 2009": "606394",
        "Visitor 2010": "748065",
        "% Change 09-10": "23.4"
    },
    {
        "Name of Attraction": "Birmingham Museum & Art Gallery",
        "Category": "Museums/Art Galleries",
        "Visitor 2009": "644259",
        "Visitor 2010": "729231",
        "% Change 09-10": "13.2"
    },
    {
        "Name of Attraction": "National Railway Museum",
        "Category": "Museums/Art Galleries",
        "Visitor 2009": "767863",
        "Visitor 2010": "619952",
        "% Change 09-10": "-19.3"
    }
]