[
    {
        "Common Name": "Mountain Quail",
        "Genus": "Oreortyx",
        "Species": "pictus",
        "IUCN": "LC",
        "col 3": ""
    },
    {
        "Common Name": "California Quail",
        "Genus": "Callipepla",
        "Species": "californica",
        "IUCN": "LC",
        "col 3": ""
    },
    {
        "Common Name": "Gambel's Quail",
        "Genus": "Callipepla",
        "Species": "gambelii",
        "IUCN": "LC",
        "col 3": ""
    },
    {
        "Common Name": "Northern Bobwhite",
        "Genus": "Colinus",
        "Species": "virginianus",
        "IUCN": "NT",
        "col 3": ""
    },
    {
        "Common Name": "Wild Turkey",
        "Genus": "Meleagris",
        "Species": "gallopavo",
        "IUCN": "LC",
        "col 3": ""
    },
    {
        "Common Name": "Ruffed Grouse",
        "Genus": "Bonasa",
        "Species": "umbellus",
        "IUCN": "LC",
        "col 3": ""
    },
    {
        "Common Name": "Common Pheasant",
        "Genus": "Phasianus",
        "Species": "colchicus",
        "IUCN": "LC",
        "col 3": ""
    },
    {
        "Common Name": "Mallard",
        "Genus": "Anas",
        "Species": "platyrhynchos",
        "IUCN": "LC",
        "col 3": ""
    },
    {
        "Common Name": "Ruddy Duck",
        "Genus": "Oxyura",
        "Species": "jamaicensis",
        "IUCN": "LC",
        "col 3": ""
    },
    {
        "Common Name": "Wedge-tailed Shearwater",
        "Genus": "Puffinus",
        "Species": "pacificus",
        "IUCN": "LC",
        "col 3": "Hawaii"
    },
    {
        "Common Name": "Townsend's Shearwater",
        "Genus": "Puffinus",
        "Species": "auricularis",
        "IUCN": "CR",
        "col 3": "Hawaii"
    },
    {
        "Common Name": "Band-rumped Storm Petrel",
        "Genus": "Oceanodrom",
        "Species": "castro",
        "IUCN": "LC",
        "col 3": "Hawaii"
    },
    {
        "Common Name": "Pied-billed Grebe",
        "Genus": "Podilymbus",
        "Species": "podiceps",
        "IUCN": "LC",
        "col 3": ""
    },
    {
        "Common Name": "Green Heron",
        "Genus": "Butorides",
        "Species": "virescens",
        "IUCN": "LC",
        "col 3": ""
    },
    {
        "Common Name": "Cattle Egret",
        "Genus": "Bubulcus",
        "Species": "ibis",
        "IUCN": "LC",
        "col 3": ""
    },
    {
        "Common Name": "Turkey Vulture",
        "Genus": "Cathartes",
        "Species": "aura",
        "IUCN": "LC",
        "col 3": ""
    },
    {
        "Common Name": "American Kestrel",
        "Genus": "Falco",
        "Species": "sparverius",
        "IUCN": "LC",
        "col 3": ""
    },
    {
        "Common Name": "Merlin",
        "Genus": "Falco",
        "Species": "columbarius",
        "IUCN": "LC",
        "col 3": ""
    },
    {
        "Common Name": "Peregrine Falcon",
        "Genus": "Falco",
        "Species": "peregrinus",
        "IUCN": "LC",
        "col 3": ""
    },
    {
        "Common Name": "Sharp-shinned Hawk",
        "Genus": "Accipiter",
        "Species": "striatus",
        "IUCN": "LC",
        "col 3": ""
    },
    {
        "Common Name": "Cooper's Hawk",
        "Genus": "Accipiter",
        "Species": "cooperii",
        "IUCN": "LC",
        "col 3": ""
    },
    {
        "Common Name": "Northern Goshawk",
        "Genus": "Accipiter",
        "Species": "gentilis",
        "IUCN": "LC",
        "col 3": ""
    },
    {
        "Common Name": "Red-shouldered Hawk",
        "Genus": "Buteo",
        "Species": "lineatus",
        "IUCN": "LC",
        "col 3": ""
    },
    {
        "Common Name": "Broad-winged Hawk",
        "Genus": "Buteo",
        "Species": "platypterus",
        "IUCN": "LC",
        "col 3": ""
    },
    {
        "Common Name": "Red-tailed Hawk",
        "Genus": "Buteo",
        "Species": "jamaicensis",
        "IUCN": "LC",
        "col 3": ""
    },
    {
        "Common Name": "Roughleg",
        "Genus": "Buteo",
        "Species": "lagopus",
        "IUCN": "LC",
        "col 3": ""
    },
    {
        "Common Name": "Black Rail",
        "Genus": "Laterallus",
        "Species": "jamaicensis",
        "IUCN": "NT",
        "col 3": ""
    },
    {
        "Common Name": "Virginia Rail",
        "Genus": "Rallus",
        "Species": "limicola",
        "IUCN": "LC",
        "col 3": ""
    },
    {
        "Common Name": "Sora",
        "Genus": "Porzana",
        "Species": "carolina",
        "IUCN": "LC",
        "col 3": ""
    },
    {
        "Common Name": "American Coot",
        "Genus": "Fulica",
        "Species": "americana",
        "IUCN": "LC",
        "col 3": ""
    },
    {
        "Common Name": "Killdeer",
        "Genus": "Charadrius",
        "Species": "vociferus",
        "IUCN": "LC",
        "col 3": ""
    },
    {
        "Common Name": "American Woodcock",
        "Genus": "Scolopax",
        "Species": "minor",
        "IUCN": "LC",
        "col 3": ""
    },
    {
        "Common Name": "Wilson's Snipe",
        "Genus": "Gallinago",
        "Species": "delicata",
        "IUCN": "LC",
        "col 3": ""
    },
    {
        "Common Name": "Ring-billed Gull",
        "Genus": "Larus",
        "Species": "delawarensis",
        "IUCN": "LC",
        "col 3": ""
    },
    {
        "Common Name": "Laughing Gull",
        "Genus": "Larus",
        "Species": "atricilla",
        "IUCN": "LC",
        "col 3": ""
    },
    {
        "Common Name": "Cassin's Auklet",
        "Genus": "Ptychoramphus",
        "Species": "aleuticus",
        "IUCN": "LC",
        "col 3": ""
    },
    {
        "Common Name": "Common Pigeon",
        "Genus": "Columba",
        "Species": "livia",
        "IUCN": "LC",
        "col 3": ""
    },
    {
        "Common Name": "Plain Pigeon",
        "Genus": "Patagioenas",
        "Species": "inornata",
        "IUCN": "NT",
        "col 3": "P. R."
    },
    {
        "Common Name": "Spotted Dove",
        "Genus": "Streptopelia",
        "Species": "chinensis",
        "IUCN": "LC",
        "col 3": "Hawaii"
    },
    {
        "Common Name": "Barred Dove",
        "Genus": "Geopelia",
        "Species": "maugeus",
        "IUCN": "LC",
        "col 3": "Hawaii"
    },
    {
        "Common Name": "Mourning Dove",
        "Genus": "Zenaida",
        "Species": "macroura",
        "IUCN": "LC",
        "col 3": ""
    },
    {
        "Common Name": "White-winged Dove",
        "Genus": "Zenaida",
        "Species": "asiatica",
        "IUCN": "LC",
        "col 3": ""
    },
    {
        "Common Name": "Inca Dove",
        "Genus": "Scardafella",
        "Species": "inca",
        "IUCN": "LC",
        "col 3": ""
    },
    {
        "Common Name": "Common Ground Dove",
        "Genus": "Columbina",
        "Species": "passerina",
        "IUCN": "LC",
        "col 3": ""
    },
    {
        "Common Name": "Ruddy Quail-Dove",
        "Genus": "Geotrygon",
        "Species": "montana",
        "IUCN": "LC",
        "col 3": ""
    },
    {
        "Common Name": "Yellow-billed Cuckoo",
        "Genus": "Coccyzus",
        "Species": "americanus",
        "IUCN": "LC",
        "col 3": ""
    },
    {
        "Common Name": "Black-billed Cuckoo",
        "Genus": "Coccyzus",
        "Species": "erythrophthalmus",
        "IUCN": "LC",
        "col 3": ""
    },
    {
        "Common Name": "Barn Owl",
        "Genus": "Tyto",
        "Species": "alba",
        "IUCN": "LC",
        "col 3": ""
    },
    {
        "Common Name": "Eastern Screech Owl",
        "Genus": "Megascops",
        "Species": "asio",
        "IUCN": "LC",
        "col 3": ""
    },
    {
        "Common Name": "Western Screech Owl",
        "Genus": "Megascops",
        "Species": "kennicottii",
        "IUCN": "LC",
        "col 3": ""
    },
    {
        "Common Name": "Great Horned Owl",
        "Genus": "Bubo",
        "Species": "virginianus",
        "IUCN": "LC",
        "col 3": ""
    },
    {
        "Common Name": "Barred Owl",
        "Genus": "Strix",
        "Species": "varia",
        "IUCN": "LC",
        "col 3": ""
    },
    {
        "Common Name": "Northern Pygmy Owl",
        "Genus": "Glaucidium",
        "Species": "califoricum",
        "IUCN": "LC",
        "col 3": ""
    },
    {
        "Common Name": "Northern Saw-whet Owl",
        "Genus": "Aegolius",
        "Species": "acadicus",
        "IUCN": "LC",
        "col 3": ""
    },
    {
        "Common Name": "Long-eared Owl",
        "Genus": "Asio",
        "Species": "otus",
        "IUCN": "LC",
        "col 3": ""
    },
    {
        "Common Name": "Short-Eared Owl",
        "Genus": "Asio",
        "Species": "flammeus",
        "IUCN": "LC",
        "col 3": ""
    },
    {
        "Common Name": "Lesser Nighthawk",
        "Genus": "Chordeiles",
        "Species": "acutipennis",
        "IUCN": "LC",
        "col 3": ""
    },
    {
        "Common Name": "Common Nighthawk",
        "Genus": "Chordeiles",
        "Species": "minor",
        "IUCN": "LC",
        "col 3": ""
    },
    {
        "Common Name": "Common Poorwill",
        "Genus": "Phalaenoptilus",
        "Species": "nuttallii",
        "IUCN": "LC",
        "col 3": ""
    },
    {
        "Common Name": "Chuck-will's-widow",
        "Genus": "Caprimulgus",
        "Species": "carolinensis",
        "IUCN": "LC",
        "col 3": ""
    },
    {
        "Common Name": "Whip-poor-will",
        "Genus": "Caprimulgus",
        "Species": "vociferus",
        "IUCN": "LC",
        "col 3": ""
    },
    {
        "Common Name": "Chimney Swift",
        "Genus": "Chaetura",
        "Species": "pelagica",
        "IUCN": "LC",
        "col 3": ""
    },
    {
        "Common Name": "Puerto Rican Emerald",
        "Genus": "Chlorostilbon",
        "Species": "maugaeus",
        "IUCN": "LC",
        "col 3": "P. R."
    },
    {
        "Common Name": "Buff-bellied Hummingbird",
        "Genus": "Amazilia",
        "Species": "yucatanensis",
        "IUCN": "LC",
        "col 3": ""
    },
    {
        "Common Name": "Ruby-throated Hummingbird",
        "Genus": "Archilochus",
        "Species": "colubris",
        "IUCN": "LC",
        "col 3": ""
    },
    {
        "Common Name": "Black-chinned Hummingbird",
        "Genus": "Archilochus",
        "Species": "alexandri",
        "IUCN": "LC",
        "col 3": ""
    },
    {
        "Common Name": "Anna's Hummingbird",
        "Genus": "Calypte",
        "Species": "anna",
        "IUCN": "LC",
        "col 3": ""
    },
    {
        "Common Name": "Costa's Hummingbird",
        "Genus": "Calypte",
        "Species": "costae",
        "IUCN": "LC",
        "col 3": ""
    },
    {
        "Common Name": "Broad-tailed Hummingbird",
        "Genus": "Selasphorus",
        "Species": "platycercus",
        "IUCN": "LC",
        "col 3": ""
    },
    {
        "Common Name": "Rufous Hummingbird",
        "Genus": "Selasphorus",
        "Species": "rufus",
        "IUCN": "LC",
        "col 3": ""
    },
    {
        "Common Name": "Allen's Hummingbird",
        "Genus": "Selasphorus",
        "Species": "sasin",
        "IUCN": "LC",
        "col 3": ""
    },
    {
        "Common Name": "Calliope Hummingbird",
        "Genus": "Stellula",
        "Species": "calliope",
        "IUCN": "LC",
        "col 3": ""
    },
    {
        "Common Name": "Belted Kingfisher",
        "Genus": "Megaceryle",
        "Species": "alcyon",
        "IUCN": "LC",
        "col 3": ""
    },
    {
        "Common Name": "Red-headed Woodpecker",
        "Genus": "Melanerpes",
        "Species": "erythrocephalus",
        "IUCN": "NT",
        "col 3": ""
    },
    {
        "Common Name": "Acorn Woodpecker",
        "Genus": "Melanerpes",
        "Species": "formicivorus",
        "IUCN": "LC",
        "col 3": ""
    },
    {
        "Common Name": "Gila Woodpecker",
        "Genus": "Melanerpes",
        "Species": "uropygialis",
        "IUCN": "LC",
        "col 3": ""
    },
    {
        "Common Name": "Red-bellied Woodpecker",
        "Genus": "Melanerpes",
        "Species": "carolinus",
        "IUCN": "LC",
        "col 3": ""
    },
    {
        "Common Name": "Williamson's Sapsucker",
        "Genus": "Sphyrapicus",
        "Species": "thyroideus",
        "IUCN": "LC",
        "col 3": ""
    },
    {
        "Common Name": "Yellow-bellied Sapsucker",
        "Genus": "Sphyrapicus",
        "Species": "varius",
        "IUCN": "LC",
        "col 3": ""
    },
    {
        "Common Name": "Red-naped Sapsucker",
        "Genus": "Sphyrapicus",
        "Species": "nuchalis",
        "IUCN": "LC",
        "col 3": ""
    },
    {
        "Common Name": "Ladder-backed Woodpecker",
        "Genus": "Picoides",
        "Species": "scalaris",
        "IUCN": "LC",
        "col 3": ""
    },
    {
        "Common Name": "Downy Woodpecker",
        "Genus": "Picoides",
        "Species": "pubescens",
        "IUCN": "LC",
        "col 3": ""
    },
    {
        "Common Name": "Hairy Woodpecker",
        "Genus": "Picoides",
        "Species": "villosus",
        "IUCN": "LC",
        "col 3": ""
    },
    {
        "Common Name": "Black-backed Woodpecker",
        "Genus": "Picoides",
        "Species": "arcticus",
        "IUCN": "LC",
        "col 3": ""
    },
    {
        "Common Name": "Northern Flicker",
        "Genus": "Colaptes",
        "Species": "auratus",
        "IUCN": "LC",
        "col 3": ""
    },
    {
        "Common Name": "Pileated Woodpecker",
        "Genus": "Dryocopus",
        "Species": "pileatus",
        "IUCN": "LC",
        "col 3": ""
    },
    {
        "Common Name": "Eastern Phoebe",
        "Genus": "Sayornis",
        "Species": "phoebe",
        "IUCN": "LC",
        "col 3": ""
    },
    {
        "Common Name": "Olive-sided Flycatcher",
        "Genus": "Contopus",
        "Species": "cooperii",
        "IUCN": "NT",
        "col 3": ""
    },
    {
        "Common Name": "Western Wood Pewee",
        "Genus": "Contopus",
        "Species": "sordidulus",
        "IUCN": "LC",
        "col 3": ""
    },
    {
        "Common Name": "Eastern Wood Pewee",
        "Genus": "Contopus",
        "Species": "virens",
        "IUCN": "LC",
        "col 3": ""
    },
    {
        "Common Name": "Yellow-bellied Flycatcher",
        "Genus": "Empidonax",
        "Species": "flaviventris",
        "IUCN": "LC",
        "col 3": ""
    },
    {
        "Common Name": "Acadian Flycatcher",
        "Genus": "Empidonax",
        "Species": "virescens",
        "IUCN": "LC",
        "col 3": ""
    },
    {
        "Common Name": "Willow Flycatcher",
        "Genus": "Empidonax",
        "Species": "traillii",
        "IUCN": "LC",
        "col 3": ""
    },
    {
        "Common Name": "Least Flycatcher",
        "Genus": "Empidonax",
        "Species": "minimus",
        "IUCN": "LC",
        "col 3": ""
    },
    {
        "Common Name": "Hammond's Flycatcher",
        "Genus": "Empidonax",
        "Species": "hammondii",
        "IUCN": "LC",
        "col 3": ""
    },
    {
        "Common Name": "Great Kiskadee",
        "Genus": "Pitangus",
        "Species": "sulphuratus",
        "IUCN": "LC",
        "col 3": ""
    },
    {
        "Common Name": "Couch's Kingbird",
        "Genus": "Tyrannus",
        "Species": "couchii",
        "IUCN": "LC",
        "col 3": ""
    },
    {
        "Common Name": "Western Kingbird",
        "Genus": "Tyrannus",
        "Species": "verticalis",
        "IUCN": "LC",
        "col 3": ""
    },
    {
        "Common Name": "Scissor-tailed Flycatcher",
        "Genus": "Tyrannus",
        "Species": "forficatus",
        "IUCN": "LC",
        "col 3": ""
    },
    {
        "Common Name": "Eastern Kingbird",
        "Genus": "Tyrannus",
        "Species": "tyrannus",
        "IUCN": "LC",
        "col 3": ""
    },
    {
        "Common Name": "Great Crested Flycatcher",
        "Genus": "Myiarchus",
        "Species": "crinitus",
        "IUCN": "LC",
        "col 3": ""
    },
    {
        "Common Name": "Loggerhead Shrike",
        "Genus": "Lanius",
        "Species": "ludovicianus",
        "IUCN": "LC",
        "col 3": ""
    },
    {
        "Common Name": "Great Grey Shrike",
        "Genus": "Lanius",
        "Species": "excubitor",
        "IUCN": "LC",
        "col 3": ""
    },
    {
        "Common Name": "White-eyed Vireo",
        "Genus": "Vireo",
        "Species": "griseus",
        "IUCN": "LC",
        "col 3": ""
    },
    {
        "Common Name": "Yellow-throated Vireo",
        "Genus": "Vireo",
        "Species": "flavifrons",
        "IUCN": "LC",
        "col 3": ""
    },
    {
        "Common Name": "Blue-headed Vireo",
        "Genus": "Vireo",
        "Species": "solitarius",
        "IUCN": "LC",
        "col 3": ""
    },
    {
        "Common Name": "Warbling Vireo",
        "Genus": "Vireo",
        "Species": "gilvus",
        "IUCN": "LC",
        "col 3": ""
    },
    {
        "Common Name": "Philadelphia Vireo",
        "Genus": "Vireo",
        "Species": "philadelphicus",
        "IUCN": "LC",
        "col 3": ""
    },
    {
        "Common Name": "Red-eyed Vireo",
        "Genus": "Vireo",
        "Species": "olivaceus",
        "IUCN": "LC",
        "col 3": ""
    },
    {
        "Common Name": "Blue Jay",
        "Genus": "Cyanocitta",
        "Species": "cristata",
        "IUCN": "LC",
        "col 3": ""
    },
    {
        "Common Name": "Steller's Jay",
        "Genus": "Cyanocitta",
        "Species": "stelleri",
        "IUCN": "LC",
        "col 3": ""
    },
    {
        "Common Name": "Western Scrub Jay",
        "Genus": "Aphelocoma",
        "Species": "californica",
        "IUCN": "LC",
        "col 3": ""
    },
    {
        "Common Name": "American Crow",
        "Genus": "Corvus",
        "Species": "brachyrhynchos",
        "IUCN": "LC",
        "col 3": ""
    },
    {
        "Common Name": "Bohemian Waxing",
        "Genus": "Bombycilla",
        "Species": "garrulus",
        "IUCN": "LC",
        "col 3": ""
    },
    {
        "Common Name": "Cedar Waxwing",
        "Genus": "Bombycilla",
        "Species": "cedrorum",
        "IUCN": "LC",
        "col 3": ""
    },
    {
        "Common Name": "Carolina Chickadee",
        "Genus": "Poecile",
        "Species": "carolinensis",
        "IUCN": "LC",
        "col 3": ""
    },
    {
        "Common Name": "Black-capped Chickadee",
        "Genus": "Poecile",
        "Species": "atricapillus",
        "IUCN": "LC",
        "col 3": ""
    },
    {
        "Common Name": "Mountain Chickadee",
        "Genus": "Poecile",
        "Species": "gambeli",
        "IUCN": "LC",
        "col 3": ""
    },
    {
        "Common Name": "Boreal Chickadee",
        "Genus": "Poecile",
        "Species": "hudsonica",
        "IUCN": "LC",
        "col 3": ""
    },
    {
        "Common Name": "Chestnut-backed Chickadee",
        "Genus": "Poecile",
        "Species": "rufescens",
        "IUCN": "LC",
        "col 3": ""
    },
    {
        "Common Name": "Oak Titmouse",
        "Genus": "Baeolophus",
        "Species": "inornatus",
        "IUCN": "LC",
        "col 3": ""
    },
    {
        "Common Name": "Tufted Titmouse",
        "Genus": "Baeolophus",
        "Species": "bicolor",
        "IUCN": "LC",
        "col 3": ""
    },
    {
        "Common Name": "Verdin",
        "Genus": "Auriparus",
        "Species": "flaviceps",
        "IUCN": "LC",
        "col 3": ""
    },
    {
        "Common Name": "Sand Martin",
        "Genus": "Riparia",
        "Species": "riparia",
        "IUCN": "LC",
        "col 3": ""
    },
    {
        "Common Name": "Tree Swallow",
        "Genus": "Tachycineta",
        "Species": "bicolor",
        "IUCN": "LC",
        "col 3": ""
    },
    {
        "Common Name": "Violet-green Swallow",
        "Genus": "Tachycineta",
        "Species": "thalassina",
        "IUCN": "LC",
        "col 3": ""
    },
    {
        "Common Name": "Purple Martin",
        "Genus": "Progne",
        "Species": "subis",
        "IUCN": "LC",
        "col 3": ""
    },
    {
        "Common Name": "Northern Rough-winged Swallow",
        "Genus": "Stelgidopteryx",
        "Species": "serripennis",
        "IUCN": "LC",
        "col 3": ""
    },
    {
        "Common Name": "Barn Swallow",
        "Genus": "Hirundo",
        "Species": "rustica",
        "IUCN": "LC",
        "col 3": ""
    },
    {
        "Common Name": "American Cliff Swallow",
        "Genus": "Petrochelidon",
        "Species": "pyrrhonota",
        "IUCN": "LC",
        "col 3": ""
    },
    {
        "Common Name": "Cave Swallow",
        "Genus": "Petrochelidon",
        "Species": "fulva",
        "IUCN": "LC",
        "col 3": ""
    },
    {
        "Common Name": "American Bushtit",
        "Genus": "Psaltriparus",
        "Species": "minimus",
        "IUCN": "LC",
        "col 3": ""
    },
    {
        "Common Name": "Japanese White-eye",
        "Genus": "Zosterops",
        "Species": "japonicus",
        "IUCN": "LC",
        "col 3": "Hawaii"
    },
    {
        "Common Name": "Golden-crowned Kinglet",
        "Genus": "Regulus",
        "Species": "satrapa",
        "IUCN": "LC",
        "col 3": ""
    },
    {
        "Common Name": "Ruby-crowned Kinglet",
        "Genus": "Regulus",
        "Species": "calendula",
        "IUCN": "LC",
        "col 3": ""
    },
    {
        "Common Name": "Sedge Wren",
        "Genus": "Cistothorus",
        "Species": "platensis",
        "IUCN": "LC",
        "col 3": ""
    },
    {
        "Common Name": "Long-Billed Marsh Wren",
        "Genus": "Cistothorus",
        "Species": "palustris",
        "IUCN": "LC",
        "col 3": ""
    },
    {
        "Common Name": "Bewick's Wren",
        "Genus": "Thryomanes",
        "Species": "bewickii",
        "IUCN": "LC",
        "col 3": ""
    },
    {
        "Common Name": "Carolina Wren",
        "Genus": "Thryothorus",
        "Species": "ludovicianus",
        "IUCN": "LC",
        "col 3": ""
    },
    {
        "Common Name": "Winter Wren",
        "Genus": "Troglodytes",
        "Species": "troglodytes",
        "IUCN": "LC",
        "col 3": ""
    },
    {
        "Common Name": "House Wren",
        "Genus": "Troglodytes",
        "Species": "aedon",
        "IUCN": "LC",
        "col 3": ""
    },
    {
        "Common Name": "Red-breasted Nuthatch",
        "Genus": "Sitta",
        "Species": "canadensis",
        "IUCN": "LC",
        "col 3": ""
    },
    {
        "Common Name": "White-breasted Nuthatch",
        "Genus": "Sitta",
        "Species": "carolinensis",
        "IUCN": "LC",
        "col 3": ""
    },
    {
        "Common Name": "Brown Creeper",
        "Genus": "Certhia",
        "Species": "americana",
        "IUCN": "LC",
        "col 3": ""
    },
    {
        "Common Name": "Gray Catbird",
        "Genus": "Dumetella",
        "Species": "carolinensis",
        "IUCN": "LC",
        "col 3": ""
    },
    {
        "Common Name": "Northern Mockingbird",
        "Genus": "Mimus",
        "Species": "polyglottos",
        "IUCN": "LC",
        "col 3": ""
    },
    {
        "Common Name": "Brown Thrasher",
        "Genus": "Toxostoma",
        "Species": "refum",
        "IUCN": "LC",
        "col 3": ""
    },
    {
        "Common Name": "Long-billed Thrasher",
        "Genus": "Toxostoma",
        "Species": "longirostre",
        "IUCN": "LC",
        "col 3": ""
    },
    {
        "Common Name": "Common Myna",
        "Genus": "Acridotheres",
        "Species": "tristis",
        "IUCN": "LC",
        "col 3": ""
    },
    {
        "Common Name": "Common Starling",
        "Genus": "Sturnus",
        "Species": "vulgaris",
        "IUCN": "LC",
        "col 3": ""
    },
    {
        "Common Name": "Varied Thrush",
        "Genus": "Ixoreus",
        "Species": "naevius",
        "IUCN": "LC",
        "col 3": ""
    },
    {
        "Common Name": "Eastern Bluebird",
        "Genus": "Sialia",
        "Species": "sialis",
        "IUCN": "LC",
        "col 3": ""
    },
    {
        "Common Name": "Western Bluebird",
        "Genus": "Sialia",
        "Species": "mexicana",
        "IUCN": "LC",
        "col 3": ""
    },
    {
        "Common Name": "Mountain Bluebird",
        "Genus": "Sialia",
        "Species": "currucoides",
        "IUCN": "LC",
        "col 3": ""
    },
    {
        "Common Name": "Townsend's Solitaire",
        "Genus": "Myadestes",
        "Species": "townsendi",
        "IUCN": "LC",
        "col 3": ""
    },
    {
        "Common Name": "Orange-billed Nightingale-Thrush",
        "Genus": "Catharus",
        "Species": "aurantiirostris",
        "IUCN": "LC",
        "col 3": ""
    },
    {
        "Common Name": "Veery",
        "Genus": "Catharus",
        "Species": "fuscescens",
        "IUCN": "LC",
        "col 3": ""
    },
    {
        "Common Name": "Grey-cheeked Thrush",
        "Genus": "Catharus",
        "Species": "minimus",
        "IUCN": "LC",
        "col 3": ""
    },
    {
        "Common Name": "Swainson's Thrush",
        "Genus": "Catharus",
        "Species": "ustulatus",
        "IUCN": "LC",
        "col 3": ""
    },
    {
        "Common Name": "Hermit Thrush",
        "Genus": "Catharus",
        "Species": "guttatus",
        "IUCN": "LC",
        "col 3": ""
    },
    {
        "Common Name": "Wood Thrush",
        "Genus": "Hylocichla",
        "Species": "mustelina",
        "IUCN": "LC",
        "col 3": ""
    },
    {
        "Common Name": "American Robin",
        "Genus": "Turdus",
        "Species": "migratorius",
        "IUCN": "LC",
        "col 3": ""
    },
    {
        "Common Name": "House Sparrow",
        "Genus": "Passer",
        "Species": "domesticus",
        "IUCN": "LC",
        "col 3": ""
    },
    {
        "Common Name": "Scaly-breasted Munia",
        "Genus": "Lonchura",
        "Species": "punctulata",
        "IUCN": "LC",
        "col 3": "Hawaii"
    },
    {
        "Common Name": "Black-headed Munia",
        "Genus": "Lonchura",
        "Species": "malacca",
        "IUCN": "LC",
        "col 3": "Hawaii"
    },
    {
        "Common Name": "Buff-bellied Pipit",
        "Genus": "Anthus",
        "Species": "rubescens",
        "IUCN": "LC",
        "col 3": ""
    },
    {
        "Common Name": "Pine Siskin",
        "Genus": "Carduelis",
        "Species": "pinus",
        "IUCN": "LC",
        "col 3": ""
    },
    {
        "Common Name": "American Goldfinch",
        "Genus": "Carduelis",
        "Species": "tristis",
        "IUCN": "LC",
        "col 3": ""
    },
    {
        "Common Name": "Lesser Goldfinch",
        "Genus": "Carduelis",
        "Species": "psaltria",
        "IUCN": "LC",
        "col 3": ""
    },
    {
        "Common Name": "Common Redpoll",
        "Genus": "Carduelis",
        "Species": "flammea",
        "IUCN": "LC",
        "col 3": ""
    },
    {
        "Common Name": "Purple Finch",
        "Genus": "Carpodacus",
        "Species": "purpureus",
        "IUCN": "LC",
        "col 3": ""
    },
    {
        "Common Name": "Cassin's Finch",
        "Genus": "Carpodacus",
        "Species": "cassinii",
        "IUCN": "NT",
        "col 3": ""
    },
    {
        "Common Name": "House Finch",
        "Genus": "Carpodacus",
        "Species": "mexicanus",
        "IUCN": "LC",
        "col 3": ""
    },
    {
        "Common Name": "Pine Grosbeak",
        "Genus": "Pinicola",
        "Species": "enucleator",
        "IUCN": "LC",
        "col 3": ""
    },
    {
        "Common Name": "Red Crossbill",
        "Genus": "Loxia",
        "Species": "curvirostra",
        "IUCN": "LC",
        "col 3": ""
    },
    {
        "Common Name": "Two-barred Crossbill",
        "Genus": "Loxia",
        "Species": "leucoptera",
        "IUCN": "LC",
        "col 3": ""
    },
    {
        "Common Name": "Evening Grosbeak",
        "Genus": "Hesperiphona",
        "Species": "vespertina",
        "IUCN": "LC",
        "col 3": ""
    },
    {
        "Common Name": "Golden-winged Warbler",
        "Genus": "Vermivora",
        "Species": "chrysoptera",
        "IUCN": "NT",
        "col 3": ""
    },
    {
        "Common Name": "Blue-winged Warbler",
        "Genus": "Vermivora",
        "Species": "pinus",
        "IUCN": "LC",
        "col 3": ""
    },
    {
        "Common Name": "Tennessee Warbler",
        "Genus": "Vermivora",
        "Species": "peregrina",
        "IUCN": "LC",
        "col 3": ""
    },
    {
        "Common Name": "Orange-crowned Warbler",
        "Genus": "Vermivora",
        "Species": "celata",
        "IUCN": "LC",
        "col 3": ""
    },
    {
        "Common Name": "Nashville Warbler",
        "Genus": "Vermivora",
        "Species": "ruficapilla",
        "IUCN": "LC",
        "col 3": ""
    },
    {
        "Common Name": "Virginia's Warbler",
        "Genus": "Vermivora",
        "Species": "virginiae",
        "IUCN": "LC",
        "col 3": ""
    },
    {
        "Common Name": "Northern Parula",
        "Genus": "Parula",
        "Species": "americana",
        "IUCN": "LC",
        "col 3": ""
    },
    {
        "Common Name": "Chestnut-sided Warbler",
        "Genus": "Dendroica",
        "Species": "pensylvanica",
        "IUCN": "LC",
        "col 3": ""
    },
    {
        "Common Name": "American Yellow Warbler",
        "Genus": "Dendroica",
        "Species": "petechia",
        "IUCN": "LC",
        "col 3": ""
    },
    {
        "Common Name": "Blackpoll Warbler",
        "Genus": "Dendroica",
        "Species": "striata",
        "IUCN": "LC",
        "col 3": ""
    },
    {
        "Common Name": "Bay-breasted Warbler",
        "Genus": "Dendroica",
        "Species": "castanea",
        "IUCN": "LC",
        "col 3": ""
    },
    {
        "Common Name": "Blackburnian Warbler",
        "Genus": "Dendroica",
        "Species": "fusca",
        "IUCN": "LC",
        "col 3": ""
    },
    {
        "Common Name": "Magnolia Warbler",
        "Genus": "Dendroica",
        "Species": "magnolia",
        "IUCN": "LC",
        "col 3": ""
    },
    {
        "Common Name": "Cape May Warbler",
        "Genus": "Dendroica",
        "Species": "tigrina",
        "IUCN": "LC",
        "col 3": ""
    },
    {
        "Common Name": "Black-throated Blue Warbler",
        "Genus": "Dendroica",
        "Species": "caerulescens",
        "IUCN": "LC",
        "col 3": ""
    },
    {
        "Common Name": "Yellow-rumped Warbler",
        "Genus": "Dendroica",
        "Species": "coronata",
        "IUCN": "LC",
        "col 3": ""
    },
    {
        "Common Name": "Black-throated Grey Warbler",
        "Genus": "Dendroica",
        "Species": "nigrescens",
        "IUCN": "LC",
        "col 3": ""
    },
    {
        "Common Name": "Black-throated Green Warbler",
        "Genus": "Dendroica",
        "Species": "virens",
        "IUCN": "LC",
        "col 3": ""
    },
    {
        "Common Name": "Townsend's Warbler",
        "Genus": "Dendroica",
        "Species": "townsendi",
        "IUCN": "LC",
        "col 3": ""
    },
    {
        "Common Name": "Yellow-throated Warbler",
        "Genus": "Dendroica",
        "Species": "dominica",
        "IUCN": "LC",
        "col 3": ""
    },
    {
        "Common Name": "Pine Warbler",
        "Genus": "Dendroica",
        "Species": "pinus",
        "IUCN": "LC",
        "col 3": ""
    },
    {
        "Common Name": "Kirtland's Warbler",
        "Genus": "Dendroica",
        "Species": "kirtlandii",
        "IUCN": "NT",
        "col 3": ""
    },
    {
        "Common Name": "Palm Warbler",
        "Genus": "Dendroica",
        "Species": "palmarum",
        "IUCN": "LC",
        "col 3": ""
    },
    {
        "Common Name": "Black-and-white Warbler",
        "Genus": "Mniotilta",
        "Species": "varia",
        "IUCN": "LC",
        "col 3": ""
    },
    {
        "Common Name": "American Redstart",
        "Genus": "Setophaga",
        "Species": "ruticilla",
        "IUCN": "LC",
        "col 3": ""
    },
    {
        "Common Name": "Prothonotary Warbler",
        "Genus": "Protonotaria",
        "Species": "citrea",
        "IUCN": "LC",
        "col 3": ""
    },
    {
        "Common Name": "Worm-eating Warbler",
        "Genus": "Helmitheros",
        "Species": "vermivorus",
        "IUCN": "LC",
        "col 3": ""
    },
    {
        "Common Name": "Ovenbird",
        "Genus": "Seiurus",
        "Species": "aurocapillia",
        "IUCN": "LC",
        "col 3": ""
    },
    {
        "Common Name": "Northern Waterthrush",
        "Genus": "Seiurus",
        "Species": "noveboracensis",
        "IUCN": "LC",
        "col 3": ""
    },
    {
        "Common Name": "Louisiana Waterthrush",
        "Genus": "Seiurus",
        "Species": "motacilla",
        "IUCN": "LC",
        "col 3": ""
    },
    {
        "Common Name": "Kentucky Warbler",
        "Genus": "Oporornis",
        "Species": "formosus",
        "IUCN": "LC",
        "col 3": ""
    },
    {
        "Common Name": "Connecticut Warbler",
        "Genus": "Oporornis",
        "Species": "agilis",
        "IUCN": "LC",
        "col 3": ""
    },
    {
        "Common Name": "Mourning Warbler",
        "Genus": "Oporornis",
        "Species": "philadelphia",
        "IUCN": "LC",
        "col 3": ""
    },
    {
        "Common Name": "MacGillivray's Warbler",
        "Genus": "Oporornis",
        "Species": "tolmiei",
        "IUCN": "LC",
        "col 3": ""
    },
    {
        "Common Name": "Common Yellowthroat",
        "Genus": "Geothlypis",
        "Species": "trichas",
        "IUCN": "LC",
        "col 3": ""
    },
    {
        "Common Name": "Hooded Warbler",
        "Genus": "Wilsonia",
        "Species": "citrina",
        "IUCN": "LC",
        "col 3": ""
    },
    {
        "Common Name": "Wilson's Warbler",
        "Genus": "Wilsonia",
        "Species": "pusilla",
        "IUCN": "LC",
        "col 3": ""
    },
    {
        "Common Name": "Canada Warbler",
        "Genus": "Wilsonia",
        "Species": "canadensis",
        "IUCN": "LC",
        "col 3": ""
    },
    {
        "Common Name": "Yellow-breasted Chat",
        "Genus": "Icteria",
        "Species": "virens",
        "IUCN": "LC",
        "col 3": ""
    },
    {
        "Common Name": "Orchard Oriole",
        "Genus": "Icterus",
        "Species": "spurius",
        "IUCN": "LC",
        "col 3": ""
    },
    {
        "Common Name": "Hooded Oriole",
        "Genus": "Icterus",
        "Species": "cucullatus",
        "IUCN": "LC",
        "col 3": ""
    },
    {
        "Common Name": "Baltimore Oriole",
        "Genus": "Icterus",
        "Species": "galbula",
        "IUCN": "LC",
        "col 3": ""
    },
    {
        "Common Name": "Bullock's Oriole",
        "Genus": "Icterus",
        "Species": "bullockii",
        "IUCN": "LC",
        "col 3": ""
    },
    {
        "Common Name": "Bronzed Cowbird",
        "Genus": "Molothrus",
        "Species": "aeneus",
        "IUCN": "LC",
        "col 3": ""
    },
    {
        "Common Name": "Brown-headed Cowbird",
        "Genus": "Molothrus",
        "Species": "ater",
        "IUCN": "LC",
        "col 3": ""
    },
    {
        "Common Name": "Red-winged Blackbird",
        "Genus": "Agelaius",
        "Species": "phoenicus",
        "IUCN": "LC",
        "col 3": ""
    },
    {
        "Common Name": "Rusty Blackbird",
        "Genus": "Euphagus",
        "Species": "carolinus",
        "IUCN": "VU",
        "col 3": ""
    },
    {
        "Common Name": "Brewer's Blackbird",
        "Genus": "Euphagus",
        "Species": "cyanocephalus",
        "IUCN": "LC",
        "col 3": ""
    },
    {
        "Common Name": "Common Grackle",
        "Genus": "Quiscalus",
        "Species": "quiscula",
        "IUCN": "LC",
        "col 3": ""
    },
    {
        "Common Name": "Great-tailed Grackle",
        "Genus": "Quiscalus",
        "Species": "mexicanus",
        "IUCN": "LC",
        "col 3": ""
    },
    {
        "Common Name": "Greater Antillean Grackle",
        "Genus": "Quiscalus",
        "Species": "niger",
        "IUCN": "LC",
        "col 3": "P. R."
    },
    {
        "Common Name": "Eastern Meadowlark",
        "Genus": "Sturnella",
        "Species": "magna",
        "IUCN": "LC",
        "col 3": ""
    },
    {
        "Common Name": "Snow Bunting",
        "Genus": "Plectrophenax",
        "Species": "nivalis",
        "IUCN": "LC",
        "col 3": ""
    },
    {
        "Common Name": "Fox Sparrow",
        "Genus": "Passerella",
        "Species": "iliaca",
        "IUCN": "LC",
        "col 3": ""
    },
    {
        "Common Name": "Song Sparrow",
        "Genus": "Melospiza",
        "Species": "melodia",
        "IUCN": "LC",
        "col 3": ""
    },
    {
        "Common Name": "Lincoln's Sparrow",
        "Genus": "Melospiza",
        "Species": "lincolnii",
        "IUCN": "LC",
        "col 3": ""
    },
    {
        "Common Name": "Swamp Sparrow",
        "Genus": "Melospiza",
        "Species": "georgiana",
        "IUCN": "LC",
        "col 3": ""
    },
    {
        "Common Name": "Harris's Sparrow",
        "Genus": "Zonotrichia",
        "Species": "querula",
        "IUCN": "LC",
        "col 3": ""
    },
    {
        "Common Name": "White-crowned Sparrow",
        "Genus": "Zonotrichia",
        "Species": "leucophrys",
        "IUCN": "LC",
        "col 3": ""
    },
    {
        "Common Name": "White-throated Sparrow",
        "Genus": "Zonotrichia",
        "Species": "albicollis",
        "IUCN": "LC",
        "col 3": ""
    },
    {
        "Common Name": "Golden-crowned Sparrow",
        "Genus": "Zonotrichia",
        "Species": "atricapilla",
        "IUCN": "LC",
        "col 3": ""
    },
    {
        "Common Name": "Dark-eyed Junco",
        "Genus": "Junco",
        "Species": "hyemalis",
        "IUCN": "LC",
        "col 3": ""
    },
    {
        "Common Name": "Yellow-eyed Junco",
        "Genus": "Junco",
        "Species": "phaeonotus",
        "IUCN": "LC",
        "col 3": ""
    },
    {
        "Common Name": "Savannah Sparrow",
        "Genus": "Passerculus",
        "Species": "sandwichensis",
        "IUCN": "LC",
        "col 3": ""
    },
    {
        "Common Name": "Nelson's Sparrow",
        "Genus": "Ammodramus",
        "Species": "nelsoni",
        "IUCN": "LC",
        "col 3": ""
    },
    {
        "Common Name": "LeConte's Sparrow",
        "Genus": "Ammodramus",
        "Species": "leconteii",
        "IUCN": "LC",
        "col 3": ""
    },
    {
        "Common Name": "Grasshopper Sparrow",
        "Genus": "Ammodramus",
        "Species": "savannarum",
        "IUCN": "LC",
        "col 3": ""
    },
    {
        "Common Name": "American Tree Sparrow",
        "Genus": "Spizella",
        "Species": "arborea",
        "IUCN": "LC",
        "col 3": ""
    },
    {
        "Common Name": "Chipping Sparrow",
        "Genus": "Spizella",
        "Species": "passerina",
        "IUCN": "LC",
        "col 3": ""
    },
    {
        "Common Name": "Field Sparrow",
        "Genus": "Spizella",
        "Species": "pusilla",
        "IUCN": "LC",
        "col 3": ""
    },
    {
        "Common Name": "Black-chinned Sparrow",
        "Genus": "Spizella",
        "Species": "atrogularis",
        "IUCN": "LC",
        "col 3": ""
    },
    {
        "Common Name": "Clay-colored Sparrow",
        "Genus": "Spizella",
        "Species": "pallida",
        "IUCN": "LC",
        "col 3": ""
    },
    {
        "Common Name": "Brewer's Sparrow",
        "Genus": "Spizella",
        "Species": "breweri",
        "IUCN": "NT",
        "col 3": ""
    },
    {
        "Common Name": "Lark Sparrow",
        "Genus": "Chondestes",
        "Species": "grammacus",
        "IUCN": "LC",
        "col 3": ""
    },
    {
        "Common Name": "Black-throated Sparrow",
        "Genus": "Amphispiza",
        "Species": "bilineata",
        "IUCN": "LC",
        "col 3": ""
    },
    {
        "Common Name": "Cassin's Sparrow",
        "Genus": "Aimophila",
        "Species": "cassinii",
        "IUCN": "LC",
        "col 3": ""
    },
    {
        "Common Name": "Green-tailed Towhee",
        "Genus": "Pipilo",
        "Species": "chlorurus",
        "IUCN": "LC",
        "col 3": ""
    },
    {
        "Common Name": "Spotted Towhee",
        "Genus": "Pipilo",
        "Species": "maculatus",
        "IUCN": "LC",
        "col 3": ""
    },
    {
        "Common Name": "Eastern Towhee",
        "Genus": "Pipilo",
        "Species": "erythrophthalmus",
        "IUCN": "LC",
        "col 3": ""
    },
    {
        "Common Name": "Canyon Towhee",
        "Genus": "Pipilo",
        "Species": "fuscus",
        "IUCN": "LC",
        "col 3": ""
    },
    {
        "Common Name": "California Towhee",
        "Genus": "Pipilo",
        "Species": "crissalis",
        "IUCN": "LC",
        "col 3": ""
    },
    {
        "Common Name": "Red-crested Cardinal",
        "Genus": "Paroaria",
        "Species": "coronata",
        "IUCN": "LC",
        "col 3": "Hawaii"
    },
    {
        "Common Name": "Black-faced Grassquit",
        "Genus": "Tiaris",
        "Species": "bicolor",
        "IUCN": "LC",
        "col 3": "P. R."
    },
    {
        "Common Name": "Summer Tanager",
        "Genus": "Piranga",
        "Species": "rubra",
        "IUCN": "LC",
        "col 3": ""
    },
    {
        "Common Name": "Scarlet Tanager",
        "Genus": "Piranga",
        "Species": "olivacea",
        "IUCN": "LC",
        "col 3": ""
    },
    {
        "Common Name": "Western Tanager",
        "Genus": "Piranga",
        "Species": "ludoviciana",
        "IUCN": "LC",
        "col 3": ""
    },
    {
        "Common Name": "Dickcissel",
        "Genus": "Spiza",
        "Species": "americana",
        "IUCN": "LC",
        "col 3": ""
    },
    {
        "Common Name": "Rose-breasted Grosbeak",
        "Genus": "Pheucticus",
        "Species": "ludovicianus",
        "IUCN": "LC",
        "col 3": ""
    },
    {
        "Common Name": "Black-headed Grosbeak",
        "Genus": "Pheucticus",
        "Species": "melanocephalus",
        "IUCN": "LC",
        "col 3": ""
    },
    {
        "Common Name": "Northern Cardinal",
        "Genus": "Cardinalis",
        "Species": "cardinalis",
        "IUCN": "LC",
        "col 3": ""
    },
    {
        "Common Name": "Pyrrhuloxia",
        "Genus": "Cardinalis",
        "Species": "sinuatus",
        "IUCN": "LC",
        "col 3": ""
    },
    {
        "Common Name": "Blue Grosbeak",
        "Genus": "Passerina",
        "Species": "caerulea",
        "IUCN": "LC",
        "col 3": ""
    },
    {
        "Common Name": "Indigo Bunting",
        "Genus": "Passerina",
        "Species": "cyanea",
        "IUCN": "LC",
        "col 3": ""
    },
    {
        "Common Name": "Lazuli Bunting",
        "Genus": "Passerina",
        "Species": "amoena",
        "IUCN": "LC",
        "col 3": ""
    },
    {
        "Common Name": "Painted Bunting",
        "Genus": "Passerina",
        "Species": "ciris",
        "IUCN": "NT",
        "col 3": ""
    }
]