[
    {
        "Continent": "Asia",
        "Region": "South Asia",
        "Country": "Afghanistan",
        "Capital": "Kabul",
        "FIPS": "AF",
        "ISO (2)": "AF",
        "ISO (3)": "AFG",
        "ISO (No)": "004",
        "Internet": "AF",
        "Note": ""
    },
    {
        "Continent": "Europe",
        "Region": "South East Europe",
        "Country": "Albania",
        "Capital": "Tirana",
        "FIPS": "AL",
        "ISO (2)": "AL",
        "ISO (3)": "ALB",
        "ISO (No)": "008",
        "Internet": "AL",
        "Note": ""
    },
    {
        "Continent": "Africa",
        "Region": "Northern Africa",
        "Country": "Algeria",
        "Capital": "Algiers",
        "FIPS": "AG",
        "ISO (2)": "DZ",
        "ISO (3)": "DZA",
        "ISO (No)": "012",
        "Internet": "DZ",
        "Note": ""
    },
    {
        "Continent": "Oceania",
        "Region": "Pacific",
        "Country": "American Samoa",
        "Capital": "Pago Pago",
        "FIPS": "AQ",
        "ISO (2)": "AS",
        "ISO (3)": "ASM",
        "ISO (No)": "016",
        "Internet": "AS",
        "Note": ""
    },
    {
        "Continent": "Europe",
        "Region": "South West Europe",
        "Country": "Andorra",
        "Capital": "Andorra la Vella",
        "FIPS": "AN",
        "ISO (2)": "AD",
        "ISO (3)": "AND",
        "ISO (No)": "020",
        "Internet": "AD",
        "Note": ""
    },
    {
        "Continent": "Africa",
        "Region": "Southern Africa",
        "Country": "Angola",
        "Capital": "Luanda",
        "FIPS": "AO",
        "ISO (2)": "AO",
        "ISO (3)": "AGO",
        "ISO (No)": "024",
        "Internet": "AO",
        "Note": ""
    },
    {
        "Continent": "Americas",
        "Region": "West Indies",
        "Country": "Anguilla",
        "Capital": "The Valley",
        "FIPS": "AV",
        "ISO (2)": "AI",
        "ISO (3)": "AIA",
        "ISO (No)": "660",
        "Internet": "AI",
        "Note": ""
    },
    {
        "Continent": "Americas",
        "Region": "West Indies",
        "Country": "Antigua and Barbuda",
        "Capital": "Saint John's",
        "FIPS": "AC",
        "ISO (2)": "AG",
        "ISO (3)": "ATG",
        "ISO (No)": "028",
        "Internet": "AG",
        "Note": ""
    },
    {
        "Continent": "Americas",
        "Region": "South America",
        "Country": "Argentina",
        "Capital": "Buenos Aires",
        "FIPS": "AR",
        "ISO (2)": "AR",
        "ISO (3)": "ARG",
        "ISO (No)": "032",
        "Internet": "AR",
        "Note": ""
    },
    {
        "Continent": "Asia",
        "Region": "South West Asia",
        "Country": "Armenia",
        "Capital": "Yerevan",
        "FIPS": "AM",
        "ISO (2)": "AM",
        "ISO (3)": "ARM",
        "ISO (No)": "051",
        "Internet": "AM",
        "Note": ""
    },
    {
        "Continent": "Americas",
        "Region": "West Indies",
        "Country": "Aruba",
        "Capital": "Oranjestad",
        "FIPS": "AA",
        "ISO (2)": "AW",
        "ISO (3)": "ABW",
        "ISO (No)": "533",
        "Internet": "AW",
        "Note": ""
    },
    {
        "Continent": "Oceania",
        "Region": "Pacific",
        "Country": "Australia",
        "Capital": "Canberra",
        "FIPS": "AS",
        "ISO (2)": "AU",
        "ISO (3)": "AUS",
        "ISO (No)": "036",
        "Internet": "AU",
        "Note": "1"
    },
    {
        "Continent": "Europe",
        "Region": "Central Europe",
        "Country": "Austria",
        "Capital": "Vienna",
        "FIPS": "AU",
        "ISO (2)": "AT",
        "ISO (3)": "AUT",
        "ISO (No)": "040",
        "Internet": "AT",
        "Note": ""
    },
    {
        "Continent": "Asia",
        "Region": "South West Asia",
        "Country": "Azerbaijan",
        "Capital": "Baku (Baki)",
        "FIPS": "AJ",
        "ISO (2)": "AZ",
        "ISO (3)": "AZE",
        "ISO (No)": "031",
        "Internet": "AZ",
        "Note": ""
    },
    {
        "Continent": "Americas",
        "Region": "West Indies",
        "Country": "Bahamas, The",
        "Capital": "Nassau",
        "FIPS": "BF",
        "ISO (2)": "BS",
        "ISO (3)": "BHS",
        "ISO (No)": "044",
        "Internet": "BS",
        "Note": ""
    },
    {
        "Continent": "Asia",
        "Region": "South West Asia",
        "Country": "Bahrain",
        "Capital": "Manama",
        "FIPS": "BA",
        "ISO (2)": "BH",
        "ISO (3)": "BHR",
        "ISO (No)": "048",
        "Internet": "BH",
        "Note": ""
    },
    {
        "Continent": "Asia",
        "Region": "South Asia",
        "Country": "Bangladesh",
        "Capital": "Dhaka",
        "FIPS": "BG",
        "ISO (2)": "BD",
        "ISO (3)": "BGD",
        "ISO (No)": "050",
        "Internet": "BD",
        "Note": ""
    },
    {
        "Continent": "Americas",
        "Region": "West Indies",
        "Country": "Barbados",
        "Capital": "Bridgetown",
        "FIPS": "BB",
        "ISO (2)": "BB",
        "ISO (3)": "BRB",
        "ISO (No)": "052",
        "Internet": "BB",
        "Note": ""
    },
    {
        "Continent": "Europe",
        "Region": "Eastern Europe",
        "Country": "Belarus",
        "Capital": "Minsk",
        "FIPS": "BO",
        "ISO (2)": "BY",
        "ISO (3)": "BLR",
        "ISO (No)": "112",
        "Internet": "BY",
        "Note": ""
    },
    {
        "Continent": "Europe",
        "Region": "Western Europe",
        "Country": "Belgium",
        "Capital": "Brussels",
        "FIPS": "BE",
        "ISO (2)": "BE",
        "ISO (3)": "BEL",
        "ISO (No)": "056",
        "Internet": "BE",
        "Note": ""
    },
    {
        "Continent": "Americas",
        "Region": "Central America",
        "Country": "Belize",
        "Capital": "Belmopan",
        "FIPS": "BH",
        "ISO (2)": "BZ",
        "ISO (3)": "BLZ",
        "ISO (No)": "084",
        "Internet": "BZ",
        "Note": ""
    },
    {
        "Continent": "Africa",
        "Region": "Western Africa",
        "Country": "Benin",
        "Capital": "Porto-Novo ?",
        "FIPS": "BN",
        "ISO (2)": "BJ",
        "ISO (3)": "BEN",
        "ISO (No)": "204",
        "Internet": "BJ",
        "Note": ""
    },
    {
        "Continent": "Americas",
        "Region": "West Indies",
        "Country": "Bermuda",
        "Capital": "Hamilton",
        "FIPS": "BD",
        "ISO (2)": "BM",
        "ISO (3)": "BMU",
        "ISO (No)": "060",
        "Internet": "BM",
        "Note": ""
    },
    {
        "Continent": "Asia",
        "Region": "South Asia",
        "Country": "Bhutan",
        "Capital": "Thimphu",
        "FIPS": "BT",
        "ISO (2)": "BT",
        "ISO (3)": "BTN",
        "ISO (No)": "064",
        "Internet": "BT",
        "Note": ""
    },
    {
        "Continent": "Americas",
        "Region": "South America",
        "Country": "Bolivia",
        "Capital": "La Paz / Sucre",
        "FIPS": "BL",
        "ISO (2)": "BO",
        "ISO (3)": "BOL",
        "ISO (No)": "068",
        "Internet": "BO",
        "Note": ""
    },
    {
        "Continent": "Europe",
        "Region": "South East Europe",
        "Country": "Bosnia and Herzegovina",
        "Capital": "Sarajevo",
        "FIPS": "BK",
        "ISO (2)": "BA",
        "ISO (3)": "BIH",
        "ISO (No)": "070",
        "Internet": "BA",
        "Note": ""
    },
    {
        "Continent": "Africa",
        "Region": "Southern Africa",
        "Country": "Botswana",
        "Capital": "Gaborone",
        "FIPS": "BC",
        "ISO (2)": "BW",
        "ISO (3)": "BWA",
        "ISO (No)": "072",
        "Internet": "BW",
        "Note": ""
    },
    {
        "Continent": "Americas",
        "Region": "South America",
        "Country": "Brazil",
        "Capital": "Brasilia",
        "FIPS": "BR",
        "ISO (2)": "BR",
        "ISO (3)": "BRA",
        "ISO (No)": "076",
        "Internet": "BR",
        "Note": ""
    },
    {
        "Continent": "Americas",
        "Region": "West Indies",
        "Country": "British Virgin Islands",
        "Capital": "Road Town",
        "FIPS": "VI",
        "ISO (2)": "VG",
        "ISO (3)": "VGB",
        "ISO (No)": "092",
        "Internet": "VG",
        "Note": ""
    },
    {
        "Continent": "Asia",
        "Region": "South East Asia",
        "Country": "Brunei",
        "Capital": "Bandar Seri Begawan",
        "FIPS": "BX",
        "ISO (2)": "BN",
        "ISO (3)": "BRN",
        "ISO (No)": "096",
        "Internet": "BN",
        "Note": ""
    },
    {
        "Continent": "Europe",
        "Region": "South East Europe",
        "Country": "Bulgaria",
        "Capital": "Sofia",
        "FIPS": "BU",
        "ISO (2)": "BG",
        "ISO (3)": "BGR",
        "ISO (No)": "100",
        "Internet": "BG",
        "Note": ""
    },
    {
        "Continent": "Africa",
        "Region": "Western Africa",
        "Country": "Burkina Faso",
        "Capital": "Ouagadougou",
        "FIPS": "UV",
        "ISO (2)": "BF",
        "ISO (3)": "BFA",
        "ISO (No)": "854",
        "Internet": "BF",
        "Note": ""
    },
    {
        "Continent": "Africa",
        "Region": "Central Africa",
        "Country": "Burundi",
        "Capital": "Bujumbura",
        "FIPS": "BY",
        "ISO (2)": "BI",
        "ISO (3)": "BDI",
        "ISO (No)": "108",
        "Internet": "BI",
        "Note": ""
    },
    {
        "Continent": "Asia",
        "Region": "South East Asia",
        "Country": "Cambodia",
        "Capital": "Phnom Penh",
        "FIPS": "CB",
        "ISO (2)": "KH",
        "ISO (3)": "KHM",
        "ISO (No)": "116",
        "Internet": "KH",
        "Note": ""
    },
    {
        "Continent": "Africa",
        "Region": "Western Africa",
        "Country": "Cameroon",
        "Capital": "Yaounde",
        "FIPS": "CM",
        "ISO (2)": "CM",
        "ISO (3)": "CMR",
        "ISO (No)": "120",
        "Internet": "CM",
        "Note": ""
    },
    {
        "Continent": "Americas",
        "Region": "North America",
        "Country": "Canada",
        "Capital": "Ottawa",
        "FIPS": "CA",
        "ISO (2)": "CA",
        "ISO (3)": "CAN",
        "ISO (No)": "124",
        "Internet": "CA",
        "Note": ""
    },
    {
        "Continent": "Africa",
        "Region": "Western Africa",
        "Country": "Cape Verde",
        "Capital": "Praia",
        "FIPS": "CV",
        "ISO (2)": "CV",
        "ISO (3)": "CPV",
        "ISO (No)": "132",
        "Internet": "CV",
        "Note": ""
    },
    {
        "Continent": "Americas",
        "Region": "West Indies",
        "Country": "Cayman Islands",
        "Capital": "George Town",
        "FIPS": "CJ",
        "ISO (2)": "KY",
        "ISO (3)": "CYM",
        "ISO (No)": "136",
        "Internet": "KY",
        "Note": ""
    },
    {
        "Continent": "Africa",
        "Region": "Central Africa",
        "Country": "Central African Republic",
        "Capital": "Bangui",
        "FIPS": "CT",
        "ISO (2)": "CF",
        "ISO (3)": "CAF",
        "ISO (No)": "140",
        "Internet": "CF",
        "Note": ""
    },
    {
        "Continent": "Africa",
        "Region": "Central Africa",
        "Country": "Chad",
        "Capital": "N'Djamena",
        "FIPS": "CD",
        "ISO (2)": "TD",
        "ISO (3)": "TCD",
        "ISO (No)": "148",
        "Internet": "TD",
        "Note": ""
    },
    {
        "Continent": "Americas",
        "Region": "South America",
        "Country": "Chile",
        "Capital": "Santiago",
        "FIPS": "CI",
        "ISO (2)": "CL",
        "ISO (3)": "CHL",
        "ISO (No)": "152",
        "Internet": "CL",
        "Note": ""
    },
    {
        "Continent": "Asia",
        "Region": "East Asia",
        "Country": "China",
        "Capital": "Beijing",
        "FIPS": "CH",
        "ISO (2)": "CN",
        "ISO (3)": "CHN",
        "ISO (No)": "156",
        "Internet": "CN",
        "Note": "2"
    },
    {
        "Continent": "Asia",
        "Region": "South East Asia",
        "Country": "Christmas Island",
        "Capital": "The Settlement",
        "FIPS": "KT",
        "ISO (2)": "CX",
        "ISO (3)": "CXR",
        "ISO (No)": "162",
        "Internet": "CX",
        "Note": ""
    },
    {
        "Continent": "Asia",
        "Region": "South East Asia",
        "Country": "Cocos (Keeling) Islands",
        "Capital": "West Island",
        "FIPS": "CK",
        "ISO (2)": "CC",
        "ISO (3)": "CCK",
        "ISO (No)": "166",
        "Internet": "CC",
        "Note": ""
    },
    {
        "Continent": "Americas",
        "Region": "South America",
        "Country": "Colombia",
        "Capital": "Bogota",
        "FIPS": "CO",
        "ISO (2)": "CO",
        "ISO (3)": "COL",
        "ISO (No)": "170",
        "Internet": "CO",
        "Note": ""
    },
    {
        "Continent": "Africa",
        "Region": "Indian Ocean",
        "Country": "Comoros",
        "Capital": "Moroni",
        "FIPS": "CN",
        "ISO (2)": "KM",
        "ISO (3)": "COM",
        "ISO (No)": "174",
        "Internet": "KM",
        "Note": ""
    },
    {
        "Continent": "Africa",
        "Region": "Central Africa",
        "Country": "Congo, Republic of the",
        "Capital": "Brazzaville",
        "FIPS": "CF",
        "ISO (2)": "CG",
        "ISO (3)": "COG",
        "ISO (No)": "178",
        "Internet": "CG",
        "Note": ""
    },
    {
        "Continent": "Oceania",
        "Region": "Pacific",
        "Country": "Cook Islands",
        "Capital": "Avarua",
        "FIPS": "CW",
        "ISO (2)": "CK",
        "ISO (3)": "COK",
        "ISO (No)": "184",
        "Internet": "CK",
        "Note": ""
    },
    {
        "Continent": "Americas",
        "Region": "Central America",
        "Country": "Costa Rica",
        "Capital": "San Jose",
        "FIPS": "CS",
        "ISO (2)": "CR",
        "ISO (3)": "CRI",
        "ISO (No)": "188",
        "Internet": "CR",
        "Note": ""
    },
    {
        "Continent": "Africa",
        "Region": "Western Africa",
        "Country": "Cote d'Ivoire",
        "Capital": "Yamoussoukro",
        "FIPS": "IV",
        "ISO (2)": "CI",
        "ISO (3)": "CIV",
        "ISO (No)": "384",
        "Internet": "CI",
        "Note": ""
    },
    {
        "Continent": "Europe",
        "Region": "South East Europe",
        "Country": "Croatia",
        "Capital": "Zagreb",
        "FIPS": "HR",
        "ISO (2)": "HR",
        "ISO (3)": "HRV",
        "ISO (No)": "191",
        "Internet": "HR",
        "Note": ""
    },
    {
        "Continent": "Americas",
        "Region": "West Indies",
        "Country": "Cuba",
        "Capital": "Havana",
        "FIPS": "CU",
        "ISO (2)": "CU",
        "ISO (3)": "CUB",
        "ISO (No)": "192",
        "Internet": "CU",
        "Note": ""
    },
    {
        "Continent": "Asia",
        "Region": "South West Asia",
        "Country": "Cyprus",
        "Capital": "Nicosia",
        "FIPS": "CY",
        "ISO (2)": "CY",
        "ISO (3)": "CYP",
        "ISO (No)": "196",
        "Internet": "CY",
        "Note": ""
    },
    {
        "Continent": "Europe",
        "Region": "Central Europe",
        "Country": "Czech Republic",
        "Capital": "Prague",
        "FIPS": "EZ",
        "ISO (2)": "CZ",
        "ISO (3)": "CZE",
        "ISO (No)": "203",
        "Internet": "CZ",
        "Note": ""
    },
    {
        "Continent": "Europe",
        "Region": "Northern Europe",
        "Country": "Denmark",
        "Capital": "Copenhagen",
        "FIPS": "DA",
        "ISO (2)": "DK",
        "ISO (3)": "DNK",
        "ISO (No)": "208",
        "Internet": "DK",
        "Note": ""
    },
    {
        "Continent": "Africa",
        "Region": "Eastern Africa",
        "Country": "Djibouti",
        "Capital": "Djibouti",
        "FIPS": "DJ",
        "ISO (2)": "DJ",
        "ISO (3)": "DJI",
        "ISO (No)": "262",
        "Internet": "DJ",
        "Note": ""
    },
    {
        "Continent": "Americas",
        "Region": "West Indies",
        "Country": "Dominica",
        "Capital": "Roseau",
        "FIPS": "DO",
        "ISO (2)": "DM",
        "ISO (3)": "DMA",
        "ISO (No)": "212",
        "Internet": "DM",
        "Note": ""
    },
    {
        "Continent": "Americas",
        "Region": "West Indies",
        "Country": "Dominican Republic",
        "Capital": "Santo Domingo",
        "FIPS": "DR",
        "ISO (2)": "DO",
        "ISO (3)": "DOM",
        "ISO (No)": "214",
        "Internet": "DO",
        "Note": ""
    },
    {
        "Continent": "Americas",
        "Region": "South America",
        "Country": "Ecuador",
        "Capital": "Quito",
        "FIPS": "EC",
        "ISO (2)": "EC",
        "ISO (3)": "ECU",
        "ISO (No)": "218",
        "Internet": "EC",
        "Note": ""
    },
    {
        "Continent": "Africa",
        "Region": "Northern Africa",
        "Country": "Egypt",
        "Capital": "Cairo",
        "FIPS": "EG",
        "ISO (2)": "EG",
        "ISO (3)": "EGY",
        "ISO (No)": "818",
        "Internet": "EG",
        "Note": ""
    },
    {
        "Continent": "Americas",
        "Region": "Central America",
        "Country": "El Salvador",
        "Capital": "San Salvador",
        "FIPS": "ES",
        "ISO (2)": "SV",
        "ISO (3)": "SLV",
        "ISO (No)": "222",
        "Internet": "SV",
        "Note": ""
    },
    {
        "Continent": "Africa",
        "Region": "Western Africa",
        "Country": "Equatorial Guinea",
        "Capital": "Malabo",
        "FIPS": "EK",
        "ISO (2)": "GQ",
        "ISO (3)": "GNQ",
        "ISO (No)": "226",
        "Internet": "GQ",
        "Note": ""
    },
    {
        "Continent": "Africa",
        "Region": "Eastern Africa",
        "Country": "Eritrea",
        "Capital": "Asmara",
        "FIPS": "ER",
        "ISO (2)": "ER",
        "ISO (3)": "ERI",
        "ISO (No)": "232",
        "Internet": "ER",
        "Note": ""
    },
    {
        "Continent": "Europe",
        "Region": "Eastern Europe",
        "Country": "Estonia",
        "Capital": "Tallinn",
        "FIPS": "EN",
        "ISO (2)": "EE",
        "ISO (3)": "EST",
        "ISO (No)": "233",
        "Internet": "EE",
        "Note": ""
    },
    {
        "Continent": "Africa",
        "Region": "Eastern Africa",
        "Country": "Ethiopia",
        "Capital": "Addis Ababa",
        "FIPS": "ET",
        "ISO (2)": "ET",
        "ISO (3)": "ETH",
        "ISO (No)": "231",
        "Internet": "ET",
        "Note": ""
    },
    {
        "Continent": "Americas",
        "Region": "South America",
        "Country": "Falkland Islands (Islas Malvinas)",
        "Capital": "Stanley",
        "FIPS": "FA",
        "ISO (2)": "FK",
        "ISO (3)": "FLK",
        "ISO (No)": "238",
        "Internet": "FK",
        "Note": ""
    },
    {
        "Continent": "Europe",
        "Region": "Northern Europe",
        "Country": "Faroe Islands",
        "Capital": "Torshavn",
        "FIPS": "FO",
        "ISO (2)": "FO",
        "ISO (3)": "FRO",
        "ISO (No)": "234",
        "Internet": "FO",
        "Note": ""
    },
    {
        "Continent": "Oceania",
        "Region": "Pacific",
        "Country": "Fiji",
        "Capital": "Suva",
        "FIPS": "FJ",
        "ISO (2)": "FJ",
        "ISO (3)": "FJI",
        "ISO (No)": "242",
        "Internet": "FJ",
        "Note": ""
    },
    {
        "Continent": "Europe",
        "Region": "Northern Europe",
        "Country": "Finland",
        "Capital": "Helsinki",
        "FIPS": "FI",
        "ISO (2)": "FI",
        "ISO (3)": "FIN",
        "ISO (No)": "246",
        "Internet": "FI",
        "Note": ""
    },
    {
        "Continent": "Europe",
        "Region": "Western Europe",
        "Country": "France",
        "Capital": "Paris",
        "FIPS": "FR",
        "ISO (2)": "FR",
        "ISO (3)": "FRA",
        "ISO (No)": "250",
        "Internet": "FR",
        "Note": ""
    },
    {
        "Continent": "Americas",
        "Region": "South America",
        "Country": "French Guiana",
        "Capital": "Cayenne",
        "FIPS": "FG",
        "ISO (2)": "GF",
        "ISO (3)": "GUF",
        "ISO (No)": "254",
        "Internet": "GF",
        "Note": ""
    },
    {
        "Continent": "Oceania",
        "Region": "Pacific",
        "Country": "French Polynesia",
        "Capital": "Papeete",
        "FIPS": "FP",
        "ISO (2)": "PF",
        "ISO (3)": "PYF",
        "ISO (No)": "258",
        "Internet": "PF",
        "Note": "3"
    },
    {
        "Continent": "Africa",
        "Region": "Western Africa",
        "Country": "Gabon",
        "Capital": "Libreville",
        "FIPS": "GB",
        "ISO (2)": "GA",
        "ISO (3)": "GAB",
        "ISO (No)": "266",
        "Internet": "GA",
        "Note": ""
    },
    {
        "Continent": "Africa",
        "Region": "Western Africa",
        "Country": "Gambia, The",
        "Capital": "Banjul",
        "FIPS": "GA",
        "ISO (2)": "GM",
        "ISO (3)": "GMB",
        "ISO (No)": "270",
        "Internet": "GM",
        "Note": ""
    },
    {
        "Continent": "Asia",
        "Region": "South West Asia",
        "Country": "Georgia",
        "Capital": "T'bilisi",
        "FIPS": "GG",
        "ISO (2)": "GE",
        "ISO (3)": "GEO",
        "ISO (No)": "268",
        "Internet": "GE",
        "Note": ""
    },
    {
        "Continent": "Europe",
        "Region": "Western Europe",
        "Country": "Germany",
        "Capital": "Berlin",
        "FIPS": "GM",
        "ISO (2)": "DE",
        "ISO (3)": "DEU",
        "ISO (No)": "276",
        "Internet": "DE",
        "Note": ""
    },
    {
        "Continent": "Africa",
        "Region": "Western Africa",
        "Country": "Ghana",
        "Capital": "Accra",
        "FIPS": "GH",
        "ISO (2)": "GH",
        "ISO (3)": "GHA",
        "ISO (No)": "288",
        "Internet": "GH",
        "Note": ""
    },
    {
        "Continent": "Europe",
        "Region": "South West Europe",
        "Country": "Gibraltar",
        "Capital": "Gibraltar",
        "FIPS": "GI",
        "ISO (2)": "GI",
        "ISO (3)": "GIB",
        "ISO (No)": "292",
        "Internet": "GI",
        "Note": ""
    },
    {
        "Continent": "Europe",
        "Region": "South East Europe",
        "Country": "Greece",
        "Capital": "Athens",
        "FIPS": "GR",
        "ISO (2)": "GR",
        "ISO (3)": "GRC",
        "ISO (No)": "300",
        "Internet": "GR",
        "Note": ""
    },
    {
        "Continent": "Americas",
        "Region": "North America",
        "Country": "Greenland",
        "Capital": "Nuuk (Godthab)",
        "FIPS": "GL",
        "ISO (2)": "GL",
        "ISO (3)": "GRL",
        "ISO (No)": "304",
        "Internet": "GL",
        "Note": ""
    },
    {
        "Continent": "Americas",
        "Region": "West Indies",
        "Country": "Grenada",
        "Capital": "Saint George's",
        "FIPS": "GJ",
        "ISO (2)": "GD",
        "ISO (3)": "GRD",
        "ISO (No)": "308",
        "Internet": "GD",
        "Note": ""
    },
    {
        "Continent": "Americas",
        "Region": "West Indies",
        "Country": "Guadeloupe",
        "Capital": "Basse-Terre",
        "FIPS": "GP",
        "ISO (2)": "GP",
        "ISO (3)": "GLP",
        "ISO (No)": "312",
        "Internet": "GP",
        "Note": ""
    },
    {
        "Continent": "Oceania",
        "Region": "Pacific",
        "Country": "Guam",
        "Capital": "Hagatna (Agana)",
        "FIPS": "GQ",
        "ISO (2)": "GU",
        "ISO (3)": "GUM",
        "ISO (No)": "316",
        "Internet": "GU",
        "Note": ""
    },
    {
        "Continent": "Americas",
        "Region": "Central America",
        "Country": "Guatemala",
        "Capital": "Guatemala",
        "FIPS": "GT",
        "ISO (2)": "GT",
        "ISO (3)": "GTM",
        "ISO (No)": "320",
        "Internet": "GT",
        "Note": ""
    },
    {
        "Continent": "Europe",
        "Region": "Western Europe",
        "Country": "Guernsey",
        "Capital": "Saint Peter Port",
        "FIPS": "--",
        "ISO (2)": "--",
        "ISO (3)": "--",
        "ISO (No)": "",
        "Internet": "--",
        "Note": ""
    },
    {
        "Continent": "Africa",
        "Region": "Western Africa",
        "Country": "Guinea",
        "Capital": "Conakry",
        "FIPS": "GV",
        "ISO (2)": "GN",
        "ISO (3)": "GIN",
        "ISO (No)": "324",
        "Internet": "GN",
        "Note": ""
    },
    {
        "Continent": "Africa",
        "Region": "Western Africa",
        "Country": "Guinea-Bissau",
        "Capital": "Bissau",
        "FIPS": "PU",
        "ISO (2)": "GW",
        "ISO (3)": "GNB",
        "ISO (No)": "624",
        "Internet": "GW",
        "Note": ""
    },
    {
        "Continent": "Americas",
        "Region": "South America",
        "Country": "Guyana",
        "Capital": "Georgetown",
        "FIPS": "GY",
        "ISO (2)": "GY",
        "ISO (3)": "GUY",
        "ISO (No)": "328",
        "Internet": "GY",
        "Note": ""
    },
    {
        "Continent": "Americas",
        "Region": "West Indies",
        "Country": "Haiti",
        "Capital": "Port-au-Prince",
        "FIPS": "HA",
        "ISO (2)": "HT",
        "ISO (3)": "HTI",
        "ISO (No)": "332",
        "Internet": "HT",
        "Note": ""
    },
    {
        "Continent": "Europe",
        "Region": "Southern Europe",
        "Country": "Holy See (Vatican City)",
        "Capital": "Vatican City",
        "FIPS": "VT",
        "ISO (2)": "VA",
        "ISO (3)": "VAT",
        "ISO (No)": "336",
        "Internet": "VA",
        "Note": ""
    },
    {
        "Continent": "Americas",
        "Region": "Central America",
        "Country": "Honduras",
        "Capital": "Tegucigalpa",
        "FIPS": "HO",
        "ISO (2)": "HN",
        "ISO (3)": "HND",
        "ISO (No)": "340",
        "Internet": "HN",
        "Note": ""
    },
    {
        "Continent": "Europe",
        "Region": "Central Europe",
        "Country": "Hungary",
        "Capital": "Budapest",
        "FIPS": "HU",
        "ISO (2)": "HU",
        "ISO (3)": "HUN",
        "ISO (No)": "348",
        "Internet": "HU",
        "Note": ""
    },
    {
        "Continent": "Europe",
        "Region": "Northern Europe",
        "Country": "Iceland",
        "Capital": "Reykjavik",
        "FIPS": "IC",
        "ISO (2)": "IS",
        "ISO (3)": "ISL",
        "ISO (No)": "352",
        "Internet": "IS",
        "Note": ""
    },
    {
        "Continent": "Asia",
        "Region": "South Asia",
        "Country": "India",
        "Capital": "New Delhi",
        "FIPS": "IN",
        "ISO (2)": "IN",
        "ISO (3)": "IND",
        "ISO (No)": "356",
        "Internet": "IN",
        "Note": ""
    },
    {
        "Continent": "Asia",
        "Region": "South East Asia",
        "Country": "Indonesia",
        "Capital": "Jakarta",
        "FIPS": "ID",
        "ISO (2)": "ID",
        "ISO (3)": "IDN",
        "ISO (No)": "360",
        "Internet": "ID",
        "Note": ""
    },
    {
        "Continent": "Asia",
        "Region": "South West Asia",
        "Country": "Iran",
        "Capital": "Tehran",
        "FIPS": "IR",
        "ISO (2)": "IR",
        "ISO (3)": "IRN",
        "ISO (No)": "364",
        "Internet": "IR",
        "Note": ""
    },
    {
        "Continent": "Asia",
        "Region": "South West Asia",
        "Country": "Iraq",
        "Capital": "Baghdad",
        "FIPS": "IZ",
        "ISO (2)": "IQ",
        "ISO (3)": "IRQ",
        "ISO (No)": "368",
        "Internet": "IQ",
        "Note": ""
    },
    {
        "Continent": "Europe",
        "Region": "Western Europe",
        "Country": "Ireland",
        "Capital": "Dublin",
        "FIPS": "EI",
        "ISO (2)": "IE",
        "ISO (3)": "IRL",
        "ISO (No)": "372",
        "Internet": "IE",
        "Note": ""
    },
    {
        "Continent": "Asia",
        "Region": "South West Asia",
        "Country": "Israel",
        "Capital": "Jerusalem",
        "FIPS": "IS",
        "ISO (2)": "IL",
        "ISO (3)": "ISR",
        "ISO (No)": "376",
        "Internet": "IL",
        "Note": ""
    },
    {
        "Continent": "Europe",
        "Region": "Southern Europe",
        "Country": "Italy",
        "Capital": "Rome",
        "FIPS": "IT",
        "ISO (2)": "IT",
        "ISO (3)": "ITA",
        "ISO (No)": "380",
        "Internet": "IT",
        "Note": ""
    },
    {
        "Continent": "Americas",
        "Region": "West Indies",
        "Country": "Jamaica",
        "Capital": "Kingston",
        "FIPS": "JM",
        "ISO (2)": "JM",
        "ISO (3)": "JAM",
        "ISO (No)": "388",
        "Internet": "JM",
        "Note": ""
    },
    {
        "Continent": "Europe",
        "Region": "Northern Europe",
        "Country": "Jan Mayen",
        "Capital": "-",
        "FIPS": "--",
        "ISO (2)": "--",
        "ISO (3)": "--",
        "ISO (No)": "",
        "Internet": "--",
        "Note": ""
    },
    {
        "Continent": "Asia",
        "Region": "East Asia",
        "Country": "Japan",
        "Capital": "Tokyo",
        "FIPS": "JA",
        "ISO (2)": "JP",
        "ISO (3)": "JPN",
        "ISO (No)": "392",
        "Internet": "JP",
        "Note": ""
    },
    {
        "Continent": "Europe",
        "Region": "Western Europe",
        "Country": "Jersey",
        "Capital": "Saint Helier",
        "FIPS": "--",
        "ISO (2)": "--",
        "ISO (3)": "--",
        "ISO (No)": "",
        "Internet": "--",
        "Note": ""
    },
    {
        "Continent": "Asia",
        "Region": "South West Asia",
        "Country": "Jordan",
        "Capital": "Amman",
        "FIPS": "JO",
        "ISO (2)": "JO",
        "ISO (3)": "JOR",
        "ISO (No)": "400",
        "Internet": "JO",
        "Note": ""
    },
    {
        "Continent": "Asia",
        "Region": "Central Asia",
        "Country": "Kazakhstan",
        "Capital": "Astana (Akmola)",
        "FIPS": "KZ",
        "ISO (2)": "KZ",
        "ISO (3)": "KAZ",
        "ISO (No)": "398",
        "Internet": "KZ",
        "Note": ""
    },
    {
        "Continent": "Africa",
        "Region": "Eastern Africa",
        "Country": "Kenya",
        "Capital": "Nairobi",
        "FIPS": "KE",
        "ISO (2)": "KE",
        "ISO (3)": "KEN",
        "ISO (No)": "404",
        "Internet": "KE",
        "Note": ""
    },
    {
        "Continent": "Oceania",
        "Region": "Pacific",
        "Country": "Kiribati",
        "Capital": "Tarawa",
        "FIPS": "KR",
        "ISO (2)": "KI",
        "ISO (3)": "KIR",
        "ISO (No)": "296",
        "Internet": "KI",
        "Note": ""
    },
    {
        "Continent": "Asia",
        "Region": "East Asia",
        "Country": "Korea, North",
        "Capital": "P'yongyang",
        "FIPS": "KN",
        "ISO (2)": "KP",
        "ISO (3)": "PRK",
        "ISO (No)": "408",
        "Internet": "KP",
        "Note": ""
    },
    {
        "Continent": "Asia",
        "Region": "East Asia",
        "Country": "Korea, South",
        "Capital": "Seoul",
        "FIPS": "KS",
        "ISO (2)": "KR",
        "ISO (3)": "KOR",
        "ISO (No)": "410",
        "Internet": "KR",
        "Note": ""
    },
    {
        "Continent": "Asia",
        "Region": "South West Asia",
        "Country": "Kuwait",
        "Capital": "Kuwait",
        "FIPS": "KU",
        "ISO (2)": "KW",
        "ISO (3)": "KWT",
        "ISO (No)": "414",
        "Internet": "KW",
        "Note": ""
    },
    {
        "Continent": "Asia",
        "Region": "Central Asia",
        "Country": "Kyrgyzstan",
        "Capital": "Bishkek",
        "FIPS": "KG",
        "ISO (2)": "KG",
        "ISO (3)": "KGZ",
        "ISO (No)": "417",
        "Internet": "KG",
        "Note": ""
    },
    {
        "Continent": "Asia",
        "Region": "South East Asia",
        "Country": "Laos",
        "Capital": "Vientiane",
        "FIPS": "LA",
        "ISO (2)": "LA",
        "ISO (3)": "LAO",
        "ISO (No)": "418",
        "Internet": "LA",
        "Note": ""
    },
    {
        "Continent": "Europe",
        "Region": "Eastern Europe",
        "Country": "Latvia",
        "Capital": "Riga",
        "FIPS": "LG",
        "ISO (2)": "LV",
        "ISO (3)": "LVA",
        "ISO (No)": "428",
        "Internet": "LV",
        "Note": ""
    },
    {
        "Continent": "Asia",
        "Region": "South West Asia",
        "Country": "Lebanon",
        "Capital": "Beirut",
        "FIPS": "LE",
        "ISO (2)": "LB",
        "ISO (3)": "LBN",
        "ISO (No)": "422",
        "Internet": "LB",
        "Note": ""
    },
    {
        "Continent": "Africa",
        "Region": "Southern Africa",
        "Country": "Lesotho",
        "Capital": "Maseru",
        "FIPS": "LT",
        "ISO (2)": "LS",
        "ISO (3)": "LSO",
        "ISO (No)": "426",
        "Internet": "LS",
        "Note": ""
    },
    {
        "Continent": "Africa",
        "Region": "Western Africa",
        "Country": "Liberia",
        "Capital": "Monrovia",
        "FIPS": "LI",
        "ISO (2)": "LR",
        "ISO (3)": "LBR",
        "ISO (No)": "430",
        "Internet": "LR",
        "Note": ""
    },
    {
        "Continent": "Africa",
        "Region": "Northern Africa",
        "Country": "Libya",
        "Capital": "Tripoli",
        "FIPS": "LY",
        "ISO (2)": "LY",
        "ISO (3)": "LBY",
        "ISO (No)": "434",
        "Internet": "LY",
        "Note": ""
    },
    {
        "Continent": "Europe",
        "Region": "Central Europe",
        "Country": "Liechtenstein",
        "Capital": "Vaduz",
        "FIPS": "LS",
        "ISO (2)": "LI",
        "ISO (3)": "LIE",
        "ISO (No)": "438",
        "Internet": "LI",
        "Note": ""
    },
    {
        "Continent": "Europe",
        "Region": "Eastern Europe",
        "Country": "Lithuania",
        "Capital": "Vilnius",
        "FIPS": "LH",
        "ISO (2)": "LT",
        "ISO (3)": "LTU",
        "ISO (No)": "440",
        "Internet": "LT",
        "Note": ""
    },
    {
        "Continent": "Europe",
        "Region": "Western Europe",
        "Country": "Luxembourg",
        "Capital": "Luxembourg",
        "FIPS": "LU",
        "ISO (2)": "LU",
        "ISO (3)": "LUX",
        "ISO (No)": "442",
        "Internet": "LU",
        "Note": ""
    },
    {
        "Continent": "Europe",
        "Region": "South East Europe",
        "Country": "Macedonia",
        "Capital": "Skopje",
        "FIPS": "MK",
        "ISO (2)": "MK",
        "ISO (3)": "MKD",
        "ISO (No)": "807",
        "Internet": "MK",
        "Note": ""
    },
    {
        "Continent": "Africa",
        "Region": "Indian Ocean",
        "Country": "Madagascar",
        "Capital": "Antananarivo",
        "FIPS": "MA",
        "ISO (2)": "MG",
        "ISO (3)": "MDG",
        "ISO (No)": "450",
        "Internet": "MG",
        "Note": ""
    },
    {
        "Continent": "Africa",
        "Region": "Southern Africa",
        "Country": "Malawi",
        "Capital": "Lilongwe",
        "FIPS": "MI",
        "ISO (2)": "MW",
        "ISO (3)": "MWI",
        "ISO (No)": "454",
        "Internet": "MW",
        "Note": ""
    },
    {
        "Continent": "Asia",
        "Region": "South East Asia",
        "Country": "Malaysia",
        "Capital": "Kuala Lumpur",
        "FIPS": "MY",
        "ISO (2)": "MY",
        "ISO (3)": "MYS",
        "ISO (No)": "458",
        "Internet": "MY",
        "Note": ""
    },
    {
        "Continent": "Asia",
        "Region": "South Asia",
        "Country": "Maldives",
        "Capital": "Male (Maale)",
        "FIPS": "MV",
        "ISO (2)": "MV",
        "ISO (3)": "MDV",
        "ISO (No)": "462",
        "Internet": "MV",
        "Note": ""
    },
    {
        "Continent": "Africa",
        "Region": "Western Africa",
        "Country": "Mali",
        "Capital": "Bamako",
        "FIPS": "ML",
        "ISO (2)": "ML",
        "ISO (3)": "MLI",
        "ISO (No)": "466",
        "Internet": "ML",
        "Note": ""
    },
    {
        "Continent": "Europe",
        "Region": "Southern Europe",
        "Country": "Malta",
        "Capital": "Valletta",
        "FIPS": "MT",
        "ISO (2)": "MT",
        "ISO (3)": "MLT",
        "ISO (No)": "470",
        "Internet": "MT",
        "Note": ""
    },
    {
        "Continent": "Europe",
        "Region": "Western Europe",
        "Country": "Man, Isle of",
        "Capital": "Douglas",
        "FIPS": "--",
        "ISO (2)": "--",
        "ISO (3)": "--",
        "ISO (No)": "",
        "Internet": "--",
        "Note": ""
    },
    {
        "Continent": "Oceania",
        "Region": "Pacific",
        "Country": "Marshall Islands",
        "Capital": "Majuro",
        "FIPS": "RM",
        "ISO (2)": "MH",
        "ISO (3)": "MHL",
        "ISO (No)": "584",
        "Internet": "MH",
        "Note": ""
    },
    {
        "Continent": "Americas",
        "Region": "West Indies",
        "Country": "Martinique",
        "Capital": "Fort-de-France",
        "FIPS": "MB",
        "ISO (2)": "MQ",
        "ISO (3)": "MTQ",
        "ISO (No)": "474",
        "Internet": "MQ",
        "Note": ""
    },
    {
        "Continent": "Africa",
        "Region": "Western Africa",
        "Country": "Mauritania",
        "Capital": "Nouakchott",
        "FIPS": "MR",
        "ISO (2)": "MR",
        "ISO (3)": "MRT",
        "ISO (No)": "478",
        "Internet": "MR",
        "Note": ""
    },
    {
        "Continent": "Africa",
        "Region": "Indian Ocean",
        "Country": "Mauritius",
        "Capital": "Port Louis",
        "FIPS": "MP",
        "ISO (2)": "MU",
        "ISO (3)": "MUS",
        "ISO (No)": "480",
        "Internet": "MU",
        "Note": ""
    },
    {
        "Continent": "Africa",
        "Region": "Indian Ocean",
        "Country": "Mayotte",
        "Capital": "Mamoutzou",
        "FIPS": "MF",
        "ISO (2)": "YT",
        "ISO (3)": "MYT",
        "ISO (No)": "175",
        "Internet": "YT",
        "Note": ""
    },
    {
        "Continent": "Americas",
        "Region": "Central America",
        "Country": "Mexico",
        "Capital": "Mexico",
        "FIPS": "MX",
        "ISO (2)": "MX",
        "ISO (3)": "MEX",
        "ISO (No)": "484",
        "Internet": "MX",
        "Note": ""
    },
    {
        "Continent": "Oceania",
        "Region": "Pacific",
        "Country": "Micronesia, Federated States of",
        "Capital": "Palikir",
        "FIPS": "",
        "ISO (2)": "FM",
        "ISO (3)": "FSM",
        "ISO (No)": "583",
        "Internet": "FM",
        "Note": ""
    },
    {
        "Continent": "Europe",
        "Region": "Eastern Europe",
        "Country": "Moldova",
        "Capital": "Chisinau",
        "FIPS": "MD",
        "ISO (2)": "MD",
        "ISO (3)": "MDA",
        "ISO (No)": "498",
        "Internet": "MD",
        "Note": ""
    },
    {
        "Continent": "Europe",
        "Region": "Western Europe",
        "Country": "Monaco",
        "Capital": "Monaco",
        "FIPS": "MN",
        "ISO (2)": "MC",
        "ISO (3)": "MCO",
        "ISO (No)": "492",
        "Internet": "MC",
        "Note": ""
    },
    {
        "Continent": "Asia",
        "Region": "Northern Asia",
        "Country": "Mongolia",
        "Capital": "Ulaanbaatar",
        "FIPS": "MG",
        "ISO (2)": "MN",
        "ISO (3)": "MNG",
        "ISO (No)": "496",
        "Internet": "MN",
        "Note": ""
    },
    {
        "Continent": "Americas",
        "Region": "West Indies",
        "Country": "Montserrat",
        "Capital": "Plymouth",
        "FIPS": "MH",
        "ISO (2)": "MS",
        "ISO (3)": "MSR",
        "ISO (No)": "500",
        "Internet": "MS",
        "Note": ""
    },
    {
        "Continent": "Africa",
        "Region": "Northern Africa",
        "Country": "Morocco",
        "Capital": "Rabat",
        "FIPS": "MO",
        "ISO (2)": "MA",
        "ISO (3)": "MAR",
        "ISO (No)": "504",
        "Internet": "MA",
        "Note": ""
    },
    {
        "Continent": "Africa",
        "Region": "Southern Africa",
        "Country": "Mozambique",
        "Capital": "Maputo",
        "FIPS": "MZ",
        "ISO (2)": "MZ",
        "ISO (3)": "MOZ",
        "ISO (No)": "508",
        "Internet": "MZ",
        "Note": ""
    },
    {
        "Continent": "Asia",
        "Region": "South East Asia",
        "Country": "Myanmar (Burma)",
        "Capital": "Rangoon (Yangon)",
        "FIPS": "BM",
        "ISO (2)": "MM",
        "ISO (3)": "MMR",
        "ISO (No)": "104",
        "Internet": "MM",
        "Note": "4"
    },
    {
        "Continent": "Africa",
        "Region": "Southern Africa",
        "Country": "Namibia",
        "Capital": "Windhoek",
        "FIPS": "WA",
        "ISO (2)": "NA",
        "ISO (3)": "NAM",
        "ISO (No)": "516",
        "Internet": "NA",
        "Note": ""
    },
    {
        "Continent": "Oceania",
        "Region": "Pacific",
        "Country": "Nauru",
        "Capital": "no official capital",
        "FIPS": "NR",
        "ISO (2)": "NR",
        "ISO (3)": "NRU",
        "ISO (No)": "520",
        "Internet": "NR",
        "Note": ""
    },
    {
        "Continent": "Asia",
        "Region": "South Asia",
        "Country": "Nepal",
        "Capital": "Kathmandu",
        "FIPS": "NP",
        "ISO (2)": "NP",
        "ISO (3)": "NPL",
        "ISO (No)": "524",
        "Internet": "NP",
        "Note": ""
    },
    {
        "Continent": "Europe",
        "Region": "Western Europe",
        "Country": "Netherlands",
        "Capital": "Amsterdam",
        "FIPS": "NL",
        "ISO (2)": "NL",
        "ISO (3)": "NLD",
        "ISO (No)": "528",
        "Internet": "NL",
        "Note": ""
    },
    {
        "Continent": "Americas",
        "Region": "West Indies",
        "Country": "Netherlands Antilles",
        "Capital": "Willemstad",
        "FIPS": "NT",
        "ISO (2)": "AN",
        "ISO (3)": "ANT",
        "ISO (No)": "530",
        "Internet": "AN",
        "Note": ""
    },
    {
        "Continent": "Oceania",
        "Region": "Pacific",
        "Country": "New Caledonia",
        "Capital": "Noumea",
        "FIPS": "NC",
        "ISO (2)": "NC",
        "ISO (3)": "NCL",
        "ISO (No)": "540",
        "Internet": "NC",
        "Note": ""
    },
    {
        "Continent": "Oceania",
        "Region": "Pacific",
        "Country": "New Zealand",
        "Capital": "Wellington",
        "FIPS": "NZ",
        "ISO (2)": "NZ",
        "ISO (3)": "NZL",
        "ISO (No)": "554",
        "Internet": "NZ",
        "Note": ""
    },
    {
        "Continent": "Americas",
        "Region": "Central America",
        "Country": "Nicaragua",
        "Capital": "Managua",
        "FIPS": "NU",
        "ISO (2)": "NI",
        "ISO (3)": "NIC",
        "ISO (No)": "558",
        "Internet": "NI",
        "Note": ""
    },
    {
        "Continent": "Africa",
        "Region": "Western Africa",
        "Country": "Niger",
        "Capital": "Niamey",
        "FIPS": "NG",
        "ISO (2)": "NE",
        "ISO (3)": "NER",
        "ISO (No)": "562",
        "Internet": "NE",
        "Note": ""
    },
    {
        "Continent": "Africa",
        "Region": "Western Africa",
        "Country": "Nigeria",
        "Capital": "Abuja",
        "FIPS": "NI",
        "ISO (2)": "NG",
        "ISO (3)": "NGA",
        "ISO (No)": "566",
        "Internet": "NG",
        "Note": ""
    },
    {
        "Continent": "Oceania",
        "Region": "Pacific",
        "Country": "Niue",
        "Capital": "Alofi",
        "FIPS": "NE",
        "ISO (2)": "NU",
        "ISO (3)": "NIU",
        "ISO (No)": "570",
        "Internet": "NU",
        "Note": ""
    },
    {
        "Continent": "Oceania",
        "Region": "Pacific",
        "Country": "Norfolk Island",
        "Capital": "Kingston",
        "FIPS": "NF",
        "ISO (2)": "NF",
        "ISO (3)": "NFK",
        "ISO (No)": "574",
        "Internet": "NF",
        "Note": ""
    },
    {
        "Continent": "Oceania",
        "Region": "Pacific",
        "Country": "Northern Mariana Islands",
        "Capital": "Saipan",
        "FIPS": "CQ",
        "ISO (2)": "MP",
        "ISO (3)": "MNP",
        "ISO (No)": "580",
        "Internet": "MP",
        "Note": ""
    },
    {
        "Continent": "Europe",
        "Region": "Northern Europe",
        "Country": "Norway",
        "Capital": "Oslo",
        "FIPS": "NO",
        "ISO (2)": "NO",
        "ISO (3)": "NOR",
        "ISO (No)": "578",
        "Internet": "NO",
        "Note": ""
    },
    {
        "Continent": "Asia",
        "Region": "South West Asia",
        "Country": "Oman",
        "Capital": "Muscat",
        "FIPS": "MU",
        "ISO (2)": "OM",
        "ISO (3)": "OMN",
        "ISO (No)": "512",
        "Internet": "OM",
        "Note": ""
    },
    {
        "Continent": "Asia",
        "Region": "South Asia",
        "Country": "Pakistan",
        "Capital": "Islamabad",
        "FIPS": "PK",
        "ISO (2)": "PK",
        "ISO (3)": "PAK",
        "ISO (No)": "586",
        "Internet": "PK",
        "Note": ""
    },
    {
        "Continent": "Oceania",
        "Region": "Pacific",
        "Country": "Palau",
        "Capital": "Koror",
        "FIPS": "PS",
        "ISO (2)": "PW",
        "ISO (3)": "PLW",
        "ISO (No)": "585",
        "Internet": "PW",
        "Note": ""
    },
    {
        "Continent": "Asia",
        "Region": "South West Asia",
        "Country": "Palestine",
        "Capital": "",
        "FIPS": "--",
        "ISO (2)": "--",
        "ISO (3)": "--",
        "ISO (No)": "",
        "Internet": "--",
        "Note": ""
    },
    {
        "Continent": "Americas",
        "Region": "Central America",
        "Country": "Panama",
        "Capital": "Panama",
        "FIPS": "PM",
        "ISO (2)": "PA",
        "ISO (3)": "PAN",
        "ISO (No)": "591",
        "Internet": "PA",
        "Note": ""
    },
    {
        "Continent": "Oceania",
        "Region": "Pacific",
        "Country": "Papua New Guinea",
        "Capital": "Port Moresby",
        "FIPS": "PP",
        "ISO (2)": "PG",
        "ISO (3)": "PNG",
        "ISO (No)": "598",
        "Internet": "PG",
        "Note": ""
    },
    {
        "Continent": "Americas",
        "Region": "South America",
        "Country": "Paraguay",
        "Capital": "Asuncion",
        "FIPS": "PA",
        "ISO (2)": "PY",
        "ISO (3)": "PRY",
        "ISO (No)": "600",
        "Internet": "PY",
        "Note": ""
    },
    {
        "Continent": "Americas",
        "Region": "South America",
        "Country": "Peru",
        "Capital": "Lima",
        "FIPS": "PE",
        "ISO (2)": "PE",
        "ISO (3)": "PER",
        "ISO (No)": "604",
        "Internet": "PE",
        "Note": ""
    },
    {
        "Continent": "Asia",
        "Region": "South East Asia",
        "Country": "Philippines",
        "Capital": "Manila",
        "FIPS": "RP",
        "ISO (2)": "PH",
        "ISO (3)": "PHL",
        "ISO (No)": "608",
        "Internet": "PH",
        "Note": ""
    },
    {
        "Continent": "Oceania",
        "Region": "Pacific",
        "Country": "Pitcairn Islands",
        "Capital": "Adamstown",
        "FIPS": "PC",
        "ISO (2)": "PN",
        "ISO (3)": "PCN",
        "ISO (No)": "612",
        "Internet": "PN",
        "Note": ""
    },
    {
        "Continent": "Europe",
        "Region": "Eastern Europe",
        "Country": "Poland",
        "Capital": "Warsaw",
        "FIPS": "PL",
        "ISO (2)": "PL",
        "ISO (3)": "POL",
        "ISO (No)": "616",
        "Internet": "PL",
        "Note": ""
    },
    {
        "Continent": "Europe",
        "Region": "South West Europe",
        "Country": "Portugal",
        "Capital": "Lisbon",
        "FIPS": "PO",
        "ISO (2)": "PT",
        "ISO (3)": "PRT",
        "ISO (No)": "620",
        "Internet": "PT",
        "Note": ""
    },
    {
        "Continent": "Americas",
        "Region": "West Indies",
        "Country": "Puerto Rico",
        "Capital": "San Juan",
        "FIPS": "RQ",
        "ISO (2)": "PR",
        "ISO (3)": "PRI",
        "ISO (No)": "630",
        "Internet": "PR",
        "Note": ""
    },
    {
        "Continent": "Asia",
        "Region": "South West Asia",
        "Country": "Qatar",
        "Capital": "Doha",
        "FIPS": "QA",
        "ISO (2)": "QA",
        "ISO (3)": "QAT",
        "ISO (No)": "634",
        "Internet": "QA",
        "Note": ""
    },
    {
        "Continent": "Africa",
        "Region": "Indian Ocean",
        "Country": "Reunion",
        "Capital": "Saint-Denis",
        "FIPS": "RE",
        "ISO (2)": "RE",
        "ISO (3)": "REU",
        "ISO (No)": "638",
        "Internet": "RE",
        "Note": ""
    },
    {
        "Continent": "Europe",
        "Region": "South East Europe",
        "Country": "Romania",
        "Capital": "Bucharest",
        "FIPS": "RO",
        "ISO (2)": "RO",
        "ISO (3)": "ROM",
        "ISO (No)": "642",
        "Internet": "RO",
        "Note": ""
    },
    {
        "Continent": "Asia",
        "Region": "Northern Asia",
        "Country": "Russia",
        "Capital": "Moscow",
        "FIPS": "RS",
        "ISO (2)": "RU",
        "ISO (3)": "RUS",
        "ISO (No)": "643",
        "Internet": "RU",
        "Note": ""
    },
    {
        "Continent": "Africa",
        "Region": "Central Africa",
        "Country": "Rwanda",
        "Capital": "Kigali",
        "FIPS": "RW",
        "ISO (2)": "RW",
        "ISO (3)": "RWA",
        "ISO (No)": "646",
        "Internet": "RW",
        "Note": ""
    },
    {
        "Continent": "Americas",
        "Region": "West Indies",
        "Country": "Saint Kitts and Nevis",
        "Capital": "Basseterre",
        "FIPS": "SC",
        "ISO (2)": "KN",
        "ISO (3)": "KNA",
        "ISO (No)": "659",
        "Internet": "KN",
        "Note": ""
    },
    {
        "Continent": "Americas",
        "Region": "West Indies",
        "Country": "Saint Lucia",
        "Capital": "Castries",
        "FIPS": "ST",
        "ISO (2)": "LC",
        "ISO (3)": "LCA",
        "ISO (No)": "662",
        "Internet": "LC",
        "Note": ""
    },
    {
        "Continent": "Americas",
        "Region": "North America",
        "Country": "Saint Pierre and Miquelon",
        "Capital": "Saint-Pierre",
        "FIPS": "SB",
        "ISO (2)": "PM",
        "ISO (3)": "SPM",
        "ISO (No)": "666",
        "Internet": "PM",
        "Note": ""
    },
    {
        "Continent": "Americas",
        "Region": "West Indies",
        "Country": "Saint Vincent and the Grenadines",
        "Capital": "Kingstown",
        "FIPS": "VC",
        "ISO (2)": "VC",
        "ISO (3)": "VCT",
        "ISO (No)": "670",
        "Internet": "VC",
        "Note": ""
    },
    {
        "Continent": "Europe",
        "Region": "Southern Europe",
        "Country": "San Marino",
        "Capital": "San Marino",
        "FIPS": "SM",
        "ISO (2)": "SM",
        "ISO (3)": "SMR",
        "ISO (No)": "674",
        "Internet": "SM",
        "Note": ""
    },
    {
        "Continent": "Africa",
        "Region": "Western Africa",
        "Country": "Sao Tome and Principe",
        "Capital": "Sao Tome",
        "FIPS": "TP",
        "ISO (2)": "ST",
        "ISO (3)": "STP",
        "ISO (No)": "678",
        "Internet": "ST",
        "Note": ""
    },
    {
        "Continent": "Asia",
        "Region": "South West Asia",
        "Country": "Saudi Arabia",
        "Capital": "Riyadh",
        "FIPS": "SA",
        "ISO (2)": "SA",
        "ISO (3)": "SAU",
        "ISO (No)": "682",
        "Internet": "SA",
        "Note": ""
    },
    {
        "Continent": "Africa",
        "Region": "Western Africa",
        "Country": "Senegal",
        "Capital": "Dakar",
        "FIPS": "SG",
        "ISO (2)": "SN",
        "ISO (3)": "SEN",
        "ISO (No)": "686",
        "Internet": "SN",
        "Note": ""
    },
    {
        "Continent": "Europe",
        "Region": "South East Europe",
        "Country": "Serbia and Montenegro",
        "Capital": "Belgrade / Podgorica",
        "FIPS": "SR",
        "ISO (2)": "--",
        "ISO (3)": "--",
        "ISO (No)": "",
        "Internet": "--",
        "Note": "5"
    },
    {
        "Continent": "Africa",
        "Region": "Indian Ocean",
        "Country": "Seychelles",
        "Capital": "Victoria",
        "FIPS": "SE",
        "ISO (2)": "SC",
        "ISO (3)": "SYC",
        "ISO (No)": "690",
        "Internet": "SC",
        "Note": ""
    },
    {
        "Continent": "Africa",
        "Region": "Western Africa",
        "Country": "Sierra Leone",
        "Capital": "Freetown",
        "FIPS": "SL",
        "ISO (2)": "SL",
        "ISO (3)": "SLE",
        "ISO (No)": "694",
        "Internet": "SL",
        "Note": ""
    },
    {
        "Continent": "Asia",
        "Region": "South East Asia",
        "Country": "Singapore",
        "Capital": "Singapore",
        "FIPS": "SN",
        "ISO (2)": "SG",
        "ISO (3)": "SGP",
        "ISO (No)": "702",
        "Internet": "SG",
        "Note": ""
    },
    {
        "Continent": "Europe",
        "Region": "Central Europe",
        "Country": "Slovakia",
        "Capital": "Bratislava",
        "FIPS": "LO",
        "ISO (2)": "SK",
        "ISO (3)": "SVK",
        "ISO (No)": "703",
        "Internet": "SK",
        "Note": ""
    },
    {
        "Continent": "Europe",
        "Region": "South East Europe",
        "Country": "Slovenia",
        "Capital": "Ljubljana",
        "FIPS": "SI",
        "ISO (2)": "SI",
        "ISO (3)": "SVN",
        "ISO (No)": "705",
        "Internet": "SI",
        "Note": ""
    },
    {
        "Continent": "Oceania",
        "Region": "Pacific",
        "Country": "Solomon Islands",
        "Capital": "Honiara",
        "FIPS": "BP",
        "ISO (2)": "SB",
        "ISO (3)": "SLB",
        "ISO (No)": "090",
        "Internet": "SB",
        "Note": ""
    },
    {
        "Continent": "Africa",
        "Region": "Eastern Africa",
        "Country": "Somalia",
        "Capital": "Mogadishu",
        "FIPS": "SO",
        "ISO (2)": "SO",
        "ISO (3)": "SOM",
        "ISO (No)": "706",
        "Internet": "SO",
        "Note": ""
    },
    {
        "Continent": "Africa",
        "Region": "Southern Africa",
        "Country": "South Africa",
        "Capital": "Pretoria ?",
        "FIPS": "SF",
        "ISO (2)": "ZA",
        "ISO (3)": "ZAF",
        "ISO (No)": "710",
        "Internet": "ZA",
        "Note": ""
    },
    {
        "Continent": "Europe",
        "Region": "South West Europe",
        "Country": "Spain",
        "Capital": "Madrid",
        "FIPS": "SP",
        "ISO (2)": "ES",
        "ISO (3)": "ESP",
        "ISO (No)": "724",
        "Internet": "ES",
        "Note": ""
    },
    {
        "Continent": "Asia",
        "Region": "South Asia",
        "Country": "Sri Lanka",
        "Capital": "Colombo",
        "FIPS": "CE",
        "ISO (2)": "LK",
        "ISO (3)": "LKA",
        "ISO (No)": "144",
        "Internet": "LK",
        "Note": ""
    },
    {
        "Continent": "Africa",
        "Region": "Northern Africa",
        "Country": "Sudan",
        "Capital": "Khartoum",
        "FIPS": "SU",
        "ISO (2)": "SD",
        "ISO (3)": "SDN",
        "ISO (No)": "736",
        "Internet": "SD",
        "Note": ""
    },
    {
        "Continent": "Americas",
        "Region": "South America",
        "Country": "Suriname",
        "Capital": "Paramaribo",
        "FIPS": "NS",
        "ISO (2)": "SR",
        "ISO (3)": "SUR",
        "ISO (No)": "740",
        "Internet": "SR",
        "Note": ""
    },
    {
        "Continent": "Europe",
        "Region": "Northern Europe",
        "Country": "Svalbard",
        "Capital": "Longyearbyen",
        "FIPS": "SV",
        "ISO (2)": "SJ",
        "ISO (3)": "SJM",
        "ISO (No)": "744",
        "Internet": "SJ",
        "Note": "6"
    },
    {
        "Continent": "Africa",
        "Region": "Southern Africa",
        "Country": "Swaziland",
        "Capital": "Mbabane ?",
        "FIPS": "WZ",
        "ISO (2)": "SZ",
        "ISO (3)": "SWZ",
        "ISO (No)": "748",
        "Internet": "SZ",
        "Note": ""
    },
    {
        "Continent": "Europe",
        "Region": "Northern Europe",
        "Country": "Sweden",
        "Capital": "Stockholm",
        "FIPS": "SW",
        "ISO (2)": "SE",
        "ISO (3)": "SWE",
        "ISO (No)": "752",
        "Internet": "SE",
        "Note": ""
    },
    {
        "Continent": "Europe",
        "Region": "Central Europe",
        "Country": "Switzerland",
        "Capital": "Bern",
        "FIPS": "SZ",
        "ISO (2)": "CH",
        "ISO (3)": "CHE",
        "ISO (No)": "756",
        "Internet": "CH",
        "Note": ""
    },
    {
        "Continent": "Asia",
        "Region": "South West Asia",
        "Country": "Syria",
        "Capital": "Damascus",
        "FIPS": "SY",
        "ISO (2)": "SY",
        "ISO (3)": "SYR",
        "ISO (No)": "760",
        "Internet": "SY",
        "Note": ""
    },
    {
        "Continent": "Asia",
        "Region": "East Asia",
        "Country": "Taiwan",
        "Capital": "Taipei",
        "FIPS": "TW",
        "ISO (2)": "TW",
        "ISO (3)": "TWN",
        "ISO (No)": "158",
        "Internet": "TW",
        "Note": ""
    },
    {
        "Continent": "Asia",
        "Region": "Central Asia",
        "Country": "Tajikistan",
        "Capital": "Dushanbe",
        "FIPS": "TI",
        "ISO (2)": "TJ",
        "ISO (3)": "TJK",
        "ISO (No)": "762",
        "Internet": "TJ",
        "Note": ""
    },
    {
        "Continent": "Africa",
        "Region": "Eastern Africa",
        "Country": "Tanzania",
        "Capital": "Dar es Salaam",
        "FIPS": "TZ",
        "ISO (2)": "TZ",
        "ISO (3)": "TZA",
        "ISO (No)": "834",
        "Internet": "TZ",
        "Note": ""
    },
    {
        "Continent": "Asia",
        "Region": "South East Asia",
        "Country": "Thailand",
        "Capital": "Bangkok",
        "FIPS": "TH",
        "ISO (2)": "TH",
        "ISO (3)": "THA",
        "ISO (No)": "764",
        "Internet": "TH",
        "Note": ""
    },
    {
        "Continent": "Africa",
        "Region": "Western Africa",
        "Country": "Togo",
        "Capital": "Lome",
        "FIPS": "TO",
        "ISO (2)": "TG",
        "ISO (3)": "TGO",
        "ISO (No)": "768",
        "Internet": "TG",
        "Note": ""
    },
    {
        "Continent": "Oceania",
        "Region": "Pacific",
        "Country": "Tokelau",
        "Capital": "none",
        "FIPS": "TL",
        "ISO (2)": "TK",
        "ISO (3)": "TKL",
        "ISO (No)": "772",
        "Internet": "TK",
        "Note": ""
    },
    {
        "Continent": "Oceania",
        "Region": "Pacific",
        "Country": "Tonga",
        "Capital": "Nuku'alofa",
        "FIPS": "TN",
        "ISO (2)": "TO",
        "ISO (3)": "TON",
        "ISO (No)": "776",
        "Internet": "TO",
        "Note": ""
    },
    {
        "Continent": "Americas",
        "Region": "West Indies",
        "Country": "Trinidad and Tobago",
        "Capital": "Port-of-Spain",
        "FIPS": "TD",
        "ISO (2)": "TT",
        "ISO (3)": "TTO",
        "ISO (No)": "780",
        "Internet": "TT",
        "Note": ""
    },
    {
        "Continent": "Africa",
        "Region": "Northern Africa",
        "Country": "Tunisia",
        "Capital": "Tunis",
        "FIPS": "TS",
        "ISO (2)": "TN",
        "ISO (3)": "TUN",
        "ISO (No)": "788",
        "Internet": "TN",
        "Note": ""
    },
    {
        "Continent": "Asia",
        "Region": "South West Asia",
        "Country": "Turkey",
        "Capital": "Ankara",
        "FIPS": "TU",
        "ISO (2)": "TR",
        "ISO (3)": "TUR",
        "ISO (No)": "792",
        "Internet": "TR",
        "Note": ""
    },
    {
        "Continent": "Asia",
        "Region": "Central Asia",
        "Country": "Turkmenistan",
        "Capital": "Ashgabat",
        "FIPS": "TX",
        "ISO (2)": "TM",
        "ISO (3)": "TKM",
        "ISO (No)": "795",
        "Internet": "TM",
        "Note": ""
    },
    {
        "Continent": "Americas",
        "Region": "West Indies",
        "Country": "Turks and Caicos Islands",
        "Capital": "Grand Turk",
        "FIPS": "TK",
        "ISO (2)": "TC",
        "ISO (3)": "TCA",
        "ISO (No)": "796",
        "Internet": "TC",
        "Note": ""
    },
    {
        "Continent": "Oceania",
        "Region": "Pacific",
        "Country": "Tuvalu",
        "Capital": "Funafuti",
        "FIPS": "TV",
        "ISO (2)": "TV",
        "ISO (3)": "TUV",
        "ISO (No)": "798",
        "Internet": "TV",
        "Note": ""
    },
    {
        "Continent": "Africa",
        "Region": "Eastern Africa",
        "Country": "Uganda",
        "Capital": "Kampala",
        "FIPS": "UG",
        "ISO (2)": "UG",
        "ISO (3)": "UGA",
        "ISO (No)": "800",
        "Internet": "UG",
        "Note": ""
    },
    {
        "Continent": "Europe",
        "Region": "Eastern Europe",
        "Country": "Ukraine",
        "Capital": "Kiev",
        "FIPS": "UP",
        "ISO (2)": "UA",
        "ISO (3)": "UKR",
        "ISO (No)": "804",
        "Internet": "UA",
        "Note": ""
    },
    {
        "Continent": "Asia",
        "Region": "South West Asia",
        "Country": "United Arab Emirates",
        "Capital": "Abu Dhabi",
        "FIPS": "TC",
        "ISO (2)": "AE",
        "ISO (3)": "ARE",
        "ISO (No)": "784",
        "Internet": "AE",
        "Note": ""
    },
    {
        "Continent": "Europe",
        "Region": "Western Europe",
        "Country": "United Kingdom",
        "Capital": "London",
        "FIPS": "UK",
        "ISO (2)": "GB",
        "ISO (3)": "GBR",
        "ISO (No)": "826",
        "Internet": "UK/GB",
        "Note": "7"
    },
    {
        "Continent": "Americas",
        "Region": "North America",
        "Country": "United States",
        "Capital": "Washington, DC",
        "FIPS": "US",
        "ISO (2)": "US",
        "ISO (3)": "USA",
        "ISO (No)": "840",
        "Internet": "US",
        "Note": ""
    },
    {
        "Continent": "Americas",
        "Region": "South America",
        "Country": "Uruguay",
        "Capital": "Montevideo",
        "FIPS": "UY",
        "ISO (2)": "UY",
        "ISO (3)": "URY",
        "ISO (No)": "858",
        "Internet": "UY",
        "Note": ""
    },
    {
        "Continent": "Asia",
        "Region": "Central Asia",
        "Country": "Uzbekistan",
        "Capital": "Tashkent (Toshkent)",
        "FIPS": "UZ",
        "ISO (2)": "UZ",
        "ISO (3)": "UZB",
        "ISO (No)": "860",
        "Internet": "UZ",
        "Note": ""
    },
    {
        "Continent": "Oceania",
        "Region": "Pacific",
        "Country": "Vanuatu",
        "Capital": "Port-Vila",
        "FIPS": "NH",
        "ISO (2)": "VU",
        "ISO (3)": "VUT",
        "ISO (No)": "548",
        "Internet": "VU",
        "Note": ""
    },
    {
        "Continent": "Americas",
        "Region": "South America",
        "Country": "Venezuela",
        "Capital": "Caracas",
        "FIPS": "VE",
        "ISO (2)": "VE",
        "ISO (3)": "VEN",
        "ISO (No)": "862",
        "Internet": "UE",
        "Note": ""
    },
    {
        "Continent": "Asia",
        "Region": "South East Asia",
        "Country": "Vietnam",
        "Capital": "Hanoi",
        "FIPS": "VM",
        "ISO (2)": "VN",
        "ISO (3)": "VNM",
        "ISO (No)": "704",
        "Internet": "VN",
        "Note": ""
    },
    {
        "Continent": "Americas",
        "Region": "West Indies",
        "Country": "Virgin Islands",
        "Capital": "Charlotte Amalie",
        "FIPS": "VQ",
        "ISO (2)": "VI",
        "ISO (3)": "VIR",
        "ISO (No)": "850",
        "Internet": "VI",
        "Note": ""
    },
    {
        "Continent": "Oceania",
        "Region": "Pacific",
        "Country": "Wallis and Futuna",
        "Capital": "Mata-Utu (on Ile Uvea)",
        "FIPS": "WF",
        "ISO (2)": "WF",
        "ISO (3)": "WLF",
        "ISO (No)": "876",
        "Internet": "WF",
        "Note": ""
    },
    {
        "Continent": "Africa",
        "Region": "Northern Africa",
        "Country": "Western Sahara",
        "Capital": "none",
        "FIPS": "WI",
        "ISO (2)": "EH",
        "ISO (3)": "ESH",
        "ISO (No)": "732",
        "Internet": "EH",
        "Note": ""
    },
    {
        "Continent": "Oceania",
        "Region": "Pacific",
        "Country": "Western Samoa",
        "Capital": "Apia",
        "FIPS": "WS",
        "ISO (2)": "WS",
        "ISO (3)": "WSM",
        "ISO (No)": "882",
        "Internet": "WS",
        "Note": ""
    },
    {
        "Continent": "Asia",
        "Region": "South West Asia",
        "Country": "Yemen",
        "Capital": "Sanaa",
        "FIPS": "YM",
        "ISO (2)": "YE",
        "ISO (3)": "YEM",
        "ISO (No)": "887",
        "Internet": "YE",
        "Note": ""
    },
    {
        "Continent": "Africa",
        "Region": "Central Africa",
        "Country": "Zaire (Dem Rep of Congo)",
        "Capital": "Kinshasa",
        "FIPS": "CG",
        "ISO (2)": "ZR",
        "ISO (3)": "ZAR",
        "ISO (No)": "180",
        "Internet": "ZR",
        "Note": "8"
    },
    {
        "Continent": "Africa",
        "Region": "Southern Africa",
        "Country": "Zambia",
        "Capital": "Lusaka",
        "FIPS": "ZA",
        "ISO (2)": "ZM",
        "ISO (3)": "ZWB",
        "ISO (No)": "894",
        "Internet": "ZM",
        "Note": ""
    },
    {
        "Continent": "Africa",
        "Region": "Southern Africa",
        "Country": "Zimbabwe",
        "Capital": "Harare",
        "FIPS": "ZI",
        "ISO (2)": "ZW",
        "ISO (3)": "ZWE",
        "ISO (No)": "716",
        "Internet": "ZW",
        "Note": ""
    }
]