[
    {
        "Name": "Arcadius",
        "Reign": "395-408",
        "Full Name": "",
        "Family": "Son of Theodosius the Great",
        "Spouse": ""
    },
    {
        "Name": "Theodosius II",
        "Reign": "408-50",
        "Full Name": "",
        "Family": "Son of Arcadius",
        "Spouse": "Eudoxia"
    },
    {
        "Name": "Marcian",
        "Reign": "450-7",
        "Full Name": "",
        "Family": "",
        "Spouse": ""
    },
    {
        "Name": "Leo I",
        "Reign": "457-74",
        "Full Name": "",
        "Family": "",
        "Spouse": ""
    },
    {
        "Name": "Leo II",
        "Reign": "474",
        "Full Name": "",
        "Family": "Grandson of Leo II Son of Zeno + Ariadne",
        "Spouse": ""
    },
    {
        "Name": "Zeno",
        "Reign": "474-491",
        "Full Name": "",
        "Family": "Father of Leo II",
        "Spouse": "Ariadne, dau Leo I"
    },
    {
        "Name": "Anastasius",
        "Reign": "491-518",
        "Full Name": "",
        "Family": "",
        "Spouse": ""
    },
    {
        "Name": "Glycerinus",
        "Reign": "",
        "Full Name": "",
        "Family": "",
        "Spouse": ""
    },
    {
        "Name": "Justin I",
        "Reign": "518-27",
        "Full Name": "",
        "Family": "",
        "Spouse": ""
    },
    {
        "Name": "Justinian I",
        "Reign": "527-65",
        "Full Name": "Flavius Petrus Sabbatius Justinianus",
        "Family": "Nephew of Justin",
        "Spouse": "Theodora"
    },
    {
        "Name": "Justin II",
        "Reign": "-578",
        "Full Name": "",
        "Family": "Nephew of Justinian II",
        "Spouse": "Sophia, neice of Theodora"
    },
    {
        "Name": "",
        "Reign": "",
        "Full Name": "",
        "Family": "",
        "Spouse": ""
    },
    {
        "Name": "Maurice",
        "Reign": "-602",
        "Full Name": "",
        "Family": "",
        "Spouse": ""
    },
    {
        "Name": "Phocas",
        "Reign": "602-10",
        "Full Name": "",
        "Family": "",
        "Spouse": ""
    },
    {
        "Name": "Heraclius",
        "Reign": "610-41",
        "Full Name": "",
        "Family": "",
        "Spouse": ""
    },
    {
        "Name": "Constantine III",
        "Reign": "-641",
        "Full Name": "",
        "Family": "",
        "Spouse": ""
    },
    {
        "Name": "Constans II",
        "Reign": "641-88",
        "Full Name": "",
        "Family": "son of Constantine III",
        "Spouse": ""
    },
    {
        "Name": "Constantine IV",
        "Reign": "c 673",
        "Full Name": "",
        "Family": "",
        "Spouse": ""
    },
    {
        "Name": "Justinian II",
        "Reign": "685-695 dep",
        "Full Name": "",
        "Family": "",
        "Spouse": ""
    },
    {
        "Name": "Leontius",
        "Reign": "695",
        "Full Name": "",
        "Family": "deposed Justinian II",
        "Spouse": ""
    },
    {
        "Name": "Tiberius II",
        "Reign": "697/8",
        "Full Name": "",
        "Family": "deposed Leontius",
        "Spouse": ""
    },
    {
        "Name": "Justinian II restored",
        "Reign": "704/5-11",
        "Full Name": "",
        "Family": "",
        "Spouse": "Theodora (a Khazar)"
    },
    {
        "Name": "Philippicus (Bardan)",
        "Reign": "711-3",
        "Full Name": "",
        "Family": "killed Justinian II",
        "Spouse": ""
    },
    {
        "Name": "Anastasius II",
        "Reign": "713-6",
        "Full Name": "",
        "Family": "",
        "Spouse": ""
    },
    {
        "Name": "Theodosius II",
        "Reign": "716-7 abd",
        "Full Name": "",
        "Family": "",
        "Spouse": ""
    },
    {
        "Name": "Leo III the Isaurian",
        "Reign": "717-",
        "Full Name": "",
        "Family": "",
        "Spouse": ""
    },
    {
        "Name": "Constantine V Copronymus",
        "Reign": "720-75 co-emp",
        "Full Name": "",
        "Family": "",
        "Spouse": ""
    },
    {
        "Name": "Leo IV",
        "Reign": "775-",
        "Full Name": "",
        "Family": "son of Constantine V",
        "Spouse": "Irene"
    },
    {
        "Name": "Constantine VI",
        "Reign": "780-97dep",
        "Full Name": "",
        "Family": "son of Leo IV + Irene",
        "Spouse": ""
    },
    {
        "Name": "Irene",
        "Reign": "797",
        "Full Name": "",
        "Family": "deposed Constantine VI",
        "Spouse": ""
    },
    {
        "Name": "Nicephorus I",
        "Reign": "802-11",
        "Full Name": "",
        "Family": "",
        "Spouse": ""
    },
    {
        "Name": "Michael I Rangabe",
        "Reign": "811-13",
        "Full Name": "",
        "Family": "",
        "Spouse": ""
    },
    {
        "Name": "Leo V the Armenian",
        "Reign": "813-20",
        "Full Name": "",
        "Family": "",
        "Spouse": ""
    },
    {
        "Name": "Michael II",
        "Reign": "820-9",
        "Full Name": "",
        "Family": "",
        "Spouse": ""
    },
    {
        "Name": "Theophilus",
        "Reign": "829-42",
        "Full Name": "",
        "Family": "son of Michael II",
        "Spouse": "Theodora"
    },
    {
        "Name": "Michael III",
        "Reign": "842-67",
        "Full Name": "",
        "Family": "",
        "Spouse": ""
    }
]