col0,col1,col2,col3
USS Des Moines,1943-09-25,1961-07-06,6
USS Denver,1899-03-03,1931-02-14,4
USS DeLong,1898-05-04,1919-03-08,1
USS Davis,1896-06-10,1913-03-28,1
USS Davis,1954-02-03,1982-12-20,6
USS Davidson,1962-01-03,1988-12-08,7
USS Daniel Webster,1961-02-03,1990-08-30,9
USS Dale,1958-11-07,1970-10-11,7
USS Dahlgren,1896-06-10,1919-03-11,1
USS Dahlgren,1956-07-23,1992-07-31,7
USS Cushing,1886-08-03,1898-11-08,1
USS Craven,1896-06-10,1913-11-14,1
USS Corregidor,1942-08-20,1958-09-04,6
USS Coral Sea,1943-06-14,1990-04-26,10
USS Conyngham,1959-07-21,1990-10-30,4
USS Connole,1964-07-22,1992-08-30,7
USS Connecticut,1902-07-01,1923-03-01,7
USS Concord,1916-08-29,1945-12-12,4
USS Columbus,1940-09-09,1975-01-31,7
USS Columbia,1890-06-30,1919-08-21,6
USS Colorado,1916-08-29,1947-01-07,11
USS Cochrane,1960-03-25,1990-10-01,4
USS Cobia,1940-09-09,1946-05-22,5
USS Cleveland,1938-05-17,1947-02-07,7
USS Cleveland,1899-03-03,1929-11-01,4
USS Claude V. Ricketts,1957-03-28,1989-10-31,4
USS Cincinnati,1916-08-29,1945-11-01,4
USS Cincinnati,1888-09-07,1919-04-20,5
USS Chicago,1883-03-03,1923-09-30,5
USS Chester,1904-04-27,1921-06-10,4
USS Chester,1924-12-18,1946-06-10,4
USS Chattanooga,1899-03-03,1921-07-19,4
USS Charleston,1965-06-11,1992-04-27,7
USS Charleston,1900-06-07,1923-12-04,6
USS Charles F. Adams,1957-03-28,1990-08-01,4
USS Challenge,1944-05-15,1947-12-23,4
USS Cayuga,1966-07-15,1994-08-26,5
USS Cavalla,1968-07-24,1998-03-30,8
USS Casimir Pulaski,1961-07-20,1994-03-07,9
USS Carpenter,1945-07-10,1981-02-20,4
USS Carbonero,1942-04-10,1970-12-01,4
USS Cape Cod,1977-09-30,1995-09-29,8
USS California,1968-06-13,1999-07-09,7
USS California,1915-12-28,1947-02-14,9
USS Bunch,1942-10-09,1946-05-31,3
USS Bull,1942-10-09,1947-06-05,3
USS Buchanan,1958-01-17,1991-10-01,4
USS Bryce Canyon,1944-11-08,1981-06-30,8
USS Brunswick,1967-09-26,1996-03-08,5
USS Brooklyn,1929-02-13,1947-01-03,5
USS Brooklyn,1892-07-19,1921-03-09,7
USS Brooke,1962-01-04,1988-09-16,4
USS Bristol County,1966-07-15,1994-07-29,5
USS Boulder,1966-07-15,1994-02-28,5
USS Boston,1883-07-23,1893-11-04,5
USS Boise,1929-02-13,1946-07-01,5
USS Bluefish,1966-07-15,1996-05-31,8
USS Blenny,1942-07-09,1969-11-07,4
USS Blandy,1954-10-23,1982-11-05,6
USS Blakely,1898-05-04,1919-03-08,1
USS Black Hawk,1992-04-22,2007-12-01,3
USS Birmingham,1904-04-27,1923-12-01,4
USS Billfish,1966-07-15,1999-07-01,8
USS Bigelow,1954-07-30,1982-11-05,6
USS Biddle,1898-05-04,1919-03-12,1
USS Berkeley,1959-07-21,1992-09-30,4
USS Bergall,1965-03-09,1996-06-06,8
USS Benjamin Stoddert,1960-03-25,1991-12-20,4
USS Benjamin Franklin,1962-11-01,1993-11-23,9
USS Belleau Wood,1969-11-15,2005-10-28,7
USS Belknap,1961-05-16,1975-12-20,9
USS Becuna,1942-04-10,1969-11-07,4
USS Batfish,1968-06-25,1999-03-17,8
USS Batfish,1942-04-21,1946-04-06,4
USS Barnstable County,1966-07-15,1994-06-29,5
USS Barney,1898-05-04,1919-03-11,1
USS Barney,1957-03-28,1990-12-17,4
USS Barbel,1955-08-24,1989-12-04,7
USS Bainbridge,1958-09-01,1996-09-13,3
USS Bailey,1897-03-03,1919-03-18,1
USS Bagley,1898-05-04,1919-03-12,1
USS Avenger,1982-06-29,2014-09-30,3
USS Aspro,1963-03-26,1995-03-31,8
USS Arkansas,1975-01-31,1998-07-07,9
USS Arizona,1913-03-04,1941-12-29,8
USS Archerfish,1968-06-25,1998-03-31,8
USS Andrew Jackson,1960-07-23,1989-08-31,9
USS Amphitrite,1874-06-23,1901-11-30,4
USS America,1960-11-25,1996-08-09,11
USS Allen M. Sumner,1942-08-07,1973-08-15,4
USS Alexander Hamilton,1960-07-22,1993-02-23,9
USS Albert David,1963-03-20,1988-09-28,7
USS Albacore,1950-11-24,1972-12-09,6
USS Alaska,1940-09-09,1947-02-17,9
USS Alabama,1939-04-01,1947-01-09,11
USS Ajax,1862-09-15,1898-09-01,3
USS Ainsworth,1966-08-25,1994-05-27,7
USS Acme,1941-05-17,1945-12-13,2
USS Achomawi,1943-10-13,1947-06-10,4
USS Accokeek,1943-08-16,1972-06-29,3
