col0,col1,col2,col3,col4
Uknowhowwedu,Bahamadia,Bahamadia,215,"""True Honey Buns"""
Uh La La La,Robyx,Alexia,225,"""I Want What I Want"""
Ugly,D. Austin,Sugababes,230,"""Come Together"""
Ue kara Mariko,Y. Akimoto,AKB48,280,"""Hashire! Penguin"" (Theater Edition)"
U Make My Sun Shine,Prince,Angie Stone,352,"""When Will We B Paid?"""
U Make Me Wanna,S. Robson,Blue,219,"""Made for Loving You"""
U Got the Look,Prince,Prince,420,"""Housequake"""
U Can't Touch This,R. James,MC Hammer,256,"""Dancin' Machine"""
U + Ur Hand,M. Martin,Pink,213,"""Crash & Burn"""
URL Badman,G. Kurstin,Lily Allen,219,"""Bass Like Home"""
U.O.Me,H. v. Hemert,Luv',175,Hang On
Tänd på,J. Berg,Kent,283,"""Ett år utan sommar"""
Typical Me,Kano,Kano,274,"""P's and Q's"""
Typical Male,G. Lyle,Tina Turner,258,"""Don't Turn Around"""
Typical,D. King,Mutemath,252,"""Progress"""
Ty Cobb,C. Cornell,Soundgarden,185,"""Rhinosaur"" / ""Big Dumb Sex"" / ""Rhinosaur"" (The Straw That Broke the Rhino's Back remix)"
Two to Make It Right,D. Cole,Seduction,251,Remix
"Two of a Kind, Workin' on a Full House",D. Robbins,Garth Brooks,151,"""Unanswered Prayers"""
