col0,col1,col2,col3
S. Isham,New York City,1914,Samuel Isham
R. Miller,Chicago,1978,Ruth Blanchard Miller
R. Haines,"Marion, Iowa",1984,Richard Haines
J. Simpson,Kingdom of Great Britain,1847,John Simpson
J. B. Jr.,United States,2013,John Bell Jr.
J. W. Cooke,United States,2011,Frances Jane White
H. Füger,Germany,1818,Heinirch Füger
D. Maetzel-Johannsen,Lensahn,1930,Dorothea Johannsen
