col0,col1,col2,col3
L. Hogan,Bruree,2014-1-15,1939-3-10
K. Heffernan,Dublin,2013-1-25,1929-8-20
J. T. Power,Kilkenny,1982-2-1,1883-1-1
J. Ryan,Killimordaly,2003-10-7,1958-4-1
J. Phelan,Carlow,2006-1-5,1917-4-6
J. Kelleher,Dungourney,1943-1-10,1878-1-1
J. McNaughton,Cushendall,2014-2-17,1963-0-0
G. Hughes,Lorrha,2014-5-15,1939-11-17
F. White,Dublin,1984-1-1,1913-1-1
F. Nelson,Panama,1932-04-14,1859-0-0
F. Hayes,London,2014-7-10,1944-1-1
E. Byrne,Kilkenny,1944-1-1,1905-1-1
D. Dunphy,Waterford,2006-11-0,1939-0-0
C. Ware,Waterford,2013-11-24,1933-0-0
B. O'Keeffe,Borris-in-Ossory,1949-0-0,1880-8-16
É. Mongey,"Monkstown, County Dublin",2007-9-23,1925-1-1
