col0,col1,col2,col3,col4,col5
WYFF,NBC Weather Plus,WFBC-TV (1953–1983),36 (UHF),596,1953-12-26
WPTV-TV,NBC Weather Plus,WJNO-TV (1954–1956),12 (VHF),386,1954-08-22
WCSH,NBC Weather Plus,WCSH-TV (1953–1997),44 (UHF),587,1953-12-20
KXII,NBC,KVSO-TV (1956–1958),12 (VHF),545,1956-08-12
CJON-DT,CTV Television Network,CJON-TV (1955–2011),21 (UHF),254,1955-09-06
CHCH-DT,CBC Television,CHCH-TV (1954–2011),15 (UHF),355,1954-06-07
