col0,col1,col2,col3
Silistra Airfield,Silistra,LBSS,106
Silchar Airport,Silchar,(Location of airport in Assam),107
Silangit Airport,Siborong-Borong,WIMN,1420
Silampari Airport,South Sumatra,WIPB,125
Sikorsky Memorial Airport,"Bridgeport, Connecticut",KBDR,2
Sikeston Memorial Municipal Airport,"Sikeston, Missouri",KSIK,96
Sikasso Airport,Sikasso,GASK,420
Siirt Airport,Siirt,(Location of airport in Turkey),609
Siguiri Airport,Siguiri,GUSI,395
Siguanea Airport,Cuba,MUSN,12
Sigiriya Airport,Dambulla,VCCS,192
Sierra Vista Municipal Airport,"Sierra Vista, Arizona",KFHU,1438
Sierra Maestra Airport,"Manzanillo, Cuba",MUMZ,34
Sierra Blanca Regional Airport,"Ruidoso, New Mexico",KSRR,2076
Siena-Ampugnano Airport,Tuscany,(Location of airport in Italy),193
Siem Reap International Airport,Cambodia,(Location of airport in Cambodia),18
Siegerland Airport,Germany,EDGS,598
Sidney–Richland Municipal Airport,"Sidney, Montana",KSDY,605
Sidney Municipal Airport,"Sidney, Nebraska",KSNY,1314
Sidney–Richland Municipal Airport,"Sidney, Montana",KSDY,605
Sidi Mahdi Airport,Algeria,(Location of airport in Algeria),85
Sidi Bel Abbès Airport,Algeria,DAOS,492
Sibut Airport,Sibut,FEFU,430
Sibulan Airport,Dumaguete,RPVD,4
Sibu Airport,Sarawak,WBGS,37
Sibiu International Airport,Romania,(Location of airport in Romania),460
Sibiti Airport,Republic of the Congo,FCBS,573
Sibisa Airport,Parapat,WIMP,0
Sibi Airport,Pakistan,OPSB,132
Sibay Airport,Sibay,UWUA,398
Sialkot International Airport,Sialkot,(Location of airport in Pakistan),255
Siófok-Kiliti Airport,Hungary,(Location of airport in Hungary),126
Shymkent International Airport,Shymkent,UAII,422
Shungnak Airport,"Shungnak, Alaska",PAGH,60
Shri Guru Gobind Singh Ji Airport,Nanded,VOND,373
Shreveport Regional Airport,"Shreveport, Louisiana",KSHV,78
Shreveport Downtown Airport,"Shreveport, Louisiana",KDTN,54
Show Low Regional Airport,"Show Low, Arizona",KSOW,1955
Shoreham Airport,West Sussex,EGKA,2
Shonai Airport,"Sakata, Yamagata",RJSY,21
Shkodër Airport,Shkodër,LASK,43
Shively Field,"Saratoga, Wyoming",KSAA,2137
Shishmaref Airport,"Shishmaref, Alaska",PASH,3
Shirdi Airport,Shirdi,none,587
Shiraz International Airport,Shiraz,(Location of airport in Iran),1499
Shirak Airport,Gyumri,(Location of airport in Armenia),1524
Shinyanga Airport,Shinyanga,HTSY,1158
Shimla Airport,Shimla,VISM,1545
Shillong Airport,India,(Location of Airport in India),886
Shijiazhuang Zhengding International Airport,Shijiazhuang,ZBSJ,71
Sherman Municipal Airport,"Sherman, Texas",KSWI,227
Sheridan County Airport,"Sheridan, Wyoming",KSHR,1225
Sheremetyevo International Airport,Moscow,UUEE,189
Sherbro International Airport,Bonthe,GFBN,4
Sher-Wood Airport,"Plentywood, Montana",KPWD,690
Shenzhen Bao'an International Airport,Shenzhen,ZGSZ,4
Shenyang Taoxian International Airport,Shenyang,ZYTX,60
Shennongjia Hongping Airport,China,ZHSN,2580
Shenandoah Valley Regional Airport,"Staunton, Virginia",KSHD,366
Shell Lake Municipal Airport,"Shell Lake, Wisconsin",KSSQ,375
Shelby–Cleveland County Regional Airport,"Shelby, North Carolina",KEHO,258
Shelbyville Municipal Airport,"Shelbyville, Tennessee",KSYI,244
Shelbyville Municipal Airport,"Shelbyville, Indiana",KGEZ,244
Shelby Airport,"Shelby, Montana",KSBX,1049
Shelby–Cleveland County Regional Airport,"Shelby, North Carolina",KEHO,258
Shek Kong Airfield,Shek Kong,VHSK,15
Sheghnan Airport,Afghanistan,OASN,2042
Sheffield City Airport,Sheffield,EGSY,70
Sheboygan County Memorial Airport,"Sheboygan Falls, Wisconsin",KSBM,230
Shaybah Airport,Shaybah,OESB,79
Shawnee Regional Airport,"Shawnee, Oklahoma",KSNL,327
Shawano Municipal Airport,"Shawano, Wisconsin",KEZS,247
Shashi Airport,China,ZHSS,34
Sharurah Domestic Airport,Sharurah,OESH,720
Sharp County Regional Airport,"Ash Flat, Arkansas",KCVK,218
Sharm El Sheikh International Airport,Egypt,HESH,43
Sharjah International Airport,United Arab Emirates,OMSJ,35
Sharana Airstrip,Paktika Province,OASA,2266
Shannon Airport,Ireland,EINN,14
