col0,col1,col2,col3,col4
R. Amick,"Kansas City, Missouri",1929-1-19,0,1929-1-19
R. Sommer,"Mouzon, Ardennes",1906-8-31,0,1906-8-31
R. Crawford,"Roswell, New Mexico",1915-10-26,0,1915-10-26
R. Boesel,Curitiba,1957-12-4,0,1957-12-4
P. Courage,Colchester,1942-5-27,0,1942-5-27
P. Levegh,Paris,1905-12-22,0,1905-12-22
P. Raphanel,Algiers,1961-5-27,0,1961-5-27
P. Taruffi,Albano Laziale,1906-10-12,1,1906-10-12
P. Scotti,Florence,1909-11-11,0,1909-11-11
P. Dusio,Scurzolengo,1899-10-13,0,1899-10-13
P. Drogo,Vignale Monferrato,1926-8-8,0,1926-8-8
P. Carini,Genoa,1921-3-6,0,1921-3-6
P. Martini,"Lugo, Emilia-Romagna",1961-4-23,0,1961-4-23
P. Ghinzani,Solza,1952-1-16,0,1952-1-16
P. Étancelin,Rouen,1896-12-28,0,1896-12-28
P. Streiff,La Tronche,1955-6-26,0,1955-6-26
P. Alliot,Voves,1954-7-27,0,1954-7-27
P. Adams,Mouscron,1969-11-19,0,1969-11-19
P. Étancelin,Rouen,1896-12-28,0,1896-12-28
P. Fotheringham-Parker,Beckenham,1907-9-22,0,1907-9-22
P. Hill,Miami,1927-4-20,3,1927-4-20
P. Cade,"Charles City, Iowa",1916-6-12,0,1916-6-12
P. d. Klerk,"Pilgrim's Rest, Mpumalanga",1935-3-16,0,1935-3-16
P. Westbury,London,1938-5-26,0,1938-5-26
P. Ryan,Philadelphia,1940-6-10,0,1940-6-10
P. Revson,New York City,1939-2-27,2,1939-2-27
P. Monteverdi,"Binningen, Switzerland",1934-6-7,0,1934-6-7
P. Hirt,Küsnacht,1910-3-30,0,1910-3-30
P. Gethin,Ewell,1940-2-21,1,1940-2-21
P. Collins,Kidderminster,1931-11-6,3,1931-11-6
P. Broeker,"Hamilton, Ontario",1926-5-15,0,1926-5-15
P. Ashdown,"Danbury, Essex",1934-10-16,0,1934-10-16
P. Arundell,Ilford,1933-11-8,0,1933-11-8
P. Lovely,"Livingston, Montana",1926-4-11,0,1926-4-11
P. McCarthy,Stepney,1961-3-3,0,1961-3-3
Pedro de la Rosa,Barcelona,1971-2-24,0,1971-2-24
P. Rodríguez,Mexico City,1940-1-18,2,1940-1-18
P. Lamy,"Alenquer, Portugal",1972-3-20,0,1972-3-20
P. Diniz,São Paulo,1970-5-22,0,1970-5-22
P. Chaves,Porto,1965-2-27,0,1965-2-27
P. Russo,"Kenosha, Wisconsin",1914-4-10,0,1914-4-10
P. Pietsch,Freiburg im Breisgau,1911-6-20,0,1911-6-20
P. Hawkins,Melbourne,1937-10-12,0,1937-10-12
P. Frère,Le Havre,1917-1-30,0,1917-1-30
P. England,Melbourne,1929-3-28,0,1929-3-28
P. Emery,Chiswick,1916-11-12,0,1916-11-12
P. Belmondo,Boulogne-Billancourt,1963-4-23,0,1963-4-23
P. Tambay,Paris,1949-6-25,2,1949-6-25
P. Nève,Liège,1949-10-13,0,1949-10-13
P. Gaillard,Paris,1952-2-12,0,1952-2-12
P. Friesacher,"Wolfsberg, Carinthia",1980-9-26,0,1980-9-26
P. Depailler,Clermont-Ferrand,1944-8-9,2,1944-8-9
P. O'Connor,"North Vernon, Indiana",1928-10-9,0,1928-10-9
P. Flaherty,"Glendale, California",1926-1-6,1,1926-1-6
P. Fabre,Lyon,1960-1-9,0,1960-1-9
P. Barilla,Milan,1961-4-20,0,1961-4-20
P. Godia,Barcelona,1921-3-21,0,1921-3-21
P. Birger,Buenos Aires,1924-1-7,0,1924-1-7
O. Volonterio,Orselina,1917-12-7,0,1917-12-7
O. Stuppacher,Vienna,1947-3-3,0,1947-3-3
O. Karch,Ludwigshafen,1917-3-6,0,1917-3-6
O. Larrauri,Granadero Baigorria,1954-8-19,0,1954-8-19
O. A. Gálvez,Buenos Aires,1913-8-17,0,1913-8-17
O. Marimón,"Zárate, Buenos Aires",1923-12-23,0,1923-12-23
O. Panis,Lyon,1966-9-2,1,1966-9-2
O. Grouillard,Toulouse,1958-9-2,0,1958-9-2
O. Beretta,Monte Carlo,1969-11-23,0,1969-11-23
N. Takahara,Tokyo,1951-6-6,0,1951-6-6
N. Fontana,Arrecifes,1975-1-20,0,1975-1-20
N. Vaccarella,Palermo,1933-3-4,0,1933-3-4
N. Lauda,Vienna,1949-2-22,25,1949-2-22
N. Kiesa,Copenhagen,1978-3-3,0,1978-3-3
N. Larini,Tuscany,1964-03-19,0,1964-03-19
N. Lederle,Theunissen,1938-9-25,0,1938-9-25
N. Piquet,Rio de Janeiro,1952-8-17,23,1952-8-17
N. Estéfano,"Concepción, Tucumán",1932-11-18,0,1932-11-18
N. Hattori,"Yokkaichi, Mie",1966-6-13,0,1966-6-13
N. Galli,Bologna,1940-10-2,0,1940-10-2
Mário de Araújo Cabral,Porto,1934-1-15,0,1934-1-15
M. Fohr,Milwaukee,1912-6-17,0,1912-6-17
M. Solana,Mexico City,1935-12-26,0,1935-12-26
M. Kozarowitzky,Helsinki,1948-5-17,0,1948-5-17
M. Wilds,London,1946-1-7,0,1946-1-7
M. Thackwell,Auckland,1961-3-30,0,1961-3-30
M. Taylor,London,1934-4-24,0,1934-4-24
M. Spence,London Borough of Croydon,1936-12-30,0,1936-12-30
M. Sparken,Neuilly-sur-Seine,1930-6-16,0,1930-6-16
