col0,col1,col2,col3
We Don't Need Another Hero,One of the Living,G. Lyle,Tina Turner
We Don't Make the Wind Blow,II,I. DeLange,The Common Linnets
We Don't Have to Take Our Clothes Off,Lucky Like That,N. M. Walden,Jermaine Stewart
We Don't Have to Look Back Now,Livin' on Borrowed Time,M. Collins,Puddle of Mudd
We Don't Have to Do This,Hangin' In,V. Shaw,Tanya Tucker
We Don't Care,Sexy Bitch,Akon,Akon
We Didn't Start the Fire,Leningrad,B. Joel,Billy Joel
We Didn't Know,I Will Always Love You,S. Wonder,Whitney Houston
We Dem Boyz,KK,C. Brown,Wiz Khalifa
We Deal in Dreams,The River,Live,Live
We Danced Anyway,Count Me In,R. Scruggs,Deana Carter
We Danced,Two People Fell in Love,B. Paisley,Brad Paisley
We Dance On,Best Behaviour,J. Pachelbel,N-Dubz
We Cry,The Man Who Can't Be Moved,D. O'Donoghue,The Script
We Could Be Together,Without You,D. Gibson,Debbie Gibson
We Come Running,Stars,S. Katz,Youngblood Hawke
We Come 1,Muhammad Ali,S. Bliss,Faithless
We Close Our Eyes,Call Me,P. Cox,Go West
We Can Work It Out,Paperback Writer,Lennon–McCartney,The Beatles
We Can Try,Rough Day,A. Mtawarira,Paulini
We Can Only Live Today,Running Low,Netsky,Netsky
We Can Last Forever,What Kind Of Man Would I Be?,J. Scheff,Chicago
We Can Have It All,Tonight,D. Byrd,Danny Byrd
We Can Get Together,Walls,I. Davies,Icehouse
We Can't Stop,Wrecking Ball,D. E. Fresh,Miley Cyrus
We Can't Love Like This Anymore,Give Me One More Shot,W. Mobley,Alabama
We Can,This Love,D. Warren,LeAnn Rimes
We Came to Dance,One Small Day,M. Ure,Ultravox
We Built This City,Sara,B. Taupin,Starship
We Break the Dawn,The Greatest,S. Knowles,Michelle Williams
We Both Walk,A Picture of Me,T. Shapiro,Lorrie Morgan
We Belong Together,Shake It Off,Babyface,Mariah Carey
We Belong,Tropico,L. &. Navarro,Pat Benatar
We Believe,The River,B. Madden,Good Charlotte
We Be Burnin',Ever Blazin',"S. "". Marsden",Sean Paul
We Are the World,If You Want My Love,T. 4. Seven,Twenty 4 Seven
We Are the Pigs,The Wild Ones,B. Anderson,Suede
We Are the People,Tracing Lines / Silent Cry,G. Nicholas,Feeder
We Are the People,Standing on the Shore,L. Steele,Empire of the Sun
We Are the Ones,Heartbreaker,B. Obama,Will.i.am
We Are the Champions,Last Christmas,F. Mercury,Queen
We Are Young,Some Nights,A. Dost,Fun
We Are Tonight,Don't It,S. Hunt,Billy Currington
We Are The Greatest/I Was Made For Lovin' You,Call Me Mañana,P. Stanley,Scooter
We Are One Tonight,Oh! Gravity.,T. Foreman,Switchfoot
We Are One,I Finally Found My Way,G. Simmons,Kiss
We Are Never Ever Getting Back Together,Ronan,M. Martin,Taylor Swift
We Are Golden,Rain,Mika,Mika
We Are Family,Lost in Music,B. Edwards,Sister Sledge
We Are Done,Dear Jane,B. Madden,The Madden Brothers
We Are Detective,Watching,T. Bailey,Thompson Twins
We Are All on Drugs,Perfect Situation,R. Cuomo,Weezer
We Are All Prostitutes,In the Beginning There Was Rhythm/Where There's a Will There's a Way,T. P. Group,The Pop Group
We Are,Pigskin,D. Lohner,Hollywood Undead
We Are,Don't Cry for Pain,A. Carlsson,Ana Johnsson
We Are.,Desire,D. Nagao,Do As Infinity
We Apologise for Nothing,Deathcar,C. Simpson,Fightstar
We Alright,Trophies,Birdman,Birdman
We All Sleep Alone,Skin Deep,R. Sambora,Cher
We've Only Just Begun,Merry Christmas Darling,P. Williams,The Carpenters
We've Had Enough,All on Black,M. Skiba,Alkaline Trio
We've Got a Good Fire Goin',Heartbeat in the Darkness,D. Loggins,Don Williams
We've Got Tonite,Old Time Rock and Roll,B. Seger,Kenny Rogers
We've Got Everything,Little Motel,M. Mouse,Modest Mouse
We're on the Ball,Let's Get Ready to Rhumble,A. McPartlin,Ant & Dec
We're in This Together,Into the Void,T. Reznor,Nine Inch Nails
We're from America,Arma-Goddamn-Motherfuckin-Geddon,M. Manson,Marilyn Manson
We're an American Band,Walk Like a Man,D. Brewer,Poison
We're So Good Together,I'm a Survivor,B. DiPiero,Reba McEntire
We're Ready,Can'tcha Say,T. Scholz,Boston
We're Not the Same,Hang It Up,J. D. Martino,The Ting Tings
We're Not Making Love No More,How Deep Is Your Love,Babyface,Dru Hill
We're Not Gonna Take It,I Wanna Rock,D. Snider,Twisted Sister
We're Not Gonna Take It,The Seeker,P. Townshend,The Who
We're Back!,Motherlover,A. Samberg,The Lonely Island
We're Almost There,Just a Little Bit of You,B. Holland,Michael Jackson
We're All No One,Livin' My Love,S. Aoki,Nervo
We'll Burn That Bridge,She Used to Be Mine,R. Dunn,Brooks & Dunn
