col0,col1,col2,col3
Yellowish white-eye,Zosteropidae,IUCN3.1,LC
Yellowish pipit,Motacillidae,IUCN3.1,LC
Yellowish myotis,Vespertilionidae,IUCN3.1,LC
Yellowish imperial pigeon,Columbidae,IUCN3.1,NT
Yellowish flycatcher,Tyrant flycatcher,IUCN3.1,LC
Yellowish bulbul,Pycnonotidae,IUCN3.1,LC
Yellowish-streaked lory,True parrots,IUCN3.1,LC
Yellowish-streaked honeyeater,Meliphagidae,IUCN3.1,LC
Yellowhead wrasse,Labridae,iucn3.1,LC
Yellowhead jawfish,Opistognathidae,iucn3.1,NE
Yellowhead butterflyfish,Chaetodontidae,iucn3.1,LC
Yellowhead,Mohoua,IUCN3.1,EN
Yellowhammer,Emberizidae,IUCN3.1,LC
Yellowfin surgeonfish,Acanthuridae,IUCN3.1,LC
Yellowfin madtom,Ictaluridae,IUCN2.3,VU
