col0,col1,col2,col3,col4
Drum and bass,Digital hardcore,Neurofunk,Industrial music,Dubstep
Doom metal,Doom metal,Doom metal,Heavy metal music,Gothic metal
Disco,Disco house,Space disco,Latin music,Hip hop music
Death metal,Blackened death metal,Melodic death metal,Hardcore punk,Groove metal
Dancehall,Tropical house,Ragga,Reggae,Grime music
Country music,Cowpunk,Bro-country,Blues,Rockabilly
Contemporary folk music,Folk metal,Bluegrass music,Folk music,Skiffle
Contemporary Christian music,CEDM,Christian rock,Pop music,Contemporary worship music
Breakbeat,Breakstep,Nu-funk,Post-disco,2-step garage
Brazilian rock,Samba rock,Brazilian thrash metal,Blues,Tropicália
Boogie,House music,Electro,Jazz,Funktronica
Blues,Rhythm and blues,Boogie-woogie,American folk music,Jazz
Ambient music,Ambient pop,Drone music,Background music,Ambient house
Alternative rock,Nu metal,Grunge,Hardcore punk,Trip hop
2-step garage,Hardstep,Dubstep,Contemporary R&B,Grime music
