col0,col1,col2,col3,col4
Operation Harpoon,Malta,Battle of the Mediterranean,Axis victory,1 battleship
Operation Harling,Kingdom of Greece,Axis occupation of Greece,Allied success,100
Operation Hannover,Vyazma,World War II,German victory,"20,000"
Operation Hammer,Afghanistan,War in Afghanistan,(Coalition forces took control of territory south of the Helmand river.),"1,500 (United Kingdom)"
Operation Hammer,Iraqi Kurdistan,Iraqi Kurdish Civil War,Decisive Turkish victory (Turkish claim),"10,000 village guards"
Operation Halberd,Calabria,Battle of the Mediterranean,British victory,1 aircraft carrier
Operation Hailstone,Caroline Islands,Pacific War,"American victory, prevented the Japanese reinforcement ofEniwetokgarrison, key Japanese warships avoided destruction","10 submarines,"
Operation Green Sea,Guinea,Guinea-Bissau War of Independence,"Limited Portuguese success, all 26 Portuguese POWs rescued, PAIGC and Guinean ships and air force assets destroyed; failure to capture or killAmílcar CabralandAhmed Sékou Touré.",200 Guinean opponents
Operation Gown,Syria,Yom Kippur War,Israeli victory,Sayeret Tzanhanim
Operation Gothic Serpent,Somalia,Somali Civil War,* U.N. withdrawal on 28 March 1995,"30,000+ all five U.N. nations"
Operation Gordian Knot,Mozambique,Mozambican War of Independence,Portuguese army seizes initiative from FRELIMO,8000
Operation Goranboy,Goranboy Rayon,Nagorno-Karabakh War,"Azerbaijan initially managed to break through theNKRdefenses and capture over 48% of formerNKAOterritory, but failed in their overall strategic goal.","""Aramo""detachment"
Operation Goodwood,Normandy,Battle for Caen,SeeAftermathsection,2 heavy tank battalions (377 tanks)
Operation Gisela,North Sea,Defence of the Reich,Operation failed,Nachtjagdgeschwader 1
Operation Gibraltar,Jammu and Kashmir,Indo-Pakistani War of 1965,Operational failure of Pakistan,"100,000 – 200,000"
Operation GYS,Negev,1948 Arab–Israeli War,Failure to accomplish objectives,3 battalions
Operation Fritham,Norway,World War II,Norwegian military presence onSvalbard,4Focke-Wulf Fw 200 Condors
Operation Friction,Iraq,Gulf War,Canadianvictory,"1,000,000 reserves"
Operation Frankton,Bordeaux,Western Front,British victory,12E Boats
Operation Forty Stars,Iran,Iran–Iraq War,*Iranian defensive failure,"16,000 (PMOI claim)"
Operation Flash,Croatia,Croatian War of Independence,Strategic Croatian victory,"3,500 soldiers"
Operation Faustschlag,Baltics,Eastern Front,Decisive Central Powers victory,53 divisions
Operation Fath ol-Mobin,Iran,Iran-Iraq War,Decisive Iranian victory,"15,000 militia"
Operation Fath 1,Iraq,Iran-Iraq War,Iranian and Kurdish victory,*IRGC: 400 (not all of them engaged)
Operation Falcon Summit,Afghanistan,War in Afghanistan,NATOvictory,"2,000"
Operation Excess,Sicily,Battle of the Mediterranean,British victory,1 aircraft carrier
Operation Epsom,Caen,Battle for Caen,SeeAftermathsection,1 SS heavy tank battalion
Operation Entebbe,Uganda,Arab-Israeli conflict,* 102 of 106 hostages rescued.,+100 Ugandan soldiers.
Operation Enduring Freedom – Trans Sahara,Sahara Desert,War on Terrorism,Conflict ongoing,"1,325+ American advisors & trainers;"
Operation Eland,People's Republic of Mozambique,Rhodesian Bush War,Rhodesian victory,Rhodesia: 84
Operation Eagle Ares,Iraq,Iraq War,American victory,unknown
Operation Eagle's Summit,Afghanistan,War in Afghanistan,Coalition victory.,"ANA: 1,000"
Operation Eagle's Feather,Afghanistan,War in Afghanistan,PolishDecisive victory,800Polish Armysoldiers
Operation Dryad,Channel Islands,North West Europe Campaign,British victory,12
Operation Dragoon,Southern France,European Theatre of World War II,Allied victory,"175,000–200,000 men"
Operation Dragon Rouge,Republic of the Congo,Congo Crisis,Operation successful; most hostages rescued,"1,800 Belgian and other European hostages"
Operation Dracula,Burma,Burma Campaign,Alliedvictory,1 airborne battalion
Operation Downfall,Empire of Japan,Pacific War,"Cancelled after the unconditional Japanese surrender on August 15, 1945.","1,000,000 (projected)"
Operation Donnerkeil,English Channel,Western Front,German victory,252Bf 109andFw 190fighters
Operation Dingo,Chimoio,Rhodesian Bush War,Decisive Rhodesian victory,"&gt;10,000 guerrillas/trainees + ZANLA political/civil elements"
Operation Dignity Battle,Libya,2014 Libyan Civil War,* Beginning ofSecond Libyan Civil War,4000+ rebels
Operation Diesel,Afghanistan,War in Afghanistan,Decisive Coalition victory,700–800
Operation Dexterity,New Guinea,Pacific War,Alliedvictory,"~10,500"
Operation Dewey Canyon,South Vietnam,Vietnam War,U.S.tactical victory,"2nd Battalion, 12th Marines"
Operation Devon,Termoli,Italian Campaign,Allied victory,Around 650 commandos
Operation Desoto,Đức Phổ District,Vietnam War,U.S. victory,12th Marines
Operation Desert Rat,Ho Chi Minh trail,Vietnam War,* 21 Communist espionage agents arrested byRoyal Lao Armed Forces,"50,000 total; exact numbers opposing RLF unknown"
Operation Density,Lebanon,2006 Lebanon War,Israeli failure according to Hizbullah,Hizbullah Rockets Array
Operation Deliverance,Somalia,Somali Civil War,*Decline of theCanadian Forces,1 Flying squadron
Operation Deliberate Force,Bosnia and Herzegovina,NATO intervention in Bosnia,*Bosnian Serbsreturn tonegotiations,12 105mm guns
Operation Deckhouse Five,South Vietnam,Vietnam War,U.S. victory,1st Battalion 9th Marines
Operation Death to the Invader,Negev,1948 Arab–Israeli War,Failure to accomplish objectives,"4,800"
Operation Deadstick,Normandy,Normandy landings,British victory,'D' Company 180 men
Operation Dawn of Gulf of Aden,Arabian Sea,Operation Ocean Shield,* All 21 hostages safely rescued,17~20 pirates
Operation Dawn 8: Gulf of Aden,"Muscat, Oman",Operation Ocean Shield,PASKAL victory,14PASKALoperators
Operation Dawn 8,Al-Faw Peninsula,Iran–Iraq War,*Iraqi counter-attack fails,"100,000 soldiers"
Operation Dawn 6,Basra,Iran–Iraq War,*Defensive Iraqi victory,"500,000"
Operation Dawn 5,Iraq,Iran–Iraq War,*Defensive Iraqi victory (Iraq holds on to the city of al-Basra),"2 Army Corps (approx; 90,000-100,000 soldiers)"
Operation Dawn 3,"Mehran, Ilam Province",Iran–Iraq War,*Iranian offensive failure,"180,000"
Operation Dawn 2,Iraqi Kurdistan,Iran-Iraq war,*Iraqi counter-attack fails,"1,500 militiamen"
Operation Dawn,Şemdinli,Kurdish–Turkish conflict,Turkish victory,100 village guards
Operation Dawn,Iraqi Kurdistan,Kurdish–Turkish conflict,Turkish victory (Turkish claim),"10,000-12,000"
