col0,col1,col2,col3,col4
H. Wagner,Poland,Poznań,1941-03-04,1941-03-04
G. Endres,Brazil,Brazil,1975-08-23,1975-08-23
G. Wagner,Poland,Poland,1965-12-13,1965-12-13
G. Creţu,Austria,Romania,1968-08-08,1968-08-08
F. D. Giorgi,Italy,Italy,1961-10-10,1961-10-10
E. Skorek,Poland,Tomaszów Mazowiecki,1943-06-14,1943-06-14
D. Świeniewicz,Poland,Poland,1972-07-27,1972-07-27
D. Dacewicz,Poland,Poland,1974-09-28,1974-09-28
C. Cuello,Argentina,Argentina,1958-03-04,1958-03-04
A. Meresaar,Estonia,Estonia,1980-01-13,1980-01-13
A. Kowal,Poland,Poland,1971-02-27,1971-02-27
A. Gardini,Italy,Italy,1965-10-01,1965-10-01
A. Anastasi,Italy,Italy,1960-10-08,1960-10-08
