col0,col1,col2,col3
Gulella alleni,Streptaxoidea,DD,IUCN2.3
Grove snail,Helicidae,LC,iucn3.1
Grossuana thracica,Hydrobiidae,CR,iucn3.1
Grey heron,Ardeidae,LC,IUCN3.1
Greenbrier cavesnail,Hydrobiidae,VU,IUCN2.3
Green floater,Unionidae,LR/nt,IUCN2.3
Graziana pupula,Hydrobiidae,LC,IUCN3.1
Graziana lacheineri,Hydrobiidae,LC,IUCN3.1
Graziana klagenfurtensis,Hydrobiidae,EN,IUCN3.1
Grated tryonia,Hydrobiidae,DD,IUCN2.3
Granulomelon grandituberculatum,Camaenidae,LR/nt,IUCN2.3
Granulina parilis,Muricoidea,DD,IUCN2.3
Granulated Tasmanian snail,Euthyneura,NT,IUCN3.1
Granite pebblesnail,Hydrobiidae,DD,IUCN2.3
Grand Wash springsnail,Hydrobiidae,VU,IUCN2.3
Graecoanatolica pamphylica,Hydrobiidae,EN,IUCN3.1
Graecoanatolica macedonica,Hydrobiidae,EX,IUCN3.1
Graecoanatolica lacustristurca,Hydrobiidae,EN,IUCN3.1
Graecoanatolica kocapinarica,Hydrobiidae,VU,IUCN3.1
Graecoanatolica dinarica,Hydrobiidae,EN,IUCN3.1
Graecoanatolica conica,Hydrobiidae,CR,IUCN3.1
Graecoanatolica brevis,Hydrobiidae,CR,IUCN3.1
Graecoanatolica anatolica,Hydrobiidae,CR,IUCN3.1
Gonyostomus insularis,Acavoidea,VU,IUCN2.3
Gonyostomus goniostomus,Acavoidea,CR,IUCN2.3
Gonospira uvula,Streptaxoidea,EN,IUCN2.3
Gonospira turgidula,Streptaxoidea,VU,IUCN2.3
Gonospira teres,Streptaxoidea,VU,IUCN2.3
Gonospira striaticostus,Streptaxoidea,VU,IUCN2.3
Gonospira nevilli,Streptaxoidea,EX,IUCN2.3
Gonospira madgei,Streptaxoidea,VU,IUCN2.3
Gonospira holostoma,Streptaxoidea,VU,IUCN2.3
Gonospira funicula,Streptaxoidea,LR/lc,IUCN2.3
Gonospira duponti,Streptaxoidea,CR,IUCN2.3
Gonospira deshayesi,Streptaxoidea,EN,IUCN2.3
Gonospira cylindrella,Streptaxoidea,VU,IUCN2.3
Gonospira bourguignati,Streptaxoidea,LR/nt,IUCN2.3
Gonidomus sulcatus,Streptaxoidea,VU,IUCN2.3
Gonidomus newtoni,Streptaxoidea,EX,IUCN2.3
Gonidea angulata,Unionidae,G3,TNC
Gonaxis vosseleri,Streptaxoidea,DD,IUCN2.3
Gonaxis usambarensis,Streptaxoidea,DD,IUCN2.3
Golf stick pearly mussel,Unionidae,CR,IUCN2.3
Golden pebblesnail,Hydrobiidae,DD,IUCN3.1
Glyptorhagada tattawuppana,Camaenidae,VU,IUCN2.3
Glyptorhagada silveri,Camaenidae,EN,IUCN2.3
Glyptorhagada kooringensis,Camaenidae,VU,IUCN2.3
Glyptorhagada janaslini,Camaenidae,LR/nt,IUCN2.3
Glyptorhagada euglypta,Camaenidae,VU,IUCN2.3
Glyptorhagada bordaensis,Camaenidae,VU,IUCN2.3
Glyptophysa petiti,Planorbidae,DD,IUCN3.1
Glyphyalinia pecki,Zonitoidea,DD,IUCN2.3
Gladiator elimia,Cerithioidea,VU,IUCN2.3
Glacidorbis occidentalis,Glacidorboidea,VU,IUCN2.3
Glabrennea thomasseti,Streptaxoidea,CR,IUCN3.1
Glabrennea silhouettensis,Streptaxoidea,CR,IUCN3.1
Glabrennea gardineri,Streptaxoidea,EN,IUCN3.1
Gittenbergeria turriplana,Helicoidea,LR/lc,IUCN2.3
Gila tryonia,Hydrobiidae,DD,IUCN2.3
Gila springsnail,Hydrobiidae,VU,IUCN2.3
Gibbus lyonetianus,Streptaxoidea,EX,IUCN2.3
Gibberula punctilum,Muricoidea,DD,IUCN2.3
Gibberula modica,Muricoidea,DD,IUCN2.3
Gibberula cucullata,Muricoidea,DD,IUCN2.3
Giant clam,Cardiidae,VU,iucn2.3
Georissa rufula,Hydrocenidae,DD,IUCN2.3
Georissa laseroni,Hydrocenidae,VU,IUCN2.3
Georissa laevigata,Hydrocenidae,DD,IUCN2.3
Georissa elegans,Hydrocenidae,DD,IUCN2.3
Georissa biangulata,Hydrocenidae,DD,IUCN2.3
Georgia pigtoe,Unionidae,G1,TNC
Geomitra tiarella,Helicoidea,EN,IUCN2.3
Geomitra moniziana,Helicoidea,EN,IUCN2.3
