col0,col1,col2,col3,col4,col5,col6
The Journal of Pathology,1892,0022-3417,Immediate upon payment of OnlineOpen fee; after 12-months NIH funded; after six months HHMI funded,Monthly,2014,7
The Developing Economies,1963,0012-1533,partial,Quarterly,2015,0
Tectonophysics,1964,0040-1951,Hybrid,28/year,2011,2
Studies in Mycology,1972,0166-0616,Yes,3/year,2014,13
Solid State Communications,1963,0038-1098,Hybrid,Bimonthly,2014,1
Review of Palaeobotany and Palynology,1967,0034-6667,Author fee,Monthly,2014,1
Review of International Political Economy,1994,0969-2290,no,Bimonthly,2014,1
Platinum Metals Review,2014,0032-1400,Yes,Quarterly,2011,1
Plant Disease,1922,0191-2917,"Delayed, 1 year",Monthly,2014,3
Pigment Cell & Melanoma Research,2007,1755-1471,Author fee,6/year,2014,4
Philosophical Transactions of the Royal Society B,1887,0962-8436,Hybrid,Biweekly,2014,7
