col0,col1,col2,col3
Ashburnham Park,East Sussex,1007000,Biological
Asham Wood,Somerset,1406000,Biological
Asham Quarry,East Sussex,25800,Geological
Arreton Down,Isle of Wight,298000,Biological
Arger Fen,Suffolk,487000,Biological
Arfordir Abereiddi,Pembrokeshire,637400,Biological and Geological
Arcot Hall Grasslands and Ponds,Northumberland,680800,Biological
Andrew's Wood,Devon,235000,Biological
America Wood,Isle of Wight,214000,Biological
Amberley Wild Brooks,West Sussex,3226000,Biological
Alverstone Marshes,Isle of Wight,838000,Biological
