col0,col1,col2,col3
Y. Robert,X. Gélin,Paris,French nationality law
U. Trivedi,A. Trivedi,India,Indian people
T. v. Gogh,V. v. Gogh,Amsterdam,Dutch people
S. Strasberg,J. Strasberg,New York City,United States
S. Caine,M. Caine,Ruislip,British nationality law
S. Kapoor,R. Kapoor,India,Indian people
S. Shivdasani,List of Hindi film clans,India,India
R. Howard,A. Howard,Dorset,United Kingdom
R. Webb,G. Webb,England,England
P. Lindgren,L. Lindgren,Stockholm,Sweden
P. Duel,G. Deuel,California,United States
O. Syahputra,B. Syahputra,Singapore,Dutch East Indies
N. Harrison,C. Harrison,Devon,English people
Nargis,List of Hindi film clans,Maharashtra,Indian people
M. Kenter,Y. Kenter,Constantinople,Turkey
M. O'Day,S. O'Neil,"Avila Beach, California",United States
M. Schell,M. Schell,Austria,Swiss people
M. Kenter,Y. Kenter,Constantinople,Turkey
L. Christian,A. Welter,"Palm Springs, California",Mexican nationality law
L. Penn,A. Mann,California,American nationality law
K. Black,G. Brown,California,United States
J. O'Hara,S. Barry,Dublin,Ireland
J. Khan,List of Hindi film clans,Mumbai,United Kingdom
H. Secombe,F. Secombe,England,Welsh People
G. Ekman,G. Ekman,Stockholm,Swedish people
G. Calvi,Y. Calvi,France,France
G. Ekman,G. Ekman,Stockholm,Swedish people
G. Calvi,Y. Calvi,France,France
F. Zadig,F. Eklund,Vejbystrand,Sweden
E. Norvind,G. Kajanus,Mexico,Norway
E. Rolle,E. Evans,United States,United States
E. Jayamanne,B. A. W. Jayamanne,Handala,Sri Lanka
E. Andrews,N. Andrews,England,Irish people
D. Singh,List of Hindi film clans,India,Indian people
D. Snow,D. L. George,London,British Army
C. Lee,H. Walter,"Chelsea, London",British people
C. Lee,C. Lee,New York,United States
B. Eklund,F. Eklund,Stockholm,Sweden
A. Arjmand,D. Arjmand,Iran,Iran
A. Randolph,L. Randolph,"Duarte, California",United States
A. R. Lingaiah,Chiranjeevi,Hyderabad,India
