col0,col1,col2,col3
White-throated woodrat,Cricetidae,LC,IUCN3.1
White-throated woodpecker,Picidae,LC,IUCN3.1
White-throated woodcreeper,Furnariidae,LC,IUCN3.1
White-throated tyrannulet,Tyrannidae,LC,IUCN3.1
White-throated treerunner,Furnariidae,LC,IUCN3.1
White-throated treecreeper,Climacteridae,LC,IUCN3.1
White-throated towhee,Emberizidae,LC,IUCN3.1
White-throated toucan,Ramphastidae,VU,IUCN3.1
White-throated tinamou,Tinamidae,NT,IUCN3.1
White-throated thrush,Turdidae,LC,IUCN3.1
White-throated tapaculo,Rhinocryptidae,LC,IUCN3.1
White-throated swift,Apodidae,LC,IUCN3.1
White-throated swallow,Swallow,LC,IUCN3.1
White-throated sparrow,Emberizidae,LC,IUCN3.1
White-throated spadebill,Tyrannidae,LC,IUCN3.1
White-throated sierra finch,Thraupidae,LC,IUCN3.1
White-throated shrike-tanager,Thraupidae,LC,IUCN3.1
White-throated seedeater,Thraupidae,LC,IUCN3.1
White-throated screech owl,Typical owl,LC,IUCN3.1
White-throated round-eared bat,Phyllostomidae,LC,IUCN3.1
White-throated rock thrush,Muscicapidae,LC,IUCN3.1
White-throated robin-chat,Muscicapidae,LC,IUCN3.1
White-throated robin,Muscicapidae,LC,IUCN3.1
White-throated redstart,Muscicapidae,LC,IUCN3.1
