col0,col1,col2,col3,col4,col5
N. E. Sonbaty,"Stuttgart, Germany","Cairo, Egypt",1965-10-15,2013-03-20,1965-10-15
M. Roy,British India,India,1916-10-21,2005-06-29,1916-10-21
M. Benaziza,Algeria,Zeeland,1959-1-1,1992-10-04,1959-1-1
M. Mentzer,Pennsylvania,California,1951-11-15,2001-06-10,1951-11-15
M. Matarazzo,Boston,"Palo Alto, California",1965-11-08,2014-08-16,1965-11-08
M. Aich,Comilla,India,1912-03-17,2016-06-05,1912-03-17
L. Combes,"Racine, Wisconsin","Odessa, Florida",1953-10-19,1989-10-04,1953-10-19
L. Scott,United States,United States,1938-10-12,2014-03-08,1938-10-12
K. Baxter,Ohio,"Los Angeles, California",1945-10-03,1988-05-16,1945-10-03
J. Grimek,"Perth Amboy, New Jersey","York, Pennsylvania",1910-06-17,1998-11-20,1910-06-17
J. Weider,Quebec,California,1920-11-11,2013-03-23,1920-11-11
J. Gold,"Boyle Heights, Los Angeles","Marina del Rey, California",1922-3-10,2004-7-11,1922-3-10
I. Koszewski,"Camden, New Jersey","Doylestown, Pennsylvania",1922-08-20,2009-03-29,1922-08-20
G. Kovacs,Ontario,Ontario,1968-12-16,2013-11-22,1968-12-16
F. R. Rivera,"Ponce, Puerto Rico","Caguas, Puerto Rico",1972-03-19,2010-02-16,1972-03-19
F. Hodžić,Prijedor,Prijedor,1953-06-26,1992-07-09,1953-06-26
F. Saied,Syria,Dubai,1981-01-17,2015-06-06,1981-01-17
E. Sandow,Kingdom of Prussia,London,1867-04-02,1925-10-14,1867-04-02
D. Tinerino,Brooklyn,California,1945-12-23,2010-05-07,1945-12-23
D. Dobbins,Philippines,"Los Angeles, California",1963-10-28,1993-12-30,1963-10-28
D. Seccarecci,Livorno,Italy,1980-06-10,2013-09-03,1980-06-10
C. Csencsits,"Northampton County, Pennsylvania","Tulsa County, Oklahoma",1955-12-29,1989-01-11,1955-12-29
A. Shavershian,Moscow,Bangkok,1989-03-24,2011-08-05,1989-03-24
A. Münzer,"Pack, Styria",Munich,1964-10-25,1996-3-14,1964-10-25
A. Steel,Kingdom of Italy,Kingdom of Italy,1935-09-07,2015-09-05,1935-09-07
"A. "". Stockton","Santa Monica, California",California,1917-08-11,2006-06-26,1917-08-11
