col0,col1,col2,col3
HNLMS Karel Doorman,1942-08-07,24,1944-11-27
HNLMS K XVI,1929-05-30,6,1934-01-31
HNLMS K XI,1921-09-03,6,1925-03-24
HNLMS K X,1917-06-27,5,1923-09-24
HNLMS K VIII,1917-06-27,5,1922-09-15
HMY Britannia,1952-02-05,16,1954-01-11
HMS Zodiac,1942-02-12,10,1944-10-23
HMS Zinnia,1939-08-31,10,1941-03-30
HMS Zetland,1939-12-20,9,1942-06-27
HMS Zephyr,1942-02-12,10,1944-09-06
HMS Zenith,1942-02-12,10,1944-12-22
HMS Zebra,1942-02-12,10,1944-10-13
HMS Zealous,1942-02-12,10,1944-10-09
HMS Zambesi,1942-02-12,10,1944-07-18
HMS York,1926-10-21,17,1930-05-01
HMS Wrestler,1916-12-09,7,1918-05-15
HMS Woolvesey Castle,1943-01-23,10,1944-06-06
HMS Wolsey,1916-12-09,9,1918-05-14
HMS Wolfhound,1916-12-09,7,1918-04-27
HMS Windsor,1916-12-09,8,1918-08-28
HMS Winchester,1816-05-23,13,1822-09-16
HMS Wilton,1970-02-11,8,1973-07-14
HMS Whitley,1916-12-09,8,1918-10-14
HMS Whitby,1951-02-02,12,1956-07-10
HMS Wheatland,1939-09-04,9,1941-11-03
HMS Whaddon,1939-04-11,8,1941-02-28
HMS Westminster,1916-12-09,8,1918-04-18
HMS Wessex,1941-12-03,10,1944-05-11
HMS Wessex,1916-12-09,8,1918-05-11
HMS Wensleydale,1940-08-23,10,1942-10-20
HMS Welcome,1942-12-19,10,1945-01-20
HMS Watchman,1916-12-09,8,1918-01-26
HMS Warspite,1962-12-12,10,1967-04-18
HMS Warrior,1859-05-11,17,1861-08-01
HMS Walmer Castle,1943-01-19,10,1944-08-21
HMS Walker,1916-12-09,7,1918-02-12
HMS Wakeful,1916-12-09,7,1917-12-16
HMS Wakeful,1941-12-03,10,1944-02-17
HMS Waitemata,1882-08-26,2,1883-09-19
HMS Volage,1941-09-01,10,1944-05-26
HMS Vivien,1916-06-30,7,1918-05-28
HMS Vivacious,1916-06-30,7,1917-12-29
HMS Viscount,1916-06-30,9,1918-03-04
HMS Virulent,1942-05-21,4,1944-10-01
HMS Victor Emmanuel,1851-04-04,16,1858-09-09
HMS Viceroy,1916-06-30,9,1918-01-18
HMS Vetch,1939-12-12,10,1941-08-11
HMS Vestal,1940-11-15,10,1944-02-11
HMS Vesper,1916-06-30,7,1918-02-20
HMS Veryan Bay,1943-03-06,11,1945-05-15
HMS Vervain,1940-04-08,10,1941-06-09
HMS Versatile,1916-06-30,7,1918-02-11
HMS Verbena,1939-07-25,10,1940-12-19
HMS Venus,1941-09-01,10,1943-08-28
HMS Venetia,1916-06-30,7,1917-12-19
HMS Vega,1916-06-30,7,1917-12-14
HMS Vanquisher,1916-06-30,7,1917-10-02
HMS Vanity,1916-06-30,7,1918-06-21
HMS Vanguard,1986-05-30,12,1993-08-14
HMS Vanguard,1941-03-14,32,1946-05-12
HMS Vanguard,1908-02-06,25,1910-03-01
HMS Vandal,1941-07-15,4,1943-02-20
HMS Valiant,1960-08-31,10,1966-07-18
HMS Upshot,1942-05-21,4,1944-05-15
HMS Unrivalled,1940-08-23,4,1942-05-03
HMS Tweed,1757-11-26,10,1759-06-21
HMS Turbulent,1978-07-28,9,1984-04-28
HMS Tuna,1937-12-09,7,1940-08-01
HMS Tumult,1941-03-14,10,1943-04-02
HMS Tulip,1939-08-31,10,1940-11-18
HMS Troubridge,1941-03-13,10,1943-03-08
HMS Triumph,1986-07-03,9,1991-10-02
HMS Trident,1843-04-13,9,1846-08-08
HMS Trenchant,1983-03-22,9,1989-01-14
HMS Trafalgar,1977-04-07,9,1983-05-27
HMS Torquay,1951-03-06,12,1956-05-10
HMS Tireless,1979-07-05,9,1985-10-05
HMS Tiptoe,1941-12-22,7,1944-06-12
HMS Thistle,1811-11-16,6,1812-09-12
