col0,col1,col2,col3,col4
W. Petter,France,"Gonville and Caius College, Cambridge",English Electric,Highgate
V. Loyd,"Windsor, Berkshire","Wellington College, Berkshire",Vickers-Armstrong,"Windsor, Berkshire"
V. Muronen,Finland,Diplomi-insinööri,Sisu Auto,Vyborg
S. Camm,"Richmond, London","Windsor, Berkshire",Hawker Siddeley,"Windsor, Berkshire"
S. H. Long,Illinois,Dartmouth College,Baltimore and Ohio Railroad,United States
S. D. Holden,"Rochester, Kent",University College School,Great Eastern Railway,Saltney
R. Chaplin,"Charlton, Brinkworth",Tiffin School,Hawker Aircraft,Kingston upon Thames
R. Stevenson,Edinburgh,University of Edinburgh,Northern Lighthouse Board,Glasgow
R. A. Thom,Ilkley,Robert Gordon's College,Great Central Railway,Aberdeen
P. L'Orange,Stuttgart,Berlin,Benz & Cie.,Beirut
P. Boucherot,Ardentes,École supérieure de physique et de chimie industrielles de la ville de Paris,Compagnie des chemins de fer du Nord,Paris
K. Johnson,Los Angeles,University of Michigan,Lockheed Martin,"Ishpeming, Michigan"
J. P. Knight,London,Nottingham High School,"London, Brighton & South Coast Railway",Nottingham
E. Polley,Chicago,City Colleges of Chicago,Zenith Electronics,Chicago
D. R. Berlin,"Middletown Township, Delaware County, Pennsylvania",Purdue University,Boeing,"Washington Township, Owen County, Indiana"
A. Mikoyan,Moscow,Zhukovsky Air Force Academy,Mikoyan-Gurevich,Elisabethpol Governorate
A. McDonnell,Holyhead,"Trinity College, Dublin",North Eastern Railway,Dublin
A. Blumlein,Welsh Bicknor,Imperial College London,EMI,London
