col0,col1,col2,col3,col4
Ľ. Vaic,Vancouver Canucks,Czechoslovakia,HC Bílí Tygři Liberec,1977-03-06
Ľ. Sekeráš,Minnesota Wild,Czechoslovakia,HC Dukla Trenčín,1968-11-18
Ľ. Pištek,Philadelphia Flyers,Bratislava,HC Slovan Bratislava,1980-08-07
Ľ. Kolník,New Jersey Devils,Czechoslovakia,HK 36 Skalica,1968-01-23
É. Houde,Montreal Canadiens,Canada,Rivière-du-Loup CIMT,1976-12-19
É. Gélinas,New Jersey Devils,"Vanier, Ontario",Colorado Avalanche,1991-05-08
É. Fichaud,Toronto Maple Leafs,Canada,Saint-Georges CRS Express,1975-11-04
É. Charron,Montreal Canadiens,Canada,Saint-Hyacinthe Top Design,1970-01-14
É. Poirier,Calgary Flames,Canada,Calgary Flames,1994-12-14
Z. Paigin,Edmonton Oilers,Russia,HC Sochi,1995-02-08
Z. Girgensons,Buffalo Sabres,Riga,Buffalo Sabres,1994-01-05
Z. Skořepa,New Jersey Devils,Czechoslovakia,HC Slavia Praha,1976-08-10
Z. Nedvěd,Toronto Maple Leafs,Czechoslovakia,HC Kladno,1975-03-03
Z. Kutlák,Boston Bruins,Czechoslovakia,EC Red Bull Salzburg,1980-02-13
Z. Blatný,Atlanta Thrashers,Czechoslovakia,Frederikshavn White Hawks,1981-01-14
Z. Bahenský,New York Rangers,Czechoslovakia,HC Sparta Praha,1986-03-10
Z. Chára,New York Islanders,Czechoslovakia,Boston Bruins,1977-03-18
Z. Skořepa,New Jersey Devils,Czechoslovakia,HC Slavia Praha,1976-08-10
Z. Nedvěd,Toronto Maple Leafs,Czechoslovakia,HC Kladno,1975-03-03
Z. Kutlák,Boston Bruins,Czechoslovakia,EC Red Bull Salzburg,1980-02-13
Z. Blatný,Atlanta Thrashers,Czechoslovakia,Frederikshavn White Hawks,1981-01-14
Z. Bahenský,New York Rangers,Czechoslovakia,HC Sparta Praha,1986-03-10
Z. Irgl,Nashville Predators,Czechoslovakia,HC Dinamo Minsk,1980-11-29
Z. Hrdel,Tampa Bay Lightning,Czechoslovakia,BK Mladá Boleslav,1985-08-19
Z. Irgl,Nashville Predators,Czechoslovakia,HC Dinamo Minsk,1980-11-29
Z. Hrdel,Tampa Bay Lightning,Czechoslovakia,BK Mladá Boleslav,1985-08-19
Z. McIntyre,Boston Bruins,Minnesota,Boston Bruins,1992-08-20
Z. Torquato,Detroit Red Wings,Canada,SG Cortina,1989-06-08
Z. Stortini,Edmonton Oilers,Canada,Ottawa Senators,1985-09-11
Z. Smith,Ottawa Senators,Canada,Ottawa Senators,1988-04-05
Z. Phillips,Minnesota Wild,Canada,Tingsryds AIF,1992-10-28
Z. Kassian,Buffalo Sabres,Canada,Edmonton Oilers,1991-01-24
Z. Fitzgerald,St. Louis Blues,Minnesota,Braehead Clan,1985-06-16
Z. Senyshyn,Boston Bruins,Ottawa,Boston Bruins,1997-03-30
Z. Fucale,Montreal Canadiens,Canada,Montreal Canadiens,1995-05-28
Z. Werenski,Columbus Blue Jackets,"Grosse Pointe, Michigan",Columbus Blue Jackets,1997-07-19
Z. Trotman,Boston Bruins,"Carmel, Indiana",Los Angeles Kings,1990-08-26
Z. Sanford,Washington Capitals,Massachusetts,Washington Capitals,1994-11-09
Z. Redmond,Atlanta Thrashers,Houston,Montreal Canadiens,1988-07-26
Z. Parise,New Jersey Devils,Minneapolis,Minnesota Wild,1984-07-28
Z. Hyman,Florida Panthers,Toronto,Toronto Maple Leafs,1992-06-09
Z. Hamill,Boston Bruins,British Columbia,HC Ambrì-Piotta,1988-09-23
Z. Bogosian,Atlanta Thrashers,Massena,Buffalo Sabres,1990-07-15
Z. Rinaldo,Philadelphia Flyers,"Hamilton, Ontario",Boston Bruins,1990-06-15
Z. Dalpe,Carolina Hurricanes,Canada,Minnesota Wild,1989-11-01
Y. Fukufuji,Los Angeles Kings,Japan,Esbjerg Energy,1982-09-17
Y. Trubachev,Calgary Flames,Cherepovets,HC Severstal,1983-03-09
Y. Gunko,St. Louis Blues,Ukraine,Sokol Kiev,1972-02-28
Y. Dobryshkin,Atlanta Thrashers,Penza,UHC Dynamo,1979-07-19
Y. Butsayev,Detroit Red Wings,Russia,HC CSKA Moscow,1978-10-11
Y. Babenko,Colorado Avalanche,Russian SFSR,HC Dynamo Moscow,1978-01-02
Y. Alexandrov,Boston Bruins,Cherepovets,SKA Saint Petersburg,1988-06-24
Y. Treille,Chicago Blackhawks,Cannes,Brûleurs de Loups de Grenoble,1980-07-15
Y. Tunik,New York Islanders,"Kraskovo, Moscow Oblast",HC Kuban,1984-11-17
Y. Fyodorov,Los Angeles Kings,Russian Soviet Federative Socialist Republic,Edinburgh Capitals,1980-11-11
Y. Rykov,New Jersey Devils,Russia,SKA Saint Petersburg,1997-04-14
Y. Korshkov,Toronto Maple Leafs,Novosibirsk,Lokomotiv Yaroslavl,1996-07-10
Y. Kosov,Florida Panthers,Russia,Metallurg Magnitogorsk,1993-07-05
Y. Weber,Montreal Canadiens,Switzerland,Nashville Predators,1988-09-23
Y. Sauvé,Vancouver Canucks,Canada,KHL Medveščak Zagreb,1990-02-18
Y. Golubovsky,Detroit Red Wings,Novosibirsk,HK Acroni Jesenice,1976-03-09
X. Ouellet,Detroit Red Wings,France,Detroit Red Wings,1993-07-29
W. Wolski,Colorado Avalanche,Poland,Metallurg Magnitogorsk,1986-02-24
W. Nylander,Toronto Maple Leafs,Calgary,Toronto Maple Leafs,1996-05-01
W. Karlsson,Anaheim Ducks,Sweden,Columbus Blue Jackets,1993-01-08
W. Carrier,St. Louis Blues,"LaSalle, Quebec",Buffalo Sabres,1994-12-20
W. Weber,Columbus Blue Jackets,Michigan,Fort Wayne Komets,1988-10-28
W. O'Neill,Atlanta Thrashers,"Salem, Massachusetts",Philadelphia Flyers,1988-04-28
W. Lockwood,Vancouver Canucks,Bloomfield Hills,Michigan Wolverines men's ice hockey,1998-06-20
W. Colbert,San Jose Sharks,Canada,Tilburg Trappers,1985-02-06
W. Westlund,Colorado Avalanche,Stockholm,Djurgårdens IF Hockey,1995-03-15
W. Simmonds,Los Angeles Kings,"Scarborough, Toronto",Philadelphia Flyers,1988-08-26
W. Rabbit,Boston Bruins,Canada,Nippon Paper Cranes,1986-11-16
V. Vaněček,Washington Capitals,Czech Republic,Washington Capitals,1996-01-09
V. Varaďa,San Jose Sharks,Czechoslovakia,HC Vítkovice,1976-04-26
V. Pletka,Philadelphia Flyers,Czechoslovakia,HC České Budějovice,1979-06-08
V. Nedorost,Colorado Avalanche,Czechoslovakia,HC Slovan Bratislava,1982-03-16
V. Meidl,Nashville Predators,Havířov,HC Kometa Brno,1986-05-27
V. Karabáček,Buffalo Sabres,Czech Republic,Buffalo Sabres,1996-05-02
V. Trukhno,Edmonton Oilers,Russia,Karlskrona HK,1987-02-22
V. Buravchikov,Buffalo Sabres,Moscow,HC CSKA Moscow,1987-05-22
V. Polák,Dallas Stars,Czechoslovakia,Dinamo Rīga,1985-06-27
V. Kroupa,San Jose Sharks,Czechoslovakia,HC Oceláři Třinec,1975-04-27
V. Namestnikov,Tampa Bay Lightning,"Voskresensk, Moscow Oblast",Tampa Bay Lightning,1992-11-22
V. Kamenev,Nashville Predators,Russia,Nashville Predators,1996-08-12
V. Gavrikov,Columbus Blue Jackets,Russia,Lokomotiv Yaroslavl,1995-11-21
V. Evseev,Boston Bruins,Russian Soviet Federative Socialist Republic,Vityaz Chekhov,1984-09-10
V. Bulin,Philadelphia Flyers,Soviet Union,HC Neftekhimik Nizhnekamsk,1972-05-18
V. Sobotka,Boston Bruins,Czechoslovakia,Avangard Omsk,1987-07-02
V. Růžička,Phoenix Coyotes,Most,Piráti Chomutov,1989-02-17
V. Mihálik,Tampa Bay Lightning,Prešov,HC Slovan Bratislava,1987-01-29
V. Zharkov,New Jersey Devils,Soviet Union,HC CSKA Moscow,1988-01-10
V. Tarasenko,St. Louis Blues,Russian Soviet Federative Socialist Republic,St. Louis Blues,1991-12-13
V. Malenkikh,Pittsburgh Penguins,Soviet Union,Metallurg Magnitogorsk,1980-10-01
V. Gusev,Chicago Blackhawks,Novosibirsk,Metallurg Novokuznetsk,1982-11-24
