col0,col1,col2,col3
Insulivitrina tuberculata,Vitrinidae,LR/nt,IUCN2.3
Insulivitrina reticulata,Vitrinidae,EN,IUCN2.3
Insulivitrina mascaensis,Vitrinidae,LR/nt,IUCN2.3
Insulivitrina machadoi,Limacoidea,LR/nt,IUCN2.3
Insular birddrop,Pupilloidea,LR/nt,IUCN2.3
Inflated heelsplitter,Unionidae,EN,IUCN2.3
Indoplanorbis,Planorbidae,LC,IUCN3.1
Incerticyclus martinicensis,Cyclophoroidea,EX,IUCN2.3
Incerticyclus cinereus,Cyclophoroidea,EX,IUCN2.3
Imperturbatia violescens,Streptaxoidea,DD,IUCN2.3
Iglica kleinzellensis,Hydrobiidae,VU,IUCN3.1
Iglica gratulabunda,Hydrobiidae,CR,IUCN3.1
Idiopoma doliaris,Viviparidae,LC,IUCN3.1
Idiomela subplicata,Helicidae,VU,IUCN2.3
Ichnusomunda sacchii,Helicoidea,VU,IUCN2.3
Ichetucknee siltsnail,Hydrobiidae,VU,IUCN3.1
Iberus gualtieranus,Helicidae,EN,IUCN3.1
Hystricella turricula,Helicoidea,VU,IUCN2.3
Hystricella oxytropis,Helicoidea,VU,IUCN2.3
Hystricella echinulata,Helicoidea,VU,IUCN2.3
Hystricella bicarinata,Helicoidea,VU,IUCN2.3
Hyridella glenelgensis,Hyriidae,CR,IUCN3.1
Hypselostoma perigyra,Hypselostomatidae,VU,IUCN3.1
Hypselostoma megaphonum,Hypselostomatidae,VU,IUCN3.1
Hypolysia usambarica,Achatinoidea,DD,IUCN2.3
Hypolysia connollyana,Achatinoidea,DD,IUCN2.3
Hypnophila remyi,Cochlicopoidea,DD,IUCN2.3
Hygromia golasi,Helicoidea,VU,IUCN2.3
Hygromia cinctella,Helicoidea,LC,IUCN3.1
Hydrobioides nassa,Rissooidea,LC,IUCN3.1
Hydrobia lineata,Hydrobiidae,DD,IUCN3.1
Hungerfordia pelewensis,Cyclophoroidea,DD,IUCN2.3
Huachuca springsnail,Hydrobiidae,VU,IUCN2.3
Hood ancylid,Planorbidae,LC,IUCN3.1
Hogolua kondorum,Zonitoidea,DD,IUCN2.3
Hirthia littorina,Cerithioidea,EN,IUCN3.1
Hirthia globosa,Cerithioidea,LC,IUCN3.1
Hirasiella clara,Punctoidea,DD,IUCN2.3
Hirasea sinuosa,Punctoidea,DD,IUCN2.3
Hirasea profundispira,Punctoidea,DD,IUCN2.3
Hirasea planulata,Punctoidea,EX,IUCN2.3
Hirasea operculina,Punctoidea,EN,IUCN2.3
Hirasea nesiotica,Punctoidea,DD,IUCN2.3
Hirasea mirabilis,Punctoidea,DD,IUCN2.3
Hirasea major,Punctoidea,DD,iucn2.3
Hirasea insignis,Punctoidea,EN,IUCN2.3
Hirasea hypolia,Punctoidea,DD,IUCN2.3
Hirasea goniobasis,Punctoidea,DD,IUCN2.3
Hirasea eutheca,Punctoidea,DD,IUCN2.3
Hirasea diplomphalus,Punctoidea,EN,IUCN2.3
Hirasea chichijimana,Punctoidea,EN,IUCN2.3
Hirasea biconcava,Punctoidea,DD,IUCN2.3
Himeroconcha rotula,Charopidae,DD,IUCN2.3
Himeroconcha quadrasi,Charopidae,DD,IUCN2.3
Himeroconcha lamlanensis,Charopidae,DD,IUCN2.3
Himeroconcha fusca,Charopidae,DD,IUCN2.3
Highnut,Unionidae,EX,IUCN2.3
High-spired elimia,Cerithioidea,EX,IUCN2.3
Higgins' eye pearly mussel,Unionidae,EN,IUCN2.3
Hidden pebblesnail,Hydrobiidae,DD,IUCN3.1
Heteropoma turritum,Rissooidea,DD,IUCN2.3
Heteropoma tuberculatum,Rissooidea,DD,IUCN2.3
Heteropoma quadrasi,Rissooidea,DD,IUCN2.3
Heteropoma pyramis,Rissooidea,DD,IUCN2.3
Heteropoma glabratum,Rissooidea,DD,IUCN2.3
Heteropoma fulva,Rissooidea,DD,IUCN2.3
Heterocyclus petiti,Hydrobiidae,EN,IUCN2.3
Heterocyclus perroquini,Hydrobiidae,EN,IUCN2.3
Hemistomia yalayu,Hydrobiidae,CR,IUCN3.1
Hemistomia xaracuu,Hydrobiidae,CR,IUCN3.1
Hemistomia whiteleggei,Hydrobiidae,CR,IUCN2.3
Hemistomia shostakovichi,Hydrobiidae,CR,IUCN3.1
Hemistomia pusillior,Hydrobiidae,EN,IUCN2.3
Hemistomia neku,Hydrobiidae,CR,IUCN3.1
Hemistomia napaia,Hydrobiidae,VU,IUCN3.1
Hemistomia minutissima,Hydrobiidae,LC,IUCN3.1
Hemistomia lacinia,Hydrobiidae,CR,IUCN3.1
Hemistomia gorotitei,Hydrobiidae,CR,IUCN3.1
Hemistomia gemma,Hydrobiidae,LR/nt,IUCN2.3
Hemistomia flexicolumella,Hydrobiidae,VU,IUCN2.3
Hemistomia crosseana,Hydrobiidae,CR,IUCN3.1
Hemistomia beaumonti,Hydrobiidae,DD,IUCN3.1
Hemicycla saulcyi,Helicidae,CR,IUCN2.3
Hemicycla pouchet,Helicidae,VU,IUCN3.1
Hemicycla plicaria,Helicidae,LR/lc,IUCN2.3
Hemicycla modesta,Helicidae,LR/lc,IUCN2.3
Hemicycla mascaensis,Helicidae,LR/nt,IUCN2.3
Hemicycla inutilis,Helicidae,VU,IUCN3.1
Hemicycla berkeleyi,Helicidae,LR/nt,IUCN2.3
Helix texta,Helicidae,EN,IUCN2.3
Helix pomatia,Helicidae,LC,iucn3.1
Helix obruta,Helicidae,VU,IUCN2.3
Helix nucula,Helicidae,LC,iucn3.1
Helix mazzullii,Helicidae,VU,IUCN2.3
Helix godetiana,Helicidae,EN,IUCN3.1
Helix figulina,Helicidae,LC,iucn3.1
Helicostyla smargadina,Helicoidea,CR,IUCN2.3
Helicopsis striata,Helicoidea,LC,IUCN3.1
Helicopsis conopsis,Helicoidea,LR/nt,IUCN2.3
Helicophanta souverbiana,Acavoidea,NE,iucn3.1
Helicophanta ibaraoensis,Acavoidea,NE,iucn3.1
Helicodonta obvoluta,Helicoidea,LC,iucn3.1
Helicodiscus hexodon,Punctoidea,LR/nt,IUCN2.3
Helicodiscus diadema,Punctoidea,LR/nt,IUCN2.3
Helicina rostrata,Helicinidae,EN,IUCN2.3
Helicella striatitala,Helicoidea,LR/nt,IUCN2.3
Helicella stiparum,Helicoidea,VU,IUCN2.3
Helicella orzai,Helicoidea,NT,IUCN3.1
Helicarion rubicundus,Helicarionidae,VU,IUCN2.3
Helicarion leopardina,Helicarionidae,VU,IUCN2.3
Helicarion australis,Helicarionidae,LR/lc,IUCN2.3
Helenodiscus vernoni,Charopidae,EX,IUCN2.3
Helenodiscus bilamellata,Charopidae,EX,IUCN2.3
Helenoconcha sexdentata,Charopidae,EX,IUCN2.3
Helenoconcha relicta,Charopidae,CR,IUCN3.1
Helenoconcha pseustes,Charopidae,EX,IUCN2.3
Helenoconcha polyodon,Charopidae,EX,IUCN2.3
Helenoconcha minutissima,Charopidae,EX,IUCN2.3
Helenoconcha leptalea,Charopidae,EX,IUCN2.3
Hedleyoconcha ailaketoae,Charopidae,VU,IUCN2.3
Hedleya macleayi,Cyclophoroidea,VU,IUCN2.3
Hebetancylus excentricus,Planorbidae,G5,TNC
Heavy pigtoe,Unionidae,EX,IUCN2.3
Hearty elimia,Cerithioidea,EX,IUCN2.3
Hazel pigtoe,Unionidae,EX,IUCN2.3
Hauffenia wienerwaldensis,Hydrobiidae,EN,IUCN3.1
Hauffenia sp. nov.,Hydrobiidae,VU,IUCN2.3
Hauffenia minuta,Hydrobiidae,DD,IUCN2.3
Hauffenia lucidulus,Hydrobiidae,CR,iucn3.1
Hauffenia kerschneri,Hydrobiidae,EN,IUCN3.1
Harney Basin duskysnail,Hydrobiidae,VU,IUCN2.3
Harmogenanina subdetecta,Helicarionidae,EX,IUCN2.3
Harmogenanina linophora,Helicarionidae,EX,IUCN2.3
Harmogenanina implicata,Helicarionidae,CR,IUCN2.3
Harmogenanina detecta,Helicarionidae,DD,IUCN2.3
Harmogenanina argentea,Helicarionidae,VU,IUCN2.3
Halolimnohelix conradti,Helicoidea,DD,IUCN2.3
Hadra wilsoni,Camaenidae,VU,IUCN2.3
Hadopyrgus rawhiti,Hydrobiidae,NC,NZTCS
Hadopyrgus ngataana,Truncatelloidea,NC,NZTCS
Hacrochlamys lineolatus,Gastrodontoidea,EN,IUCN2.3
Gyraulus parvus,Planorbidae,LC,IUCN3.1
Gyraulus pamphylicus,Planorbidae,VU,IUCN3.1
Gyraulus nedyalkovi,Planorbidae,VU,IUCN3.1
Gyraulus mauritianus,Planorbidae,VU,IUCN2.3
Gyraulus crista,Planorbidae,LC,iucn3.1
Gyraulus costulatus,Planorbidae,LC,IUCN3.1
Gyraulus cockburni,Planorbidae,CR,IUCN2.3
Gyraulus bekaensis,Planorbidae,VU,IUCN3.1
Gyraulus argaeicus,Planorbidae,VU,IUCN3.1
Gyliotrachela catherina,Pupilloidea,LR/nt,IUCN2.3
Gundlachia ticaga,Planorbidae,LC,iucn3.1
Gundlachia lucasi,Planorbidae,DD,iucn3.1
Gulickia alexandri,Achatinelloidea,CR,IUCN2.3
Gulf moccasinshell,Unionidae,CR,IUCN2.3
Gulella usambarica,Streptaxoidea,DD,IUCN2.3
Gulella unidentata,Streptaxoidea,DD,IUCN2.3
Gulella translucida,Streptaxoidea,DD,IUCN2.3
Gulella taitensis,Streptaxoidea,EN,IUCN3.1
Gulella salpinx,Streptaxoidea,CR,IUCN3.1
Gulella puzeyi,Streptaxoidea,CR,IUCN3.1
Gulella paucidens,Streptaxoidea,DD,IUCN2.3
Gulella ndamanyiluensis,Streptaxoidea,DD,IUCN2.3
Gulella mayottensis,Streptaxoidea,EX,IUCN2.3
Gulella ludwigi,Streptaxoidea,DD,IUCN2.3
Gulella intrusa,Streptaxoidea,DD,IUCN2.3
Gulella inconspicua,Streptaxoidea,DD,IUCN2.3
Gulella grossa,Streptaxoidea,DD,IUCN2.3
Gulella greenwayi,Streptaxoidea,DD,IUCN2.3
Gulella foliifera,Streptaxoidea,DD,IUCN2.3
Gulella cuspidata,Streptaxoidea,DD,IUCN2.3
Gulella claustralis,Streptaxoidea,EN,IUCN3.1
Gulella bomolensis,Streptaxoidea,DD,IUCN2.3
Gulella aprosdoketa,Streptaxoidea,EN,IUCN3.1
Gulella antelmeana,Streptaxoidea,EN,IUCN2.3
Gulella amboniensis,Streptaxoidea,VU,IUCN2.3
Gulella amaniensis,Streptaxoidea,DD,IUCN2.3
