col0,col1,col2,col3
Drayman Henschel,G. Hauptmann,German language,Bertha
Dracula,H. Deane,English language,Abraham Van Helsing
Detroit,L. D'Amour,English,Ben
Cyclops,Euripides,Ancient Greek,Companions of Odysseus
Crimes of the Heart,B. Henley,English language,Babe Botrelle
Creditors,A. Strindberg,Danish language,A Porter
Craig's Wife,G. Kelly,English language,Billy Birkmire
Cowboy Mouth,S. Shepard,English language,Cavale (Patti Smith)
Command Decision,W. W. Haines,English language,Col. Ted Martin
Coffee Mornings,S. Brennan,English language,Jane
Class Enemy,N. Williams,Bosnian language,"Iron (Pegla), Cobra (Kobra), Sky (Nebo), Chick (Koka), Kid (Klinjo), Kitty (Ma), Cat (Ca), Deputy Headmistress"
Children of a Lesser God,M. Medoff,English language,Edna Klein
Children of Heracles,Euripides,Ancient Greek,Acamas
Checking Out,A. Swift,English language,Bernard Applebaum
Celebration of Life,S. Gupta,English language,"Vanessa, Whitney, Brandon, Sophia, Julia, Michael"
Casey Jones,R. Ardrey,English,Casey Jones
Cactus Flower,A. Burrows,English language,Igor
Butterflies Are Free,L. Gershe,English language,Don Baker
Bug,T. Letts,English language,Agnes White
Breaker Morant,K. G. Ross,English language,Captain Taylor
Boy Gets Girl,R. Gilman,English language,Det. Madeleine Beck
Bottom Live: The Big Number Two Tour,A. Edmondson,English language,Eddie Hitler
Bottom Live,A. Edmondson,English language,Eddie Hitler
Borstal Boy,B. Behan,English language,Brendan Behan
