col0,col1,col2,col3
CFTV-DT,27,Analog: 34 (2005-2012),CFTV-TV (2005-2012)
CFTU-DT,208,"29 (UHF), 1986–2012)",CFTU-TV (1986–2012)
CFTO-DT,467,"9 (VHF, 1960–2011)",CFTO-TV (1960–2011)
CFTF-DT,341,"29 (Analog, 1988-2011)",CFTF-TV (1988-2011)
CFSK-DT,200,"Analog: 4 (VHF, 1987–2011)",CFSK-TV (1987–2011)
CFRN-DT,228,"3 (VHF, 1954–2011)",CFRN-TV (1954–2011)
CFRE-DT,300,"11 (VHF, 1987–2011)",CFRE-TV (1987–2011)
CFQC-DT,267,"8 (VHF, 1954–2011)",CFQC-TV (1954–2011)
CFPL-DT,241,"10 (VHF, 1953–2011)",CFPL-TV (1953–2011)
CFMT-DT,501,"47 (UHF, 1979–2011)",CFMT-TV (1979–2011)
CFKS-DT,591,"30 (Analog, 1986-2011)",CFKS-TV (1986-2011)
