col0,col1,col2,col3,col4,col5
G. Nixon,Oklahoma,"Baltimore, Maryland",2011-08-05,1941-01-25,1941-01-25
G. Hocking,Caerleon,Durban,1962-12-21,1937-09-30,1937-09-30
G. Bartusch,Freiberg,Hohenstein-Ernstthal,1971-7-8,1933-4-13,1933-4-13
F. Ito,Tokyo,Florida,1991-03-10,1939-10-10,1939-10-10
F. Rosencrantz,Tomelilla,Malmö,1957-04-15,1879-10-26,1879-10-26
F. Williams,Wales,England,2013-01-20,1926-03-12,1926-03-12
F. Frith,Grimsby,Grimsby,1988-5-24,1909-5-30,1909-5-30
F. Dixon,Stockton-on-Tees,Reigate,1956-11-04,1892-04-21,1892-04-21
F. Wilkinson,Leicestershire,England national speedway team,1978-9-1,1906-06-08,1906-06-08
F. Varey,England,England,1988-1-1,1908-03-31,1908-03-31
F. Shuter,Rotorua,California,1997-07-12,1943-06-17,1943-06-17
F. Perris,Canada,Isle of Wight,2015-03-17,1931-05-28,1931-05-28
F. Martin,Stockholm,Danderyd,1962-08-28,1885-12-30,1885-12-30
F. Frantz,"Roanoke, Illinois","Tulsa, Oklahoma",1941-03-09,1872-05-07,1872-05-07
F. Arthur,"Lismore, New South Wales",New South Wales,1972-09-11,1908-12-12,1908-12-12
F. Libanori,Milan,Milan,2006-7-11,1934-6-14,1934-6-14
F. Sandström,Alingsås,Lidingö,1962-08-18,1892-09-27,1892-09-27
F. Frölén,Eskilstuna,Umeå,2002-06-11,1908-02-25,1908-02-25
F. Camathias,San Gallo,Kent,1965-10-10,1924-03-23,1924-03-23
F. Anderson,London Borough of Croydon,Belgium,1956-05-06,1909-02-09,1909-02-09
E. Kluge,Germany,Germany,1964-08-19,1909-01-19,1909-01-19
E. Lindenbauer,Wels,Vienna,1961-4-22,1881-11-18,1881-11-18
