col0,col1,col2,col3
Yellow-banded poison dart frog,Dendrobatidae,LC,IUCN3.1
Yellow-backed tanager,Thraupidae,LC,IUCN3.1
Yellow-backed oriole,Icteridae,LC,IUCN3.1
Yelkouan shearwater,Procellariidae,VU,IUCN3.1
Yazoo darter,Percidae,NT,IUCN3.1
Yatabe blenny,Blenniidae,LC,IUCN3.1
Yasuni antwren,Thamnophilidae,LC,IUCN3.1
Yasuhikotakia modesta,Botiidae,LC,IUCN3.1
Yarumal climbing salamander,Plethodontidae,LC,IUCN3.1
Yarra pygmy perch,Percichthyidae,VU,IUCN2.3
Yarkand hare,Leporidae,LR/nt,IUCN2.3
Yaqui sucker,Catostomidae,DD,IUCN3.1
Yaqui slider,Emydidae,VU,iucn2.3
Yaqui chub,Cyprinidae,EN,IUCN2.3
Yapacana antbird,Thamnophilidae,LC,IUCN3.1
Yap monarch,Monarchidae,NT,IUCN3.1
Yap flying fox,Pteropodidae,EN,IUCN3.1
Yaoshania pachychilus,Gastromyzontidae,NE,iucn3.1
Yantai stingray,Dasyatidae,NT,IUCN3.1
Yankari shrew,Soricidae,LC,IUCN3.1
Yangtze giant softshell turtle,Trionychidae,CR,iucn2.3
Yanbaru whiskered bat,Vesper bat,CR,IUCN3.1
Yamur Lake grunter,Terapontidae,VU,IUCN2.3
Yamdena mosaic-tailed rat,Muridae,DD,iucn3.1
Yalden's rat,Muridae,EN,IUCN3.1
Yakati rainbowfish,Melanotaeniidae,DD,IUCN2.3
Yacare caiman,Alligatoridae,LR/lc,IUCN2.3
Y-bar shrimp goby,Gobiidae,NE,iucn3.1
Xyris tennesseensis,Xyridaceae,G2,TNC
Xyris andina,Xyridaceae,CR,IUCN3.1
Xyrichtys virens,Labridae,VU,IUCN2.3
Xylotoles costatus,Cerambycidae,EN,IUCN3.1
Xylosma tuberculatum,Salicaceae,VU,IUCN2.3
Xylosma terrae-reginae,Salicaceae,EN,EPBC
Xylosma serrata,Salicaceae,CR,IUCN3.1
Xylosma serpentinum,Salicaceae,VU,IUCN2.3
Xylosma ruizianum,Salicaceae,DD,IUCN2.3
Xylosma proctorii,Salicaceae,VU,IUCN2.3
Xylosma pininsulare,Salicaceae,CR,IUCN2.3
Xylosma peltatum,Salicaceae,CR,IUCN2.3
Xylosma palawanense,Salicaceae,VU,IUCN2.3
Xylosma pachyphyllum,Salicaceae,CR,IUCN2.3
Xylosma obovatum,Salicaceae,EN,IUCN2.3
Xylosma molestum,Salicaceae,VU,IUCN2.3
Xylosma latifolium,Salicaceae,EN,IUCN2.3
Xylosma kaalense,Salicaceae,VU,IUCN2.3
Xylosma inaequinervium,Salicaceae,EN,IUCN2.3
Xylosma grossecrenatum,Salicaceae,EN,IUCN3.1
Xylosma glaberrimum,Salicaceae,DD,IUCN2.3
Xylosma flexuosa,Salicaceae,G5,TNC
Xylosma fawcettii,Salicaceae,LR/nt,IUCN2.3
Xylosma crenata,Salicaceae,CR,IUCN2.3
Xylosma capillipes,Salicaceae,CR,IUCN2.3
Xylosma boulindae,Salicaceae,VU,IUCN2.3
Xylorhiza cognata,Asteraceae,G2,TNC
Xylopia talbotii,Annonaceae,VU,IUCN2.3
Xylopia richardii,Annonaceae,VU,IUCN2.3
Xylopia pierrei,Annonaceae,VU,IUCN2.3
Xylopia magna,Annonaceae,LR/lc,IUCN2.3
Xylopia longifolia,Annonaceae,EN,IUCN2.3
Xylopia latipetala,Annonaceae,EN,IUCN2.3
Xylopia lamarckii,Annonaceae,CR,IUCN2.3
Xylopia hastarum,Annonaceae,LR/nt,IUCN2.3
Xylopia elliptica,Annonaceae,LR/lc,IUCN2.3
Xylopia elliotii,Annonaceae,VU,IUCN2.3
Xylopia ekmanii,Annonaceae,VU,IUCN2.3
Xylopia championii,Annonaceae,VU,IUCN2.3
Xylopia amplexicaulis,Annonaceae,CR,IUCN2.3
Xylopia africana,Annonaceae,VU,IUCN3.1
Xylophis stenorhynchus,Colubridae,DD,IUCN3.1
Xylophis perroteti,Xenodermatidae,LC,IUCN3.1
Xylophanes tersa,Sphingidae,NE,IUCN3.1
Xylophanes pluto,Sphingidae,G4,TNC
Xylocarpus moluccensis,Meliaceae,LC,IUCN2.3
Xylocalyx asper,Orobanchaceae,LC,IUCN3.1
Xylocalyx aculeolatus,Orobanchaceae,LC,IUCN3.1
Xyliphius melanopterus,Aspredinidae,NE,iucn3.1
Xyliphius magdalenae,Aspredinidae,NE,iucn3.1
Xyliphius lombarderoi,Aspredinidae,NE,iucn3.1
Xyliphius lepturus,Aspredinidae,NE,iucn3.1
Xyliphius kryptos,Aspredinidae,NE,iucn3.1
Xyliphius barbatus,Aspredinidae,NE,iucn3.1
Xylia mendoncae,Fabaceae,DD,IUCN2.3
Xyelacyba myersi,Ophidiidae,NE,iucn3.1
Xolocotzia,Verbenaceae,EN,IUCN2.3
Xiurenbagrus xiurenensis,Amblycipitidae,DD,IUCN3.1
Xiphophorus montezumae,Poeciliidae,LC,iucn3.1
Xiphasia setifer,Blenniidae,LC,IUCN3.1
Xiphasia matsubarai,Blenniidae,LC,IUCN3.1
Xingu corydoras,Callichthyidae,NE,iucn3.1
Xingu antbird,Thamnophilidae,LC,IUCN3.1
Xingu River ray,Potamotrygonidae,DD,IUCN2.3
Ximenia roigii,Olacaceae,VU,IUCN2.3
Xerus erythropus,Sciuridae,LC,iucn3.1
Xerotricha zujarensis,Helicoidea,LR/nt,IUCN2.3
Xerotricha zaratei,Helicoidea,LR/nt,IUCN2.3
Xerotricha mariae,Helicoidea,VU,IUCN2.3
Xerotricha gasulli,Hygromiinae,LR/nt,IUCN2.3
Xerotricha bierzona,Helicoidea,VU,IUCN2.3
Xerosecta giustii,Helicoidea,CR,IUCN3.1
Xerosecta cespitum,Helicoidea,LC,iucn3.1
Xerosecta adolfi,Helicoidea,EN,IUCN3.1
Xerophyllum asphodeloides,Melanthiaceae,G4,TNC
Xerocrassa zaharensis,Helicoidea,VU,iucn3.1
Xerocrassa turolensis,Helicoidea,NT,iucn3.1
Xerocrassa subvariegata,Helicoidea,LC,iucn3.1
Xerocrassa subrogata,Helicoidea,LC,iucn3.1
Xerocrassa siphnica,Helicoidea,LC,iucn3.1
Xerocrassa siderensis,Helicoidea,LC,iucn3.1
Xerocrassa roblesi,Helicoidea,VU,iucn3.1
Xerocrassa ripacurcica,Helicoidea,LC,iucn3.1
Xerocrassa rhithymna,Helicoidea,LC,iucn3.1
Xerocrassa prietoi,Helicoidea,NT,iucn3.1
Xerocrassa poecilodoma,Helicoidea,LC,iucn3.1
Xerocrassa penchinati,Helicoidea,LC,iucn3.1
Xerocrassa nyeli,Helicoidea,NT,iucn3.1
Xerocrassa nicosiana,Helicoidea,LC,iucn3.1
Xerocrassa moraguesi,Helicoidea,EN,iucn3.1
Xerocrassa montserratensis,Helicoidea,EN,iucn3.1
Xerocrassa molinae,Helicoidea,NT,iucn3.1
Xerocrassa mesostena,Helicoidea,LC,iucn3.1
Xerocrassa meda,Hygromiidae,LC,iucn3.1
Xerocrassa lasithiensis,Hygromiidae,LC,iucn3.1
Xerocrassa kydonia,Hygromiidae,LC,iucn3.1
Xerocrassa jimenensis,Helicoidea,NT,iucn3.1
Xerocrassa homeyeri,Hygromiidae,LC,iucn3.1
Xerocrassa heraklea,Hygromiidae,LC,iucn3.1
Xerocrassa grata,Hygromiidae,DD,iucn3.1
Xerocrassa grabusana,Hygromiidae,LC,iucn3.1
Xerocrassa gharlapsi,Helicoidea,VU,iucn2.3
Xerocrassa geyeri,Helicoidea,DD,iucn3.1
Xerocrassa frater,Hygromiidae,LC,iucn3.1
Xerocrassa franciscoi,Hygromiidae,LC,iucn3.1
Xerocrassa ferreri,Helicoidea,NT,iucn3.1
Xerocrassa edmundi,Helicoidea,EN,iucn3.1
Xerocrassa ebusitana,Helicoidea,NT,iucn3.1
Xerocrassa derogata,Helicoidea,LC,iucn3.1
Xerocrassa cretica,Helicoidea,LC,iucn3.1
Xerocrassa cobosi,Helicoidea,DD,iucn3.1
Xerocrassa claudiconus,Helicoidea,LC,iucn3.1
Xerocrassa claudia,Helicoidea,LC,iucn3.1
Xerocrassa cisternasi,Helicoidea,NT,iucn3.1
Xerocrassa caroli,Helicoidea,LC,iucn3.1
Xerocrassa cardonae,Helicoidea,VU,iucn3.1
Xerocrassa barceloi,Helicoidea,LC,iucn3.1
Xerocrassa amphiconus,Helicoidea,LC,iucn3.1
Xerochlamys elliptica,Sarcolaenaceae,EN,iucn3.1
Xerces blue,Lycaenidae,EX,IUCN2.3
Xenotyphlops grandidieri,Typhlopoidea,CR,IUCN3.1
Xenotilapia tenuidentata,Cichlidae,LC,IUCN3.1
Xenotilapia spiloptera,Cichlidae,DD,IUCN3.1
Xenotilapia sima,Cichlidae,LC,IUCN3.1
Xenotilapia ornatipinnis,Cichlidae,LC,IUCN3.1
Xenotilapia ochrogenys,Cichlidae,LC,IUCN3.1
Xenotilapia nigrolabiata,Cichlidae,LC,IUCN3.1
Xenotilapia nasus,Cichlidae,DD,IUCN3.1
Xenotilapia melanogenys,Cichlidae,DD,IUCN3.1
Xenotilapia longispinis,Cichlidae,LC,IUCN3.1
Xenotilapia leptura,Cichlidae,LC,IUCN3.1
Xenotilapia caudofasciata,Cichlidae,LC,IUCN3.1
Xenotilapia burtoni,Cichlidae,VU,IUCN3.1
Xenotilapia boulengeri,Cichlidae,LC,IUCN3.1
Xenotilapia bathyphila,Cichlidae,LC,IUCN3.1
Xenotaenia resolanae,Goodeidae,NE,iucn3.1
Xenosaurus grandis,Xenosauridae,VU,IUCN3.1
Xenorhina similis,Microhylidae,LC,IUCN3.1
Xenorhina parkerorum,Microhylidae,LC,IUCN3.1
Xenorhina oxycephala,Microhylidae,LC,IUCN3.1
Xenorhina minima,Microhylidae,DD,IUCN3.1
Xenorhina eiponis,Microhylidae,DD,IUCN3.1
Xenorhina bouwensi,Microhylidae,LC,IUCN3.1
Xenorhina arboricola,Microhylidae,DD,IUCN3.1
Xenorhina adisca,Microhylidae,DD,IUCN3.1
Xenopus lenduensis,Pipidae,CR,IUCN3.1
Xenopus itombwensis,Pipidae,CR,IUCN3.1
Xenopus epitropicalis,Pipidae,LC,IUCN3.1
Xenopoclinus leprosus,Clinidae,LC,iucn3.1
Xenopoclinus kochi,Clinidae,LC,IUCN3.1
Xenophyllum roseum,Asteraceae,VU,IUCN3.1
Xenophyllum rigidum,Asteraceae,VU,IUCN3.1
Xenophyllum acerosum,Asteraceae,EN,IUCN3.1
Xenophthalmichthys danae,Microstomatidae,NE,iucn3.1
Xenophallus umbratilis,Poeciliidae,NE,iucn3.1
Xenopeltis hainanensis,Xenopeltidae,LC,IUCN3.1
Xenomugil thoburni,Mugilidae,LC,iucn3.1
Xenomedea rhodopyga,Labrisomidae,LC,iucn3.1
Xenolepidichthys dalgleishi,Grammicolepididae,NE,iucn3.1
Xenohyla truncata,Hylidae,NT,IUCN3.1
Xenohyla eugenioi,Hylidae,DD,IUCN3.1
Xenodiscula taintori,Sagdidae,DD,IUCN2.3
Xenodexia ctenolepis,Poeciliidae,NE,iucn3.1
Xenocys jessiae,Haemulidae,VU,iucn3.1
Xenocypris yunnanensis,Cyprinidae,CR,IUCN3.1
Xenochromis hecqui,Pseudocrenilabrinae,DD,IUCN3.1
Xenocalamus transvaalensis,Atractaspididae,DD,iucn2.3
Xenobrama microlepis,Bramidae,NE,iucn3.1
