col0,col1,col2,col3
Cameron County Courthouse,A. B. Ayres,4046,4046
Cambria County Courthouse,H. Shank,6474,6474
California Club,R. D. Farquhar,4046,4046
Calhoun County Courthouse,W. A. Edwards,3237,3237
Calhoun Beach Club,M. &. Tusler,8611,8611
Caledonia Bowstring Bridge,Wrought Iron Bridge Company,4046,4046
Caleb Bragg Estate,W. &. Gillette,16996,16996
Cairo Rosenwald School,J. Rosenwald,14973,14973
Cabrillo National Monument,N. P. Service,582342,582342
Cabarrus County Courthouse,G. Appleget,8093,8093
C. H. Burroughs House,S. Hannaford,4046,4046
C. Brewer Building,B. Goodhue,2023,2023
C.W. Dickey House,C. Dickey,404,404
Byrnes & Kiefer Building,F. J. Osterling,809,809
Byington Mill,F. H. Gouge,2428,2428
Byers-Lyons House,A. &. Harlow,2023,2023
Buzza Company Building,M. &. Tusler,9550,9550
Butts County Courthouse,B. &. Morgan,4046,4046
Butler Square,H. W. Jones,5212,5212
Butler Bank,A. E. Doyle,4046,4046
Butler Armory,W. W. Co.,1618,1618
Bush–Breyman Block,W. D. Pugh,809,809
Burlington Northern Depot,N. P. Railroad,4046,4046
Burke County Courthouse,"Toltz, King & Day",8498,8498
Bulloch County Courthouse,E. C. Hosford,4046,4046
Buhl Building,J. &. Abbott,404,404
Buffalo Tennis and Squash Club,D. Lyman,4046,4046
Buffalo River State Park,C. C. Corps,141639,141639
Buffalo Presbyterian Church and Cemetery,H. Barton,32374,32374
Buena Vista Park Historic District,B. H. Barnett,20234,20234
Buckingham Friends Meeting House,A. E. Bye,157827,157827
Buchanan School,C. &. Burrows,4046,4046
Brush Creek Work Center,"USDA Forest Service, Region 2",283279,283279
Brumback Library,D. L. Stine,6879,6879
Browncroft Historic District,L. architecture,469435,469435
Brown Shoe Company Factory,A. B. Groves,10117,10117
Brown Palace Hotel,F. Edbrooke,38445,38445
Brooks County Courthouse,J. Wind,8093,8093
Brooklyn Borough Hall,G. King,4046,4046
Brooklyn Army Terminal,C. Gilbert,393354,393354
Brookland Plantation,R. Mills,241273,241273
Brookgreen Gardens,A. H. Huntington,36826393,36826393
Bronx Borough Courthouse,O. F. Bluemner,4046,4046
Brockton City Hall,W. L. Minor,5746,5746
Broadway Historic District,R. Upjohn,554419,554419
Broad Margin,F. L. Wright,8093,8093
Bristol County Courthouse Complex,F. I. Cooper,52609,52609
Bridgeport Downtown South Historic District,C. Gilbert,109265,109265
Bridgeport City Hall,A. J. Davis,7284,7284
Bridge No. 1132,C. H. Department,4046,4046
