col0,col1,col2,col3,col4
WANE-TV,CBS,15.1CBS,31 (UHF),1000000
WALV-CD,NBC,46.1 MeTV,46 (UHF),14900
WALE-LD,Justice Network,17.1Justice Network,17 (UHF),15000
WAGT,NBC,26.1NBC,30 (UHF),400000
WAFB,CBS,9.1CBS,9 (VHF),5570
WACH,Fox Broadcasting Company,[[#Digital television,48 (UHF),520000
WABI-TV,CBS,5.1CBS,13 (VHF),12000
WABG-TV,American Broadcasting Company,[[#Digital channels,32 (UHF),1000000
W47EI-D,Independent station,47.1Religious broadcasting,47 (UHF),15000
W43DL-D,Religious Broadcasting,43.1 Total Praise Channel,43 (UHF/PSIP),15000
W21AU,MundoMax,21.1 MundoMax,21 (UHF),11430
W07DP-D,Cornerstone Television Network,35.1Cornerstone,7 (VHF),250
TV Osaka,TX Network,72,"18 (UHF, 2003–,Virtual7)",21000
Southern Oregon Public Television,PBS,x.1PBS,KFTS: 22 (PSIP),9600
Pioneer Public TV,Public Broadcasting Service,10.1/20.1PBS(HD),Digital: KSMN: 15 (UHF),50000
MHz Networks,Non-commercial educational,(see article),WNVC: 24 (UHF),160000
MBS TV,Japan News Network,"042, 043","16 (UHF, 2003-,Virtual: 4)",25000
KZTV,CBS,10.1CBS,10 (VHF),39000
KZKC-LP,Azteca America,42.2Azteca América,23 (UHF)CP,150000
KYUU-LD,The CW Plus,35.1The CW,28 (UHF),150000
KYUM-LP,Tele Vida Abundante,15.1 TVA,15 (UHF),100
KYTV,NBC,3.1 NBC,44 (UHF),967000
KYCW-LD,The CW,33.2 The CW,15 (UHF),3900
KYAZ,Azteca América,[[#Digital television,47 (UHF),1000000
