col0,col1,col2,col3
Hope Webbing Company Mill,F. J. Sawtelle,28327,28327
Hope Village Historic District,M. &. Meikle,461341,461341
Hope Historic District,E. E. Dunlap,461341,461341
Hoosac Stores 1 & 2-Hoosac Stores 3,F. Railroad,8093,8093
Hooper Building,S. Hannaford,4046,4046
Hood River County Library and Georgiana Smith Park,S. a. Whitney,2832,2832
Honey Hollow Watershed,S. C. Service,2630456,2630456
Home for Aged Couples,J. A. Fox,11735,11735
Holy Trinity Church,F. Wills,4046,4046
"Holy Hill National Shrine of Mary, Help of Christians",H. J. Gaul,84983,84983
Holy Cross Monastery,R. A. Cram,105218,105218
Hog Island Cranes,M. Company,4046,4046
Hockley Row,F. &. Evans,809,809
Hocking Valley Scenic Railway,H. V. Railway,657209,657209
Hinchliffe Stadium,O. Brothers,23067,23067
Hilton Village,H. V. Hubbard,404685,404685
Hilo Masonic Lodge Hall-Bishop Trust Building,H. F. Starbuck,3642,3642
Hillsdale Downtown Historic District,C. Allen,178061,178061
Hillsdale County Courthouse,C. Allen,8903,8903
Hillsboro State Bank Building,F. Kennard,809,809
Hillhouse Avenue,H. Austin,72843,72843
Hill-Stead Museum,"McKim, Mead and White",607028,607028
Highland School,F. Sterner,3237,3237
Highland Park Public School,C. M. Robinson,10521,10521
Highland Park Historic Business District at Euclid and Sixth Avenues,H. &. Rawson,24281,24281
Highland Falls Railroad Depot,W. S. Railroad,4856,4856
Highfields,C. H. Aldrich,1537805,1537805
High Gate,H. Trumbauer,18210,18210
"High, Church and Gould Streets Historic District",F. W. Angell,80937,80937
Hickory Hill,T. E. Watson,283279,283279
Heublein Tower,S. a. Bassette,18210,18210
Hermits Rest,M. Colter,8093,8093
Heppner Hotel,J. V. Bennes,4046,4046
Henry W. Grady House,R. Taylor,14163,14163
Henry T. Oxnard Historic District,"Albert C. Martin, Sr.",283279,283279
Henry Street Settlement,B. &. Fox,4046,4046
Henry Probasco House,W. Tinsley,80937,80937
Henry Powell House,S. Hannaford,0,0
Henry Klumb House,H. Klumb,26304,26304
Henry D. Barber House,J. L. Silsbee,2832,2832
Henry County Courthouse,I. Hodgson,5260,5260
Henry Blood House,W. Allen,4046,4046
Henry B. Plant Museum,J. A. Wood,18210,18210
Henry B. Dickson House,E. F. Lawrence,404,404
Henry A. Ware House,G. &. Greene,2023,2023
Hendler Creamery,J. C. Gott,6070,6070
Henderson County Courthouse,R. S. Smith,5260,5260
Helena Civic Center,C. S. Haire,3642,3642
Hearst Memorial Mining Building,J. G. Howard,5665,5665
Hearst Castle,J. Morgan,8361,8361
Head House Square,J. Haviland,40063,40063
Haystack Mountain Tower,R. &. Muller,4046,4046
Hayes Barton Historic District,E. S. Draper,708199,708199
Hawkins Hall,W. E. Haugaard,8093,8093
Haverhill Board of Trade Building,C. W. Damon,5260,5260
Hathaway,W. A. Delano,835675,835675
Harvard Square Subway Kiosk,B. E. Railway,46,46
Harvard Avenue Historic District,"Shepley, Rutan and Coolidge",93077,93077
Hartford Club,"Andrews, Jacques & Rantoul",404,404
Harry Packer Mansion,A. Hutton,20234,20234
Harry Goddard House,G. Clemence,4046,4046
Harrisburg State Hospital,J. A. Dempwolf,740574,740574
Harriet F. Rees House,C. a. Frost,404,404
Harper County Courthouse,G. P. Washburn,8093,8093
Harmony Historic District,G. Rapp,68796,68796
Harlan Courthouse Square Commercial District,C. E. Bell,27518,27518
Harding Tomb,H. Hornbostel,8093,8093
Hardin County Courthouse,"Richards, McCarty & Bulford",8093,8093
Hanover Historic District,D. J. A.,3581467,3581467
Hammondsport Union Free School,A. J. Warner,5665,5665
Hammond Street Congregational Church,T. &. Foster,1214,1214
Hammond Pond Parkway,O. Brothers,56655,56655
Hamilton Place Historic District,"Barnett, Haynes & Barnett",174014,174014
Hamilton County Memorial Building,C. Barnhorn,4046,4046
Hamilton Building,W. &. Lewis,404,404
Hamburg Historic District,F. G. Clausen,428966,428966
Hall–Chaney House,E. F. Lawrence,8093,8093
Hallowell Historic District,J. C. Stevens,1052182,1052182
"Hall of Transportation, Treasure Island",G. W. Kelham,8093,8093
Hall–Chaney House,E. F. Lawrence,8093,8093
Halifax County Home and Tubercular Hospital,B. &. Benton,1416399,1416399
Hager House,A. &. Shambleau,4046,4046
H. Russell Albee House,A. E. Doyle,2832,2832
H. H. Richardson Historic District of North Easton,F. L. Olmsted,23471,23471
H. Chandler and Alice B. Egan House,C. Egan,32172,32172
Gómez Residence,F. Porrata-Doría,999,999
Gus J. Solomon United States Courthouse,M. H. Whitehouse,10869,10869
Gunston Hall,G. Mason,2248838,2248838
Guardian Bank Building,"Shepley, Rutan & Coolidge",4046,4046
Grove Street Cemetery,H. Austin,72843,72843
Grove Farm,C. W. Dickey,330992,330992
Grosscup Road Historic District,H. R. Warne,40468,40468
Greystone Mansion,G. Kaufmann,4273,4273
Grey Towers National Historic Site,R. M. Hunt,412779,412779
Greer Depot,C. C. Hook,2023,2023
Greenwood Plantation,J. Wind,5665598,5665598
Greenwich Town Hall,M. a. Uffinger,4046,4046
Greenville Downtown Historic District,E. E. Myers,60702,60702
Greenville City Hall,W. P. Administration,809,809
Greenville Carnegie Library,W. S. Kaufman,16187,16187
Greenlawn Cemetery,C. Connick,15782,15782
Greenfield Public Square Historic District,C. E. Bell,30351,30351
Greenfield Elementary School,K. a. Elliott,36421,36421
Greenbelt Knoll,L. Kahn,36421,36421
Green-Wood Cemetery,D. B. Douglass,1934397,1934397
Great Northern Freight Warehouse and Depot,G. N. Railway,4046,4046
Graves Creek Ranger Station,N. P. Service,8093,8093
Gratiot County Courthouse,C. Allen,8093,8093
Graphic Arts Building,S. &. Williams,4046,4046
Grants Pass Supervisor's Warehouse,United States Forest Service,15378,15378
Grant's Tomb,J. H. Duncan,3075,3075
Granot Loma,M. &. Fox,2326942,2326942
Graniteville Historic District,W. Gregg,222577,222577
Granger Hall,I. J. Gill,2832,2832
Grand Opera House,W. J. Edbrooke,4046,4046
Grand Ole Opry,W. Becket,16187,16187
Grand Forks Woolen Mills,J. W. Ross,4046,4046
Grand Forks Near Southside Historic District,J. B. DeRemer,736527,736527
Grand Forks County Fairgrounds WPA Structures,T. B. Wells,206389,206389
Grand Canyon Inn and Campground,G. S. Underwood,311607,311607
Grand Army of the Republic Memorial Hall,H. &. Emerson,404,404
Granada Theater,B. Brothers,4046,4046
Grace United Methodist Church,S. S. Woodcock,809,809
Grace Reformed Church,P. J. Pelz,809,809
Grace Hospital,C. M. Robinson,2023,2023
Grace Episcopal Church,W. Strickland,20234,20234
Grace Church Van Vorst,D. Lienau,1618,1618
Gov. John F. Hill Mansion,J. C. Stevens,8093,8093
Gov. John Butler Smith House,W. M. Butterfield,4856,4856
Gov. Frank West Rollins House,"Andrews, Jaques & Rantoul",2023,2023
Gould Mansion Complex,A. W. Fuller,2023,2023
Gordon C. Felts House,G. &. Sheffey,6070,6070
Gordon-Nash Library,F. &. Delano,4451,4451
Goose River Bank,J. W. Ross,809,809
Goldschmidt House,P. Williams,2832,2832
Goldsboro Union Station,J. Leitner,20234,20234
Gold Creek Ranger Station,C. C. Corps,24281,24281
Goffstown Public Library,Henry M. Francis & Sons,1214,1214
Godillot Place,"Palliser, Palliser & Co.",12545,12545
Globe Ticket Company Building,T. B. Company,2023,2023
Glenville School,J. O. Betelle,40468,40468
Glenview Mansion,C. W. Clinton,93077,93077
Glendale National Cemetery,M. C. Meigs,26709,26709
Gilmanton Academy,B. &. Sargent,6474,6474
Gilbert Building,W. &. Lewis,404,404
Giesy–Failing House,J. Jacobberger,6474,6474
Gibson County Courthouse,M. Brothers,8093,8093
Gibraltar,A. E. Ives,24685,24685
German United Evangelical Church Complex,G. &. Kaelber,4046,4046
German Evangelical St. Johns Church,H. Brothers,11331,11331
Gerald Hotel,W. R. Miller,2428,2428
George Scott House,S. Hannaford,4046,4046
George Pipes House,W. H. Pipes,404,404
George Hummel House,S. Hannaford,4046,4046
George Hoadley Jr. House,A. O. Elzner,4046,4046
