col0,col1,col2,col3
HMS Eggesford,1957-11-11,1941-06-23,1942-09-12
HMS Echo,1944-04-05,1933-03-20,1934-02-16
HMS Eagle,1918-02-28,1913-02-20,1918-06-08
HMS Duff,1943-08-23,1943-02-22,1943-05-22
HMS Dominica,1944-01-25,1943-07-27,1943-09-14
HMS Domett,1943-09-03,1943-04-07,1943-05-19
HMS Diana,1969-12-01,1947-04-03,1952-05-08
HMS Diadem,1956-02-29,1939-12-15,1942-08-21
HMS Decoy,1943-03-01,1931-06-25,1932-06-07
HMS Dakins,1943-11-23,1943-06-23,1943-09-18
HMS Cygnet,1937-02-01,1930-12-01,1931-09-29
HMS Crescent,1936-10-20,1930-12-01,1931-09-29
HMS Coventry,2003-01-14,1984-03-29,1986-04-08
HMS Cooke,1943-08-23,1943-03-11,1943-04-22
HMS Ceylon,1960-02-09,1939-04-27,1942-07-30
HMS Cayman,1944-01-20,1943-07-15,1943-09-06
HMS Caicos,1943-12-31,1943-04-23,1943-09-06
HMS Buttercup,1941-05-23,1940-12-17,1941-04-10
HMS Brazen,1994-11-18,1978-08-18,1980-03-04
HMS Boreas,1944-02-11,1929-07-22,1930-06-11
HMS Bigbury Bay,1959-05-12,1944-03-30,1944-11-16
HMS Bellwort,1947-02-03,1940-09-17,1941-08-11
HMS Bazely,1943-02-18,1942-04-05,1942-06-27
HMS Battler,1942-10-31,1941-04-15,1942-04-04
HMS Barbados,1943-12-18,1943-05-11,1943-08-27
HMS Bangor,1945-11-11,1939-09-19,1940-05-23
HMS Bahamas,1943-12-06,1943-04-07,1943-08-17
HMS BYMS-2282,1948-04-18,1942-08-15,1942-11-30
HMS BYMS-2203,1946-11-12,1942-01-15,1943-01-15
HMS Avenger,1994-09-23,1974-10-30,1975-11-20
HMS Aurora,1920-03-25,1912-10-24,1913-09-30
HMS Aurora,1948-05-19,1935-07-27,1936-08-20
HMS Ascension,1943-11-24,1943-04-30,1943-08-06
HMS Arrow,1994-03-01,1972-09-28,1974-02-05
HMS Ark Royal,1946-10-18,1913-11-07,1914-09-05
HMS Ardent,1782-04-14,1762-01-15,1764-08-13
HMS Antrim,1984-06-22,1966-01-20,1967-10-19
HMS Antigua,1943-11-04,1943-04-03,1943-07-26
HMS Anguilla,1943-10-15,1943-04-01,1943-07-14
HMS Amazon,1993-09-30,1969-11-06,1971-04-26
HMS Alexander,1794-11-06,1774-04-06,1778-10-08
HMS Albrighton,1957-11-11,1940-12-30,1941-10-11
HMS Agincourt,1914-08-03,1911-09-14,1913-01-22
HMS Active,1994-09-23,1971-07-23,1972-11-23
HMPNGS Salamaua,1974-11-14,1972-05-29,1972-07-27
HMPNGS Buna,1974-11-14,1972-07-31,1972-09-26
HMNZS Resolution,1997-02-06,1988-02-26,1989-02-17
HMNZS Hawea,1948-09-07,1943-10-25,1943-04-25
HMNZS Endeavour,1944-08-05,1943-05-01,1944-05-23
HMIS Tir,1945-12-03,1942-06-18,1942-12-29
HMIS Sind,1945-08-24,1942-09-26,1943-04-22
HMIS Assam,1945-02-19,1942-11-26,1943-06-21
HMCS Winnipeg,1959-08-07,1942-01-31,1942-09-19
HMCS Windsor,2001-08-06,1990-03-13,1992-04-16
HMCS Wallaceburg,1959-07-31,1942-07-06,1942-12-17
HMCS Toronto,1956-03-10,1943-05-10,1943-09-18
HMCS Thorlock,1946-03-18,1943-09-25,1944-05-15
HMCS Strathroy,1946-03-18,1943-11-18,1944-06-15
HMCS Stellarton,1946-03-18,1943-11-16,1944-04-27
HMCS Sea Cliff,1946-03-30,1943-07-20,1944-08-07
HMCS Sarnia,1958-03-29,1941-09-18,1942-01-21
HMCS Prestonian,1956-04-24,1943-07-20,1944-06-22
HMCS Penetang,1956-03-10,1943-09-22,1944-07-06
HMCS Nipigon,1957-11-29,1940-07-04,1940-10-01
HMCS Miramichi,1954-10-09,1952-06-13,1954-05-04
HMCS Kentville,1957-11-29,1941-12-15,1942-04-17
HMCS Joliette,1946-05-21,1943-07-19,1943-11-12
HMCS Crusader,1945-11-26,1943-11-15,1944-10-04
HMCS Chaleur,1954-10-09,1951-06-08,1952-06-21
HMCS Cape Breton,1953-01-31,1944-07-05,1944-10-07
HMCS Bonaventure,1952-04-23,1943-11-27,1945-02-27
HMAS Whyalla,1947-02-10,1940-07-24,1941-05-12
HMAS Voyager,1933-10-11,1917-05-17,1918-05-08
HMAS Vampire,1933-11-11,1916-10-10,1917-05-21
HMAS Tarakan,2015-07-20,1971-12-12,1972-03-16
HMAS Supply,1962-08-15,1952-08-05,1954-09-01
HMAS Stawell,1952-03-05,1942-06-18,1943-04-03
HMAS Rankin,2003-03-18,1995-05-12,2001-11-07
HMAS Psyche,1915-07-01,1897-11-15,1898-07-19
HMAS Pioneer,1912-11-28,1897-12-16,1899-06-28
HMAS Manoora,1994-09-27,1970-03-28,1970-12-19
HMAS Kiama,1952-03-05,1942-11-02,1943-07-03
HMAS Kalgoorlie,1946-05-08,1940-07-27,1941-08-07
HMAS Jervis Bay,1977-01-28,1967-08-18,1969-02-17
HMAS Inverell,1952-03-05,1941-12-07,1942-05-02
HMAS Geraldton,1946-06-14,1940-11-20,1941-08-16
HMAS Gawler,1946-04-05,1941-01-24,1941-10-04
HMAS Encounter,1919-12-05,1901-01-28,1902-06-18
HMAS Echuca,1952-03-05,1941-02-22,1942-01-17
HMAS Duchess,1964-04-19,1948-07-08,1951-04-09
HMAS Choules,2011-04-06,2002-01-28,2003-07-18
HMAS Burnie,1946-07-05,1940-06-04,1940-10-25
HMAS Brunei,2015-07-23,1971-08-09,1971-10-08
HDMS Najaden,1807-09-07,1795-08-11,1796-08-11
Greek destroyer Leon,1951-01-15,1943-02-22,1943-07-25
Greek destroyer Adrias,1942-07-20,1941-05-01,1942-02-03
Glomar Challenger,1968-08-11,1967-10-18,1968-03-23
German training cruiser Deutschland,1963-04-10,1959-09-11,1960-11-05
German submarine U-889,1945-05-14,1943-09-13,1944-04-05
German submarine U-862,1945-05-06,1942-08-15,1943-06-08
German submarine U-511,1943-09-16,1941-02-21,1941-09-22
German submarine U-3008,1945-08-22,1944-07-02,1944-09-14
German submarine U-190,1945-05-11,1941-10-07,1942-06-03
German submarine U-1231,1945-11-05,1943-03-31,1943-11-18
German submarine U-1202,1945-05-09,1943-04-28,1943-11-11
German submarine U-1105,1945-05-10,1943-07-06,1944-04-20
German destroyer Z6 Theodor Riedel,1946-02-04,1935-07-18,1936-04-22
German destroyer Z5 Paul Jacobi,1946-02-04,1935-07-15,1936-03-24
German destroyer Z31,1946-02-02,1940-09-01,1941-03-15
German cruiser Lützow,1940-04-15,1937-08-02,1939-07-01
GTS Finnjet,1977-04-28,1975-05-20,1976-03-28
French submarine Laubie,1945-05-08,1941-03-01,1943-05-29
French ship Siroco,2015-08-07,1995-10-09,1996-12-14
French ship Foudre,2011-12-23,1986-03-26,1988-11-19
French frigate Étoile,1814-03-27,1810-04-03,1813-07-28
French frigate Égyptienne,1801-09-02,1798-09-26,1799-07-17
French frigate Pomone,1794-04-23,1783-02-20,1785-11-16
French frigate Piémontaise,1808-03-08,1803-03-22,1804-12-15
French frigate Oise,1944-01-23,1943-05-13,1943-11-27
French frigate Magicienne,1781-09-02,1777-08-06,1778-08-01
French frigate Junon,1799-06-18,1782-02-10,1782-08-14
French frigate Infatigable,1806-09-25,1797-07-19,1799-04-06
French frigate Forte,1799-03-01,1794-05-30,1794-09-26
French frigate Flore,1810-06-14,1805-07-01,1806-11-11
French frigate Désirée,1800-07-08,1794-02-10,1796-04-23
French frigate Créole,1803-06-30,1794-01-05,1797-06-27
French frigate Clorinde,1803-11-30,1796-09-24,1800-10-31
French frigate Chiffone,1803-11-30,1793-11-10,1799-08-31
French frigate Aréthuse,1793-09-19,1789-03-14,1791-03-03
French frigate Étoile,1814-03-27,1810-04-03,1813-07-28
French frigate Égyptienne,1801-09-02,1798-09-26,1799-07-17
French destroyer Tigre,1942-11-27,1923-09-18,1924-08-02
French destroyer Panthère,1942-11-27,1923-12-23,1924-10-27
French brig Nisus,1809-12-12,1804-03-31,1805-02-15
Flanders Loyalty,2008-01-16,2007-06-01,2007-08-29
Europa,1943-11-24,1942-03-02,1942-12-07
Eufaula,1969-07-03,1968-08-05,1969-02-22
Emma Mærsk,2006-08-31,2006-01-20,2006-05-18
Emerald Princess,2007-03-24,2005-09-14,2006-06-01
ENS Gamal Abdel Nasser,2015-09-23,2012-02-01,2013-10-15
ENS Anwar El Sadat,2016-09-16,2013-06-18,2014-11-20
EML Tasuja,2006-04-12,1977-02-02,1977-06-07
EML Lembit,1992-04-27,1935-06-19,1936-07-07
