col0,col1,col2,col3,col4
M. Kamnik,Slovenia,Slovenia men's national volleyball team,Maribor,1987-11-24
M. Masłowski,Poland,Poland men's national under-19 volleyball team,Poland,1997-06-13
M. Ikic,Croatia,Croatia women's national volleyball team,Pula,1989-05-25
M. Iwata,Japan,Japan men's national volleyball team,"Sakurai, Nara",1982-01-30
M. Kuriyama,Japan,Japan men's national volleyball team,"Ureshino, Saga",1988-07-14
M. Yanagida,Japan,Japan men's national volleyball team,"Edogawa, Tokyo",1992-07-06
M. Miyashita,Japan,Japan men's national volleyball team,Fukuoka,1978-09-19
M. Kanbayashi,Japan,Japan men's national volleyball team,"Suzaka, Nagano",1964-04-16
M. J. Pérez,Venezuela,Venezuela women's national volleyball team,Aragua,1988-03-18
M. Fernández,Spain,Spain women's national volleyball team,Fuentes de Andalucía,1982-06-06
M. Escoto,Puerto Rico,Puerto Rico women's national volleyball team,"San Juan, Puerto Rico",1991-03-23
M. Marchenko,Ukraine,Ukraine women's national volleyball team,Sievierodonetsk,1985-07-12
M. Prolingheuer,Germany,Germany men's national volleyball team,"Senden, North Rhine-Westphalia",1990-06-29
M. Rosenblatt,Estonia,Estonia men's national volleyball team,Estonia,1987-12-29
M. Útlá,Czech Republic,Czech Republic women's national volleyball team,Nový Jičín,1985-07-17
M. Viestová,Slovakia,Slovakia women's national volleyball team,Poprad,1984-05-21
M. Noseková,Slovakia,Slovakia women's national volleyball team,Bratislava,1985-04-01
M. Malević,Croatia,Croatia women's national volleyball team,Zagreb,1990-12-07
M. Jakubšová,Czech Republic,Czech Republic women's national volleyball team,Ostrava,1988-06-14
M. Útlá,Czech Republic,Czech Republic women's national volleyball team,Nový Jičín,1985-07-17
M. Nemec,Slovakia,Slovakia men's national volleyball team,Bratislava,1984-07-31
M. Kryštof,Czech Republic,Czech Republic men's national volleyball team,Velké Meziříčí,1982-10-11
M. Dieleman,Netherlands,Netherlands women's national volleyball team,Goes,1979-05-11
M. Szczygielska,Belgium,Belgium women's national volleyball team,Poland,1981-09-28
M. Pluta,Poland,Poland women's national volleyball team,Piotrków Trybunalski,1982-02-17
M. Drpa,Serbia,Serbia women's national volleyball team,Knin,1989-04-20
M. Bechis,Italy,Italy women's national volleyball team,Turin,1989-09-04
M. v. Werkhoven,Netherlands,Netherlands men's national volleyball team,Leiden,1991-12-11
M. M'rabet,Tunisia men's national volleyball team,Tunisia men's national volleyball team,Kelibia,1985-06-05
M. Palharini,Spain,Spain men's national volleyball team,Brazil,1984-02-03
M. M. Yared,Brazil,Brazil men's national volleyball team,"Guaíra, Paraná",1977-07-27
M. Chlumská,Czech Republic,Czech Republic women's national volleyball team,Brno,1982-02-10
M. Bojić,Montenegro,Montenegro men's national volleyball team,Podgorica,1988-11-13
M. Dunn,Canada,Canada men's national volleyball team,"Kingston, Ontario",1965-09-09
M. Chlumská,Czech Republic,Czech Republic women's national volleyball team,Brno,1982-02-10
M. Field,Canada,Canada women's national volleyball team,"Comox, British Columbia",1987-07-10
M. Gauthier-Rat,France,France women's national volleyball team,"Saint-Maurice, Val-de-Marne",1993-02-13
M. Vujović,Serbia and Montenegro,Serbia and Montenegro women's national volleyball team,Ljubljana,1984-01-23
M. Sheshenina,Russia,Russia women's national volleyball team,Yekaterinburg,1985-06-26
M. Miletić,Croatia,Croatia women's national volleyball team,Vukovar,1983-02-21
M. Katić,Croatia,Croatia women's national volleyball team,"Split, Croatia",1983-10-01
M. Daloca,Brazil,Brazil women's national volleyball team,Jundiaí,1979-09-08
M. Cvetanović,Slovenia,Slovenia women's national volleyball team,Koper,1986-02-14
M. Prša,Croatia,Croatia women's national volleyball team,Sisak,1989-11-27
M. Moreau,France,France men's national volleyball team,Évreux,1983-10-25
M. Bousquet,France,France women's national volleyball team,Béziers,1985-04-05
M. Alteirac,France,France women's national volleyball team,Miramas,1985-07-02
M. Schölzel,Germany,Germany women's national volleyball team,Berlin,1997-08-01
M. Murray-Méthot,Canada,Canada women's national volleyball team,Baie-Comeau,1986-03-23
M. Steinbrecher,Brazil,Brazil women's national volleyball team,São Paulo,1983-08-23
M. Masoni,Italy,Italy women's national volleyball team,Castellaneta,1986-03-25
M. Costa,Brazil,Brazil women's national volleyball team,Paraíba,1986-07-30
M. Zhadan,Russia,Russia women's national volleyball team,Moscow,1983-02-06
M. Perepelkina,Russia,Russia,Almaty,1984-03-09
M. Garagouni,Greece women's national volleyball team,Greece women's national volleyball team,Greece,1975-12-21
M. Ochiai,Japan,Japan women's national volleyball team,Itabashi,1982-01-04
M. Novotný,Czech Republic,Czech Republic men's national volleyball team,Piešťany,1978-05-04
M. Hindriksen,Germany,Germany women's national volleyball team,Nordhorn,1987-11-11
M. Guttmann,Austria,Austria men's national volleyball team,Vienna,1991-07-09
