col0,col1,col2,col3
Dayton Daily News Building,Pretzinger,1214,1214
Dayton Art Institute,E. B. Green,24281,24281
Day House,F. H. Kimball,8093,8093
Dawson County Courthouse,W. F. Gernandt,8093,8093
Dawes County Courthouse,"John W. Latenser & Sons, Inc.",10117,10117
David W. Brown House,G. H. Williamson,10117,10117
David S. Creigh House,J. W. Dunn,4046,4046
David Lyman II House,R. G. Russell,8093,8093
David Davis Mansion,A. H. Piquenard,18210,18210
David Adler Estate,D. Adler,44515,44515
Darlington Schoolhouse,D. Newton,13759,13759
Daniel J. Malarkey House,J. Jacobberger,1335,1335
Daniel Coit Gilman Summer House,D. C. Gilman,7689,7689
Danforth Memorial Library,H. Bacon,6070,6070
Danes Hall,W. Waters,404,404
Dalgain,H. R. Warne,8093,8093
D. Wheeler Swift House,S. C. Earle,809,809
Cylburn Arboretum,G. A. Frederick,837699,837699
Customhouse and Post Office,A. B. Young,1214,1214
Curtis Hall Arboretum,F. L. Olmsted,182108,182108
