col0,col1,col2,col3
Washington University in St. Louis,H. Thorp,3645,1853-02-22
University of Missouri,G. S. Stokes,3243,1839-02-11
University of Michigan,M. E. Pollack,6771,1817-08-26
Syracuse University,M. G. Wheatly,1563,1870-03-24
Georgetown University,R. Groves,1291,1789-01-23
Boston Architectural College,H. University,300,1889-12-11
