col0,col1,col2,col3
Double Dare,E. Kalehoff,Harvey,2000-11-10
Don't Trust the B---- in Apartment 23,C. Wedren,D. Walker,2013-05-13
Don't Tell the Bride,M. Lira,K. Ritchie,2012-09-24
Do Over,K. Valentine,T. E. Scott,2002-12-05
Disney's House of Mouse,B. Setzer,R. Roddy,2003-10-24
Dinosaurs,B. Broughton,G. Owens,1994-07-20
Dexter,R. Kent,M. C. Hall,2013-09-22
Desperate Housewives,D. Elfman,B. Strong,2012-05-13
Dead Like Me,S. Copeland,E. Muth,2004-10-31
Dastardly and Muttley in Their Flying Machines,T. Nichols,D. Messick,1970-01-03
