col0,col1,col2,col3,col4
W. Titt,Cork,United Kingdom,1881-2-8,1956-4-5
W. Merz,"Red Bud, Illinois",United States,1878-4-25,1946-3-17
W. Tysall,Birmingham,United Kingdom,1880-04-03,1955-1-1
V. Portnoi,Odessa,Soviet Union,1931-06-09,1984-2-19
V. Muratov,Serpukhov,Soviet Union,1928-7-13,2006-10-6
V. Roberts,Ballarat,Australia,1938-07-10,2008-08-23
S. Cross,London,United Kingdom,1891-1-5,1964-10-7
S. Walker,Birmingham,United Kingdom,1883-10-5,1960-2-29
S. Hodgetts,Birmingham,United Kingdom,1877-10-28,1944-1-1
R. Wolfe,Dallas,United States,1914-10-8,2010-1-14
R. McLean,London,United Kingdom,1881-3-26,1941-7-2
R. Maysack,Kirchardt,United States,1872-11-25,1960-1-1
R. Potts,London,United Kingdom,1892-1-3,1968-1-1
P. Schuster,Wisconsin,United States,1883-1-24,1926-10-31
P. Kassel,Germany,United States,1876-9-26,1959-5-26
P. Stolbov,Krasnyi Luch,Soviet Union,1929-08-30,2011-06-16
P. Carminucci,Italy,Italia,1937-08-29,2015-02-22
O. Steffen,Idar-Oberstein,United States,1874-8-9,1957-11-7
