col0,col1,col2,col3,col4
Macrophage inflammatory protein,12,17,6348,NM_002983
MYLK4,25,6,340156,NM_001012418
MTORC2,13,1,2475,NM_001006617.1
MTORC1,25,1,2475,NM_001163034.1
MOSC1,41,1,64757,NM_022746
MDGA2,21,14,161357,NM_182830
MCEF,31,5,27125,NM_014423
MAS1 oncogene,21,6,116511,NM_002377
MALT1,21,18,10892,NM_173844
Lysyl hydroxylase,24,1,5351,NM_000302
Lysosomal trafficking regulator,42,1,1130,NM_000081
Lysosomal lipase,23,10,3988,NM_000235
Lymphotoxin,21,6,4049,NM_000595
Luteinizing hormone,13,19,1081,NM_000735
Low-molecular-weight kininogen,21,3,3827,NM_001102416
Lipotropin,23,2,5443,NM_000939
Leucyl aminopeptidase,15,4,51056,NM_015907
Leprecan,34,1,64175,NM_022356
Lefty,42,1,10637,NM_003240
Latrophilin,-p32,1,22859,NM_012302
Latent TGF-beta binding protein,12,11,4052,NM_000428
Lanosterol 14 alpha-demethylase,21,7,1595,NM_000786
"Laminin, beta 4",31,7,22798,XM_209857
Laforin,24,6,7957,NM_001018041
LIX1L,21,1,128077,NM_153713
LEM domain-containing protein 3,14,12,23592,NM_014319
Ku,11,2,2547,NM_001469
Kir2.6,11,17,100134444,NM_001194958
Keratin 6B,12,12,3854,NM_005555
Kell antigen system,33,7,3792,NM_000420
KRT84,13,12,3890,NM_033045
KRT82,13,12,3888,NM_033033
KRT77,13,12,374454,NM_175078
KRT76,13,12,51350,NM_015848
KRT75,13,12,9119,NM_004693
KRT74,13,12,121391,NM_175053
KRT73,13,12,319101,NM_175068
KRT72,13,12,140807,NM_080747
KRT71,13,12,112802,NM_033448
KRT40,21,17,125115,NM_182497
KRT39,21,17,390792,NM_213656
KRT38,12,17,8687,NM_006771
KRT37,12,17,8688,NM_003770
KRT35,21,17,3886,NM_002280
KRT28,21,17,162605,NM_181535
KRT27,21,17,342574,NM_181537
KRT26,21,17,353288,NM_181539
KRT25,21,17,147183,NM_181534
KRT24,11,17,192666,NM_019016
KLRA1,12,12,10748,NM_006611
KAL1 gene,22,X,3730,NM_000216
Isopentenyl-diphosphate delta isomerase,15,10,3422,NM_004508
Iron-responsive element-binding protein,21,15,3658,NM_002197
Internexin,24,10,9118,NM_032727
Interleukin 28,13,19,282616,NM_172138
Interleukin 27,11,16,10148,NM_005755
Interleukin 23,13,12,3593,NM_002187
Interleukin 17,11,13,112744,NP_002181
Interleukin 12,12,3,3592,NM_000882
Interleukin-8 receptor,35,2,3577,NM_000634
Interleukin-7 receptor,13,5,3561,NM_000206
Interleukin-5 receptor,12.2-13.1,22,1439,NM_000395
Interleukin-28 receptor,22.1-22.2,1,163702,NM_000628
Interleukin-27 receptor,11,19,3572,NM_002184
Interleukin-22 receptor,24,1,116379,NM_021258
Interleukin-20 receptor,22,3,53832,NM_014432
Interleukin-1 receptor,12,2,3554,NM_000877
Interleukin-18 receptor,12,2,8807,NM_003853
Interleukin-17 receptor,11,22,132014,NM_001001694
Interleukin-15 receptor,13,10,3560,NM_000206
Interleukin-13 receptor,12.1-11.2,16,3566,NM_000418
Interleukin-12 receptor,13,1,3594,NM_001559
Interleukin-11 receptor,13,9,3590,NM_004512
Interleukin-10 receptor,22.1-22.2,11,3587,NM_000628
Interferon gamma receptor 2,22,21,3460,NM_005534
Interferon-gamma receptor,22,21,3459,NM_000416
Interferon-alpha/beta receptor,22,21,3454,NM_000629
Intelectin,21,1,55600,NP_060095
Inositol trisphosphate receptor,11,12,3708,NM_002222
Inositol monophosphatase,11,18,3612,NP_001138350
Inorganic pyrophosphatase,11,10,27068,NM_021129
Iduronidase,16,4,3425,NM_000203
ITPKC,13,19,80271,NM_025194
ITCH,11,20,83737,NM_031483
IL22RA2,24,6,116379,NM_181310
IL-2 receptor,13,10,3559,NM_000206
IKBKAP,13,9,8518,NM_003640
ICAM4,13,19,3386,NM_001039132
Hypoxia-inducible factors,13,1,2034,NM_001430
Hydroxymethylglutaryl-CoA synthase,13,1,3157,NM_002130
Hydrogen potassium ATPase,13,13,495,NM_000704
Huntingtin-associated protein 1,21.2-21.3,17,9001,NM_003949
Human serum albumin,13,4,213,NM_000477
Human placental lactogen,22,17,1442,NM_001317
Human chorionic gonadotropin,13,19,1081,NM_000735
Holocarboxylase synthetase,22,21,3141,NM_000411
Histone H3,25,1,3020,NM_002107
High-molecular-weight kininogen,21,3,3827,NM_001102416
Heterochromatin protein 1,13,12,10951,NM_006807
Hepcidin,13,19,57817,NM_021175
Hepatocyte nuclear factors,11,12,3169,NM_000458
Hepatocyte nuclear factor 4,12,20,3172,NM_001030004
Hepatic fructokinase,23,2,3795,NM_006488
HSPA1B,21,6,3304,NM_005346
HSPA12A,25,10,259217,NM_025015
HSP90AA2,14.2-14.1,11,3324,NM_001040141
HSN2,13,12,378465,NM_213655
HS1BP3,24,2,64342,NM_022460
HMGA,15,12,3159,NM_003484
HLA-DO,21,6,3111,NM_002119
HLA-DM,21,6,3108,NM_002118
HHAT,32,1,55733,NM_018194
H1FNT,13,12,341567,NM_181788
H1F0,13,22,3005,NM_005318
Gustducin,13,1,2782,NM_002074
Guanylin,35,1,2980,NM_033553
Gs alpha subunit,13,20,2778,NM_000516
Growth hormone-binding protein,13,5,2690,NM_000163
Growth hormone,22,17,2688,NM_002059
Group 1 CD1,22,1,909,NM_001763
Gremlin,11,1,26585,NM_013372
Granin,13,14,1113,NM_001275
Gq alpha subunit,13,19,2767,NM_002067
Gonadotropin-releasing hormone receptor,12,1,114814,NM_000406
Glycoprotein IIb/IIIa,21,17,3674,NM_000212
Glycophorin C,14,2,2995,NM_002101
Glyceronephosphate O-acyltransferase,42,1,8443,NM_014236
Glutathione synthetase,11,20,2937,NM_000178
Glutamyl aminopeptidase,25,4,2028,NM_001977
Glucokinase regulatory protein,23,2,2646,NM_001486
Glia maturation factor,13,14,2764,NM_004124
Gi alpha subunit,13,1,2770,NM_002069
Gastric lipase,23,10,8513,NM_004190
Gastric inhibitory polypeptide,21,17,2695,NM_004123
Gamma-glutamyl transpeptidase,11.1-11.2,22,2678,NM_001032364
Galanin receptor,12,17,2587,NM_001480
Galanin-like peptide,13,19,85569,NM_033106
Galactokinase,23,15,2584,NM_000154
G protein-coupled receptor kinase 7,24,3,131890,NM_139209
G protein-coupled inwardly-rectifying potassium channel,22,1,3760,NM_000890
GSK-3,13,19,2931,NM_002093
GPR137B,42,1,7107,NM_003272
GPD1L,22,3,23171,NM_015141
GPATCH11,22,2,253635,NP_777591.3
GMP reductase,11,14,2766,NM_006877
GLYCAM1,13,12,644076,XM_927461
GLUT8,33,9,29988,NM_014580
GLIS2,13,16,84662,NM_032575
GHB receptor,24,8,79581,NM_024531
GDP-fucose protein O-fucosyltransferase 2,22,21,23275,NM_133634
GDP-fucose protein O-fucosyltransferase 1,11,20,23509,NM_172236
GABAB receptor,21,6,2550,NM_005458
GABAA-rho receptor,12,3,200959,NM_001105580
G12/G13 alpha subunits,22,17,10672,NM_006572
Fukutin-related protein,13,19,79147,NM_024301
Frzb,31,2,2487,NM_001463
"Fructose 1,6-bisphosphatase",22,9,2203,NM_000507
Free fatty acid receptor,13,19,2864,NM_005303
Formyl peptide receptor,13.3-13.4,19,2357,NM_001462
Formins,13,1,342184,NM_001103184
Formimidoyltransferase cyclodeaminase,22,21,10841,NM_006657
Follicle-stimulating hormone,13,11,1081,NM_000510
Fibrocystin,21,6,5314,NM_138694
Fibrinogen,28,4,2243,NM_000508
Fibrillin,13,15,2200,NM_000138
Fetuin,27,3,197,NM_001622
Ferritin,13,11,2495,NM_000146
Ferredoxin,22,11,2230,NM_004109
Fcα/μR,32,1,83953,NM_032029
Fascin,22,17,25794,NM_003088
Factor XIII,24,1,2162,NM_000129
Factor D,13,19,1675,NM_001928
FXYD6,23,11,53826,NM_022003
FUT4,21,11,2526,NM_002033
FKBP6,11,7,8468,NM_003602
FGF22,13,19,27006,NM_020637
FGF20,22,8,26281,NM_019851
FGF16,21,X,8823,NM_003868
FGF11,13,17,2256,NM_004112
