col0,col1,col2,col3,col4
432 Pythia,8,1897-12-18,406016100973,302747194850
4324 Bickel,11,1981-12-24,456707339460,304730862615
431 Nephele,8,1897-12-18,550276319646,390716726736
4318 Baťa,11,1980-02-21,532275013388,431221921006
430 Hybris,11,1897-12-18,534170612887,316981432247
42 Isis,7,1856-05-23,446706000000,283890000000
429 Lotis,9,1897-11-23,437932806687,342160249865
428 Monachia,12,1897-11-18,407036358451,283483477040
427 Galene,10,1897-08-27,498125005942,390843884926
4276 Clifford,14,1981-12-02,361862289436,239431392055
426 Hippo,8,1897-08-25,477112489023,387353766603
4265 Kani,12,1989-10-08,436107712664,290234828945
4263 Abashiri,12,1989-09-07,380636822209,288125498968
425 Cornelia,9,1896-12-28,457670749747,405592738999
4257 Ubasti,15,1987-08-23,361770735539,130996288025
424 Gratia,9,1896-12-31,459832438978,370200874749
4241 Pappalardo,14,1981-03-02,472545924261,409866391130
423 Diotima,7,1896-12-07,476503625689,441352614011
42355 Typhon,7,2002-02-05,8823619308290,2624802501496
4230 van den Bergh,11,1973-09-19,670568326511,512377883233
422 Berolina,10,1896-10-08,404997339473,261657147705
4222 Nancita,12,1988-03-13,458517473695,249783564707
421 Zähringia,11,1896-09-07,487689058482,272462601905
420 Bertholda,8,1896-09-07,526823861457,495318549887
4209 Briggs,10,1986-10-04,511834154812,431904012497
4205 David Hughes,14,1985-12-18,296853622176,219759316937
420356 Praamzius,5,2012-01-23,6436747582608,6395907363907
41 Daphne,7,1856-05-22,526135711251,301290111589
419 Aurelia,8,1896-09-07,486163160200,291136904105
4197 Morpheus,14,1982-10-11,608743655452,78434163608
418 Alemannia,9,1896-09-07,434073181623,341546898595
4185 Phystech,13,1975-03-04,364034151323,299461412258
4183 Cuno,14,1959-06-05,484712060855,108428536683
417 Suevia,9,1896-05-06,475348730127,362073222433
4179 Toutatis,15,1989-01-04,617779366842,140518775927
4177 Kohman,12,1987-09-21,634722821678,352647060601
4176 Sudek,11,1987-02-24,530076343562,397103089756
4175 Billbaum,12,1985-04-15,476364230393,326621533995
416 Vaticana,7,1896-05-04,508916996334,326124854104
415 Palatia,9,1896-02-07,543339466382,292214008774
4151 Alanhale,12,1985-04-24,537400430915,404243366205
4150 Starr,12,1984-08-31,389717412960,278536275456
414 Liriope,9,1896-01-16,562218717664,486284334476
4149 Harrison,12,1984-03-09,448090502107,349520465103
4147 Lennon,12,1983-01-12,381953283471,324776977289
4142 Dersu-Uzala,13,1981-05-28,329190114475,242707585423
413 Edburga,10,1896-01-07,519136026881,253697045005
412 Elisabetha,9,1896-01-07,431455218885,395372212473
411 Xanthe,9,1896-01-07,490082624413,387335814859
4118 Sveta,12,1982-10-15,498836897329,405798121915
410 Chloris,8,1896-01-07,505945982622,309054241079
40 Harmonia,7,1856-03-31,355021000000,323537000000
409 Aspasia,7,1895-12-09,413488514614,357015318425
408 Fama,9,1895-10-13,541783648527,406542685478
4086 Podalirius,9,1985-11-09,881206257358,691426398588
4085 Weir,12,1985-05-13,431425299311,348548078943
4082 Swann,13,1984-09-27,449840797194,265341743260
407 Arachne,8,1895-10-13,419930198927,365952295221
406 Erna,10,1895-08-22,515247978222,356654787557
4065 Meinel,14,1960-09-24,364914085998,313377619542
4063 Euforbo,8,1989-02-01,866934620493,683572510376
405 Thia,8,1895-07-23,480657958559,293092148275
4057 Demophon,10,1985-10-15,880263790772,694178999409
4055 Magellan,14,1985-02-24,361189099018,183392029691
404 Arsinoë,9,1895-06-20,465153635239,310850911506
40463 Frankkameny,15,1999-09-15,491189648656,341187863705
4045 Lowengrub,11,1953-09-09,532688097988,433594468436
403 Cyane,9,1895-05-18,460997806391,379677899857
4034 Vishnu,18,1986-08-02,228884742171,88153537267
402 Chloë,9,1895-03-21,425309738357,340418930650
4029 Bridges,12,1982-05-24,427460955738,328232688102
4022 Nonna,13,1981-10-08,397676019681,307977136410
401 Ottilia,9,1895-03-16,518709672950,482034258969
4015 Wilson–Harrington,15,1979-11-15,642358296998,147276111746
400 Ducrosa,10,1895-03-15,522190815401,413065152640
4009 Drobyshevskij,12,1977-03-13,532220275527,407337992638
4008 Corbin,13,1977-01-22,426877524042,278850430984
4007 Euryalos,10,1973-09-19,817313006782,730366724331
4003 Schumann,10,1964-03-08,561006974912,464576187458
4001 Ptolemaeus,13,1949-08-02,401287057964,282871502070
3 Juno,5,1804-09-01,501591188606,297400000000
39 Laetitia,6,1856-02-08,461503000000,366877000000
399 Persephone,9,1895-02-23,490097584200,422965539723
398 Admete,10,1894-12-28,501377263651,318179711191
3988 Huma,17,1986-06-04,304222229855,157900552523
3982 Kastel,12,1984-05-02,412112214204,263711126469
397 Vienna,9,1894-12-19,491663873906,297230025379
39741 Komm,15,1997-01-09,440820045591,212114820865
396 Aeolia,10,1894-12-01,475612022380,344775220644
3963 Paradzhanov,13,1969-10-08,436447299831,293323591141
3962 Valyaev,12,1967-02-08,535410779235,425007550658
3960 Chaliubieju,12,1955-01-20,505478818391,285004363792
395 Delia,10,1894-11-30,452458759932,380391481701
3953 Perth,13,1986-11-06,401958049293,274406072723
3951 Zichichi,12,1986-02-13,410885511664,288888448108
394 Arduina,9,1894-11-19,507444953286,320235185935
39428 Emilybrontë,15,1973-09-29,443789383807,294326495266
393 Lampetia,8,1894-11-04,553212925848,277773326315
39382 Opportunity,14,1960-09-24,712594497292,473297743320
392 Wilhelmina,9,1894-11-04,492350528133,370389368066
3927 Feliciaplatt,14,1981-05-05,372816503759,283505946640
391 Ingeborg,10,1894-11-01,453289028114,241424035693
3917 Franz Schubert,13,1961-02-15,360551318415,345110604111
3915 Fukushima,12,1988-08-15,379858913281,349625183612
390 Alma,10,1894-03-24,449109263607,343934480611
3908 Nyx,17,1980-08-06,420666220450,155939324438
3905 Doppler,12,1984-08-28,481465787060,284056436885
38 Leda,8,1856-01-12,472587000000,348232000000
389 Industria,7,1894-03-08,416820059195,363741238692
3893 DeLaeter,13,1980-03-20,458146426096,266353608298
388 Charybdis,8,1894-03-07,478750585707,420402928198
