col0,col1,col2,col3
Yamdena mosaic-tailed rat,Muridae,iucn3.1,DD
Yalden's rat,Muridae,IUCN3.1,EN
Yakati rainbowfish,Melanotaeniidae,IUCN2.3,DD
Yacare caiman,Alligatoridae,IUCN2.3,LR/lc
Y-bar shrimp goby,Gobiidae,iucn3.1,NE
Xyrichtys virens,Labridae,IUCN2.3,VU
Xylotoles costatus,Cerambycidae,IUCN3.1,EN
Xylophis stenorhynchus,Colubridae,IUCN3.1,DD
Xylophis perroteti,Xenodermatidae,IUCN3.1,LC
Xylophanes tersa,Sphingidae,IUCN3.1,NE
Xylophanes pluto,Sphingidae,TNC,G4
Xyliphius melanopterus,Aspredinidae,iucn3.1,NE
Xyliphius magdalenae,Aspredinidae,iucn3.1,NE
Xyliphius lombarderoi,Aspredinidae,iucn3.1,NE
Xyliphius lepturus,Aspredinidae,iucn3.1,NE
Xyliphius kryptos,Aspredinidae,iucn3.1,NE
Xyliphius barbatus,Aspredinidae,iucn3.1,NE
Xyelacyba myersi,Ophidiidae,iucn3.1,NE
Xiurenbagrus xiurenensis,Amblycipitidae,IUCN3.1,DD
Xiphophorus montezumae,Poeciliidae,iucn3.1,LC
Xiphasia setifer,Blenniidae,IUCN3.1,LC
Xiphasia matsubarai,Blenniidae,IUCN3.1,LC
Xingu corydoras,Callichthyidae,iucn3.1,NE
Xingu antbird,Thamnophilidae,IUCN3.1,LC
Xingu River ray,Potamotrygonidae,IUCN2.3,DD
Xerus erythropus,Sciuridae,iucn3.1,LC
Xerotricha zujarensis,Helicoidea,IUCN2.3,LR/nt
Xerotricha zaratei,Helicoidea,IUCN2.3,LR/nt
Xerotricha mariae,Helicoidea,IUCN2.3,VU
Xerotricha gasulli,Helicoidea,IUCN2.3,LR/nt
Xerotricha bierzona,Helicoidea,IUCN2.3,VU
Xerosecta giustii,Helicoidea,IUCN3.1,CR
Xerosecta cespitum,Helicoidea,iucn3.1,LC
Xerosecta adolfi,Helicoidea,IUCN3.1,EN
Xerocrassa zaharensis,Helicoidea,iucn3.1,VU
Xerocrassa turolensis,Hygromiidae,iucn3.1,NT
Xerocrassa subvariegata,Hygromiidae,iucn3.1,LC
Xerocrassa subrogata,Hygromiidae,iucn3.1,LC
Xerocrassa siphnica,Hygromiidae,iucn3.1,LC
Xerocrassa siderensis,Hygromiidae,iucn3.1,LC
Xerocrassa roblesi,Hygromiidae,iucn3.1,VU
Xerocrassa ripacurcica,Helicoidea,iucn3.1,LC
Xerocrassa rhithymna,Hygromiidae,iucn3.1,LC
Xerocrassa prietoi,Hygromiidae,iucn3.1,NT
Xerocrassa poecilodoma,Hygromiidae,iucn3.1,LC
Xerocrassa penchinati,Helicoidea,iucn3.1,LC
Xerocrassa nyeli,Helicoidea,iucn3.1,NT
Xerocrassa nicosiana,Helicoidea,iucn3.1,LC
Xerocrassa moraguesi,Helicoidea,iucn3.1,EN
Xerocrassa montserratensis,Helicoidea,iucn3.1,EN
Xerocrassa molinae,Helicoidea,iucn3.1,NT
Xerocrassa mesostena,Helicoidea,iucn3.1,LC
Xerocrassa meda,Helicoidea,iucn3.1,LC
Xerocrassa lasithiensis,Helicoidea,iucn3.1,LC
Xerocrassa kydonia,Helicoidea,iucn3.1,LC
Xerocrassa jimenensis,Helicoidea,iucn3.1,NT
Xerocrassa homeyeri,Helicoidea,iucn3.1,LC
Xerocrassa heraklea,Helicoidea,iucn3.1,LC
Xerocrassa grata,Helicoidea,iucn3.1,DD
Xerocrassa grabusana,Helicoidea,iucn3.1,LC
Xerocrassa gharlapsi,Helicoidea,iucn2.3,VU
Xerocrassa geyeri,Helicoidea,iucn3.1,DD
Xerocrassa frater,Helicoidea,iucn3.1,LC
Xerocrassa franciscoi,Helicoidea,iucn3.1,LC
Xerocrassa ferreri,Helicoidea,iucn3.1,NT
Xerocrassa edmundi,Helicoidea,iucn3.1,EN
Xerocrassa ebusitana,Helicoidea,iucn3.1,NT
Xerocrassa derogata,Helicoidea,iucn3.1,LC
Xerocrassa cretica,Helicoidea,iucn3.1,LC
Xerocrassa cobosi,Helicoidea,iucn3.1,DD
Xerocrassa claudiconus,Helicoidea,iucn3.1,LC
Xerocrassa claudia,Helicoidea,iucn3.1,LC
Xerocrassa cisternasi,Helicoidea,iucn3.1,NT
Xerocrassa caroli,Helicoidea,iucn3.1,LC
Xerocrassa cardonae,Helicoidea,iucn3.1,VU
Xerocrassa barceloi,Helicoidea,iucn3.1,LC
Xerocrassa amphiconus,Helicoidea,iucn3.1,LC
Xerces blue,Lycaenidae,IUCN2.3,EX
Xenotyphlops grandidieri,Typhlopoidea,IUCN3.1,CR
Xenotilapia tenuidentata,Cichlidae,IUCN3.1,LC
Xenotilapia spiloptera,Cichlidae,IUCN3.1,DD
Xenotilapia sima,Cichlidae,IUCN3.1,LC
Xenotilapia ornatipinnis,Cichlidae,IUCN3.1,LC
Xenotilapia ochrogenys,Cichlidae,IUCN3.1,LC
Xenotilapia nigrolabiata,Cichlidae,IUCN3.1,LC
Xenotilapia nasus,Cichlidae,IUCN3.1,DD
Xenotilapia melanogenys,Cichlidae,IUCN3.1,DD
Xenotilapia longispinis,Cichlidae,IUCN3.1,LC
Xenotilapia leptura,Cichlidae,IUCN3.1,LC
Xenotilapia caudofasciata,Cichlidae,IUCN3.1,LC
Xenotilapia burtoni,Cichlidae,IUCN3.1,VU
Xenotilapia boulengeri,Cichlidae,IUCN3.1,LC
Xenotilapia bathyphila,Cichlidae,IUCN3.1,LC
Xenotaenia resolanae,Goodeidae,iucn3.1,NE
Xenosaurus grandis,Xenosauridae,IUCN3.1,VU
Xenorhina similis,Microhylidae,IUCN3.1,LC
Xenorhina parkerorum,Microhylidae,IUCN3.1,LC
Xenorhina oxycephala,Microhylidae,IUCN3.1,LC
Xenorhina minima,Microhylidae,IUCN3.1,DD
Xenorhina eiponis,Microhylidae,IUCN3.1,DD
Xenorhina bouwensi,Microhylidae,IUCN3.1,LC
Xenorhina arboricola,Microhylidae,IUCN3.1,DD
Xenorhina adisca,Microhylidae,IUCN3.1,DD
Xenopus lenduensis,Pipidae,IUCN3.1,CR
Xenopus itombwensis,Pipidae,IUCN3.1,CR
Xenopus epitropicalis,Pipidae,IUCN3.1,LC
Xenopoclinus leprosus,Clinidae,iucn3.1,LC
Xenopoclinus kochi,Clinidae,IUCN3.1,LC
Xenophthalmichthys danae,Microstomatidae,iucn3.1,NE
Xenophallus umbratilis,Poeciliidae,iucn3.1,NE
Xenopeltis hainanensis,Xenopeltidae,IUCN3.1,LC
Xenomugil thoburni,Mugilidae,iucn3.1,LC
Xenomedea rhodopyga,Labrisomidae,iucn3.1,LC
Xenolepidichthys dalgleishi,Grammicolepididae,iucn3.1,NE
Xenohyla truncata,Hylidae,IUCN3.1,NT
Xenohyla eugenioi,Hylidae,IUCN3.1,DD
Xenodiscula taintori,Sagdidae,IUCN2.3,DD
Xenodexia ctenolepis,Poeciliidae,iucn3.1,NE
Xenocys jessiae,Haemulidae,iucn3.1,VU
Xenocypris yunnanensis,Cyprinidae,IUCN3.1,CR
Xenochromis hecqui,Cichlidae,IUCN3.1,DD
Xenocalamus transvaalensis,Atractaspididae,iucn2.3,DD
Xenobrama microlepis,Bramidae,iucn3.1,NE
Xenobalistes tumidipectoris,Balistidae,iucn3.1,NE
Xeniamia,Apogonidae,IUCN3.1,NE
Xavier's greenbul,Pycnonotidae,IUCN3.1,LC
Xantus leaf-toed gecko,Gekkonidae,iucn3.1,LC
Xantus's hummingbird,Trochilidae,IUCN3.1,LC
Xanthippe's shrew,Soricidae,IUCN3.1,LC
Xanthichthys mento,Balistidae,IUCN3.1,LC
Wyoming pocket gopher,Geomyidae,IUCN3.1,LC
Wyoming ground squirrel,Sciuridae,iucn3.1,LC
Wynaad laughingthrush,Leiothrichidae,IUCN3.1,LC
Wushan salamander,Hynobiidae,IUCN3.1,NT
Wuliangshan horned toad,Megophryidae,IUCN3.1,DD
Wuchang bream,Cyprinidae,IUCN3.1,LC
Wrymouth,Cryptacanthodidae,iucn3.1,NE
Wrybill,Charadriidae,IUCN3.1,VU
Wroughton's free-tailed bat,Molossidae,iucn,DD
Writhed hornbill,Bucerotidae,IUCN3.1,NT
Wrinkled toadlet,Myobatrachidae,iucn3.1,LC
Wrinkled hornbill,Hornbill,IUCN3.1,NT
Wrinkle-lipped free-tailed bat,Molossidae,IUCN,lc
Wrinkle-faced bat,Phyllostomidae,IUCN3.1,LC
Wright's skink,Scincidae,IUCN3.1,VU
Wright's mountain tree frog,Hylidae,IUCN3.1,LC
