col0,col1,col2,col3
Sharp snouted day frog,Myobatrachidae,CR,IUCN3.1
Shaping horned toad,Megophryidae,LC,IUCN3.1
Shadowy web-footed salamander,Plethodontidae,VU,IUCN3.1
Seychelles treefrog,Hyperoliidae,LC,IUCN3.1
Seychelles frog,Sooglossidae,EN,IUCN3.1
Serra Cantareira saddleback toad,Brachycephalidae,DD,IUCN3.1
Sequoyah slimy salamander,Plethodontidae,DD,IUCN3.1
Sequoia slender salamander,Lungless salamander,DD,IUCN3.1
Seoul frog,Ranidae,VU,IUCN3.1
Seal salamander,Plethodontidae,LC,IUCN3.1
Scutiger tuberculatus,Megophryidae,VU,IUCN3.1
Scutiger sikimmensis,Megophryidae,LC,IUCN3.1
Scutiger pingwuensis,Megophryidae,EN,IUCN3.1
Scutiger nyingchiensis,Megophryidae,LC,IUCN3.1
Scutiger ningshanensis,Megophryidae,EN,IUCN3.1
Scutiger nepalensis,Megophryidae,VU,IUCN3.1
Scutiger maculatus,Megophryidae,CR,IUCN3.1
Scutiger liupanensis,Megophryidae,VU,IUCN3.1
Scutiger jiulongensis,Megophryidae,DD,IUCN3.1
Scutiger gongshanensis,Megophryidae,VU,IUCN3.1
Scutiger glandulatus,Megophryidae,LC,IUCN3.1
Scutiger chintingensis,Megophryidae,EN,IUCN3.1
Scutiger bhutanensis,Megophryidae,DD,IUCN3.1
Scinax wandae,Hylidae,LC,IUCN3.1
Scinax v-signatus,Hylidae,LC,IUCN3.1
Scinax uruguayus,Hylidae,LC,IUCN3.1
Scinax trilineatus,Hylidae,LC,IUCN3.1
Scinax trapicheiroi,Hylidae,NT,IUCN3.1
Scinax sugillatus,Hylidae,LC,IUCN3.1
Scinax strigilatus,Hylidae,DD,IUCN3.1
Scinax staufferi,Hylidae,LC,IUCN3.1
Scinax squalirostris,Hylidae,LC,IUCN3.1
Scinax similis,Hylidae,LC,IUCN3.1
Scinax rostratus,Hylidae,LC,IUCN3.1
Scinax rizibilis,Hylidae,LC,IUCN3.1
Scinax ranki,Hylidae,DD,IUCN3.1
Scinax quinquefasciatus,Hylidae,LC,IUCN3.1
Scinax proboscideus,Hylidae,LC,IUCN3.1
Scinax pinima,Hylidae,DD,IUCN3.1
Scinax perpusillus,Hylidae,LC,IUCN3.1
Scinax perereca,Hylidae,LC,IUCN3.1
Scinax pedromedinae,Hylidae,LC,IUCN3.1
Scinax parkeri,Hylidae,LC,IUCN3.1
Scinax pachycrus,Hylidae,LC,IUCN3.1
Scinax oreites,Hylidae,NT,IUCN3.1
Scinax obtriangulatus,Hylidae,LC,IUCN3.1
Scinax nebulosus,Hylidae,LC,IUCN3.1
Scinax nasicus,Hylidae,LC,IUCN3.1
Scinax melloi,Hylidae,DD,IUCN3.1
Scinax maracaya,Hylidae,DD,IUCN3.1
Scinax machadoi,Hylidae,LC,IUCN3.1
Scinax luizotavioi,Hylidae,LC,IUCN3.1
Scinax longilineus,Hylidae,LC,IUCN3.1
Scinax littoreus,Hylidae,LC,IUCN3.1
Scinax littoralis,Hylidae,LC,IUCN3.1
Scinax lindsayi,Hylidae,LC,IUCN3.1
Scinax kennedyi,Hylidae,LC,IUCN3.1
Scinax kautskyi,Hylidae,DD,IUCN3.1
Scinax karenanneae,Hylidae,LC,IUCN3.1
Scinax jureia,Hylidae,DD,IUCN3.1
Scinax jolyi,Hylidae,DD,IUCN3.1
Scinax ictericus,Hylidae,LC,IUCN3.1
Scinax humilis,Hylidae,LC,IUCN3.1
Scinax hiemalis,Hylidae,LC,IUCN3.1
Scinax heyeri,Hylidae,DD,IUCN3.1
Scinax hayii,Hylidae,LC,IUCN3.1
Scinax granulatus,Hylidae,LC,IUCN3.1
Scinax garbei,Hylidae,LC,IUCN3.1
Scinax fuscovarius,Hylidae,LC,IUCN3.1
Scinax fuscomarginatus,Hylidae,LC,IUCN3.1
Scinax funereus,Hylidae,LC,IUCN3.1
Scinax flavoguttatus,Hylidae,LC,IUCN3.1
Scinax exiguus,Hylidae,LC,IUCN3.1
Scinax eurydice,Hylidae,LC,IUCN3.1
Scinax duartei,Hylidae,LC,IUCN3.1
Scinax danae,Hylidae,DD,IUCN3.1
Scinax cuspidatus,Hylidae,LC,IUCN3.1
Scinax curicica,Hylidae,DD,IUCN3.1
Scinax cruentommus,Hylidae,LC,IUCN3.1
Scinax crospedospilus,Hylidae,LC,IUCN3.1
Scinax constrictus,Hylidae,LC,IUCN3.1
Scinax chiquitanus,Hylidae,LC,IUCN3.1
Scinax centralis,Hylidae,LC,IUCN3.1
Scinax catharinae,Hylidae,LC,IUCN3.1
Scinax carnevallii,Hylidae,LC,IUCN3.1
Scinax cardosoi,Hylidae,LC,IUCN3.1
Scinax canastrensis,Hylidae,DD,IUCN3.1
Scinax caldarum,Hylidae,LC,IUCN3.1
Scinax brieni,Hylidae,LC,IUCN3.1
Scinax boulengeri,Hylidae,LC,IUCN3.1
Scinax boesemani,Hylidae,LC,IUCN3.1
Scinax blairi,Hylidae,LC,IUCN3.1
