col0,col1,col2,col3,col4,col5
A. Panchenko,Chelyabinsk,Kazan,1953-10-5,2009-5-19,1953-10-5
A. Moroz,Soviet Union,Minsk,1961-01-18,2009-01-17,1961-01-18
A. McDonnell,Belfast,London,1798-5-22,1835-09-15,1798-5-22
A. Lastin,Zheleznovodsk,Zheleznovodsk,1976-11-30,2015-01-23,1976-11-30
A. Kotov,"Tula, Russia",Moscow,1913-08-12,1981-01-08,1913-08-12
A. Koblencs,Riga,Berlin,1916-09-03,1993-12-09,1916-09-03
A. Alekhine,Moscow,Estado Novo,1892-10-10,1946-03-24,1892-10-10
A. Salvio,Bagnoli Irpino,Bagnoli Irpino,1570-1-1,1640-1-1,1570-1-1
A. Wojtkiewicz,Latvia,Baltimore,1963-01-15,2006-07-14,1963-01-15
A. Arulaid,Estonia,Estonia,1924-05-24,1995-07-08,1924-05-24
A. Planinc,Zagorje ob Savi,Ljubljana,1944-4-18,2008-12-20,1944-4-18
A. Rubinstein,Congress Poland,Antwerp,1880-12-01,1961-03-14,1880-12-01
A. Gipslis,Latvia,Berlin,1937-02-08,2000-04-13,1937-02-08
A. Stevenson,Hartlepool,Poland,1873-1-1,1935-08-20,1873-1-1
A. G. Olland,Netherlands,The Hague,1867-04-13,1933-07-22,1867-04-13
A. Anderssen,Wrocław,Wrocław,1818-07-06,1879-03-13,1818-07-06
A. Hermlin,Võru,"Salo, Finland",1940-06-06,2007-11-17,1940-06-06
Č. Kottnauer,Prague,London,1910-02-24,1996-02-14,1910-02-24
É. Karakas,Budapest,Budapest,1922-02-15,1995-05-07,1922-02-15
