col0,col1,col2,col3,col4
A. Janssen,Pope John Paul II,Netherlands,Saint Peter's Basilica,2003-10-05
A. Tadini,P. B. XVI,Brescia,Vatican City,2009-04-26
A. M. Pucci,P. J. XXIII,Kingdom of Italy,Saint Peter's Basilica,1962-12-09
A. o. Florence,P. A. VI,Florence,Rome,1523-05-31
A. o. Padua,P. G. IX,Italy,Italy,1232-05-30
A. M. Zaccaria,P. L. XIII,Cremona,Rome,1897-05-15
A. t. Iberian,List of members of the Holy Synod of the Romanian Orthodox Church,Adrianople,Bucharest,1992-09-27
A. Schäffer,P. B. XVI,Weimar Republic,Vatican City,2012-10-21
Angela of the Cross,Pope John Paul II,Seville,Madrid,2003-05-04
A. Merici,P. P. VII,Brescia,Papal States,1807-05-24
A. Bessette,P. B. XVI,Montreal,Vatican City,2010-10-17
A. Corsini,P. U. VIII,Republic of Florence,Papal States,1629-04-22
A. Bobola,P. P. XI,Grand Duchy of Lithuania,Vatican City,1938-04-17
A. Șaguna,List of members of the Holy Synod of the Romanian Orthodox Church,Kingdom of Hungary,Sibiu,2011-10-29
A. Rublev,1988 Local Council of the Russian Orthodox Church,Moscow,Trinity-St. Sergius Lavra,1988-06-06
A. Șaguna,List of members of the Holy Synod of the Romanian Orthodox Church,Kingdom of Hungary,Sibiu,2011-10-29
A. Bessette,P. B. XVI,Montreal,Vatican City,2010-10-17
A. Barlow,P. P. VI,Lancashire,St. Peter's Basilica,1970-10-25
A. Ronconi,P. Francis,Papal States,Vatican City,2014-11-23
A. Gonzaga,P. B. XIII,Rome,Papal States,1726-12-31
