col0,col1,col2,col3,col4
Tête-à-la-Baleine Airport,ZTB,499,18/36,Gravel
Târgu Mureș International Airport,TGM,2099,07/25,Concrete
Tyonek Airport,TYE,914,18/36,Gravel
Tyndall Air Force Base,PAM,2784,13L/31R,concrete
Tynda Airport,TYD,2200,04/22,Concrete
Tyler Pounds Regional Airport,TYR,1472,13/31,Asphalt
Twin Hills Airport,TWA,914,18/36,Gravel
Twin Bridges Airport,none,1356,3/21,Turf
Twentynine Palms Airport,TNP,1157,17/35,Asphalt
Tweed New Haven Airport,HVN,1105,14/32,Asphalt
Tuzla International Airport,TZL,2484,09/27,Asphalt
Tuzla Air Base,TZL,2484,09/27,Asphalt
Tuticorin Airport,TCR,1351,10/28,Asphalt
Tuscola Area Airport,TZC,701,05/23,Asphalt
Tuscaloosa Regional Airport,TCL,1219,11/29,Asphalt
Turukhansk Airport,THX,1799,12/30,Concrete
Turku Airport,TKU,2499,08/26,Asphalt
Turkmenbashi International Airport,KRW,2499,16L/34R,Concrete
Turkmenabat Airport,CRZ,2000,15/33,Concrete
Turin Airport,TRN,3300,18/36,Asphalt
Turelelo Soa Airport,BJW,900,10 / 28,Asphalt
Tureia Airport,ZTA,1050,n/a,Paved
Turbat International Airport,TUK,1828,08/26,Asphalt
Turaif Domestic Airport,TUI,3000,10/28,Asphalt
Tupelo Regional Airport,TUP,1981,18/36,Asphalt
Tununak Airport,TNK,541,8/26,Gravel
Tuntutuliak Airport,WTL,922,2/20,Gravel
Tunta Airport,KBN,1500,07/25,Grass
Tunoshna Airport,IAR,2999,05/23,Asphalt concrete
Tunis–Carthage International Airport,TUN,2840,01/19,Asphalt
Tunica Municipal Airport,UTM,2590,17/35,Asphalt
Tungsten,TNS,1127,10/28,Gravel
Tunggul Wulung Airport,CXP,1399,13/31,Asphalt
Tumut Airport,TUM,1060,17/35,Asphalt
