col0,col1,col2,col3
Zaprešić,1,18960000,1
Xi'an,8,2420700000,1
"Taoyuan, Taiwan",8,1140000000,1
"Tampa, Florida",-4,2077947460,1
Taipei,8,1140000000,1
Tainan,8,259000000,1
Taichung,8,492000000,1
São José dos Campos,-2,298990000,1
São José do Rio Preto,-2,117430000,1
São Carlos,-2,67250000,1
"Stamford, Connecticut",-4,1205000000,1
St. Louis,−5,2392113018,1
Southampton,0,72800000,1
Skopje,1,337800000,1
