col0,col1,col2,col3
An Triail,M. N. Ghráda,Irish language,2 Attorneys
Allah jang Palsoe,K. T. Hoay,Low Malay,* Gouw Hap Nio
Alcmaeon in Psophis,Euripides,Ancient Greek,Alcmaeon
Alcmaeon in Corinth,Euripides,Ancient Greek,Alcmaeon
Alcestis,Euripides,Ancient Greek,Admetus
Ajax,Sophocles,Ancient Greek,Agamemnon
After Aida,J. Mitchell,English language,Arrigo Boito
Action,S. Shepard,English language,Jeep
Act Without Words I,S. Beckett,French language,Man
Accidental Death of an Anarchist,D. Fo,Italian language,*Inspector Bertozzo
A Taste of Honey,S. Delaney,English language,Geoffrey
A Strange Man,M. Lermontov,Russian language,Belinskoy
A Small Family Business,A. Ayckbourn,English,Anita
A Newspaperman?,I. Vazov,Bulgaria,Bozhana
A Month in the Country,I. Turgenev,Russian language,Aleksei Belyaev
A Doll's House,H. Ibsen,Norwegian language,Anne-Marie
"""Master Harold""...and the Boys",A. Fugard,English studies,Hally
