col0,col1,col2,col3,col4
P. Jane,T. Lisbon,T. Lisbon,United States,1974-9-16
M. Ravenwood,I. Jones,M. Williams,United States,1909-3-23
K. Forman,R. Forman,E. Forman,United States,1933-1-13
I. Jones,M. Ravenwood,M. Williams,United States,1899-7-1
H. J. Sr.,A. Jones,I. Jones,Scotland,1872-12-12
Chucky,Tiffany,C. Play,United States,1988-11-9
A. Sloane,E. Sloane,N. Santos,United States,1950-10-31
