col0,col1,col2,col3
Rana tavasensis,Ranidae,EN,IUCN3.1
Rana sauteri,True frog,EN,IUCN3.1
Rana sangzhiensis,Ranidae,DD,IUCN3.1
Rana pseudodalmatina,Ranidae,LC,IUCN3.1
Rana multidenticulata,Ranidae,LC,IUCN3.1
Rana iriodes,True frog,DD,IUCN3.1
Rana hanluica,Ranidae,DD,IUCN3.1
Rana garritor,True frog,LC,IUCN3.1
Rana cordofana,Ranidae,DD,IUCN3.1
Rana amurensis,True frog,LC,IUCN3.1
Ramsey Canyon leopard frog,Ranidae,VU,IUCN3.1
Ramanella palmata,Microhylidae,EN,IUCN3.1
Ramanella obscura,Microhylidae,NT,IUCN3.1
Ramanella montana,Microhylidae,NT,IUCN3.1
Ramanella minor,Microhylidae,DD,IUCN3.1
Ramanella anamalaiensis,Microhylidae,DD,IUCN3.1
Quebrada Valverde salamander,Plethodontidae,VU,IUCN3.1
Quacking frog,Myobatrachidae,LC,IUCN3.1
Pyrenean frog,Ranidae,EN,IUCN3.1
Puxiong salamander,Hynobiidae,DD,IUCN3.1
Purple frog,Sooglossidae,EN,IUCN3.1
Pumpkin toadlet,Brachycephalidae,LC,IUCN3.1
Ptychohyla salvadorensis,Hylidae,EN,IUCN3.1
Ptychohyla dendrophasma,Hylidae,CR,IUCN3.1
Pseudophilautus zal,Rhacophoridae,EX,iucn3.1
Pseudophilautus variabilis,Rhacophoridae,EX,iucn3.1
Pseudophilautus temporalis,Rhacophoridae,EX,iucn3.1
Pseudophilautus stellatus,Rhacophoridae,EX,iucn3.1
Pseudophilautus semiruber,Rhacophoridae,DD,IUCN3.1
Pseudophilautus rugatus,Rhacophoridae,EX,iucn3.1
Pseudophilautus oxyrhynchus,Rhacophoridae,EX,iucn3.1
Pseudophilautus nasutus,Rhacophoridae,EX,iucn3.1
Pseudophilautus nanus,Rhacophoridae,EX,iucn3.1
Pseudophilautus malcolmsmithi,Rhacophoridae,EX,iucn3.1
Pseudophilautus leucorhinus,Rhacophoridae,EX,iucn3.1
Pseudophilautus halyi,Rhacophoridae,EX,iucn3.1
Pseudophilautus extirpo,Rhacophoridae,EX,iucn3.1
Pseudophilautus eximius,Rhacophoridae,EX,iucn3.1
Pseudophilautus dimbullae,Rhacophoridae,EX,iucn3.1
Pseudophilautus adspersus,Rhacophoridae,EX,iucn3.1
Pseudopaludicola ternetzi,Leptodactylidae,LC,IUCN3.1
Pseudopaludicola riopiedadensis,Leptodactylidae,DD,IUCN3.1
Pseudopaludicola pusilla,Leptodactylidae,LC,IUCN3.1
Pseudopaludicola mystacalis,Leptodactylidae,LC,IUCN3.1
Pseudopaludicola mineira,Leptodactylidae,DD,IUCN3.1
Pseudopaludicola canga,Leptodactylidae,DD,IUCN3.1
Pseudoeurycea tlilicxitl,Plethodontidae,DD,IUCN3.1
Pseudoeurycea tlahcuiloh,Plethodontidae,DD,IUCN3.1
Pseudoeurycea smithi,Plethodontidae,CR,IUCN3.1
Pseudoeurycea ruficauda,Plethodontidae,DD,IUCN3.1
Pseudoeurycea robertsi,Plethodontidae,CR,iucn3.1
Pseudoeurycea rex,Plethodontidae,CR,IUCN3.1
Pseudoeurycea mystax,Plethodontidae,EN,IUCN3.1
Pseudoeurycea mixteca,Plethodontidae,LC,IUCN3.1
Pseudoeurycea mixcoatl,Plethodontidae,DD,IUCN3.1
Pseudoeurycea longicauda,Plethodontidae,EN,IUCN3.1
Pseudoeurycea leprosa,Plethodontidae,VU,IUCN3.1
Pseudoeurycea juarezi,Plethodontidae,EN,IUCN3.1
Pseudoeurycea goebeli,Plethodontidae,EN,IUCN3.1
Pseudoeurycea gadovii,Plethodontidae,EN,IUCN3.1
Pseudoeurycea firscheini,Plethodontidae,EN,IUCN3.1
Pseudoeurycea exspectata,Plethodontidae,CR,IUCN3.1
Pseudoeurycea conanti,Plethodontidae,DD,IUCN3.1
Pseudoeurycea cochranae,Plethodontidae,EN,IUCN3.1
Pseudoeurycea brunnata,Plethodontidae,CR,IUCN3.1
Pseudoeurycea aurantia,Plethodontidae,DD,IUCN3.1
Pseudocallulops eurydactylus,Microhylidae,DD,IUCN3.1
Pseudobufo subasper,Bufonidae,LC,IUCN3.1
Pseudis tocantins,Hylidae,LC,IUCN3.1
Pseudis paradoxa,Hylidae,LC,iucn3.1
Pseudis fusca,Hylidae,LC,IUCN3.1
Pseudis cardosoi,Hylidae,LC,IUCN3.1
Pseudis bolbodactyla,Hylidae,LC,IUCN3.1
Pseudepidalea pewzowi,Bufonidae,LC,IUCN3.1
Pseudepidalea oblonga,Bufonidae,LC,IUCN3.1
Pseudepidalea latastii,Bufonidae,LC,iucn3.1
Pseudepidalea brongersmai,Bufonidae,NT,IUCN3.1
Pseudacris fouquettei,Hylidae,LC,iucn3.1
Probreviceps uluguruensis,Microhylidae,VU,IUCN3.1
Probreviceps rungwensis,Microhylidae,VU,IUCN3.1
Probreviceps rhodesianus,Microhylidae,EN,IUCN3.1
Probreviceps macrodactylus,Microhylidae,VU,IUCN3.1
Praslin's caecilian,Indotyphlidae,VU,IUCN3.1
Pouched frog,Myobatrachidae,VU,IUCN3.1
Potomotyphlus,Typhlonectidae,LC,IUCN3.1
Porto Alegre golden-eyed tree frog,Hylidae,LC,IUCN3.1
Porthole tree frog,Hylidae,VU,IUCN3.1
Pool frog,Ranidae,LC,IUCN3.1
Polypedates zed,Rhacophoridae,DD,IUCN3.1
Polypedates teraiensis,Rhacophoridae,DD,IUCN3.1
Polypedates taeniatus,Rhacophoridae,LC,IUCN3.1
Polypedates megacephalus,Rhacophoridae,LC,IUCN3.1
Polypedates maculatus,Rhacophoridae,LC,iucn3.1
Polypedates hecticus,Rhacophoridae,DD,IUCN3.1
Polypedates cruciger,Rhacophoridae,LC,IUCN3.1
Polypedates colletti,Rhacophoridae,LC,IUCN3.1
