col0,col1,col2,col3
William H. Welch House,1891,1976-01-07,76002186
William H. Waterhouse House,1884,1983-02-02,83001434
William H. Vincent House,1889,2004-01-16,3001444
William H. Van Epps House,1855,1982-02-11,82002581
William H. Trusty House,1897,1979-06-22,79003280
William H. Towles House,1885,2008-05-29,8000463
William H. Smith House,1857,1992-11-27,92001630
William H. Seward House,1816,1966-10-15,66000504
William H. Roberts House,1883,1979-09-06,79000877
William H. Ray House,1898,1982-07-23,82004178
William H. Phipps House,1884,1987-06-18,87000991
William H. Moore House,1898,1972-03-16,72000878
William H. McGuffey Primary School,1915,2009-12-23,9001156
William H. McGuffey House,1833,1966-10-15,66000605
William H. McGuffey Boyhood Home Site,1802,1966-10-15,66000617
William H. McElwain School,1912,2013-01-14,12001170
William H. McCreery House,1900,2001-05-02,1000445
William H. Martin House,1904,1986-06-11,86001320
William H. Long Memorial,1890,1977-07-15,77000092
William H. Long House,1917,1982-04-15,82003499
William H. Lightle House,1881,1991-09-05,91001226
William H. Lewis Model House,1911,1990-03-06,90000274
William H. Lee House,1820,2012-04-16,12000213
William H. Hull House,1887,2006-02-01,5001602
William H. Holcomb House,1872,1973-10-25,73000714
William H. Harrison School,1928,1988-11-18,88002278
William H. H. Graham House,1889,1982-07-15,82001857
William H. Grogan House,1890,2008-09-10,8000890
William H. Griffitts House,1854,1989-03-02,89000141
William H. Grant House,1857,1969-04-16,69000356
William H. Grant House,1855,1978-03-30,78002136
William H. Emery Jr. House,1903,2004-05-12,4000421
William H. Cook Water Tank House,1915,1983-09-08,83004211
William H. Burton House,1870,1996-06-14,96000675
William H. Berg House,15,1984-01-11,84002076
William H. & William S. Edwards House,1871,1990-05-11,90000713
William Gunnell House,1750,2003-05-22,3000447
William Griffin Fuller House,1850,1984-04-13,84002621
William Green House,1853,1999-04-29,99000488
William Green House,1717,1973-12-04,73001106
William Gooch Tomb and York Village Archeological Site,1655,1974-01-18,74002153
William Gonnerman House,1887,1985-12-19,85003192
William Goadby Loew House,1931,1982-07-15,82003384
William Gibbs House,1845,1989-09-28,89001561
William Gibbes House,1775,1970-04-15,70000575
William Gedamke House,1900,1989-11-13,89001970
William Gaston Caperton Jr. House,1773,1991-11-21,91001733
William Garrett Plantation,1861,1977-03-25,77001474
William Gabbert House,1873,1983-07-07,83002435
William G. and Anne Williams House,1900,2005-06-01,5000531
William G. Smith House,1894,1984-04-05,84001566
William G. Smith House,1790,1988-04-28,88000417
William G. Morgan House,1726,1984-01-12,84003489
William G. Milne House,1902,1994-12-01,94001391
William G. LeDuc House,1865,1970-06-22,70000292
William G. Harrison House,1904,1995-01-30,94001636
William G. Blakeley House,1887,1986-05-14,86001115
William Friend Young House,1885,1987-06-09,87000834
William Frick House,1903,1980-09-18,80004292
William Franklin and Rebecca Durell House,1872,1996-11-07,96001292
William Fountain House,1854,1983-05-06,83000021
William Foster House,1720,1990-03-09,90000191
William Forst House,1820,1973-07-19,73000816
William Fogg Library,1907,1991-12-21,91001817
William Floyd House,1774,1980-10-15,71000066
William Fitzgerald Block,1887,2012-05-01,12000293
William Fisher Polygonal Barn,1914,1993-04-02,93000188
William Findley House,1860,1978-06-09,78001213
William Fields House,1875,1985-12-05,85003084
William Ferguson Farm,1741,1980-04-10,80003460
William Ferdon House,1835,2011-05-18,11000292
William F. Tuckerman House,1856,1985-10-17,85003321
William F. Pierce House,1840,1983-11-17,83003446
William F. Perry Monument,1901,1997-07-17,97000664
William F. Perry House,1870,1975-09-25,75000098
William F. Norton House,1900,1982-07-08,82000741
William F. Mangels Four-Row Carousel,1914,1987-08-26,87001383
William F. Kessler House,1913,1990-02-16,90000048
William F. Jahn Farmstead,1855,2000-08-10,978
William F. Grant House,1850,2006-05-17,6000396
William F. Bradbury House,1877,1983-06-30,83000784
William Everhart House,1810,1984-08-02,84003249
William Everhart Buildings,1833,1979-07-17,79002206
William Erwin House,1850,1980-04-11,80002774
William Enston Home,1884,1996-04-25,96000493
William English House,1881,1982-06-02,82003562
William Ellixson House,1800,1988-04-28,88000404
William Elliott White House,1831,1987-03-22,87000381
William Edwards Farmhouse,1840,1989-10-04,89001455
William Edward Mattocks House,1901,1989-03-22,89000166
William Edgar Haymond House,1894,2004-04-21,4000356
William E. Wheeler House,1880,2002-01-11,1001435
William E. Wells House,1907,2009-04-23,9000244
William E. Ward House,1873,1976-11-07,76001294
William E. Smith House,1912,1982-06-24,82003480
William E. Mohler House,1900,1983-02-10,83003242
William E. Metzger House,1905,2007-08-22,7000841
William E. Faison House,1870,2005-01-20,4001526
William E. Ervin House,1836,1989-12-01,89002053
William E. Drummond House,1909,1970-03-05,70000241
William E. Dodge House,1863,1977-08-28,77000934
William E. Curtis House,1905,1987-08-27,87001424
William E. Breese Sr. House,1891,1980-04-28,80002803
William E. Brainard House,1888,1979-03-01,79002128
"William E. Borah Apartment, Windsor Lodge",1913,1976-12-08,76002134
William E. Boeing House,1914,1988-12-16,88002743
William E. Alden House,1882,1989-06-22,89000562
William Dyas Barn,1850,1991-08-30,91001078
William Dunlap Simpson House,1839,1974-07-24,74001862
William Dorsheimer House,1868,1980-11-21,80002607
William Donaldson House,1888,1990-04-26,90000699
William Dixon Fowler House,1901,2012-02-08,12000016
William Dillard Homestead,1837,1985-09-17,85002214
William Deaver House,1832,1979-08-13,79001755
William Dean Howells House,1870,1979-10-25,79000270
William Dean Howells House,1873,1982-04-13,82001949
William De Clark House,1776,1983-01-09,83001488
William DePuy House,1851,1989-08-31,89001127
William Davis Miller House,1934,1985-03-21,85000627
William Dahl House,1858,1998-04-01,78001557
William D. Weeks Memorial Library,1906,2000-12-01,1464
William D. Roberts House,1875,1984-07-24,84002430
William D. Fenton House,1892,1979-08-29,79002145
William D. Bishop Cottage Development Historic District,1840,1982-06-28,82004388
William Curtis House,1839,1986-09-04,86001788
William Culmer House,1881,1974-04-18,74001935
William Cullen Bryant Homestead,1799,1966-10-15,66000136
William Culbertson House,1875,1985-08-29,85001880
William Crawford House,1815,1992-11-12,92001496
William Covert Cobblestone Farmhouse,1832,1995-11-07,95001280
William Cornell Homestead,1863,1973-08-14,73000015
William Cook House,1840,1993-11-22,93001194
William Cook House,1876,1982-04-13,82001934
William Collins House,1800,1983-02-16,83000654
William Colburn House,1780,1973-06-19,73000134
William Cocke House,1850,1980-07-03,80003799
William Claussen House,1855,1983-07-07,83002412
William Clark House,1879,1977-11-10,77000863
William Chapline House,1790,1976-10-08,76001020
William Cauldwell House,1892,2009-05-04,9000305
William Carter House,1834,1990-03-15,90000349
William Carlos Williams House,1913,1973-06-04,73001082
William Campbell House,1790,1984-11-29,84000415
William C. and Hertha Dau House,1937,1993-07-29,93000654
William C. and Clara Hagerman House,1923,2015-03-17,15000076
William C. Van Arsdel House,1907,1984-09-20,84001246
William C. Sharpless House,1886,1983-12-29,83004249
William C. Nell House,1851,1976-05-11,76001979
William C. Mooney House,1880,1982-03-15,82003615
