col0,col1,col2,col3,col4
1916 Boreas,14,1953-09-01,492850185021,186847740504
1915 Quetzálcoatl,18,1953-03-09,597927729400,163495512888
19139 Apian,13,1989-04-06,416454337280,356662686324
1912 Anubis,11,1960-09-24,474569325221,393980952275
1911 Schubart,10,1973-10-25,697455192777,495513027119
1910 Mikhailov,11,1972-10-08,478623427517,432188248452
190 Ismene,7,1878-09-22,695330903013,497383000503
1909 Alekhin,12,1972-09-04,444290716191,280481047775
1907 Rudneva,12,1972-09-11,396928030328,364674729405
1906 Naef,12,1972-09-05,403136341962,306944911102
1905 Ambartsumian,12,1972-05-14,386545938101,278775632049
1904 Massevitch,11,1972-05-09,440401171553,380502184125
1902 Shaposhnikov,9,1972-04-18,724981200986,461389752812
1900 Katyusha,12,1971-12-16,375086741206,285866571120
19007 Nirajnathan,14,2000-09-02,393594555935,284530243261
18 Melpomene,6,1852-06-24,418414000000,268472000000
189 Phthia,9,1878-09-09,380202988384,353006095490
1897 Hind,13,1971-10-26,390345724017,292763032959
188 Menippe,9,1878-06-18,486821390831,339452528405
1889 Pakhmutova,11,1968-01-24,513509650964,410735913793
18880 Toddblumberg,14,1999-12-10,568276264564,390950907243
1887 Virton,11,1950-10-05,500748952594,398453928609
187 Lamberta,8,1878-04-11,506478551041,309592793413
1879 Broederstroom,12,1935-10-16,385812908535,286135847287
1877 Marsden,10,1971-03-24,712190583041,466565839139
1873 Agenor,10,1971-03-25,855625021468,711113478372
1870 Glaukos,10,1971-03-24,810132308988,760106781026
186 Celuta,8,1878-04-06,406188138524,300452363513
1869 Philoctetes,11,1960-09-24,833963249791,730770638582
1868 Thersites,9,1960-09-24,882552638194,709093907118
1867 Deiphobus,8,1971-03-03,800348608245,734106671099
1866 Sisyphus,12,1972-12-05,435838436497,130754522906
1865 Cerberus,16,1971-10-26,237022866337,86120502204
1864 Daedalus,14,1971-03-24,352856497620,84187697715
1863 Antinous,15,1948-03-07,543040270641,133113681327
1862 Apollo,16,1932-04-24,343102716450,96788326364
1861 Komenský,11,1970-11-24,480717797707,422778542385
18610 Arthurdent,14,1998-02-07,462751093436,299345339270
185 Eunike,7,1878-03-01,462616455352,356686203110
1859 Kovalevskaya,10,1972-09-04,528738714202,432457524619
1858 Lobachevskij,11,1972-08-18,434821170976,372483738255
1857 Parchomenko,12,1971-08-30,380621862422,290593863834
1856 Růžena,12,1969-10-08,361189099018,308126734280
1855 Korolev,12,1969-10-08,364495211960,307932257048
1854 Skvortsov,12,1968-10-22,432592162703,326796548544
1853 McElroy,10,1957-12-15,481376028338,435554200543
1852 Carpenter,11,1955-04-01,477965196886,424214681943
1851 Lacroute,12,1950-11-09,553856196692,374727706316
1850 Kohoutek,12,1942-03-23,379185722863,294378689963
184 Dejopeja,8,1878-02-28,508707559315,444919027248
1849 Kresák,11,1942-01-14,464127393846,448958169757
1848 Delvaux,11,1933-08-18,448898330609,410152482098
1847 Stobbe,11,1916-02-01,398708244989,382207599851
1846 Bengt,13,1960-09-24,399590872426,300138207985
1845 Helewalda,11,1972-10-30,469303480172,418754359663
1844 Susilva,10,1972-10-30,474344928415,427805030840
1842 Hynek,12,1972-01-14,400398700928,277489090361
1841 Masaryk,10,1971-10-26,563280862546,460970878774
1840 Hus,11,1971-10-26,443946641089,429121492102
183 Istria,9,1878-02-08,564103650835,270996542773
1837 Osita,12,1971-08-16,358541216706,301454669247
1836 Komarov,12,1971-07-26,496844448168,336370812268
1835 Gajdariya,11,1970-07-30,461359833238,387278967668
1834 Palach,11,1969-08-22,483904232353,420968408149
1832 Mrkos,11,1969-08-11,531311797578,430572591448
1831 Nicholson,12,1968-04-17,377734623517,292284319773
1830 Pogson,12,1968-04-17,345675799826,309009361717
182 Elsa,9,1878-02-07,428463261471,294423569324
1827 Atkinson,12,1962-09-07,477516403274,333438694003
1826 Miller,11,1955-09-14,485998602543,409898165718
1825 Klare,11,1954-08-31,446624442974,354531993771
1824 Haworth,11,1952-03-30,449855756981,412875163344
1823 Gliese,12,1951-09-04,378183417129,287811343439
1822 Waterman,13,1950-07-25,374443470362,274766409114
181 Eucharis,7,1878-02-02,563445420204,372917572080
1818 Brahms,13,1939-08-15,381594248581,265850376020
1817 Katanga,11,1939-06-20,422613984727,286779118131
1815 Beethoven,11,1932-01-27,560453462790,383643739410
18117 Jonhodge,14,2000-07-05,382660507404,320956277591
1810 Epimetheus,12,1960-09-24,363328348569,302008181369
180 Garumna,10,1878-01-29,474554365434,340170598184
1809 Prometheus,11,1960-09-24,482737368961,392799129096
1807 Slovakia,12,1971-08-20,392320415910,273898741464
1806 Derice,12,1971-06-13,370164971260,299031183742
1805 Dirikis,11,1970-04-01,522320965549,417273340743
1804 Chebotarev,12,1967-04-06,368339877237,352811618258
1803 Zwicky,12,1967-02-06,438501278595,264429196249
1801 Titicaca,11,1952-09-23,482886966832,420714091769
1800 Aguilar,12,1950-09-12,400712856457,304521425596
17 Thetis,7,1852-04-17,419069000000,319991000000
179 Klytaemnestra,8,1877-11-11,495049273720,393786475043
1799 Koussevitzky,11,1950-07-25,507256459969,398453928609
1798 Watts,12,1949-04-04,369162665526,288813649173
1796 Riga,9,1966-05-16,530369330992,473447341191
1793 Zoya,12,1968-02-28,365123523017,300302765643
1791 Patsayev,11,1967-09-04,469393238895,353170653148
1790 Volkov,12,1967-03-09,368534354469,301140513719
178 Belisana,9,1877-11-06,383913015577,352288025711
1789 Dobrovolsky,12,1966-08-19,393636877172,268617936628
1788 Kiess,11,1952-07-25,539629439189,394250228442
1784 Benguella,12,1935-06-30,407728996592,311747002751
1783 Albitskij,12,1935-03-24,450723424632,346004915142
1781 Van Biesbroeck,12,1906-10-17,396928030328,319466252879
1780 Kippes,10,1906-09-12,475407073297,427057041487
177 Irma,9,1877-11-05,512522305018,315801105047
1779 Paraná,14,1950-06-15,377944060536,272836596582
17795 Elysiasegal,14,1998-03-20,419173233701,296547859088
1778 Alfvén,11,1960-09-26,530967722475,410885511664
1777 Gehrels,11,1960-09-24,399650711575,386112104276
1776 Kuiper,11,1960-09-24,470260906545,458023800722
1772 Gagarin,12,1968-02-06,417811893078,338255745439
1771 Makover,10,1968-01-24,549368260571,385079878968
176 Iduna,8,1877-10-14,557027671551,396823311818
1768 Appenzella,12,1965-09-23,432098489729,300946036487
17683 Kanagawa,12,1997-01-10,517025200926,375700092475
1767 Lampland,12,1962-09-07,496904287317,406053500441
1766 Slipher,12,1962-09-07,447312593180,374937143335
1765 Wrubel,9,1957-12-15,559391317908,391886582085
1764 Cogshall,11,1953-11-07,518850294948,406726690859
1763 Williams,12,1953-10-13,394235268655,260509732036
1762 Russell,11,1953-10-08,463663640447,396524116077
1761 Edmondson,11,1952-03-30,585660704003,364525131534
1760 Sandra,11,1950-04-10,531132280133,410047763588
175 Andromache,8,1877-10-01,587381079516,365647115564
1759 Kienle,13,1942-09-11,521198981518,271101261282
1757 Porvoo,13,1939-03-17,396105242039,307438584075
1755 Lorbach,10,1936-11-08,484562462984,439982297515
1754 Cunningham,9,1935-03-29,689002913082,489693669949
1753 Mieke,11,1934-05-10,487973294436,413653072272
1751 Herget,11,1955-07-27,490277101645,344134941758
1750 Eckert,13,1950-07-15,337986469272,238488925469
174 Phaedra,8,1877-09-02,488556726132,367591887884
1749 Telamon,9,1949-09-23,852992098944,687521894163
1748 Mauderli,10,1966-09-07,720388546355,455899510958
