col0,col1,col2,col3,col4
Fire Emblem Gaiden,S. Kaga,Y. Tsujiyoko,Nintendo,Gunpei Yokoi
Fire Emblem: Shadow Dragon and the Blade of Light,S. Kaga,Y. Tsujiyoko,Nintendo,Gunpei Yokoi
Fire Emblem: Mystery of the Emblem,S. Kaga,Y. Tsujiyoko,Nintendo,Gunpei Yokoi
Fire Emblem: Genealogy of the Holy War,S. Kaga,Y. Tsujiyoko,Nintendo,Gunpei Yokoi
Final Fantasy XV,K. Nojima,Y. Shimomura,Square Enix,Shinji Hashimoto
Final Fantasy XIII-2,D. Watanabe,M. Hamauzu,Square Enix,Yoshinori Kitase
Final Fantasy XIII,D. Watanabe,M. Hamauzu,Square Enix,Yoshinori Kitase
Final Fantasy XI,M. Kato,K. Tanioka,Sony Computer Entertainment,Hiromichi Tanaka
Final Fantasy X/X-2 HD Remaster,K. Nojima,N. Uematsu,Square Enix,Yoshinori Kitase
Final Fantasy VII,K. Nojima,N. Uematsu,Eidos Interactive,Hironobu Sakaguchi
Final Fantasy IX,H. Sakaguchi,N. Uematsu,Square,Hironobu Sakaguchi
Final Fantasy II,K. Terada,N. Uematsu,Square,Masashi Miyamoto
Final Fantasy Crystal Chronicles: The Crystal Bearers,A. Kawazu,K. Tanioka,Square Enix,Akitoshi Kawazu
Final Fantasy Crystal Chronicles: My Life as a King,M. Toriyama,K. Tanioka,Square Enix,Toshiro Tsuchida
