col0,col1,col2,col3
El Jueves,A. Monteys,1695-4181,Director
Ebony,B. Monroe,0012-9011,Editor-In-Chief
Dazed,Rankin,0961-9704,Editor
Das Gedicht,M. Politycki,0943-0776,Editor
Cadence Magazine,B. Rusch,0162-6973,Coordinating Editor
Bidoun,T. Zolghadr,1551-4048,Editors
Balarama,N. M. Mohanan,0975-0339,Editor-in-Chief
Artes,Ö. Sjöstrand,0345-0015,Editor
Armed Forces Journal,J. C. O'Laughlin,0196-3597,Editor
Apollo,O. Humphries,0003-6536,Editor
American Literary Review,S. Cairns,1051-5062,Editor-in-chief
America,T. J. Reese,0002-7049,Editor
