col0,col1,col2,col3,col4,col5
V. Kljaić,Croats,RK Medveščak,Socialist Federal Republic of Yugoslavia,1946-02-10,2010-08-12
M. Vadász,Hungary,Vasas SC,Környe,1950-01-01,2009-08-18
M. Cozma,Romania,HC Dinamo Bucureşti,Bucharest,1982-09-08,2009-02-08
M. Vadász,Hungary,Vasas SC,Környe,1950-01-01,2009-08-18
L. Györy,Croats,RK Zagreb,Croatia,1930-05-28,2012-03-28
D. Ožbolt,Croats,RK Zamet,Socialist Federal Republic of Yugoslavia,1967-12-13,2003-05-28
A. Kulcsár,Hungary,Győri ETO KC,Szerencs,1976-10-02,2005-01-19
