col0,col1,col2,col3
Ausable Club,Wilson Brothers & Company,28327,2005-07-06
Augustine Hansell House,J. Wind,11735,1970-06-22
Auditorium Building,L. Sullivan,6289,1970-04-17
Auditorium,A. W. Eager,1618,1983-10-13
Auburn,L. Weeks,16996,1974-05-30
Atlantic Heights Development,K. &. Hopkins,323748,2006-09-20
Atlanta Women's Club,W. T. Downing,4046,1979-01-31
Atlanta Ranger Station,C. C. Corps,97124,2003-01-23
Atkins Park,E. W. Grove,109265,1982-08-30
Athenæum,V. &. Bohn,4046,1973-02-21
Athens Governmental Buildings,J. K. Taylor,15782,1979-11-29
Athenæum,V. &. Bohn,4046,1973-02-21
"Atchison Village, Richmond, California",J. C. Warnecke,122215,2003-05-30
"Atchison, Topeka and Santa Fe Passenger Depot",E. A. Harrison,29542,1979-09-10
Astoria Fire House No. 2,E. Schacht,4046,1984-09-07
Association Residence Nursing Home,R. M. Hunt,4046,1975-02-20
Assay Office,A. B. Mullett,8093,1966-10-15
Asilomar Conference Grounds,J. Morgan,36421,1987-02-27
Ashland Springs Hotel,T. &. Hummel,7689,1978-03-14
Ashland Masonic Lodge Building,F. C. Clark,404,1992-06-04
Ashe County Courthouse,W. &. Runge,4046,1979-05-10
Ash Lawn–Highland,J. Monroe,809371,1973-08-14
Asbury United Methodist Church,R. H. Hunt,4046,1980-02-29
Arthur Heurtley House,F. L. Wright,809,2000-02-16
Arthur Champlin Spencer and Margaret Fenton Spencer House,E. F. Lawrence,809,1999-08-05
Arrowmont School of Arts and Crafts,A. H. Wilson,20234,2007-03-20
Aroostook County Courthouse and Jail,Gridley James Fox Bryant,8093,1990-01-26
Arnold Arboretum,F. L. Olmsted,1137166,1966-10-15
"Arlington House, The Robert E. Lee Memorial",G. Hadfield,113635,1966-10-15
Arizona State Capitol,J. R. Gordon,8093,1974-10-29
Argyle Flats,C. &. Burrows,4046,1983-07-07
Arecibo Observatory,T. C. Kavanagh,477529,2008-09-23
Ardmore Historic District,N. &. O'Brien,2428113,2004-08-25
Arden,C. a. Hastings,1821085,1966-11-13
Architecture of Henry K. Holsman Historic Campus District,H. K. Holsman,48966,1983-10-31
Arbor Lodge State Historical Park and Arboretum,F. L. Olmsted,291373,1969-04-16
Arapahoe Acres,E. Sternberg,121405,1998-11-03
Arabella Station,Y. B. Co.,6879,1996-01-04
Apex Union Depot,Seaboard Air Line Railway,404,1988-12-01
"Antioch Hall, North and South Halls",B. &. Ball,12140,1975-06-30
Anoatok,C. &. Stewardson,40468,1986-01-07
Annawan Chapter House,"Helfensteller, Hirsch & Watson",404,1980-11-28
Annamede,B. &. Kluttz,65154,1987-03-11
Anna P. Bolling Junior High School,R. C. M.,7689,1998-10-30
Anna Lewis Mann Old People's Home,M. H. Whitehouse,12545,1992-10-15
Ann Halsted House,A. &. Sullivan,1618,1973-08-17
