col0,col1,col2,col3
O. Mitchell,1899-1-1,1989-07-05,122–85–9 (college)
O. W. Saylor,1887-08-15,1971-03-07,1&ndash;7 ()
O. L. Owens,1877-02-21,1954-10-25,3-3-1
O. A. Hankner,1908-06-18,1946-10-03,1-14 (football)
O. Tutein,1943-02-26,2010-10-07,20–32
N. Passmore,1915-04-01,2003-03-16,1–1
N. G. Wann,1882-07-08,1957-07-23,128–79 (basketball)
N. C. Paine,1893-01-06,1955-02-13,16–11–3 (football)
N. Sloan,1926-06-25,2003-12-09,627&ndash;395 ()
N. Rathje,1936-04-27,2011-12-09,9–9
N. Ellenberger,1932-08-02,2015-11-15,164–98 (college basketball)
N. Daniels,1907-03-25,2009-05-11,253–261–6 (baseball)
N. R. III,1964-07-16,2012-05-13,23–41
N. Kizer,1900-03-11,1940-06-13,42–13–3
N. Nicolau,1933-05-05,2014-12-06,24–22
N. Nicholson,1925-12-03,2010-09-29,28–30–1
N. Kotys,1913-04-03,2005-07-28,160&ndash;33&ndash;9 ()
N. Price,1889-04-26,1968-01-13,27&ndash;17&ndash;3 (football)
N. Stokley,1944-03-12,2010-06-10,62–80–1
N. Norgren,1891-09-10,1974-12-31,13–11 (football)
N. Nitchman,1908-12-21,1991-03-04,130–146 (basketball)
N. A. Kellogg,1881-0-0,1945-11-23,26–17 (baseball)
N. Wulk,1920-08-14,2003-11-15,Baseball: 61-39-1
N. Thompson,1910-01-10,2011-12-22,1–5
N. McGehee,1907-04-09,1989-03-03,25-20-3
N. McDonald,1910-01-02,1977-02-08,5-23
N. Harkness,1919-09-19,2008-09-19,384-131-11
N. Mehring,1910-03-01,1995-01-10,11&ndash;4
N. Stauffer,1875-01-01,1959-06-06,49–26–4
N. Mannakee,1879-02-14,1965-07-09,8–7–1
N. Dougherty,1886-03-23,1977-05-18,5–9
N. Holman,1896-10-19,1995-02-12,421–190 ()
N. Higgins,1896-02-29,1984-10-29,36–39–5 ()
M. E. Witham,1880-10-29,1973-03-07,29–25 (baseball)
M. Warmath,1912-12-26,2011-03-16,97–84–10
M. Greason,1901-12-26,1960-01-01,288–244 (.541)
M. Lenoir,1897-01-19,1979-05-11,79–18–2
M. Waters,1923-01-30,2006-09-20,173–96–7
M. S. Halliday,1883-04-28,1943-05-17,1–5-2
M. Higginbotham,1925-06-06,2011-06-13,190–73–8 (high school)
M. Jennings,1890-01-23,1985-05-13,120–79 (baseball)
M. Fraser,1922-06-15,2004-06-28,80&ndash;42&ndash;1
M. Krause,1913-02-02,1992-12-11,155–114 (basketball)
M. Ducote,1897-08-28,1937-03-26,4–9 (baseball)
M. Sarno,1914-09-21,1997-11-09,11–7–1 (college)
M. McIntire,1884-09-30,1963-01-10,24–11–-4
M. McDonald,1901-02-21,1977-09-02,20–5
M. Olander,1899-01-25,1961-12-30,12–1–1
M. Goering,1923-10-12,2009-10-15,14&ndash;28&ndash;2 ()
M. Drewer,1923-03-10,2012-10-17,21–46–2
M. Bruhn,1912-07-28,1991-05-14,52–45–6 (football)
M. W. Casteel,1895-12-30,1977-0-0,46–26–3
M. O. Noll,1862-3-30,1905-11-27,0&ndash;2 ()
M. Pecarovich,1898-09-23,1965-03-22,44&ndash;57&ndash;7
M. Milligan,1904-05-27,1978-1-1,0–10 (basketball)
M. McGlinchey,1944-12-28,1997-03-24,91&ndash;49&ndash;6
M. Gary,1900-04-17,1969-12-30,59–34–5
M. Dunbar,1948-12-31,2013-09-13,29–15
M. Donahue,1876-06-14,1960-12-11,0–7 (tennis)
M. DeLotto,1912-07-17,1983-10-30,13–10
M. Cooley,1927-0-0,1988-06-13,5&ndash;21&ndash;1
M. Brumbelow,1906-07-13,1977-08-11,22–64 (basketball)
M. Ahearn,1878-11-28,1948-02-05,28–27 (basketball)
M. Sullivan,1932-02-06,2012-03-22,649–428–3
M. Stimack,1922-05-25,2006-10-29,15&ndash;29&ndash;1
M. C. Jr.,1884-10-24,1967-06-07,7–0–1
M. Schlosser,1923-10-17,1993-1-1,28–33–3
M. J. Binford,1903-02-08,1984-09-12,111–90 (basketball)
M. Whedbee,1904-02-14,1974-7-1,24–18–2
M. Taube,1904-12-20,1979-06-15,201–142 (basketball)
M. Merritt,1897-11-11,1986-08-22,8–15–2
M. Krause,1928-02-04,2008-06-13,218–220–1
M. Brewer,1918-0-0,1977-0-0,12–10 (football)
M. Street,1898-12-12,1993-01-05,15–14 (basketball)
M. O'Brien,1907-01-12,1990-03-16,27-50-1
M. Lambright,1924-0-0,1980-01-28,95–36–2
M. Eiden,1911-0-0,1954-08-22,17–23–1 (football)
M. Kent,1885-09-17,1966-04-19,112–145–3 (baseball)
M. John,1919-06-17,1974-10-15,243-156 (.609)
M. Waterbury,1875-09-26,1947-06-25,2&ndash;5&ndash;1 ()
"Maurice J. ""Clipper"" Smith",1898-10-15,1984-03-18,109–75–12 (college football)
M. Bell,1899-02-22,1983-06-30,143–87–16 (football)
M. W. Bullock,1881-09-11,1972-12-17,26–14–6
M. McClung,1868-12-01,1908-03-03,5–2 (football)
M. May,1935-10-27,2010-11-28,64–64–3
M. B. Thomas,1866-12-16,1912-03-06,1&ndash;3
M. O. Bridges,1878-04-01,1960-11-10,0–5
M. M. Dickinson,1877-12-31,1951-04-20,18–14 (baseball)
M. Bass,1919-08-28,2010-12-03,28–37–4 (college football)
M. Harshman,1917-10-04,2013-04-12,637-444 ()
M. Brill,1906-03-13,1973-04-30,3–3–1 (NFL)
M. V. Bergen,1872-01-29,1941-07-08,38–22–6
M. Smallwood,1873-04-30,1949-11-21,4–4
M. Caine,1883-11-17,1953-04-07,2–2
M. Klevenow,1901-03-18,1976-11-04,7–13–1
M. Glenn,1908-04-22,1983-10-11,14–12–3 (football)
M. W. Williams,1925-05-31,2013-10-25,12-24-0
M. L. Booth,1911-11-30,1988-01-28,2&ndash;6
M. C. Sr.,1882-11-12,1956-05-16,63–40–7
M. Cutler,1875-01-14,1949-08-16,3&ndash;3 ()
M. Schwartz,1909-03-20,1991-04-18,47&ndash;50&ndash;6
M. Huerta,1924-10-31,1985-10-08,104–53–2
M. Pitt,1897-01-10,1985-09-16,197–169 (basketball)
M. McBride,1878-08-22,1941-12-21,12–0
M. Laney,1910-1-1,1985-03-24,Basketball: 10–5
M. Griffin,1877-07-09,1948-10-17,2–3
M. Sullivan,1893-08-21,1967-07-24,8–6
M. Dixon,1977-05-09,2006-04-06,20-11 (.645)
M. G. Gonterman,1871-02-08,1941-09-30,16–8–2
M. Saxon,1901-1-1,1949-05-08,17&ndash;4 (baseball)
M. Flenniken,1905-01-24,1956-05-26,7-11-1 (0.395)
M. S. Harvey,1881-02-09,1958-06-03,8–7–3
M. L. Shearer,1901-08-30,1964-05-13,0–5 ()
M. F. D'Eliscu,1895-11-10,1972-10-15,1–9–1 (football)
M. B. Banks,1883-06-05,1970-01-12,100–78–4 (baseball)
L. S. John,1876-11-18,1950-09-30,146&ndash;112 (basketball)
L. Bell,1883-11-18,1959-05-30,1–2
L. Frimodig,1891-10-09,1972-5-1,24&ndash;20
L. E. Abbott,1912-03-01,1981-01-17,12–20–1
L. Bennett,1903-6-23,2005-03-24,8&ndash;15&ndash;1 (football)
L. Clark,1904-07-04,1971-01-30,5–18–1
L. Burleson,1880-11-16,1924-11-17,10–9 (basketball)
L. Urban,1898-03-22,1980-12-07,247–91 (high school basketball)
L. Fiser,1908-10-26,1990-08-25,1–7 (college football)
L. H. Biglow,1885-02-28,1961-07-09,7&ndash;1&ndash;1
L. Young,1923-01-21,2015-03-25,5–2–1 (football)
L. Dana,1891-02-26,1937-12-06,8–7–2
L. Hill,1907-03-23,1989-08-28,343–325–5 (baseball)
L. Wenzell,1888-02-10,1955-08-13,9–0 ()
L. Ost,1892-03-08,1960-07-11,3&ndash;5 ()
L. Menze,1894-06-28,1982-10-07,166–153 ()
L. LeTellier,1887-02-08,1975-07-02,8–6–2
L. J. Salmon,1880-06-10,1965-09-27,5–3
L. D. Scherer,1879-06-11,1963-07-16,12–17–3
L. Young,1894-1-1,1948-07-19,49–15–2
L. Rossini,1921-04-24,2005-10-21,357–256
L. Ferry,1927-12-1,1927-12-01,20–26–1
L. Helm,1920-08-15,1945-03-04,0&ndash;8 ()
L. Stiner,1903-06-20,1985-03-08,74–49–17
L. Cunningham,1887-02-22,1964-11-1,7&ndash;1&ndash;1
L. D. Frederickson,1919-09-03,2009-09-18,2&ndash;16 ()
L. Stovall,1911-08-20,1983-10-16,14–13–3
L. Russell,1913-04-10,1968-05-24,"3–5 (football, North Texas only)"
L. Jordan,1900-12-14,1990-02-24,101–72–8 (football)
L. Eaton,1918-03-23,2007-03-14,104–53–5 (college)
L. Stone,1885-05-19,1925-03-22,3–5–1 (football)
L. Yeager,1878-09-10,1906-12-10,12-9-0 (0.571)
L. Omer,1876-08-26,1954-01-03,50&ndash;52&ndash;18 ()
L. Hardage,1891-02-11,1973-08-29,13–17–5 (college football)
L. Lane,1899-10-17,1980-12-24,3–1
L. Selves,1906-07-16,1991-04-18,5–3–1 (McPherson only)
L. Barnard,1894-10-25,1985-06-01,16–4–5 (football)
L. Speck,1913-11-12,2004-08-17,7–13
L. Mann,1892-11-18,1962-01-14,43–30
L. Gillett,1881-02-15,1969-02-20,5–0
L. Leggett,1927-09-03,2011-10-14,15–25–1 (football)
L. Davis,1900-07-31,1966-02-26,7&ndash;9&ndash;1 ()
L. Mercer,1888-10-30,1957-07-02,63–41–7
L. Hornbeck,1875-09-30,1964-10-16,3&ndash;5&ndash;1 ()
L. Buchiet,1892-06-12,1952-03-07,10–14–3 ()
L. Raffensperger,1903-11-06,1974-09-19,110–48–14 (high school)
L. J. Umnus,1903-04-18,1996-04-13,147-71-11
L. Drake,1954-07-16,2010-09-29,74&ndash;196 ()
L. McCarty,1888-06-20,1962-09-18,37–21–1 (baseball)
L. Prendergast,1902-08-25,1967-9-1,3&ndash;15&ndash;1 (football)
L. Harris,1904-08-06,1990-04-22,18–9–1 (football)
L. DeTray,1883-11-20,1967-10-1,10–10 (basketball)
L. Calland,1901-02-24,1984-03-17,38–10 (basketball)
L. Jardine,1937-10-06,2010-10-15,9–44–1 (college)
L. Casanova,1905-06-12,2002-09-30,104–94–11 (college football)
L. C. Turner,1879-02-11,1971-1-1,5–8
L. Williams,1918-06-27,1997-06-11,252–212
L. Tressel,1925-02-12,1981-04-16,155–52–6 (college)
L. Cissel,1932-05-27,1977-10-28,4&ndash;14 ()
L. Sprankle,1894-06-11,1972-09-25,Baseball: 117-61 Basketball: 401-142 Football: 80-38-9
L. Simmons,1911-07-05,1994-10-09,17–15–2
L. McPhee,1899-02-18,1983-11-27,25–27–2
L. Manson,1892-03-19,1972-01-01,1&ndash;5 ()
L. Banks,1880-08-01,1935-09-29,3&ndash;2&ndash;3
L. Bliss,1872-11-28,1942-11-12,7–11
L. Bankart,1887-10-16,1978-08-31,28–7–3
L. Striplin,1929-11-11,2012-01-23,24–17 (basketball)
L. Smith,1939-09-12,2008-01-28,143–126–7 (college)
L. Siemering,1910-11-24,2009-07-27,41–8–4 (college)
L. Quigley,1891-03-14,1956-06-18,22–20–5
L. Panciera,1921-10-11,1998-09-08,297–160–5
L. Mullins,1908-06-13,1968-08-10,89–28–3
L. Kramer,1942-04-06,2014-01-25,127–120–5
L. Jones,1933-12-18,2013-05-30,15–19
L. Hunter,1884-03-06,2016-10-24,361–321 ()
L. Finch,1951-02-16,2011-04-02,220–130
L. Elliott,1935-11-09,2008-04-14,58&ndash;51&ndash;1
L. Lea,1874-11-05,1937-10-20,16–3–2
L. Hoover,1887-02-27,1944-12-18,18-14-4
L. Allen,1914-11-25,1989-05-16,19–18–5
L. Russell,1898-04-06,1980-12-1,56–77–9
