col0,col1,col2,col3
Á. Teherán,"Cartagena, Colombia",Houston Cougars men's basketball,Philadelphia 76ers
Z. Beaty,"Hillister, Texas",Prairie View A&M Panthers basketball,St. Louis Hawks
Z. Zawoluk,Brooklyn,St. John's Red Storm men's basketball,Indianapolis Olympians
Z. Tamane,Latvia,Western Illinois Leathernecks,Detroit Shock
Z. Fredrick,"St. Matthews, South Carolina",South Carolina Gamecocks men's basketball,Los Angeles Lakers
Z. Abdul-Aziz,Brooklyn,Iowa State Cyclones men's basketball,Cincinnati Royals
Z. Randolph,"Marion, Indiana",Michigan State Spartans men's basketball,Portland Trail Blazers
Z. LaVine,"Renton, Washington",UCLA Bruins men's basketball,Minnesota Timberwolves
Y. Joseph,Haiti,Miami Dade College,New Jersey Nets
Y. Larese,New York City,North Carolina Tar Heels men's basketball,Chicago Packers
Y. Moore,"Port Gibson, Mississippi",Ole Miss Rebels women's basketball,Orlando Miracle
Y. Griffith,Chicago,Florida Atlantic Owls women's basketball,Sacramento Monarchs
Y. Dare,Kano,George Washington Colonials men's basketball,New Jersey Nets
X. Thames,"Sacramento, California",San Diego State Aztecs men's basketball,Toronto Raptors
X. McDaniel,"Columbia, South Carolina",Wichita State Shockers men's basketball,Seattle SuperSonics
X. Henry,Ghent,Kansas Jayhawks men's basketball,Memphis Grizzlies
W. B. Free,Atlanta,Guilford Quakers men's basketball,Philadelphia 76ers
W. Sauldsberry,"Winnsboro, Louisiana",Texas Southern Tigers men's basketball,Philadelphia Warriors
W. Garland,"Gary, Indiana",Southeastern Community College,Milwaukee Bucks
W. Crite,"Bakersfield, California",Texas A&M Aggies men's basketball,Phoenix Suns
W. Boynes,"Greenville, South Carolina",San Francisco Dons men's basketball,New Jersey Nets
W. Wilfong,"Puxico, Missouri",Memphis Tigers men's basketball,St. Louis Hawks
W. Chamberlain,Philadelphia,Kansas Jayhawks men's basketball,Philadelphia Warriors
W. Washington,"Norfolk, Virginia",Maryland Terrapins men's basketball,Philadelphia 76ers
W. Chandler,"Benton Harbor, Michigan",DePaul Blue Demons men's basketball,New York Knicks
W. Reed,"Lincoln Parish, Louisiana",Grambling State Tigers men's basketball,New York Knicks
W. Wise,San Francisco,City College of San Francisco,San Francisco Warriors
W. Williams,Miami,Florida State Seminoles men's basketball,Boston Celtics
W. White,"Memphis, Tennessee",Chattanooga Mocs basketball,Denver Nuggets
W. Warren,Dallas,Oklahoma Sooners men's basketball,Los Angeles Clippers
W. Somerset,"Sharon, Pennsylvania",Duquesne Dukes men's basketball,Baltimore Bullets
W. Smith,Las Vegas,Missouri Tigers men's basketball,Chicago Bulls
W. Sims,New York City,LSU Tigers basketball,Denver Nuggets
W. Scott,"Gadsden, Alabama",Alabama State Hornets basketball,Baltimore Bullets
W. Norwood,"Carrollton, Mississippi",Alcorn State Braves basketball,Detroit Pistons
W. Naulls,Dallas,UCLA Bruins men's basketball,St. Louis Hawks
W. McCarter,"Gary, Indiana",Drake Bulldogs men's basketball,Los Angeles Lakers
W. Green,Detroit,Detroit Titans men's basketball,Seattle SuperSonics
W. Cauley-Stein,"Spearville, Kansas",Kentucky Wildcats men's basketball,Sacramento Kings
W. Burton,Detroit,Minnesota Golden Gophers men's basketball,Miami Heat
W. Anderson,"Greenville, South Carolina",Georgia Bulldogs basketball,San Antonio Spurs
W. Njoku,Accra,Saint Mary's University,Indiana Pacers
W. Evans,"Berea, Kentucky",Kentucky Wildcats men's basketball,Rochester Royals
W. Bedford,"Memphis, Tennessee",Memphis Tigers men's basketball,Phoenix Suns
W. Avery,"Augusta, Georgia",Duke Blue Devils men's basketball,Minnesota Timberwolves
W. Solomon,"Hartford, Connecticut",Clemson Tigers men's basketball,Memphis Grizzlies
W. Perdue,"Melbourne, Florida",Vanderbilt Commodores men's basketball,Chicago Bulls
W. Blalock,Boston,Iowa State Cyclones men's basketball,Detroit Pistons
W. Barton,Baltimore,Memphis Tigers men's basketball,Portland Trail Blazers
W. Peck,"Montgomery, Alabama",Mississippi State Bulldogs basketball,San Antonio Spurs
W. Holland,"Columbus, Georgia",New Orleans Privateers,Atlanta Hawks
W. Frazier,"Minden, Louisiana",Grambling State Tigers men's basketball,San Francisco Warriors
W. Robinson,"Uniontown, Pennsylvania",West Virginia Mountaineers men's basketball,Houston Rockets
