col0,col1,col2,col3
A. Wellington,New Jersey,Quebec Bulldogs,1967-09-20
A. Shibicky,British Columbia,New York Rangers,2005-07-09
A. Nicholson,Canada,New York Rangers,2009-06-19
A. Levinsky,Canada,Chicago Blackhawks,1990-09-01
A. Connell,Canada,Montreal Maroons,1958-05-10
A. Guidolin,Ontario,New York Rangers,2015-11-08
A. Pudas,Thunder Bay,National Hockey League,1976-10-28
A. Morel,Canada,Ottawa Hockey Club,1949-09-07
A. Leduc,Canada,Montreal Canadiens,1990-07-31
A. Kerr,"Iroquois Falls, Ontario",Canadian Hockey Association,1941-09-17
