col0,col1,col2,col3,col4,col5
Journal of Experimental Nanoscience,Taylor & Francis,2006,1745-8080,JENOBX,288963937
Journal of Experimental Medicine,Rockefeller University Press,1896,0022-1007,JEMEAV,1390073
Journal of Experimental Botany,Oxford University Press,1950,0022-0957,JEBOA6,474778127
Journal of Evolutionary Biology,Wiley-Blackwell,1988,1010-061X,JEBIEQ,474043725
Journal of European Public Policy,Taylor and Francis,1994,1350-1763,JEPPFG,31227642
Journal of Ethnopharmacology,Elsevier,1979,0378-8741,JOETD7,4649997
Journal of Epidemiology and Community Health,BMJ Group,1947,0143-005X,JECHDR,5385322
Journal of Environmental Radioactivity,Elsevier,1984,0265-931X,JERAEE,38993733
Journal of Environmental Economics and Management,Elsevier,1974,0095-0696,JEEMDI,1796173
Journal of Endocrinology,Bioscientifica,1939,0022-0795,JOENAK,1754564
Journal of Electronic Imaging,SPIE,1992,1017-9909,JEIME5,23553442
Journal of Electroceramics,Springer Science+Business Media,1997,1385-3449,JOELFJ,177653710
Journal of Electrocardiology,Churchill Livingstone,1968,0022-0736,JECAB4,1754562
Journal of Elastomers and Plastics,Sage Publications,1969,0095-2443,JEPLAX,1794056
Journal of Economic Theory,Elsevier,1969,0022-0531,JECTAQ,644497676
Journal of Economic Literature,American Economic Association,1963,0022-0515,JECLB3,1788942
Journal of Economic Dynamics and Control,Elsevier,1979,0165-1889,JEDCDH,5380104
Journal of Economic Behavior and Organization,Elsevier,1980,0167-2681,JEBOD9,38992683
Journal of Econometrics,Elsevier,1973,0304-4076,JECMB6,1788577
Journal of Drug Targeting,Informa,1993,1029-2330,JDTAEH,25218475
Journal of Drug Issues,Sage Publications,1971,0022-0426,JDGIA,1754539
Journal of Documentation,Emerald Group Publishing,1945,0022-0418,JDOCAS,1754538
Journal of Differential Geometry,Lehigh University,1967,0022-040X,JDGEAS,1796299
Journal of Developmental and Behavioral Pediatrics,Lippincott Williams & Wilkins,1980,0196-206X,JDBPD5,5780657
Journal of Development Economics,Elsevier,1974,0304-3878,JDECDF,1292659
Journal of Dermatological Treatment,Informa Healthcare,1989,0954-6634,JDTREY,20763077
Journal of Dentistry,Elsevier,1950,0300-5712,JDENAB,38934487
Journal of Dental Research,Sage Publications,1919,0022-0345,JDREAF,1754534
Journal of Cross-Cultural Gerontology,Springer Science+Business Media,1986,0169-3816,JCCGEB,12823676
Journal of Critical Care,Elsevier,1986,0883-9441,JCCAER,12257697
