col0,col1,col2,col3,col4
1946 Roussillon Grand Prix,Maserati 4CL,Raph,France,Alfa Romeo 308
1946 Marseille Grand Prix,Delahaye,G. Grignard,France,Maserati
1935 Italian Grand Prix,Auto Union,P. Pietsch,Italy,Maserati
1933 Penya Rhin Grand Prix,Bugatti,M. Lehoux,Spain,Nacional Pescara
1932 Italian Grand Prix,Alfa Romeo in motorsport,B. Borzacchini,Italy,Alfa Romeo in motorsport
1932 German Grand Prix,Alfa Romeo in motorsport,B. Borzacchini,Germany,Alfa Romeo in motorsport
1932 French Grand Prix,Alfa Romeo in motorsport,R. Caracciola,France,Bugatti
1931 German Grand Prix,Bugatti,A. Varzi,Germany,Mercedes-Benz
1930 Monza Grand Prix,Maserati in motorsport,E. Maserati,Italy,Alfa Romeo in motorsport
1923 Italian Grand Prix,Harry Miller,J. A. Murphy,Italy,Benz & Cie.
1923 French Grand Prix,Bugatti,E. Friderich,France,Delage
1922 Italian Grand Prix,Bugatti,P. d. Vizcaya,Italy,Fiat
