col0,col1,col2,col3,col4
Mário Ferreira dos Santos,Brazil,1907-01-03,1907-01-03,1968
L. K. Định,"Carthage, Missouri",1914-06-15,1914-06-15,1997
L. d. Poncins,France,1897-11-03,1897-11-03,1975
L. Brunschvicg,Aix-les-Bains,1869-11-10,1869-11-10,1944
L. Taparelli,Papal States,1793-11-24,1793-11-24,1862
L. Wittgenstein,Cambridge,1889-04-26,1889-04-26,1951
L. Klages,"Kilchberg, Zürich",1872-12-10,1872-12-10,1956
L. Feuerbach,German Empire,1804-07-28,1804-07-28,1872
L. Büchner,German Empire,1824-03-29,1824-03-29,1899
Lucretius,Rome,-99-0-0,-99-0-0,-55
L. Vanini,France,1585-1-1,1585-1-1,1619
L. Tesnière,Montpellier,1893-05-13,1893-05-13,1954
L. Jerphagnon,Rueil-Malmaison,1921-09-07,1921-09-07,2011
L. Goldmann,Paris,1913-07-20,1913-07-20,1970
L. Pye,Boston,1921-10-21,1921-10-21,2008
L. Lavelle,Parranquet,1883-07-15,1883-07-15,1951
Louis Gabriel Ambroise de Bonald,Millau,1754-10-02,1754-10-02,1840
L. Blanc,Cannes,1811-10-29,1811-10-29,1882
L. Althusser,Paris,1918-10-16,1918-10-16,1990
L. Cedroni,Rome,1961-05-24,1961-05-24,2013
L. L. Fuller,Munich,1902-06-15,1902-06-15,1978
L. Hixon,New York,1941-12-25,1941-12-25,1995
L. Shestov,Paris,1866-02-12,1866-02-12,1938
L. Kołakowski,Oxford,1927-10-23,1927-10-23,2009
L. Dewart,Toronto,1922-12-18,1922-12-18,2009
L. Polo,Spain,1926-02-01,1926-02-01,2013
L. Strauss,Annapolis,1899-09-20,1899-09-20,1973
L. Gross,"Cambridge, Massachusetts",1903-04-06,1903-04-06,1990
L. Șăineanu,France,1859-04-23,1859-04-23,1934
L. A. Cremin,New York City,1925-10-31,1925-10-31,1990
Laozi,Zhou Dynasty,-579-0-0,-579-0-0,-531
L. Joo,Srinagar,1907-05-09,1907-05-09,1991
L. K. Định,"Carthage, Missouri",1914-06-15,1914-06-15,1997
L. d. Poncins,France,1897-11-03,1897-11-03,1975
L. Brunschvicg,Aix-les-Bains,1869-11-10,1869-11-10,1944
K. Grelling,Auschwitz concentration camp,1886-03-02,1886-03-02,1942
K. Fischer,German Empire,1824-07-23,1824-07-23,1907
K. S. Murthy,Andhra Pradesh,1924-0-0,1924-0-0,2011
K. Axelos,Paris,1924-06-26,1924-06-26,2010
K. Mollenhauer,Göttingen,1928-10-31,1928-10-31,1998
K. Nishida,"Kamakura, Kanagawa",1870-05-19,1870-05-19,1945
K. A. Yassawi,Yasi,1103-1-1,1103-1-1,1166
K. Waltz,"Washington, D.C.",1924-06-08,1924-06-08,2013
Karl Wilhelm Friedrich Schlegel,Dresden,1772-0-0,1772-0-0,1829
K. Vogt,Geneva,1817-07-05,1817-07-05,1895
Karl Robert Eduard von Hartmann,Berlin,1842-02-23,1842-02-23,1906
K. Rahner,Austria,1904-03-05,1904-03-05,1984
K. Popper,England,1902-07-28,1902-07-28,1994
K. Marx,England,1818-05-05,1818-05-05,1883
Karl Ludwig von Haller,Solothurn,1768-08-01,1768-08-01,1854
K. L. Reinhold,German Confederation,1757-10-26,1757-10-26,1823
K. Korsch,"Belmont, Massachusetts",1886-08-15,1886-08-15,1961
K. Kautsky,Amsterdam,1854-10-16,1854-10-16,1938
K. Jaspers,Basel,1883-02-23,1883-02-23,1969
Karl Christian Friedrich Krause,Munich,1781-05-06,1781-05-06,1832
K. Brugmann,Leipzig,1849-03-16,1849-03-16,1919
K. Kosík,Czech Republic,1926-06-26,1926-06-26,2003
Kalanos,Susa,-398-0-0,-398-0-0,-323
J. Phule,Pune,1827-04-11,1827-04-11,1890
J. Buchler,Chambersburg,1914-03-27,1914-03-27,1991
J. Leiber,Tallahassee,1938-07-10,1938-07-10,2016
J. Tsuji,Japan,1884-10-04,1884-10-04,1944
J. T. Fraser,Connecticut,1923-05-07,1923-05-07,2010
J. Evola,Rome,1898-05-19,1898-05-19,1974
Julien Offray de La Mettrie,Berlin,1709-11-23,1709-11-23,1751
J. Vuillemin,Doubs,1920-02-15,1920-02-15,2001
J. Lequier,Plérin,1814-01-30,1814-01-30,1862
J. Halevi,Jerusalem,1079-1-1,1079-1-1,1141
Juan Vázquez de Mella,Madrid,1861-06-08,1861-06-08,1928
J. Nuño,Caracas,1927-03-27,1927-03-27,1995
J. L. Vives,Bruges,1492-3-2,1492-3-2,1540
Juan David García Bacca,Ecuador,1901-06-26,1901-06-26,1995
J. C. Portantiero,Argentina,1934-0-0,1934-0-0,2007
J. Došenović,Austrian Empire,1781-10-20,1781-10-20,1813
J. d. Espronceda,Madrid,1808-03-25,1808-03-25,1842
José Ortega y Gasset,Francoist Spain,1883-05-09,1883-05-09,1955
J. G. Merquior,Rio de Janeiro,1941-04-22,1941-04-22,1991
J. C. Mariátegui,Lima,1894-06-14,1894-06-14,1930
J. Warren,Boston,1798-1-1,1798-1-1,1874
J. Royce,"Cambridge, Massachusetts",1855-11-20,1855-11-20,1916
J. d. Maistre,Turin,1753-04-01,1753-04-01,1821
J. Maréchal,Belgium,1878-07-01,1878-07-01,1944
J. Dietzgen,Chicago,1828-10-28,1828-10-28,1888
J. Pieper,Münster,1904-05-04,1904-05-04,1997
J. Dobrovský,Austrian Empire,1753-08-17,1753-08-17,1829
J. Breuer,Vienna,1842-01-15,1842-01-15,1925
J. d. Espronceda,Madrid,1808-03-25,1808-03-25,1842
José Ortega y Gasset,Francoist Spain,1883-05-09,1883-05-09,1955
J. G. Merquior,Rio de Janeiro,1941-04-22,1941-04-22,1991
J. C. Mariátegui,Lima,1894-06-14,1894-06-14,1930
Jorge Ángel Livraga Rizzi,Madrid,1930-09-03,1930-09-03,1991
J. H. Sobel,Toronto,1929-09-22,1929-09-22,2010
J. Wycliffe,Kingdom of England,1330-1-1,1330-1-1,1384
J. Toland,Kingdom of Great Britain,1670-11-30,1670-11-30,1722
J. S. Mill,Avignon,1806-05-20,1806-05-20,1873
J. Selden,London,1584-12-16,1584-12-16,1654
J. S. Eriugena,England,810-1-1,810-1-1,877
J. R. Straton,New York,1875-04-06,1875-04-06,1929
J. Rawls,"Lexington, Massachusetts",1921-02-21,1921-02-21,2002
J. Plamenatz,United Kingdom,1912-05-16,1912-05-16,1975
J. Passmore,Sydney,1914-09-09,1914-09-09,2004
J. Macmurray,Edinburgh,1891-02-16,1891-02-16,1976
J. Locke,Essex,1622-8-29,1622-8-29,1704
J. Hick,Birmingham,1922-01-20,1922-01-20,2012
J. H. Muirhead,Sussex,1855-04-28,1855-04-28,1940
J. Foster,London,1941-05-05,1941-05-05,2009
J. Fiske,"Gloucester, Massachusetts",1842-03-30,1842-03-30,1901
J. Dewey,New York,1859-10-20,1859-10-20,1952
J. D. Wild,"New Haven, Connecticut",1902-04-10,1902-04-10,1972
J. Colet,Kingdom of England,1467-1-15,1467-1-15,1519
J. Cartwright,England,1740-09-17,1740-09-17,1824
J. Austin,Weybridge,1790-03-03,1790-03-03,1859
J. Arthur,"Binghamton, New York",1946-09-22,1946-09-22,2007
J. Argyropoulos,Rome,1415-1-1,1415-1-1,1487
J. Anderson,Sydney,1893-11-01,1893-11-01,1962
J. N. Tetens,Copenhagen,1736-09-16,1736-09-16,1807
J. Reuchlin,Stuttgart,1455-02-22,1455-02-22,1522
J. P. Siebenkees,Germany,1759-10-04,1759-10-04,1796
J. H. Pestalozzi,Brugg,1746-01-12,1746-01-12,1827
J. G. Droysen,Berlin,1808-07-06,1808-07-06,1884
J. G. Fichte,Berlin,1762-05-19,1762-05-19,1814
J. G. Herder,Weimar,1744-08-25,1744-08-25,1803
J. G. Hamann,Münster,1730-08-27,1730-08-27,1788
J. F. Herbart,Göttingen,1776-05-04,1776-05-04,1841
J. E. Erdmann,German Empire,1805-06-13,1805-06-13,1892
J. C. Gottsched,Electorate of Saxony,1700-02-02,1700-02-02,1766
J. C. Adelung,Dresden,1732-0-0,1732-0-0,1806
J. Bentham,London,1748-02-15,1748-02-15,1832
J. Wahl,Paris,1888-05-25,1888-05-25,1974
J. Hyppolite,Paris,1907-01-08,1907-01-08,1968
J. Gebser,Wabern bei Bern,1905-08-20,1905-08-20,1973
J. Cavaillès,Reims,1903-05-15,1903-05-15,1944
J. Bodin,Laon,1529-1-1,1529-1-1,1596
J. Baudrillard,Paris,1929-07-27,1929-07-27,2007
J. d. Crousaz,Lausanne,1663-04-13,1663-04-13,1750
J. Sartre,Paris,1905-06-21,1905-06-21,1980
J. Guyau,France,1854-10-28,1854-10-28,1888
J. Rousseau,Ermenonville,1712-06-28,1712-06-28,1778
J. Mattéi,Marseille,1941-03-09,1941-03-09,2014
J. Lyotard,Paris,1924-08-10,1924-08-10,1998
J. Mattéi,Marseille,1941-03-09,1941-03-09,2014
J. Lyotard,Paris,1924-08-10,1924-08-10,1998
J. Newman,Ontario,1948-02-28,1948-02-28,2007
J. Patočka,Czechoslovakia,1907-06-01,1907-06-01,1977
J. Mukařovský,Czechoslovakia,1891-11-11,1891-11-11,1975
J. Hus,Bishopric of Constance,1369-1-1,1369-1-1,1415
Jan Baudouin de Courtenay,Second Polish Republic,1845-03-13,1845-03-13,1929
J. S. al-Zahawi,Iraq,1863-06-17,1863-06-17,1936
J. S. Coleman,Los Angeles,1919-02-04,1919-02-04,1985
J. Rachels,"Birmingham, Alabama",1941-05-30,1941-05-30,2003
J. Mill,London,1773-04-06,1773-04-06,1836
J. Martineau,London,1805-04-21,1805-04-21,1900
J. M. Edie,Florida,1927-11-03,1927-11-03,1998
J. F. Ross,"Boston, Massachusetts",1931-10-09,1931-10-09,2010
J. D. McCawley,Chicago,1938-03-30,1938-03-30,1999
J. S. Beck,Rostock,1761-08-06,1761-08-06,1840
J. Schegk,Duchy of Württemberg,1511-06-06,1511-06-06,1587
J. F. Fries,Jena,1773-08-23,1773-08-23,1843
J. Böhme,Holy Roman Empire,1575-3-8,1575-3-8,1624
J. Maritain,Toulouse,1882-11-18,1882-11-18,1973
J. Lacan,France,1901-04-13,1901-04-13,1981
J. Garelli,Paris,1931-06-02,1931-06-02,2014
J. Ellul,France,1912-01-06,1912-01-06,1994
J. Derrida,France,1930-07-15,1930-07-15,2004
J. Taubes,Berlin,1923-02-25,1923-02-25,1987
J. Moleschott,Rome,1822-08-09,1822-08-09,1893
J. M. E. McTaggart,London,1866-09-03,1866-09-03,1925
J. L. Mackie,England,1917-08-25,1917-08-25,1981
J. L. Austin,Oxford,1911-03-26,1911-03-26,1960
J. J. C. Smart,Melbourne,1920-09-16,1920-09-16,2012
