col0,col1,col2,col3,col4
WYZZ-TV,Fox Broadcasting Company,43.1Fox,28 (UHF),1000000
WYPX-TV,Owned-and-operated station,55.1Ion Television,50 (UHF),450000
WYOW,American Broadcasting Company,(viaThe CW Plus),28 (UHF),70000
WYOU,CBS,22.1CBS,13 (VHF),30000
WYJJ-LD,Antenna TV,(see article),27 (UHF/PSIP),10000
WYIN,PBS,56,17 (UHF),300000
WYFF,NBC,4.1 NBC,36 (UHF),1000000
WYDC,Fox Broadcasting Company,48.1FoxinHD,48 (UHF/PSIP),7600
WYCW,The CW,62.1 The CW,45 (UHF),1000000
WYCC,PBS,20.1PBS,21 (UHF),98900
WXWZ-LP,Independent station,23.1+MasTV,23 (UHF),15000
WXTX,Fox Broadcasting Company,54.1Fox,49 (UHF),499400
WXOW,American Broadcasting Company,19.1ABC,48 (UHF),371000
WXOD-LD,Buzzr,(see article),33 (UHF/PSIP),4450
WXMI,Fox Broadcasting Company,17.1 Fox,19 (UHF),750000
WXFT-DT,UniMás,60,50 (UHF),230000
WXEL-TV,PBS,42.1PBS,27 (UHF),400000
WXCW,The CW,[[#Digital television,45 (UHF),1000000
WWTW,Independent station,34.1 Independent,34 (UHF/PSIP),20000
WWTI,The CW Plus,50.1ABC,21 (UHF),25000
WWSI,Owned-and-operated station,10.3NBC,49 (UHF),860000
WWSB,American Broadcasting Company,40.1 ABC,24 (UHF),90000
WWRS-TV,Trinity Broadcasting Network,52.1TBN,43 (UHF),600000
WWPX-TV,Owned-and-operated station,60.1Ion Television,12 (VHF),23000
WWNY-TV,CBS,7.1CBSinHD,7 (VHF) &,4000
WWME-CD,MeTV,23.1MeTV,),51000
WWMB,The CW,21.1The CW,21 (UHF/PSIP),400000
WWLP,NBC,22.1NBCinHD,11 (VHF),10000
WWJS-CD,Independent station,none,15 and 24.3 (UHF),15000
WWCI-CD,Independent Station,10.1 WWCI-CD,10 (VHF),192000
WWBT,NBC,12.1 NBC,12 (VHF),26000
WWAY,American Broadcasting Company,3.1ABC,46 (UHF),1000000
WVVA,NBC,6.2CWand 6.3MeTV,46 (UHF),1000000
WVUA-CD,This TV,[[#Digital television,WVUA-CD: 23 (UHF),15000
WVTV,The CW,18.1 The CW,18 (UHF),745000
WVNY,American Broadcasting Company,22.1ABC,13 (VHF),10000
WVNS-TV,CBS,[[#Digital channels,8 (VHF),3680
WVLR,Christian Television Network,48.1CTN,48 (UHF),1000000
WVIR-TV,NBC,29.1NBC,32 (UHF),1000000
WVII-TV,American Broadcasting Company,7.1ABC/JTV,7 (VHF),14000
WVAW-LD,American Broadcasting Company,16.1ABC,16 (UHF),15000
WUXP-TV,American Sports Network,30.1MyNetworkTV,21 (UHF),1000000
WUTR,American Broadcasting Company,20.1ABCinHD,30 (UHF),50000
WUPX-TV,Owned-and-operated station,67.1Ion Television,21 (UHF),719000
WUPV,The CW,65.1 The CW,47 (UHF),1000000
WTXL-TV,American Broadcasting Company,27.1ABC,27 (UHF/PSIP),1000000
WTWO,NBC,2.1NBC,36 (UHF),1000000
WTWC-TV,NBC,40.1NBC,40 (UHF),1000000
WTVY,CBS,/,36 (UHF),1000000
WTVR-TV,CBS,6.1 CBS,25 (UHF),410000
WTVQ-DT,American Broadcasting Company,36.1ABC,40 (UHF),635000
WTVP,PBS,47.1PBS,46 (UHF),190000
WTVM,American Broadcasting Company,9.1ABC,11 (VHF),50000
WTVH,CBS,5.1CBS,47 (UHF),500000
WTVF,CBS,5.1CBS,25 (UHF),1000000
WTVE,Independent station,51.1 WTVE-DT,25 (UHF),763
WTVD,Owned-and-operated station,11.1ABC,11 (VHF),45000
WTTW,PBS,/,47 (UHF),300000
WTTO,The CW,[[#Digital television,WDBB: 18 (UHF),350000
WTTA,MyNetworkTV,38.1 MyNetworkTV,32 (UHF),1000000
WTSF,Owned-and-operated station,61.1Daystar,44 (UHF),50000
WTSD-CA,Independent station,14.1 ([[#Digital channel,23 (UHF),15000
WTRF-TV,CBS,[[#Digital channels,7 (VHF/PSIP),25400
WTPX-TV,Ion Television,[[#Digital television,46 (UHF/PSIP),50000
WTPM-LD,Hope Channel,45.1Esperanza TV,45 (UHF),1000
WTPC-TV,Trinity Broadcasting Network,21.1TBN,7 (VHF),85000
WTOV-TV,NBC,[[#Digital channels,9 (VHF/PSIP),23000
WTOL,CBS,11.1CBS,11 (VHF),16900
WTOK-TV,Jewelry Television,11.1ABC,11 (VHF),40000
WTLJ,Tri-State Christian Television,(see article),24 (UHF),280000
WTLH,MeTV,[[#Digital channels,50 (UHF),665000
WTLF,The CW,(viaThe CW Plus),24 (UHF) &,24000
