col0,col1,col2,col3
R. Mercado,"University of Nevada, Las Vegas",Brown,2009–present
M. Satta,IULM University of Milan,Green,2002–present
L. Hearst,Sacred Heart University,Green,2004 - present
L. Dowding,"Royal Holloway, University of London",Brown,1998–present
K. Speer,Queensland University of Technology,Green,2002–present
E. Olumide,University of Pennsylvania,Brown,2002–present
A. Gani,LaSalle College,Brown,2009–present
