col0,col1,col2,col3,col4,col5,col6
Sind Valley,Ganderbal district,Ganderbal district,Ganderbal district,Sind River,Ganderbal district,2854
Lonesome Valley,"Yavapai County, Arizona","Chino Valley, Arizona","Yavapai County, Arizona",Granite Creek,"Prescott Valley, Arizona",1533
Lidder Valley,Anantnag district,Anantnag district,Anantnag district,Lidder River,Anantnag district,2420
Gila Valley,"Safford, Arizona","Safford, Arizona","Safford, Arizona",Gila River,"Safford, Arizona",885
Bridgeport Valley,"Bridgeport, California","Bridgeport, California","Bridgeport, California",East Walker River,"Bridgeport, California",2858
Aliso Canyon,Aliso and Wood Canyons Wilderness Park,Aliso and Wood Canyons Wilderness Park,Aliso and Wood Canyons Wilderness Park,Aliso Creek,Aliso and Wood Canyons Wilderness Park,304
