col0,col1,col2,col3,col4
S. Collins,Columbus Blue Jackets,Canada,HC Kunlun Red Star,1988-12-29
S. Brown,Boston Bruins,Canada,EC KAC,1976-11-05
S. Balan,Chicago Blackhawks,Alberta,Tilburg Trappers,1982-05-29
S. Upshall,Nashville Predators,Fort McMurray,St. Louis Blues,1983-10-07
S. Wilson,Pittsburgh Penguins,"Oakville, Ontario",Pittsburgh Penguins,1992-04-24
S. Wedgewood,New Jersey Devils,"Brampton, Ontario",New Jersey Devils,1992-08-14
S. Valentine,Anaheim Ducks,Canada,Augsburger Panther,1991-05-02
S. Timmins,Florida Panthers,Canada,Straubing Tigers,1989-09-11
S. Mayfield,New York Islanders,"St. Louis, Missouri",New York Islanders,1992-10-14
S. Lehman,Atlanta Thrashers,Alberta,Chicago Express,1986-01-05
S. Laughton,Philadelphia Flyers,"Oakville, Ontario",Philadelphia Flyers,1994-05-30
S. Langkow,Winnipeg Jets,Alberta,Krefeld Pinguine,1975-04-21
S. Kosmachuk,Winnipeg Jets,Canada,Winnipeg Jets,1994-01-24
S. Jackson,St. Louis Blues,British Columbia,Tampa Bay Lightning,1987-02-05
S. Hartnell,Nashville Predators,Canada,Columbus Blue Jackets,1982-04-18
S. Harrington,Pittsburgh Penguins,Canada,Columbus Blue Jackets,1993-03-10
S. Glennie,Dallas Stars,Canada,Manitoba Moose,1991-02-22
S. Darling,Arizona Coyotes,"Newport News, Virginia",Chicago Blackhawks,1988-12-22
S. Barney,Los Angeles Kings,Canada,HC Valpellice,1979-03-27
S. Pokulok,Washington Capitals,Canada,Cornwall River Kings,1986-05-25
S. Goc,New Jersey Devils,West Germany,Schwenninger Wild Wings,1979-04-14
S. Saari,St. Louis Blues,Finland,Jokerit,1994-10-18
S. Morin,Philadelphia Flyers,Canada men's national junior ice hockey team,Philadelphia Flyers,1995-07-12
S. Perhonen,Edmonton Oilers,Finland,HIFK,1993-03-07
S. Venäläinen,Phoenix Coyotes,Finland,Fischtown Pinguins,1981-10-14
S. Vatanen,Anaheim Ducks,Jyväskylä,Anaheim Ducks,1991-06-03
S. Niku,Winnipeg Jets,Finland,JYP Jyväskylä,1996-10-10
S. Lepistö,Washington Capitals,Espoo,Salavat Yulaev Ufa,1984-10-17
S. Aittokallio,Colorado Avalanche,Tampere,Oulun Kärpät,1992-08-06
S. Steel,Anaheim Ducks,Alberta,Regina Pats,1998-02-03
S. Reinhart,Buffalo Sabres,North Vancouver,Buffalo Sabres,1995-11-06
S. Gagner,Edmonton Oilers,Canada,Columbus Blue Jackets,1989-08-10
S. Carrick,Toronto Maple Leafs,Canada,Chicago Blackhawks,1992-02-04
S. Brittain,Florida Panthers,Calgary,Florida Panthers,1992-05-10
S. Bennett,Calgary Flames,Canada,Calgary Flames,1996-06-20
S. Salminen,Tampa Bay Lightning,Finland,Jokerit,1994-10-20
S. Mäenalanen,Nashville Predators,Finland,Oulun Kärpät,1994-05-29
S. Charpentier,Washington Capitals,Canada,Graz 99ers,1977-04-18
S. Caron,Pittsburgh Penguins,Canada,Hamburg Freezers,1980-06-25
R. Balcers,San Jose Sharks,Latvia,Kamloops Blazers,1997-04-08
R. Petrovický,Hartford Whalers,Czechoslovakia,KalPa,1973-10-26
R. Grantham,Calgary Flames,"Hanna, Alberta",Missouri Mavericks,1988-01-07
R. White,Montreal Canadiens,"Brandon, Manitoba",Arizona Coyotes,1988-03-17
R. Wade,Calgary Flames,British Columbia,Victoria Salmon Kings,1978-05-11
R. Thang,Nashville Predators,Minnesota,High1,1987-05-11
R. Suter,Nashville Predators,"Madison, Wisconsin",Minnesota Wild,1985-01-21
R. Strome,New York Islanders,Mississauga,New York Islanders,1993-07-11
R. Stone,Pittsburgh Penguins,Alberta,Hamburg Freezers,1985-03-20
R. Stoa,Colorado Avalanche,Minnesota,HC Spartak Moscow,1987-04-13
R. Sproul,Detroit Red Wings,Canada,Detroit Red Wings,1993-01-13
R. Spooner,Boston Bruins,"Kanata, Ontario",Boston Bruins,1992-01-30
R. Russell,New York Rangers,Alberta,Cardiff Devils,1987-05-02
R. Rupert,Toronto Maple Leafs,Canada,Ottawa Senators,1994-06-02
R. Reaves,St. Louis Blues,Winnipeg,St. Louis Blues,1987-01-20
R. Pulock,New York Islanders,"Dauphin, Manitoba",New York Islanders,1994-10-06
R. Potulny,Philadelphia Flyers,North Dakota,Lahti Pelicans,1984-09-05
R. O'Reilly,Colorado Avalanche,Hockey Canada,Buffalo Sabres,1991-02-07
R. Nugent-Hopkins,Edmonton Oilers,Burnaby,Edmonton Oilers,1993-04-12
R. Murray,Columbus Blue Jackets,"White City, Saskatchewan",Columbus Blue Jackets,1993-09-27
R. Murphy,Carolina Hurricanes,Canada,Carolina Hurricanes,1993-03-31
R. Munce,Los Angeles Kings,Canada,Dundas Real McCoys,1985-04-16
R. Miller,Buffalo Sabres,Michigan,Vancouver Canucks,1980-07-17
R. McDonagh,Montreal Canadiens,"Saint Paul, Minnesota",New York Rangers,1989-06-13
R. Martindale,Edmonton Oilers,Canada,Esbjerg Energy,1991-10-27
R. MacMurchy,St. Louis Blues,Canada,Adler Mannheim,1983-04-27
R. MacInnis,Arizona Coyotes,Missouri,Arizona Coyotes,1996-02-14
R. Kraft,San Jose Sharks,North Dakota,Kassel Huskies,1975-11-07
R. Kesler,Vancouver Canucks,"Livonia, Michigan",Anaheim Ducks,1984-08-31
R. Jones,Minnesota Wild,Canada,Kölner Haie,1984-06-14
R. Johansen,Columbus Blue Jackets,Vancouver,Nashville Predators,1992-07-31
R. Hollweg,New York Rangers,California,HC Škoda Plzeň,1983-04-23
R. Hegarty,Anaheim Ducks,"Arlington, Massachusetts",Frisk Asker,1990-05-16
R. Hartman,Chicago Blackhawks,"Hilton Head, South Carolina",Chicago Blackhawks,1994-09-20
R. Gropp,New York Rangers,"Kamloops, BC",Seattle Thunderbirds,1996-09-16
R. Glenn,Montreal Canadiens,British Columbia,JYP Jyväskylä,1980-06-07
R. Getzlaf,Anaheim Ducks,"Regina, Saskatchewan",Anaheim Ducks,1985-05-10
R. Flynn,Nashville Predators,Minnesota,Ilves,1988-03-22
R. Ellis,Nashville Predators,Canada,Nashville Predators,1991-01-03
R. Dzingel,Ottawa Senators,Illinois,Ottawa Senators,1992-03-09
R. Donato,Boston Bruins,Boston,Harvard Crimson,1996-04-09
R. Craig,Tampa Bay Lightning,British Columbia,Cleveland Monsters,1982-01-06
R. Callahan,New York Rangers,"Rochester, New York",Tampa Bay Lightning,1985-03-21
R. Caldwell,New York Islanders,Canada,Oji Eagles,1981-06-15
R. Button,Boston Bruins,Alberta,Iserlohn Roosters,1991-03-26
R. Bourque,New York Rangers,Massachusetts,Hershey Bears,1991-01-03
R. Zainullin,Tampa Bay Lightning,Soviet Union,Kuban Krasnodar,1982-02-14
R. Bernikov,Dallas Stars,Soviet Union,Amur Khabarovsk,1977-12-04
R. Bashkirov,Ottawa Senators,Moscow,Amur Khabarovsk,1989-03-07
R. Rafikov,Calgary Flames,Russia,Lokomotiv Yaroslavl,1995-05-15
R. Ndur,Buffalo Sabres,Nigeria,Flint Generals,1975-07-07
R. Chartier,San Jose Sharks,Canada,San Jose Sharks,1996-04-03
R. Olesz,Florida Panthers,Czechoslovakia,HC Vítkovice Steel,1985-10-10
R. Klesla,Columbus Blue Jackets,Czechoslovakia,HC Oceláři Třinec,1982-03-21
R. Lupaschuk,Washington Capitals,Alberta,Jokerit,1981-01-19
R. Hintz,Dallas Stars,Finland,HIFK,1996-11-17
R. Petrovický,Calgary Flames,Czechoslovakia,Springfield Falcons,1977-02-15
R. Shudra,Edmonton Oilers,Canada,Sheffield Scimitars,1967-11-28
R. Hainsey,Montreal Canadiens,Connecticut,Carolina Hurricanes,1981-03-24
R. Wick,Ottawa Senators,Switzerland,ZSC Lions,1985-12-30
R. Voloshenko,Minnesota Wild,USSR,Molot-Prikamye Perm,1986-05-12
R. Pšurný,New York Rangers,Czechoslovakia,HC České Budějovice,1986-02-23
R. Polák,St. Louis Blues,Czechoslovakia,Toronto Maple Leafs,1986-04-28
R. Pšurný,New York Rangers,Czechoslovakia,HC České Budějovice,1986-02-23
R. Málek,Philadelphia Flyers,Czechoslovakia,HC Vítkovice,1977-09-25
R. Kukumberg,Toronto Maple Leafs,Bratislava,HC Slovan Bratislava,1980-04-08
R. Kukhtinov,New York Islanders,Belgorod,HC Amur Khabarovsk,1975-12-01
R. Josi,Nashville Predators,Bern,Nashville Predators,1990-06-01
R. Horák,New York Rangers,Czechoslovakia,HC Vityaz Podolsk,1991-05-21
R. Derlyuk,Florida Panthers,Saint Petersburg,HC Sochi,1986-10-27
R. McKeown,Los Angeles Kings,"Listowel, Ontario",Carolina Hurricanes,1996-01-20
R. Ābols,Vancouver Canucks,Latvia,Portland Winterhawks,1996-01-05
R. Sarich,Florida Panthers,Canada,Sheffield Steelers,1981-03-23
R. Grimaldi,Florida Panthers,"Anaheim, California",Colorado Avalanche,1993-02-08
