col0,col1,col2,col3
H. brothers,1768,1804-02-08,1799
E. Dugan,1878-1-1,1930-02-21,1930
Death of Gregory Glen Biggs,1976-6-22,2001-10-26,2001
D. Lane,1938-11-02,2007-05-28,2007
D. Arthurs,1984-8-8,2006-06-26,2006
C. Brunier,1901-05-31,2007-01-26,2007
C. o. Balsamo,1201-0-0,1293-1-1,1293
B. Williams,1944-0-0,2014-12-24,2014
A. Chacon,1861-0-0,1902-11-21,1902
A. Mitchell,1872-11-26,1898-03-31,1898
