col0,col1,col2,col3,col4
J. Bishop,P. S. Shoop,"Mendocino, California",1914-08-30,1914-08-30
J. Dassin,J. Dassin,Athens,1911-12-18,1911-12-18
J. Uno,A. Terao,Tokyo,1914-09-27,1914-09-27
J. Holliday,J. Oppenheim,New York City,1921-06-21,1921-06-21
J. Garland,L. Minnelli,"Chelsea, London",1922-06-10,1922-06-10
J. Canova,D. Canova,Hollywood,1913-11-20,1913-11-20
J. Page,G. Orr,Los Angeles,1924-11-09,1924-11-09
J. Ferrer,M. Ferrer,"Coral Gables, Florida",1912-01-08,1912-01-08
J. Baker,J. Baker,"Paris, France",1906-06-03,1906-06-03
J. Tomelty,F. Tomelty,Northern Ireland,1911-03-05,1911-03-05
J. Goebbels,G. children,Berlin,1897-10-29,1897-10-29
J. Ferrer,R. Ferrer,"Coral Gables, Florida",1912-01-08,1912-01-08
J. Lavat,A. Lavat,Mexico,1933-08-03,1933-08-03
J. Pertwee,S. Pertwee,Connecticut,1919-07-07,1919-07-07
J. Forbes-Robertson,Maxine,Dover,1853-01-16,1853-01-16
J. Cash,R. Cash,"Nashville, Tennessee",1932-02-26,1932-02-26
J. Wayne,M. Wayne,Los Angeles,1907-05-26,1907-05-26
J. Vernon,K. Vernon,California,1932-02-24,1932-02-24
J. Tyler,L. G. Tyler,Confederate States of America,1790-03-29,1790-03-29
J. Thaw,A. Thaw,England,1942-01-03,1942-01-03
J. Ritter,J. Ritter,"Burbank, California",1948-09-17,1948-09-17
J. Raitt,B. Raitt,"Pacific Palisades, Los Angeles",1917-01-29,1917-01-29
J. Payne,J. Payne,"Malibu, California",1912-05-23,1912-05-23
J. Mills,H. Mills,Buckinghamshire,1908-02-22,1908-02-22
J. McIntire,T. McIntire,"Pasadena, California",1907-06-27,1907-06-27
J. Lennon,J. Lennon,Manhattan,1940-10-09,1940-10-09
J. Huston,A. Huston,"Middletown, Rhode Island",1906-08-05,1906-08-05
J. Houseman,S. N. Hampshire,"Malibu, California",1902-09-22,1902-09-22
J. Hart,B. Hart,Mexico,1917-12-13,1917-12-13
J. F. Kennedy,P. B. Kennedy,Dallas,1917-05-29,1917-05-29
J. D. Barrymore,D. Barrymore,California,1932-06-04,1932-06-04
J. Derek,S. C. Derek,"Santa Maria, California",1926-08-12,1926-08-12
J. D. Lodge,L. Lodge,New York City,1903-10-20,1903-10-20
J. Cassavetes,N. Cassavetes,Los Angeles,1929-12-09,1929-12-09
J. Betjeman,C. L. Green,Cornwall,1906-08-28,1906-08-28
J. Berry,D. Berry,Paris,1917-09-06,1917-09-06
J. Archer,A. Archer,"Redmond, Washington",1915-05-08,1915-05-08
J. Abineri,D. Abineri,"Bath, Somerset",1928-05-18,1928-05-18
J. Heesters,N. Heesters,Starnberg,1903-12-05,1903-12-05
J. Smallwood,W. R. Smallwood,Newfoundland and Labrador,1900-12-24,1900-12-24
J. Bishop,L. Bishop,California,1918-02-03,1918-02-03
J. McCrea,J. McCrea,California,1905-11-05,1905-11-05
J. Yule,M. Rooney,Hollywood,1892-04-30,1892-04-30
J. Keaton,B. Keaton,California,1867-07-06,1867-07-06
J. Mahoney,S. Field,Washington,1919-02-07,1919-02-07
J. Moore,T. O'Neal,"Indian Wells, California",1934-11-10,1934-11-10
J. Rivers,M. Rivers,Manhattan,1933-06-08,1933-06-08
J. Davis,B. Wills,"Palm Springs, California",1907-6-29,1907-6-29
J. Crawford,C. Crawford,New York City,1904-3-23,1904-3-23
J. Blondell,N. Powell,"Santa Monica, California",1906-08-30,1906-08-30
J. Hanley,J. Hanley,England,1918-10-22,1918-10-22
J. Henson,J. Henson,New York,1936-09-24,1936-09-24
J. Bannon,J. Bannon,"Ojai, California",1911-04-09,1911-04-09
J. Clayburgh,L. Rabe,"Lakeville, Connecticut",1944-04-30,1944-04-30
J. Orbach,C. Orbach,New York City,1935-10-20,1935-10-20
J. Falwell,J. F. Jr.,"Lynchburg, Virginia",1933-08-11,1933-08-11
J. Kendal,K. Kapoor,London,1933-02-28,1933-02-28
J. Jones,R. W. Jr.,"Malibu, California",1919-03-02,1919-03-02
J. Cooper,C. Bernsen,California,1928-10-25,1928-10-25
J. Nolan,T. McIntire,Los Angeles,1911-12-30,1911-12-30
J. Stapleton,J. Putch,New York,1923-01-19,1923-01-19
J. Cassel,V. Cassel,Paris,1932-10-27,1932-10-27
J. Mansfield,M. Hargitay,"St. Tammany Parish, Louisiana",1933-04-19,1933-04-19
J. R. Sr.,J. R. Jr.,United States,1892-12-31,1892-12-31
J. Robards,S. Robards,"Bridgeport, Connecticut",1922-07-26,1922-07-26
J. Miller,J. Patric,"Scranton, Pennsylvania",1939-04-22,1939-04-22
J. Kulle,M. Kulle,Roslagen,1927-02-27,1927-02-27
J. Leigh,J. L. Curtis,California,1927-07-06,1927-07-06
J. Brown,T. Butterworth,East Sussex,1923-12-14,1923-12-14
J. Wyman,M. Reagan,"Palm Springs, California",1914-1-4,1914-1-4
J. Hylton,R. Lloyd,Scotland,1927-07-16,1927-07-16
J. Henson,J. Henson,"Greenwich, Connecticut",1934-06-16,1934-06-16
J. Whitmore,J. W. Jr.,"Malibu, California",1921-10-01,1921-10-01
J. O'Neill,E. O'Neill,"New London, Connecticut",1847-11-15,1847-11-15
J. Hazeldine,S. Hazeldine,London,1947-04-04,1947-04-04
J. Copeland,J. Cosmo,England,1918-05-01,1918-05-01
J. Broderick,M. Broderick,"New Haven, Connecticut",1927-03-07,1927-03-07
J. Raj,A. Raj,Maharashtra,1928-1-1,1928-1-1
J. Watling,D. Watling,Essex,1923-01-13,1923-01-13
J. Palance,H. Palance,"Montecito, California",1919-0-0,1919-0-0
J. Lemmon,C. Lemmon,Los Angeles,1925-02-08,1925-02-08
J. Layton,M. Layton,Ontario,1950-07-18,1950-07-18
J. Klugman,A. Klugman,"Los Angeles, California",1922-04-27,1922-04-27
J. Hemingway,M. Hemingway,New York,1923-10-10,1923-10-10
J. Haley,J. H. Jr.,Los Angeles,1897-08-10,1897-08-10
J. Gwillim,D. Gwillim,Los Angeles,1909-12-15,1909-12-15
J. Cassidy,D. Cassidy,"West Hollywood, California",1927-03-05,1927-03-05
I. Francis,G. Francis,California,1918-10-26,1918-10-26
I. Berlin,M. Barrett,New York City,1888-05-11,1888-05-11
I. Baronova,V. Tennant,"Byron Bay, New South Wales",1919-03-13,1919-03-13
I. Tedrow,E. Kent,California,1907-08-03,1907-08-03
I. Purcell,"Samuel Curtis Johnson, Jr.","Racine, Wisconsin",1896-08-07,1896-08-07
I. Hervey,J. Jones,"Woodland Hills, Los Angeles",1909-07-11,1909-07-11
I. Bergman,I. Rossellini,England,1915-08-29,1915-08-29
I. Bergman,A. Bergman,Fårö,1918-07-14,1918-07-14
I. S. McKinley,K. McKinley,Ohio,1847-06-08,1847-06-08
I. Smith,A. Smith,Cape Town,1919-04-08,1919-04-08
I. S. Jolley,S. Jolley,California,1900-10-24,1900-10-24
H. Green,P. Yates,London,1920-02-02,1920-02-02
H. Humphrey,S. Humphrey,"Waverly, Minnesota",1911-05-27,1911-05-27
H. Die,L. Zongren,Vancouver,1908-3-23,1908-3-23
H. Marks,A. Marks,Leeds,1945-8-13,1945-8-13
H. Buchholz,C. Buchholz,Berlin,1933-12-04,1933-12-04
H. F. Judson,O. Judson,Baltimore,1931-04-21,1931-04-21
H. Lange,C. Murray,"Santa Monica, California",1931-11-28,1931-11-28
H. Ware,E. Geer,Los Angeles,1917-06-09,1917-06-09
H. Baddeley,P. Tennant,Los Angeles,1906-11-13,1906-11-13
H. Göring,E. Göring,Nuremberg,1893-01-12,1893-01-12
H. Standing,G. Standing,California,1846-11-13,1846-11-13
H. Marshall,S. Marshall,California,1890-05-23,1890-05-23
H. Gibson,C. Gibson,"Malibu, California",1935-09-21,1935-09-21
H. Fonda,J. Fonda,California,1905-05-16,1905-05-16
H. Finkenzeller,G. Dohm,Munich,1911-11-17,1911-11-17
H. Vela,P. Punzalan,Minnesota,1946-10-31,1946-10-31
H. Lynd,S. Lynd,New York City,1896-03-17,1896-03-17
H. Hayes,J. MacArthur,"Nyack, New York",1900-10-10,1900-10-10
H. Broderick,B. Crawford,"Beverly Hills, California",1891-08-11,1891-08-11
H. Hopper,W. Hopper,Hollywood,1885-05-02,1885-05-02
H. Ekman,G. Ekman,Spain,1915-09-10,1915-09-10
H. Lembeck,M. Lembeck,California,1923-04-15,1923-04-15
H. Stockwell,D. Stockwell,New York,1902-04-27,1902-04-27
H. Secombe,A. Secombe,Guildford,1921-09-08,1921-09-08
H. H. Corbett,S. Corbett,East Sussex,1925-02-28,1925-02-28
H. Nelson,R. Nelson,"Laguna Beach, California",1909-07-18,1909-07-18
H. Kheirabadi,S. Ghasemi,Iran,1924-12-20,1924-12-20
Hadidjah,I. Sardi,Jakarta,1923-06-13,1923-06-13
G. Ekman,H. Ekman,Stockholm,1890-12-28,1890-12-28
G. Shipman,N. Shipman,Hawaii,1909-0-0,1909-0-0
G. Standing,K. Hammond,Hollywood Hills,1873-09-01,1873-09-01
G. Peck,C. Peck,Los Angeles,1916-04-05,1916-04-05
G. Morris,P. Morris,Las Vegas Valley,1933-09-27,1933-09-27
G. Allen,R. Burns,Hollywood,1895-07-26,1895-07-26
G. Westcott,H. Westcott,"Hollywood, California",1903-11-06,1903-11-06
G. MacRae,M. MacRae,"Lincoln, Nebraska",1921-03-12,1921-03-12
G. Withers,J. McCallum,Australia,1917-03-12,1917-03-12
G. Vega,Z. Vega,Mexico City,1946-11-29,1946-11-29
G. Farrell,T. Farrell,New York City,1904-06-30,1904-06-30
G. R. Stuart,K. R. Stuart,Rome,1925-08-25,1925-08-25
G. Ryan,L. Ryan,Dublin 4,1956-06-04,1956-06-04
G. Page,A. Page,New York City,1924-11-22,1924-11-22
G. Fitzgerald,M. Lindsay-Hogg,New York City,1913-11-24,1913-11-24
G. Whitman,S. B. Whitman,France,1913-12-12,1913-12-12
G. Wallace,G. W. Jr.,"Montgomery, Alabama",1919-08-25,1919-08-25
G. M. Cohan,H. Cohan,New York City,1878-07-03,1878-07-03
G. Dolenz,M. Dolenz,California,1908-01-05,1908-01-05
G. Curzon,"Frederick Curzon, 7th Earl Howe",London,1898-10-18,1898-10-18
G. Coulouris,G. Coulouris,England,1903-10-01,1903-10-01
G. Carlin,K. Carlin,"Santa Monica, California",1937-05-12,1937-05-12
G. Burns,R. Burns,"Beverly Hills, California",1896-01-20,1896-01-20
G. Alexander,G. Richter,Berlin,1888-04-03,1888-04-03
G. Lewis,J. Lewis,"Woodland Hills, California",1935-07-31,1935-07-31
G. Kerr,J. Kerr,England,1895-01-26,1895-01-26
G. Persson,K. Hopkins,Manhattan,1934-01-12,1934-01-12
G. Lockhart,J. Lockhart,"Santa Monica, California",1891-07-18,1891-07-18
G. Ganesan,Rekha,Chennai,1919-11-16,1919-11-16
G. Marshall,S. Marshall,"Burbank, California",1934-11-13,1934-11-13
G. Ekman,H. Ekman,Stockholm,1890-12-28,1890-12-28
F. Zadig,K. Eklund,Vejbystrand,1921-11-03,1921-11-03
F. Spira,C. Spira,Invasion of Yugoslavia,1877-8-1,1877-8-1
F. Prinze,F. P. Jr.,Los Angeles,1954-06-22,1954-06-22
F. Phelps,S. Phelps-Roper,"Topeka, Kansas",1929-11-13,1929-11-13
F. Kohler,F. K. Jr.,California,1888-04-20,1888-04-20
F. Dyall,V. Dyall,Sussex,1870-02-03,1870-02-03
F. Zappa,A. Zappa,Los Angeles,1940-12-21,1940-12-21
F. Thomas,T. Thomas,"La Cañada Flintridge, California",1912-09-05,1912-09-05
F. Sinatra,N. Sinatra,Los Angeles,1915-12-12,1915-12-12
F. M. Thomas,F. Thomas,"Tujunga, California",1889-07-13,1889-07-13
F. Craven,J. Craven,"Beverly Hills, California",1875-08-24,1875-08-24
F. Capra,F. C. Jr.,California,1897-05-18,1897-05-18
