col0,col1,col2,col3,col4
W. Jackson,South Lanarkshire,1871-3-14,1871-3-14,1955-1-26
W. Knock,"Halifax, Nova Scotia",1913-11-23,1913-11-23,1988-02-11
V. Wood,Manitoba,1886-08-28,1886-08-28,1979-09-10
V. Wetterström,Stockholm,1884-08-27,1884-08-27,1956-05-11
V. Peters,Winnipeg,1955-03-24,1955-03-24,2016-03-27
T. Murray,South Lanarkshire,1877-10-3,1877-10-3,1944-6-3
S. Patterson,Ontario,1969-1-1,1969-1-1,2004-1-25
S. Penwarden,Manitoba,1885-07-19,1885-07-19,1930-05-23
R. Singbush,Manitoba,1896-12-17,1896-12-17,1950-12-29
R. H. Pickering,Alberta,1932-09-19,1932-09-19,2015-06-24
R. Werner,"Fort Saskatchewan, Alberta",1935-0-0,1935-0-0,1998-0-0
P. Canivet,Garches,1890-1-1,1890-1-1,1982-1-25
P. Wood,Manitoba,1888-08-29,1888-08-29,1978-12-28
N. Harrison,Ontario,1949-01-23,1949-01-23,2014-02-24
M. Macneill,"Halifax, Nova Scotia",1877-01-07,1877-01-07,1951-02-16
M. Campbell,Trois-Rivières,1919-11-28,1919-11-28,2014-7-4
M. Frederickson,Manitoba,1906-04-06,1906-04-06,1992-04-28
L. Dagg,Kelowna,1929-07-27,1929-07-27,1975-05-14
L. Campbell,"Emerald Park, Saskatchewan",1915-01-04,1915-01-04,2016-05-25
L. Wood,Manitoba,1889-06-02,1889-06-02,1965-09-17
L. Johnson,Manitoba,1899-01-29,1899-01-29,1970-11-08
L. Johnson,Manitoba,1901-06-12,1901-06-12,1976-03-06
L. Jackson,South Lanarkshire,1900-9-16,1900-9-16,1984-7-27
K. Watson,Manitoba,1904-08-12,1904-08-12,1986-07-26
K. Stearne,Adelaide,1958-07-02,1958-07-02,2016-05-09
K. Reilly,Ontario,1938-0-0,1938-0-0,2012-0-0
K. Wahlberg,Stockholm,1874-03-31,1874-03-31,1934-08-01
J. Watson,Manitoba,1914-0-0,1914-0-0,1974-2-18
J. Welsh,"Winnipeg, Manitoba",1910-02-10,1910-02-10,1988-10-24
