col0,col1,col2,col3,col4
Old gold,0,71,19,49
Ochre,0,83,20,30
Navy blue,100,100,17,240
Navajo white,0,32,0,36
Naples yellow,0,62,2,48
NIVO,15,15,70,120
Mustard,1,66,0,47
Mikado yellow,0,95,0,45
Midnight green,100,100,70,187
Midnight blue,97,78,29,240
Mauve,12,31,0,276
Marigold,0,85,8,39
Marian blue,194,30,0,193
Marengo,25,25,60,212
Maize,0,63,2,54
Mahogany,0,100,25,20
Magenta,0,100,0,300
Liver,0,31,60,9
Lion,0,45,24,33
Lime,25,100,0,75
Lilac,0,19,22,300
Lavender,8,8,2,240
Lava,0,31,72,27
Kobicha,0,67,58,28
Jonquil,0,91,4,49
Jasmine,0,49,3,47
Ivory,0,6,0,60
Indigo,42,100,49,275
Indian red,0,52,25,0
Heliotrope,13,55,0,286
Goldenrod,0,85,15,43
Gold,0,100,0,51
Glaucous,47,47,29,216
Fulvous,0,100,11,35
Forest green,83,76,8,120
Flax,7,45,0,50
Fire engine red,0,89,19,357
Federal Standard 595 camouflage colours,50,8,0,212
Fallow,0,45,8,33
Electric green,100,100,0,120
Electric blue,51,51,0,183
Eggshell,0,11,6,46
Duke blue,100,100,24,222
Desert sand,0,26,7,25
Dark purple,8,51,80,291
Cyclamen,0,54,4,0
Cyan,100,100,0,180
Crimson,0,91,40,348
Cream,0,18,0,57
Coyote brown,0,52,49,31
Cornflower blue,59,58,0,219
Cordovan,0,54,46,355
Coral,0,69,0,16
Coquelicot,0,100,0,13
Copper,0,72,28,29
Columbia blue,13,13,11,200
Coffee,0,51,57,25
Citron,6,82,34,64
Citrine,0,96,11,54
Cinereous,0,19,40,12
Chocolate,0,100,82,31
Chestnut,0,64,42,10
Chartreuse,50,100,0,90
Champagne,0,17,3,37
Cerulean,100,100,35,196
Cerise,7,78,0,343
Carmine,0,100,1,350
Cardinal,0,85,23,350
Capri,100,100,0,195
Candy apple red,0,100,0,2
Camel,0,45,24,33
Cadet grey,46,18,0,205
Byzantium,0,63,56,311
Buff,0,46,6,49
Brown,0,100,41,30
Bronze,25,76,0,30
British racing green,98,99,74,153
Bole,0,51,53,9
Blue-green,93,93,27,192
Blue-gray,50,50,20,210
