col0,col1,col2,col3
T. Armstrong,"Bethesda, Maryland",1965-10-05,1
T. Thomas,"DeLand, Florida",1974-11-20,1
T. Tyler,"Barstow, California",1959-03-19,9
T. Williams,Miami,1991-05-09,6
T. James,"New Orleans, Louisiana",1973-05-18,2
T. Epps,"Uniontown, Pennsylvania",1967-05-28,8
T. Holt,"Gibsonville, North Carolina",1976-06-05,1
T. Cox,Florida,1980-10-29,6
T. Smith,"Colonial Beach, Virginia",1989-1-26,2
T. Small,"Tampa, Florida",1970-09-04,5
T. Marshall,"Miami, Florida",1977-06-12,3
T. Troup,Detroit,1987-6-23,2
T. James,"Richmond, Virginia",1974-03-08,7
T. Woods,"Newark, New Jersey",1965-9-11,1
T. Williams,"Germantown, Tennessee",1975-07-09,5
T. Veland,"Omaha, Nebraska",1972-3-11,6
T. Tolbert,"Tuskegee, Alabama",1967-12-29,4
T. Stewart,"Lohne, Germany",1979-08-09,5
T. Steward,"Daytona Beach, Florida",1992-09-19,6
T. Smith,Chicago,1970-06-29,1
T. Simmons,Chicago,1974-12-08,2
T. Semple,"Springfield, Illinois",1970-12-20,5
T. Scheffler,"Morenci, Michigan",1983-2-15,2
T. Samuels,"Tampa, Florida",1954-12-30,4
T. Ramirez,"Lincoln, Nebraska",1973-01-26,6
T. Pike,Cincinnati,1986-03-10,6
T. Peterson,Cleveland,1972-01-23,5
T. Peters,Oklahoma,1953-04-28,4
T. Pasquesi,"Chicago, Illinois",1933-06-13,3
T. Pashos,"Palos Heights, Illinois",1980-08-03,5
T. Parrish,California,1975-11-23,2
T. Pape,"Chicago, Illinois",1981-09-29,7
T. Nathan,"Birmingham, Alabama",1956-12-14,3
T. Moll,"Sonoma, California",1983-08-23,5
T. McGee,"Terre Haute, Indiana",1971-04-21,2
T. McGee,"Battle Creek, Michigan",1949-01-18,3
T. McCoy,"Orlando, Florida",1969-06-10,4
T. Mayberry,Germany,1967-12-08,4
T. Martin,"Miami, Florida",1965-09-05,5
T. Liscio,"Pittsburgh, Pennsylvania",1940-07-02,3
T. Lippett,"Detroit, Michigan",1992-07-02,5
T. Lilly,"Alexandria, Virginia",1962-02-16,3
T. Leonard,"Richmond, Virginia",1953-02-28,5
T. Leon,"Follansbee, West Virginia",1917-02-18,8
T. Jordan,"Rochester, New York",1965-05-08,5
T. Jeffery,"Gladewater, Texas",1964-07-08,2
T. Jackson,"Ypsilanti, Michigan",1982-7-5,6
T. Ippolito,Chicago,1917-09-19,7
T. Hills,Dallas,1984-11-04,4
T. Hill,San Diego,1956-06-23,3
T. Hill,"Augusta, Georgia",1968-10-23,4
T. Guillory,"Opelousas, Louisiana",1942-11-10,7
T. Green,"Rochester, New York",1956-09-26,6
T. Graziani,"Las Vegas, Nevada",1973-12-23,7
T. Gonzalez,"Huntington Beach, California",1976-2-27,1
T. George,Cincinnati,1975-08-10,3
T. Fiammetta,"Kaneohe, Hawaii",1986-08-22,4
T. Eason,"Blythe, California",1959-10-08,1
T. Driver,"Louisville, Kentucky",1977-08-04,6
T. Dorsett,"Rochester, Pennsylvania",1954-04-07,1
T. Dixon,"Tuscaloosa, Alabama",1979-06-18,2
T. Degrate,"Snyder, Texas",1962-04-25,5
T. Davis,"Tecumseh, Nebraska",1953-01-21,4
T. Covington,"Winston-Salem, North Carolina",1967-12-26,4
T. Compagno,"Daly City, California",1921-01-29,21
T. Collins,"Sanford, Florida",1959-05-27,2
T. Chickillo,"Miami, Florida",1960-07-08,5
T. Casillas,"Tulsa, Oklahoma",1963-10-26,1
T. Canadeo,Chicago,1919-05-05,9
T. Butkovich,"St. David, Illinois",1921-04-04,1
T. Burse,"LaFayette, Georgia",1965-04-04,12
T. Bua,"New Orleans, Louisiana",1980-02-11,5
T. Bryant,"Marathon, Florida",1976-09-03,2
T. Brooks,"Tulsa, Oklahoma",1969-08-17,4
T. Boselli,"Modesto, California",1972-4-17,1
T. Berti,"Rock Springs, Wyoming",1972-06-21,6
