col0,col1,col2,col3
B. Briscoe,American people,1943-02-08,2010-12-28
B. Payne,Mexican people,1909-12-10,1987-02-07
B. Flores,Mexico,1984-05-24,2009-05-05
B. Foord,South African people,1913-01-21,1942-09-29
B. Jack,People of the United States,1921-04-01,2000-02-09
B. Shaw,Mexican people,1910-10-21,1994-08-27
B. Levinsky,United States,1891-06-10,1949-02-12
B. Brown,New Zealanders,1931-05-20,2004-11-01
B. Ross,Americans,1909-12-23,1967-01-17
B. J. Walcott,Barbadian people,1873-03-13,1935-10-01
B. Ki-suk,Korea,1987-05-29,2010-07-20
B. Arizmendi,Mexico,1913-03-17,1962-12-31
A. Rice,Americans,1872-12-25,1921-01-17
A. Toma,Romanians,1911-07-30,1980-08-25
A. Godoy,Chile,1911-10-10,1986-08-27
A. Levine,United States,1925-01-26,2012-01-13
A. Pelkey,Canada,1884-10-27,1921-02-18
A. King,Canadians,1927-02-23,2011-12-14
A. Chambers,English people,1846-12-06,1923-04-08
A. Oliver,United States,1911-03-25,1944-06-01
A. Lasky,United States,1908-11-16,1980-04-02
A. Moore,Americans,1913-12-13,1998-12-09
