col0,col1,col2,col3
Pole to Pole,Full Circle with Michael Palin,1992-12-09,3000
Poetic Justice,Game Plan,2012-10-08,3600
Pobre señorita Limantour,Tal como somos,1987-10-23,-2640
"Pobre rico, pobre",Eternamente Tuya,2009-01-09,3600
Pobre juventud,Pobre señorita Limantour,1987-03-24,-1320
Pobre Niña Rica,Azul,1996-01-05,-2640
Pobre Diabla,Milagros,2001-01-02,2700
Pobre Diabla,Quiéreme Tonto,2010-04-16,2520
Pleasantly Surprised,Aim High,2014-10-17,5400
Planet Earth,Frozen Planet,2006-12-10,3600
Pirivom Santhippom,Aaha,2012-05-04,-1320
Pira-pirasong Pangarap,"Nagmamahal, Manay Gina",2003-02-21,1800
Pinwheel,Nick Jr.,1990-07-06,-14400
Pinoy Abroad,100% Pinoy,2006-06-28,3600
Pinky and the Brain,"Pinky, Elmyra & the Brain",1998-11-14,1320
Pink Panther and Sons,The Pink Panther,1985-02-26,-660
Pillow Talk,Absolutely Charming,2012-04-30,2700
Pillai Nila,Chandralekha,2014-09-13,-1320
Pilipinas Win Na Win,Happy Yipee Yehey!,2010-12-31,3600
Pilipinas News,Aksyon,2014-07-18,1800
"Pilipinas, Game Ka Na Ba?",It's Showtime,2009-10-23,2700
Pigmalião 70,A Próxima Atração,1970-10-24,1800
Piers Morgan Live,Crossfire,2014-03-28,2520
Piel de otoño,El Amor no Tiene Precio,2005-09-23,-2640
Piano,We Are Dating Now,2002-01-10,1315
Phred on Your Head Show,The URL with Phred Show,2002-03-31,-3600
Phoenix Nights,Max and Paddy's Road to Nowhere,2002-09-12,1440
Phoenix,Janus,1993-06-03,3000
Phineas and Ferb,List of Phineas and Ferb episodes,2015-06-12,1320
Phantom,To the Beautiful You,2012-08-09,1315
Peyton Place,Return to Peyton Place,1969-06-02,1440
Personalan,Love Hotline,2013-10-18,3600
Perry Mason,Perry Mason,1966-05-22,3120
Perro amor,El fantasma de Elena,2010-07-19,-2700
Peregrina,Heridas de amor,2006-03-31,-2640
Pepeng Agimat,Tonyong Bayawak,2010-02-27,2700
Penn,Lakshmi,2006-11-24,-1320
Penn & Teller's Sin City Spectacular,Penn and Teller: Bullshit!,1999-06-30,3600
Pecados ajenos,Sin Senos no hay Paraíso,2008-06-13,2520
Pecadora,Sacrificio de Mujer,2010-06-19,-2640
Pecado Rasgado,Feijão Maravilha,1979-03-16,2400
Pecado Capital,O Casarão,1976-06-04,3000
Payday,Moneymakers,1974-12-29,1800
Paul Merton in China,Paul Merton in India,2007-06-11,3600
Patayin sa Sindak si Barbara,Maligno,2008-04-25,-2700
Password Plus and Super Password,Million Dollar Password,1982-03-26,1440
Password,Password Plus and Super Password,1975-06-27,-1380
Passione,Insensato Coração,2011-01-14,3600
Passionate Love,Glorious Day,2014-03-23,1245
Pasión y poder,El hotel de los secretos,2016-04-10,-2700
Pasión de Gavilanes,"¡Anita, no te rajes!",2004-09-14,-2700
Pasión,Fuego en la sangre,2008-02-22,-2640
Pasión y poder,El hotel de los secretos,2016-04-10,-2700
Pasión de Gavilanes,"¡Anita, no te rajes!",2004-09-14,-2700
Pasión,Fuego en la sangre,2008-02-22,-2640
Party Pilipinas,Sunday All Stars,2013-05-19,3000
Partners with Mel Tiangco,Mel and Joey,2004-08-08,1800
Partners Mel and Jay,Partners with Mel Tiangco,2004-02-08,1800
Partido Alto,Corpo a Corpo,1984-11-23,3000
Paris Hilton's My New BFF,Paris Hilton's British Best Friend,2008-12-02,2520
Paris Hilton's British Best Friend,Paris Hilton's My New BFF,2009-03-19,2700
Parenthood,Parenthood,1991-08-11,1800
Paraíso Tropical,Duas Caras,2007-09-28,3000
Paraíso,Cama de Gato,2009-10-02,3000
Paranormal State,Paranormal State: The New Class,2011-05-02,1320
Paradise Hotel,Paradise Hotel 2,2003-10-01,2700
Para volver a amar,Rafaela,2011-01-30,-2700
Para toda la vida,Cañaveral de Pasiones,1996-08-02,-1320
Paraíso Tropical,Duas Caras,2007-09-28,3000
Paraíso,Cama de Gato,2009-10-02,3000
Papá a la deriva,Pobre Gallo,2016-02-29,3600
Paparazzi,Ang Latest,2012-07-28,-3600
Papá a la deriva,Pobre Gallo,2016-02-29,3600
Pangunahing Balita,Balitang Balita,1972-09-22,-1800
Pandora's Box,The Living Dead,1992-07-16,21600
Palimos ng Pag-ibig,Hiram na Mukha,2007-04-20,1800
Palabra de mujer,Querida Enemiga,2008-05-09,3600
Palaban,Born to Be Wild,2007-11-14,3600
Pakeezah,Sang-e-Mar Mar,2016-08-25,-2700
Painter of the Wind,Star's Lover,2008-12-04,1315
Pai Herói,Os Gigantes,1979-08-18,3000
Pages of Treasures,Royal Tramp,2009-01-02,2700
Padre Tião,O Santo Mestiço,1966-02-17,1800
Padam Padam... The Sound of His and Her Heartbeats,Syndrome,2012-02-07,1245
Pablo y Andrea,La fea más bella,2005-12-09,-2640
PDQ,PDQ,1969-09-26,1440
PBA on Vintage Sports,PBA on Viva TV,1999-12-12,9000
PBA on NBN/IBC,PBA on ABC,2003-12-14,9000
PBA on MBS,PBA on Vintage Sports,1981-11-28,9000
PBA on BBC,PBA on KBS,1976-12-21,9000
Pé na Jaca,Sete Pecados,2007-06-15,2700
Pátria Minha,A Próxima Vítima,1995-03-10,3000
Páginas da Vida,Paraíso Tropical,2007-03-02,3000
Over the Rainbow,Superstar,2010-05-22,-5400
Outbound Love,Storm in a Cocoon,2014-02-14,2700
Os Gigantes,Água Viva,1980-02-02,3000
Oru Kai Osai,Lakshmi Vanthachu,2015-01-30,-1320
Orson Welles' Sketch Book,Around the World with Orson Welles,1955-05-28,900
Open All Hours,Still Open All Hours,1985-10-06,1800
Only You,Relic of an Emissary,2011-04-02,2700
Only Love,"Run, Jang-mi",2014-12-12,1160
One Well-Raised Daughter,Only Love,2014-05-30,1160
One Warm Word,God's Gift - 14 Days,2014-02-24,1315
One Morning Cafe,NBC Nightly News,2010-06-29,7200
One Mom and Three Dads,Women of the Sun,2008-05-22,1315
One Million Star,"One Million Star, Season 2",2007-07-13,7200
Once Upon a Love,The Queen of SOP,2012-10-07,5400
On the Spot,Jet Set,2000-09-02,1800
On the Fringe 2011,Bountiful Blessings,2011-08-29,2700
On the First Beat,E.U.,2007-07-13,2700
On the Buses,Don't Drink the Water,1973-05-06,1500
On Tiptoes,The Dots,2003-04-16,5400
On Air,Iljimae,2008-05-15,1315
Olho no Olho,A Viagem,1994-04-08,3000
Old Time Buddy,Old Time Buddy - To Catch a Thief,1997-07-26,2700
Ojakgyo Family,My Husband Got a Family,2012-02-19,1195
Ohlala Couple,School 2013,2012-11-27,1315
Ohisama,Carnation,2011-10-01,900
Oh Yeah! Cartoons,Random! Cartoons,2001-05-25,420
Oh My Ghostess,Twenty Again,2015-08-22,1230
Oh Feel Young,"I'm Sorry, I Love You",2004-11-02,1315
Oh Boy!,Boy Meets Girls,1959-05-30,1500
Oh! My Lady,Coffee House,2010-05-11,1255
Officer Geomancer,Madam Cutie On Duty,2015-01-09,2700
Office,Rettai Vaal Kuruvi,2015-06-05,-1320
Off the Beaten Track,Wild Ireland,2013-12-13,1800
