col0,col1,col2,col3
Without Evidence,A. Jolie,G. Dennis,5580
Without Dowry,N. Alisova,A. Ostrovsky,5100
Without Consent,J. Garth,T. Kring,5280
Without Compassion,D. Bertie,F. Dostoyevsky,7200
Without Anesthesia,K. Janda,A. Wajda,7860
Withnail and I,P. McGann,B. Robinson,6420
Within the Woods,B. Campbell,S. Raimi,1920
Within the Law,R. Hussey,C. Lederer,3900
Within the Law,M. Starr,W. J. Lincoln,3600
Within These Walls,M. Anderson,W. Tuchock,4260
Within Our Gates,E. Preer,O. Micheaux,4740
With the East Wind,A. Gades,M. Camus,5220
With a Song in My Heart,R. Calhoun,L. Trotti,7020
With a Little Help from Myself,C. Rich,F. Dupeyron,5640
With Six You Get Eggroll,D. Day,R. Allen,5700
With Love and Hisses,O. Hardy,H. Roach,1260
With Love... from the Age of Reason,S. Marceau,Y. Samuell,5820
With Honors,G. Vidal,W. Mastrosimone,6180
With Fire and Sword,I. Scorupco,J. Hoffman,10500
With Children at the Seaside,G. Partsalev,M. Brothers,4800
With Byrd at the South Pole,R. E. Byrd,J. Johnson,4920
With Beauty and Sorrow,K. Yachigusa,Y. Kawabata,6360
Witchhammer,V. Šmeral,O. Vávra,6180
Witchfinder General,I. Ogilvy,M. Reeves,5160
Witches of the Caribbean,J. Cassidy,J. K. Arnold,4920
Witchcraft,F. Ward,M. Turnbull,3000
Witchboard III: The Possession,C. Smith,K. S. Tenney,6000
Witchboard 2: The Devil's Doorway,L. Newman,K. Tenney,5880
Witchboard,R. Marie,K. Tenney,5880
Wishmaster 2: Evil Never Dies,B. Woodbine,J. Sholder,5760
Wish upon a Pike,G. Millyar,Y. Tarakhovskaya,3360
Wish You Were Here,J. Edgerton,K. Darcy-Smith,5340
Wish You Were Here,E. Lloyd,D. Leland,5520
Wise Guys,D. DeVito,G. Gallo,6000
Wise Guys,J. Brialy,C. Chabrol,5940
Wise Girls,C. Blandick,E. Nugent,5820
Wise Girl,R. Milland,A. Scott,4200
Wise Blood,A. Wright,F. O'Connor,6480
Wisdom,D. Moore,E. Estevez,6540
Wiretapper,B. Williams,J. O'Dea,4800
Wired,L. Jenney,B. Woodward,6720
Wir Wunderkinder,R. Graf,G. Neumann,6420
Wintertime,S. Henie,A. Kober,4920
Winterspelt,G. Sewell,A. Andersch,6600
Winterset,B. Meredith,M. Anderson,4620
Winterhawk,L. Erickson,C. B. Pierce,5880
Winter of Our Dreams,B. Luhrmann,J. Duigan,5340
Winter in the Woods,V. Staal,F. P. Buch,5520
Winter in the Woods,C. Holm,A. Teichs,5820
Winter in Wartime,J. C. Bower,M. Koolhoven,6180
Winter Wonderland,E. Donahue,A. Marx,4260
Winter Solstice,A. LaPaglia,J. Sternfeld,5340
Winter Sleepers,J. Bierbichler,T. Tykwer,7440
Winter Sleep,H. Bilginer,N. B. Ceylan,11760
Winter People,K. Russell,J. Ehle,6600
Winter Passing,E. Harris,A. Rapp,5880
Winter Meeting,B. Davis,G. Z. Stone,6240
Winter Light,M. v. Sydow,I. Bergman,4860
Winter Kills,A. Perkins,R. Condon,5820
Winter Kill,N. Nolte,J. M. Hayes,5640
Winter Kept Us Warm,J. Fielding,D. Secter,4860
Winter Evening in Gagra,Y. Yevstigneyev,K. Shakhnazarov,5400
Winter 1960,P. Léotard,T. Michel,5400
Winter's Bone,J. Lawrence,A. Rosellini,6000
Winning of the West,G. Autry,N. S. Hall,3420
Winning Your Wings,J. Stewart,O. Crump,1080
Winning: The Racing Life of Paul Newman,P. Newman,A. Carolla,4980
Winnie the Pooh and the Blustery Day,P. Winchell,R. Wright,1500
Winnie the Pooh and a Day for Eeyore,P. Winchell,A. A. Milne,1500
Winnie the Pooh and Christmas Too,K. Sansom,M. Zaslove,1560
Winnie the Pooh Discovers the Seasons,H. Smith,R. Kidd,480
Winners of the West,C. Stevens,G. H. Plympton,14820
Winners and Sinners,J. Chan,S. Hung,6060
Winner Takes All,C. Slimani,C. Slimani,360
Winner Takes All,R. Hui,K. Maka,5460
Winner Take All,T. Martin,A. Ray,3600
