col0,col1,col2,col3,col4
R. Khosla,M. Luthria,Mumbai,1925-05-31,1925-05-31
R. Kapoor,R. Kapoor,India,1924-12-14,1924-12-14
R. Bardem,J. A. Bardem,Madrid,1889-01-10,1889-01-10
R. Banquells,R. Banquells,Mexico,1917-06-25,1917-06-25
R. Vallone,E. Vallone,Rome,1916-02-17,1916-02-17
R. Kempson,C. Redgrave,New York,1910-05-28,1910-05-28
P. Kapoor,R. Kapoor,Bombay,1906-11-03,1906-11-03
P. Nazir,Shanavas,Chennai,1929-12-16,1929-12-16
P. Nath,P. Krishen,Maharashtra,1926-11-21,1926-11-21
P. Kaas,N. L. Kaas,Copenhagen,1930-03-30,1930-03-30
Pran,S. Sikand,Maharashtra,1920-02-12,1920-02-12
P. Colvig,V. Colvig,United States,1892-09-11,1892-09-11
P. Cousteau,P. C. Jr.,Lisbon,1940-12-30,1940-12-30
P. Sellers,M. Sellers,London,1925-09-08,1925-09-08
P. O'Toole,K. O'Toole,"Wellington Hospital, London",1932-08-02,1932-08-02
P. Lindgren,M. Nielsen,Stockholm,1915-12-13,1915-12-13
P. Cookson,"Peter W. Cookson, Jr.",Massachusetts,1913-05-08,1913-05-08
P. Butterworth,T. Butterworth,Coventry,1919-02-04,1919-02-04
P. Armendáriz,P. A. Jr.,California,1912-05-09,1912-05-09
P. Winchell,A. Winchell,Los Angeles,1922-12-21,1922-12-21
P. Robeson,P. R. Jr.,Pennsylvania,1898-04-09,1898-04-09
P. Newman,M. Newman,"Westport, Connecticut",1925-01-26,1925-01-26
P. Duke,S. Astin,"Coeur d'Alene, Idaho",1946-12-14,1946-12-14
P. Wymark,J. Wymark,Australia,1926-07-11,1926-07-11
P. Troughton,D. Troughton,"Columbus, Georgia",1920-03-25,1920-03-25
P. McGoohan,C. McGoohan,Los Angeles,1928-03-19,1928-03-19
P. Neal,L. Dahl,"Edgartown, Massachusetts",1926-01-20,1926-01-20
P. Hayes,R. O'Callaghan,England,1909-12-22,1909-12-22
P. Mori,B. Welles,Las Vegas Valley,1928-09-18,1928-09-18
P. Magalona,F. Magalona,Philippines,1921-0-0,1921-0-0
P. Ramlee,N. P. Ramlee,Kuala Lumpur,1929-03-22,1929-03-22
P. Lankesh,K. Lankesh,Bangalore,1935-03-08,1935-03-08
P. J. Sarma,P. R. Shankar,Hyderabad,1933-5-24,1933-5-24
O. Nelson,R. Nelson,"Hollywood, California",1906-03-20,1906-03-20
O. Fries,S. Fries,California,1887-10-28,1887-10-28
O. Skinner,C. O. Skinner,New York City,1858-06-28,1858-06-28
O. Davis,G. Davis,Miami,1917-12-18,1917-12-18
O. Perkins,A. Perkins,"Washington, D.C.",1892-05-16,1892-05-16
O. Welles,B. Welles,Los Angeles,1915-05-06,1915-05-06
O. O'Neill,G. Chaplin,Switzerland,1925-05-14,1925-05-14
O. Shivpuri,R. Shivpuri,Maharashtra,1938-0-0,1938-0-0
O. S. Juan,B. O'Brien,United States,1927-03-16,1927-03-16
O. Olsen,M. Lear,"Albuquerque, New Mexico",1892-11-06,1892-11-06
N. Westman,K. Williamson,"Burbank, California",1902-02-19,1902-02-19
Nutan,M. Bahl,India,1936-06-04,1936-06-04
N. Yemm,J. Yemm,"Rosebud, Victoria",1933-03-23,1933-03-23
N. Mitchell,C. Mitchell,England,1918-08-27,1918-08-27
N. Shearer,I. T. Jr.,California,1902-08-11,1902-08-11
N. MacMillan,S. Arngrim,British Columbia,1921-09-15,1921-09-15
N. Harrison,C. Harrison,Devon,1934-01-29,1934-01-29
N. Courcel,J. Andrieu,Paris,1931-10-21,1931-10-21
N. Adams,J. S. Adams,California,1931-07-10,1931-07-10
N. Smith,C. Russell,"Sutton, London",1934-03-05,1934-03-05
N. Katzenbach,J. Katzenbach,New Jersey,1922-01-17,1922-01-17
N. Parry,I. Brook,Saint-Nazaire,1930-12-02,1930-12-02
N. Wood,N. G. Wagner,"Santa Catalina Island, California",1938-07-20,1938-07-20
N. Hussain,M. Khan,Mumbai,1931-02-03,1931-02-03
N. Banu,S. Banu,India,1916-07-04,1916-07-04
Nargis,P. Dutt,Maharashtra,1929-06-01,1929-06-01
N. Reagan,R. Reagan,"Bel Air, Los Angeles",1921-07-06,1921-07-06
Nagesh,A. Babu,Chennai,1933-08-27,1933-08-27
Nagavally R. S. Kurup,V. Nagavally,Thiruvananthapuram,1917-0-0,1917-0-0
N. Viswanathan,A. Viswanathan,Kolkata,1929-0-0,1929-0-0
N. T. Rama Rao,N. Balakrishna,Andhra Pradesh,1923-05-28,1923-05-28
M. Stedman,L. Stedman,Hollywood,1883-03-03,1883-03-03
Murali,Adharvaa,Chennai,1964-05-19,1964-05-19
M. Ali,A. Ali,Bangalore,1912-0-0,1912-0-0
M. Ali,L. Ali,"Scottsdale, Arizona",1942-01-17,1942-01-17
M. Bruns,F. Thomas,Los Angeles,1899-11-26,1899-11-26
M. Howard,J. H. Maurer,California,1897-06-19,1897-06-19
M. B. Nethery,J. Gulager,Los Angeles,1929-05-17,1929-05-17
M. Chiaki,K. Sasaki,"Fuchū, Tokyo",1917-04-28,1917-04-28
M. Kibbee,L. Kibbee,"Simi Valley, California",1896-01-27,1896-01-27
M. Korjus,M. F. Wells,California,1909-08-18,1909-08-18
M. Chiaureli,S. Chiaureli,Georgia,1894-02-06,1894-02-06
M. Wallace,C. Wallace,"New Haven, Connecticut",1918-05-09,1918-05-09
M. Pratt,G. Pratt,Midhurst,1931-06-07,1931-06-07
M. Marshall,W. Marshall,Caen,1944-09-13,1944-09-13
M. Hargitay,M. Hargitay,California,1926-01-06,1926-01-06
M. Williams,F. Williams,England,1935-07-09,1935-07-09
M. Redgrave,C. Redgrave,Buckinghamshire,1908-03-20,1908-03-20
M. Flanders,L. Flanders,Betws-y-Coed,1922-03-01,1922-03-01
M. Ansara,M. Ansara,"Calabasas, California",1922-04-15,1922-04-15
M. Johns,G. Johns,London,1899-02-18,1899-02-18
M. Blanc,N. Blanc,California,1908-05-30,1908-05-30
M. Ali,L. Ali,Pennsylvania,1932-09-29,1932-09-29
M. Braunek,X. Żuławski,Frankfurt,1947-01-30,1947-01-30
M. Dorléac,C. Deneuve,Paris,1901-03-26,1901-03-26
M. Costello,D. Costello,Hollywood,1877-02-22,1877-02-22
M. O'Sullivan,M. Farrow,"Scottsdale, Arizona",1911-05-17,1911-05-17
M. O'Hara,C. Cork,"Boise, Idaho",1920-08-17,1920-08-17
M. Robinson,H. R. Peete,Los Angeles,1937-01-01,1937-01-01
M. Mercader,M. D. Sica,Rome,1918-03-06,1918-03-06
M. Félix,E. Á. Félix,Mexico,1914-04-08,1914-04-08
M. Ure,I. Shaw,London,1933-02-18,1933-02-18
M. Martin,L. Hagman,"Rancho Mirage, California",1913-12-01,1913-12-01
M. Forbes,R. Forbes,"Beaumont, California",1879-12-30,1879-12-30
M. Gabel,P. Gabel,New York City,1912-06-19,1912-06-19
M. Balsam,T. Balsam,Rome,1914-11-4,1914-11-4
M. Stedman,L. Stedman,"Laguna Beach, California",1874-08-16,1874-08-16
M. Brando,C. Brando,Los Angeles,1924-04-03,1924-04-03
M. Dietrich,M. Riva,France,1901-12-27,1901-12-27
M. Lord,A. Archer,"Beverly Hills, California",1918-07-26,1918-07-26
M. Barry,M. C. Barry,"Washington, D.C.",1936-03-06,1936-03-06
M. Berti,A. Giordana,Rome,1924-09-29,1924-09-29
M. Burke,P. Burke,France,1894-10-18,1894-10-18
M. Montez,T. Aumont,Suresnes,1912-06-06,1912-06-06
Margo,E. Albert,"Pacific Palisades, Los Angeles",1917-05-10,1917-05-10
M. Scott,S. Wooldridge,London,1912-02-13,1912-02-13
M. Wycherly,A. Veiller,New York City,1881-10-26,1881-10-26
M. Sullavan,B. Hayward,"New Haven, Connecticut",1909-05-16,1909-05-16
M. Lockwood,J. Lockwood,Kensington,1916-09-15,1916-09-15
M. Field,S. Field,"Malibu, California",1922-05-10,1922-05-10
M. Mastroianni,C. Mastroianni,Paris,1924-09-28,1924-09-28
M. Mercader,M. D. Sica,Rome,1918-03-06,1918-03-06
M. Félix,E. Á. Félix,Mexico,1914-04-08,1914-04-08
M. Vijayakumar,A. Vijay,Chennai,1953-09-09,1953-09-09
M. X,A. Shabazz,Manhattan,1925-05-19,1925-05-19
M. Vasudevan,Prashanthini,Chennai,1944-06-15,1944-06-15
M. Throne,Z. Throne,"Brentwood, Los Angeles",1928-12-01,1928-12-01
M. Barrett,R. Roddenberry,"Bel Air, Los Angeles",1932-02-23,1932-02-23
M. Schneider,R. Schneider,Bavaria,1909-05-17,1909-05-17
M. Costello,D. Costello,Los Angeles,1882-08-13,1882-08-13
M. Braunek,X. Żuławski,Frankfurt,1947-01-30,1947-01-30
L. Shum,J. Cheng,Princess Margaret Hospital,1945-6-1,1945-6-1
L. Tuttle,B. Ruick,California,1907-08-29,1907-08-29
L. Pirandello,F. Pirandello,Kingdom of Italy,1867-06-28,1867-06-28
L. Ball,D. A. Jr.,"Beverly Hills, California",1911-08-06,1911-08-06
L. Scheimer,E. Scheimer,California,1928-10-19,1928-10-19
L. Young,J. Lewis,Los Angeles,1913-01-06,1913-01-06
L. d. Rodas,L. Daniel,Cuernavaca,1930-1-1,1930-1-1
L. Chaney,L. C. Jr.,Los Angeles,1883-04-01,1883-04-01
Lokesh,S. Lokesh,Bangalore,1900-12-20,1900-12-20
L. Andrews,K. Brodie,United States,1924-03-24,1924-03-24
L. West,T. West,Brighton,1905-07-28,1905-07-28
L. Bridges,J. Bridges,Los Angeles,1913-01-15,1913-01-15
L. Bochner,H. Bochner,California,1924-07-29,1924-07-29
L. Grey,C. C. Jr.,Los Angeles,1908-04-15,1908-04-15
L. McCartney,M. McCartney,"Tucson, Arizona",1941-09-24,1941-09-24
L. Christian,R. Power,"Palm Springs, California",1923-11-13,1923-11-13
L. Kilpatrick,L. K. Jr.,Los Angeles,1932-02-12,1932-02-12
L. Lawrence,E. G. Terry,"Beverly Hills, California",1868-02-17,1868-02-17
L. Elliott,L. Corrigan,Hollywood,1874-04-24,1874-04-24
L. Palmer,C. Harrison,Los Angeles,1914-05-24,1914-05-24
L. Constantini,D. Schneidre,Saint-Tropez,1902-09-26,1902-09-26
L. Damita,S. Flynn,"Palm Beach, Florida",1904-07-10,1904-07-10
L. Fields,J. Fields,United States,1867-1-1,1867-1-1
L. Howard,R. Howard,Bay of Biscay,1893-04-03,1893-04-03
L. Crowther,L. Crowther,"Bath, Somerset",1933-02-06,1933-02-06
L. Sachs,R. Sachs,London,1909-09-26,1909-09-26
L. Penn,M. Penn,California,1921-08-27,1921-08-27
L. McKern,A. McKern,"Bath, Somerset",1920-03-16,1920-03-16
L. Strasberg,J. Strasberg,New York City,1901-11-17,1901-11-17
L. J. Cobb,J. Cobb,"Woodland Hills, California",1911-12-08,1911-12-08
L. Hoi-chuen,B. Lee,Hong Kong,1901-2-4,1901-2-4
L. Taylor,D. Taylor,New York City,1883-04-01,1883-04-01
L. Harvey,D. Harvey,England,1928-10-01,1928-10-01
L. Bacall,S. Robards,Manhattan,1924-09-16,1924-09-16
L. Devon,K. Jarre,"Beverly Hills, California",1931-05-23,1931-05-23
L. Ekborg,A. Ekborg,Ängelholm,1926-06-06,1926-06-06
L. Parks,A. Parks,"Studio City, Los Angeles",1914-12-13,1914-12-13
L. Turner,C. Crane,California,1921-02-08,1921-02-08
L. F. Baum,F. J. Baum,California,1856-05-15,1856-05-15
K. Sakamoto,H. Oshima,"Ueno, Gunma",1941-12-10,1941-12-10
K. Katch,V. Katch,"Los Angeles, California",1896-01-28,1896-01-28
K. Cobain,F. B. Cobain,Seattle,1967-02-20,1967-02-20
K. Kinski,N. Kinski,"Lagunitas-Forest Knolls, California",1926-10-18,1926-10-18
K. Anderzon,T. Anderzon,"Lindholmen, Vallentuna",1943-03-20,1943-03-20
K. A. Rahman,Agun,Dhaka,1928-12-11,1928-12-11
K. Michell,H. Michell,Chichester,1926-12-01,1926-12-01
K. Andes,M. Andes,California,1920-07-12,1920-07-12
K. Johnson,J. Cromwell,"Waterford, Connecticut",1904-11-29,1904-11-29
K. Hammond,J. Standing,Brighton,1909-02-18,1909-02-18
K. Lockhart,J. Lockhart,Los Angeles,1894-08-09,1894-08-09
K. Cassavetes,J. Cassavetes,Los Angeles,1906-06-24,1906-06-24
K. Gerhard,P. Gerhard,Saltsjöbaden,1891-04-14,1891-04-14
K. Black,H. Carson,California,1939-07-01,1939-07-01
K. Kapoor,F. Director,Mumbai,1920-02-22,1920-02-22
K. P. Ummer,R. Ummer,Chennai,1930-10-11,1930-10-11
