col0,col1,col2,col3
H. Flavin,Croom GAA,1981-1-1,1981-1-1
H. Emerson,Portarlington GAA,1974-1-1,1974-1-1
H. Downey,Lavey GAC,1966-12-27,1966-12-27
H. Dawson,Skerries Harps GAA,1992-3-28,1992-3-28
G. Maher,Claremorris GAA,1967-0-0,1967-0-0
G. O'Connell,Austin Stacks,1987-1-1,1987-1-1
G. Geraghty,Clann na nGael GAA,1973-5-17,1973-5-17
G. Clarke,Ballygalget GAA,1974-3-27,1974-3-27
G. Callinan,Glen Rovers GAA,1982-1-1,1982-1-1
G. Mulcahy,Kilmallock GAA,1990-6-2,1990-6-2
G. Ryan,Round Towers GAA,1972-10-20,1972-10-20
G. Quinn,Corofin GAA,1980-7-24,1980-7-24
G. McInerney,Sixmilebridge GAA,1961-1-1,1961-1-1
G. McElhinney,Banagher GAC,1956-9-19,1956-9-19
G. Keegan,Celbridge GAA,1994-3-12,1994-3-12
G. Murphy,Midleton GAA,1928-1-1,1928-1-1
G. McCarthy,St. Finbarr's GAA,1945-9-12,1945-9-12
G. Rogan,O'Donovan Rossa GAC Belfast,1963-1-1,1963-1-1
G. Reidy,Castleisland Desmonds,1986-6-29,1986-6-29
G. Power,Midleton GAA,1960-5-9,1960-5-9
G. Power,Austin Stacks,1952-6-27,1952-6-27
G. O'Driscoll,Newcestown GAA,1987-2-5,1987-2-5
G. Lynch,Valentia Young Islanders,1958-12-10,1958-12-10
G. Cunningham,St. Finbarr's GAA,1961-8-30,1961-8-30
G. Garrett,Blackrock GAA,1909-1-1,1909-1-1
G. McGonagle,Dungiven GAC,1974-9-26,1974-9-26
G. Savage,Ballycran GAA,1970-0-0,1970-0-0
G. Maguire,Ballyboden St. Enda's GAA,1983-6-26,1983-6-26
G. Kavanagh,Stradbally GAA,1979-1-1,1979-1-1
G. Coleman,Magherafelt GAC,1972-6-26,1972-6-26
G. Howard,Croom GAA,1899-12-10,1899-12-10
G. Johnson,Ballygalget GAA,1974-3-27,1974-3-27
G. Clarke,Ballygalget GAA,1981-1-1,1981-1-1
F. Walsh,Mount Sion GAA,1936-0-0,1936-0-0
F. Donnelly,Carrickmore St. Colmcille's GFC,1933-1-1,1933-1-1
F. Stockwell,Tuam Stars,1928-12-7,1928-12-7
F. McGlynn,Glenfin GAA,1986-0-0,1986-0-0
F. Cummins,Blackrock GAA,1947-11-9,1947-11-9
F. Cogan,UCC GAA,1944-1-1,1944-1-1
F. Bellew,Crossmaglen Rangers GAC,1976-3-25,1976-3-25
F. Coffey,Thurles Sarsfields GAA,1920-1-1,1920-1-1
F. Hanley,Salthill-Knocknacarra GAA,1985-1-4,1985-1-4
F. Delaney,Blackrock GAA,1956-1-1,1956-1-1
F. McCusker,Glen GAC,1970-3-16,1970-3-16
F. Healy,Craughwell GAA,1977-1-1,1977-1-1
F. Hartley,Ballygunner GAA,1972-2-4,1972-2-4
F. Doherty,Bellaghy GAC,1981-10-7,1981-10-7
E. Reilly,Abbeyleix GAA,1989-1-1,1989-1-1
E. Quigley,Sarsfields GAA,1981-10-13,1981-10-13
E. Mulligan,Cookstown Fr. Rock's GAC,1981-6-3,1981-6-3
E. McGrath,Mount Sion GAA,1980-11-2,1980-11-2
