col0,col1,col2,col3
C. D. Haines,B. F. Haines,1856-06-09,1929-04-11
C. A. Lindbergh,C. Lindbergh,1859-01-20,1924-05-24
C. H. Sr.,C. H. Jr.,1825-02-15,1893-10-28
B. P. Jr.,B. T. Pickman,1763-09-30,1843-08-16
B. Butler,B. B. Ames,1818-11-05,1893-01-11
B. Arnold,B. Arnold,1780-10-05,1849-03-03
B. Storer,B. Storer,1796-03-26,1875-06-01
B. Bidwell,M. S. Bidwell,1763-08-23,1833-07-27
A. Livermore,S. Livermore,1766-07-29,1853-07-01
A. Mitchell,J. L. Mitchell,1817-10-17,1887-04-19
