[
    {
        "Position": "P",
        "Player": "Dizzy Dean",
        "Team": "Cardinals",
        "All-Star Games": "3"
    },
    {
        "Position": "C",
        "Player": "Gabby Hartnett",
        "Team": "Cubs",
        "All-Star Games": "4"
    },
    {
        "Position": "1B",
        "Player": "Ripper Collins",
        "Team": "Cardinals",
        "All-Star Games": "2"
    },
    {
        "Position": "2B",
        "Player": "Billy Herman",
        "Team": "Cubs",
        "All-Star Games": "3"
    },
    {
        "Position": "3B",
        "Player": "Pinky Whitney",
        "Team": "Phillies",
        "All-Star Games": "1"
    },
    {
        "Position": "SS",
        "Player": "Leo Durocher",
        "Team": "Cardinals",
        "All-Star Games": "1"
    },
    {
        "Position": "LF",
        "Player": "Joe Medwick",
        "Team": "Cardinals",
        "All-Star Games": "3"
    },
    {
        "Position": "CF",
        "Player": "Augie Galan",
        "Team": "Cubs",
        "All-Star Games": "1"
    },
    {
        "Position": "RF",
        "Player": "Frank Demaree",
        "Team": "Cubs",
        "All-Star Games": "1"
    }
]