[
    {
        "NO-HEADER0": "1",
        "NO-HEADER1": "Hindi, Urdu, Hindustani, Punjabi[9]",
        "Speakers": "149,944,311",
        "Percentage": "42.01%"
    },
    {
        "NO-HEADER0": "2",
        "NO-HEADER1": "Telugu",
        "Speakers": "32,999,916",
        "Percentage": "9.24%"
    },
    {
        "NO-HEADER0": "3",
        "NO-HEADER1": "Marathi",
        "Speakers": "27,049,522",
        "Percentage": "7.57%"
    },
    {
        "NO-HEADER0": "4",
        "NO-HEADER1": "Tamil",
        "Speakers": "26,546,764",
        "Percentage": "7.43%"
    },
    {
        "NO-HEADER0": "5",
        "NO-HEADER1": "Bengali",
        "Speakers": "253,121,674",
        "Percentage": "7.03%"
    },
    {
        "NO-HEADER0": "7",
        "NO-HEADER1": "Gujarati",
        "Speakers": "16,310,771",
        "Percentage": "4.57%"
    },
    {
        "NO-HEADER0": "8",
        "NO-HEADER1": "Kannada",
        "Speakers": "14,471,764",
        "Percentage": "4.05%"
    },
    {
        "NO-HEADER0": "9",
        "NO-HEADER1": "Malayalam",
        "Speakers": "13,380,109",
        "Percentage": "3.69%"
    },
    {
        "NO-HEADER0": "10",
        "NO-HEADER1": "Odia",
        "Speakers": "13,153,909",
        "Percentage": "3.21%"
    },
    {
        "NO-HEADER0": "6",
        "NO-HEADER1": "Assamese",
        "Speakers": "4,988,226",
        "Percentage": "1.39%"
    }
]