[
    {
        "Rank": "1",
        "Company": "Banner Health",
        "Employees": "38,527",
        "Industry": "Health care"
    },
    {
        "Rank": "2",
        "Company": "Wal-Mart Stores, Inc.",
        "Employees": "32,000",
        "Industry": "Discount retailer"
    },
    {
        "Rank": "3",
        "Company": "Kroger Co.",
        "Employees": "16,857",
        "Industry": "Grocery stores"
    },
    {
        "Rank": "4",
        "Company": "Wells Fargo & Co.",
        "Employees": "14,613",
        "Industry": "Financial services"
    },
    {
        "Rank": "5",
        "Company": "Albertsons Inc.",
        "Employees": "14,490",
        "Industry": "Grocery stores, retail drugstores"
    },
    {
        "Rank": "6",
        "Company": "McDonald's Corp.",
        "Employees": "13,853",
        "Industry": "Food service"
    },
    {
        "Rank": "7",
        "Company": "Intel Corp.",
        "Employees": "11,000",
        "Industry": "Semiconductor manufacturing"
    },
    {
        "Rank": "8",
        "Company": "HonorHealth",
        "Employees": "10,500",
        "Industry": "Health care"
    },
    {
        "Rank": "9",
        "Company": "Circle K Corp.",
        "Employees": "10,436",
        "Industry": "Convenience stores"
    },
    {
        "Rank": "10",
        "Company": "American Airlines",
        "Employees": "10,100",
        "Industry": "Airline"
    }
]