[
    {
        "Rank": "1",
        "Mountain Peak": "Mount Harvard NGS",
        "Elevation": "14,421 ft 4396 m",
        "Prominence": "2,327 ft 709 m",
        "Isolation": "14.92 mi 24.0 km"
    },
    {
        "Rank": "2",
        "Mountain Peak": "La Plata Peak[2]",
        "Elevation": "14,343 ft 4372 m",
        "Prominence": "1,841 ft 561 m",
        "Isolation": "6.28 mi 10.10 km"
    },
    {
        "Rank": "3",
        "Mountain Peak": "Mount Belford NGS",
        "Elevation": "14,204 ft 4329 m",
        "Prominence": "1,317 ft 401 m",
        "Isolation": "3.30 mi 5.31 km"
    },
    {
        "Rank": "4",
        "Mountain Peak": "Mount Princeton NGS",
        "Elevation": "14,204 ft 4329 m",
        "Prominence": "2,156 ft 657 m",
        "Isolation": "AC/EUR\""
    },
    {
        "Rank": "5",
        "Mountain Peak": "Mount Yale NGS",
        "Elevation": "14,202 ft 4329 m",
        "Prominence": "1,876 ft 572 m",
        "Isolation": "5.55 mi 8.93 km"
    },
    {
        "Rank": "6",
        "Mountain Peak": "Mount Oxford NGS",
        "Elevation": "14,160 ft 4316 m",
        "Prominence": "633 ft 193 m",
        "Isolation": "1.22 mi 1.97 km"
    },
    {
        "Rank": "7",
        "Mountain Peak": "Mount Columbia NGS",
        "Elevation": "14,079 ft 4291 m",
        "Prominence": "873 ft 266 m",
        "Isolation": "1.90 mi 3.05 km"
    },
    {
        "Rank": "8",
        "Mountain Peak": "Missouri Mountain NGS",
        "Elevation": "14,074 ft 4290 m",
        "Prominence": "827 ft 252 m",
        "Isolation": "1.31 mi 2.11 km"
    },
    {
        "Rank": "9",
        "Mountain Peak": "Huron Peak NGS",
        "Elevation": "14,012 ft 4271 m",
        "Prominence": "1,403 ft 428 m",
        "Isolation": "3.21 mi 5.16 km"
    },
    {
        "Rank": "10",
        "Mountain Peak": "Grizzly Peak NGS",
        "Elevation": "13,995 ft 4266 m",
        "Prominence": "1,908 ft 582 m",
        "Isolation": "6.77 mi 10.89 km"
    },
    {
        "Rank": "11",
        "Mountain Peak": "Ice Mountain[2] PB",
        "Elevation": "13,958 ft 4254 m",
        "Prominence": "991 ft 302 m",
        "Isolation": "2.11 mi 3.39 km"
    },
    {
        "Rank": "12",
        "Mountain Peak": "Mount Hope[2] PB",
        "Elevation": "13,939 ft 4249 m",
        "Prominence": "853 ft 260 m",
        "Isolation": "2.91 mi 4.68 km"
    },
    {
        "Rank": "13",
        "Mountain Peak": "Emerald Peak[2] PB",
        "Elevation": "13,911 ft 4240 m",
        "Prominence": "544 ft 166 m",
        "Isolation": "1.30 mi 2.09 km"
    },
    {
        "Rank": "14",
        "Mountain Peak": "North Apostle[2] PB",
        "Elevation": "13,847 ft 4220 m",
        "Prominence": "360 ft 110 m",
        "Isolation": "0.37 mi 0.59 km"
    },
    {
        "Rank": "15",
        "Mountain Peak": "Rinker Peak[2] PB",
        "Elevation": "13,789 ft 4203 m",
        "Prominence": "903 ft 275 m",
        "Isolation": "1.53 mi 2.46 km"
    },
    {
        "Rank": "16",
        "Mountain Peak": "Peak 13,762 (Silver King Peak)[2] PB",
        "Elevation": "13,769 ft 4197 m",
        "Prominence": "822 ft 251 m",
        "Isolation": "1.69 mi 2.72 km"
    },
    {
        "Rank": "17",
        "Mountain Peak": "Garfield Peak[2] PB",
        "Elevation": "13,767 ft 4196 m",
        "Prominence": "340 ft 104 m",
        "Isolation": "0.83 mi 1.34 km"
    },
    {
        "Rank": "18",
        "Mountain Peak": "Sayres Benchmark NGS PB",
        "Elevation": "13,745 ft 4189 m",
        "Prominence": "958 ft 292 m",
        "Isolation": "1.92 mi 3.09 km"
    },
    {
        "Rank": "19",
        "Mountain Peak": "Sewanee Peak",
        "Elevation": "13,132 ft 4003 m",
        "Prominence": "538 ft 164 m",
        "Isolation": "0.73 mi 1.18 km"
    }
]