[
    {
        "Code": "AED",
        "Num": "784",
        "E[6]": "2",
        "Currency": "United Arab Emirates dirham",
        "Locations using this currency": "United Arab Emirates"
    },
    {
        "Code": "AFN",
        "Num": "971",
        "E[6]": "2",
        "Currency": "Afghan afghani",
        "Locations using this currency": "Afghanistan"
    },
    {
        "Code": "ALL",
        "Num": "008",
        "E[6]": "2",
        "Currency": "Albanian lek",
        "Locations using this currency": "Albania"
    },
    {
        "Code": "AMD",
        "Num": "051",
        "E[6]": "2",
        "Currency": "Armenian dram",
        "Locations using this currency": "Armenia"
    },
    {
        "Code": "ANG",
        "Num": "532",
        "E[6]": "2",
        "Currency": "Netherlands Antillean guilder",
        "Locations using this currency": "Curacao (CW), Sint Maarten (SX)"
    },
    {
        "Code": "AOA",
        "Num": "973",
        "E[6]": "2",
        "Currency": "Angolan kwanza",
        "Locations using this currency": "Angola"
    },
    {
        "Code": "ARS",
        "Num": "032",
        "E[6]": "2",
        "Currency": "Argentine peso",
        "Locations using this currency": "Argentina"
    },
    {
        "Code": "AUD",
        "Num": "036",
        "E[6]": "2",
        "Currency": "Australian dollar",
        "Locations using this currency": "Australia, Christmas Island (CX), Cocos (Keeling) Islands (CC), Heard Island and McDonald Islands (HM), Kiribati (KI), Nauru (NR), Norfolk Island (NF), Tuvalu (TV), Australian Antarctic Territory"
    },
    {
        "Code": "AWG",
        "Num": "533",
        "E[6]": "2",
        "Currency": "Aruban florin",
        "Locations using this currency": "Aruba"
    },
    {
        "Code": "AZN",
        "Num": "944",
        "E[6]": "2",
        "Currency": "Azerbaijani manat",
        "Locations using this currency": "Azerbaijan"
    },
    {
        "Code": "BAM",
        "Num": "977",
        "E[6]": "2",
        "Currency": "Bosnia and Herzegovina convertible mark",
        "Locations using this currency": "Bosnia and Herzegovina"
    },
    {
        "Code": "BBD",
        "Num": "052",
        "E[6]": "2",
        "Currency": "Barbados dollar",
        "Locations using this currency": "Barbados"
    },
    {
        "Code": "BDT",
        "Num": "050",
        "E[6]": "2",
        "Currency": "Bangladeshi taka",
        "Locations using this currency": "Bangladesh"
    },
    {
        "Code": "BGN",
        "Num": "975",
        "E[6]": "2",
        "Currency": "Bulgarian lev",
        "Locations using this currency": "Bulgaria"
    },
    {
        "Code": "BHD",
        "Num": "048",
        "E[6]": "3",
        "Currency": "Bahraini dinar",
        "Locations using this currency": "Bahrain"
    },
    {
        "Code": "BIF",
        "Num": "108",
        "E[6]": "0",
        "Currency": "Burundian franc",
        "Locations using this currency": "Burundi"
    },
    {
        "Code": "BMD",
        "Num": "060",
        "E[6]": "2",
        "Currency": "Bermudian dollar",
        "Locations using this currency": "Bermuda"
    },
    {
        "Code": "BND",
        "Num": "096",
        "E[6]": "2",
        "Currency": "Brunei dollar",
        "Locations using this currency": "Brunei, auxiliary in Singapore (SG)"
    },
    {
        "Code": "BOB",
        "Num": "068",
        "E[6]": "2",
        "Currency": "Boliviano",
        "Locations using this currency": "Bolivia"
    },
    {
        "Code": "BOV",
        "Num": "984",
        "E[6]": "2",
        "Currency": "Bolivian Mvdol (funds code)",
        "Locations using this currency": "Bolivia"
    },
    {
        "Code": "BRL",
        "Num": "986",
        "E[6]": "2",
        "Currency": "Brazilian real",
        "Locations using this currency": "Brazil"
    },
    {
        "Code": "BSD",
        "Num": "044",
        "E[6]": "2",
        "Currency": "Bahamian dollar",
        "Locations using this currency": "Bahamas"
    },
    {
        "Code": "BTN",
        "Num": "064",
        "E[6]": "2",
        "Currency": "Bhutanese ngultrum",
        "Locations using this currency": "Bhutan"
    },
    {
        "Code": "BWP",
        "Num": "072",
        "E[6]": "2",
        "Currency": "Botswana pula",
        "Locations using this currency": "Botswana"
    },
    {
        "Code": "BYR",
        "Num": "974",
        "E[6]": "0",
        "Currency": "Belarusian ruble",
        "Locations using this currency": "Belarus"
    },
    {
        "Code": "BZD",
        "Num": "084",
        "E[6]": "2",
        "Currency": "Belize dollar",
        "Locations using this currency": "Belize"
    },
    {
        "Code": "CAD",
        "Num": "124",
        "E[6]": "2",
        "Currency": "Canadian dollar",
        "Locations using this currency": "Canada"
    },
    {
        "Code": "CDF",
        "Num": "976",
        "E[6]": "2",
        "Currency": "Congolese franc",
        "Locations using this currency": "Democratic Republic of the Congo"
    },
    {
        "Code": "CHE",
        "Num": "947",
        "E[6]": "2",
        "Currency": "WIR Euro (complementary currency)",
        "Locations using this currency": "Switzerland"
    },
    {
        "Code": "CHF",
        "Num": "756",
        "E[6]": "2",
        "Currency": "Swiss franc",
        "Locations using this currency": "Switzerland, Liechtenstein (LI)"
    },
    {
        "Code": "CHW",
        "Num": "948",
        "E[6]": "2",
        "Currency": "WIR Franc (complementary currency)",
        "Locations using this currency": "Switzerland"
    },
    {
        "Code": "CLF",
        "Num": "990",
        "E[6]": "4",
        "Currency": "Unidad de Fomento (funds code)",
        "Locations using this currency": "Chile"
    },
    {
        "Code": "CLP",
        "Num": "152",
        "E[6]": "0",
        "Currency": "Chilean peso",
        "Locations using this currency": "Chile"
    },
    {
        "Code": "CNY",
        "Num": "156",
        "E[6]": "2",
        "Currency": "Chinese yuan",
        "Locations using this currency": "China"
    },
    {
        "Code": "COP",
        "Num": "170",
        "E[6]": "2",
        "Currency": "Colombian peso",
        "Locations using this currency": "Colombia"
    },
    {
        "Code": "COU",
        "Num": "970",
        "E[6]": "2[7]",
        "Currency": "Unidad de Valor Real (UVR) (funds code)[7]",
        "Locations using this currency": "Colombia"
    },
    {
        "Code": "CRC",
        "Num": "188",
        "E[6]": "2",
        "Currency": "Costa Rican colon",
        "Locations using this currency": "Costa Rica"
    },
    {
        "Code": "CUC",
        "Num": "931",
        "E[6]": "2",
        "Currency": "Cuban convertible peso",
        "Locations using this currency": "Cuba"
    },
    {
        "Code": "CUP",
        "Num": "192",
        "E[6]": "2",
        "Currency": "Cuban peso",
        "Locations using this currency": "Cuba"
    },
    {
        "Code": "CVE",
        "Num": "132",
        "E[6]": "0",
        "Currency": "Cape Verde escudo",
        "Locations using this currency": "Cape Verde"
    },
    {
        "Code": "CZK",
        "Num": "203",
        "E[6]": "2",
        "Currency": "Czech koruna",
        "Locations using this currency": "Czech Republic"
    },
    {
        "Code": "DJF",
        "Num": "262",
        "E[6]": "0",
        "Currency": "Djiboutian franc",
        "Locations using this currency": "Djibouti"
    },
    {
        "Code": "DKK",
        "Num": "208",
        "E[6]": "2",
        "Currency": "Danish krone",
        "Locations using this currency": "Denmark, Faroe Islands (FO), Greenland (GL)"
    },
    {
        "Code": "DOP",
        "Num": "214",
        "E[6]": "2",
        "Currency": "Dominican peso",
        "Locations using this currency": "Dominican Republic"
    },
    {
        "Code": "DZD",
        "Num": "012",
        "E[6]": "2",
        "Currency": "Algerian dinar",
        "Locations using this currency": "Algeria"
    },
    {
        "Code": "EGP",
        "Num": "818",
        "E[6]": "2",
        "Currency": "Egyptian pound",
        "Locations using this currency": "Egypt, auxiliary in Gaza Strip"
    },
    {
        "Code": "ERN",
        "Num": "232",
        "E[6]": "2",
        "Currency": "Eritrean nakfa",
        "Locations using this currency": "Eritrea"
    },
    {
        "Code": "ETB",
        "Num": "230",
        "E[6]": "2",
        "Currency": "Ethiopian birr",
        "Locations using this currency": "Ethiopia"
    },
    {
        "Code": "EUR",
        "Num": "978",
        "E[6]": "2",
        "Currency": "Euro",
        "Locations using this currency": "Akrotiri and Dhekelia, Andorra (AD), Austria (AT), Belgium (BE), Cyprus (CY), Estonia (EE), Finland (FI), France (FR), Germany (DE), Greece (GR), Guadeloupe (GP), Ireland (IE), Italy (IT), Kosovo, Latvia (LV), Lithuania (LT), Luxembourg (LU), Malta (MT), Martinique (MQ), Mayotte (YT), Monaco (MC), Montenegro (ME), Netherlands (NL), Portugal (PT), Reunion (RE), Saint Barthelemy (BL), Saint Pierre and Miquelon (PM), San Marino (SM), Slovakia (SK), Slovenia (SI), Spain (ES), Vatican City (VA); see Eurozone"
    },
    {
        "Code": "FJD",
        "Num": "242",
        "E[6]": "2",
        "Currency": "Fiji dollar",
        "Locations using this currency": "Fiji"
    },
    {
        "Code": "FKP",
        "Num": "238",
        "E[6]": "2",
        "Currency": "Falkland Islands pound",
        "Locations using this currency": "Falkland Islands (pegged to GBP 1:1)"
    },
    {
        "Code": "GBP",
        "Num": "826",
        "E[6]": "2",
        "Currency": "Pound sterling",
        "Locations using this currency": "United Kingdom, the Isle of Man (IM, see Manx pound), Jersey (JE, see Jersey pound), Guernsey (GG, see Guernsey pound), South Georgia and the South Sandwich Islands (GS), British Indian Ocean Territory (IO) (also uses USD), Tristan da Cunha (SH-TA), and British Antarctic Territory"
    },
    {
        "Code": "GEL",
        "Num": "981",
        "E[6]": "2",
        "Currency": "Georgian lari",
        "Locations using this currency": "Georgia (except Abkhazia (GE-AB) and South Ossetia)"
    },
    {
        "Code": "GHS",
        "Num": "936",
        "E[6]": "2",
        "Currency": "Ghanaian cedi",
        "Locations using this currency": "Ghana"
    },
    {
        "Code": "GIP",
        "Num": "292",
        "E[6]": "2",
        "Currency": "Gibraltar pound",
        "Locations using this currency": "Gibraltar (pegged to GBP 1:1)"
    },
    {
        "Code": "GMD",
        "Num": "270",
        "E[6]": "2",
        "Currency": "Gambian dalasi",
        "Locations using this currency": "Gambia"
    },
    {
        "Code": "GNF",
        "Num": "324",
        "E[6]": "0",
        "Currency": "Guinean franc",
        "Locations using this currency": "Guinea"
    },
    {
        "Code": "GTQ",
        "Num": "320",
        "E[6]": "2",
        "Currency": "Guatemalan quetzal",
        "Locations using this currency": "Guatemala"
    },
    {
        "Code": "GYD",
        "Num": "328",
        "E[6]": "2",
        "Currency": "Guyanese dollar",
        "Locations using this currency": "Guyana"
    },
    {
        "Code": "HKD",
        "Num": "344",
        "E[6]": "2",
        "Currency": "Hong Kong dollar",
        "Locations using this currency": "Hong Kong, Macao (MO)"
    },
    {
        "Code": "HNL",
        "Num": "340",
        "E[6]": "2",
        "Currency": "Honduran lempira",
        "Locations using this currency": "Honduras"
    },
    {
        "Code": "HRK",
        "Num": "191",
        "E[6]": "2",
        "Currency": "Croatian kuna",
        "Locations using this currency": "Croatia"
    },
    {
        "Code": "HTG",
        "Num": "332",
        "E[6]": "2",
        "Currency": "Haitian gourde",
        "Locations using this currency": "Haiti"
    },
    {
        "Code": "HUF",
        "Num": "348",
        "E[6]": "2",
        "Currency": "Hungarian forint",
        "Locations using this currency": "Hungary"
    },
    {
        "Code": "IDR",
        "Num": "360",
        "E[6]": "2",
        "Currency": "Indonesian rupiah",
        "Locations using this currency": "Indonesia"
    },
    {
        "Code": "ILS",
        "Num": "376",
        "E[6]": "2",
        "Currency": "Israeli new shekel",
        "Locations using this currency": "Israel, State of Palestine (PS)[8]"
    },
    {
        "Code": "INR",
        "Num": "356",
        "E[6]": "2",
        "Currency": "Indian rupee",
        "Locations using this currency": "India, Bhutan, Nepal , Zimbabwe"
    },
    {
        "Code": "IQD",
        "Num": "368",
        "E[6]": "3",
        "Currency": "Iraqi dinar",
        "Locations using this currency": "Iraq"
    },
    {
        "Code": "IRR",
        "Num": "364",
        "E[6]": "2",
        "Currency": "Iranian rial",
        "Locations using this currency": "Iran"
    },
    {
        "Code": "ISK",
        "Num": "352",
        "E[6]": "0",
        "Currency": "Icelandic krona",
        "Locations using this currency": "Iceland"
    },
    {
        "Code": "JMD",
        "Num": "388",
        "E[6]": "2",
        "Currency": "Jamaican dollar",
        "Locations using this currency": "Jamaica"
    },
    {
        "Code": "JOD",
        "Num": "400",
        "E[6]": "3",
        "Currency": "Jordanian dinar",
        "Locations using this currency": "Jordan, auxiliary in West Bank"
    },
    {
        "Code": "JPY",
        "Num": "392",
        "E[6]": "0",
        "Currency": "Japanese yen",
        "Locations using this currency": "Japan"
    },
    {
        "Code": "KES",
        "Num": "404",
        "E[6]": "2",
        "Currency": "Kenyan shilling",
        "Locations using this currency": "Kenya"
    },
    {
        "Code": "KGS",
        "Num": "417",
        "E[6]": "2",
        "Currency": "Kyrgyzstani som",
        "Locations using this currency": "Kyrgyzstan"
    },
    {
        "Code": "KHR",
        "Num": "116",
        "E[6]": "2",
        "Currency": "Cambodian riel",
        "Locations using this currency": "Cambodia"
    },
    {
        "Code": "KMF",
        "Num": "174",
        "E[6]": "0",
        "Currency": "Comoro franc",
        "Locations using this currency": "Comoros"
    },
    {
        "Code": "KPW",
        "Num": "408",
        "E[6]": "2",
        "Currency": "North Korean won",
        "Locations using this currency": "North Korea"
    },
    {
        "Code": "KRW",
        "Num": "410",
        "E[6]": "0",
        "Currency": "South Korean won",
        "Locations using this currency": "South Korea"
    },
    {
        "Code": "KWD",
        "Num": "414",
        "E[6]": "3",
        "Currency": "Kuwaiti dinar",
        "Locations using this currency": "Kuwait"
    },
    {
        "Code": "KYD",
        "Num": "136",
        "E[6]": "2",
        "Currency": "Cayman Islands dollar",
        "Locations using this currency": "Cayman Islands"
    },
    {
        "Code": "KZT",
        "Num": "398",
        "E[6]": "2",
        "Currency": "Kazakhstani tenge",
        "Locations using this currency": "Kazakhstan"
    },
    {
        "Code": "LAK",
        "Num": "418",
        "E[6]": "2",
        "Currency": "Lao kip",
        "Locations using this currency": "Laos"
    },
    {
        "Code": "LBP",
        "Num": "422",
        "E[6]": "2",
        "Currency": "Lebanese pound",
        "Locations using this currency": "Lebanon"
    },
    {
        "Code": "LKR",
        "Num": "144",
        "E[6]": "2",
        "Currency": "Sri Lankan rupee",
        "Locations using this currency": "Sri Lanka"
    },
    {
        "Code": "LRD",
        "Num": "430",
        "E[6]": "2",
        "Currency": "Liberian dollar",
        "Locations using this currency": "Liberia"
    },
    {
        "Code": "LSL",
        "Num": "426",
        "E[6]": "2",
        "Currency": "Lesotho loti",
        "Locations using this currency": "Lesotho"
    },
    {
        "Code": "LYD",
        "Num": "434",
        "E[6]": "3",
        "Currency": "Libyan dinar",
        "Locations using this currency": "Libya"
    },
    {
        "Code": "MAD",
        "Num": "504",
        "E[6]": "2",
        "Currency": "Moroccan dirham",
        "Locations using this currency": "Morocco"
    },
    {
        "Code": "MDL",
        "Num": "498",
        "E[6]": "2",
        "Currency": "Moldovan leu",
        "Locations using this currency": "Moldova (except Transnistria)"
    },
    {
        "Code": "MGA",
        "Num": "969",
        "E[6]": "1*[9]",
        "Currency": "Malagasy ariary",
        "Locations using this currency": "Madagascar"
    },
    {
        "Code": "MKD",
        "Num": "807",
        "E[6]": "2",
        "Currency": "Macedonian denar",
        "Locations using this currency": "Macedonia"
    },
    {
        "Code": "MMK",
        "Num": "104",
        "E[6]": "2",
        "Currency": "Myanmar kyat",
        "Locations using this currency": "Myanmar"
    },
    {
        "Code": "MNT",
        "Num": "496",
        "E[6]": "2",
        "Currency": "Mongolian togrog",
        "Locations using this currency": "Mongolia"
    },
    {
        "Code": "MOP",
        "Num": "446",
        "E[6]": "2",
        "Currency": "Macanese pataca",
        "Locations using this currency": "Macao"
    },
    {
        "Code": "MRO",
        "Num": "478",
        "E[6]": "1*[9]",
        "Currency": "Mauritanian ouguiya",
        "Locations using this currency": "Mauritania"
    },
    {
        "Code": "MUR",
        "Num": "480",
        "E[6]": "2",
        "Currency": "Mauritian rupee",
        "Locations using this currency": "Mauritius"
    },
    {
        "Code": "MVR",
        "Num": "462",
        "E[6]": "2",
        "Currency": "Maldivian rufiyaa",
        "Locations using this currency": "Maldives"
    },
    {
        "Code": "MWK",
        "Num": "454",
        "E[6]": "2",
        "Currency": "Malawian kwacha",
        "Locations using this currency": "Malawi"
    },
    {
        "Code": "MXN",
        "Num": "484",
        "E[6]": "2",
        "Currency": "Mexican peso",
        "Locations using this currency": "Mexico"
    },
    {
        "Code": "MXV",
        "Num": "979",
        "E[6]": "2",
        "Currency": "Mexican Unidad de Inversion (UDI) (funds code)",
        "Locations using this currency": "Mexico"
    },
    {
        "Code": "MYR",
        "Num": "458",
        "E[6]": "2",
        "Currency": "Malaysian ringgit",
        "Locations using this currency": "Malaysia"
    },
    {
        "Code": "MZN",
        "Num": "943",
        "E[6]": "2",
        "Currency": "Mozambican metical",
        "Locations using this currency": "Mozambique"
    },
    {
        "Code": "NAD",
        "Num": "516",
        "E[6]": "2",
        "Currency": "Namibian dollar",
        "Locations using this currency": "Namibia"
    },
    {
        "Code": "NGN",
        "Num": "566",
        "E[6]": "2",
        "Currency": "Nigerian naira",
        "Locations using this currency": "Nigeria"
    },
    {
        "Code": "NIO",
        "Num": "558",
        "E[6]": "2",
        "Currency": "Nicaraguan cordoba",
        "Locations using this currency": "Nicaragua"
    },
    {
        "Code": "NOK",
        "Num": "578",
        "E[6]": "2",
        "Currency": "Norwegian krone",
        "Locations using this currency": "Norway, Svalbard and Jan Mayen (SJ), Bouvet Island (BV), Queen Maud Land, Peter I Island"
    },
    {
        "Code": "NPR",
        "Num": "524",
        "E[6]": "2",
        "Currency": "Nepalese rupee",
        "Locations using this currency": "Nepal"
    },
    {
        "Code": "NZD",
        "Num": "554",
        "E[6]": "2",
        "Currency": "New Zealand dollar",
        "Locations using this currency": "New Zealand, Cook Islands (CK), Niue (NU), Pitcairn Islands (PN; see also Pitcairn Islands dollar), Tokelau (TK), Ross Dependency"
    },
    {
        "Code": "OMR",
        "Num": "512",
        "E[6]": "3",
        "Currency": "Omani rial",
        "Locations using this currency": "Oman"
    },
    {
        "Code": "PAB",
        "Num": "590",
        "E[6]": "2",
        "Currency": "Panamanian balboa",
        "Locations using this currency": "Panama"
    },
    {
        "Code": "PEN",
        "Num": "604",
        "E[6]": "2",
        "Currency": "Peruvian Sol",
        "Locations using this currency": "Peru"
    },
    {
        "Code": "PGK",
        "Num": "598",
        "E[6]": "2",
        "Currency": "Papua New Guinean kina",
        "Locations using this currency": "Papua New Guinea"
    },
    {
        "Code": "PHP",
        "Num": "608",
        "E[6]": "2",
        "Currency": "Philippine peso",
        "Locations using this currency": "Philippines"
    },
    {
        "Code": "PKR",
        "Num": "586",
        "E[6]": "2",
        "Currency": "Pakistani rupee",
        "Locations using this currency": "Pakistan"
    },
    {
        "Code": "PLN",
        "Num": "985",
        "E[6]": "2",
        "Currency": "Polish zA...'oty",
        "Locations using this currency": "Poland"
    },
    {
        "Code": "PYG",
        "Num": "600",
        "E[6]": "0",
        "Currency": "Paraguayan guarani",
        "Locations using this currency": "Paraguay"
    },
    {
        "Code": "QAR",
        "Num": "634",
        "E[6]": "2",
        "Currency": "Qatari riyal",
        "Locations using this currency": "Qatar"
    },
    {
        "Code": "RON",
        "Num": "946",
        "E[6]": "2",
        "Currency": "Romanian leu",
        "Locations using this currency": "Romania"
    },
    {
        "Code": "RSD",
        "Num": "941",
        "E[6]": "2",
        "Currency": "Serbian dinar",
        "Locations using this currency": "Serbia"
    },
    {
        "Code": "RUB",
        "Num": "643",
        "E[6]": "2",
        "Currency": "Russian ruble",
        "Locations using this currency": "Russia, Abkhazia (GE-AB), South Ossetia, Crimea"
    },
    {
        "Code": "RWF",
        "Num": "646",
        "E[6]": "0",
        "Currency": "Rwandan franc",
        "Locations using this currency": "Rwanda"
    },
    {
        "Code": "SAR",
        "Num": "682",
        "E[6]": "2",
        "Currency": "Saudi riyal",
        "Locations using this currency": "Saudi Arabia"
    },
    {
        "Code": "SBD",
        "Num": "090",
        "E[6]": "2",
        "Currency": "Solomon Islands dollar",
        "Locations using this currency": "Solomon Islands"
    },
    {
        "Code": "SCR",
        "Num": "690",
        "E[6]": "2",
        "Currency": "Seychelles rupee",
        "Locations using this currency": "Seychelles"
    },
    {
        "Code": "SDG",
        "Num": "938",
        "E[6]": "2",
        "Currency": "Sudanese pound",
        "Locations using this currency": "Sudan"
    },
    {
        "Code": "SEK",
        "Num": "752",
        "E[6]": "2",
        "Currency": "Swedish krona\\/kronor",
        "Locations using this currency": "Sweden"
    },
    {
        "Code": "SGD",
        "Num": "702",
        "E[6]": "2",
        "Currency": "Singapore dollar",
        "Locations using this currency": "Singapore, auxiliary in Brunei (BN)"
    },
    {
        "Code": "SHP",
        "Num": "654",
        "E[6]": "2",
        "Currency": "Saint Helena pound",
        "Locations using this currency": "Saint Helena (SH-SH), Ascension Island (SH-AC) (pegged to GBP 1:1)"
    },
    {
        "Code": "SLL",
        "Num": "694",
        "E[6]": "2",
        "Currency": "Sierra Leonean leone",
        "Locations using this currency": "Sierra Leone"
    },
    {
        "Code": "SOS",
        "Num": "706",
        "E[6]": "2",
        "Currency": "Somali shilling",
        "Locations using this currency": "Somalia (except Somaliland)"
    },
    {
        "Code": "SRD",
        "Num": "968",
        "E[6]": "2",
        "Currency": "Surinamese dollar",
        "Locations using this currency": "Suriname"
    },
    {
        "Code": "SSP",
        "Num": "728",
        "E[6]": "2",
        "Currency": "South Sudanese pound",
        "Locations using this currency": "South Sudan"
    },
    {
        "Code": "STD",
        "Num": "678",
        "E[6]": "2",
        "Currency": "Sao Tome and Principe dobra",
        "Locations using this currency": "Sao Tome and Principe"
    },
    {
        "Code": "SYP",
        "Num": "760",
        "E[6]": "2",
        "Currency": "Syrian pound",
        "Locations using this currency": "Syria"
    },
    {
        "Code": "SZL",
        "Num": "748",
        "E[6]": "2",
        "Currency": "Swazi lilangeni",
        "Locations using this currency": "Swaziland"
    },
    {
        "Code": "THB",
        "Num": "764",
        "E[6]": "2",
        "Currency": "Thai baht",
        "Locations using this currency": "Thailand , Cambodia , Myanmar , Laos"
    },
    {
        "Code": "TJS",
        "Num": "972",
        "E[6]": "2",
        "Currency": "Tajikistani somoni",
        "Locations using this currency": "Tajikistan"
    },
    {
        "Code": "TMT",
        "Num": "934",
        "E[6]": "2",
        "Currency": "Turkmenistani manat",
        "Locations using this currency": "Turkmenistan"
    },
    {
        "Code": "TND",
        "Num": "788",
        "E[6]": "3",
        "Currency": "Tunisian dinar",
        "Locations using this currency": "Tunisia"
    },
    {
        "Code": "TOP",
        "Num": "776",
        "E[6]": "2",
        "Currency": "Tongan paE>>anga",
        "Locations using this currency": "Tonga"
    },
    {
        "Code": "TRY",
        "Num": "949",
        "E[6]": "2",
        "Currency": "Turkish lira",
        "Locations using this currency": "Turkey , Northern Cyprus"
    },
    {
        "Code": "TTD",
        "Num": "780",
        "E[6]": "2",
        "Currency": "Trinidad and Tobago dollar",
        "Locations using this currency": "Trinidad and Tobago"
    },
    {
        "Code": "TWD",
        "Num": "901",
        "E[6]": "2",
        "Currency": "New Taiwan dollar",
        "Locations using this currency": "Taiwan"
    },
    {
        "Code": "TZS",
        "Num": "834",
        "E[6]": "2",
        "Currency": "Tanzanian shilling",
        "Locations using this currency": "Tanzania"
    },
    {
        "Code": "UAH",
        "Num": "980",
        "E[6]": "2",
        "Currency": "Ukrainian hryvnia",
        "Locations using this currency": "Ukraine"
    },
    {
        "Code": "UGX",
        "Num": "800",
        "E[6]": "0",
        "Currency": "Ugandan shilling",
        "Locations using this currency": "Uganda"
    },
    {
        "Code": "USD",
        "Num": "840",
        "E[6]": "2",
        "Currency": "United States dollar",
        "Locations using this currency": "United States, American Samoa (AS), Barbados (BB) (as well as Barbados Dollar), Bermuda (BM) (as well as Bermudian Dollar), British Indian Ocean Territory (IO) (also uses GBP), British Virgin Islands (VG), Caribbean Netherlands (BQ - Bonaire, Sint Eustatius and Saba), Ecuador (EC), El Salvador (SV), Guam (GU), Haiti (HT), Marshall Islands (MH), Federated States of Micronesia (FM), Northern Mariana Islands (MP), Palau (PW), Panama (PA), Puerto Rico (PR), Timor-Leste (TL), Turks and Caicos Islands (TC), U.S. Virgin Islands (VI), Zimbabwe (ZW),"
    },
    {
        "Code": "USN",
        "Num": "997",
        "E[6]": "2",
        "Currency": "United States dollar (next day) (funds code)",
        "Locations using this currency": "United States"
    },
    {
        "Code": "USS",
        "Num": "998",
        "E[6]": "2",
        "Currency": "United States dollar (same day) (funds code)[10]",
        "Locations using this currency": "United States"
    },
    {
        "Code": "UYI",
        "Num": "940",
        "E[6]": "0",
        "Currency": "Uruguay Peso en Unidades Indexadas (URUIURUI) (funds code)",
        "Locations using this currency": "Uruguay"
    },
    {
        "Code": "UYU",
        "Num": "858",
        "E[6]": "2",
        "Currency": "Uruguayan peso",
        "Locations using this currency": "Uruguay"
    },
    {
        "Code": "UZS",
        "Num": "860",
        "E[6]": "2",
        "Currency": "Uzbekistan som",
        "Locations using this currency": "Uzbekistan"
    },
    {
        "Code": "VEF",
        "Num": "937",
        "E[6]": "2",
        "Currency": "Venezuelan bolivar",
        "Locations using this currency": "Venezuela"
    },
    {
        "Code": "VND",
        "Num": "704",
        "E[6]": "0",
        "Currency": "Vietnamese dong",
        "Locations using this currency": "Vietnam"
    },
    {
        "Code": "VUV",
        "Num": "548",
        "E[6]": "0",
        "Currency": "Vanuatu vatu",
        "Locations using this currency": "Vanuatu"
    },
    {
        "Code": "WST",
        "Num": "882",
        "E[6]": "2",
        "Currency": "Samoan tala",
        "Locations using this currency": "Samoa"
    },
    {
        "Code": "XAF",
        "Num": "950",
        "E[6]": "0",
        "Currency": "CFA franc BEAC",
        "Locations using this currency": "Cameroon (CM), Central African Republic (CF), Republic of the Congo (CG), Chad (TD), Equatorial Guinea (GQ), Gabon (GA)"
    },
    {
        "Code": "XAG",
        "Num": "961",
        "E[6]": ".",
        "Currency": "Silver (one troy ounce)",
        "Locations using this currency": ""
    },
    {
        "Code": "XAU",
        "Num": "959",
        "E[6]": ".",
        "Currency": "Gold (one troy ounce)",
        "Locations using this currency": ""
    },
    {
        "Code": "XBA",
        "Num": "955",
        "E[6]": ".",
        "Currency": "European Composite Unit (EURCO) (bond market unit)",
        "Locations using this currency": ""
    },
    {
        "Code": "XBB",
        "Num": "956",
        "E[6]": ".",
        "Currency": "European Monetary Unit (E.M.U.-6) (bond market unit)",
        "Locations using this currency": ""
    },
    {
        "Code": "XBC",
        "Num": "957",
        "E[6]": ".",
        "Currency": "European Unit of Account 9 (E.U.A.-9) (bond market unit)",
        "Locations using this currency": ""
    },
    {
        "Code": "XBD",
        "Num": "958",
        "E[6]": ".",
        "Currency": "European Unit of Account 17 (E.U.A.-17) (bond market unit)",
        "Locations using this currency": ""
    },
    {
        "Code": "XCD",
        "Num": "951",
        "E[6]": "2",
        "Currency": "East Caribbean dollar",
        "Locations using this currency": "Anguilla (AI), Antigua and Barbuda (AG), Dominica (DM), Grenada (GD), Montserrat (MS), Saint Kitts and Nevis (KN), Saint Lucia (LC), Saint Vincent and the Grenadines (VC)"
    },
    {
        "Code": "XDR",
        "Num": "960",
        "E[6]": ".",
        "Currency": "Special drawing rights",
        "Locations using this currency": "International Monetary Fund"
    },
    {
        "Code": "XFU",
        "Num": "Nil",
        "E[6]": ".",
        "Currency": "UIC franc (special settlement currency)",
        "Locations using this currency": "International Union of Railways"
    },
    {
        "Code": "XOF",
        "Num": "952",
        "E[6]": "0",
        "Currency": "CFA franc BCEAO",
        "Locations using this currency": "Benin (BJ), Burkina Faso (BF), Cote d'Ivoire (CI), Guinea-Bissau (GW), Mali (ML), Niger (NE), Senegal (SN), Togo (TG)"
    },
    {
        "Code": "XPD",
        "Num": "964",
        "E[6]": ".",
        "Currency": "Palladium (one troy ounce)",
        "Locations using this currency": ""
    },
    {
        "Code": "XPF",
        "Num": "953",
        "E[6]": "0",
        "Currency": "CFP franc (franc Pacifique)",
        "Locations using this currency": "French territories of the Pacific Ocean: French Polynesia (PF), New Caledonia (NC), Wallis and Futuna (WF)"
    },
    {
        "Code": "XPT",
        "Num": "962",
        "E[6]": ".",
        "Currency": "Platinum (one troy ounce)",
        "Locations using this currency": ""
    },
    {
        "Code": "XSU",
        "Num": "994",
        "E[6]": ".",
        "Currency": "SUCRE",
        "Locations using this currency": "Unified System for Regional Compensation (SUCRE)[11]"
    },
    {
        "Code": "XTS",
        "Num": "963",
        "E[6]": ".",
        "Currency": "Code reserved for testing purposes",
        "Locations using this currency": ""
    },
    {
        "Code": "XUA",
        "Num": "965",
        "E[6]": ".",
        "Currency": "ADB Unit of Account",
        "Locations using this currency": "African Development Bank[12]"
    },
    {
        "Code": "XXX",
        "Num": "999",
        "E[6]": ".",
        "Currency": "No currency",
        "Locations using this currency": ""
    },
    {
        "Code": "YER",
        "Num": "886",
        "E[6]": "2",
        "Currency": "Yemeni rial",
        "Locations using this currency": "Yemen"
    },
    {
        "Code": "ZAR",
        "Num": "710",
        "E[6]": "2",
        "Currency": "South African rand",
        "Locations using this currency": "South Africa"
    },
    {
        "Code": "ZMW",
        "Num": "967",
        "E[6]": "2",
        "Currency": "Zambian kwacha",
        "Locations using this currency": "Zambia"
    }
]