[
    {
        "Peak": "Cuilcagh",
        "Height (m)": "665",
        "Prom. (m)": "606",
        "Grid ref.": "H123280",
        "NO-HEADER4": "Carn Clonhugh"
    },
    {
        "Peak": "Truskmore",
        "Height (m)": "647",
        "Prom. (m)": "560",
        "Grid ref.": "G759473",
        "NO-HEADER4": "Carn Clonhugh"
    },
    {
        "Peak": "Slievemore",
        "Height (m)": "597",
        "Prom. (m)": "214",
        "Grid ref.": "G728463",
        "NO-HEADER4": "Carn Clonhugh"
    },
    {
        "Peak": "Slieve Anierin",
        "Height (m)": "585",
        "Prom. (m)": "245",
        "Grid ref.": "H018159",
        "NO-HEADER4": "Carn Clonhugh"
    },
    {
        "Peak": "The Playbank",
        "Height (m)": "542",
        "Prom. (m)": "185",
        "Grid ref.": "H033258",
        "NO-HEADER4": "Carn Clonhugh"
    },
    {
        "Peak": "Arroo",
        "Height (m)": "523",
        "Prom. (m)": "436",
        "Grid ref.": "G833520",
        "NO-HEADER4": "Carn Clonhugh"
    },
    {
        "Peak": "Dough Mountain",
        "Height (m)": "465",
        "Prom. (m)": "268",
        "Grid ref.": "G942423",
        "NO-HEADER4": "Carn Clonhugh"
    },
    {
        "Peak": "Crockauns",
        "Height (m)": "463",
        "Prom. (m)": "386",
        "Grid ref.": "G759410",
        "NO-HEADER4": "Carn Clonhugh"
    },
    {
        "Peak": "Carran Hill",
        "Height (m)": "458",
        "Prom. (m)": "395",
        "Grid ref.": "G844206",
        "NO-HEADER4": "Carn Clonhugh"
    },
    {
        "Peak": "Lackagh",
        "Height (m)": "447",
        "Prom. (m)": "340",
        "Grid ref.": "G931321",
        "NO-HEADER4": "Carn Clonhugh"
    },
    {
        "Peak": "Thur Mountain",
        "Height (m)": "442",
        "Prom. (m)": "228",
        "Grid ref.": "G980404",
        "NO-HEADER4": "Carn Clonhugh"
    },
    {
        "Peak": "Benbo",
        "Height (m)": "415",
        "Prom. (m)": "214",
        "Grid ref.": "G850377",
        "NO-HEADER4": "Carn Clonhugh"
    },
    {
        "Peak": "Slieve Rushen",
        "Height (m)": "403",
        "Prom. (m)": "332",
        "Grid ref.": "H234226",
        "NO-HEADER4": "Carn Clonhugh"
    },
    {
        "Peak": "Killerry Mountain",
        "Height (m)": "293",
        "Prom. (m)": "232",
        "Grid ref.": "G751317",
        "NO-HEADER4": "Carn Clonhugh"
    },
    {
        "Peak": "Corn Hill",
        "Height (m)": "276",
        "Prom. (m)": "225",
        "Grid ref.": "N187840",
        "NO-HEADER4": "Carn Clonhugh"
    },
    {
        "Peak": "Slieve Daeane",
        "Height (m)": "275",
        "Prom. (m)": "217",
        "Grid ref.": "G711299",
        "NO-HEADER4": "Carn Clonhugh"
    },
    {
        "Peak": "Slieve Bawn",
        "Height (m)": "261",
        "Prom. (m)": "215",
        "Grid ref.": "M954744",
        "NO-HEADER4": "Carn Clonhugh"
    },
    {
        "Peak": "Bruse Hill",
        "Height (m)": "258",
        "Prom. (m)": "190",
        "Grid ref.": "N317981",
        "NO-HEADER4": "Carn Clonhugh"
    }
]