[
    {
        "Journal": "Agronomy Journal",
        "Homepage": "journal home",
        "Publisher": "The American Society of Agronomy",
        "Publication History": "1907AC/EUR\"present",
        "Language": "English",
        "Publication Frequency": "6 issues per year"
    },
    {
        "Journal": "Agronomie",
        "Homepage": "journal home",
        "Publisher": "INRA and EDP Sciences",
        "Publication History": "1981AC/EUR\"2004",
        "Language": "English and French",
        "Publication Frequency": "6 issues per year"
    },
    {
        "Journal": "Agronomy for Sustainable Development",
        "Homepage": "journal home",
        "Publisher": "INRA and EDP Sciences",
        "Publication History": "2005AC/EUR\"present",
        "Language": "English",
        "Publication Frequency": "4 issues per year"
    },
    {
        "Journal": "American Journal of Potato Research",
        "Homepage": "journal home",
        "Publisher": "Springer Science+Business Media and The Potato Association of America",
        "Publication History": "1924AC/EUR\"present",
        "Language": "English",
        "Publication Frequency": "6 issues per year"
    },
    {
        "Journal": "Australian Journal of Grape and Wine Research",
        "Homepage": "journal home",
        "Publisher": "Blackwell Publishing and the Australian Society of Viticulture and Oenology",
        "Publication History": "1995AC/EUR\"present",
        "Language": "English",
        "Publication Frequency": "3 issues per year"
    },
    {
        "Journal": "The Biology of Canadian Weeds",
        "Homepage": "journal home",
        "Publisher": "Agricultural Institute of Canada",
        "Publication History": "? - present",
        "Language": "English",
        "Publication Frequency": "Variable"
    },
    {
        "Journal": "British Sugar Beet Review",
        "Homepage": "journal home",
        "Publisher": "British Sugar",
        "Publication History": "1926AC/EUR\"present",
        "Language": "English",
        "Publication Frequency": "4 issues per year"
    },
    {
        "Journal": "Cereal Research Communications",
        "Homepage": "journal home",
        "Publisher": "Akademiai Kiado",
        "Publication History": "1972AC/EUR\"present",
        "Language": "English",
        "Publication Frequency": "4 issues per year"
    },
    {
        "Journal": "Cereal Chemistry",
        "Homepage": "journal home",
        "Publisher": "AACC International",
        "Publication History": "1923AC/EUR\"present",
        "Language": "English",
        "Publication Frequency": "6 issues per year"
    },
    {
        "Journal": "Ceiba",
        "Homepage": "N\\/A",
        "Publisher": "Escuela Agricola Panamericana",
        "Publication History": "1950AC/EUR\"present",
        "Language": "English",
        "Publication Frequency": "?"
    },
    {
        "Journal": "Crop Protection (journal)",
        "Homepage": "journal home",
        "Publisher": "Elsevier",
        "Publication History": "1982AC/EUR\"present",
        "Language": "English",
        "Publication Frequency": "12 issues per year"
    },
    {
        "Journal": "Crop Science (journal)",
        "Homepage": "journal home",
        "Publisher": "The Crop Science Society of America",
        "Publication History": "1961AC/EUR\"present",
        "Language": "English",
        "Publication Frequency": "6 issues per year"
    },
    {
        "Journal": "Davidsonia",
        "Homepage": "journal home",
        "Publisher": "UBC Botanical Garden",
        "Publication History": "1970AC/EUR\"present",
        "Language": "English",
        "Publication Frequency": "4 issues per year"
    },
    {
        "Journal": "Economic Botany",
        "Homepage": "journal home",
        "Publisher": "Society for Economic Botany",
        "Publication History": "1946AC/EUR\"present",
        "Language": "English",
        "Publication Frequency": "4 issues per year"
    },
    {
        "Journal": "Erwerbs-Obstbau",
        "Homepage": "journal home",
        "Publisher": "Springer Science+Business Media",
        "Publication History": "1958AC/EUR\"present",
        "Language": "German",
        "Publication Frequency": "4 issues per year"
    },
    {
        "Journal": "Euphytica",
        "Homepage": "journal home",
        "Publisher": "Springer Science+Business Media",
        "Publication History": "1952AC/EUR\"present",
        "Language": "English",
        "Publication Frequency": "12 issues per year"
    },
    {
        "Journal": "European Journal of Agronomy",
        "Homepage": "journal home",
        "Publisher": "Elsevier and the European Society for Agronomy",
        "Publication History": "1994AC/EUR\"present",
        "Language": "English",
        "Publication Frequency": "8 issues per year"
    },
    {
        "Journal": "European Journal of Horticultural Science",
        "Homepage": "journal home",
        "Publisher": "Ulmer",
        "Publication History": "1935AC/EUR\"present",
        "Language": "English (current) and German (former)",
        "Publication Frequency": "6 issues per year"
    },
    {
        "Journal": "Field Crops Research",
        "Homepage": "journal home",
        "Publisher": "Elsevier",
        "Publication History": "1978AC/EUR\"present",
        "Language": "English",
        "Publication Frequency": "6 issues per year"
    },
    {
        "Journal": "Genetic Resources and Crop Evolution",
        "Homepage": "journal home",
        "Publisher": "Springer Science+Business Media",
        "Publication History": "1953AC/EUR\"present",
        "Language": "English",
        "Publication Frequency": "6 issues per year"
    },
    {
        "Journal": "Grass and Forage Science",
        "Homepage": "journal home",
        "Publisher": "Blackwell Publishing and the British Grassland Society",
        "Publication History": "1946AC/EUR\"present",
        "Language": "English",
        "Publication Frequency": "4 issues per year"
    },
    {
        "Journal": "Hilgardia",
        "Homepage": "N\\/A",
        "Publisher": "University of California, Berkeley",
        "Publication History": "1925AC/EUR\"1996",
        "Language": "English",
        "Publication Frequency": "9 issues per year"
    },
    {
        "Journal": "The Horticulturist",
        "Homepage": "journal home",
        "Publisher": "Institute of Horticulture",
        "Publication History": "1992AC/EUR\"present",
        "Language": "English",
        "Publication Frequency": "4 issues per year"
    },
    {
        "Journal": "Horticultural Reviews",
        "Homepage": "journal home",
        "Publisher": "John Wiley & Sons",
        "Publication History": "1979AC/EUR\"present",
        "Language": "English",
        "Publication Frequency": "1 volume per year"
    },
    {
        "Journal": "Industrial Crops and Products",
        "Homepage": "journal home",
        "Publisher": "Elsevier",
        "Publication History": "1992AC/EUR\"present",
        "Language": "English",
        "Publication Frequency": "6 issues per year"
    },
    {
        "Journal": "Invasive Plant Science and Management",
        "Homepage": "journal home",
        "Publisher": "Weed Science Society of America",
        "Publication History": "2008AC/EUR\"present",
        "Language": "English",
        "Publication Frequency": "4 issues per year"
    },
    {
        "Journal": "Journal of Agronomy and Crop Science",
        "Homepage": "journal home",
        "Publisher": "Blackwell Publishing",
        "Publication History": "1987AC/EUR\"present",
        "Language": "English",
        "Publication Frequency": "6 issues per year"
    },
    {
        "Journal": "Journal of Applied Horticulture",
        "Homepage": "journal home",
        "Publisher": "Society for the Advancement of Horticulture",
        "Publication History": "1999AC/EUR\"present",
        "Language": "English",
        "Publication Frequency": "2 issues per year"
    },
    {
        "Journal": "Journal of Bamboo and Rattan",
        "Homepage": "journal home",
        "Publisher": "Springer Science+Business Media",
        "Publication History": "2001AC/EUR\"present",
        "Language": "English",
        "Publication Frequency": "4 issues per year"
    },
    {
        "Journal": "Journal of Cereal Science",
        "Homepage": "journal home",
        "Publisher": "Elsevier",
        "Publication History": "1983AC/EUR\"present",
        "Language": "English",
        "Publication Frequency": "6 issues"
    },
    {
        "Journal": "Journal of Horticultural Science and Biotechnology",
        "Homepage": "journal home",
        "Publisher": "International Society for Horticultural Science",
        "Publication History": "1925AC/EUR\"present",
        "Language": "English",
        "Publication Frequency": "6 issues per year"
    },
    {
        "Journal": "Journal of Fruit and Ornamental Plant Research",
        "Homepage": "journal home",
        "Publisher": "Research Institute of Pomology and Floriculture",
        "Publication History": "1993AC/EUR\"present",
        "Language": "English",
        "Publication Frequency": "1 volume per year"
    },
    {
        "Journal": "Journal of plant nutrition and soil science",
        "Homepage": "journal home",
        "Publisher": "Wiley-VCH",
        "Publication History": "1923AC/EUR\"present",
        "Language": "English",
        "Publication Frequency": "6 issues per year"
    },
    {
        "Journal": "Journal of Plant Registrations",
        "Homepage": "journal home",
        "Publisher": "Crop Science Society of America",
        "Publication History": "2007AC/EUR\"present",
        "Language": "English",
        "Publication Frequency": "3 issues per year"
    },
    {
        "Journal": "Journal of the American Society of Horticulture",
        "Homepage": "journal home",
        "Publisher": "American Society for Horticultural Science",
        "Publication History": "1875AC/EUR\"present",
        "Language": "English",
        "Publication Frequency": "6 issues per year"
    },
    {
        "Journal": "Molecular Breeding",
        "Homepage": "journal home",
        "Publisher": "Springer Science+Business Media",
        "Publication History": "1995AC/EUR\"present",
        "Language": "English",
        "Publication Frequency": "4 issues per year"
    },
    {
        "Journal": "PHM",
        "Homepage": "journal home",
        "Publisher": "Hortilien",
        "Publication History": "1826AC/EUR\"present",
        "Language": "French",
        "Publication Frequency": "11 issues per year"
    },
    {
        "Journal": "Plant and Soil",
        "Homepage": "journal home",
        "Publisher": "Springer Science+Business Media and the Royal Netherlands Society of Agricultural Science",
        "Publication History": "1948AC/EUR\"present",
        "Language": "English",
        "Publication Frequency": "12 volumes per year"
    },
    {
        "Journal": "Plant Breeding (journal)",
        "Homepage": "journal home",
        "Publisher": "Blackwell Publishing",
        "Publication History": "1986AC/EUR\"present",
        "Language": "English",
        "Publication Frequency": "6 issues per year"
    },
    {
        "Journal": "Postharvest Biology and Technology",
        "Homepage": "journal home",
        "Publisher": "Elsevier",
        "Publication History": "1991AC/EUR\"present",
        "Language": "English",
        "Publication Frequency": "12 issues per year"
    },
    {
        "Journal": "Potato Research",
        "Homepage": "journal home",
        "Publisher": "Springer Science+Business Media and the European Association for Potato Research",
        "Publication History": "1958AC/EUR\"present",
        "Language": "English",
        "Publication Frequency": "4 issues per year"
    },
    {
        "Journal": "Rice",
        "Homepage": "journal home",
        "Publisher": "Springer Science+Business Media",
        "Publication History": "2007AC/EUR\"present",
        "Language": "English",
        "Publication Frequency": "?"
    },
    {
        "Journal": "Rice Science",
        "Homepage": "journal home",
        "Publisher": "Elsevier and China National Rice Research Institute",
        "Publication History": "2007AC/EUR\"present",
        "Language": "English",
        "Publication Frequency": "4 issues per year"
    },
    {
        "Journal": "Scientia Horticulturae",
        "Homepage": "journal home",
        "Publisher": "Elsevier",
        "Publication History": "1973AC/EUR\"present",
        "Language": "English",
        "Publication Frequency": "16 issues per year"
    },
    {
        "Journal": "Weed Biology and Management",
        "Homepage": "journal home",
        "Publisher": "Blackwell Publishing and the Weed Science Society of Japan",
        "Publication History": "2001AC/EUR\"present",
        "Language": "English",
        "Publication Frequency": "4 issues per year"
    },
    {
        "Journal": "Weed Research",
        "Homepage": "journal home",
        "Publisher": "Blackwell Publishing and the European Weed Research Society",
        "Publication History": "1961AC/EUR\"present",
        "Language": "English",
        "Publication Frequency": "6 issues per year"
    },
    {
        "Journal": "Weed Science",
        "Homepage": "journal home",
        "Publisher": "Weed Science Society of America",
        "Publication History": "1952 - current",
        "Language": "English",
        "Publication Frequency": "6 issues per year"
    },
    {
        "Journal": "Weed Technology",
        "Homepage": "journal home",
        "Publisher": "Weed Science Society of America",
        "Publication History": "1986AC/EUR\"present",
        "Language": "English",
        "Publication Frequency": "4 issues per year"
    }
]