[
    {
        "Year": "1980",
        "Wrestler": "The Iron Sheik",
        "Promotion(s)": "World Wrestling Federation"
    },
    {
        "Year": "1981",
        "Wrestler": "Buzz Sawyer",
        "Promotion(s)": "National Wrestling Alliance"
    },
    {
        "Year": "1982",
        "Wrestler": "Adrian Adonis",
        "Promotion(s)": "American Wrestling Association"
    },
    {
        "Year": "1983",
        "Wrestler": "Dynamite Kid",
        "Promotion(s)": "New Japan Pro Wrestling Stampede Wrestling"
    },
    {
        "Year": "1984",
        "Wrestler": "B. Brian Blair",
        "Promotion(s)": "World Wrestling Federation"
    },
    {
        "Year": "1985",
        "Wrestler": "Bobby Eaton",
        "Promotion(s)": "Jim Crockett Promotions"
    },
    {
        "Year": "1986",
        "Wrestler": "Bobby Eaton",
        "Promotion(s)": "Jim Crockett Promotions"
    },
    {
        "Year": "1987",
        "Wrestler": "Brad Armstrong",
        "Promotion(s)": "Jim Crockett Promotions"
    },
    {
        "Year": "1988",
        "Wrestler": "Tiger Mask II",
        "Promotion(s)": "All Japan Pro Wrestling"
    },
    {
        "Year": "1989",
        "Wrestler": "Dan Kroffat",
        "Promotion(s)": "All Japan Pro Wrestling"
    },
    {
        "Year": "1990",
        "Wrestler": "Bobby Eaton",
        "Promotion(s)": "World Championship Wrestling"
    },
    {
        "Year": "1991",
        "Wrestler": "Terry Taylor",
        "Promotion(s)": "World Championship Wrestling"
    },
    {
        "Year": "1992",
        "Wrestler": "Terry Taylor",
        "Promotion(s)": "World Championship Wrestling"
    },
    {
        "Year": "1993",
        "Wrestler": "Bobby Eaton",
        "Promotion(s)": "World Championship Wrestling"
    },
    {
        "Year": "1994",
        "Wrestler": "Brian Pillman",
        "Promotion(s)": "World Championship Wrestling"
    },
    {
        "Year": "1995",
        "Wrestler": "Skip",
        "Promotion(s)": "World Wrestling Federation"
    },
    {
        "Year": "1996",
        "Wrestler": "Leif Cassidy",
        "Promotion(s)": "World Wrestling Federation"
    },
    {
        "Year": "1997",
        "Wrestler": "Flash Funk",
        "Promotion(s)": "World Wrestling Federation"
    },
    {
        "Year": "1998",
        "Wrestler": "Chris Benoit",
        "Promotion(s)": "World Championship Wrestling"
    },
    {
        "Year": "1999",
        "Wrestler": "Chris Jericho",
        "Promotion(s)": "World Championship Wrestling World Wrestling Federation"
    },
    {
        "Year": "2000",
        "Wrestler": "Chris Jericho",
        "Promotion(s)": "World Wrestling Federation"
    },
    {
        "Year": "2001",
        "Wrestler": "Lance Storm",
        "Promotion(s)": "World Wrestling Federation World Championship Wrestling"
    },
    {
        "Year": "2002",
        "Wrestler": "Booker T",
        "Promotion(s)": "World Wrestling Entertainment\\/WWE"
    },
    {
        "Year": "2003",
        "Wrestler": "Afsltimo DragAfA3n",
        "Promotion(s)": "World Wrestling Entertainment\\/WWE"
    },
    {
        "Year": "2004",
        "Wrestler": "Paul London",
        "Promotion(s)": "World Wrestling Entertainment\\/WWE"
    },
    {
        "Year": "2005",
        "Wrestler": "Shelton Benjamin",
        "Promotion(s)": "World Wrestling Entertainment\\/WWE"
    },
    {
        "Year": "2006",
        "Wrestler": "Shelton Benjamin",
        "Promotion(s)": "World Wrestling Entertainment\\/WWE"
    },
    {
        "Year": "2007",
        "Wrestler": "Shelton Benjamin",
        "Promotion(s)": "World Wrestling Entertainment\\/WWE"
    },
    {
        "Year": "2008",
        "Wrestler": "Montel Vontavious Porter",
        "Promotion(s)": "World Wrestling Entertainment\\/WWE"
    },
    {
        "Year": "2009",
        "Wrestler": "Evan Bourne",
        "Promotion(s)": "World Wrestling Entertainment\\/WWE"
    },
    {
        "Year": "2010",
        "Wrestler": "Kaval",
        "Promotion(s)": "World Wrestling Entertainment\\/WWE"
    },
    {
        "Year": "2011",
        "Wrestler": "Dolph Ziggler",
        "Promotion(s)": "World Wrestling Entertainment\\/WWE"
    },
    {
        "Year": "2012",
        "Wrestler": "Tyson Kidd",
        "Promotion(s)": "World Wrestling Entertainment\\/WWE"
    },
    {
        "Year": "2013",
        "Wrestler": "Antonio Cesaro\\/Cesaro",
        "Promotion(s)": "World Wrestling Entertainment\\/WWE"
    },
    {
        "Year": "2014",
        "Wrestler": "Antonio Cesaro\\/Cesaro",
        "Promotion(s)": "World Wrestling Entertainment\\/WWE"
    }
]