[
    {
        "Building": "Abbeydale Industrial Hamlet (Works)",
        "Image": "",
        "Date built": "1785AC/EUR\"1876",
        "Architect": ""
    },
    {
        "Building": "Church of St. Nicholas, Bradfield",
        "Image": "",
        "Date built": "c.1200AC/EUR\"c.1500",
        "Architect": ""
    },
    {
        "Building": "Church of St. Mary, Ecclesfield",
        "Image": "",
        "Date built": "c.1200AC/EUR\"",
        "Architect": ""
    },
    {
        "Building": "Sheffield Cathedral",
        "Image": "",
        "Date built": "1430AC/EUR\"1966",
        "Architect": ""
    },
    {
        "Building": "Town Hall",
        "Image": "",
        "Date built": "1897",
        "Architect": "E. W. Mountford"
    }
]