[
    {
        "Common name": "Eastern cottontail",
        "Scientific name": "Sylvilagus floridanus",
        "Status": "Common",
        "Notes": "",
        "Distribution": "Statewide"
    },
    {
        "Common name": "Appalachian cottontail",
        "Scientific name": "Sylvilagus obscurus",
        "Status": "Uncommon",
        "Notes": "",
        "Distribution": "Eastern mountains"
    },
    {
        "Common name": "Snowshoe hare",
        "Scientific name": "Lepus americanus",
        "Status": "Rare",
        "Notes": "",
        "Distribution": "Appalachian Uplands"
    }
]