[
    {
        "Common name": "American white pelican",
        "Species": "Pelecanus erythrorhynchos",
        "Habitat": "Sh",
        "Breeding status": "St",
        "Winter": "r",
        "Spring": "-",
        "Summer": "-",
        "Fall": "-"
    },
    {
        "Common name": "Brown pelican",
        "Species": "Pelecanus occidentalis",
        "Habitat": "Sh",
        "Breeding status": "B",
        "Winter": "c",
        "Spring": "c",
        "Summer": "c",
        "Fall": "-"
    }
]