[
    {
        "Institution": "Carleton College",
        "Location": "Northfield, Minnesota",
        "Nickname": "Knights",
        "Founded": "1866",
        "Type": "Private",
        "Enrollment": "1,750",
        "Joined": "1921",
        "Left": "1983",
        "Current Conference": "MIAC"
    },
    {
        "Institution": "Coe College",
        "Location": "Cedar Rapids, Iowa",
        "Nickname": "Kohawks",
        "Founded": "1851",
        "Type": "Private\\/Presbyterian",
        "Enrollment": "1,355",
        "Joined": "1921",
        "Left": "1997",
        "Current Conference": "IIAC"
    },
    {
        "Institution": "Hamline University",
        "Location": "St. Paul, Minnesota",
        "Nickname": "Pipers",
        "Founded": "1854",
        "Type": "Private\\/Methodist",
        "Enrollment": "1,944",
        "Joined": "1922",
        "Left": "1930",
        "Current Conference": "MIAC"
    },
    {
        "Institution": "Millikin University",
        "Location": "Decatur, Illinois",
        "Nickname": "Big Blue",
        "Founded": "1901",
        "Type": "Private\\/Presbyterian",
        "Enrollment": "2,200",
        "Joined": "1922",
        "Left": "1925",
        "Current Conference": "CCIW"
    },
    {
        "Institution": "St. Olaf College",
        "Location": "Northfield, Minnesota",
        "Nickname": "Oles",
        "Founded": "1874",
        "Type": "Private\\/Lutheran (ELCA)",
        "Enrollment": "2,900",
        "Joined": "1952",
        "Left": "1974",
        "Current Conference": "MIAC"
    },
    {
        "Institution": "University of Chicago",
        "Location": "Chicago, Illinois",
        "Nickname": "Maroons",
        "Founded": "1890",
        "Type": "Research University",
        "Enrollment": "13,400",
        "Joined": "1976",
        "Left": "1987",
        "Current Conference": "UAA"
    }
]