[
    {
        "Language": "Spanish",
        "Percentage of population (as of 2010)[62]": "6.93%"
    },
    {
        "Language": "French",
        "Percentage of population (as of 2010)[62]": "0.32%"
    },
    {
        "Language": "German",
        "Percentage of population (as of 2010)[62]": "0.27%"
    },
    {
        "Language": "Chinese (including Mandarin)",
        "Percentage of population (as of 2010)[62]": "0.27%"
    },
    {
        "Language": "Vietnamese",
        "Percentage of population (as of 2010)[62]": "0.24%"
    },
    {
        "Language": "Arabic",
        "Percentage of population (as of 2010)[62]": "0.17%"
    },
    {
        "Language": "Korean",
        "Percentage of population (as of 2010)[62]": "0.16%"
    },
    {
        "Language": "Tagalog",
        "Percentage of population (as of 2010)[62]": "0.13%"
    },
    {
        "Language": "Hindi",
        "Percentage of population (as of 2010)[62]": "0.12%"
    },
    {
        "Language": "Gujarati, Russian, and Hmong (tied)",
        "Percentage of population (as of 2010)[62]": "0.11%"
    },
    {
        "Language": "Italian and Japanese (tied)",
        "Percentage of population (as of 2010)[62]": "0.08%"
    },
    {
        "Language": "Cherokee",
        "Percentage of population (as of 2010)[62]": "0.01%[63]"
    }
]