[
    {
        "Mountain": "Mount Mackintosh",
        "metres": "2,468",
        "feet": "8,087"
    },
    {
        "Mountain": "Mount Joyce",
        "metres": "1,830",
        "feet": "6,000"
    },
    {
        "Mountain": "Mount Billing",
        "metres": "1,420",
        "feet": "4,700"
    },
    {
        "Mountain": "Mount Mallis",
        "metres": "1,360",
        "feet": "4,462"
    },
    {
        "Mountain": "Mount Priestley",
        "metres": "1,100",
        "feet": "3,600"
    }
]