[
    {
        "Currency": "Belgian franc",
        "Date set": "May 1940",
        "Value in AC/\">AC/\"A3": "0.1"
    },
    {
        "Currency": "Belgian franc",
        "Date set": "July 1940",
        "Value in AC/\">AC/\"A3": "0.08"
    },
    {
        "Currency": "Bohemian and Moravian koruna",
        "Date set": "1939",
        "Value in AC/\">AC/\"A3": "0.1"
    },
    {
        "Currency": "Bulgarian lev",
        "Date set": "1940",
        "Value in AC/\">AC/\"A3": "0.03"
    },
    {
        "Currency": "Danish krone",
        "Date set": "1940",
        "Value in AC/\">AC/\"A3": "1"
    },
    {
        "Currency": "French franc",
        "Date set": "May 1940",
        "Value in AC/\">AC/\"A3": "0.05"
    },
    {
        "Currency": "Italian lira",
        "Date set": "1943",
        "Value in AC/\">AC/\"A3": "0.1"
    },
    {
        "Currency": "Luxembourg franc",
        "Date set": "May 1940",
        "Value in AC/\">AC/\"A3": "0.25"
    },
    {
        "Currency": "Luxembourg franc",
        "Date set": "July 1940",
        "Value in AC/\">AC/\"A3": "0.1"
    },
    {
        "Currency": "Dutch Guilder",
        "Date set": "10 May 1940",
        "Value in AC/\">AC/\"A3": "1.5"
    },
    {
        "Currency": "Dutch Guilder",
        "Date set": "17 July 1940",
        "Value in AC/\">AC/\"A3": "1.327"
    },
    {
        "Currency": "Norwegian krone",
        "Date set": "1940",
        "Value in AC/\">AC/\"A3": "0.6"
    },
    {
        "Currency": "Norwegian krone",
        "Date set": "?",
        "Value in AC/\">AC/\"A3": "0.57"
    },
    {
        "Currency": "Polish zA...'oty",
        "Date set": "1939",
        "Value in AC/\">AC/\"A3": "0.5"
    },
    {
        "Currency": "Pound sterling (Channel Islands)",
        "Date set": "1940",
        "Value in AC/\">AC/\"A3": "11.5 (initially)"
    },
    {
        "Currency": "Independent State of Croatia kuna",
        "Date set": "April 1941",
        "Value in AC/\">AC/\"A3": "0.05"
    },
    {
        "Currency": "Slovak koruna",
        "Date set": "1939",
        "Value in AC/\">AC/\"A3": "0.1"
    },
    {
        "Currency": "Slovak koruna",
        "Date set": "1 October 1940",
        "Value in AC/\">AC/\"A3": "0.086"
    },
    {
        "Currency": "Ukrainian karbovanets",
        "Date set": "1942",
        "Value in AC/\">AC/\"A3": "0.1"
    }
]