[
    {
        "#": "",
        "Date": "9 May 2008",
        "Venue": "Bishkek, Kyrgyzstan",
        "Opponent": "Bangladesh",
        "Score": "2-1",
        "Result": "Won",
        "Competition": "2008 AFC Challenge Cup qualification"
    }
]