[
    {
        "Rank": "1",
        "Name": "Kempegowda International Airport",
        "City": "Bangalore",
        "State": "Karnataka",
        "IATA Code": "BLR",
        "Total Passengers (2015)": "10,679,004"
    },
    {
        "Rank": "2",
        "Name": "Chennai International Airport",
        "City": "Chennai",
        "State": "Tamil Nadu",
        "IATA Code": "MAA",
        "Total Passengers (2015)": "8,845,225"
    },
    {
        "Rank": "3",
        "Name": "Rajiv Gandhi International Airport",
        "City": "Hyderabad",
        "State": "Telangana",
        "IATA Code": "HYD",
        "Total Passengers (2015)": "6,971,931"
    },
    {
        "Rank": "4",
        "Name": "Cochin International Airport",
        "City": "Kochi",
        "State": "Kerala",
        "IATA Code": "COK",
        "Total Passengers (2015)": "4,401,403"
    },
    {
        "Rank": "5",
        "Name": "Thiruvananthapuram International Airport",
        "City": "Thiruvananthapuram",
        "State": "Kerala",
        "IATA Code": "TRV",
        "Total Passengers (2015)": "1,987,362"
    },
    {
        "Rank": "6",
        "Name": "Kozhikode International Airport",
        "City": "Kozhikode",
        "State": "Kerala",
        "IATA Code": "CCJ",
        "Total Passengers (2015)": "1,350,695"
    },
    {
        "Rank": "7",
        "Name": "Coimbatore International Airport",
        "City": "Coimbatore",
        "State": "Tamil Nadu",
        "IATA Code": "CJB",
        "Total Passengers (2015)": "981,834"
    },
    {
        "Rank": "8",
        "Name": "Visakhapatnam Airport",
        "City": "Visakhapatnam",
        "State": "Andhra Pradesh",
        "IATA Code": "VTZ",
        "Total Passengers (2015)": "971,794"
    },
    {
        "Rank": "9",
        "Name": "Mangalore International Airport",
        "City": "Mangalore",
        "State": "Karnataka",
        "IATA Code": "IXE",
        "Total Passengers (2015)": "937,471"
    },
    {
        "Rank": "10",
        "Name": "Tiruchirappalli International Airport",
        "City": "Tiruchirappalli",
        "State": "Tamil Nadu",
        "IATA Code": "TRZ",
        "Total Passengers (2015)": "744,049"
    },
    {
        "Rank": "11",
        "Name": "Madurai Airport",
        "City": "Madurai",
        "State": "Tamil Nadu",
        "IATA Code": "IXM",
        "Total Passengers (2015)": "450,552"
    },
    {
        "Rank": "12",
        "Name": "Veer Savarkar International Airport",
        "City": "Port Blair",
        "State": "Andaman and Nicobar",
        "IATA Code": "IXZ",
        "Total Passengers (2015)": "458,231"
    },
    {
        "Rank": "13",
        "Name": "Vijayawada Airport",
        "City": "Vijayawada",
        "State": "Andhra Pradesh",
        "IATA Code": "VGA",
        "Total Passengers (2015)": "216,179"
    },
    {
        "Rank": "14",
        "Name": "Tirupati Airport",
        "City": "Tirupati",
        "State": "Andhra Pradesh",
        "IATA Code": "TIR",
        "Total Passengers (2015)": "201,985"
    },
    {
        "Rank": "15",
        "Name": "Rajahmundry Airport",
        "City": "Rajahmundry",
        "State": "Andhra Pradesh",
        "IATA Code": "RJA",
        "Total Passengers (2015)": "120,844"
    }
]