[
    {
        "Author": "Stanley G. Weinbaum",
        "Story Title": "\\A Martian Odyssey\"\"",
        "Year of first publication": "1934"
    },
    {
        "Author": "John W. Campbell",
        "Story Title": "\\Twilight\"\"",
        "Year of first publication": "1934"
    },
    {
        "Author": "Lester del Rey",
        "Story Title": "\\Helen OLoy\"\"",
        "Year of first publication": "1938"
    },
    {
        "Author": "Robert A. Heinlein",
        "Story Title": "\\The Roads Must Roll\"\"",
        "Year of first publication": "1940"
    },
    {
        "Author": "Theodore Sturgeon",
        "Story Title": "\\Microcosmic God\"\"",
        "Year of first publication": "1941"
    },
    {
        "Author": "Isaac Asimov",
        "Story Title": "\\Nightfall\"\"",
        "Year of first publication": "1941"
    },
    {
        "Author": "A. E. van Vogt",
        "Story Title": "\\The Weapon Shop\"\"",
        "Year of first publication": "1942"
    },
    {
        "Author": "Lewis Padgett",
        "Story Title": "AC/Mimsy Were the BorogovesAC/",
        "Year of first publication": "1943"
    },
    {
        "Author": "Clifford D. Simak",
        "Story Title": "AC/Huddling PlaceAC/",
        "Year of first publication": "1944"
    },
    {
        "Author": "Fredric Brown",
        "Story Title": "AC/ArenaAC/",
        "Year of first publication": "1944"
    },
    {
        "Author": "Murray Leinster",
        "Story Title": "AC/First ContactAC/",
        "Year of first publication": "1945"
    },
    {
        "Author": "Judith Merril",
        "Story Title": "AC/That Only a MotherAC/",
        "Year of first publication": "1948"
    },
    {
        "Author": "Cordwainer Smith",
        "Story Title": "AC/Scanners Live in VainAC/",
        "Year of first publication": "1948"
    },
    {
        "Author": "Ray Bradbury",
        "Story Title": "AC/Mars is Heaven!AC/",
        "Year of first publication": "1948"
    },
    {
        "Author": "Cyril M. Kornbluth",
        "Story Title": "AC/The Little Black BagAC/",
        "Year of first publication": "1950"
    },
    {
        "Author": "Richard Matheson",
        "Story Title": "AC/Born of Man and WomanAC/",
        "Year of first publication": "1950"
    },
    {
        "Author": "Fritz Leiber",
        "Story Title": "AC/Coming AttractionAC/",
        "Year of first publication": "1950"
    },
    {
        "Author": "Anthony Boucher",
        "Story Title": "AC/The Quest for Saint AquinAC/",
        "Year of first publication": "1951"
    },
    {
        "Author": "James Blish",
        "Story Title": "AC/Surface TensionAC/",
        "Year of first publication": "1952"
    },
    {
        "Author": "Arthur C. Clarke",
        "Story Title": "AC/The Nine Billion Names of GodAC/",
        "Year of first publication": "1953"
    },
    {
        "Author": "Jerome Bixby",
        "Story Title": "AC/It's a Good LifeAC/",
        "Year of first publication": "1953"
    },
    {
        "Author": "Tom Godwin",
        "Story Title": "AC/The Cold EquationsAC/",
        "Year of first publication": "1954"
    },
    {
        "Author": "Alfred Bester",
        "Story Title": "AC/Fondly FahrenheitAC/",
        "Year of first publication": "1954"
    },
    {
        "Author": "Damon Knight",
        "Story Title": "AC/The Country of the KindAC/",
        "Year of first publication": "1955"
    },
    {
        "Author": "Daniel Keyes",
        "Story Title": "AC/Flowers for AlgernonAC/",
        "Year of first publication": "1959"
    },
    {
        "Author": "Roger Zelazny",
        "Story Title": "AC/A Rose for EcclesiastesAC/",
        "Year of first publication": "1963"
    }
]