[
    {
        "Pound Hill & Worth": "",
        "Party": "Conservative",
        "Candidate": "Richard Burrett",
        "Votes": "2,308",
        "%": "69.7",
        "+-%": ""
    },
    {
        "Pound Hill & Worth": "",
        "Party": "Liberal Democrat",
        "Candidate": "Eddie Reay",
        "Votes": "640",
        "%": "19.3",
        "+-%": ""
    },
    {
        "Pound Hill & Worth": "",
        "Party": "Labour",
        "Candidate": "David Shreeves",
        "Votes": "361",
        "%": "10.9",
        "+-%": ""
    }
]