[
    {
        "http://dbpedia.org/ontology/Station": "http://dbpedia.org/resource/Canadian_National_Depot",
        "Station": "Canadian National Depot",
        "http://dbpedia.org/ontology/yearOfConstruction": "1986"
    },
    {
        "http://dbpedia.org/ontology/Station": "http://dbpedia.org/resource/Delaware_and_Hudson_Passenger_Station",
        "Station": "Delaware and Hudson Passenger Station",
        "http://dbpedia.org/ontology/yearOfConstruction": "1924"
    },
    {
        "http://dbpedia.org/ontology/Station": "http://dbpedia.org/resource/Issaquah_Depot",
        "Station": "Issaquah Depot",
        "http://dbpedia.org/ontology/yearOfConstruction": "1776"
    },
    {
        "http://dbpedia.org/ontology/Station": "http://dbpedia.org/resource/Starlight_Station,_New_York,_Ontario,_and_Western_Railway",
        "Station": "Starlight Station, New York, Ontario, and Western Railway",
        "http://dbpedia.org/ontology/yearOfConstruction": "1961"
    },
    {
        "http://dbpedia.org/ontology/Station": "http://dbpedia.org/resource/Old_Fire_House",
        "Station": "Old Fire House",
        "http://dbpedia.org/ontology/yearOfConstruction": "1737"
    },
    {
        "http://dbpedia.org/ontology/Station": "http://dbpedia.org/resource/Louisville_and_Nashville_Railroad_Depot_(Cullman,_Alabama)",
        "Station": "Louisville and Nashville Railroad Depot (Cullman, Alabama)",
        "http://dbpedia.org/ontology/yearOfConstruction": "1786"
    },
    {
        "http://dbpedia.org/ontology/Station": "http://dbpedia.org/resource/Tenney_Fire_Hall",
        "Station": "Tenney Fire Hall",
        "http://dbpedia.org/ontology/yearOfConstruction": "1867"
    },
    {
        "http://dbpedia.org/ontology/Station": "http://dbpedia.org/resource/South_Carolina_Western_Railway_Station",
        "Station": "South Carolina Western Railway Station",
        "http://dbpedia.org/ontology/yearOfConstruction": "1808"
    },
    {
        "http://dbpedia.org/ontology/Station": "http://dbpedia.org/resource/W._H._Bradford_Hook_and_Ladder_Fire_House",
        "Station": "W. H. Bradford Hook and Ladder Fire House",
        "http://dbpedia.org/ontology/yearOfConstruction": "1947"
    },
    {
        "http://dbpedia.org/ontology/Station": "http://dbpedia.org/resource/Luray_Norfolk_and_Western_Passenger_Station",
        "Station": "Luray Norfolk and Western Passenger Station",
        "http://dbpedia.org/ontology/yearOfConstruction": "1951"
    },
    {
        "http://dbpedia.org/ontology/Station": "http://dbpedia.org/resource/Union_Station_(Seattle)",
        "Station": "Union Station (Seattle)",
        "http://dbpedia.org/ontology/yearOfConstruction": "2070"
    },
    {
        "http://dbpedia.org/ontology/Station": "http://dbpedia.org/resource/Southern_Railway_Passenger_Depot_(Branchville,_South_Carolina)",
        "Station": "Southern Railway Passenger Depot (Branchville, South Carolina)",
        "http://dbpedia.org/ontology/yearOfConstruction": "1893"
    },
    {
        "http://dbpedia.org/ontology/Station": "http://dbpedia.org/resource/Coney_Island_Fire_Station_Pumping_Station",
        "Station": "Coney Island Fire Station Pumping Station",
        "http://dbpedia.org/ontology/yearOfConstruction": "2102"
    },
    {
        "http://dbpedia.org/ontology/Station": "http://dbpedia.org/resource/Elm_Street_Fire_Station",
        "Station": "Elm Street Fire Station",
        "http://dbpedia.org/ontology/yearOfConstruction": "1964"
    },
    {
        "http://dbpedia.org/ontology/Station": "http://dbpedia.org/resource/South_Lancaster_Engine_House",
        "Station": "South Lancaster Engine House",
        "http://dbpedia.org/ontology/yearOfConstruction": "1793"
    },
    {
        "http://dbpedia.org/ontology/Station": "http://dbpedia.org/resource/Chaumont_Railroad_Station",
        "Station": "Chaumont Railroad Station",
        "http://dbpedia.org/ontology/yearOfConstruction": "1983"
    },
    {
        "http://dbpedia.org/ontology/Station": "http://dbpedia.org/resource/Philadelphia,_Wilmington_and_Baltimore_Railroad_Freight_Shed",
        "Station": "Philadelphia, Wilmington and Baltimore Railroad Freight Shed",
        "http://dbpedia.org/ontology/yearOfConstruction": "1748"
    },
    {
        "http://dbpedia.org/ontology/Station": "http://dbpedia.org/resource/L&N_Station_(Knoxville)",
        "Station": "L&N Station (Knoxville)",
        "http://dbpedia.org/ontology/yearOfConstruction": "1805"
    },
    {
        "http://dbpedia.org/ontology/Station": "http://dbpedia.org/resource/Tunnelton_Railroad_Depot",
        "Station": "Tunnelton Railroad Depot",
        "http://dbpedia.org/ontology/yearOfConstruction": "2061"
    },
    {
        "http://dbpedia.org/ontology/Station": "http://dbpedia.org/resource/Pure_Oil_Gas_Station",
        "Station": "Pure Oil Gas Station",
        "http://dbpedia.org/ontology/yearOfConstruction": "1860"
    },
    {
        "http://dbpedia.org/ontology/Station": "http://dbpedia.org/resource/Keysville_Railroad_Station",
        "Station": "Keysville Railroad Station",
        "http://dbpedia.org/ontology/yearOfConstruction": "1983"
    },
    {
        "http://dbpedia.org/ontology/Station": "http://dbpedia.org/resource/Esso_Standard_Oil_Service_Station_(Little_Rock,_Arkansas)",
        "Station": "Esso Standard Oil Service Station (Little Rock, Arkansas)",
        "http://dbpedia.org/ontology/yearOfConstruction": "2048"
    },
    {
        "http://dbpedia.org/ontology/Station": "http://dbpedia.org/resource/Potter_Place_Railroad_Station",
        "Station": "Potter Place Railroad Station",
        "http://dbpedia.org/ontology/yearOfConstruction": "1789"
    },
    {
        "http://dbpedia.org/ontology/Station": "http://dbpedia.org/resource/Riverton_Railroad_Depot",
        "Station": "Riverton Railroad Depot",
        "http://dbpedia.org/ontology/yearOfConstruction": "1918"
    },
    {
        "http://dbpedia.org/ontology/Station": "http://dbpedia.org/resource/Woodland_Street_Firehouse",
        "Station": "Woodland Street Firehouse",
        "http://dbpedia.org/ontology/yearOfConstruction": "2010"
    },
    {
        "http://dbpedia.org/ontology/Station": "http://dbpedia.org/resource/Northern_Pacific_Depot_(Villard,_Minnesota)",
        "Station": "Northern Pacific Depot (Villard, Minnesota)",
        "http://dbpedia.org/ontology/yearOfConstruction": "2060"
    },
    {
        "http://dbpedia.org/ontology/Station": "http://dbpedia.org/resource/Machias_Railroad_Station",
        "Station": "Machias Railroad Station",
        "http://dbpedia.org/ontology/yearOfConstruction": "1803"
    },
    {
        "http://dbpedia.org/ontology/Station": "http://dbpedia.org/resource/St._Louis,_Peoria_and_Northern_Railroad_Depot",
        "Station": "St. Louis, Peoria and Northern Railroad Depot",
        "http://dbpedia.org/ontology/yearOfConstruction": "1920"
    },
    {
        "http://dbpedia.org/ontology/Station": "http://dbpedia.org/resource/Grand_Trunk_Station_(Lewiston)",
        "Station": "Grand Trunk Station (Lewiston)",
        "http://dbpedia.org/ontology/yearOfConstruction": "1886"
    },
    {
        "http://dbpedia.org/ontology/Station": "http://dbpedia.org/resource/Loon_Lake_Mountain_Fire_Observation_Station",
        "Station": "Loon Lake Mountain Fire Observation Station",
        "http://dbpedia.org/ontology/yearOfConstruction": "1967"
    },
    {
        "http://dbpedia.org/ontology/Station": "http://dbpedia.org/resource/Willamette_Valley_and_Coast_Railroad_Depot",
        "Station": "Willamette Valley and Coast Railroad Depot",
        "http://dbpedia.org/ontology/yearOfConstruction": "2031"
    },
    {
        "http://dbpedia.org/ontology/Station": "http://dbpedia.org/resource/John_Osterman_Gas_Station",
        "Station": "John Osterman Gas Station",
        "http://dbpedia.org/ontology/yearOfConstruction": "2125"
    },
    {
        "http://dbpedia.org/ontology/Station": "http://dbpedia.org/resource/Oakton_Trolley_Station",
        "Station": "Oakton Trolley Station",
        "http://dbpedia.org/ontology/yearOfConstruction": "1940"
    },
    {
        "http://dbpedia.org/ontology/Station": "http://dbpedia.org/resource/Azure_Mountain_Fire_Observation_Station",
        "Station": "Azure Mountain Fire Observation Station",
        "http://dbpedia.org/ontology/yearOfConstruction": "1995"
    },
    {
        "http://dbpedia.org/ontology/Station": "http://dbpedia.org/resource/Poland_Railroad_Station",
        "Station": "Poland Railroad Station",
        "http://dbpedia.org/ontology/yearOfConstruction": "2036"
    },
    {
        "http://dbpedia.org/ontology/Station": "http://dbpedia.org/resource/Avant's_Cities_Service_Station",
        "Station": "Avant's Cities Service Station",
        "http://dbpedia.org/ontology/yearOfConstruction": "1933"
    },
    {
        "http://dbpedia.org/ontology/Station": "http://dbpedia.org/resource/Hyde_Park_Railroad_Station",
        "Station": "Hyde Park Railroad Station",
        "http://dbpedia.org/ontology/yearOfConstruction": "1963"
    },
    {
        "http://dbpedia.org/ontology/Station": "http://dbpedia.org/resource/Tamaqua_Railroad_Station",
        "Station": "Tamaqua Railroad Station",
        "http://dbpedia.org/ontology/yearOfConstruction": "1863"
    },
    {
        "http://dbpedia.org/ontology/Station": "http://dbpedia.org/resource/Seaboard_Air_Line_Railway_Depot_in_Patrick",
        "Station": "Seaboard Air Line Railway Depot in Patrick",
        "http://dbpedia.org/ontology/yearOfConstruction": "1754"
    },
    {
        "http://dbpedia.org/ontology/Station": "http://dbpedia.org/resource/Union_Wharf",
        "Station": "Union Wharf",
        "http://dbpedia.org/ontology/yearOfConstruction": "1908"
    },
    {
        "http://dbpedia.org/ontology/Station": "http://dbpedia.org/resource/Old_L_&_N_Station",
        "Station": "Old L & N Station",
        "http://dbpedia.org/ontology/yearOfConstruction": "1792"
    },
    {
        "http://dbpedia.org/ontology/Station": "http://dbpedia.org/resource/Engine_Company_31",
        "Station": "Engine Company 31",
        "http://dbpedia.org/ontology/yearOfConstruction": "2078"
    },
    {
        "http://dbpedia.org/ontology/Station": "http://dbpedia.org/resource/Try_Street_Terminal",
        "Station": "Try Street Terminal",
        "http://dbpedia.org/ontology/yearOfConstruction": "1960"
    },
    {
        "http://dbpedia.org/ontology/Station": "http://dbpedia.org/resource/South_Street_Station",
        "Station": "South Street Station",
        "http://dbpedia.org/ontology/yearOfConstruction": "1865"
    },
    {
        "http://dbpedia.org/ontology/Station": "http://dbpedia.org/resource/Third_Railroad_Station",
        "Station": "Third Railroad Station",
        "http://dbpedia.org/ontology/yearOfConstruction": "1821"
    },
    {
        "http://dbpedia.org/ontology/Station": "http://dbpedia.org/resource/Atchison,_Topeka_and_Santa_Fe_Passenger_Depot_(Colorado_Springs,_Colorado)",
        "Station": "Atchison, Topeka and Santa Fe Passenger Depot (Colorado Springs, Colorado)",
        "http://dbpedia.org/ontology/yearOfConstruction": "1941"
    },
    {
        "http://dbpedia.org/ontology/Station": "http://dbpedia.org/resource/First_Lift_Station",
        "Station": "First Lift Station",
        "http://dbpedia.org/ontology/yearOfConstruction": "2079"
    },
    {
        "http://dbpedia.org/ontology/Station": "http://dbpedia.org/resource/Standard_Oil_Gasoline_Station_(Odell,_Illinois)",
        "Station": "Standard Oil Gasoline Station (Odell, Illinois)",
        "http://dbpedia.org/ontology/yearOfConstruction": "1920"
    },
    {
        "http://dbpedia.org/ontology/Station": "http://dbpedia.org/resource/Steamer_Company_Number_5",
        "Station": "Steamer Company Number 5",
        "http://dbpedia.org/ontology/yearOfConstruction": "2049"
    },
    {
        "http://dbpedia.org/ontology/Station": "http://dbpedia.org/resource/Union_Station_(Louisville)",
        "Station": "Union Station (Louisville)",
        "http://dbpedia.org/ontology/yearOfConstruction": "2056"
    },
    {
        "http://dbpedia.org/ontology/Station": "http://dbpedia.org/resource/New_Milford_(Housatonic_Railroad_Station)",
        "Station": "New Milford (Housatonic Railroad Station)",
        "http://dbpedia.org/ontology/yearOfConstruction": "1807"
    },
    {
        "http://dbpedia.org/ontology/Station": "http://dbpedia.org/resource/Union_Station_(Petersburg)",
        "Station": "Union Station (Petersburg)",
        "http://dbpedia.org/ontology/yearOfConstruction": "1749"
    },
    {
        "http://dbpedia.org/ontology/Station": "http://dbpedia.org/resource/Peabody_Central_Fire_Station",
        "Station": "Peabody Central Fire Station",
        "http://dbpedia.org/ontology/yearOfConstruction": "1850"
    },
    {
        "http://dbpedia.org/ontology/Station": "http://dbpedia.org/resource/Esek_Bussey_Firehouse",
        "Station": "Esek Bussey Firehouse",
        "http://dbpedia.org/ontology/yearOfConstruction": "2028"
    },
    {
        "http://dbpedia.org/ontology/Station": "http://dbpedia.org/resource/48th_Police_Precinct_Station",
        "Station": "48th Police Precinct Station",
        "http://dbpedia.org/ontology/yearOfConstruction": "1753"
    },
    {
        "http://dbpedia.org/ontology/Station": "http://dbpedia.org/resource/Engine_Company_16-Truck_Company_3",
        "Station": "Engine Company 16-Truck Company 3",
        "http://dbpedia.org/ontology/yearOfConstruction": "1853"
    },
    {
        "http://dbpedia.org/ontology/Station": "http://dbpedia.org/resource/Scottsboro_Memphis_and_Charleston_Railroad_Depot",
        "Station": "Scottsboro Memphis and Charleston Railroad Depot",
        "http://dbpedia.org/ontology/yearOfConstruction": "1719"
    },
    {
        "http://dbpedia.org/ontology/Station": "http://dbpedia.org/resource/Waldo_Street_Police_Station",
        "Station": "Waldo Street Police Station",
        "http://dbpedia.org/ontology/yearOfConstruction": "1938"
    },
    {
        "http://dbpedia.org/ontology/Station": "http://dbpedia.org/resource/Glendale_Power_House",
        "Station": "Glendale Power House",
        "http://dbpedia.org/ontology/yearOfConstruction": "2048"
    },
    {
        "http://dbpedia.org/ontology/Station": "http://dbpedia.org/resource/Station_28_Minneapolis_Fire_Department",
        "Station": "Station 28 Minneapolis Fire Department",
        "http://dbpedia.org/ontology/yearOfConstruction": "1785"
    },
    {
        "http://dbpedia.org/ontology/Station": "http://dbpedia.org/resource/Engine_Company_22",
        "Station": "Engine Company 22",
        "http://dbpedia.org/ontology/yearOfConstruction": "1789"
    },
    {
        "http://dbpedia.org/ontology/Station": "http://dbpedia.org/resource/Missouri_and_North_Arkansas_Depot-Bellefonte",
        "Station": "Missouri and North Arkansas Depot-Bellefonte",
        "http://dbpedia.org/ontology/yearOfConstruction": "1992"
    },
    {
        "http://dbpedia.org/ontology/Station": "http://dbpedia.org/resource/Missouri_Pacific_Depot_(Bald_Knob,_Arkansas)",
        "Station": "Missouri Pacific Depot (Bald Knob, Arkansas)",
        "http://dbpedia.org/ontology/yearOfConstruction": "2092"
    },
    {
        "http://dbpedia.org/ontology/Station": "http://dbpedia.org/resource/Illinois_Central_Railroad_Freight_Depot_(Bloomington,_Indiana)",
        "Station": "Illinois Central Railroad Freight Depot (Bloomington, Indiana)",
        "http://dbpedia.org/ontology/yearOfConstruction": "1717"
    },
    {
        "http://dbpedia.org/ontology/Station": "http://dbpedia.org/resource/Hampton_Depot",
        "Station": "Hampton Depot",
        "http://dbpedia.org/ontology/yearOfConstruction": "1749"
    },
    {
        "http://dbpedia.org/ontology/Station": "http://dbpedia.org/resource/US_Weather_Bureau_Station_(Block_Island)",
        "Station": "US Weather Bureau Station (Block Island)",
        "http://dbpedia.org/ontology/yearOfConstruction": "2031"
    },
    {
        "http://dbpedia.org/ontology/Station": "http://dbpedia.org/resource/Kinston_Fire_Station-City_Hall",
        "Station": "Kinston Fire Station-City Hall",
        "http://dbpedia.org/ontology/yearOfConstruction": "1845"
    },
    {
        "http://dbpedia.org/ontology/Station": "http://dbpedia.org/resource/Grand_Central_Station_(Chicago)",
        "Station": "Grand Central Station (Chicago)",
        "http://dbpedia.org/ontology/yearOfConstruction": "1829"
    },
    {
        "http://dbpedia.org/ontology/Station": "http://dbpedia.org/resource/Coudersport_and_Port_Allegany_Railroad_Station",
        "Station": "Coudersport and Port Allegany Railroad Station",
        "http://dbpedia.org/ontology/yearOfConstruction": "1970"
    },
    {
        "http://dbpedia.org/ontology/Station": "http://dbpedia.org/resource/Little_Falls_and_Dakota_Depot",
        "Station": "Little Falls and Dakota Depot",
        "http://dbpedia.org/ontology/yearOfConstruction": "1790"
    },
    {
        "http://dbpedia.org/ontology/Station": "http://dbpedia.org/resource/Houghton_County_Traction_Company_Ahmeek_Streetcar_Station",
        "Station": "Houghton County Traction Company Ahmeek Streetcar Station",
        "http://dbpedia.org/ontology/yearOfConstruction": "2070"
    },
    {
        "http://dbpedia.org/ontology/Station": "http://dbpedia.org/resource/Bowling_Green_(IRT_Lexington_Avenue_Line)",
        "Station": "Bowling Green (IRT Lexington Avenue Line)",
        "http://dbpedia.org/ontology/yearOfConstruction": "1750"
    }
]