[
    {
        "http://dbpedia.org/ontology/SocietalEvent": "http://dbpedia.org/resource/2013_Fergana_Challenger",
        "SocietalEvent": "2013 Fergana Challenger",
        "http://dbpedia.org/ontology/budget": "50198.87863469674"
    },
    {
        "http://dbpedia.org/ontology/SocietalEvent": "http://dbpedia.org/resource/2014_Aegon_Trophy",
        "SocietalEvent": "2014 Aegon Trophy",
        "http://dbpedia.org/ontology/budget": "65467.88639299303"
    },
    {
        "http://dbpedia.org/ontology/SocietalEvent": "http://dbpedia.org/resource/2015_Launceston_Tennis_International",
        "SocietalEvent": "2015 Launceston Tennis International",
        "http://dbpedia.org/ontology/budget": "47876.119409602565"
    },
    {
        "http://dbpedia.org/ontology/SocietalEvent": "http://dbpedia.org/resource/1990_Newsweek_Champions_Cup_and_the_Virginia_Slims_of_Indian_Wells",
        "SocietalEvent": "1990 Newsweek Champions Cup and the Virginia Slims of Indian Wells",
        "http://dbpedia.org/ontology/budget": "775597.5416466992"
    },
    {
        "http://dbpedia.org/ontology/SocietalEvent": "http://dbpedia.org/resource/2012_Ningbo_Challenger",
        "SocietalEvent": "2012 Ningbo Challenger",
        "http://dbpedia.org/ontology/budget": "47637.351023332914"
    },
    {
        "http://dbpedia.org/ontology/SocietalEvent": "http://dbpedia.org/resource/2016_ABN_AMRO_World_Tennis_Tournament",
        "SocietalEvent": "2016 ABN AMRO World Tennis Tournament",
        "http://dbpedia.org/ontology/budget": "1522926.2858115612"
    },
    {
        "http://dbpedia.org/ontology/SocietalEvent": "http://dbpedia.org/resource/2014_Coleman_Vision_Tennis_Championships",
        "SocietalEvent": "2014 Coleman Vision Tennis Championships",
        "http://dbpedia.org/ontology/budget": "77010.32820197992"
    },
    {
        "http://dbpedia.org/ontology/SocietalEvent": "http://dbpedia.org/resource/2015_Aircel_Chennai_Open",
        "SocietalEvent": "2015 Aircel Chennai Open",
        "http://dbpedia.org/ontology/budget": "455748.2965324752"
    },
    {
        "http://dbpedia.org/ontology/SocietalEvent": "http://dbpedia.org/resource/2015_Kangaroo_Cup",
        "SocietalEvent": "2015 Kangaroo Cup",
        "http://dbpedia.org/ontology/budget": "71085.48106987208"
    },
    {
        "http://dbpedia.org/ontology/SocietalEvent": "http://dbpedia.org/resource/2016_Las_Vegas_Challenger",
        "SocietalEvent": "2016 Las Vegas Challenger",
        "http://dbpedia.org/ontology/budget": "46643.337703228244"
    },
    {
        "http://dbpedia.org/ontology/SocietalEvent": "http://dbpedia.org/resource/1992_Newsweek_Champions_Cup_and_the_Matrix_Essentials_Evert_Cup",
        "SocietalEvent": "1992 Newsweek Champions Cup and the Matrix Essentials Evert Cup",
        "http://dbpedia.org/ontology/budget": "816109.5228057245"
    },
    {
        "http://dbpedia.org/ontology/SocietalEvent": "http://dbpedia.org/resource/2013_Samsung_Securities_Cup",
        "SocietalEvent": "2013 Samsung Securities Cup",
        "http://dbpedia.org/ontology/budget": "26203.020241370345"
    },
    {
        "http://dbpedia.org/ontology/SocietalEvent": "http://dbpedia.org/resource/1976_German_Open_(tennis)",
        "SocietalEvent": "1976 German Open (tennis)",
        "http://dbpedia.org/ontology/budget": "103590.37895186865"
    },
    {
        "http://dbpedia.org/ontology/SocietalEvent": "http://dbpedia.org/resource/2014_Maserati_Challenger",
        "SocietalEvent": "2014 Maserati Challenger",
        "http://dbpedia.org/ontology/budget": "32791.87621941785"
    },
    {
        "http://dbpedia.org/ontology/SocietalEvent": "http://dbpedia.org/resource/2014_Distal_&_ITR_Group_Tennis_Cup_and_the_Astra_Italy_Tennis_Cup",
        "SocietalEvent": "2014 Distal & ITR Group Tennis Cup and the Astra Italy Tennis Cup",
        "http://dbpedia.org/ontology/budget": "36254.027004753334"
    },
    {
        "http://dbpedia.org/ontology/SocietalEvent": "http://dbpedia.org/resource/2013_Samsung_Securities_Cup",
        "SocietalEvent": "2013 Samsung Securities Cup",
        "http://dbpedia.org/ontology/budget": "50873.70387715102"
    },
    {
        "http://dbpedia.org/ontology/SocietalEvent": "http://dbpedia.org/resource/2006_Challenge_Bell",
        "SocietalEvent": "2006 Challenge Bell",
        "http://dbpedia.org/ontology/budget": "179379.76633990358"
    },
    {
        "http://dbpedia.org/ontology/SocietalEvent": "http://dbpedia.org/resource/2014_Grand_Prix_SAR_La_Princesse_Lalla_Meryem",
        "SocietalEvent": "2014 Grand Prix SAR La Princesse Lalla Meryem",
        "http://dbpedia.org/ontology/budget": "245479.65520059067"
    },
    {
        "http://dbpedia.org/ontology/SocietalEvent": "http://dbpedia.org/resource/2016_Red_Rock_Pro_Open",
        "SocietalEvent": "2016 Red Rock Pro Open",
        "http://dbpedia.org/ontology/budget": "47673.930374112104"
    },
    {
        "http://dbpedia.org/ontology/SocietalEvent": "http://dbpedia.org/resource/2015_Generali_Ladies_Linz",
        "SocietalEvent": "2015 Generali Ladies Linz",
        "http://dbpedia.org/ontology/budget": "265867.50661972794"
    },
    {
        "http://dbpedia.org/ontology/SocietalEvent": "http://dbpedia.org/resource/2016_Abierto_Tampico",
        "SocietalEvent": "2016 Abierto Tampico",
        "http://dbpedia.org/ontology/budget": "47946.21720322381"
    },
    {
        "http://dbpedia.org/ontology/SocietalEvent": "http://dbpedia.org/resource/2009_Odlum_Brown_Vancouver_Open",
        "SocietalEvent": "2009 Odlum Brown Vancouver Open",
        "http://dbpedia.org/ontology/budget": "75706.66982542562"
    },
    {
        "http://dbpedia.org/ontology/SocietalEvent": "http://dbpedia.org/resource/1993_Challenge_Bell",
        "SocietalEvent": "1993 Challenge Bell",
        "http://dbpedia.org/ontology/budget": "156905.539200869"
    },
    {
        "http://dbpedia.org/ontology/SocietalEvent": "http://dbpedia.org/resource/2016_ITF_Women's_Circuit_-_Shenzhen",
        "SocietalEvent": "2016 ITF Women's Circuit - Shenzhen",
        "http://dbpedia.org/ontology/budget": "45312.05000440145"
    },
    {
        "http://dbpedia.org/ontology/SocietalEvent": "http://dbpedia.org/resource/2014_Kentucky_Bank_Tennis_Championships",
        "SocietalEvent": "2014 Kentucky Bank Tennis Championships",
        "http://dbpedia.org/ontology/budget": "51776.297169687925"
    },
    {
        "http://dbpedia.org/ontology/SocietalEvent": "http://dbpedia.org/resource/2015_Wilde_Lexus_Women's_USTA_Pro_Circuit_Event",
        "SocietalEvent": "2015 Wilde Lexus Women's USTA Pro Circuit Event",
        "http://dbpedia.org/ontology/budget": "47413.2058746606"
    },
    {
        "http://dbpedia.org/ontology/SocietalEvent": "http://dbpedia.org/resource/2015_Challenger_Banque_Nationale_de_Granby",
        "SocietalEvent": "2015 Challenger Banque Nationale de Granby",
        "http://dbpedia.org/ontology/budget": "101290.75437784815"
    },
    {
        "http://dbpedia.org/ontology/SocietalEvent": "http://dbpedia.org/resource/2016_ITF_Women's_Circuit_-_Wuhan",
        "SocietalEvent": "2016 ITF Women's Circuit - Wuhan",
        "http://dbpedia.org/ontology/budget": "51392.0467823729"
    },
    {
        "http://dbpedia.org/ontology/SocietalEvent": "http://dbpedia.org/resource/2015_Aegon_Ilkley_Trophy",
        "SocietalEvent": "2015 Aegon Ilkley Trophy",
        "http://dbpedia.org/ontology/budget": "50625.661040328756"
    },
    {
        "http://dbpedia.org/ontology/SocietalEvent": "http://dbpedia.org/resource/2013_Open_88_Contrexeville",
        "SocietalEvent": "2013 Open 88 Contrexeville",
        "http://dbpedia.org/ontology/budget": "52013.91993196362"
    },
    {
        "http://dbpedia.org/ontology/SocietalEvent": "http://dbpedia.org/resource/2014_BNP_Paribas_Open",
        "SocietalEvent": "2014 BNP Paribas Open",
        "http://dbpedia.org/ontology/budget": "6004349.508766356"
    },
    {
        "http://dbpedia.org/ontology/SocietalEvent": "http://dbpedia.org/resource/2016_Challenger_Banque_Nationale_de_Saguenay",
        "SocietalEvent": "2016 Challenger Banque Nationale de Saguenay",
        "http://dbpedia.org/ontology/budget": "49184.396610443815"
    },
    {
        "http://dbpedia.org/ontology/SocietalEvent": "http://dbpedia.org/resource/2014_Mutua_Madrid_Open",
        "SocietalEvent": "2014 Mutua Madrid Open",
        "http://dbpedia.org/ontology/budget": "4789347.9062747555"
    },
    {
        "http://dbpedia.org/ontology/SocietalEvent": "http://dbpedia.org/resource/2009_Challenge_Bell",
        "SocietalEvent": "2009 Challenge Bell",
        "http://dbpedia.org/ontology/budget": "221993.20066418566"
    },
    {
        "http://dbpedia.org/ontology/SocietalEvent": "http://dbpedia.org/resource/2016_Tianjin_Health_Industry_Park",
        "SocietalEvent": "2016 Tianjin Health Industry Park",
        "http://dbpedia.org/ontology/budget": "46508.27414644851"
    },
    {
        "http://dbpedia.org/ontology/SocietalEvent": "http://dbpedia.org/resource/2014_Monterrey_Open",
        "SocietalEvent": "2014 Monterrey Open",
        "http://dbpedia.org/ontology/budget": "528075.6472269814"
    },
    {
        "http://dbpedia.org/ontology/SocietalEvent": "http://dbpedia.org/resource/2015_Open_Montpellier_Mediterranee_Metropole_Herault",
        "SocietalEvent": "2015 Open Montpellier Mediterranee Metropole Herault",
        "http://dbpedia.org/ontology/budget": "50560.58662902234"
    },
    {
        "http://dbpedia.org/ontology/SocietalEvent": "http://dbpedia.org/resource/2016_Kunming_Open",
        "SocietalEvent": "2016 Kunming Open",
        "http://dbpedia.org/ontology/budget": "96934.2745362915"
    },
    {
        "http://dbpedia.org/ontology/SocietalEvent": "http://dbpedia.org/resource/2012_Ankara_Cup",
        "SocietalEvent": "2012 Ankara Cup",
        "http://dbpedia.org/ontology/budget": "54142.68345990207"
    },
    {
        "http://dbpedia.org/ontology/SocietalEvent": "http://dbpedia.org/resource/2015_KPIT_MSLTA_Challenger",
        "SocietalEvent": "2015 KPIT MSLTA Challenger",
        "http://dbpedia.org/ontology/budget": "46506.64421980607"
    },
    {
        "http://dbpedia.org/ontology/SocietalEvent": "http://dbpedia.org/resource/2015_L'Open_Emeraude_Solaire_de_Saint-Malo",
        "SocietalEvent": "2015 L'Open Emeraude Solaire de Saint-Malo",
        "http://dbpedia.org/ontology/budget": "47830.486658931426"
    },
    {
        "http://dbpedia.org/ontology/SocietalEvent": "http://dbpedia.org/resource/2014_ONGC-GAIL_Delhi_Open",
        "SocietalEvent": "2014 ONGC-GAIL Delhi Open",
        "http://dbpedia.org/ontology/budget": "106820.60519383803"
    },
    {
        "http://dbpedia.org/ontology/SocietalEvent": "http://dbpedia.org/resource/2016_Monterrey_Open",
        "SocietalEvent": "2016 Monterrey Open",
        "http://dbpedia.org/ontology/budget": "273435.28041581763"
    },
    {
        "http://dbpedia.org/ontology/SocietalEvent": "http://dbpedia.org/resource/2015_ITF_Women's_Circuit_-_Hong_Kong",
        "SocietalEvent": "2015 ITF Women's Circuit - Hong Kong",
        "http://dbpedia.org/ontology/budget": "49684.698068617574"
    },
    {
        "http://dbpedia.org/ontology/SocietalEvent": "http://dbpedia.org/resource/2012_Challenger_Banque_Nationale_de_Rimouski",
        "SocietalEvent": "2012 Challenger Banque Nationale de Rimouski",
        "http://dbpedia.org/ontology/budget": "38321.8087721351"
    },
    {
        "http://dbpedia.org/ontology/SocietalEvent": "http://dbpedia.org/resource/2013_Prosperita_Open",
        "SocietalEvent": "2013 Prosperita Open",
        "http://dbpedia.org/ontology/budget": "90963.2955513691"
    },
    {
        "http://dbpedia.org/ontology/SocietalEvent": "http://dbpedia.org/resource/2015_Aegon_Surbiton_Trophy",
        "SocietalEvent": "2015 Aegon Surbiton Trophy",
        "http://dbpedia.org/ontology/budget": "49148.30572258402"
    },
    {
        "http://dbpedia.org/ontology/SocietalEvent": "http://dbpedia.org/resource/2014_Open_Saint-Gaudens_Midi-Pyrenees",
        "SocietalEvent": "2014 Open Saint-Gaudens Midi-Pyrenees",
        "http://dbpedia.org/ontology/budget": "48227.84115403757"
    },
    {
        "http://dbpedia.org/ontology/SocietalEvent": "http://dbpedia.org/resource/2013_President's_Cup_(tennis)",
        "SocietalEvent": "2013 President's Cup (tennis)",
        "http://dbpedia.org/ontology/budget": "132576.7069465236"
    },
    {
        "http://dbpedia.org/ontology/SocietalEvent": "http://dbpedia.org/resource/2014_Citta'_di_Vercelli_-_Trofeo_Multimed",
        "SocietalEvent": "2014 Citta' di Vercelli - Trofeo Multimed",
        "http://dbpedia.org/ontology/budget": "43997.365550595896"
    },
    {
        "http://dbpedia.org/ontology/SocietalEvent": "http://dbpedia.org/resource/2002_Challenge_Bell",
        "SocietalEvent": "2002 Challenge Bell",
        "http://dbpedia.org/ontology/budget": "180422.46569602285"
    },
    {
        "http://dbpedia.org/ontology/SocietalEvent": "http://dbpedia.org/resource/2016_Aegon_Classic_Birmingham",
        "SocietalEvent": "2016 Aegon Classic Birmingham",
        "http://dbpedia.org/ontology/budget": "890063.9286348241"
    },
    {
        "http://dbpedia.org/ontology/SocietalEvent": "http://dbpedia.org/resource/2016_Racket_Club_Open",
        "SocietalEvent": "2016 Racket Club Open",
        "http://dbpedia.org/ontology/budget": "49171.54026621951"
    },
    {
        "http://dbpedia.org/ontology/SocietalEvent": "http://dbpedia.org/resource/2013_Aegon_GB_Pro-Series_Barnstaple",
        "SocietalEvent": "2013 Aegon GB Pro-Series Barnstaple",
        "http://dbpedia.org/ontology/budget": "73980.41952523576"
    },
    {
        "http://dbpedia.org/ontology/SocietalEvent": "http://dbpedia.org/resource/2010_Challenger_Banque_Nationale_de_Granby",
        "SocietalEvent": "2010 Challenger Banque Nationale de Granby",
        "http://dbpedia.org/ontology/budget": "52163.196038334354"
    },
    {
        "http://dbpedia.org/ontology/SocietalEvent": "http://dbpedia.org/resource/2015_ITF_Women's_Circuit_-_Wuhan",
        "SocietalEvent": "2015 ITF Women's Circuit - Wuhan",
        "http://dbpedia.org/ontology/budget": "52968.72065772081"
    },
    {
        "http://dbpedia.org/ontology/SocietalEvent": "http://dbpedia.org/resource/2011_Smart_Card_Open_Monet+",
        "SocietalEvent": "2011 Smart Card Open Monet+",
        "http://dbpedia.org/ontology/budget": "50366.20624576677"
    },
    {
        "http://dbpedia.org/ontology/SocietalEvent": "http://dbpedia.org/resource/2014_Empire_Slovak_Open",
        "SocietalEvent": "2014 Empire Slovak Open",
        "http://dbpedia.org/ontology/budget": "74640.94621336876"
    },
    {
        "http://dbpedia.org/ontology/SocietalEvent": "http://dbpedia.org/resource/2015_CopperWynd_Pro_Women's_Challenge",
        "SocietalEvent": "2015 CopperWynd Pro Women's Challenge",
        "http://dbpedia.org/ontology/budget": "46139.15091867926"
    },
    {
        "http://dbpedia.org/ontology/SocietalEvent": "http://dbpedia.org/resource/2015_Engie_Open_Nantes_Atlantique",
        "SocietalEvent": "2015 Engie Open Nantes Atlantique",
        "http://dbpedia.org/ontology/budget": "54536.428006611364"
    },
    {
        "http://dbpedia.org/ontology/SocietalEvent": "http://dbpedia.org/resource/2014_BNP_Paribas_de_Nouvelle-Caledonie",
        "SocietalEvent": "2014 BNP Paribas de Nouvelle-Caledonie",
        "http://dbpedia.org/ontology/budget": "67767.33097611669"
    },
    {
        "http://dbpedia.org/ontology/SocietalEvent": "http://dbpedia.org/resource/2015_Maserati_Challenger",
        "SocietalEvent": "2015 Maserati Challenger",
        "http://dbpedia.org/ontology/budget": "34691.43484845566"
    },
    {
        "http://dbpedia.org/ontology/SocietalEvent": "http://dbpedia.org/resource/2016_Claro_Open_Medellin",
        "SocietalEvent": "2016 Claro Open Medellin",
        "http://dbpedia.org/ontology/budget": "50527.569240666475"
    },
    {
        "http://dbpedia.org/ontology/SocietalEvent": "http://dbpedia.org/resource/2015_Charlottesville_Men's_Pro_Challenger",
        "SocietalEvent": "2015 Charlottesville Men's Pro Challenger",
        "http://dbpedia.org/ontology/budget": "50825.6126983343"
    },
    {
        "http://dbpedia.org/ontology/SocietalEvent": "http://dbpedia.org/resource/2013_Rai_Open",
        "SocietalEvent": "2013 Rai Open",
        "http://dbpedia.org/ontology/budget": "29942.368978689945"
    },
    {
        "http://dbpedia.org/ontology/SocietalEvent": "http://dbpedia.org/resource/1989_Lorraine_Open",
        "SocietalEvent": "1989 Lorraine Open",
        "http://dbpedia.org/ontology/budget": "99684.65620403709"
    },
    {
        "http://dbpedia.org/ontology/SocietalEvent": "http://dbpedia.org/resource/2016_Bendigo_Women's_International",
        "SocietalEvent": "2016 Bendigo Women's International",
        "http://dbpedia.org/ontology/budget": "51740.618541235206"
    },
    {
        "http://dbpedia.org/ontology/SocietalEvent": "http://dbpedia.org/resource/2003_Challenge_Bell",
        "SocietalEvent": "2003 Challenge Bell",
        "http://dbpedia.org/ontology/budget": "185663.39005167581"
    },
    {
        "http://dbpedia.org/ontology/SocietalEvent": "http://dbpedia.org/resource/2014_The_Oaks_Club_Challenger",
        "SocietalEvent": "2014 The Oaks Club Challenger",
        "http://dbpedia.org/ontology/budget": "50437.36658197532"
    },
    {
        "http://dbpedia.org/ontology/SocietalEvent": "http://dbpedia.org/resource/2013_Sao_Paulo_Challenger_de_Tenis",
        "SocietalEvent": "2013 Sao Paulo Challenger de Tenis",
        "http://dbpedia.org/ontology/budget": "46737.208768018674"
    },
    {
        "http://dbpedia.org/ontology/SocietalEvent": "http://dbpedia.org/resource/2013_Wimbledon_Championships",
        "SocietalEvent": "2013 Wimbledon Championships",
        "http://dbpedia.org/ontology/budget": "20955722.34271421"
    },
    {
        "http://dbpedia.org/ontology/SocietalEvent": "http://dbpedia.org/resource/2016_Internationaux_de_Strasbourg",
        "SocietalEvent": "2016 Internationaux de Strasbourg",
        "http://dbpedia.org/ontology/budget": "265702.3192288486"
    },
    {
        "http://dbpedia.org/ontology/SocietalEvent": "http://dbpedia.org/resource/1978_German_Open_(tennis)",
        "SocietalEvent": "1978 German Open (tennis)",
        "http://dbpedia.org/ontology/budget": "173748.45022148575"
    },
    {
        "http://dbpedia.org/ontology/SocietalEvent": "http://dbpedia.org/resource/2014_Fergana_Challenger",
        "SocietalEvent": "2014 Fergana Challenger",
        "http://dbpedia.org/ontology/budget": "48005.09015307751"
    },
    {
        "http://dbpedia.org/ontology/SocietalEvent": "http://dbpedia.org/resource/1980_Stockholm_Open",
        "SocietalEvent": "1980 Stockholm Open",
        "http://dbpedia.org/ontology/budget": "76792.57516531264"
    },
    {
        "http://dbpedia.org/ontology/SocietalEvent": "http://dbpedia.org/resource/2012_Challenger_Banque_Nationale_de_Granby",
        "SocietalEvent": "2012 Challenger Banque Nationale de Granby",
        "http://dbpedia.org/ontology/budget": "51355.6052237958"
    },
    {
        "http://dbpedia.org/ontology/SocietalEvent": "http://dbpedia.org/resource/2014_Audi_Melbourne_Pro_Tennis_Classic",
        "SocietalEvent": "2014 Audi Melbourne Pro Tennis Classic",
        "http://dbpedia.org/ontology/budget": "50047.86057117753"
    },
    {
        "http://dbpedia.org/ontology/SocietalEvent": "http://dbpedia.org/resource/2015_ATP_World_Tour_Finals",
        "SocietalEvent": "2015 ATP World Tour Finals",
        "http://dbpedia.org/ontology/budget": "6527102.114023764"
    },
    {
        "http://dbpedia.org/ontology/SocietalEvent": "http://dbpedia.org/resource/2015_Open_de_Limoges",
        "SocietalEvent": "2015 Open de Limoges",
        "http://dbpedia.org/ontology/budget": "114682.2397735304"
    },
    {
        "http://dbpedia.org/ontology/SocietalEvent": "http://dbpedia.org/resource/2016_Blossom_Cup",
        "SocietalEvent": "2016 Blossom Cup",
        "http://dbpedia.org/ontology/budget": "49288.87342815867"
    },
    {
        "http://dbpedia.org/ontology/SocietalEvent": "http://dbpedia.org/resource/2014_Launceston_Tennis_International",
        "SocietalEvent": "2014 Launceston Tennis International",
        "http://dbpedia.org/ontology/budget": "49650.60419809393"
    },
    {
        "http://dbpedia.org/ontology/SocietalEvent": "http://dbpedia.org/resource/2004_Challenge_Bell",
        "SocietalEvent": "2004 Challenge Bell",
        "http://dbpedia.org/ontology/budget": "165801.64918059643"
    },
    {
        "http://dbpedia.org/ontology/SocietalEvent": "http://dbpedia.org/resource/2014_QNet_Open",
        "SocietalEvent": "2014 QNet Open",
        "http://dbpedia.org/ontology/budget": "51595.04841737445"
    },
    {
        "http://dbpedia.org/ontology/SocietalEvent": "http://dbpedia.org/resource/2013_Reinert_Open",
        "SocietalEvent": "2013 Reinert Open",
        "http://dbpedia.org/ontology/budget": "47450.95611719854"
    },
    {
        "http://dbpedia.org/ontology/SocietalEvent": "http://dbpedia.org/resource/2012_Challenger_Banque_Nationale_de_Saguenay",
        "SocietalEvent": "2012 Challenger Banque Nationale de Saguenay",
        "http://dbpedia.org/ontology/budget": "48643.98817477637"
    },
    {
        "http://dbpedia.org/ontology/SocietalEvent": "http://dbpedia.org/resource/2015_Gimcheon_Open_ATP_Challenger",
        "SocietalEvent": "2015 Gimcheon Open ATP Challenger",
        "http://dbpedia.org/ontology/budget": "50927.25157135145"
    },
    {
        "http://dbpedia.org/ontology/SocietalEvent": "http://dbpedia.org/resource/2013_Suzhou_Ladies_Open",
        "SocietalEvent": "2013 Suzhou Ladies Open",
        "http://dbpedia.org/ontology/budget": "122662.50442830689"
    },
    {
        "http://dbpedia.org/ontology/SocietalEvent": "http://dbpedia.org/resource/2015_President's_Cup_(tennis)",
        "SocietalEvent": "2015 President's Cup (tennis)",
        "http://dbpedia.org/ontology/budget": "25861.883321564488"
    },
    {
        "http://dbpedia.org/ontology/SocietalEvent": "http://dbpedia.org/resource/2016_Jinyuan_Cup",
        "SocietalEvent": "2016 Jinyuan Cup",
        "http://dbpedia.org/ontology/budget": "47280.12578405372"
    },
    {
        "http://dbpedia.org/ontology/SocietalEvent": "http://dbpedia.org/resource/2015_Slovak_Open",
        "SocietalEvent": "2015 Slovak Open",
        "http://dbpedia.org/ontology/budget": "77694.49117146518"
    },
    {
        "http://dbpedia.org/ontology/SocietalEvent": "http://dbpedia.org/resource/2012_International_German_Open",
        "SocietalEvent": "2012 International German Open",
        "http://dbpedia.org/ontology/budget": "916595.6462148372"
    },
    {
        "http://dbpedia.org/ontology/SocietalEvent": "http://dbpedia.org/resource/2015_Advantage_Cars_Prague_Open",
        "SocietalEvent": "2015 Advantage Cars Prague Open",
        "http://dbpedia.org/ontology/budget": "41904.403017579476"
    },
    {
        "http://dbpedia.org/ontology/SocietalEvent": "http://dbpedia.org/resource/2014_BNP_Paribas_Open",
        "SocietalEvent": "2014 BNP Paribas Open",
        "http://dbpedia.org/ontology/budget": "6097480.248601831"
    },
    {
        "http://dbpedia.org/ontology/SocietalEvent": "http://dbpedia.org/resource/2011_WOW_Tennis_Challenger",
        "SocietalEvent": "2011 WOW Tennis Challenger",
        "http://dbpedia.org/ontology/budget": "49222.81292100217"
    },
    {
        "http://dbpedia.org/ontology/SocietalEvent": "http://dbpedia.org/resource/2013_Al_Habtoor_Tennis_Challenge",
        "SocietalEvent": "2013 Al Habtoor Tennis Challenge",
        "http://dbpedia.org/ontology/budget": "78234.0970717011"
    },
    {
        "http://dbpedia.org/ontology/SocietalEvent": "http://dbpedia.org/resource/2014_Generali_Ladies_Linz",
        "SocietalEvent": "2014 Generali Ladies Linz",
        "http://dbpedia.org/ontology/budget": "265569.83486945304"
    },
    {
        "http://dbpedia.org/ontology/SocietalEvent": "http://dbpedia.org/resource/2016_Miami_Open",
        "SocietalEvent": "2016 Miami Open",
        "http://dbpedia.org/ontology/budget": "7345092.71971908"
    },
    {
        "http://dbpedia.org/ontology/SocietalEvent": "http://dbpedia.org/resource/2014_Seguros_Bolivar_Open_Bogota",
        "SocietalEvent": "2014 Seguros Bolivar Open Bogota",
        "http://dbpedia.org/ontology/budget": "105124.72935806814"
    },
    {
        "http://dbpedia.org/ontology/SocietalEvent": "http://dbpedia.org/resource/2013_South_Seas_Island_Resort_Women's_Pro_Classic",
        "SocietalEvent": "2013 South Seas Island Resort Women's Pro Classic",
        "http://dbpedia.org/ontology/budget": "49059.1572836542"
    },
    {
        "http://dbpedia.org/ontology/SocietalEvent": "http://dbpedia.org/resource/2011_Challenger_Banque_Nationale_de_Granby",
        "SocietalEvent": "2011 Challenger Banque Nationale de Granby",
        "http://dbpedia.org/ontology/budget": "47394.34062579595"
    },
    {
        "http://dbpedia.org/ontology/SocietalEvent": "http://dbpedia.org/resource/2015_Open_Engie_de_Touraine",
        "SocietalEvent": "2015 Open Engie de Touraine",
        "http://dbpedia.org/ontology/budget": "45873.8251339216"
    }
]