[
    {
        "http://dbpedia.org/ontology/Island": "http://dbpedia.org/resource/Reef_Island,_Bahrain",
        "Island": "Reef Island, Bahrain",
        "http://dbpedia.org/ontology/elevation": "0.0"
    },
    {
        "http://dbpedia.org/ontology/Island": "http://dbpedia.org/resource/Ilhabela",
        "Island": "Ilhabela",
        "http://dbpedia.org/ontology/elevation": "0.0"
    },
    {
        "http://dbpedia.org/ontology/Island": "http://dbpedia.org/resource/Geography_of_Dominica",
        "Island": "Geography of Dominica",
        "http://dbpedia.org/ontology/elevation": "1319.9367255422505"
    },
    {
        "http://dbpedia.org/ontology/Island": "http://dbpedia.org/resource/Geography_of_Nauru",
        "Island": "Geography of Nauru",
        "http://dbpedia.org/ontology/elevation": "58.803967736913634"
    },
    {
        "http://dbpedia.org/ontology/Island": "http://dbpedia.org/resource/Chiburijima",
        "Island": "Chiburijima",
        "http://dbpedia.org/ontology/elevation": "324.0235709080364"
    },
    {
        "http://dbpedia.org/ontology/Island": "http://dbpedia.org/resource/Columbia_Island_(District_of_Columbia)",
        "Island": "Columbia Island (District of Columbia)",
        "http://dbpedia.org/ontology/elevation": "6.181194351973889"
    },
    {
        "http://dbpedia.org/ontology/Island": "http://dbpedia.org/resource/Stolbovoy_Island",
        "Island": "Stolbovoy Island",
        "http://dbpedia.org/ontology/elevation": "201.36447579578808"
    },
    {
        "http://dbpedia.org/ontology/Island": "http://dbpedia.org/resource/Uloya",
        "Island": "Uloya",
        "http://dbpedia.org/ontology/elevation": "1029.4590696076993"
    },
    {
        "http://dbpedia.org/ontology/Island": "http://dbpedia.org/resource/Bolshoy_Lyakhovsky_Island",
        "Island": "Bolshoy Lyakhovsky Island",
        "http://dbpedia.org/ontology/elevation": "246.17493662743865"
    },
    {
        "http://dbpedia.org/ontology/Island": "http://dbpedia.org/resource/Annenkov_Island",
        "Island": "Annenkov Island",
        "http://dbpedia.org/ontology/elevation": "633.8693257784964"
    },
    {
        "http://dbpedia.org/ontology/Island": "http://dbpedia.org/resource/Fox_Island,_Washington",
        "Island": "Fox Island, Washington",
        "http://dbpedia.org/ontology/elevation": "52.49989013515084"
    },
    {
        "http://dbpedia.org/ontology/Island": "http://dbpedia.org/resource/Izvestiy_TSIK_Islands",
        "Island": "Izvestiy TSIK Islands",
        "http://dbpedia.org/ontology/elevation": "45.697990003538244"
    },
    {
        "http://dbpedia.org/ontology/Island": "http://dbpedia.org/resource/Jemo_Island",
        "Island": "Jemo Island",
        "http://dbpedia.org/ontology/elevation": "2.8838883355518496"
    },
    {
        "http://dbpedia.org/ontology/Island": "http://dbpedia.org/resource/Halat_Nuaim",
        "Island": "Halat Nuaim",
        "http://dbpedia.org/ontology/elevation": "13.545909626761963"
    },
    {
        "http://dbpedia.org/ontology/Island": "http://dbpedia.org/resource/Oleron",
        "Island": "Oleron",
        "http://dbpedia.org/ontology/elevation": "36.614522637234984"
    },
    {
        "http://dbpedia.org/ontology/Island": "http://dbpedia.org/resource/Manus_Island",
        "Island": "Manus Island",
        "http://dbpedia.org/ontology/elevation": "651.6818648865193"
    },
    {
        "http://dbpedia.org/ontology/Island": "http://dbpedia.org/resource/Kiawah_Island,_South_Carolina",
        "Island": "Kiawah Island, South Carolina",
        "http://dbpedia.org/ontology/elevation": "3.7869546464268113"
    },
    {
        "http://dbpedia.org/ontology/Island": "http://dbpedia.org/resource/Stephens_Island_(New_Zealand)",
        "Island": "Stephens Island (New Zealand)",
        "http://dbpedia.org/ontology/elevation": "255.4463920042591"
    },
    {
        "http://dbpedia.org/ontology/Island": "http://dbpedia.org/resource/Al_Dar_Island",
        "Island": "Al Dar Island",
        "http://dbpedia.org/ontology/elevation": "0.0"
    },
    {
        "http://dbpedia.org/ontology/Island": "http://dbpedia.org/resource/Sibuyan_Island",
        "Island": "Sibuyan Island",
        "http://dbpedia.org/ontology/elevation": "1962.9699060535595"
    },
    {
        "http://dbpedia.org/ontology/Island": "http://dbpedia.org/resource/Nordenskiold_Archipelago",
        "Island": "Nordenskiold Archipelago",
        "http://dbpedia.org/ontology/elevation": "101.78133924235091"
    },
    {
        "http://dbpedia.org/ontology/Island": "http://dbpedia.org/resource/Lawson_Island",
        "Island": "Lawson Island",
        "http://dbpedia.org/ontology/elevation": "253.88408222069575"
    },
    {
        "http://dbpedia.org/ontology/Island": "http://dbpedia.org/resource/Auckland_Islands",
        "Island": "Auckland Islands",
        "http://dbpedia.org/ontology/elevation": "615.0059540728417"
    },
    {
        "http://dbpedia.org/ontology/Island": "http://dbpedia.org/resource/Ledyanyye_Islands",
        "Island": "Ledyanyye Islands",
        "http://dbpedia.org/ontology/elevation": "8.306839704660257"
    },
    {
        "http://dbpedia.org/ontology/Island": "http://dbpedia.org/resource/Qassar_Khusayfah",
        "Island": "Qassar Khusayfah",
        "http://dbpedia.org/ontology/elevation": "0.0"
    },
    {
        "http://dbpedia.org/ontology/Island": "http://dbpedia.org/resource/Jolo",
        "Island": "Jolo",
        "http://dbpedia.org/ontology/elevation": "859.8452767936612"
    },
    {
        "http://dbpedia.org/ontology/Island": "http://dbpedia.org/resource/Little_Barrier_Island",
        "Island": "Little Barrier Island",
        "http://dbpedia.org/ontology/elevation": "782.3685146424107"
    },
    {
        "http://dbpedia.org/ontology/Island": "http://dbpedia.org/resource/Santa_Clara_Island",
        "Island": "Santa Clara Island",
        "http://dbpedia.org/ontology/elevation": "351.41431104228207"
    },
    {
        "http://dbpedia.org/ontology/Island": "http://dbpedia.org/resource/Onekotan",
        "Island": "Onekotan",
        "http://dbpedia.org/ontology/elevation": "1394.2866718328494"
    },
    {
        "http://dbpedia.org/ontology/Island": "http://dbpedia.org/resource/Hearst_Island",
        "Island": "Hearst Island",
        "http://dbpedia.org/ontology/elevation": "362.12237224488155"
    },
    {
        "http://dbpedia.org/ontology/Island": "http://dbpedia.org/resource/Urup",
        "Island": "Urup",
        "http://dbpedia.org/ontology/elevation": "1554.9110106670607"
    },
    {
        "http://dbpedia.org/ontology/Island": "http://dbpedia.org/resource/Oshima_(Hokkaido)",
        "Island": "Oshima (Hokkaido)",
        "http://dbpedia.org/ontology/elevation": "802.6646842067773"
    },
    {
        "http://dbpedia.org/ontology/Island": "http://dbpedia.org/resource/Pocklington_Reef",
        "Island": "Pocklington Reef",
        "http://dbpedia.org/ontology/elevation": "0.9303593594866933"
    },
    {
        "http://dbpedia.org/ontology/Island": "http://dbpedia.org/resource/Capraia",
        "Island": "Capraia",
        "http://dbpedia.org/ontology/elevation": "50.931946986352386"
    },
    {
        "http://dbpedia.org/ontology/Island": "http://dbpedia.org/resource/Anna_Maria_Island",
        "Island": "Anna Maria Island",
        "http://dbpedia.org/ontology/elevation": "1.6199507380702038"
    },
    {
        "http://dbpedia.org/ontology/Island": "http://dbpedia.org/resource/Mangareva",
        "Island": "Mangareva",
        "http://dbpedia.org/ontology/elevation": "433.4283071337481"
    },
    {
        "http://dbpedia.org/ontology/Island": "http://dbpedia.org/resource/Okidaitojima",
        "Island": "Okidaitojima",
        "http://dbpedia.org/ontology/elevation": "29.42057065327877"
    },
    {
        "http://dbpedia.org/ontology/Island": "http://dbpedia.org/resource/Little_Nicobar",
        "Island": "Little Nicobar",
        "http://dbpedia.org/ontology/elevation": "475.8450146280077"
    },
    {
        "http://dbpedia.org/ontology/Island": "http://dbpedia.org/resource/Isla_Cerraja",
        "Island": "Isla Cerraja",
        "http://dbpedia.org/ontology/elevation": "16.13600026314035"
    },
    {
        "http://dbpedia.org/ontology/Island": "http://dbpedia.org/resource/Socorro_Island",
        "Island": "Socorro Island",
        "http://dbpedia.org/ontology/elevation": "1117.9963654379333"
    },
    {
        "http://dbpedia.org/ontology/Island": "http://dbpedia.org/resource/Zichy_Land",
        "Island": "Zichy Land",
        "http://dbpedia.org/ontology/elevation": "648.1939079978783"
    },
    {
        "http://dbpedia.org/ontology/Island": "http://dbpedia.org/resource/Scariff_Island",
        "Island": "Scariff Island",
        "http://dbpedia.org/ontology/elevation": "233.72978702901077"
    },
    {
        "http://dbpedia.org/ontology/Island": "http://dbpedia.org/resource/Carey_Islands",
        "Island": "Carey Islands",
        "http://dbpedia.org/ontology/elevation": "310.5219436661988"
    },
    {
        "http://dbpedia.org/ontology/Island": "http://dbpedia.org/resource/Karaburun_Peninsula,_Albania",
        "Island": "Karaburun Peninsula, Albania",
        "http://dbpedia.org/ontology/elevation": "812.7049870734322"
    },
    {
        "http://dbpedia.org/ontology/Island": "http://dbpedia.org/resource/Mercury_Island",
        "Island": "Mercury Island",
        "http://dbpedia.org/ontology/elevation": "39.52042116252928"
    },
    {
        "http://dbpedia.org/ontology/Island": "http://dbpedia.org/resource/Jaluit_Atoll",
        "Island": "Jaluit Atoll",
        "http://dbpedia.org/ontology/elevation": "2.836790670263842"
    },
    {
        "http://dbpedia.org/ontology/Island": "http://dbpedia.org/resource/Saltholm",
        "Island": "Saltholm",
        "http://dbpedia.org/ontology/elevation": "5.429677990751566"
    },
    {
        "http://dbpedia.org/ontology/Island": "http://dbpedia.org/resource/Maupiti",
        "Island": "Maupiti",
        "http://dbpedia.org/ontology/elevation": "408.32059694411083"
    },
    {
        "http://dbpedia.org/ontology/Island": "http://dbpedia.org/resource/Buckle_Island",
        "Island": "Buckle Island",
        "http://dbpedia.org/ontology/elevation": "1355.1870834191864"
    },
    {
        "http://dbpedia.org/ontology/Island": "http://dbpedia.org/resource/Ryukyu_Islands",
        "Island": "Ryukyu Islands",
        "http://dbpedia.org/ontology/elevation": "1958.5643265485282"
    },
    {
        "http://dbpedia.org/ontology/Island": "http://dbpedia.org/resource/New_Ireland_(island)",
        "Island": "New Ireland (island)",
        "http://dbpedia.org/ontology/elevation": "2426.9316369276626"
    },
    {
        "http://dbpedia.org/ontology/Island": "http://dbpedia.org/resource/Teja_Island",
        "Island": "Teja Island",
        "http://dbpedia.org/ontology/elevation": "60.739069546817284"
    },
    {
        "http://dbpedia.org/ontology/Island": "http://dbpedia.org/resource/Isla_Santiago_(Baja_California_Sur)",
        "Island": "Isla Santiago (Baja California Sur)",
        "http://dbpedia.org/ontology/elevation": "21.364106363843526"
    },
    {
        "http://dbpedia.org/ontology/Island": "http://dbpedia.org/resource/Owey_Island",
        "Island": "Owey Island",
        "http://dbpedia.org/ontology/elevation": "101.42902210237744"
    },
    {
        "http://dbpedia.org/ontology/Island": "http://dbpedia.org/resource/Ayu_Islands",
        "Island": "Ayu Islands",
        "http://dbpedia.org/ontology/elevation": "112.16893369108593"
    },
    {
        "http://dbpedia.org/ontology/Island": "http://dbpedia.org/resource/Attu_Island",
        "Island": "Attu Island",
        "http://dbpedia.org/ontology/elevation": "959.9922040055809"
    },
    {
        "http://dbpedia.org/ontology/Island": "http://dbpedia.org/resource/Isla_Ballena",
        "Island": "Isla Ballena",
        "http://dbpedia.org/ontology/elevation": "31.19521172648528"
    },
    {
        "http://dbpedia.org/ontology/Island": "http://dbpedia.org/resource/Van_Rensselaer_Island",
        "Island": "Van Rensselaer Island",
        "http://dbpedia.org/ontology/elevation": "8.07312476285647"
    },
    {
        "http://dbpedia.org/ontology/Island": "http://dbpedia.org/resource/Grimsey",
        "Island": "Grimsey",
        "http://dbpedia.org/ontology/elevation": "103.23986581324435"
    },
    {
        "http://dbpedia.org/ontology/Island": "http://dbpedia.org/resource/Maluku_Islands",
        "Island": "Maluku Islands",
        "http://dbpedia.org/ontology/elevation": "2877.4580898155546"
    },
    {
        "http://dbpedia.org/ontology/Island": "http://dbpedia.org/resource/Maloelap_Atoll",
        "Island": "Maloelap Atoll",
        "http://dbpedia.org/ontology/elevation": "3.056238650192978"
    },
    {
        "http://dbpedia.org/ontology/Island": "http://dbpedia.org/resource/Menshikov_Island",
        "Island": "Menshikov Island",
        "http://dbpedia.org/ontology/elevation": "315.05539323463387"
    },
    {
        "http://dbpedia.org/ontology/Island": "http://dbpedia.org/resource/Krottoya",
        "Island": "Krottoya",
        "http://dbpedia.org/ontology/elevation": "106.90386680384265"
    },
    {
        "http://dbpedia.org/ontology/Island": "http://dbpedia.org/resource/Iony_Island",
        "Island": "Iony Island",
        "http://dbpedia.org/ontology/elevation": "271.1362652655007"
    },
    {
        "http://dbpedia.org/ontology/Island": "http://dbpedia.org/resource/Corn_Islands",
        "Island": "Corn Islands",
        "http://dbpedia.org/ontology/elevation": "116.157594893178"
    },
    {
        "http://dbpedia.org/ontology/Island": "http://dbpedia.org/resource/Nea_Kameni",
        "Island": "Nea Kameni",
        "http://dbpedia.org/ontology/elevation": "113.79200531414227"
    },
    {
        "http://dbpedia.org/ontology/Island": "http://dbpedia.org/resource/Amwaj_Islands",
        "Island": "Amwaj Islands",
        "http://dbpedia.org/ontology/elevation": "0.0"
    },
    {
        "http://dbpedia.org/ontology/Island": "http://dbpedia.org/resource/Kukes_Island",
        "Island": "Kukes Island",
        "http://dbpedia.org/ontology/elevation": "316.27262273685363"
    },
    {
        "http://dbpedia.org/ontology/Island": "http://dbpedia.org/resource/Cres",
        "Island": "Cres",
        "http://dbpedia.org/ontology/elevation": "585.8864124843593"
    },
    {
        "http://dbpedia.org/ontology/Island": "http://dbpedia.org/resource/Manihi",
        "Island": "Manihi",
        "http://dbpedia.org/ontology/elevation": "9.261515172825497"
    },
    {
        "http://dbpedia.org/ontology/Island": "http://dbpedia.org/resource/Suwanosejima",
        "Island": "Suwanosejima",
        "http://dbpedia.org/ontology/elevation": "769.6873127886137"
    },
    {
        "http://dbpedia.org/ontology/Island": "http://dbpedia.org/resource/Somerset_Island_(Nunavut)",
        "Island": "Somerset Island (Nunavut)",
        "http://dbpedia.org/ontology/elevation": "469.25278204088767"
    },
    {
        "http://dbpedia.org/ontology/Island": "http://dbpedia.org/resource/Isla_Flecha",
        "Island": "Isla Flecha",
        "http://dbpedia.org/ontology/elevation": "46.69783945884127"
    },
    {
        "http://dbpedia.org/ontology/Island": "http://dbpedia.org/resource/Boano",
        "Island": "Boano",
        "http://dbpedia.org/ontology/elevation": "578.349072062585"
    },
    {
        "http://dbpedia.org/ontology/Island": "http://dbpedia.org/resource/Weh_Island",
        "Island": "Weh Island",
        "http://dbpedia.org/ontology/elevation": "611.8188628444891"
    },
    {
        "http://dbpedia.org/ontology/Island": "http://dbpedia.org/resource/Zavodovski_Island",
        "Island": "Zavodovski Island",
        "http://dbpedia.org/ontology/elevation": "583.1345616503279"
    },
    {
        "http://dbpedia.org/ontology/Island": "http://dbpedia.org/resource/Isla_El_Muerto",
        "Island": "Isla El Muerto",
        "http://dbpedia.org/ontology/elevation": "142.62704646448285"
    },
    {
        "http://dbpedia.org/ontology/Island": "http://dbpedia.org/resource/Herald_Island_(Arctic)",
        "Island": "Herald Island (Arctic)",
        "http://dbpedia.org/ontology/elevation": "333.288200962298"
    },
    {
        "http://dbpedia.org/ontology/Island": "http://dbpedia.org/resource/Ribeyre_Island",
        "Island": "Ribeyre Island",
        "http://dbpedia.org/ontology/elevation": "116.7049048766565"
    },
    {
        "http://dbpedia.org/ontology/Island": "http://dbpedia.org/resource/Nunivak_Island",
        "Island": "Nunivak Island",
        "http://dbpedia.org/ontology/elevation": "474.24900613301236"
    },
    {
        "http://dbpedia.org/ontology/Island": "http://dbpedia.org/resource/Sao_Nicolau,_Cape_Verde",
        "Island": "Sao Nicolau, Cape Verde",
        "http://dbpedia.org/ontology/elevation": "1351.2171792239874"
    },
    {
        "http://dbpedia.org/ontology/Island": "http://dbpedia.org/resource/Iles_Nuageuses",
        "Island": "Iles Nuageuses",
        "http://dbpedia.org/ontology/elevation": "536.5565522218902"
    },
    {
        "http://dbpedia.org/ontology/Island": "http://dbpedia.org/resource/Auriol_Island",
        "Island": "Auriol Island",
        "http://dbpedia.org/ontology/elevation": "172.5003907539436"
    },
    {
        "http://dbpedia.org/ontology/Island": "http://dbpedia.org/resource/Tigres_Island",
        "Island": "Tigres Island",
        "http://dbpedia.org/ontology/elevation": "27.017012597652467"
    },
    {
        "http://dbpedia.org/ontology/Island": "http://dbpedia.org/resource/Wylie_Island",
        "Island": "Wylie Island",
        "http://dbpedia.org/ontology/elevation": "423.4296708892732"
    },
    {
        "http://dbpedia.org/ontology/Island": "http://dbpedia.org/resource/North_Island",
        "Island": "North Island",
        "http://dbpedia.org/ontology/elevation": "2581.7389036110844"
    },
    {
        "http://dbpedia.org/ontology/Island": "http://dbpedia.org/resource/South_Shetland_Islands",
        "Island": "South Shetland Islands",
        "http://dbpedia.org/ontology/elevation": "2263.448408108228"
    },
    {
        "http://dbpedia.org/ontology/Island": "http://dbpedia.org/resource/Two_Hummock_Island",
        "Island": "Two Hummock Island",
        "http://dbpedia.org/ontology/elevation": "663.0376680851456"
    },
    {
        "http://dbpedia.org/ontology/Island": "http://dbpedia.org/resource/Saunders_Island,_South_Sandwich_Islands",
        "Island": "Saunders Island, South Sandwich Islands",
        "http://dbpedia.org/ontology/elevation": "901.7139461629326"
    },
    {
        "http://dbpedia.org/ontology/Island": "http://dbpedia.org/resource/Coulman_Island",
        "Island": "Coulman Island",
        "http://dbpedia.org/ontology/elevation": "1853.7876698513016"
    },
    {
        "http://dbpedia.org/ontology/Island": "http://dbpedia.org/resource/Myingun_Island",
        "Island": "Myingun Island",
        "http://dbpedia.org/ontology/elevation": "307.068690381368"
    },
    {
        "http://dbpedia.org/ontology/Island": "http://dbpedia.org/resource/Bare_Island_(New_Zealand)",
        "Island": "Bare Island (New Zealand)",
        "http://dbpedia.org/ontology/elevation": "105.53313928520623"
    },
    {
        "http://dbpedia.org/ontology/Island": "http://dbpedia.org/resource/Borkum",
        "Island": "Borkum",
        "http://dbpedia.org/ontology/elevation": "6.5771673657264005"
    },
    {
        "http://dbpedia.org/ontology/Island": "http://dbpedia.org/resource/Vele_Orjule",
        "Island": "Vele Orjule",
        "http://dbpedia.org/ontology/elevation": "31.863558142934053"
    },
    {
        "http://dbpedia.org/ontology/Island": "http://dbpedia.org/resource/Kuroshima_(Kagoshima)",
        "Island": "Kuroshima (Kagoshima)",
        "http://dbpedia.org/ontology/elevation": "659.4888261107506"
    },
    {
        "http://dbpedia.org/ontology/Island": "http://dbpedia.org/resource/Tijat",
        "Island": "Tijat",
        "http://dbpedia.org/ontology/elevation": "117.58990902469723"
    },
    {
        "http://dbpedia.org/ontology/Island": "http://dbpedia.org/resource/Noirmoutier",
        "Island": "Noirmoutier",
        "http://dbpedia.org/ontology/elevation": "20.5121322375866"
    },
    {
        "http://dbpedia.org/ontology/Island": "http://dbpedia.org/resource/Rangiroa",
        "Island": "Rangiroa",
        "http://dbpedia.org/ontology/elevation": "13.158754843717315"
    },
    {
        "http://dbpedia.org/ontology/Island": "http://dbpedia.org/resource/Puffin_Island_(County_Kerry)",
        "Island": "Puffin Island (County Kerry)",
        "http://dbpedia.org/ontology/elevation": "158.35944837592172"
    },
    {
        "http://dbpedia.org/ontology/Island": "http://dbpedia.org/resource/Smokvica_Vela_(Kornat)",
        "Island": "Smokvica Vela (Kornat)",
        "http://dbpedia.org/ontology/elevation": "104.09335204508524"
    },
    {
        "http://dbpedia.org/ontology/Island": "http://dbpedia.org/resource/Sao_Tome_Island",
        "Island": "Sao Tome Island",
        "http://dbpedia.org/ontology/elevation": "2222.289514112376"
    },
    {
        "http://dbpedia.org/ontology/Island": "http://dbpedia.org/resource/Geography_of_Mayotte",
        "Island": "Geography of Mayotte",
        "http://dbpedia.org/ontology/elevation": "596.2871460193719"
    },
    {
        "http://dbpedia.org/ontology/Island": "http://dbpedia.org/resource/Ushakov_Island",
        "Island": "Ushakov Island",
        "http://dbpedia.org/ontology/elevation": "283.74341607506653"
    },
    {
        "http://dbpedia.org/ontology/Island": "http://dbpedia.org/resource/Motiti_Island",
        "Island": "Motiti Island",
        "http://dbpedia.org/ontology/elevation": "57.32942351076943"
    },
    {
        "http://dbpedia.org/ontology/Island": "http://dbpedia.org/resource/Ile_de_Re",
        "Island": "Ile de Re",
        "http://dbpedia.org/ontology/elevation": "18.503138314881372"
    },
    {
        "http://dbpedia.org/ontology/Island": "http://dbpedia.org/resource/Cayo_Santa_Maria",
        "Island": "Cayo Santa Maria",
        "http://dbpedia.org/ontology/elevation": "4.269228177410467"
    },
    {
        "http://dbpedia.org/ontology/Island": "http://dbpedia.org/resource/Boa_Vista,_Cape_Verde",
        "Island": "Boa Vista, Cape Verde",
        "http://dbpedia.org/ontology/elevation": "368.54978309875423"
    },
    {
        "http://dbpedia.org/ontology/Island": "http://dbpedia.org/resource/Zlarin",
        "Island": "Zlarin",
        "http://dbpedia.org/ontology/elevation": "162.99288706981858"
    },
    {
        "http://dbpedia.org/ontology/Island": "http://dbpedia.org/resource/Ujelang_Atoll",
        "Island": "Ujelang Atoll",
        "http://dbpedia.org/ontology/elevation": "2.7980500730071256"
    },
    {
        "http://dbpedia.org/ontology/Island": "http://dbpedia.org/resource/Byam_Martin_Island",
        "Island": "Byam Martin Island",
        "http://dbpedia.org/ontology/elevation": "156.1408311096933"
    },
    {
        "http://dbpedia.org/ontology/Island": "http://dbpedia.org/resource/Tortuga_(Haiti)",
        "Island": "Tortuga (Haiti)",
        "http://dbpedia.org/ontology/elevation": "426.57166593728715"
    },
    {
        "http://dbpedia.org/ontology/Island": "http://dbpedia.org/resource/Isla_Las_Animas",
        "Island": "Isla Las Animas",
        "http://dbpedia.org/ontology/elevation": "20.299533289121115"
    },
    {
        "http://dbpedia.org/ontology/Island": "http://dbpedia.org/resource/Isla_Monserrate",
        "Island": "Isla Monserrate",
        "http://dbpedia.org/ontology/elevation": "209.29343602002584"
    },
    {
        "http://dbpedia.org/ontology/Island": "http://dbpedia.org/resource/Fox_Island,_Washington",
        "Island": "Fox Island, Washington",
        "http://dbpedia.org/ontology/elevation": "53.217056469415404"
    },
    {
        "http://dbpedia.org/ontology/Island": "http://dbpedia.org/resource/Bacan_islands",
        "Island": "Bacan islands",
        "http://dbpedia.org/ontology/elevation": "1947.7144868139812"
    },
    {
        "http://dbpedia.org/ontology/Island": "http://dbpedia.org/resource/Mo'orea",
        "Island": "Mo'orea",
        "http://dbpedia.org/ontology/elevation": "1257.194115141787"
    },
    {
        "http://dbpedia.org/ontology/Island": "http://dbpedia.org/resource/Durrat_Al_Bahrain",
        "Island": "Durrat Al Bahrain",
        "http://dbpedia.org/ontology/elevation": "0.0"
    },
    {
        "http://dbpedia.org/ontology/Island": "http://dbpedia.org/resource/Takaeang",
        "Island": "Takaeang",
        "http://dbpedia.org/ontology/elevation": "2.9514789259115455"
    },
    {
        "http://dbpedia.org/ontology/Island": "http://dbpedia.org/resource/Santa_Isabel_Island",
        "Island": "Santa Isabel Island",
        "http://dbpedia.org/ontology/elevation": "1285.2993166806511"
    },
    {
        "http://dbpedia.org/ontology/Island": "http://dbpedia.org/resource/Ko_Sai",
        "Island": "Ko Sai",
        "http://dbpedia.org/ontology/elevation": "37.92609841893045"
    },
    {
        "http://dbpedia.org/ontology/Island": "http://dbpedia.org/resource/Farallon_de_Pajaros",
        "Island": "Farallon de Pajaros",
        "http://dbpedia.org/ontology/elevation": "341.99365584957224"
    },
    {
        "http://dbpedia.org/ontology/Island": "http://dbpedia.org/resource/Simushir",
        "Island": "Simushir",
        "http://dbpedia.org/ontology/elevation": "1434.4005178829302"
    },
    {
        "http://dbpedia.org/ontology/Island": "http://dbpedia.org/resource/Isabela_Island_(Galapagos)",
        "Island": "Isabela Island (Galapagos)",
        "http://dbpedia.org/ontology/elevation": "1725.0746321464342"
    },
    {
        "http://dbpedia.org/ontology/Island": "http://dbpedia.org/resource/Bioko",
        "Island": "Bioko",
        "http://dbpedia.org/ontology/elevation": "3259.7412441557603"
    },
    {
        "http://dbpedia.org/ontology/Island": "http://dbpedia.org/resource/Egg_Island_(Antarctica)",
        "Island": "Egg Island (Antarctica)",
        "http://dbpedia.org/ontology/elevation": "300.64356614996626"
    },
    {
        "http://dbpedia.org/ontology/Island": "http://dbpedia.org/resource/Tower_Island",
        "Island": "Tower Island",
        "http://dbpedia.org/ontology/elevation": "282.2282568327334"
    },
    {
        "http://dbpedia.org/ontology/Island": "http://dbpedia.org/resource/Great_Palm_Island",
        "Island": "Great Palm Island",
        "http://dbpedia.org/ontology/elevation": "581.9803948443003"
    },
    {
        "http://dbpedia.org/ontology/Island": "http://dbpedia.org/resource/Ilet_a_Cabrit",
        "Island": "Ilet a Cabrit",
        "http://dbpedia.org/ontology/elevation": "88.46216472324369"
    },
    {
        "http://dbpedia.org/ontology/Island": "http://dbpedia.org/resource/Haddam_Island_State_Park",
        "Island": "Haddam Island State Park",
        "http://dbpedia.org/ontology/elevation": "2.7764021485583292"
    },
    {
        "http://dbpedia.org/ontology/Island": "http://dbpedia.org/resource/Mikhaylov_Island",
        "Island": "Mikhaylov Island",
        "http://dbpedia.org/ontology/elevation": "254.26930774841563"
    },
    {
        "http://dbpedia.org/ontology/Island": "http://dbpedia.org/resource/Yoronjima",
        "Island": "Yoronjima",
        "http://dbpedia.org/ontology/elevation": "106.82745878687291"
    },
    {
        "http://dbpedia.org/ontology/Island": "http://dbpedia.org/resource/Berat_Island",
        "Island": "Berat Island",
        "http://dbpedia.org/ontology/elevation": "57.87600513662463"
    },
    {
        "http://dbpedia.org/ontology/Island": "http://dbpedia.org/resource/Wiencke_Island",
        "Island": "Wiencke Island",
        "http://dbpedia.org/ontology/elevation": "1429.585044745276"
    },
    {
        "http://dbpedia.org/ontology/Island": "http://dbpedia.org/resource/Pirallahi_Island",
        "Island": "Pirallahi Island",
        "http://dbpedia.org/ontology/elevation": "7.523755183697864"
    },
    {
        "http://dbpedia.org/ontology/Island": "http://dbpedia.org/resource/Sveti_Grgur",
        "Island": "Sveti Grgur",
        "http://dbpedia.org/ontology/elevation": "208.1250812241289"
    },
    {
        "http://dbpedia.org/ontology/Island": "http://dbpedia.org/resource/Taymyr_Peninsula",
        "Island": "Taymyr Peninsula",
        "http://dbpedia.org/ontology/elevation": "1109.1350925801728"
    },
    {
        "http://dbpedia.org/ontology/Island": "http://dbpedia.org/resource/Secretary_Island",
        "Island": "Secretary Island",
        "http://dbpedia.org/ontology/elevation": "1269.1326559051138"
    },
    {
        "http://dbpedia.org/ontology/Island": "http://dbpedia.org/resource/Isla_Granito",
        "Island": "Isla Granito",
        "http://dbpedia.org/ontology/elevation": "50.16547290214609"
    },
    {
        "http://dbpedia.org/ontology/Island": "http://dbpedia.org/resource/Broka_Island",
        "Island": "Broka Island",
        "http://dbpedia.org/ontology/elevation": "143.72500763283702"
    },
    {
        "http://dbpedia.org/ontology/Island": "http://dbpedia.org/resource/Schwanau,_Schwyz",
        "Island": "Schwanau, Schwyz",
        "http://dbpedia.org/ontology/elevation": "477.5394553948686"
    },
    {
        "http://dbpedia.org/ontology/Island": "http://dbpedia.org/resource/Ahe",
        "Island": "Ahe",
        "http://dbpedia.org/ontology/elevation": "9.335549526647613"
    },
    {
        "http://dbpedia.org/ontology/Island": "http://dbpedia.org/resource/Masson_Island",
        "Island": "Masson Island",
        "http://dbpedia.org/ontology/elevation": "495.1041198345879"
    },
    {
        "http://dbpedia.org/ontology/Island": "http://dbpedia.org/resource/Cheduba_Island",
        "Island": "Cheduba Island",
        "http://dbpedia.org/ontology/elevation": "186.1623601108815"
    },
    {
        "http://dbpedia.org/ontology/Island": "http://dbpedia.org/resource/Moutohora_Island",
        "Island": "Moutohora Island",
        "http://dbpedia.org/ontology/elevation": "324.23216756094644"
    },
    {
        "http://dbpedia.org/ontology/Island": "http://dbpedia.org/resource/Scott_Island",
        "Island": "Scott Island",
        "http://dbpedia.org/ontology/elevation": "54.78231938355025"
    },
    {
        "http://dbpedia.org/ontology/Island": "http://dbpedia.org/resource/Franz_Josef_Land",
        "Island": "Franz Josef Land",
        "http://dbpedia.org/ontology/elevation": "684.8228219140502"
    },
    {
        "http://dbpedia.org/ontology/Island": "http://dbpedia.org/resource/Benten-jima_(Wakkanai)",
        "Island": "Benten-jima (Wakkanai)",
        "http://dbpedia.org/ontology/elevation": "21.175119495641738"
    },
    {
        "http://dbpedia.org/ontology/Island": "http://dbpedia.org/resource/Simeulue",
        "Island": "Simeulue",
        "http://dbpedia.org/ontology/elevation": "586.6743015560539"
    },
    {
        "http://dbpedia.org/ontology/Island": "http://dbpedia.org/resource/Vanxim",
        "Island": "Vanxim",
        "http://dbpedia.org/ontology/elevation": "7.697797833648546"
    },
    {
        "http://dbpedia.org/ontology/Island": "http://dbpedia.org/resource/Fais_Island",
        "Island": "Fais Island",
        "http://dbpedia.org/ontology/elevation": "16.76948903277495"
    },
    {
        "http://dbpedia.org/ontology/Island": "http://dbpedia.org/resource/Cuttyhunk_Island",
        "Island": "Cuttyhunk Island",
        "http://dbpedia.org/ontology/elevation": "43.31970406319791"
    },
    {
        "http://dbpedia.org/ontology/Island": "http://dbpedia.org/resource/Jidda_Island",
        "Island": "Jidda Island",
        "http://dbpedia.org/ontology/elevation": "9.630252846680115"
    },
    {
        "http://dbpedia.org/ontology/Island": "http://dbpedia.org/resource/Clark_Island_(Nunavut)",
        "Island": "Clark Island (Nunavut)",
        "http://dbpedia.org/ontology/elevation": "117.03195710699465"
    },
    {
        "http://dbpedia.org/ontology/Island": "http://dbpedia.org/resource/Isla_La_Ventana",
        "Island": "Isla La Ventana",
        "http://dbpedia.org/ontology/elevation": "79.02862153895553"
    },
    {
        "http://dbpedia.org/ontology/Island": "http://dbpedia.org/resource/Guadalupe_Island",
        "Island": "Guadalupe Island",
        "http://dbpedia.org/ontology/elevation": "1271.8739733864638"
    },
    {
        "http://dbpedia.org/ontology/Island": "http://dbpedia.org/resource/Malaga_Island",
        "Island": "Malaga Island",
        "http://dbpedia.org/ontology/elevation": "10.078619595573382"
    },
    {
        "http://dbpedia.org/ontology/Island": "http://dbpedia.org/resource/South_Molle_Island",
        "Island": "South Molle Island",
        "http://dbpedia.org/ontology/elevation": "180.4195398129717"
    },
    {
        "http://dbpedia.org/ontology/Island": "http://dbpedia.org/resource/Jameson_Land",
        "Island": "Jameson Land",
        "http://dbpedia.org/ontology/elevation": "1415.6447280626376"
    },
    {
        "http://dbpedia.org/ontology/Island": "http://dbpedia.org/resource/Mangere_Island",
        "Island": "Mangere Island",
        "http://dbpedia.org/ontology/elevation": "288.6302217203031"
    },
    {
        "http://dbpedia.org/ontology/Island": "http://dbpedia.org/resource/Afognak",
        "Island": "Afognak",
        "http://dbpedia.org/ontology/elevation": "754.4174764390566"
    },
    {
        "http://dbpedia.org/ontology/Island": "http://dbpedia.org/resource/Ilheu_Raso",
        "Island": "Ilheu Raso",
        "http://dbpedia.org/ontology/elevation": "397.4446162527678"
    },
    {
        "http://dbpedia.org/ontology/Island": "http://dbpedia.org/resource/Chamisso_Island",
        "Island": "Chamisso Island",
        "http://dbpedia.org/ontology/elevation": "69.27593663544661"
    },
    {
        "http://dbpedia.org/ontology/Island": "http://dbpedia.org/resource/Aquidneck_Island",
        "Island": "Aquidneck Island",
        "http://dbpedia.org/ontology/elevation": "76.55599568472219"
    },
    {
        "http://dbpedia.org/ontology/Island": "http://dbpedia.org/resource/Sabine_Island",
        "Island": "Sabine Island",
        "http://dbpedia.org/ontology/elevation": "766.7945875341203"
    },
    {
        "http://dbpedia.org/ontology/Island": "http://dbpedia.org/resource/Rene-Levasseur_Island",
        "Island": "Rene-Levasseur Island",
        "http://dbpedia.org/ontology/elevation": "1034.7428646971412"
    },
    {
        "http://dbpedia.org/ontology/Island": "http://dbpedia.org/resource/Ko_Losin",
        "Island": "Ko Losin",
        "http://dbpedia.org/ontology/elevation": "9.08635944301898"
    },
    {
        "http://dbpedia.org/ontology/Island": "http://dbpedia.org/resource/Severnaya_Zemlya",
        "Island": "Severnaya Zemlya",
        "http://dbpedia.org/ontology/elevation": "875.8689885003328"
    },
    {
        "http://dbpedia.org/ontology/Island": "http://dbpedia.org/resource/Aiguilles_Island",
        "Island": "Aiguilles Island",
        "http://dbpedia.org/ontology/elevation": "123.40444546009311"
    },
    {
        "http://dbpedia.org/ontology/Island": "http://dbpedia.org/resource/Coghlan_Island",
        "Island": "Coghlan Island",
        "http://dbpedia.org/ontology/elevation": "52.34600778868258"
    },
    {
        "http://dbpedia.org/ontology/Island": "http://dbpedia.org/resource/Amund_Ringnes_Island",
        "Island": "Amund Ringnes Island",
        "http://dbpedia.org/ontology/elevation": "291.00201044623316"
    },
    {
        "http://dbpedia.org/ontology/Island": "http://dbpedia.org/resource/Nosy_Komba",
        "Island": "Nosy Komba",
        "http://dbpedia.org/ontology/elevation": "593.2553142461677"
    },
    {
        "http://dbpedia.org/ontology/Island": "http://dbpedia.org/resource/Butler_Island",
        "Island": "Butler Island",
        "http://dbpedia.org/ontology/elevation": "176.87257475475465"
    },
    {
        "http://dbpedia.org/ontology/Island": "http://dbpedia.org/resource/Ward_Hunt_Island",
        "Island": "Ward Hunt Island",
        "http://dbpedia.org/ontology/elevation": "423.8031134947589"
    },
    {
        "http://dbpedia.org/ontology/Island": "http://dbpedia.org/resource/Werd_(Lake_Constance)",
        "Island": "Werd (Lake Constance)",
        "http://dbpedia.org/ontology/elevation": "373.4661642589869"
    },
    {
        "http://dbpedia.org/ontology/Island": "http://dbpedia.org/resource/Namu_Atoll",
        "Island": "Namu Atoll",
        "http://dbpedia.org/ontology/elevation": "3.2111728742249492"
    },
    {
        "http://dbpedia.org/ontology/Island": "http://dbpedia.org/resource/Lopevi",
        "Island": "Lopevi",
        "http://dbpedia.org/ontology/elevation": "1494.8894442160645"
    },
    {
        "http://dbpedia.org/ontology/Island": "http://dbpedia.org/resource/Inishvickillane",
        "Island": "Inishvickillane",
        "http://dbpedia.org/ontology/elevation": "181.6420862621066"
    },
    {
        "http://dbpedia.org/ontology/Island": "http://dbpedia.org/resource/Mount_Desert_Island",
        "Island": "Mount Desert Island",
        "http://dbpedia.org/ontology/elevation": "427.0370688470632"
    },
    {
        "http://dbpedia.org/ontology/Island": "http://dbpedia.org/resource/Karl-Alexander_Island",
        "Island": "Karl-Alexander Island",
        "http://dbpedia.org/ontology/elevation": "390.5030497174678"
    },
    {
        "http://dbpedia.org/ontology/Island": "http://dbpedia.org/resource/Lembeh",
        "Island": "Lembeh",
        "http://dbpedia.org/ontology/elevation": "404.34942511856184"
    }
]