[
    {
        "http://dbpedia.org/ontology/Tower": "http://dbpedia.org/resource/Pirotan",
        "Tower": "Pirotan",
        "http://dbpedia.org/ontology/height": "16.70291022358074"
    },
    {
        "http://dbpedia.org/ontology/Tower": "http://dbpedia.org/resource/Svenner_Lighthouse",
        "Tower": "Svenner Lighthouse",
        "http://dbpedia.org/ontology/height": "19.324119998670636"
    },
    {
        "http://dbpedia.org/ontology/Tower": "http://dbpedia.org/resource/Saltholmen_Lighthouse",
        "Tower": "Saltholmen Lighthouse",
        "http://dbpedia.org/ontology/height": "5.746713766880316"
    },
    {
        "http://dbpedia.org/ontology/Tower": "http://dbpedia.org/resource/Alte_Weser_(lighthouse)",
        "Tower": "Alte Weser (lighthouse)",
        "http://dbpedia.org/ontology/height": "35.26242473873851"
    },
    {
        "http://dbpedia.org/ontology/Tower": "http://dbpedia.org/resource/Faro_Vargas",
        "Tower": "Faro Vargas",
        "http://dbpedia.org/ontology/height": "29.226798128187436"
    },
    {
        "http://dbpedia.org/ontology/Tower": "http://dbpedia.org/resource/Malpeque_Harbour_Approach_Range_Lights",
        "Tower": "Malpeque Harbour Approach Range Lights",
        "http://dbpedia.org/ontology/height": "15.813487311688107"
    },
    {
        "http://dbpedia.org/ontology/Tower": "http://dbpedia.org/resource/Ovisi_Lighthouse",
        "Tower": "Ovisi Lighthouse",
        "http://dbpedia.org/ontology/height": "32.373034512692804"
    },
    {
        "http://dbpedia.org/ontology/Tower": "http://dbpedia.org/resource/Saybrook_Breakwater_Light",
        "Tower": "Saybrook Breakwater Light",
        "http://dbpedia.org/ontology/height": "15.885413987357534"
    },
    {
        "http://dbpedia.org/ontology/Tower": "http://dbpedia.org/resource/Castle_Point_Lighthouse",
        "Tower": "Castle Point Lighthouse",
        "http://dbpedia.org/ontology/height": "24.546647720702012"
    },
    {
        "http://dbpedia.org/ontology/Tower": "http://dbpedia.org/resource/Kvassheim_Lighthouse",
        "Tower": "Kvassheim Lighthouse",
        "http://dbpedia.org/ontology/height": "8.808574753134069"
    },
    {
        "http://dbpedia.org/ontology/Tower": "http://dbpedia.org/resource/Uostadvaris_Lighthouse",
        "Tower": "Uostadvaris Lighthouse",
        "http://dbpedia.org/ontology/height": "12.592099928798596"
    },
    {
        "http://dbpedia.org/ontology/Tower": "http://dbpedia.org/resource/Cape_Naturaliste_Lighthouse",
        "Tower": "Cape Naturaliste Lighthouse",
        "http://dbpedia.org/ontology/height": "20.742570075471537"
    },
    {
        "http://dbpedia.org/ontology/Tower": "http://dbpedia.org/resource/Cape_Kumukahi_Light",
        "Tower": "Cape Kumukahi Light",
        "http://dbpedia.org/ontology/height": "35.80233555158427"
    },
    {
        "http://dbpedia.org/ontology/Tower": "http://dbpedia.org/resource/Munising_Front_Range_Light",
        "Tower": "Munising Front Range Light",
        "http://dbpedia.org/ontology/height": "7.024210867362127"
    },
    {
        "http://dbpedia.org/ontology/Tower": "http://dbpedia.org/resource/High_and_Low_Lights_of_North_Shields",
        "Tower": "High and Low Lights of North Shields",
        "http://dbpedia.org/ontology/height": "15.815866996811"
    },
    {
        "http://dbpedia.org/ontology/Tower": "http://dbpedia.org/resource/Yeni_Kale_Lighthouse",
        "Tower": "Yeni Kale Lighthouse",
        "http://dbpedia.org/ontology/height": "26.95853328491709"
    },
    {
        "http://dbpedia.org/ontology/Tower": "http://dbpedia.org/resource/Barnegat_Lighthouse",
        "Tower": "Barnegat Lighthouse",
        "http://dbpedia.org/ontology/height": "47.634313173773755"
    },
    {
        "http://dbpedia.org/ontology/Tower": "http://dbpedia.org/resource/Cape_North_Lighthouse",
        "Tower": "Cape North Lighthouse",
        "http://dbpedia.org/ontology/height": "30.94224363448273"
    },
    {
        "http://dbpedia.org/ontology/Tower": "http://dbpedia.org/resource/Les_Hanois_Lighthouse",
        "Tower": "Les Hanois Lighthouse",
        "http://dbpedia.org/ontology/height": "38.56528630466589"
    },
    {
        "http://dbpedia.org/ontology/Tower": "http://dbpedia.org/resource/Green_Point_Lighthouse,_KwaZulu-Natal",
        "Tower": "Green Point Lighthouse, KwaZulu-Natal",
        "http://dbpedia.org/ontology/height": "21.87195700416703"
    },
    {
        "http://dbpedia.org/ontology/Tower": "http://dbpedia.org/resource/Pechiguera_Lighthouse",
        "Tower": "Pechiguera Lighthouse",
        "http://dbpedia.org/ontology/height": "46.66226412041915"
    },
    {
        "http://dbpedia.org/ontology/Tower": "http://dbpedia.org/resource/Europa_Point_Lighthouse",
        "Tower": "Europa Point Lighthouse",
        "http://dbpedia.org/ontology/height": "20.68958739733685"
    },
    {
        "http://dbpedia.org/ontology/Tower": "http://dbpedia.org/resource/Great_Tower_Neuwerk",
        "Tower": "Great Tower Neuwerk",
        "http://dbpedia.org/ontology/height": "37.21145366361577"
    },
    {
        "http://dbpedia.org/ontology/Tower": "http://dbpedia.org/resource/Fenerbahce_Lighthouse",
        "Tower": "Fenerbahce Lighthouse",
        "http://dbpedia.org/ontology/height": "27.020363763816565"
    },
    {
        "http://dbpedia.org/ontology/Tower": "http://dbpedia.org/resource/Roche's_Point_Lighthouse",
        "Tower": "Roche's Point Lighthouse",
        "http://dbpedia.org/ontology/height": "15.10388153001051"
    },
    {
        "http://dbpedia.org/ontology/Tower": "http://dbpedia.org/resource/Port_Polnocny_Lighthouse",
        "Tower": "Port Polnocny Lighthouse",
        "http://dbpedia.org/ontology/height": "63.543137510286684"
    },
    {
        "http://dbpedia.org/ontology/Tower": "http://dbpedia.org/resource/Haugjegla_Lighthouse",
        "Tower": "Haugjegla Lighthouse",
        "http://dbpedia.org/ontology/height": "28.404537357737198"
    },
    {
        "http://dbpedia.org/ontology/Tower": "http://dbpedia.org/resource/Fife_Ness",
        "Tower": "Fife Ness",
        "http://dbpedia.org/ontology/height": "4.726227638688062"
    },
    {
        "http://dbpedia.org/ontology/Tower": "http://dbpedia.org/resource/Tennholmen_Lighthouse",
        "Tower": "Tennholmen Lighthouse",
        "http://dbpedia.org/ontology/height": "14.002803480293403"
    },
    {
        "http://dbpedia.org/ontology/Tower": "http://dbpedia.org/resource/Point_Danger_Light",
        "Tower": "Point Danger Light",
        "http://dbpedia.org/ontology/height": "19.773958943977355"
    },
    {
        "http://dbpedia.org/ontology/Tower": "http://dbpedia.org/resource/Mudouyu_Lighthouse",
        "Tower": "Mudouyu Lighthouse",
        "http://dbpedia.org/ontology/height": "43.220927910507"
    },
    {
        "http://dbpedia.org/ontology/Tower": "http://dbpedia.org/resource/Iojimazaki_Lighthouse",
        "Tower": "Iojimazaki Lighthouse",
        "http://dbpedia.org/ontology/height": "11.451969191261213"
    },
    {
        "http://dbpedia.org/ontology/Tower": "http://dbpedia.org/resource/Kullen_Lighthouse",
        "Tower": "Kullen Lighthouse",
        "http://dbpedia.org/ontology/height": "17.660327148484733"
    },
    {
        "http://dbpedia.org/ontology/Tower": "http://dbpedia.org/resource/Haig_Point_Range_Lights",
        "Tower": "Haig Point Range Lights",
        "http://dbpedia.org/ontology/height": "5.875325313552883"
    },
    {
        "http://dbpedia.org/ontology/Tower": "http://dbpedia.org/resource/Alki_Point_Light",
        "Tower": "Alki Point Light",
        "http://dbpedia.org/ontology/height": "11.216073336820306"
    },
    {
        "http://dbpedia.org/ontology/Tower": "http://dbpedia.org/resource/Bishop_and_Clerks_Light",
        "Tower": "Bishop and Clerks Light",
        "http://dbpedia.org/ontology/height": "19.55286760406157"
    },
    {
        "http://dbpedia.org/ontology/Tower": "http://dbpedia.org/resource/Kashinozaki_Lighthouse",
        "Tower": "Kashinozaki Lighthouse",
        "http://dbpedia.org/ontology/height": "15.483091169908102"
    },
    {
        "http://dbpedia.org/ontology/Tower": "http://dbpedia.org/resource/Sabine_Bank_Light",
        "Tower": "Sabine Bank Light",
        "http://dbpedia.org/ontology/height": "21.698496950000965"
    },
    {
        "http://dbpedia.org/ontology/Tower": "http://dbpedia.org/resource/Ginger_Island",
        "Tower": "Ginger Island",
        "http://dbpedia.org/ontology/height": "4.237871750669683"
    },
    {
        "http://dbpedia.org/ontology/Tower": "http://dbpedia.org/resource/Oland_lighthouse_(Germany)",
        "Tower": "Oland lighthouse (Germany)",
        "http://dbpedia.org/ontology/height": "7.705010648768115"
    },
    {
        "http://dbpedia.org/ontology/Tower": "http://dbpedia.org/resource/Tsurushima_Lighthouse",
        "Tower": "Tsurushima Lighthouse",
        "http://dbpedia.org/ontology/height": "11.213034715692542"
    },
    {
        "http://dbpedia.org/ontology/Tower": "http://dbpedia.org/resource/Cape_Palinuro",
        "Tower": "Cape Palinuro",
        "http://dbpedia.org/ontology/height": "14.262790384933231"
    },
    {
        "http://dbpedia.org/ontology/Tower": "http://dbpedia.org/resource/Chicken_Rock_Lighthouse",
        "Tower": "Chicken Rock Lighthouse",
        "http://dbpedia.org/ontology/height": "41.73391523742509"
    },
    {
        "http://dbpedia.org/ontology/Tower": "http://dbpedia.org/resource/Corregidor_Island_Lighthouse",
        "Tower": "Corregidor Island Lighthouse",
        "http://dbpedia.org/ontology/height": "19.772720565138908"
    },
    {
        "http://dbpedia.org/ontology/Tower": "http://dbpedia.org/resource/Baileys_Harbor_Range_Lights",
        "Tower": "Baileys Harbor Range Lights",
        "http://dbpedia.org/ontology/height": "6.356810306525852"
    },
    {
        "http://dbpedia.org/ontology/Tower": "http://dbpedia.org/resource/Queenscliff_Low_Light",
        "Tower": "Queenscliff Low Light",
        "http://dbpedia.org/ontology/height": "24.39942692555784"
    },
    {
        "http://dbpedia.org/ontology/Tower": "http://dbpedia.org/resource/Lorain_West_Breakwater_Light",
        "Tower": "Lorain West Breakwater Light",
        "http://dbpedia.org/ontology/height": "16.115164967782864"
    },
    {
        "http://dbpedia.org/ontology/Tower": "http://dbpedia.org/resource/Baron_Bliss_Light",
        "Tower": "Baron Bliss Light",
        "http://dbpedia.org/ontology/height": "15.043360817688487"
    },
    {
        "http://dbpedia.org/ontology/Tower": "http://dbpedia.org/resource/Point_Hueneme_Light",
        "Tower": "Point Hueneme Light",
        "http://dbpedia.org/ontology/height": "15.577910970340785"
    },
    {
        "http://dbpedia.org/ontology/Tower": "http://dbpedia.org/resource/Punta_Sardina_Lighthouse",
        "Tower": "Punta Sardina Lighthouse",
        "http://dbpedia.org/ontology/height": "24.581657342093497"
    },
    {
        "http://dbpedia.org/ontology/Tower": "http://dbpedia.org/resource/Point_Robinson_Light",
        "Tower": "Point Robinson Light",
        "http://dbpedia.org/ontology/height": "11.509893987550509"
    },
    {
        "http://dbpedia.org/ontology/Tower": "http://dbpedia.org/resource/Bogskar_Lighthouse",
        "Tower": "Bogskar Lighthouse",
        "http://dbpedia.org/ontology/height": "20.89393033506996"
    },
    {
        "http://dbpedia.org/ontology/Tower": "http://dbpedia.org/resource/Laidunina_Lighthouse",
        "Tower": "Laidunina Lighthouse",
        "http://dbpedia.org/ontology/height": "22.117060999020808"
    },
    {
        "http://dbpedia.org/ontology/Tower": "http://dbpedia.org/resource/Burnham-on-Sea_High_Lighthouse",
        "Tower": "Burnham-on-Sea High Lighthouse",
        "http://dbpedia.org/ontology/height": "29.525422421582945"
    },
    {
        "http://dbpedia.org/ontology/Tower": "http://dbpedia.org/resource/Storholmen_Lighthouse",
        "Tower": "Storholmen Lighthouse",
        "http://dbpedia.org/ontology/height": "21.558178003202645"
    },
    {
        "http://dbpedia.org/ontology/Tower": "http://dbpedia.org/resource/Punta_Penna_Lighthouse",
        "Tower": "Punta Penna Lighthouse",
        "http://dbpedia.org/ontology/height": "68.34916197232019"
    },
    {
        "http://dbpedia.org/ontology/Tower": "http://dbpedia.org/resource/Borden_Flats_Light",
        "Tower": "Borden Flats Light",
        "http://dbpedia.org/ontology/height": "14.213012331004762"
    },
    {
        "http://dbpedia.org/ontology/Tower": "http://dbpedia.org/resource/North_Head_Lighthouse,_Saldanha_Bay",
        "Tower": "North Head Lighthouse, Saldanha Bay",
        "http://dbpedia.org/ontology/height": "19.98540295118194"
    },
    {
        "http://dbpedia.org/ontology/Tower": "http://dbpedia.org/resource/Nauset_Light",
        "Tower": "Nauset Light",
        "http://dbpedia.org/ontology/height": "15.92671912358424"
    },
    {
        "http://dbpedia.org/ontology/Tower": "http://dbpedia.org/resource/Estaca_de_Bares_Lighthouse",
        "Tower": "Estaca de Bares Lighthouse",
        "http://dbpedia.org/ontology/height": "10.224489347049637"
    },
    {
        "http://dbpedia.org/ontology/Tower": "http://dbpedia.org/resource/Ashkelon_Coal_Jetty_Breakwater_Light",
        "Tower": "Ashkelon Coal Jetty Breakwater Light",
        "http://dbpedia.org/ontology/height": "17.166307817144407"
    },
    {
        "http://dbpedia.org/ontology/Tower": "http://dbpedia.org/resource/Vaderobod",
        "Tower": "Vaderobod",
        "http://dbpedia.org/ontology/height": "19.521384193170903"
    },
    {
        "http://dbpedia.org/ontology/Tower": "http://dbpedia.org/resource/St._Simons_Island_Light",
        "Tower": "St. Simons Island Light",
        "http://dbpedia.org/ontology/height": "33.377730830628025"
    },
    {
        "http://dbpedia.org/ontology/Tower": "http://dbpedia.org/resource/Cedar_Island_Light",
        "Tower": "Cedar Island Light",
        "http://dbpedia.org/ontology/height": "9.91790981605678"
    },
    {
        "http://dbpedia.org/ontology/Tower": "http://dbpedia.org/resource/Abruka_Rear_Lighthouse",
        "Tower": "Abruka Rear Lighthouse",
        "http://dbpedia.org/ontology/height": "38.9492047696545"
    },
    {
        "http://dbpedia.org/ontology/Tower": "http://dbpedia.org/resource/Hekkingen_Lighthouse",
        "Tower": "Hekkingen Lighthouse",
        "http://dbpedia.org/ontology/height": "10.8541210037554"
    },
    {
        "http://dbpedia.org/ontology/Tower": "http://dbpedia.org/resource/Ballast_Point_Lighthouse",
        "Tower": "Ballast Point Lighthouse",
        "http://dbpedia.org/ontology/height": "10.664108475792869"
    },
    {
        "http://dbpedia.org/ontology/Tower": "http://dbpedia.org/resource/Isle_Royale_Light",
        "Tower": "Isle Royale Light",
        "http://dbpedia.org/ontology/height": "19.271204918128216"
    },
    {
        "http://dbpedia.org/ontology/Tower": "http://dbpedia.org/resource/Cape_Tryon_Light",
        "Tower": "Cape Tryon Light",
        "http://dbpedia.org/ontology/height": "13.14886478291207"
    },
    {
        "http://dbpedia.org/ontology/Tower": "http://dbpedia.org/resource/Lake_Borgne_Light",
        "Tower": "Lake Borgne Light",
        "http://dbpedia.org/ontology/height": "12.793291048592327"
    },
    {
        "http://dbpedia.org/ontology/Tower": "http://dbpedia.org/resource/Pondicherry_lighthouse",
        "Tower": "Pondicherry lighthouse",
        "http://dbpedia.org/ontology/height": "25.946774487100733"
    },
    {
        "http://dbpedia.org/ontology/Tower": "http://dbpedia.org/resource/Fort_Sumter_Range_Lights",
        "Tower": "Fort Sumter Range Lights",
        "http://dbpedia.org/ontology/height": "16.659789807065415"
    },
    {
        "http://dbpedia.org/ontology/Tower": "http://dbpedia.org/resource/Race_Rock_Light",
        "Tower": "Race Rock Light",
        "http://dbpedia.org/ontology/height": "14.753156955748686"
    },
    {
        "http://dbpedia.org/ontology/Tower": "http://dbpedia.org/resource/Tungenes_Lighthouse",
        "Tower": "Tungenes Lighthouse",
        "http://dbpedia.org/ontology/height": "11.508654316827398"
    },
    {
        "http://dbpedia.org/ontology/Tower": "http://dbpedia.org/resource/Hogbonden",
        "Tower": "Hogbonden",
        "http://dbpedia.org/ontology/height": "14.225720802371555"
    },
    {
        "http://dbpedia.org/ontology/Tower": "http://dbpedia.org/resource/Tarbat_Ness_Lighthouse",
        "Tower": "Tarbat Ness Lighthouse",
        "http://dbpedia.org/ontology/height": "43.51344317570015"
    },
    {
        "http://dbpedia.org/ontology/Tower": "http://dbpedia.org/resource/Lange_Nelle_Lighthouse",
        "Tower": "Lange Nelle Lighthouse",
        "http://dbpedia.org/ontology/height": "52.011514785047936"
    },
    {
        "http://dbpedia.org/ontology/Tower": "http://dbpedia.org/resource/Chantry_Island_Lightstation_Tower",
        "Tower": "Chantry Island Lightstation Tower",
        "http://dbpedia.org/ontology/height": "24.002576059927307"
    },
    {
        "http://dbpedia.org/ontology/Tower": "http://dbpedia.org/resource/Miskan_Island",
        "Tower": "Miskan Island",
        "http://dbpedia.org/ontology/height": "11.998959949226686"
    },
    {
        "http://dbpedia.org/ontology/Tower": "http://dbpedia.org/resource/Niechorze_Lighthouse",
        "Tower": "Niechorze Lighthouse",
        "http://dbpedia.org/ontology/height": "46.514795171995615"
    },
    {
        "http://dbpedia.org/ontology/Tower": "http://dbpedia.org/resource/Seaton_Carew_lighthouse",
        "Tower": "Seaton Carew lighthouse",
        "http://dbpedia.org/ontology/height": "17.351460623888148"
    },
    {
        "http://dbpedia.org/ontology/Tower": "http://dbpedia.org/resource/Bjornsund_Lighthouse",
        "Tower": "Bjornsund Lighthouse",
        "http://dbpedia.org/ontology/height": "8.86040097806719"
    },
    {
        "http://dbpedia.org/ontology/Tower": "http://dbpedia.org/resource/South_Bass_Island_Light",
        "Tower": "South Bass Island Light",
        "http://dbpedia.org/ontology/height": "19.838855030948846"
    },
    {
        "http://dbpedia.org/ontology/Tower": "http://dbpedia.org/resource/Pass_Christian_Light",
        "Tower": "Pass Christian Light",
        "http://dbpedia.org/ontology/height": "9.316013377489334"
    },
    {
        "http://dbpedia.org/ontology/Tower": "http://dbpedia.org/resource/Winterton_Lighthouse",
        "Tower": "Winterton Lighthouse",
        "http://dbpedia.org/ontology/height": "19.845500961539496"
    },
    {
        "http://dbpedia.org/ontology/Tower": "http://dbpedia.org/resource/Ile_Tamara_lighthouse",
        "Tower": "Ile Tamara lighthouse",
        "http://dbpedia.org/ontology/height": "25.46865355914687"
    },
    {
        "http://dbpedia.org/ontology/Tower": "http://dbpedia.org/resource/Halfmoon_Reef_Light",
        "Tower": "Halfmoon Reef Light",
        "http://dbpedia.org/ontology/height": "5.631525507535529"
    },
    {
        "http://dbpedia.org/ontology/Tower": "http://dbpedia.org/resource/Tahkuna_Lighthouse",
        "Tower": "Tahkuna Lighthouse",
        "http://dbpedia.org/ontology/height": "46.7104183049826"
    },
    {
        "http://dbpedia.org/ontology/Tower": "http://dbpedia.org/resource/Brighton_Beach_Range_Lights",
        "Tower": "Brighton Beach Range Lights",
        "http://dbpedia.org/ontology/height": "16.804018198137125"
    },
    {
        "http://dbpedia.org/ontology/Tower": "http://dbpedia.org/resource/Bedok_Lighthouse",
        "Tower": "Bedok Lighthouse",
        "http://dbpedia.org/ontology/height": "72.44026843226388"
    },
    {
        "http://dbpedia.org/ontology/Tower": "http://dbpedia.org/resource/Sletterhage_Lighthouse",
        "Tower": "Sletterhage Lighthouse",
        "http://dbpedia.org/ontology/height": "17.50065437638506"
    },
    {
        "http://dbpedia.org/ontology/Tower": "http://dbpedia.org/resource/Two_Rivers_Light",
        "Tower": "Two Rivers Light",
        "http://dbpedia.org/ontology/height": "11.496014996684924"
    },
    {
        "http://dbpedia.org/ontology/Tower": "http://dbpedia.org/resource/Wollongong_Head_Lighthouse",
        "Tower": "Wollongong Head Lighthouse",
        "http://dbpedia.org/ontology/height": "26.19620943728808"
    },
    {
        "http://dbpedia.org/ontology/Tower": "http://dbpedia.org/resource/Burnham-on-Sea_Low_lighthouse",
        "Tower": "Burnham-on-Sea Low lighthouse",
        "http://dbpedia.org/ontology/height": "9.70907357531396"
    },
    {
        "http://dbpedia.org/ontology/Tower": "http://dbpedia.org/resource/Cape_Wickham_Lighthouse",
        "Tower": "Cape Wickham Lighthouse",
        "http://dbpedia.org/ontology/height": "48.12846183942037"
    },
    {
        "http://dbpedia.org/ontology/Tower": "http://dbpedia.org/resource/Lighthouse_in_Hel",
        "Tower": "Lighthouse in Hel",
        "http://dbpedia.org/ontology/height": "40.258354905680505"
    },
    {
        "http://dbpedia.org/ontology/Tower": "http://dbpedia.org/resource/Bear_Island_Light",
        "Tower": "Bear Island Light",
        "http://dbpedia.org/ontology/height": "10.100317812102327"
    },
    {
        "http://dbpedia.org/ontology/Tower": "http://dbpedia.org/resource/Brandaris",
        "Tower": "Brandaris",
        "http://dbpedia.org/ontology/height": "52.40349666363201"
    },
    {
        "http://dbpedia.org/ontology/Tower": "http://dbpedia.org/resource/Geitungen_Lighthouse",
        "Tower": "Geitungen Lighthouse",
        "http://dbpedia.org/ontology/height": "10.203966259158042"
    },
    {
        "http://dbpedia.org/ontology/Tower": "http://dbpedia.org/resource/Inishtrahull_Lighthouse",
        "Tower": "Inishtrahull Lighthouse",
        "http://dbpedia.org/ontology/height": "20.906848867982752"
    },
    {
        "http://dbpedia.org/ontology/Tower": "http://dbpedia.org/resource/Mokohinau_Islands_Lighthouse",
        "Tower": "Mokohinau Islands Lighthouse",
        "http://dbpedia.org/ontology/height": "14.535860605460948"
    },
    {
        "http://dbpedia.org/ontology/Tower": "http://dbpedia.org/resource/One_Fathom_Bank_Lighthouse",
        "Tower": "One Fathom Bank Lighthouse",
        "http://dbpedia.org/ontology/height": "28.88018920421408"
    },
    {
        "http://dbpedia.org/ontology/Tower": "http://dbpedia.org/resource/North_Point_Range_Lights",
        "Tower": "North Point Range Lights",
        "http://dbpedia.org/ontology/height": "10.87106619184591"
    },
    {
        "http://dbpedia.org/ontology/Tower": "http://dbpedia.org/resource/Burrewarra_Point_Light",
        "Tower": "Burrewarra Point Light",
        "http://dbpedia.org/ontology/height": "9.811105567264864"
    },
    {
        "http://dbpedia.org/ontology/Tower": "http://dbpedia.org/resource/Punta_Delgada,_Chile",
        "Tower": "Punta Delgada, Chile",
        "http://dbpedia.org/ontology/height": "12.721950340599026"
    },
    {
        "http://dbpedia.org/ontology/Tower": "http://dbpedia.org/resource/Mangapwani_Lighthouse",
        "Tower": "Mangapwani Lighthouse",
        "http://dbpedia.org/ontology/height": "23.441592762039942"
    },
    {
        "http://dbpedia.org/ontology/Tower": "http://dbpedia.org/resource/Great_Isaac_Cay,_Bahamas",
        "Tower": "Great Isaac Cay, Bahamas",
        "http://dbpedia.org/ontology/height": "45.95400483125302"
    },
    {
        "http://dbpedia.org/ontology/Tower": "http://dbpedia.org/resource/Cape_Spear",
        "Tower": "Cape Spear",
        "http://dbpedia.org/ontology/height": "11.4954566864"
    },
    {
        "http://dbpedia.org/ontology/Tower": "http://dbpedia.org/resource/Les_Eclaireurs_Lighthouse",
        "Tower": "Les Eclaireurs Lighthouse",
        "http://dbpedia.org/ontology/height": "10.180486494310456"
    },
    {
        "http://dbpedia.org/ontology/Tower": "http://dbpedia.org/resource/Turnberry_Castle",
        "Tower": "Turnberry Castle",
        "http://dbpedia.org/ontology/height": "22.862891973008463"
    },
    {
        "http://dbpedia.org/ontology/Tower": "http://dbpedia.org/resource/Gorleston_(Range_Rear)_Lighthouse",
        "Tower": "Gorleston (Range Rear) Lighthouse",
        "http://dbpedia.org/ontology/height": "19.857240463118675"
    },
    {
        "http://dbpedia.org/ontology/Tower": "http://dbpedia.org/resource/Rampside_Lighthouse",
        "Tower": "Rampside Lighthouse",
        "http://dbpedia.org/ontology/height": "15.658683031052103"
    },
    {
        "http://dbpedia.org/ontology/Tower": "http://dbpedia.org/resource/Vinga_Lighthouse",
        "Tower": "Vinga Lighthouse",
        "http://dbpedia.org/ontology/height": "28.87684865140096"
    },
    {
        "http://dbpedia.org/ontology/Tower": "http://dbpedia.org/resource/Kovilthottam_Lighthouse",
        "Tower": "Kovilthottam Lighthouse",
        "http://dbpedia.org/ontology/height": "17.123635749871355"
    },
    {
        "http://dbpedia.org/ontology/Tower": "http://dbpedia.org/resource/Qilaibi_Lighthouse",
        "Tower": "Qilaibi Lighthouse",
        "http://dbpedia.org/ontology/height": "7.4996673826697915"
    },
    {
        "http://dbpedia.org/ontology/Tower": "http://dbpedia.org/resource/Salt_Island,_British_Virgin_Islands",
        "Tower": "Salt Island, British Virgin Islands",
        "http://dbpedia.org/ontology/height": "5.081656931063573"
    },
    {
        "http://dbpedia.org/ontology/Tower": "http://dbpedia.org/resource/SlA<<tere_Lighthouse",
        "Tower": "SlA<<tere Lighthouse",
        "http://dbpedia.org/ontology/height": "24.849999754924447"
    },
    {
        "http://dbpedia.org/ontology/Tower": "http://dbpedia.org/resource/Assateague_Light",
        "Tower": "Assateague Light",
        "http://dbpedia.org/ontology/height": "45.404790128432005"
    },
    {
        "http://dbpedia.org/ontology/Tower": "http://dbpedia.org/resource/Point_Montara_Light",
        "Tower": "Point Montara Light",
        "http://dbpedia.org/ontology/height": "9.126251701572157"
    },
    {
        "http://dbpedia.org/ontology/Tower": "http://dbpedia.org/resource/Queenscliff_High_Light",
        "Tower": "Queenscliff High Light",
        "http://dbpedia.org/ontology/height": "18.43357229726476"
    },
    {
        "http://dbpedia.org/ontology/Tower": "http://dbpedia.org/resource/Georges_Island_Lighthouse",
        "Tower": "Georges Island Lighthouse",
        "http://dbpedia.org/ontology/height": "15.403766452436056"
    },
    {
        "http://dbpedia.org/ontology/Tower": "http://dbpedia.org/resource/Poverty_Island_Light_Station",
        "Tower": "Poverty Island Light Station",
        "http://dbpedia.org/ontology/height": "18.438649662987764"
    },
    {
        "http://dbpedia.org/ontology/Tower": "http://dbpedia.org/resource/Anguillita",
        "Tower": "Anguillita",
        "http://dbpedia.org/ontology/height": "7.6450106840718846"
    },
    {
        "http://dbpedia.org/ontology/Tower": "http://dbpedia.org/resource/Grand_Traverse_Light",
        "Tower": "Grand Traverse Light",
        "http://dbpedia.org/ontology/height": "13.355691750993579"
    },
    {
        "http://dbpedia.org/ontology/Tower": "http://dbpedia.org/resource/Point_of_Ayr_Lighthouse",
        "Tower": "Point of Ayr Lighthouse",
        "http://dbpedia.org/ontology/height": "17.779474262872533"
    },
    {
        "http://dbpedia.org/ontology/Tower": "http://dbpedia.org/resource/Point_Betsie_Light",
        "Tower": "Point Betsie Light",
        "http://dbpedia.org/ontology/height": "11.863571577732664"
    },
    {
        "http://dbpedia.org/ontology/Tower": "http://dbpedia.org/resource/Sabine_Pass_Lighthouse",
        "Tower": "Sabine Pass Lighthouse",
        "http://dbpedia.org/ontology/height": "23.293252646307735"
    },
    {
        "http://dbpedia.org/ontology/Tower": "http://dbpedia.org/resource/Ve_Skerries",
        "Tower": "Ve Skerries",
        "http://dbpedia.org/ontology/height": "15.89991642103048"
    },
    {
        "http://dbpedia.org/ontology/Tower": "http://dbpedia.org/resource/Astola_Island",
        "Tower": "Astola Island",
        "http://dbpedia.org/ontology/height": "9.446492552985458"
    },
    {
        "http://dbpedia.org/ontology/Tower": "http://dbpedia.org/resource/Ytteroyane_Lighthouse",
        "Tower": "Ytteroyane Lighthouse",
        "http://dbpedia.org/ontology/height": "19.437746849750603"
    },
    {
        "http://dbpedia.org/ontology/Tower": "http://dbpedia.org/resource/Rattray_Head",
        "Tower": "Rattray Head",
        "http://dbpedia.org/ontology/height": "33.734039688364845"
    },
    {
        "http://dbpedia.org/ontology/Tower": "http://dbpedia.org/resource/Ulla_Lighthouse",
        "Tower": "Ulla Lighthouse",
        "http://dbpedia.org/ontology/height": "11.35928301171352"
    },
    {
        "http://dbpedia.org/ontology/Tower": "http://dbpedia.org/resource/Tacking_Point_Lighthouse",
        "Tower": "Tacking Point Lighthouse",
        "http://dbpedia.org/ontology/height": "7.588403766027027"
    },
    {
        "http://dbpedia.org/ontology/Tower": "http://dbpedia.org/resource/New_Burnett_Heads_Light",
        "Tower": "New Burnett Heads Light",
        "http://dbpedia.org/ontology/height": "18.81313656934721"
    },
    {
        "http://dbpedia.org/ontology/Tower": "http://dbpedia.org/resource/Klein_Curacao",
        "Tower": "Klein Curacao",
        "http://dbpedia.org/ontology/height": "19.3572354957949"
    },
    {
        "http://dbpedia.org/ontology/Tower": "http://dbpedia.org/resource/Cape_Charles_Light",
        "Tower": "Cape Charles Light",
        "http://dbpedia.org/ontology/height": "62.22141106376356"
    },
    {
        "http://dbpedia.org/ontology/Tower": "http://dbpedia.org/resource/Nosappumisaki_Lighthouse",
        "Tower": "Nosappumisaki Lighthouse",
        "http://dbpedia.org/ontology/height": "13.270891691648844"
    },
    {
        "http://dbpedia.org/ontology/Tower": "http://dbpedia.org/resource/Baily_Lighthouse",
        "Tower": "Baily Lighthouse",
        "http://dbpedia.org/ontology/height": "13.471147412565156"
    },
    {
        "http://dbpedia.org/ontology/Tower": "http://dbpedia.org/resource/Murray_Harbour_Range_Lights",
        "Tower": "Murray Harbour Range Lights",
        "http://dbpedia.org/ontology/height": "6.989198685675008"
    },
    {
        "http://dbpedia.org/ontology/Tower": "http://dbpedia.org/resource/Devils_Island_Light_(Nova_Scotia)",
        "Tower": "Devils Island Light (Nova Scotia)",
        "http://dbpedia.org/ontology/height": "12.837223031553384"
    },
    {
        "http://dbpedia.org/ontology/Tower": "http://dbpedia.org/resource/Dutch_Gap_Canal_Lights",
        "Tower": "Dutch Gap Canal Lights",
        "http://dbpedia.org/ontology/height": "8.309236242303891"
    },
    {
        "http://dbpedia.org/ontology/Tower": "http://dbpedia.org/resource/Bradleys_Head_Light",
        "Tower": "Bradleys Head Light",
        "http://dbpedia.org/ontology/height": "5.7493481278762735"
    },
    {
        "http://dbpedia.org/ontology/Tower": "http://dbpedia.org/resource/North_Point_Light",
        "Tower": "North Point Light",
        "http://dbpedia.org/ontology/height": "21.76010473762098"
    },
    {
        "http://dbpedia.org/ontology/Tower": "http://dbpedia.org/resource/Watts_Island_Light",
        "Tower": "Watts Island Light",
        "http://dbpedia.org/ontology/height": "15.487944573557456"
    },
    {
        "http://dbpedia.org/ontology/Tower": "http://dbpedia.org/resource/Bellevue_Range_Rear_Light",
        "Tower": "Bellevue Range Rear Light",
        "http://dbpedia.org/ontology/height": "27.43956646899001"
    },
    {
        "http://dbpedia.org/ontology/Tower": "http://dbpedia.org/resource/Ras_Muari",
        "Tower": "Ras Muari",
        "http://dbpedia.org/ontology/height": "45.78781280339281"
    },
    {
        "http://dbpedia.org/ontology/Tower": "http://dbpedia.org/resource/St._Johns_Light",
        "Tower": "St. Johns Light",
        "http://dbpedia.org/ontology/height": "18.756835091877548"
    },
    {
        "http://dbpedia.org/ontology/Tower": "http://dbpedia.org/resource/Skrova_Lighthouse",
        "Tower": "Skrova Lighthouse",
        "http://dbpedia.org/ontology/height": "24.629623693275178"
    },
    {
        "http://dbpedia.org/ontology/Tower": "http://dbpedia.org/resource/Ona_Lighthouse",
        "Tower": "Ona Lighthouse",
        "http://dbpedia.org/ontology/height": "15.300388491571006"
    },
    {
        "http://dbpedia.org/ontology/Tower": "http://dbpedia.org/resource/Bari_Light",
        "Tower": "Bari Light",
        "http://dbpedia.org/ontology/height": "63.00485135699596"
    },
    {
        "http://dbpedia.org/ontology/Tower": "http://dbpedia.org/resource/Pakri_Lighthouse",
        "Tower": "Pakri Lighthouse",
        "http://dbpedia.org/ontology/height": "49.375065003868954"
    },
    {
        "http://dbpedia.org/ontology/Tower": "http://dbpedia.org/resource/Matumbi_Lighthouse",
        "Tower": "Matumbi Lighthouse",
        "http://dbpedia.org/ontology/height": "30.49419191921767"
    },
    {
        "http://dbpedia.org/ontology/Tower": "http://dbpedia.org/resource/Guard_Island_Light",
        "Tower": "Guard Island Light",
        "http://dbpedia.org/ontology/height": "9.101500079147655"
    },
    {
        "http://dbpedia.org/ontology/Tower": "http://dbpedia.org/resource/Godrevy_Lighthouse",
        "Tower": "Godrevy Lighthouse",
        "http://dbpedia.org/ontology/height": "28.543739261461678"
    },
    {
        "http://dbpedia.org/ontology/Tower": "http://dbpedia.org/resource/Withernsea_Lighthouse",
        "Tower": "Withernsea Lighthouse",
        "http://dbpedia.org/ontology/height": "37.293950114012276"
    },
    {
        "http://dbpedia.org/ontology/Tower": "http://dbpedia.org/resource/Point_Prim_Lighthouse",
        "Tower": "Point Prim Lighthouse",
        "http://dbpedia.org/ontology/height": "12.700737400650048"
    },
    {
        "http://dbpedia.org/ontology/Tower": "http://dbpedia.org/resource/Plum_Island_Light",
        "Tower": "Plum Island Light",
        "http://dbpedia.org/ontology/height": "15.38660002293333"
    },
    {
        "http://dbpedia.org/ontology/Tower": "http://dbpedia.org/resource/Five_Finger_Islands_Light",
        "Tower": "Five Finger Islands Light",
        "http://dbpedia.org/ontology/height": "21.48550584568293"
    },
    {
        "http://dbpedia.org/ontology/Tower": "http://dbpedia.org/resource/Boston_Light",
        "Tower": "Boston Light",
        "http://dbpedia.org/ontology/height": "25.593227024131327"
    },
    {
        "http://dbpedia.org/ontology/Tower": "http://dbpedia.org/resource/Tranoy_Lighthouse",
        "Tower": "Tranoy Lighthouse",
        "http://dbpedia.org/ontology/height": "27.08672228527478"
    },
    {
        "http://dbpedia.org/ontology/Tower": "http://dbpedia.org/resource/Grinna_Lighthouse",
        "Tower": "Grinna Lighthouse",
        "http://dbpedia.org/ontology/height": "18.31288782876519"
    },
    {
        "http://dbpedia.org/ontology/Tower": "http://dbpedia.org/resource/Asenvagoy_Lighthouse",
        "Tower": "Asenvagoy Lighthouse",
        "http://dbpedia.org/ontology/height": "14.613526633304016"
    },
    {
        "http://dbpedia.org/ontology/Tower": "http://dbpedia.org/resource/Ferryland_Head_Light",
        "Tower": "Ferryland Head Light",
        "http://dbpedia.org/ontology/height": "14.45457705614409"
    },
    {
        "http://dbpedia.org/ontology/Tower": "http://dbpedia.org/resource/Point_Judith_Light",
        "Tower": "Point Judith Light",
        "http://dbpedia.org/ontology/height": "14.321509646803333"
    },
    {
        "http://dbpedia.org/ontology/Tower": "http://dbpedia.org/resource/Strumble_Head_Lighthouse",
        "Tower": "Strumble Head Lighthouse",
        "http://dbpedia.org/ontology/height": "17.28135671724682"
    },
    {
        "http://dbpedia.org/ontology/Tower": "http://dbpedia.org/resource/Kapp_Linne",
        "Tower": "Kapp Linne",
        "http://dbpedia.org/ontology/height": "13.673892888440863"
    },
    {
        "http://dbpedia.org/ontology/Tower": "http://dbpedia.org/resource/Pass_Manchac_Light",
        "Tower": "Pass Manchac Light",
        "http://dbpedia.org/ontology/height": "11.298225107127589"
    },
    {
        "http://dbpedia.org/ontology/Tower": "http://dbpedia.org/resource/Cape_Fourcroy_Light",
        "Tower": "Cape Fourcroy Light",
        "http://dbpedia.org/ontology/height": "13.873815082975847"
    },
    {
        "http://dbpedia.org/ontology/Tower": "http://dbpedia.org/resource/Baishamen_Lighthouse",
        "Tower": "Baishamen Lighthouse",
        "http://dbpedia.org/ontology/height": "69.55684916314553"
    },
    {
        "http://dbpedia.org/ontology/Tower": "http://dbpedia.org/resource/Sheringham_Point_Light",
        "Tower": "Sheringham Point Light",
        "http://dbpedia.org/ontology/height": "19.647442094578288"
    },
    {
        "http://dbpedia.org/ontology/Tower": "http://dbpedia.org/resource/Batticaloa_Lighthouse",
        "Tower": "Batticaloa Lighthouse",
        "http://dbpedia.org/ontology/height": "28.760122706324704"
    },
    {
        "http://dbpedia.org/ontology/Tower": "http://dbpedia.org/resource/Scilla_Lighthouse",
        "Tower": "Scilla Lighthouse",
        "http://dbpedia.org/ontology/height": "5.761094464318931"
    },
    {
        "http://dbpedia.org/ontology/Tower": "http://dbpedia.org/resource/Porto_Pi_Lighthouse",
        "Tower": "Porto Pi Lighthouse",
        "http://dbpedia.org/ontology/height": "39.16450657896191"
    },
    {
        "http://dbpedia.org/ontology/Tower": "http://dbpedia.org/resource/Batag_Island_Lighthouse",
        "Tower": "Batag Island Lighthouse",
        "http://dbpedia.org/ontology/height": "32.400428915253116"
    },
    {
        "http://dbpedia.org/ontology/Tower": "http://dbpedia.org/resource/Barra_Head_Lighthouse",
        "Tower": "Barra Head Lighthouse",
        "http://dbpedia.org/ontology/height": "16.812194592037443"
    },
    {
        "http://dbpedia.org/ontology/Tower": "http://dbpedia.org/resource/Pointe_des_Corbeaux_lighthouse",
        "Tower": "Pointe des Corbeaux lighthouse",
        "http://dbpedia.org/ontology/height": "17.741272470894724"
    },
    {
        "http://dbpedia.org/ontology/Tower": "http://dbpedia.org/resource/Sappi_lighthouse",
        "Tower": "Sappi lighthouse",
        "http://dbpedia.org/ontology/height": "28.811604852848838"
    },
    {
        "http://dbpedia.org/ontology/Tower": "http://dbpedia.org/resource/Cloch",
        "Tower": "Cloch",
        "http://dbpedia.org/ontology/height": "23.14968065931233"
    },
    {
        "http://dbpedia.org/ontology/Tower": "http://dbpedia.org/resource/Osmussaare_Lighthouse",
        "Tower": "Osmussaare Lighthouse",
        "http://dbpedia.org/ontology/height": "11.679775250972622"
    },
    {
        "http://dbpedia.org/ontology/Tower": "http://dbpedia.org/resource/Newport_Harbor_Light",
        "Tower": "Newport Harbor Light",
        "http://dbpedia.org/ontology/height": "10.97509846241892"
    },
    {
        "http://dbpedia.org/ontology/Tower": "http://dbpedia.org/resource/Big_Bay_Point_Light",
        "Tower": "Big Bay Point Light",
        "http://dbpedia.org/ontology/height": "21.278939052335325"
    },
    {
        "http://dbpedia.org/ontology/Tower": "http://dbpedia.org/resource/Rodkallen",
        "Tower": "Rodkallen",
        "http://dbpedia.org/ontology/height": "22.152122199082168"
    },
    {
        "http://dbpedia.org/ontology/Tower": "http://dbpedia.org/resource/Hellisoy_Lighthouse",
        "Tower": "Hellisoy Lighthouse",
        "http://dbpedia.org/ontology/height": "31.208118916212847"
    },
    {
        "http://dbpedia.org/ontology/Tower": "http://dbpedia.org/resource/Flat_Top_Island_Light",
        "Tower": "Flat Top Island Light",
        "http://dbpedia.org/ontology/height": "9.644900411634751"
    },
    {
        "http://dbpedia.org/ontology/Tower": "http://dbpedia.org/resource/Muckle_Skerry",
        "Tower": "Muckle Skerry",
        "http://dbpedia.org/ontology/height": "36.96416005747843"
    },
    {
        "http://dbpedia.org/ontology/Tower": "http://dbpedia.org/resource/South_Channel_Pile_Light",
        "Tower": "South Channel Pile Light",
        "http://dbpedia.org/ontology/height": "9.435366042108619"
    },
    {
        "http://dbpedia.org/ontology/Tower": "http://dbpedia.org/resource/Cape_Beale_Light",
        "Tower": "Cape Beale Light",
        "http://dbpedia.org/ontology/height": "10.007815957599787"
    },
    {
        "http://dbpedia.org/ontology/Tower": "http://dbpedia.org/resource/L'Armendeche_lighthouse",
        "Tower": "L'Armendeche lighthouse",
        "http://dbpedia.org/ontology/height": "35.091541424738836"
    },
    {
        "http://dbpedia.org/ontology/Tower": "http://dbpedia.org/resource/Kubassaare_Lighthouse",
        "Tower": "Kubassaare Lighthouse",
        "http://dbpedia.org/ontology/height": "19.149285035709696"
    },
    {
        "http://dbpedia.org/ontology/Tower": "http://dbpedia.org/resource/Gibraltar_Detached_Mole_(%22B%22_Head)_Lighthouse",
        "Tower": "Gibraltar Detached Mole (\"B\" Head) Lighthouse",
        "http://dbpedia.org/ontology/height": "10.801932143997686"
    },
    {
        "http://dbpedia.org/ontology/Tower": "http://dbpedia.org/resource/Tybee_Island_Light",
        "Tower": "Tybee Island Light",
        "http://dbpedia.org/ontology/height": "43.79990135872642"
    },
    {
        "http://dbpedia.org/ontology/Tower": "http://dbpedia.org/resource/Ogami_Lighthouse",
        "Tower": "Ogami Lighthouse",
        "http://dbpedia.org/ontology/height": "10.910838267182562"
    },
    {
        "http://dbpedia.org/ontology/Tower": "http://dbpedia.org/resource/Hoo_Stack",
        "Tower": "Hoo Stack",
        "http://dbpedia.org/ontology/height": "7.785822430010491"
    },
    {
        "http://dbpedia.org/ontology/Tower": "http://dbpedia.org/resource/Slatteroy_Lighthouse",
        "Tower": "Slatteroy Lighthouse",
        "http://dbpedia.org/ontology/height": "25.53782368246448"
    },
    {
        "http://dbpedia.org/ontology/Tower": "http://dbpedia.org/resource/Fourteen_Foot_Shoal_Light",
        "Tower": "Fourteen Foot Shoal Light",
        "http://dbpedia.org/ontology/height": "10.67895104756641"
    },
    {
        "http://dbpedia.org/ontology/Tower": "http://dbpedia.org/resource/Turkey_Point_Light",
        "Tower": "Turkey Point Light",
        "http://dbpedia.org/ontology/height": "10.577471279544792"
    },
    {
        "http://dbpedia.org/ontology/Tower": "http://dbpedia.org/resource/Dondra_Head_Lighthouse",
        "Tower": "Dondra Head Lighthouse",
        "http://dbpedia.org/ontology/height": "51.471543050457775"
    },
    {
        "http://dbpedia.org/ontology/Tower": "http://dbpedia.org/resource/Low_Point_Lighthouse",
        "Tower": "Low Point Lighthouse",
        "http://dbpedia.org/ontology/height": "22.472691414965592"
    },
    {
        "http://dbpedia.org/ontology/Tower": "http://dbpedia.org/resource/Cat_Island_Light",
        "Tower": "Cat Island Light",
        "http://dbpedia.org/ontology/height": "8.270788643900476"
    },
    {
        "http://dbpedia.org/ontology/Tower": "http://dbpedia.org/resource/St._David's_Lighthouse",
        "Tower": "St. David's Lighthouse",
        "http://dbpedia.org/ontology/height": "20.93477235659041"
    },
    {
        "http://dbpedia.org/ontology/Tower": "http://dbpedia.org/resource/Cape_Finisterre_Lighthouse",
        "Tower": "Cape Finisterre Lighthouse",
        "http://dbpedia.org/ontology/height": "17.221438636303745"
    },
    {
        "http://dbpedia.org/ontology/Tower": "http://dbpedia.org/resource/Nyholmen_Lighthouse",
        "Tower": "Nyholmen Lighthouse",
        "http://dbpedia.org/ontology/height": "6.913221002326047"
    },
    {
        "http://dbpedia.org/ontology/Tower": "http://dbpedia.org/resource/Jastarnia_Lighthouse",
        "Tower": "Jastarnia Lighthouse",
        "http://dbpedia.org/ontology/height": "16.96263931662705"
    },
    {
        "http://dbpedia.org/ontology/Tower": "http://dbpedia.org/resource/Fishing_Battery_Light",
        "Tower": "Fishing Battery Light",
        "http://dbpedia.org/ontology/height": "9.095820997208186"
    },
    {
        "http://dbpedia.org/ontology/Tower": "http://dbpedia.org/resource/Tarpaulin_Cove_Light",
        "Tower": "Tarpaulin Cove Light",
        "http://dbpedia.org/ontology/height": "8.332373743549487"
    },
    {
        "http://dbpedia.org/ontology/Tower": "http://dbpedia.org/resource/Heligoland_lighthouse",
        "Tower": "Heligoland lighthouse",
        "http://dbpedia.org/ontology/height": "33.302423188352044"
    },
    {
        "http://dbpedia.org/ontology/Tower": "http://dbpedia.org/resource/Saginaw_River_Rear_Range_Light",
        "Tower": "Saginaw River Rear Range Light",
        "http://dbpedia.org/ontology/height": "18.436799810593513"
    },
    {
        "http://dbpedia.org/ontology/Tower": "http://dbpedia.org/resource/Tybee_Island_Range_Front_Light",
        "Tower": "Tybee Island Range Front Light",
        "http://dbpedia.org/ontology/height": "7.953284430758727"
    },
    {
        "http://dbpedia.org/ontology/Tower": "http://dbpedia.org/resource/Rovaersholmen_Lighthouse",
        "Tower": "Rovaersholmen Lighthouse",
        "http://dbpedia.org/ontology/height": "15.95737809999231"
    },
    {
        "http://dbpedia.org/ontology/Tower": "http://dbpedia.org/resource/Ashkelon_Marina_Breakwater_Light",
        "Tower": "Ashkelon Marina Breakwater Light",
        "http://dbpedia.org/ontology/height": "19.347963294785465"
    },
    {
        "http://dbpedia.org/ontology/Tower": "http://dbpedia.org/resource/Caribou_Island_Light",
        "Tower": "Caribou Island Light",
        "http://dbpedia.org/ontology/height": "29.672149024837765"
    },
    {
        "http://dbpedia.org/ontology/Tower": "http://dbpedia.org/resource/Long_Point_Lighthouse",
        "Tower": "Long Point Lighthouse",
        "http://dbpedia.org/ontology/height": "16.246301253505113"
    },
    {
        "http://dbpedia.org/ontology/Tower": "http://dbpedia.org/resource/Gora_Szwedow_Lighthouse",
        "Tower": "Gora Szwedow Lighthouse",
        "http://dbpedia.org/ontology/height": "15.82111629781846"
    },
    {
        "http://dbpedia.org/ontology/Tower": "http://dbpedia.org/resource/Neenah_Light",
        "Tower": "Neenah Light",
        "http://dbpedia.org/ontology/height": "14.472017184674348"
    },
    {
        "http://dbpedia.org/ontology/Tower": "http://dbpedia.org/resource/Stora_Karlso_Lighthouse",
        "Tower": "Stora Karlso Lighthouse",
        "http://dbpedia.org/ontology/height": "16.672772014451297"
    },
    {
        "http://dbpedia.org/ontology/Tower": "http://dbpedia.org/resource/Pilsum_Lighthouse",
        "Tower": "Pilsum Lighthouse",
        "http://dbpedia.org/ontology/height": "11.50885785224193"
    },
    {
        "http://dbpedia.org/ontology/Tower": "http://dbpedia.org/resource/Morant_Cays_Lighthouse",
        "Tower": "Morant Cays Lighthouse",
        "http://dbpedia.org/ontology/height": "19.081300663038448"
    },
    {
        "http://dbpedia.org/ontology/Tower": "http://dbpedia.org/resource/Portishead_Point_lighthouse",
        "Tower": "Portishead Point lighthouse",
        "http://dbpedia.org/ontology/height": "8.790744546310927"
    },
    {
        "http://dbpedia.org/ontology/Tower": "http://dbpedia.org/resource/Capo_dell'Armi_Lighthouse",
        "Tower": "Capo dell'Armi Lighthouse",
        "http://dbpedia.org/ontology/height": "12.768918405108073"
    },
    {
        "http://dbpedia.org/ontology/Tower": "http://dbpedia.org/resource/Gruney",
        "Tower": "Gruney",
        "http://dbpedia.org/ontology/height": "6.836358275897712"
    },
    {
        "http://dbpedia.org/ontology/Tower": "http://dbpedia.org/resource/Umm_an_Namil_Island",
        "Tower": "Umm an Namil Island",
        "http://dbpedia.org/ontology/height": "17.386429384402263"
    },
    {
        "http://dbpedia.org/ontology/Tower": "http://dbpedia.org/resource/Tasman_Island_Lighthouse",
        "Tower": "Tasman Island Lighthouse",
        "http://dbpedia.org/ontology/height": "28.061882482728873"
    },
    {
        "http://dbpedia.org/ontology/Tower": "http://dbpedia.org/resource/Lime_Point_Light",
        "Tower": "Lime Point Light",
        "http://dbpedia.org/ontology/height": "6.099160158567367"
    },
    {
        "http://dbpedia.org/ontology/Tower": "http://dbpedia.org/resource/Rinns_of_Islay",
        "Tower": "Rinns of Islay",
        "http://dbpedia.org/ontology/height": "30.165720268543986"
    },
    {
        "http://dbpedia.org/ontology/Tower": "http://dbpedia.org/resource/Hendurabi",
        "Tower": "Hendurabi",
        "http://dbpedia.org/ontology/height": "29.424546273044104"
    },
    {
        "http://dbpedia.org/ontology/Tower": "http://dbpedia.org/resource/Kopu_Lighthouse",
        "Tower": "Kopu Lighthouse",
        "http://dbpedia.org/ontology/height": "34.570070255076814"
    },
    {
        "http://dbpedia.org/ontology/Tower": "http://dbpedia.org/resource/Harmaja",
        "Tower": "Harmaja",
        "http://dbpedia.org/ontology/height": "14.114394338275906"
    },
    {
        "http://dbpedia.org/ontology/Tower": "http://dbpedia.org/resource/Juodkrante_Lighthouse",
        "Tower": "Juodkrante Lighthouse",
        "http://dbpedia.org/ontology/height": "19.789761659292814"
    },
    {
        "http://dbpedia.org/ontology/Tower": "http://dbpedia.org/resource/Triton_Light",
        "Tower": "Triton Light",
        "http://dbpedia.org/ontology/height": "7.1368034086909535"
    },
    {
        "http://dbpedia.org/ontology/Tower": "http://dbpedia.org/resource/Capo_Sandalo_Lighthouse",
        "Tower": "Capo Sandalo Lighthouse",
        "http://dbpedia.org/ontology/height": "27.851455036335352"
    },
    {
        "http://dbpedia.org/ontology/Tower": "http://dbpedia.org/resource/Phare_du_Cap_Leucate",
        "Tower": "Phare du Cap Leucate",
        "http://dbpedia.org/ontology/height": "20.476729348906275"
    },
    {
        "http://dbpedia.org/ontology/Tower": "http://dbpedia.org/resource/Menominee_Pier_Light",
        "Tower": "Menominee Pier Light",
        "http://dbpedia.org/ontology/height": "11.22140778174817"
    },
    {
        "http://dbpedia.org/ontology/Tower": "http://dbpedia.org/resource/Robertson_Point_Light",
        "Tower": "Robertson Point Light",
        "http://dbpedia.org/ontology/height": "7.92821065616477"
    },
    {
        "http://dbpedia.org/ontology/Tower": "http://dbpedia.org/resource/Peerie_Bard",
        "Tower": "Peerie Bard",
        "http://dbpedia.org/ontology/height": "6.2355453673328265"
    },
    {
        "http://dbpedia.org/ontology/Tower": "http://dbpedia.org/resource/Essex_Reef_Light",
        "Tower": "Essex Reef Light",
        "http://dbpedia.org/ontology/height": "6.862676450637668"
    },
    {
        "http://dbpedia.org/ontology/Tower": "http://dbpedia.org/resource/Shirasu_Lighthouse",
        "Tower": "Shirasu Lighthouse",
        "http://dbpedia.org/ontology/height": "17.949848687748435"
    },
    {
        "http://dbpedia.org/ontology/Tower": "http://dbpedia.org/resource/Asvaer_Lighthouse",
        "Tower": "Asvaer Lighthouse",
        "http://dbpedia.org/ontology/height": "18.153415333924645"
    },
    {
        "http://dbpedia.org/ontology/Tower": "http://dbpedia.org/resource/South_Neptune_Island_Lighthouse",
        "Tower": "South Neptune Island Lighthouse",
        "http://dbpedia.org/ontology/height": "8.395396423467643"
    },
    {
        "http://dbpedia.org/ontology/Tower": "http://dbpedia.org/resource/Hellevik_Lighthouse",
        "Tower": "Hellevik Lighthouse",
        "http://dbpedia.org/ontology/height": "6.563982827968337"
    },
    {
        "http://dbpedia.org/ontology/Tower": "http://dbpedia.org/resource/Farsi_Island",
        "Tower": "Farsi Island",
        "http://dbpedia.org/ontology/height": "21.237103978795794"
    },
    {
        "http://dbpedia.org/ontology/Tower": "http://dbpedia.org/resource/Bakers_Island_Light",
        "Tower": "Bakers Island Light",
        "http://dbpedia.org/ontology/height": "18.844172255248484"
    },
    {
        "http://dbpedia.org/ontology/Tower": "http://dbpedia.org/resource/Pumpkin_Island_Light",
        "Tower": "Pumpkin Island Light",
        "http://dbpedia.org/ontology/height": "7.357880871859576"
    },
    {
        "http://dbpedia.org/ontology/Tower": "http://dbpedia.org/resource/Grotto_Point_Light",
        "Tower": "Grotto Point Light",
        "http://dbpedia.org/ontology/height": "8.15806947013436"
    },
    {
        "http://dbpedia.org/ontology/Tower": "http://dbpedia.org/resource/Phare_du_Creach",
        "Tower": "Phare du Creach",
        "http://dbpedia.org/ontology/height": "56.24105530819314"
    },
    {
        "http://dbpedia.org/ontology/Tower": "http://dbpedia.org/resource/Fangyuan_Lighthouse",
        "Tower": "Fangyuan Lighthouse",
        "http://dbpedia.org/ontology/height": "39.56496098960645"
    },
    {
        "http://dbpedia.org/ontology/Tower": "http://dbpedia.org/resource/Ar_Men",
        "Tower": "Ar Men",
        "http://dbpedia.org/ontology/height": "32.10895968641744"
    },
    {
        "http://dbpedia.org/ontology/Tower": "http://dbpedia.org/resource/Cairns_of_Coll",
        "Tower": "Cairns of Coll",
        "http://dbpedia.org/ontology/height": "8.034647403497956"
    },
    {
        "http://dbpedia.org/ontology/Tower": "http://dbpedia.org/resource/Malpeque_Outer_Range_Lights",
        "Tower": "Malpeque Outer Range Lights",
        "http://dbpedia.org/ontology/height": "13.366190068135033"
    },
    {
        "http://dbpedia.org/ontology/Tower": "http://dbpedia.org/resource/Scheveningen_Lighthouse",
        "Tower": "Scheveningen Lighthouse",
        "http://dbpedia.org/ontology/height": "29.610752995577588"
    },
    {
        "http://dbpedia.org/ontology/Tower": "http://dbpedia.org/resource/Brockton_Point_Lighthouse",
        "Tower": "Brockton Point Lighthouse",
        "http://dbpedia.org/ontology/height": "95.94356259507639"
    },
    {
        "http://dbpedia.org/ontology/Tower": "http://dbpedia.org/resource/Farne_Lighthouse",
        "Tower": "Farne Lighthouse",
        "http://dbpedia.org/ontology/height": "14.21501504371127"
    },
    {
        "http://dbpedia.org/ontology/Tower": "http://dbpedia.org/resource/Minneapolis_Shoal_Light_Station",
        "Tower": "Minneapolis Shoal Light Station",
        "http://dbpedia.org/ontology/height": "21.072991419569398"
    },
    {
        "http://dbpedia.org/ontology/Tower": "http://dbpedia.org/resource/Manitowoc_Breakwater_Light",
        "Tower": "Manitowoc Breakwater Light",
        "http://dbpedia.org/ontology/height": "11.09210647770269"
    },
    {
        "http://dbpedia.org/ontology/Tower": "http://dbpedia.org/resource/Capul_Island_Lighthouse",
        "Tower": "Capul Island Lighthouse",
        "http://dbpedia.org/ontology/height": "11.066068736897256"
    },
    {
        "http://dbpedia.org/ontology/Tower": "http://dbpedia.org/resource/Wollongong_Breakwater_Lighthouse",
        "Tower": "Wollongong Breakwater Lighthouse",
        "http://dbpedia.org/ontology/height": "11.732793229895224"
    },
    {
        "http://dbpedia.org/ontology/Tower": "http://dbpedia.org/resource/Lighthouse_of_Ponta_dos_Capelinhos",
        "Tower": "Lighthouse of Ponta dos Capelinhos",
        "http://dbpedia.org/ontology/height": "18.868416305233133"
    },
    {
        "http://dbpedia.org/ontology/Tower": "http://dbpedia.org/resource/Kadikoy_Inciburnu_Feneri",
        "Tower": "Kadikoy Inciburnu Feneri",
        "http://dbpedia.org/ontology/height": "10.905162322488662"
    },
    {
        "http://dbpedia.org/ontology/Tower": "http://dbpedia.org/resource/Flamborough_Head_Lighthouse",
        "Tower": "Flamborough Head Lighthouse",
        "http://dbpedia.org/ontology/height": "25.662670977377978"
    },
    {
        "http://dbpedia.org/ontology/Tower": "http://dbpedia.org/resource/Coxsackie_Light",
        "Tower": "Coxsackie Light",
        "http://dbpedia.org/ontology/height": "10.391774024334946"
    }
]