[
    {
        "http://dbpedia.org/ontology/Hospital": "http://dbpedia.org/resource/Mayo_Hospital_(Thailand)",
        "Hospital": "Mayo Hospital (Thailand)",
        "http://dbpedia.org/ontology/openingYear": "1840"
    },
    {
        "http://dbpedia.org/ontology/Hospital": "http://dbpedia.org/resource/St_Ann's_Hospital,_Dorset",
        "Hospital": "St Ann's Hospital, Dorset",
        "http://dbpedia.org/ontology/openingYear": "1865"
    },
    {
        "http://dbpedia.org/ontology/Hospital": "http://dbpedia.org/resource/Park_Prewett_Hospital",
        "Hospital": "Park Prewett Hospital",
        "http://dbpedia.org/ontology/openingYear": "1822"
    },
    {
        "http://dbpedia.org/ontology/Hospital": "http://dbpedia.org/resource/Hunterdon_Medical_Center",
        "Hospital": "Hunterdon Medical Center",
        "http://dbpedia.org/ontology/openingYear": "2039"
    },
    {
        "http://dbpedia.org/ontology/Hospital": "http://dbpedia.org/resource/Belvoir_Park_Hospital",
        "Hospital": "Belvoir Park Hospital",
        "http://dbpedia.org/ontology/openingYear": "1798"
    },
    {
        "http://dbpedia.org/ontology/Hospital": "http://dbpedia.org/resource/Dr._Jose_N._Rodriguez_Memorial_Hospital",
        "Hospital": "Dr. Jose N. Rodriguez Memorial Hospital",
        "http://dbpedia.org/ontology/openingYear": "2051"
    },
    {
        "http://dbpedia.org/ontology/Hospital": "http://dbpedia.org/resource/St._Joseph_Medical_Center_(Kansas_City,_Missouri)",
        "Hospital": "St. Joseph Medical Center (Kansas City, Missouri)",
        "http://dbpedia.org/ontology/openingYear": "1729"
    },
    {
        "http://dbpedia.org/ontology/Hospital": "http://dbpedia.org/resource/Kingsbridge_Private_Hospital_Sligo",
        "Hospital": "Kingsbridge Private Hospital Sligo",
        "http://dbpedia.org/ontology/openingYear": "2053"
    },
    {
        "http://dbpedia.org/ontology/Hospital": "http://dbpedia.org/resource/CentraState_Medical_Center",
        "Hospital": "CentraState Medical Center",
        "http://dbpedia.org/ontology/openingYear": "1937"
    },
    {
        "http://dbpedia.org/ontology/Hospital": "http://dbpedia.org/resource/Gospel_Hospital",
        "Hospital": "Gospel Hospital",
        "http://dbpedia.org/ontology/openingYear": "1790"
    },
    {
        "http://dbpedia.org/ontology/Hospital": "http://dbpedia.org/resource/Monash_Children's_Hospital",
        "Hospital": "Monash Children's Hospital",
        "http://dbpedia.org/ontology/openingYear": "1920"
    },
    {
        "http://dbpedia.org/ontology/Hospital": "http://dbpedia.org/resource/Homerton_University_Hospital",
        "Hospital": "Homerton University Hospital",
        "http://dbpedia.org/ontology/openingYear": "1882"
    },
    {
        "http://dbpedia.org/ontology/Hospital": "http://dbpedia.org/resource/Saint_Petersburg_Children's_Hospice",
        "Hospital": "Saint Petersburg Children's Hospice",
        "http://dbpedia.org/ontology/openingYear": "2099"
    },
    {
        "http://dbpedia.org/ontology/Hospital": "http://dbpedia.org/resource/Oulu_University_Hospital",
        "Hospital": "Oulu University Hospital",
        "http://dbpedia.org/ontology/openingYear": "2042"
    },
    {
        "http://dbpedia.org/ontology/Hospital": "http://dbpedia.org/resource/Gorgas_Hospital",
        "Hospital": "Gorgas Hospital",
        "http://dbpedia.org/ontology/openingYear": "1828"
    },
    {
        "http://dbpedia.org/ontology/Hospital": "http://dbpedia.org/resource/Bess_Kaiser_Hospital",
        "Hospital": "Bess Kaiser Hospital",
        "http://dbpedia.org/ontology/openingYear": "1816"
    },
    {
        "http://dbpedia.org/ontology/Hospital": "http://dbpedia.org/resource/Lowell_General_Hospital",
        "Hospital": "Lowell General Hospital",
        "http://dbpedia.org/ontology/openingYear": "1709"
    },
    {
        "http://dbpedia.org/ontology/Hospital": "http://dbpedia.org/resource/The_Alfred_Hospital",
        "Hospital": "The Alfred Hospital",
        "http://dbpedia.org/ontology/openingYear": "1969"
    },
    {
        "http://dbpedia.org/ontology/Hospital": "http://dbpedia.org/resource/St_Petersburg_Psychiatric_Hospital_of_Specialized_Type_with_Intense_Observation",
        "Hospital": "St Petersburg Psychiatric Hospital of Specialized Type with Intense Observation",
        "http://dbpedia.org/ontology/openingYear": "1952"
    },
    {
        "http://dbpedia.org/ontology/Hospital": "http://dbpedia.org/resource/Nassau_University_Medical_Center",
        "Hospital": "Nassau University Medical Center",
        "http://dbpedia.org/ontology/openingYear": "1877"
    },
    {
        "http://dbpedia.org/ontology/Hospital": "http://dbpedia.org/resource/Lakeridge_Health_Oshawa",
        "Hospital": "Lakeridge Health Oshawa",
        "http://dbpedia.org/ontology/openingYear": "1782"
    },
    {
        "http://dbpedia.org/ontology/Hospital": "http://dbpedia.org/resource/Newham_University_Hospital",
        "Hospital": "Newham University Hospital",
        "http://dbpedia.org/ontology/openingYear": "2074"
    },
    {
        "http://dbpedia.org/ontology/Hospital": "http://dbpedia.org/resource/Moses_H._Cone_Memorial_Hospital",
        "Hospital": "Moses H. Cone Memorial Hospital",
        "http://dbpedia.org/ontology/openingYear": "1945"
    },
    {
        "http://dbpedia.org/ontology/Hospital": "http://dbpedia.org/resource/Rauceby_Hospital",
        "Hospital": "Rauceby Hospital",
        "http://dbpedia.org/ontology/openingYear": "1732"
    },
    {
        "http://dbpedia.org/ontology/Hospital": "http://dbpedia.org/resource/University_of_Ottawa_Heart_Institute",
        "Hospital": "University of Ottawa Heart Institute",
        "http://dbpedia.org/ontology/openingYear": "1783"
    },
    {
        "http://dbpedia.org/ontology/Hospital": "http://dbpedia.org/resource/Falmouth_Hospital_(Falmouth,_Jamaica)",
        "Hospital": "Falmouth Hospital (Falmouth, Jamaica)",
        "http://dbpedia.org/ontology/openingYear": "1985"
    },
    {
        "http://dbpedia.org/ontology/Hospital": "http://dbpedia.org/resource/County_Hospital,_Stafford",
        "Hospital": "County Hospital, Stafford",
        "http://dbpedia.org/ontology/openingYear": "2002"
    },
    {
        "http://dbpedia.org/ontology/Hospital": "http://dbpedia.org/resource/Texas_Children's_Cancer_Center",
        "Hospital": "Texas Children's Cancer Center",
        "http://dbpedia.org/ontology/openingYear": "2111"
    },
    {
        "http://dbpedia.org/ontology/Hospital": "http://dbpedia.org/resource/Ugie_Hospital",
        "Hospital": "Ugie Hospital",
        "http://dbpedia.org/ontology/openingYear": "1731"
    },
    {
        "http://dbpedia.org/ontology/Hospital": "http://dbpedia.org/resource/Southlake_Regional_Health_Centre",
        "Hospital": "Southlake Regional Health Centre",
        "http://dbpedia.org/ontology/openingYear": "1791"
    },
    {
        "http://dbpedia.org/ontology/Hospital": "http://dbpedia.org/resource/Denmar_Psychiatric_Hospital",
        "Hospital": "Denmar Psychiatric Hospital",
        "http://dbpedia.org/ontology/openingYear": "1781"
    },
    {
        "http://dbpedia.org/ontology/Hospital": "http://dbpedia.org/resource/Midland_Regional_Hospital,_Portlaoise",
        "Hospital": "Midland Regional Hospital, Portlaoise",
        "http://dbpedia.org/ontology/openingYear": "1748"
    },
    {
        "http://dbpedia.org/ontology/Hospital": "http://dbpedia.org/resource/Billroth_Hospitals",
        "Hospital": "Billroth Hospitals",
        "http://dbpedia.org/ontology/openingYear": "2000"
    },
    {
        "http://dbpedia.org/ontology/Hospital": "http://dbpedia.org/resource/Yangon_Workers'_Hospital",
        "Hospital": "Yangon Workers' Hospital",
        "http://dbpedia.org/ontology/openingYear": "2090"
    },
    {
        "http://dbpedia.org/ontology/Hospital": "http://dbpedia.org/resource/Soroka_Medical_Center",
        "Hospital": "Soroka Medical Center",
        "http://dbpedia.org/ontology/openingYear": "2027"
    },
    {
        "http://dbpedia.org/ontology/Hospital": "http://dbpedia.org/resource/Kiryandongo_General_Hospital",
        "Hospital": "Kiryandongo General Hospital",
        "http://dbpedia.org/ontology/openingYear": "2007"
    },
    {
        "http://dbpedia.org/ontology/Hospital": "http://dbpedia.org/resource/National_Guard_Health_Affairs",
        "Hospital": "National Guard Health Affairs",
        "http://dbpedia.org/ontology/openingYear": "2095"
    },
    {
        "http://dbpedia.org/ontology/Hospital": "http://dbpedia.org/resource/St_Bartholomew's_Hospital,_Rochester",
        "Hospital": "St Bartholomew's Hospital, Rochester",
        "http://dbpedia.org/ontology/openingYear": "1057"
    },
    {
        "http://dbpedia.org/ontology/Hospital": "http://dbpedia.org/resource/Grande_Ronde_Hospital",
        "Hospital": "Grande Ronde Hospital",
        "http://dbpedia.org/ontology/openingYear": "2003"
    },
    {
        "http://dbpedia.org/ontology/Hospital": "http://dbpedia.org/resource/Austen_Riggs_Center",
        "Hospital": "Austen Riggs Center",
        "http://dbpedia.org/ontology/openingYear": "1777"
    },
    {
        "http://dbpedia.org/ontology/Hospital": "http://dbpedia.org/resource/Pusat_Perubatan_Universiti_Kebangsaan_Malaysia",
        "Hospital": "Pusat Perubatan Universiti Kebangsaan Malaysia",
        "http://dbpedia.org/ontology/openingYear": "1810"
    },
    {
        "http://dbpedia.org/ontology/Hospital": "http://dbpedia.org/resource/Fairfield_Hospital,_Bedfordshire",
        "Hospital": "Fairfield Hospital, Bedfordshire",
        "http://dbpedia.org/ontology/openingYear": "1924"
    },
    {
        "http://dbpedia.org/ontology/Hospital": "http://dbpedia.org/resource/St._Elizabeth_Health_Services",
        "Hospital": "St. Elizabeth Health Services",
        "http://dbpedia.org/ontology/openingYear": "2027"
    },
    {
        "http://dbpedia.org/ontology/Hospital": "http://dbpedia.org/resource/Shepherd_Center",
        "Hospital": "Shepherd Center",
        "http://dbpedia.org/ontology/openingYear": "2023"
    },
    {
        "http://dbpedia.org/ontology/Hospital": "http://dbpedia.org/resource/University_Hospital,_New_Orleans",
        "Hospital": "University Hospital, New Orleans",
        "http://dbpedia.org/ontology/openingYear": "1724"
    },
    {
        "http://dbpedia.org/ontology/Hospital": "http://dbpedia.org/resource/Tufts_Medical_Center",
        "Hospital": "Tufts Medical Center",
        "http://dbpedia.org/ontology/openingYear": "1848"
    },
    {
        "http://dbpedia.org/ontology/Hospital": "http://dbpedia.org/resource/St._Joseph's_Hospital_Kitgum",
        "Hospital": "St. Joseph's Hospital Kitgum",
        "http://dbpedia.org/ontology/openingYear": "2129"
    },
    {
        "http://dbpedia.org/ontology/Hospital": "http://dbpedia.org/resource/Arlington_Memorial_Hospital",
        "Hospital": "Arlington Memorial Hospital",
        "http://dbpedia.org/ontology/openingYear": "2094"
    },
    {
        "http://dbpedia.org/ontology/Hospital": "http://dbpedia.org/resource/Western_General_Hospital",
        "Hospital": "Western General Hospital",
        "http://dbpedia.org/ontology/openingYear": "1884"
    },
    {
        "http://dbpedia.org/ontology/Hospital": "http://dbpedia.org/resource/Hunt_Regional_Medical_Center",
        "Hospital": "Hunt Regional Medical Center",
        "http://dbpedia.org/ontology/openingYear": "2133"
    },
    {
        "http://dbpedia.org/ontology/Hospital": "http://dbpedia.org/resource/St._Mary's_Medical_Center_(San_Francisco)",
        "Hospital": "St. Mary's Medical Center (San Francisco)",
        "http://dbpedia.org/ontology/openingYear": "2017"
    },
    {
        "http://dbpedia.org/ontology/Hospital": "http://dbpedia.org/resource/Star_Valley_Medical_Center",
        "Hospital": "Star Valley Medical Center",
        "http://dbpedia.org/ontology/openingYear": "2167"
    },
    {
        "http://dbpedia.org/ontology/Hospital": "http://dbpedia.org/resource/Maxima_Medisch_Centrum",
        "Hospital": "Maxima Medisch Centrum",
        "http://dbpedia.org/ontology/openingYear": "2045"
    },
    {
        "http://dbpedia.org/ontology/Hospital": "http://dbpedia.org/resource/St._John's_Hospital_(Maplewood,_Minnesota)",
        "Hospital": "St. John's Hospital (Maplewood, Minnesota)",
        "http://dbpedia.org/ontology/openingYear": "1796"
    },
    {
        "http://dbpedia.org/ontology/Hospital": "http://dbpedia.org/resource/Royal_Hobart_Hospital",
        "Hospital": "Royal Hobart Hospital",
        "http://dbpedia.org/ontology/openingYear": "1667"
    },
    {
        "http://dbpedia.org/ontology/Hospital": "http://dbpedia.org/resource/Government_Institute_of_Rehabilitation_Medicine,_Chennai",
        "Hospital": "Government Institute of Rehabilitation Medicine, Chennai",
        "http://dbpedia.org/ontology/openingYear": "2025"
    },
    {
        "http://dbpedia.org/ontology/Hospital": "http://dbpedia.org/resource/Roger_Williams_Medical_Center",
        "Hospital": "Roger Williams Medical Center",
        "http://dbpedia.org/ontology/openingYear": "1727"
    },
    {
        "http://dbpedia.org/ontology/Hospital": "http://dbpedia.org/resource/Arrowhead_Regional_Medical_Center",
        "Hospital": "Arrowhead Regional Medical Center",
        "http://dbpedia.org/ontology/openingYear": "2063"
    },
    {
        "http://dbpedia.org/ontology/Hospital": "http://dbpedia.org/resource/Woodland_Park_Hospital",
        "Hospital": "Woodland Park Hospital",
        "http://dbpedia.org/ontology/openingYear": "1813"
    },
    {
        "http://dbpedia.org/ontology/Hospital": "http://dbpedia.org/resource/Mayview_State_Hospital",
        "Hospital": "Mayview State Hospital",
        "http://dbpedia.org/ontology/openingYear": "1710"
    },
    {
        "http://dbpedia.org/ontology/Hospital": "http://dbpedia.org/resource/McKay-Dee_Hospital",
        "Hospital": "McKay-Dee Hospital",
        "http://dbpedia.org/ontology/openingYear": "1944"
    },
    {
        "http://dbpedia.org/ontology/Hospital": "http://dbpedia.org/resource/Stepping_Hill_Hospital",
        "Hospital": "Stepping Hill Hospital",
        "http://dbpedia.org/ontology/openingYear": "1976"
    },
    {
        "http://dbpedia.org/ontology/Hospital": "http://dbpedia.org/resource/R_Adams_Cowley_Shock_Trauma_Center",
        "Hospital": "R Adams Cowley Shock Trauma Center",
        "http://dbpedia.org/ontology/openingYear": "1841"
    },
    {
        "http://dbpedia.org/ontology/Hospital": "http://dbpedia.org/resource/Integris_Southwest_Medical_Center",
        "Hospital": "Integris Southwest Medical Center",
        "http://dbpedia.org/ontology/openingYear": "2104"
    },
    {
        "http://dbpedia.org/ontology/Hospital": "http://dbpedia.org/resource/Ellis_Fischel_Cancer_Center",
        "Hospital": "Ellis Fischel Cancer Center",
        "http://dbpedia.org/ontology/openingYear": "1787"
    },
    {
        "http://dbpedia.org/ontology/Hospital": "http://dbpedia.org/resource/University_Hospital_Waterford",
        "Hospital": "University Hospital Waterford",
        "http://dbpedia.org/ontology/openingYear": "2083"
    },
    {
        "http://dbpedia.org/ontology/Hospital": "http://dbpedia.org/resource/Rosewood_Center",
        "Hospital": "Rosewood Center",
        "http://dbpedia.org/ontology/openingYear": "1871"
    },
    {
        "http://dbpedia.org/ontology/Hospital": "http://dbpedia.org/resource/Queen_Charlotte's_and_Chelsea_Hospital",
        "Hospital": "Queen Charlotte's and Chelsea Hospital",
        "http://dbpedia.org/ontology/openingYear": "1850"
    },
    {
        "http://dbpedia.org/ontology/Hospital": "http://dbpedia.org/resource/Baptist_Health",
        "Hospital": "Baptist Health",
        "http://dbpedia.org/ontology/openingYear": "2046"
    },
    {
        "http://dbpedia.org/ontology/Hospital": "http://dbpedia.org/resource/Jackson_Memorial_Hospital",
        "Hospital": "Jackson Memorial Hospital",
        "http://dbpedia.org/ontology/openingYear": "2040"
    },
    {
        "http://dbpedia.org/ontology/Hospital": "http://dbpedia.org/resource/Royal_Victoria_Regional_Health_Centre",
        "Hospital": "Royal Victoria Regional Health Centre",
        "http://dbpedia.org/ontology/openingYear": "1997"
    },
    {
        "http://dbpedia.org/ontology/Hospital": "http://dbpedia.org/resource/Portiuncula_Hospital",
        "Hospital": "Portiuncula Hospital",
        "http://dbpedia.org/ontology/openingYear": "2092"
    },
    {
        "http://dbpedia.org/ontology/Hospital": "http://dbpedia.org/resource/Atlanta_Medical_Center",
        "Hospital": "Atlanta Medical Center",
        "http://dbpedia.org/ontology/openingYear": "1841"
    },
    {
        "http://dbpedia.org/ontology/Hospital": "http://dbpedia.org/resource/O'Connor_Hospital",
        "Hospital": "O'Connor Hospital",
        "http://dbpedia.org/ontology/openingYear": "1942"
    },
    {
        "http://dbpedia.org/ontology/Hospital": "http://dbpedia.org/resource/Wirral_Women_and_Children's_Hospital",
        "Hospital": "Wirral Women and Children's Hospital",
        "http://dbpedia.org/ontology/openingYear": "1900"
    },
    {
        "http://dbpedia.org/ontology/Hospital": "http://dbpedia.org/resource/St_Margaret's_Hospital,_Sydney",
        "Hospital": "St Margaret's Hospital, Sydney",
        "http://dbpedia.org/ontology/openingYear": "1753"
    },
    {
        "http://dbpedia.org/ontology/Hospital": "http://dbpedia.org/resource/Mease_Dunedin_Hospital",
        "Hospital": "Mease Dunedin Hospital",
        "http://dbpedia.org/ontology/openingYear": "1781"
    },
    {
        "http://dbpedia.org/ontology/Hospital": "http://dbpedia.org/resource/King_Hussein_Cancer_Center",
        "Hospital": "King Hussein Cancer Center",
        "http://dbpedia.org/ontology/openingYear": "1869"
    },
    {
        "http://dbpedia.org/ontology/Hospital": "http://dbpedia.org/resource/Penn_Presbyterian_Medical_Center",
        "Hospital": "Penn Presbyterian Medical Center",
        "http://dbpedia.org/ontology/openingYear": "1835"
    },
    {
        "http://dbpedia.org/ontology/Hospital": "http://dbpedia.org/resource/University_Hospital_Ayr",
        "Hospital": "University Hospital Ayr",
        "http://dbpedia.org/ontology/openingYear": "2014"
    },
    {
        "http://dbpedia.org/ontology/Hospital": "http://dbpedia.org/resource/Kalisizo_General_Hospital",
        "Hospital": "Kalisizo General Hospital",
        "http://dbpedia.org/ontology/openingYear": "1986"
    },
    {
        "http://dbpedia.org/ontology/Hospital": "http://dbpedia.org/resource/Brooklyn_Hospital_Center",
        "Hospital": "Brooklyn Hospital Center",
        "http://dbpedia.org/ontology/openingYear": "1836"
    },
    {
        "http://dbpedia.org/ontology/Hospital": "http://dbpedia.org/resource/Goulburn_Base_Hospital",
        "Hospital": "Goulburn Base Hospital",
        "http://dbpedia.org/ontology/openingYear": "1934"
    },
    {
        "http://dbpedia.org/ontology/Hospital": "http://dbpedia.org/resource/Princess_of_Wales_Hospital",
        "Hospital": "Princess of Wales Hospital",
        "http://dbpedia.org/ontology/openingYear": "1869"
    },
    {
        "http://dbpedia.org/ontology/Hospital": "http://dbpedia.org/resource/Gombe_General_Hospital",
        "Hospital": "Gombe General Hospital",
        "http://dbpedia.org/ontology/openingYear": "1875"
    },
    {
        "http://dbpedia.org/ontology/Hospital": "http://dbpedia.org/resource/Firelands_Regional_Medical_Center",
        "Hospital": "Firelands Regional Medical Center",
        "http://dbpedia.org/ontology/openingYear": "1953"
    },
    {
        "http://dbpedia.org/ontology/Hospital": "http://dbpedia.org/resource/Angal_Hospital",
        "Hospital": "Angal Hospital",
        "http://dbpedia.org/ontology/openingYear": "1767"
    },
    {
        "http://dbpedia.org/ontology/Hospital": "http://dbpedia.org/resource/Vajira_Hospital",
        "Hospital": "Vajira Hospital",
        "http://dbpedia.org/ontology/openingYear": "1981"
    },
    {
        "http://dbpedia.org/ontology/Hospital": "http://dbpedia.org/resource/Jessop_Hospital",
        "Hospital": "Jessop Hospital",
        "http://dbpedia.org/ontology/openingYear": "1935"
    },
    {
        "http://dbpedia.org/ontology/Hospital": "http://dbpedia.org/resource/Providence_Tarzana_Medical_Center",
        "Hospital": "Providence Tarzana Medical Center",
        "http://dbpedia.org/ontology/openingYear": "2037"
    },
    {
        "http://dbpedia.org/ontology/Hospital": "http://dbpedia.org/resource/Victoria_General_Hospital",
        "Hospital": "Victoria General Hospital",
        "http://dbpedia.org/ontology/openingYear": "1951"
    },
    {
        "http://dbpedia.org/ontology/Hospital": "http://dbpedia.org/resource/Hospital_and_Rehabilitation_Centre_for_Disabled_Children",
        "Hospital": "Hospital and Rehabilitation Centre for Disabled Children",
        "http://dbpedia.org/ontology/openingYear": "1847"
    },
    {
        "http://dbpedia.org/ontology/Hospital": "http://dbpedia.org/resource/Bronson_Methodist_Hospital",
        "Hospital": "Bronson Methodist Hospital",
        "http://dbpedia.org/ontology/openingYear": "1973"
    },
    {
        "http://dbpedia.org/ontology/Hospital": "http://dbpedia.org/resource/Good_Samaritan_Medical_Center_(West_Palm_Beach,_Florida)",
        "Hospital": "Good Samaritan Medical Center (West Palm Beach, Florida)",
        "http://dbpedia.org/ontology/openingYear": "2049"
    },
    {
        "http://dbpedia.org/ontology/Hospital": "http://dbpedia.org/resource/Bhisho_Provincial_Hospital",
        "Hospital": "Bhisho Provincial Hospital",
        "http://dbpedia.org/ontology/openingYear": "1912"
    },
    {
        "http://dbpedia.org/ontology/Hospital": "http://dbpedia.org/resource/Travancore_Medical_College_Hospital",
        "Hospital": "Travancore Medical College Hospital",
        "http://dbpedia.org/ontology/openingYear": "1877"
    },
    {
        "http://dbpedia.org/ontology/Hospital": "http://dbpedia.org/resource/Catholic_Medical_Center",
        "Hospital": "Catholic Medical Center",
        "http://dbpedia.org/ontology/openingYear": "1804"
    },
    {
        "http://dbpedia.org/ontology/Hospital": "http://dbpedia.org/resource/Warwick_Hospital",
        "Hospital": "Warwick Hospital",
        "http://dbpedia.org/ontology/openingYear": "2000"
    },
    {
        "http://dbpedia.org/ontology/Hospital": "http://dbpedia.org/resource/Saint_John's_Health_Center",
        "Hospital": "Saint John's Health Center",
        "http://dbpedia.org/ontology/openingYear": "1773"
    },
    {
        "http://dbpedia.org/ontology/Hospital": "http://dbpedia.org/resource/Western_Hospital",
        "Hospital": "Western Hospital",
        "http://dbpedia.org/ontology/openingYear": "2033"
    },
    {
        "http://dbpedia.org/ontology/Hospital": "http://dbpedia.org/resource/Miami_Valley_Hospital",
        "Hospital": "Miami Valley Hospital",
        "http://dbpedia.org/ontology/openingYear": "1903"
    },
    {
        "http://dbpedia.org/ontology/Hospital": "http://dbpedia.org/resource/Bayley_Seton_Hospital",
        "Hospital": "Bayley Seton Hospital",
        "http://dbpedia.org/ontology/openingYear": "1942"
    },
    {
        "http://dbpedia.org/ontology/Hospital": "http://dbpedia.org/resource/Hospital_Tobar_Garcia",
        "Hospital": "Hospital Tobar Garcia",
        "http://dbpedia.org/ontology/openingYear": "1825"
    },
    {
        "http://dbpedia.org/ontology/Hospital": "http://dbpedia.org/resource/UCH_Macmillan_Cancer_Centre",
        "Hospital": "UCH Macmillan Cancer Centre",
        "http://dbpedia.org/ontology/openingYear": "2001"
    },
    {
        "http://dbpedia.org/ontology/Hospital": "http://dbpedia.org/resource/Rakai_General_Hospital",
        "Hospital": "Rakai General Hospital",
        "http://dbpedia.org/ontology/openingYear": "1859"
    },
    {
        "http://dbpedia.org/ontology/Hospital": "http://dbpedia.org/resource/Wesley_Medical_Center",
        "Hospital": "Wesley Medical Center",
        "http://dbpedia.org/ontology/openingYear": "1881"
    },
    {
        "http://dbpedia.org/ontology/Hospital": "http://dbpedia.org/resource/Kincardine_Community_Hospital",
        "Hospital": "Kincardine Community Hospital",
        "http://dbpedia.org/ontology/openingYear": "1960"
    },
    {
        "http://dbpedia.org/ontology/Hospital": "http://dbpedia.org/resource/North_Memorial_Medical_Center",
        "Hospital": "North Memorial Medical Center",
        "http://dbpedia.org/ontology/openingYear": "1927"
    },
    {
        "http://dbpedia.org/ontology/Hospital": "http://dbpedia.org/resource/Masaka_Hospital",
        "Hospital": "Masaka Hospital",
        "http://dbpedia.org/ontology/openingYear": "1892"
    },
    {
        "http://dbpedia.org/ontology/Hospital": "http://dbpedia.org/resource/Marselisborg_Hospital",
        "Hospital": "Marselisborg Hospital",
        "http://dbpedia.org/ontology/openingYear": "1944"
    },
    {
        "http://dbpedia.org/ontology/Hospital": "http://dbpedia.org/resource/Mercy_Medical_Center_(Baltimore,_Maryland)",
        "Hospital": "Mercy Medical Center (Baltimore, Maryland)",
        "http://dbpedia.org/ontology/openingYear": "1792"
    },
    {
        "http://dbpedia.org/ontology/Hospital": "http://dbpedia.org/resource/Hurley_Medical_Center",
        "Hospital": "Hurley Medical Center",
        "http://dbpedia.org/ontology/openingYear": "1863"
    },
    {
        "http://dbpedia.org/ontology/Hospital": "http://dbpedia.org/resource/Royal_National_Orthopaedic_Hospital",
        "Hospital": "Royal National Orthopaedic Hospital",
        "http://dbpedia.org/ontology/openingYear": "2037"
    },
    {
        "http://dbpedia.org/ontology/Hospital": "http://dbpedia.org/resource/Dr._H._Gordon_Roberts_Hospital,_Shillong",
        "Hospital": "Dr. H. Gordon Roberts Hospital, Shillong",
        "http://dbpedia.org/ontology/openingYear": "1936"
    },
    {
        "http://dbpedia.org/ontology/Hospital": "http://dbpedia.org/resource/Ahmadiyya_Hospital_Newbussa",
        "Hospital": "Ahmadiyya Hospital Newbussa",
        "http://dbpedia.org/ontology/openingYear": "12"
    },
    {
        "http://dbpedia.org/ontology/Hospital": "http://dbpedia.org/resource/St_Thomas'_Hospital",
        "Hospital": "St Thomas' Hospital",
        "http://dbpedia.org/ontology/openingYear": "1060"
    },
    {
        "http://dbpedia.org/ontology/Hospital": "http://dbpedia.org/resource/Royal_Children's_Hospital",
        "Hospital": "Royal Children's Hospital",
        "http://dbpedia.org/ontology/openingYear": "1802"
    },
    {
        "http://dbpedia.org/ontology/Hospital": "http://dbpedia.org/resource/Ysbyty_Aneurin_Bevan",
        "Hospital": "Ysbyty Aneurin Bevan",
        "http://dbpedia.org/ontology/openingYear": "2204"
    },
    {
        "http://dbpedia.org/ontology/Hospital": "http://dbpedia.org/resource/Joslin_Diabetes_Center",
        "Hospital": "Joslin Diabetes Center",
        "http://dbpedia.org/ontology/openingYear": "1974"
    },
    {
        "http://dbpedia.org/ontology/Hospital": "http://dbpedia.org/resource/MultiCare_Tacoma_General_Hospital",
        "Hospital": "MultiCare Tacoma General Hospital",
        "http://dbpedia.org/ontology/openingYear": "2007"
    },
    {
        "http://dbpedia.org/ontology/Hospital": "http://dbpedia.org/resource/Tan_Tock_Seng_Hospital",
        "Hospital": "Tan Tock Seng Hospital",
        "http://dbpedia.org/ontology/openingYear": "1866"
    },
    {
        "http://dbpedia.org/ontology/Hospital": "http://dbpedia.org/resource/Government_Royapettah_Hospital",
        "Hospital": "Government Royapettah Hospital",
        "http://dbpedia.org/ontology/openingYear": "1830"
    },
    {
        "http://dbpedia.org/ontology/Hospital": "http://dbpedia.org/resource/Seoul_National_University_Hospital",
        "Hospital": "Seoul National University Hospital",
        "http://dbpedia.org/ontology/openingYear": "1997"
    },
    {
        "http://dbpedia.org/ontology/Hospital": "http://dbpedia.org/resource/Buwenge_General_Hospital",
        "Hospital": "Buwenge General Hospital",
        "http://dbpedia.org/ontology/openingYear": "2126"
    },
    {
        "http://dbpedia.org/ontology/Hospital": "http://dbpedia.org/resource/Sturgeon_Community_Hospital",
        "Hospital": "Sturgeon Community Hospital",
        "http://dbpedia.org/ontology/openingYear": "1881"
    },
    {
        "http://dbpedia.org/ontology/Hospital": "http://dbpedia.org/resource/Cassel_Hospital",
        "Hospital": "Cassel Hospital",
        "http://dbpedia.org/ontology/openingYear": "1818"
    },
    {
        "http://dbpedia.org/ontology/Hospital": "http://dbpedia.org/resource/UCL_Partners",
        "Hospital": "UCL Partners",
        "http://dbpedia.org/ontology/openingYear": "2141"
    },
    {
        "http://dbpedia.org/ontology/Hospital": "http://dbpedia.org/resource/Royal_Hospital_for_Women",
        "Hospital": "Royal Hospital for Women",
        "http://dbpedia.org/ontology/openingYear": "1753"
    },
    {
        "http://dbpedia.org/ontology/Hospital": "http://dbpedia.org/resource/PIH_Health_Hospital_-_Downey",
        "Hospital": "PIH Health Hospital - Downey",
        "http://dbpedia.org/ontology/openingYear": "2041"
    },
    {
        "http://dbpedia.org/ontology/Hospital": "http://dbpedia.org/resource/Roscommon_County_Hospital",
        "Hospital": "Roscommon County Hospital",
        "http://dbpedia.org/ontology/openingYear": "2004"
    },
    {
        "http://dbpedia.org/ontology/Hospital": "http://dbpedia.org/resource/Montreal_Chinese_Hospital",
        "Hospital": "Montreal Chinese Hospital",
        "http://dbpedia.org/ontology/openingYear": "1916"
    },
    {
        "http://dbpedia.org/ontology/Hospital": "http://dbpedia.org/resource/Lawrence_Frick_State_Hospital",
        "Hospital": "Lawrence Frick State Hospital",
        "http://dbpedia.org/ontology/openingYear": "2048"
    },
    {
        "http://dbpedia.org/ontology/Hospital": "http://dbpedia.org/resource/St._Charles_Lwanga_Buikwe_Hospital",
        "Hospital": "St. Charles Lwanga Buikwe Hospital",
        "http://dbpedia.org/ontology/openingYear": "1999"
    },
    {
        "http://dbpedia.org/ontology/Hospital": "http://dbpedia.org/resource/St._Anthony_Hospital_(Colorado)",
        "Hospital": "St. Anthony Hospital (Colorado)",
        "http://dbpedia.org/ontology/openingYear": "2070"
    },
    {
        "http://dbpedia.org/ontology/Hospital": "http://dbpedia.org/resource/George_Eliot_Hospital",
        "Hospital": "George Eliot Hospital",
        "http://dbpedia.org/ontology/openingYear": "1964"
    },
    {
        "http://dbpedia.org/ontology/Hospital": "http://dbpedia.org/resource/St_Mary's_Hospital,_London",
        "Hospital": "St Mary's Hospital, London",
        "http://dbpedia.org/ontology/openingYear": "1805"
    },
    {
        "http://dbpedia.org/ontology/Hospital": "http://dbpedia.org/resource/PeaceHealth_Sacred_Heart_Medical_Center_at_RiverBend",
        "Hospital": "PeaceHealth Sacred Heart Medical Center at RiverBend",
        "http://dbpedia.org/ontology/openingYear": "1975"
    },
    {
        "http://dbpedia.org/ontology/Hospital": "http://dbpedia.org/resource/Cirque_Lodge",
        "Hospital": "Cirque Lodge",
        "http://dbpedia.org/ontology/openingYear": "1921"
    },
    {
        "http://dbpedia.org/ontology/Hospital": "http://dbpedia.org/resource/Montreal_General_Hospital",
        "Hospital": "Montreal General Hospital",
        "http://dbpedia.org/ontology/openingYear": "1900"
    },
    {
        "http://dbpedia.org/ontology/Hospital": "http://dbpedia.org/resource/Royal_Bournemouth_Hospital",
        "Hospital": "Royal Bournemouth Hospital",
        "http://dbpedia.org/ontology/openingYear": "2055"
    },
    {
        "http://dbpedia.org/ontology/Hospital": "http://dbpedia.org/resource/Glasgow_Victoria_Infirmary",
        "Hospital": "Glasgow Victoria Infirmary",
        "http://dbpedia.org/ontology/openingYear": "1803"
    },
    {
        "http://dbpedia.org/ontology/Hospital": "http://dbpedia.org/resource/Philippe_Pinel_Institute",
        "Hospital": "Philippe Pinel Institute",
        "http://dbpedia.org/ontology/openingYear": "1840"
    },
    {
        "http://dbpedia.org/ontology/Hospital": "http://dbpedia.org/resource/Evelina_London_Children's_Hospital",
        "Hospital": "Evelina London Children's Hospital",
        "http://dbpedia.org/ontology/openingYear": "1980"
    },
    {
        "http://dbpedia.org/ontology/Hospital": "http://dbpedia.org/resource/The_Christ_Hospital",
        "Hospital": "The Christ Hospital",
        "http://dbpedia.org/ontology/openingYear": "2071"
    },
    {
        "http://dbpedia.org/ontology/Hospital": "http://dbpedia.org/resource/Rosie_Hospital",
        "Hospital": "Rosie Hospital",
        "http://dbpedia.org/ontology/openingYear": "1987"
    },
    {
        "http://dbpedia.org/ontology/Hospital": "http://dbpedia.org/resource/Cloud_County_Health_Center",
        "Hospital": "Cloud County Health Center",
        "http://dbpedia.org/ontology/openingYear": "1971"
    },
    {
        "http://dbpedia.org/ontology/Hospital": "http://dbpedia.org/resource/Royal_United_Hospital",
        "Hospital": "Royal United Hospital",
        "http://dbpedia.org/ontology/openingYear": "1849"
    },
    {
        "http://dbpedia.org/ontology/Hospital": "http://dbpedia.org/resource/Tripoli_Central_Hospital",
        "Hospital": "Tripoli Central Hospital",
        "http://dbpedia.org/ontology/openingYear": "1990"
    },
    {
        "http://dbpedia.org/ontology/Hospital": "http://dbpedia.org/resource/Dr._Kariadi_Hospital",
        "Hospital": "Dr. Kariadi Hospital",
        "http://dbpedia.org/ontology/openingYear": "2084"
    },
    {
        "http://dbpedia.org/ontology/Hospital": "http://dbpedia.org/resource/Children's_Hospital_at_Erlanger",
        "Hospital": "Children's Hospital at Erlanger",
        "http://dbpedia.org/ontology/openingYear": "2006"
    },
    {
        "http://dbpedia.org/ontology/Hospital": "http://dbpedia.org/resource/Grace_Cottage_Hospital",
        "Hospital": "Grace Cottage Hospital",
        "http://dbpedia.org/ontology/openingYear": "1835"
    },
    {
        "http://dbpedia.org/ontology/Hospital": "http://dbpedia.org/resource/St._Mary-Corwin_Medical_Center",
        "Hospital": "St. Mary-Corwin Medical Center",
        "http://dbpedia.org/ontology/openingYear": "1730"
    },
    {
        "http://dbpedia.org/ontology/Hospital": "http://dbpedia.org/resource/Peninsula_Regional_Medical_Center",
        "Hospital": "Peninsula Regional Medical Center",
        "http://dbpedia.org/ontology/openingYear": "2003"
    },
    {
        "http://dbpedia.org/ontology/Hospital": "http://dbpedia.org/resource/Hospital_for_Special_Surgery",
        "Hospital": "Hospital for Special Surgery",
        "http://dbpedia.org/ontology/openingYear": "1761"
    },
    {
        "http://dbpedia.org/ontology/Hospital": "http://dbpedia.org/resource/Victoria_General_Hospital_(Winnipeg)",
        "Hospital": "Victoria General Hospital (Winnipeg)",
        "http://dbpedia.org/ontology/openingYear": "2007"
    },
    {
        "http://dbpedia.org/ontology/Hospital": "http://dbpedia.org/resource/University_of_Colorado_Hospital",
        "Hospital": "University of Colorado Hospital",
        "http://dbpedia.org/ontology/openingYear": "2077"
    },
    {
        "http://dbpedia.org/ontology/Hospital": "http://dbpedia.org/resource/Medina_General_Hospital",
        "Hospital": "Medina General Hospital",
        "http://dbpedia.org/ontology/openingYear": "1777"
    },
    {
        "http://dbpedia.org/ontology/Hospital": "http://dbpedia.org/resource/Sobell_House_Hospice",
        "Hospital": "Sobell House Hospice",
        "http://dbpedia.org/ontology/openingYear": "1895"
    },
    {
        "http://dbpedia.org/ontology/Hospital": "http://dbpedia.org/resource/Health_City_Cayman_Islands",
        "Hospital": "Health City Cayman Islands",
        "http://dbpedia.org/ontology/openingYear": "2023"
    },
    {
        "http://dbpedia.org/ontology/Hospital": "http://dbpedia.org/resource/Florida_Hospital_Celebration_Health",
        "Hospital": "Florida Hospital Celebration Health",
        "http://dbpedia.org/ontology/openingYear": "2058"
    },
    {
        "http://dbpedia.org/ontology/Hospital": "http://dbpedia.org/resource/Women's_College_Hospital",
        "Hospital": "Women's College Hospital",
        "http://dbpedia.org/ontology/openingYear": "1924"
    },
    {
        "http://dbpedia.org/ontology/Hospital": "http://dbpedia.org/resource/Franco-Vietnamese_Hospital",
        "Hospital": "Franco-Vietnamese Hospital",
        "http://dbpedia.org/ontology/openingYear": "1866"
    },
    {
        "http://dbpedia.org/ontology/Hospital": "http://dbpedia.org/resource/Children's_Hospital_of_Eastern_Ontario",
        "Hospital": "Children's Hospital of Eastern Ontario",
        "http://dbpedia.org/ontology/openingYear": "2045"
    },
    {
        "http://dbpedia.org/ontology/Hospital": "http://dbpedia.org/resource/Sydney_Children's_Hospital",
        "Hospital": "Sydney Children's Hospital",
        "http://dbpedia.org/ontology/openingYear": "2001"
    },
    {
        "http://dbpedia.org/ontology/Hospital": "http://dbpedia.org/resource/Assunta_Hospital",
        "Hospital": "Assunta Hospital",
        "http://dbpedia.org/ontology/openingYear": "1811"
    },
    {
        "http://dbpedia.org/ontology/Hospital": "http://dbpedia.org/resource/Children's_Hospital_Oakland",
        "Hospital": "Children's Hospital Oakland",
        "http://dbpedia.org/ontology/openingYear": "1959"
    },
    {
        "http://dbpedia.org/ontology/Hospital": "http://dbpedia.org/resource/Coalinga_State_Hospital",
        "Hospital": "Coalinga State Hospital",
        "http://dbpedia.org/ontology/openingYear": "2096"
    },
    {
        "http://dbpedia.org/ontology/Hospital": "http://dbpedia.org/resource/West_/_North_West_Hospitals_Group",
        "Hospital": "West / North West Hospitals Group",
        "http://dbpedia.org/ontology/openingYear": "2024"
    },
    {
        "http://dbpedia.org/ontology/Hospital": "http://dbpedia.org/resource/Royal_Victoria_Eye_and_Ear_Hospital",
        "Hospital": "Royal Victoria Eye and Ear Hospital",
        "http://dbpedia.org/ontology/openingYear": "1905"
    },
    {
        "http://dbpedia.org/ontology/Hospital": "http://dbpedia.org/resource/Meditrina_Hospital",
        "Hospital": "Meditrina Hospital",
        "http://dbpedia.org/ontology/openingYear": "1960"
    },
    {
        "http://dbpedia.org/ontology/Hospital": "http://dbpedia.org/resource/Torrance_State_Hospital",
        "Hospital": "Torrance State Hospital",
        "http://dbpedia.org/ontology/openingYear": "1835"
    },
    {
        "http://dbpedia.org/ontology/Hospital": "http://dbpedia.org/resource/Castle_Craig_Hospital",
        "Hospital": "Castle Craig Hospital",
        "http://dbpedia.org/ontology/openingYear": "2172"
    },
    {
        "http://dbpedia.org/ontology/Hospital": "http://dbpedia.org/resource/Emory_University_Hospital",
        "Hospital": "Emory University Hospital",
        "http://dbpedia.org/ontology/openingYear": "2078"
    },
    {
        "http://dbpedia.org/ontology/Hospital": "http://dbpedia.org/resource/Lucile_Packard_Children's_Hospital",
        "Hospital": "Lucile Packard Children's Hospital",
        "http://dbpedia.org/ontology/openingYear": "1925"
    },
    {
        "http://dbpedia.org/ontology/Hospital": "http://dbpedia.org/resource/Inverurie_Hospital",
        "Hospital": "Inverurie Hospital",
        "http://dbpedia.org/ontology/openingYear": "1764"
    },
    {
        "http://dbpedia.org/ontology/Hospital": "http://dbpedia.org/resource/Florida_Hospital_East",
        "Hospital": "Florida Hospital East",
        "http://dbpedia.org/ontology/openingYear": "2048"
    },
    {
        "http://dbpedia.org/ontology/Hospital": "http://dbpedia.org/resource/Good_Samaritan_Hospital_(San_Jose)",
        "Hospital": "Good Samaritan Hospital (San Jose)",
        "http://dbpedia.org/ontology/openingYear": "1929"
    },
    {
        "http://dbpedia.org/ontology/Hospital": "http://dbpedia.org/resource/PKU_3rd_People's_Hospital",
        "Hospital": "PKU 3rd People's Hospital",
        "http://dbpedia.org/ontology/openingYear": "2029"
    },
    {
        "http://dbpedia.org/ontology/Hospital": "http://dbpedia.org/resource/Kiboga_General_Hospital",
        "Hospital": "Kiboga General Hospital",
        "http://dbpedia.org/ontology/openingYear": "1972"
    },
    {
        "http://dbpedia.org/ontology/Hospital": "http://dbpedia.org/resource/Carteret_General_Hospital",
        "Hospital": "Carteret General Hospital",
        "http://dbpedia.org/ontology/openingYear": "1792"
    },
    {
        "http://dbpedia.org/ontology/Hospital": "http://dbpedia.org/resource/Suruga_Sanatorium",
        "Hospital": "Suruga Sanatorium",
        "http://dbpedia.org/ontology/openingYear": "2135"
    },
    {
        "http://dbpedia.org/ontology/Hospital": "http://dbpedia.org/resource/Cheyenne_Regional_Medical_Center",
        "Hospital": "Cheyenne Regional Medical Center",
        "http://dbpedia.org/ontology/openingYear": "1728"
    },
    {
        "http://dbpedia.org/ontology/Hospital": "http://dbpedia.org/resource/Frankston_Hospital",
        "Hospital": "Frankston Hospital",
        "http://dbpedia.org/ontology/openingYear": "1874"
    },
    {
        "http://dbpedia.org/ontology/Hospital": "http://dbpedia.org/resource/University_of_Iowa_Hospitals_and_Clinics",
        "Hospital": "University of Iowa Hospitals and Clinics",
        "http://dbpedia.org/ontology/openingYear": "1890"
    },
    {
        "http://dbpedia.org/ontology/Hospital": "http://dbpedia.org/resource/Parrish_Medical_Center",
        "Hospital": "Parrish Medical Center",
        "http://dbpedia.org/ontology/openingYear": "1861"
    },
    {
        "http://dbpedia.org/ontology/Hospital": "http://dbpedia.org/resource/Banff_-_Mineral_Springs_Hospital",
        "Hospital": "Banff - Mineral Springs Hospital",
        "http://dbpedia.org/ontology/openingYear": "291"
    },
    {
        "http://dbpedia.org/ontology/Hospital": "http://dbpedia.org/resource/Burke_Rehabilitation_Hospital",
        "Hospital": "Burke Rehabilitation Hospital",
        "http://dbpedia.org/ontology/openingYear": "1978"
    },
    {
        "http://dbpedia.org/ontology/Hospital": "http://dbpedia.org/resource/Sir_Run_Run_Shaw_Hospital",
        "Hospital": "Sir Run Run Shaw Hospital",
        "http://dbpedia.org/ontology/openingYear": "2150"
    },
    {
        "http://dbpedia.org/ontology/Hospital": "http://dbpedia.org/resource/Morningside_Hospital_(Oregon)",
        "Hospital": "Morningside Hospital (Oregon)",
        "http://dbpedia.org/ontology/openingYear": "1765"
    },
    {
        "http://dbpedia.org/ontology/Hospital": "http://dbpedia.org/resource/Radboud_University_Nijmegen_Medical_Centre",
        "Hospital": "Radboud University Nijmegen Medical Centre",
        "http://dbpedia.org/ontology/openingYear": "1897"
    },
    {
        "http://dbpedia.org/ontology/Hospital": "http://dbpedia.org/resource/Nsambya_Hospital",
        "Hospital": "Nsambya Hospital",
        "http://dbpedia.org/ontology/openingYear": "1946"
    },
    {
        "http://dbpedia.org/ontology/Hospital": "http://dbpedia.org/resource/Changi_General_Hospital",
        "Hospital": "Changi General Hospital",
        "http://dbpedia.org/ontology/openingYear": "2082"
    },
    {
        "http://dbpedia.org/ontology/Hospital": "http://dbpedia.org/resource/Johnson_City_Medical_Center",
        "Hospital": "Johnson City Medical Center",
        "http://dbpedia.org/ontology/openingYear": "1811"
    },
    {
        "http://dbpedia.org/ontology/Hospital": "http://dbpedia.org/resource/St._Catharines_General_Hospital",
        "Hospital": "St. Catharines General Hospital",
        "http://dbpedia.org/ontology/openingYear": "1964"
    },
    {
        "http://dbpedia.org/ontology/Hospital": "http://dbpedia.org/resource/Hartwood_Hospital",
        "Hospital": "Hartwood Hospital",
        "http://dbpedia.org/ontology/openingYear": "2014"
    },
    {
        "http://dbpedia.org/ontology/Hospital": "http://dbpedia.org/resource/Sunbury_Asylum",
        "Hospital": "Sunbury Asylum",
        "http://dbpedia.org/ontology/openingYear": "1947"
    },
    {
        "http://dbpedia.org/ontology/Hospital": "http://dbpedia.org/resource/Duside_Hospital",
        "Hospital": "Duside Hospital",
        "http://dbpedia.org/ontology/openingYear": "2041"
    },
    {
        "http://dbpedia.org/ontology/Hospital": "http://dbpedia.org/resource/Robert_Wood_Johnson_University_Hospital_Somerset",
        "Hospital": "Robert Wood Johnson University Hospital Somerset",
        "http://dbpedia.org/ontology/openingYear": "1759"
    },
    {
        "http://dbpedia.org/ontology/Hospital": "http://dbpedia.org/resource/Adventist_Medical_Center",
        "Hospital": "Adventist Medical Center",
        "http://dbpedia.org/ontology/openingYear": "1839"
    },
    {
        "http://dbpedia.org/ontology/Hospital": "http://dbpedia.org/resource/St._Francis_Hospital_(Milwaukee)",
        "Hospital": "St. Francis Hospital (Milwaukee)",
        "http://dbpedia.org/ontology/openingYear": "2130"
    },
    {
        "http://dbpedia.org/ontology/Hospital": "http://dbpedia.org/resource/Somoso_General_Hospital",
        "Hospital": "Somoso General Hospital",
        "http://dbpedia.org/ontology/openingYear": "1819"
    },
    {
        "http://dbpedia.org/ontology/Hospital": "http://dbpedia.org/resource/Sir_Ivan_Stedeford_Hospital",
        "Hospital": "Sir Ivan Stedeford Hospital",
        "http://dbpedia.org/ontology/openingYear": "1818"
    },
    {
        "http://dbpedia.org/ontology/Hospital": "http://dbpedia.org/resource/B.C._Women's_Hospital_&_Health_Centre",
        "Hospital": "B.C. Women's Hospital & Health Centre",
        "http://dbpedia.org/ontology/openingYear": "1852"
    },
    {
        "http://dbpedia.org/ontology/Hospital": "http://dbpedia.org/resource/Darlington_Memorial_Hospital",
        "Hospital": "Darlington Memorial Hospital",
        "http://dbpedia.org/ontology/openingYear": "1860"
    },
    {
        "http://dbpedia.org/ontology/Hospital": "http://dbpedia.org/resource/Kiwoko_Hospital",
        "Hospital": "Kiwoko Hospital",
        "http://dbpedia.org/ontology/openingYear": "2097"
    },
    {
        "http://dbpedia.org/ontology/Hospital": "http://dbpedia.org/resource/St._Luke's_Regional_Medical_Center_(Sioux_City,_Iowa)",
        "Hospital": "St. Luke's Regional Medical Center (Sioux City, Iowa)",
        "http://dbpedia.org/ontology/openingYear": "2097"
    },
    {
        "http://dbpedia.org/ontology/Hospital": "http://dbpedia.org/resource/Providence_VA_Medical_Center",
        "Hospital": "Providence VA Medical Center",
        "http://dbpedia.org/ontology/openingYear": "1969"
    },
    {
        "http://dbpedia.org/ontology/Hospital": "http://dbpedia.org/resource/The_Hospital_for_Sick_Children",
        "Hospital": "The Hospital for Sick Children",
        "http://dbpedia.org/ontology/openingYear": "1719"
    },
    {
        "http://dbpedia.org/ontology/Hospital": "http://dbpedia.org/resource/British_Hospital_(Montevideo)",
        "Hospital": "British Hospital (Montevideo)",
        "http://dbpedia.org/ontology/openingYear": "1877"
    },
    {
        "http://dbpedia.org/ontology/Hospital": "http://dbpedia.org/resource/Penrose_Hospital",
        "Hospital": "Penrose Hospital",
        "http://dbpedia.org/ontology/openingYear": "1744"
    },
    {
        "http://dbpedia.org/ontology/Hospital": "http://dbpedia.org/resource/St._Charles_Parish_Hospital",
        "Hospital": "St. Charles Parish Hospital",
        "http://dbpedia.org/ontology/openingYear": "2032"
    },
    {
        "http://dbpedia.org/ontology/Hospital": "http://dbpedia.org/resource/Legacy_Mount_Hood_Medical_Center",
        "Hospital": "Legacy Mount Hood Medical Center",
        "http://dbpedia.org/ontology/openingYear": "1934"
    },
    {
        "http://dbpedia.org/ontology/Hospital": "http://dbpedia.org/resource/Peterhead_Community_Hospital",
        "Hospital": "Peterhead Community Hospital",
        "http://dbpedia.org/ontology/openingYear": "2039"
    },
    {
        "http://dbpedia.org/ontology/Hospital": "http://dbpedia.org/resource/Hoima_Hospital",
        "Hospital": "Hoima Hospital",
        "http://dbpedia.org/ontology/openingYear": "1977"
    },
    {
        "http://dbpedia.org/ontology/Hospital": "http://dbpedia.org/resource/Cross_Cancer_Institute",
        "Hospital": "Cross Cancer Institute",
        "http://dbpedia.org/ontology/openingYear": "1959"
    },
    {
        "http://dbpedia.org/ontology/Hospital": "http://dbpedia.org/resource/Hollywood_Private_Hospital",
        "Hospital": "Hollywood Private Hospital",
        "http://dbpedia.org/ontology/openingYear": "1970"
    },
    {
        "http://dbpedia.org/ontology/Hospital": "http://dbpedia.org/resource/Oakville-Trafalgar_Memorial_Hospital",
        "Hospital": "Oakville-Trafalgar Memorial Hospital",
        "http://dbpedia.org/ontology/openingYear": "1938"
    },
    {
        "http://dbpedia.org/ontology/Hospital": "http://dbpedia.org/resource/Dr._Mohan's_Diabetes_Specialities_Centre",
        "Hospital": "Dr. Mohan's Diabetes Specialities Centre",
        "http://dbpedia.org/ontology/openingYear": "2187"
    },
    {
        "http://dbpedia.org/ontology/Hospital": "http://dbpedia.org/resource/St._Luke's-Roosevelt_Hospital_Center",
        "Hospital": "St. Luke's-Roosevelt Hospital Center",
        "http://dbpedia.org/ontology/openingYear": "1873"
    },
    {
        "http://dbpedia.org/ontology/Hospital": "http://dbpedia.org/resource/Berufsgenossenschaftliches_Universitatsklinikum_Bergmannsheil",
        "Hospital": "Berufsgenossenschaftliches Universitatsklinikum Bergmannsheil",
        "http://dbpedia.org/ontology/openingYear": "1984"
    },
    {
        "http://dbpedia.org/ontology/Hospital": "http://dbpedia.org/resource/Eleanor_Slater_Hospital",
        "Hospital": "Eleanor Slater Hospital",
        "http://dbpedia.org/ontology/openingYear": "1895"
    },
    {
        "http://dbpedia.org/ontology/Hospital": "http://dbpedia.org/resource/University_Medical_Center_of_Southern_Nevada",
        "Hospital": "University Medical Center of Southern Nevada",
        "http://dbpedia.org/ontology/openingYear": "1998"
    },
    {
        "http://dbpedia.org/ontology/Hospital": "http://dbpedia.org/resource/West_Park_Hospital",
        "Hospital": "West Park Hospital",
        "http://dbpedia.org/ontology/openingYear": "1941"
    },
    {
        "http://dbpedia.org/ontology/Hospital": "http://dbpedia.org/resource/Ooshima_Seishoen_Sanatorium",
        "Hospital": "Ooshima Seishoen Sanatorium",
        "http://dbpedia.org/ontology/openingYear": "1862"
    },
    {
        "http://dbpedia.org/ontology/Hospital": "http://dbpedia.org/resource/Hopital_Pierre_Boucher",
        "Hospital": "Hopital Pierre Boucher",
        "http://dbpedia.org/ontology/openingYear": "1845"
    },
    {
        "http://dbpedia.org/ontology/Hospital": "http://dbpedia.org/resource/Cleveland_Clinic",
        "Hospital": "Cleveland Clinic",
        "http://dbpedia.org/ontology/openingYear": "2081"
    },
    {
        "http://dbpedia.org/ontology/Hospital": "http://dbpedia.org/resource/Manchester_Royal_Infirmary",
        "Hospital": "Manchester Royal Infirmary",
        "http://dbpedia.org/ontology/openingYear": "1689"
    },
    {
        "http://dbpedia.org/ontology/Hospital": "http://dbpedia.org/resource/P.D._Hinduja_National_Hospital_and_Medical_Research_Centre",
        "Hospital": "P.D. Hinduja National Hospital and Medical Research Centre",
        "http://dbpedia.org/ontology/openingYear": "1963"
    },
    {
        "http://dbpedia.org/ontology/Hospital": "http://dbpedia.org/resource/Providence_Regional_Medical_Center_Everett",
        "Hospital": "Providence Regional Medical Center Everett",
        "http://dbpedia.org/ontology/openingYear": "1734"
    },
    {
        "http://dbpedia.org/ontology/Hospital": "http://dbpedia.org/resource/Fairfield_Infectious_Diseases_Hospital",
        "Hospital": "Fairfield Infectious Diseases Hospital",
        "http://dbpedia.org/ontology/openingYear": "2091"
    },
    {
        "http://dbpedia.org/ontology/Hospital": "http://dbpedia.org/resource/Hospital_Nacional",
        "Hospital": "Hospital Nacional",
        "http://dbpedia.org/ontology/openingYear": "2151"
    },
    {
        "http://dbpedia.org/ontology/Hospital": "http://dbpedia.org/resource/Saint_Mary's_Regional_Medical_Center_(Maine)",
        "Hospital": "Saint Mary's Regional Medical Center (Maine)",
        "http://dbpedia.org/ontology/openingYear": "1899"
    },
    {
        "http://dbpedia.org/ontology/Hospital": "http://dbpedia.org/resource/Sinai-Grace_Hospital",
        "Hospital": "Sinai-Grace Hospital",
        "http://dbpedia.org/ontology/openingYear": "1927"
    },
    {
        "http://dbpedia.org/ontology/Hospital": "http://dbpedia.org/resource/The_Affiliated_Eye_Hospital",
        "Hospital": "The Affiliated Eye Hospital",
        "http://dbpedia.org/ontology/openingYear": "1975"
    },
    {
        "http://dbpedia.org/ontology/Hospital": "http://dbpedia.org/resource/St_Mary's_Hospital,_Manchester",
        "Hospital": "St Mary's Hospital, Manchester",
        "http://dbpedia.org/ontology/openingYear": "1793"
    },
    {
        "http://dbpedia.org/ontology/Hospital": "http://dbpedia.org/resource/Martha's_Vineyard_Hospital",
        "Hospital": "Martha's Vineyard Hospital",
        "http://dbpedia.org/ontology/openingYear": "1964"
    },
    {
        "http://dbpedia.org/ontology/Hospital": "http://dbpedia.org/resource/St_Michael's_Hospital,_Warwick",
        "Hospital": "St Michael's Hospital, Warwick",
        "http://dbpedia.org/ontology/openingYear": "2034"
    },
    {
        "http://dbpedia.org/ontology/Hospital": "http://dbpedia.org/resource/Groote_Schuur_Hospital",
        "Hospital": "Groote Schuur Hospital",
        "http://dbpedia.org/ontology/openingYear": "2060"
    },
    {
        "http://dbpedia.org/ontology/Hospital": "http://dbpedia.org/resource/Health_Sciences_North",
        "Hospital": "Health Sciences North",
        "http://dbpedia.org/ontology/openingYear": "1918"
    },
    {
        "http://dbpedia.org/ontology/Hospital": "http://dbpedia.org/resource/Aster_Medcity",
        "Hospital": "Aster Medcity",
        "http://dbpedia.org/ontology/openingYear": "2097"
    },
    {
        "http://dbpedia.org/ontology/Hospital": "http://dbpedia.org/resource/Kaabong_General_Hospital",
        "Hospital": "Kaabong General Hospital",
        "http://dbpedia.org/ontology/openingYear": "1937"
    },
    {
        "http://dbpedia.org/ontology/Hospital": "http://dbpedia.org/resource/Humber_River_Regional_Hospital",
        "Hospital": "Humber River Regional Hospital",
        "http://dbpedia.org/ontology/openingYear": "2054"
    },
    {
        "http://dbpedia.org/ontology/Hospital": "http://dbpedia.org/resource/UPMC_Hamot",
        "Hospital": "UPMC Hamot",
        "http://dbpedia.org/ontology/openingYear": "1792"
    },
    {
        "http://dbpedia.org/ontology/Hospital": "http://dbpedia.org/resource/Community_Medical_Center",
        "Hospital": "Community Medical Center",
        "http://dbpedia.org/ontology/openingYear": "1796"
    },
    {
        "http://dbpedia.org/ontology/Hospital": "http://dbpedia.org/resource/McGaw_Medical_Center",
        "Hospital": "McGaw Medical Center",
        "http://dbpedia.org/ontology/openingYear": "2095"
    },
    {
        "http://dbpedia.org/ontology/Hospital": "http://dbpedia.org/resource/University_Hospitals_Portage_Medical_Center",
        "Hospital": "University Hospitals Portage Medical Center",
        "http://dbpedia.org/ontology/openingYear": "1781"
    },
    {
        "http://dbpedia.org/ontology/Hospital": "http://dbpedia.org/resource/Boulder_Community_Health",
        "Hospital": "Boulder Community Health",
        "http://dbpedia.org/ontology/openingYear": "2075"
    },
    {
        "http://dbpedia.org/ontology/Hospital": "http://dbpedia.org/resource/Soma_General_Hospital",
        "Hospital": "Soma General Hospital",
        "http://dbpedia.org/ontology/openingYear": "1794"
    },
    {
        "http://dbpedia.org/ontology/Hospital": "http://dbpedia.org/resource/Hospital_of_St_John_and_St_Elizabeth",
        "Hospital": "Hospital of St John and St Elizabeth",
        "http://dbpedia.org/ontology/openingYear": "1853"
    },
    {
        "http://dbpedia.org/ontology/Hospital": "http://dbpedia.org/resource/Apollo_KH_Hospital",
        "Hospital": "Apollo KH Hospital",
        "http://dbpedia.org/ontology/openingYear": "1938"
    },
    {
        "http://dbpedia.org/ontology/Hospital": "http://dbpedia.org/resource/Royal_Waterloo_Hospital_for_Children_and_Women",
        "Hospital": "Royal Waterloo Hospital for Children and Women",
        "http://dbpedia.org/ontology/openingYear": "1730"
    },
    {
        "http://dbpedia.org/ontology/Hospital": "http://dbpedia.org/resource/Frick_Hospital",
        "Hospital": "Frick Hospital",
        "http://dbpedia.org/ontology/openingYear": "1846"
    },
    {
        "http://dbpedia.org/ontology/Hospital": "http://dbpedia.org/resource/Patna_Medical_College_and_Hospital",
        "Hospital": "Patna Medical College and Hospital",
        "http://dbpedia.org/ontology/openingYear": "2025"
    },
    {
        "http://dbpedia.org/ontology/Hospital": "http://dbpedia.org/resource/Kuryu_Rakusen-en_Sanatorium",
        "Hospital": "Kuryu Rakusen-en Sanatorium",
        "http://dbpedia.org/ontology/openingYear": "1880"
    },
    {
        "http://dbpedia.org/ontology/Hospital": "http://dbpedia.org/resource/St._Vincent's_Medical_Center_Southside",
        "Hospital": "St. Vincent's Medical Center Southside",
        "http://dbpedia.org/ontology/openingYear": "1977"
    },
    {
        "http://dbpedia.org/ontology/Hospital": "http://dbpedia.org/resource/Desert_Valley_Hospital",
        "Hospital": "Desert Valley Hospital",
        "http://dbpedia.org/ontology/openingYear": "2073"
    },
    {
        "http://dbpedia.org/ontology/Hospital": "http://dbpedia.org/resource/Boston_Medical_Center",
        "Hospital": "Boston Medical Center",
        "http://dbpedia.org/ontology/openingYear": "1780"
    },
    {
        "http://dbpedia.org/ontology/Hospital": "http://dbpedia.org/resource/Kettering_General_Hospital",
        "Hospital": "Kettering General Hospital",
        "http://dbpedia.org/ontology/openingYear": "1919"
    },
    {
        "http://dbpedia.org/ontology/Hospital": "http://dbpedia.org/resource/Ruchill_Hospital",
        "Hospital": "Ruchill Hospital",
        "http://dbpedia.org/ontology/openingYear": "1867"
    },
    {
        "http://dbpedia.org/ontology/Hospital": "http://dbpedia.org/resource/Sodersjukhuset",
        "Hospital": "Sodersjukhuset",
        "http://dbpedia.org/ontology/openingYear": "2122"
    },
    {
        "http://dbpedia.org/ontology/Hospital": "http://dbpedia.org/resource/Hospital_for_Tropical_Diseases",
        "Hospital": "Hospital for Tropical Diseases",
        "http://dbpedia.org/ontology/openingYear": "1906"
    },
    {
        "http://dbpedia.org/ontology/Hospital": "http://dbpedia.org/resource/Riverside_Osteopathic_Hospital",
        "Hospital": "Riverside Osteopathic Hospital",
        "http://dbpedia.org/ontology/openingYear": "1978"
    },
    {
        "http://dbpedia.org/ontology/Hospital": "http://dbpedia.org/resource/Presence_Covenant_Medical_Center",
        "Hospital": "Presence Covenant Medical Center",
        "http://dbpedia.org/ontology/openingYear": "1847"
    },
    {
        "http://dbpedia.org/ontology/Hospital": "http://dbpedia.org/resource/Bugiri_General_Hospital",
        "Hospital": "Bugiri General Hospital",
        "http://dbpedia.org/ontology/openingYear": "2163"
    },
    {
        "http://dbpedia.org/ontology/Hospital": "http://dbpedia.org/resource/Northern_General_Hospital",
        "Hospital": "Northern General Hospital",
        "http://dbpedia.org/ontology/openingYear": "1827"
    },
    {
        "http://dbpedia.org/ontology/Hospital": "http://dbpedia.org/resource/University_of_Maryland_Baltimore_Washington_Medical_Center",
        "Hospital": "University of Maryland Baltimore Washington Medical Center",
        "http://dbpedia.org/ontology/openingYear": "2079"
    },
    {
        "http://dbpedia.org/ontology/Hospital": "http://dbpedia.org/resource/Mbuya_Military_Hospital",
        "Hospital": "Mbuya Military Hospital",
        "http://dbpedia.org/ontology/openingYear": "1839"
    },
    {
        "http://dbpedia.org/ontology/Hospital": "http://dbpedia.org/resource/Hospital_Conde_S._Januario",
        "Hospital": "Hospital Conde S. Januario",
        "http://dbpedia.org/ontology/openingYear": "2039"
    },
    {
        "http://dbpedia.org/ontology/Hospital": "http://dbpedia.org/resource/The_Montefiore_Hospital,_Hove",
        "Hospital": "The Montefiore Hospital, Hove",
        "http://dbpedia.org/ontology/openingYear": "2115"
    },
    {
        "http://dbpedia.org/ontology/Hospital": "http://dbpedia.org/resource/St_Lukes_Private_Hospital",
        "Hospital": "St Lukes Private Hospital",
        "http://dbpedia.org/ontology/openingYear": "1972"
    },
    {
        "http://dbpedia.org/ontology/Hospital": "http://dbpedia.org/resource/Daud_Memorial_Hospital",
        "Hospital": "Daud Memorial Hospital",
        "http://dbpedia.org/ontology/openingYear": "2021"
    },
    {
        "http://dbpedia.org/ontology/Hospital": "http://dbpedia.org/resource/Nevill_Hall_Hospital",
        "Hospital": "Nevill Hall Hospital",
        "http://dbpedia.org/ontology/openingYear": "2020"
    },
    {
        "http://dbpedia.org/ontology/Hospital": "http://dbpedia.org/resource/Ipswich_Hospital,_Queensland",
        "Hospital": "Ipswich Hospital, Queensland",
        "http://dbpedia.org/ontology/openingYear": "2018"
    },
    {
        "http://dbpedia.org/ontology/Hospital": "http://dbpedia.org/resource/Thammasat_University_Hospital",
        "Hospital": "Thammasat University Hospital",
        "http://dbpedia.org/ontology/openingYear": "1959"
    },
    {
        "http://dbpedia.org/ontology/Hospital": "http://dbpedia.org/resource/Institute_of_Liver_and_Biliary_Sciences",
        "Hospital": "Institute of Liver and Biliary Sciences",
        "http://dbpedia.org/ontology/openingYear": "2058"
    },
    {
        "http://dbpedia.org/ontology/Hospital": "http://dbpedia.org/resource/Tata_Memorial_Centre",
        "Hospital": "Tata Memorial Centre",
        "http://dbpedia.org/ontology/openingYear": "2061"
    },
    {
        "http://dbpedia.org/ontology/Hospital": "http://dbpedia.org/resource/Rouge_Valley_Centenary",
        "Hospital": "Rouge Valley Centenary",
        "http://dbpedia.org/ontology/openingYear": "2033"
    },
    {
        "http://dbpedia.org/ontology/Hospital": "http://dbpedia.org/resource/Centre_hospitalier_universitaire_de_Sherbrooke",
        "Hospital": "Centre hospitalier universitaire de Sherbrooke",
        "http://dbpedia.org/ontology/openingYear": "2022"
    },
    {
        "http://dbpedia.org/ontology/Hospital": "http://dbpedia.org/resource/Crawley_Hospital",
        "Hospital": "Crawley Hospital",
        "http://dbpedia.org/ontology/openingYear": "2148"
    },
    {
        "http://dbpedia.org/ontology/Hospital": "http://dbpedia.org/resource/Waikato_Hospital",
        "Hospital": "Waikato Hospital",
        "http://dbpedia.org/ontology/openingYear": "1714"
    },
    {
        "http://dbpedia.org/ontology/Hospital": "http://dbpedia.org/resource/Muhlenberg_Regional_Medical_Center",
        "Hospital": "Muhlenberg Regional Medical Center",
        "http://dbpedia.org/ontology/openingYear": "1793"
    },
    {
        "http://dbpedia.org/ontology/Hospital": "http://dbpedia.org/resource/University_of_Maryland_Medical_Center_Midtown_Campus",
        "Hospital": "University of Maryland Medical Center Midtown Campus",
        "http://dbpedia.org/ontology/openingYear": "1938"
    },
    {
        "http://dbpedia.org/ontology/Hospital": "http://dbpedia.org/resource/Royal_Gwent_Hospital",
        "Hospital": "Royal Gwent Hospital",
        "http://dbpedia.org/ontology/openingYear": "1731"
    },
    {
        "http://dbpedia.org/ontology/Hospital": "http://dbpedia.org/resource/Mulago_Hospital",
        "Hospital": "Mulago Hospital",
        "http://dbpedia.org/ontology/openingYear": "2101"
    },
    {
        "http://dbpedia.org/ontology/Hospital": "http://dbpedia.org/resource/Montgomery_Regional_Hospital",
        "Hospital": "Montgomery Regional Hospital",
        "http://dbpedia.org/ontology/openingYear": "2108"
    },
    {
        "http://dbpedia.org/ontology/Hospital": "http://dbpedia.org/resource/Amala_Institute_of_Medical_Sciences",
        "Hospital": "Amala Institute of Medical Sciences",
        "http://dbpedia.org/ontology/openingYear": "2174"
    },
    {
        "http://dbpedia.org/ontology/Hospital": "http://dbpedia.org/resource/Kaiser_Foundation_Hospital_-_Fontana",
        "Hospital": "Kaiser Foundation Hospital - Fontana",
        "http://dbpedia.org/ontology/openingYear": "1927"
    },
    {
        "http://dbpedia.org/ontology/Hospital": "http://dbpedia.org/resource/Texas_Health_Huguley_Hospital_Fort_Worth_South",
        "Hospital": "Texas Health Huguley Hospital Fort Worth South",
        "http://dbpedia.org/ontology/openingYear": "2156"
    },
    {
        "http://dbpedia.org/ontology/Hospital": "http://dbpedia.org/resource/Clinical_Hospital_Dubrava",
        "Hospital": "Clinical Hospital Dubrava",
        "http://dbpedia.org/ontology/openingYear": "1881"
    },
    {
        "http://dbpedia.org/ontology/Hospital": "http://dbpedia.org/resource/Shriners_Hospital_for_Children_(Houston)",
        "Hospital": "Shriners Hospital for Children (Houston)",
        "http://dbpedia.org/ontology/openingYear": "2043"
    },
    {
        "http://dbpedia.org/ontology/Hospital": "http://dbpedia.org/resource/Charlottetown_Hospital",
        "Hospital": "Charlottetown Hospital",
        "http://dbpedia.org/ontology/openingYear": "1821"
    },
    {
        "http://dbpedia.org/ontology/Hospital": "http://dbpedia.org/resource/The_Park_Centre_for_Mental_Health",
        "Hospital": "The Park Centre for Mental Health",
        "http://dbpedia.org/ontology/openingYear": "2033"
    },
    {
        "http://dbpedia.org/ontology/Hospital": "http://dbpedia.org/resource/Voluntary_Health_Services",
        "Hospital": "Voluntary Health Services",
        "http://dbpedia.org/ontology/openingYear": "1778"
    },
    {
        "http://dbpedia.org/ontology/Hospital": "http://dbpedia.org/resource/John_Sealy_Hospital",
        "Hospital": "John Sealy Hospital",
        "http://dbpedia.org/ontology/openingYear": "1791"
    },
    {
        "http://dbpedia.org/ontology/Hospital": "http://dbpedia.org/resource/Kitagata_General_Hospital",
        "Hospital": "Kitagata General Hospital",
        "http://dbpedia.org/ontology/openingYear": "1948"
    },
    {
        "http://dbpedia.org/ontology/Hospital": "http://dbpedia.org/resource/Columbus_Regional_Health",
        "Hospital": "Columbus Regional Health",
        "http://dbpedia.org/ontology/openingYear": "1904"
    },
    {
        "http://dbpedia.org/ontology/Hospital": "http://dbpedia.org/resource/Buluba_Hospital",
        "Hospital": "Buluba Hospital",
        "http://dbpedia.org/ontology/openingYear": "1806"
    },
    {
        "http://dbpedia.org/ontology/Hospital": "http://dbpedia.org/resource/Maud_Hospital",
        "Hospital": "Maud Hospital",
        "http://dbpedia.org/ontology/openingYear": "1995"
    },
    {
        "http://dbpedia.org/ontology/Hospital": "http://dbpedia.org/resource/Crown_Street_Women's_Hospital",
        "Hospital": "Crown Street Women's Hospital",
        "http://dbpedia.org/ontology/openingYear": "1957"
    },
    {
        "http://dbpedia.org/ontology/Hospital": "http://dbpedia.org/resource/Dar_Al_Shifaa_Hospital",
        "Hospital": "Dar Al Shifaa Hospital",
        "http://dbpedia.org/ontology/openingYear": "1863"
    },
    {
        "http://dbpedia.org/ontology/Hospital": "http://dbpedia.org/resource/City_Hospital,_Birmingham",
        "Hospital": "City Hospital, Birmingham",
        "http://dbpedia.org/ontology/openingYear": "1699"
    },
    {
        "http://dbpedia.org/ontology/Hospital": "http://dbpedia.org/resource/Cornerstone_Regional_Hospital",
        "Hospital": "Cornerstone Regional Hospital",
        "http://dbpedia.org/ontology/openingYear": "1826"
    },
    {
        "http://dbpedia.org/ontology/Hospital": "http://dbpedia.org/resource/University_of_Utah_Hospital",
        "Hospital": "University of Utah Hospital",
        "http://dbpedia.org/ontology/openingYear": "1924"
    },
    {
        "http://dbpedia.org/ontology/Hospital": "http://dbpedia.org/resource/Community_Hospitals_and_Wellness_Centers",
        "Hospital": "Community Hospitals and Wellness Centers",
        "http://dbpedia.org/ontology/openingYear": "1855"
    },
    {
        "http://dbpedia.org/ontology/Hospital": "http://dbpedia.org/resource/Nairobi_Women's_Hospital",
        "Hospital": "Nairobi Women's Hospital",
        "http://dbpedia.org/ontology/openingYear": "1914"
    },
    {
        "http://dbpedia.org/ontology/Hospital": "http://dbpedia.org/resource/Blacktown_Hospital",
        "Hospital": "Blacktown Hospital",
        "http://dbpedia.org/ontology/openingYear": "1821"
    },
    {
        "http://dbpedia.org/ontology/Hospital": "http://dbpedia.org/resource/The_Bristol-Myers_Squibb_Children's_Hospital",
        "Hospital": "The Bristol-Myers Squibb Children's Hospital",
        "http://dbpedia.org/ontology/openingYear": "1829"
    },
    {
        "http://dbpedia.org/ontology/Hospital": "http://dbpedia.org/resource/College_Medical_Center",
        "Hospital": "College Medical Center",
        "http://dbpedia.org/ontology/openingYear": "1876"
    },
    {
        "http://dbpedia.org/ontology/Hospital": "http://dbpedia.org/resource/Keck_Hospital_of_USC",
        "Hospital": "Keck Hospital of USC",
        "http://dbpedia.org/ontology/openingYear": "1856"
    },
    {
        "http://dbpedia.org/ontology/Hospital": "http://dbpedia.org/resource/St._Vincent's_Medical_Center_Riverside",
        "Hospital": "St. Vincent's Medical Center Riverside",
        "http://dbpedia.org/ontology/openingYear": "1870"
    },
    {
        "http://dbpedia.org/ontology/Hospital": "http://dbpedia.org/resource/AtlantiCare_Regional_Medical_Center_Mainland_Division",
        "Hospital": "AtlantiCare Regional Medical Center Mainland Division",
        "http://dbpedia.org/ontology/openingYear": "2129"
    },
    {
        "http://dbpedia.org/ontology/Hospital": "http://dbpedia.org/resource/Valley_Regional_Hospital",
        "Hospital": "Valley Regional Hospital",
        "http://dbpedia.org/ontology/openingYear": "1887"
    },
    {
        "http://dbpedia.org/ontology/Hospital": "http://dbpedia.org/resource/Rebecca_Sealy_Hospital",
        "Hospital": "Rebecca Sealy Hospital",
        "http://dbpedia.org/ontology/openingYear": "2043"
    },
    {
        "http://dbpedia.org/ontology/Hospital": "http://dbpedia.org/resource/Uxbridge_Cottage_Hospital",
        "Hospital": "Uxbridge Cottage Hospital",
        "http://dbpedia.org/ontology/openingYear": "1854"
    },
    {
        "http://dbpedia.org/ontology/Hospital": "http://dbpedia.org/resource/Ninewells_Hospital",
        "Hospital": "Ninewells Hospital",
        "http://dbpedia.org/ontology/openingYear": "1994"
    },
    {
        "http://dbpedia.org/ontology/Hospital": "http://dbpedia.org/resource/University_Hospital_of_Wales",
        "Hospital": "University Hospital of Wales",
        "http://dbpedia.org/ontology/openingYear": "1994"
    },
    {
        "http://dbpedia.org/ontology/Hospital": "http://dbpedia.org/resource/Christchurch_Hospital,_Dorset",
        "Hospital": "Christchurch Hospital, Dorset",
        "http://dbpedia.org/ontology/openingYear": "1937"
    },
    {
        "http://dbpedia.org/ontology/Hospital": "http://dbpedia.org/resource/Northwestern_Medical_Center",
        "Hospital": "Northwestern Medical Center",
        "http://dbpedia.org/ontology/openingYear": "1811"
    },
    {
        "http://dbpedia.org/ontology/Hospital": "http://dbpedia.org/resource/Royal_Newcastle_Hospital",
        "Hospital": "Royal Newcastle Hospital",
        "http://dbpedia.org/ontology/openingYear": "1791"
    },
    {
        "http://dbpedia.org/ontology/Hospital": "http://dbpedia.org/resource/Park_City_Medical_Center",
        "Hospital": "Park City Medical Center",
        "http://dbpedia.org/ontology/openingYear": "2005"
    },
    {
        "http://dbpedia.org/ontology/Hospital": "http://dbpedia.org/resource/Central_State_Hospital_(Virginia)",
        "Hospital": "Central State Hospital (Virginia)",
        "http://dbpedia.org/ontology/openingYear": "1779"
    },
    {
        "http://dbpedia.org/ontology/Hospital": "http://dbpedia.org/resource/Wesley_Hospital_(Brisbane)",
        "Hospital": "Wesley Hospital (Brisbane)",
        "http://dbpedia.org/ontology/openingYear": "1916"
    },
    {
        "http://dbpedia.org/ontology/Hospital": "http://dbpedia.org/resource/Christchurch_Hospital",
        "Hospital": "Christchurch Hospital",
        "http://dbpedia.org/ontology/openingYear": "2023"
    },
    {
        "http://dbpedia.org/ontology/Hospital": "http://dbpedia.org/resource/Martin_University_Hospital",
        "Hospital": "Martin University Hospital",
        "http://dbpedia.org/ontology/openingYear": "1717"
    },
    {
        "http://dbpedia.org/ontology/Hospital": "http://dbpedia.org/resource/Whitecourt_Healthcare_Centre",
        "Hospital": "Whitecourt Healthcare Centre",
        "http://dbpedia.org/ontology/openingYear": "1799"
    },
    {
        "http://dbpedia.org/ontology/Hospital": "http://dbpedia.org/resource/Kuluva_Hospital",
        "Hospital": "Kuluva Hospital",
        "http://dbpedia.org/ontology/openingYear": "2080"
    },
    {
        "http://dbpedia.org/ontology/Hospital": "http://dbpedia.org/resource/Modbury_Hospital",
        "Hospital": "Modbury Hospital",
        "http://dbpedia.org/ontology/openingYear": "1999"
    },
    {
        "http://dbpedia.org/ontology/Hospital": "http://dbpedia.org/resource/St._John's_Regional_Medical_Center_(Missouri)",
        "Hospital": "St. John's Regional Medical Center (Missouri)",
        "http://dbpedia.org/ontology/openingYear": "1716"
    },
    {
        "http://dbpedia.org/ontology/Hospital": "http://dbpedia.org/resource/Miyako_Nanseien_Sanatorium",
        "Hospital": "Miyako Nanseien Sanatorium",
        "http://dbpedia.org/ontology/openingYear": "1908"
    },
    {
        "http://dbpedia.org/ontology/Hospital": "http://dbpedia.org/resource/Belmont_Hospital",
        "Hospital": "Belmont Hospital",
        "http://dbpedia.org/ontology/openingYear": "1909"
    },
    {
        "http://dbpedia.org/ontology/Hospital": "http://dbpedia.org/resource/Samaritan_North_Lincoln_Hospital",
        "Hospital": "Samaritan North Lincoln Hospital",
        "http://dbpedia.org/ontology/openingYear": "1942"
    },
    {
        "http://dbpedia.org/ontology/Hospital": "http://dbpedia.org/resource/Samaritan's_Touch_Care_Center",
        "Hospital": "Samaritan's Touch Care Center",
        "http://dbpedia.org/ontology/openingYear": "1926"
    },
    {
        "http://dbpedia.org/ontology/Hospital": "http://dbpedia.org/resource/Peterborough_District_Hospital",
        "Hospital": "Peterborough District Hospital",
        "http://dbpedia.org/ontology/openingYear": "1888"
    },
    {
        "http://dbpedia.org/ontology/Hospital": "http://dbpedia.org/resource/Altnagelvin_Area_Hospital",
        "Hospital": "Altnagelvin Area Hospital",
        "http://dbpedia.org/ontology/openingYear": "2030"
    },
    {
        "http://dbpedia.org/ontology/Hospital": "http://dbpedia.org/resource/Olympia_Medical_Center",
        "Hospital": "Olympia Medical Center",
        "http://dbpedia.org/ontology/openingYear": "2023"
    },
    {
        "http://dbpedia.org/ontology/Hospital": "http://dbpedia.org/resource/Royal_Manchester_Children's_Hospital",
        "Hospital": "Royal Manchester Children's Hospital",
        "http://dbpedia.org/ontology/openingYear": "1963"
    },
    {
        "http://dbpedia.org/ontology/Hospital": "http://dbpedia.org/resource/MultiCare_Mary_Bridge_Children's_Hospital_&_Health_Center",
        "Hospital": "MultiCare Mary Bridge Children's Hospital & Health Center",
        "http://dbpedia.org/ontology/openingYear": "1876"
    },
    {
        "http://dbpedia.org/ontology/Hospital": "http://dbpedia.org/resource/St._Joseph's_Health_Centre",
        "Hospital": "St. Joseph's Health Centre",
        "http://dbpedia.org/ontology/openingYear": "1933"
    },
    {
        "http://dbpedia.org/ontology/Hospital": "http://dbpedia.org/resource/Singleton_Hospital",
        "Hospital": "Singleton Hospital",
        "http://dbpedia.org/ontology/openingYear": "2048"
    },
    {
        "http://dbpedia.org/ontology/Hospital": "http://dbpedia.org/resource/Redmond_Regional_Medical_Center",
        "Hospital": "Redmond Regional Medical Center",
        "http://dbpedia.org/ontology/openingYear": "1841"
    },
    {
        "http://dbpedia.org/ontology/Hospital": "http://dbpedia.org/resource/Mukono_Health_Centre_IV",
        "Hospital": "Mukono Health Centre IV",
        "http://dbpedia.org/ontology/openingYear": "2054"
    },
    {
        "http://dbpedia.org/ontology/Hospital": "http://dbpedia.org/resource/Madras_Medical_Mission",
        "Hospital": "Madras Medical Mission",
        "http://dbpedia.org/ontology/openingYear": "1905"
    },
    {
        "http://dbpedia.org/ontology/Hospital": "http://dbpedia.org/resource/Shushrusha_Citizens'_Co-operative_Hospital",
        "Hospital": "Shushrusha Citizens' Co-operative Hospital",
        "http://dbpedia.org/ontology/openingYear": "1824"
    },
    {
        "http://dbpedia.org/ontology/Hospital": "http://dbpedia.org/resource/Ajman_Specialty_General_Hospital",
        "Hospital": "Ajman Specialty General Hospital",
        "http://dbpedia.org/ontology/openingYear": "2085"
    },
    {
        "http://dbpedia.org/ontology/Hospital": "http://dbpedia.org/resource/Maple_Grove_Hospital",
        "Hospital": "Maple Grove Hospital",
        "http://dbpedia.org/ontology/openingYear": "2040"
    },
    {
        "http://dbpedia.org/ontology/Hospital": "http://dbpedia.org/resource/Adamson_Hospital",
        "Hospital": "Adamson Hospital",
        "http://dbpedia.org/ontology/openingYear": "1792"
    }
]