[
    {
        "http://dbpedia.org/ontology/SoccerClubSeason": "http://dbpedia.org/resource/2009_Club_Olimpia_season",
        "SoccerClubSeason": "2009 Club Olimpia season",
        "http://dbpedia.org/ontology/squadNumber": "9"
    },
    {
        "http://dbpedia.org/ontology/SoccerClubSeason": "http://dbpedia.org/resource/2007_Club_Olimpia_season",
        "SoccerClubSeason": "2007 Club Olimpia season",
        "http://dbpedia.org/ontology/squadNumber": "17"
    },
    {
        "http://dbpedia.org/ontology/SoccerClubSeason": "http://dbpedia.org/resource/2006-07_Fulham_F.C._season",
        "SoccerClubSeason": "2006-07 Fulham F.C. season",
        "http://dbpedia.org/ontology/squadNumber": "28"
    },
    {
        "http://dbpedia.org/ontology/SoccerClubSeason": "http://dbpedia.org/resource/2008_Club_Olimpia_season",
        "SoccerClubSeason": "2008 Club Olimpia season",
        "http://dbpedia.org/ontology/squadNumber": "2"
    },
    {
        "http://dbpedia.org/ontology/SoccerClubSeason": "http://dbpedia.org/resource/2006-07_Fulham_F.C._season",
        "SoccerClubSeason": "2006-07 Fulham F.C. season",
        "http://dbpedia.org/ontology/squadNumber": "20"
    },
    {
        "http://dbpedia.org/ontology/SoccerClubSeason": "http://dbpedia.org/resource/2008-09_Queensland_Roar_W-League_season",
        "SoccerClubSeason": "2008-09 Queensland Roar W-League season",
        "http://dbpedia.org/ontology/squadNumber": "18"
    },
    {
        "http://dbpedia.org/ontology/SoccerClubSeason": "http://dbpedia.org/resource/2009_Club_Olimpia_season",
        "SoccerClubSeason": "2009 Club Olimpia season",
        "http://dbpedia.org/ontology/squadNumber": "4"
    },
    {
        "http://dbpedia.org/ontology/SoccerClubSeason": "http://dbpedia.org/resource/2007_Club_Olimpia_season",
        "SoccerClubSeason": "2007 Club Olimpia season",
        "http://dbpedia.org/ontology/squadNumber": "27"
    },
    {
        "http://dbpedia.org/ontology/SoccerClubSeason": "http://dbpedia.org/resource/2007_Club_Olimpia_season",
        "SoccerClubSeason": "2007 Club Olimpia season",
        "http://dbpedia.org/ontology/squadNumber": "22"
    },
    {
        "http://dbpedia.org/ontology/SoccerClubSeason": "http://dbpedia.org/resource/2004-05_Fulham_F.C._season",
        "SoccerClubSeason": "2004-05 Fulham F.C. season",
        "http://dbpedia.org/ontology/squadNumber": "17"
    },
    {
        "http://dbpedia.org/ontology/SoccerClubSeason": "http://dbpedia.org/resource/2008-09_Queensland_Roar_W-League_season",
        "SoccerClubSeason": "2008-09 Queensland Roar W-League season",
        "http://dbpedia.org/ontology/squadNumber": "7"
    },
    {
        "http://dbpedia.org/ontology/SoccerClubSeason": "http://dbpedia.org/resource/2008-09_Queensland_Roar_W-League_season",
        "SoccerClubSeason": "2008-09 Queensland Roar W-League season",
        "http://dbpedia.org/ontology/squadNumber": "8"
    },
    {
        "http://dbpedia.org/ontology/SoccerClubSeason": "http://dbpedia.org/resource/2009_Club_Olimpia_season",
        "SoccerClubSeason": "2009 Club Olimpia season",
        "http://dbpedia.org/ontology/squadNumber": "6"
    },
    {
        "http://dbpedia.org/ontology/SoccerClubSeason": "http://dbpedia.org/resource/2006-07_Fulham_F.C._season",
        "SoccerClubSeason": "2006-07 Fulham F.C. season",
        "http://dbpedia.org/ontology/squadNumber": "17"
    },
    {
        "http://dbpedia.org/ontology/SoccerClubSeason": "http://dbpedia.org/resource/2008-09_Sydney_FC_W-League_season",
        "SoccerClubSeason": "2008-09 Sydney FC W-League season",
        "http://dbpedia.org/ontology/squadNumber": "6"
    },
    {
        "http://dbpedia.org/ontology/SoccerClubSeason": "http://dbpedia.org/resource/2006-07_Fulham_F.C._season",
        "SoccerClubSeason": "2006-07 Fulham F.C. season",
        "http://dbpedia.org/ontology/squadNumber": "3"
    },
    {
        "http://dbpedia.org/ontology/SoccerClubSeason": "http://dbpedia.org/resource/2009_Club_Olimpia_season",
        "SoccerClubSeason": "2009 Club Olimpia season",
        "http://dbpedia.org/ontology/squadNumber": "26"
    },
    {
        "http://dbpedia.org/ontology/SoccerClubSeason": "http://dbpedia.org/resource/2004-05_Fulham_F.C._season",
        "SoccerClubSeason": "2004-05 Fulham F.C. season",
        "http://dbpedia.org/ontology/squadNumber": "12"
    },
    {
        "http://dbpedia.org/ontology/SoccerClubSeason": "http://dbpedia.org/resource/2004-05_Fulham_F.C._season",
        "SoccerClubSeason": "2004-05 Fulham F.C. season",
        "http://dbpedia.org/ontology/squadNumber": "6"
    },
    {
        "http://dbpedia.org/ontology/SoccerClubSeason": "http://dbpedia.org/resource/2005-06_Fulham_F.C._season",
        "SoccerClubSeason": "2005-06 Fulham F.C. season",
        "http://dbpedia.org/ontology/squadNumber": "22"
    },
    {
        "http://dbpedia.org/ontology/SoccerClubSeason": "http://dbpedia.org/resource/2008-09_Queensland_Roar_W-League_season",
        "SoccerClubSeason": "2008-09 Queensland Roar W-League season",
        "http://dbpedia.org/ontology/squadNumber": "10"
    },
    {
        "http://dbpedia.org/ontology/SoccerClubSeason": "http://dbpedia.org/resource/2008_Club_Olimpia_season",
        "SoccerClubSeason": "2008 Club Olimpia season",
        "http://dbpedia.org/ontology/squadNumber": "1"
    },
    {
        "http://dbpedia.org/ontology/SoccerClubSeason": "http://dbpedia.org/resource/2003-04_Fulham_F.C._season",
        "SoccerClubSeason": "2003-04 Fulham F.C. season",
        "http://dbpedia.org/ontology/squadNumber": "23"
    },
    {
        "http://dbpedia.org/ontology/SoccerClubSeason": "http://dbpedia.org/resource/2008_SK_Brann_season",
        "SoccerClubSeason": "2008 SK Brann season",
        "http://dbpedia.org/ontology/squadNumber": "11"
    },
    {
        "http://dbpedia.org/ontology/SoccerClubSeason": "http://dbpedia.org/resource/2009_Club_Olimpia_season",
        "SoccerClubSeason": "2009 Club Olimpia season",
        "http://dbpedia.org/ontology/squadNumber": "26"
    },
    {
        "http://dbpedia.org/ontology/SoccerClubSeason": "http://dbpedia.org/resource/2004-05_Fulham_F.C._season",
        "SoccerClubSeason": "2004-05 Fulham F.C. season",
        "http://dbpedia.org/ontology/squadNumber": "9"
    },
    {
        "http://dbpedia.org/ontology/SoccerClubSeason": "http://dbpedia.org/resource/2009_Club_Olimpia_season",
        "SoccerClubSeason": "2009 Club Olimpia season",
        "http://dbpedia.org/ontology/squadNumber": "20"
    },
    {
        "http://dbpedia.org/ontology/SoccerClubSeason": "http://dbpedia.org/resource/2004-05_Fulham_F.C._season",
        "SoccerClubSeason": "2004-05 Fulham F.C. season",
        "http://dbpedia.org/ontology/squadNumber": "8"
    },
    {
        "http://dbpedia.org/ontology/SoccerClubSeason": "http://dbpedia.org/resource/2006-07_Fulham_F.C._season",
        "SoccerClubSeason": "2006-07 Fulham F.C. season",
        "http://dbpedia.org/ontology/squadNumber": "21"
    },
    {
        "http://dbpedia.org/ontology/SoccerClubSeason": "http://dbpedia.org/resource/2008-09_Sydney_FC_W-League_season",
        "SoccerClubSeason": "2008-09 Sydney FC W-League season",
        "http://dbpedia.org/ontology/squadNumber": "3"
    },
    {
        "http://dbpedia.org/ontology/SoccerClubSeason": "http://dbpedia.org/resource/2006-07_Fulham_F.C._season",
        "SoccerClubSeason": "2006-07 Fulham F.C. season",
        "http://dbpedia.org/ontology/squadNumber": "15"
    },
    {
        "http://dbpedia.org/ontology/SoccerClubSeason": "http://dbpedia.org/resource/2006-07_Fulham_F.C._season",
        "SoccerClubSeason": "2006-07 Fulham F.C. season",
        "http://dbpedia.org/ontology/squadNumber": "38"
    },
    {
        "http://dbpedia.org/ontology/SoccerClubSeason": "http://dbpedia.org/resource/2006-07_Fulham_F.C._season",
        "SoccerClubSeason": "2006-07 Fulham F.C. season",
        "http://dbpedia.org/ontology/squadNumber": "22"
    },
    {
        "http://dbpedia.org/ontology/SoccerClubSeason": "http://dbpedia.org/resource/2005-06_Fulham_F.C._season",
        "SoccerClubSeason": "2005-06 Fulham F.C. season",
        "http://dbpedia.org/ontology/squadNumber": "35"
    },
    {
        "http://dbpedia.org/ontology/SoccerClubSeason": "http://dbpedia.org/resource/2005-06_Fulham_F.C._season",
        "SoccerClubSeason": "2005-06 Fulham F.C. season",
        "http://dbpedia.org/ontology/squadNumber": "26"
    },
    {
        "http://dbpedia.org/ontology/SoccerClubSeason": "http://dbpedia.org/resource/2008-09_Sydney_FC_W-League_season",
        "SoccerClubSeason": "2008-09 Sydney FC W-League season",
        "http://dbpedia.org/ontology/squadNumber": "1"
    },
    {
        "http://dbpedia.org/ontology/SoccerClubSeason": "http://dbpedia.org/resource/2008-09_Queensland_Roar_W-League_season",
        "SoccerClubSeason": "2008-09 Queensland Roar W-League season",
        "http://dbpedia.org/ontology/squadNumber": "20"
    },
    {
        "http://dbpedia.org/ontology/SoccerClubSeason": "http://dbpedia.org/resource/2008-09_Queensland_Roar_W-League_season",
        "SoccerClubSeason": "2008-09 Queensland Roar W-League season",
        "http://dbpedia.org/ontology/squadNumber": "11"
    },
    {
        "http://dbpedia.org/ontology/SoccerClubSeason": "http://dbpedia.org/resource/2008_SK_Brann_season",
        "SoccerClubSeason": "2008 SK Brann season",
        "http://dbpedia.org/ontology/squadNumber": "23"
    },
    {
        "http://dbpedia.org/ontology/SoccerClubSeason": "http://dbpedia.org/resource/2007_Club_Olimpia_season",
        "SoccerClubSeason": "2007 Club Olimpia season",
        "http://dbpedia.org/ontology/squadNumber": "27"
    },
    {
        "http://dbpedia.org/ontology/SoccerClubSeason": "http://dbpedia.org/resource/2008_Club_Olimpia_season",
        "SoccerClubSeason": "2008 Club Olimpia season",
        "http://dbpedia.org/ontology/squadNumber": "17"
    },
    {
        "http://dbpedia.org/ontology/SoccerClubSeason": "http://dbpedia.org/resource/2003-04_Fulham_F.C._season",
        "SoccerClubSeason": "2003-04 Fulham F.C. season",
        "http://dbpedia.org/ontology/squadNumber": "30"
    },
    {
        "http://dbpedia.org/ontology/SoccerClubSeason": "http://dbpedia.org/resource/2006-07_Fulham_F.C._season",
        "SoccerClubSeason": "2006-07 Fulham F.C. season",
        "http://dbpedia.org/ontology/squadNumber": "38"
    },
    {
        "http://dbpedia.org/ontology/SoccerClubSeason": "http://dbpedia.org/resource/2008_Club_Olimpia_season",
        "SoccerClubSeason": "2008 Club Olimpia season",
        "http://dbpedia.org/ontology/squadNumber": "24"
    }
]