[
    {
        "col0": "Questing",
        "col1": "D. Stud",
        "col2": "Seeking the Gold",
        "col3": "Hard Spun",
        "col4": "Danzig",
        "col5": "2009-04-13"
    },
    {
        "col0": "Quest for Fame",
        "col1": "J. Farms",
        "col2": "Green Dancer",
        "col3": "Rainbow Quest",
        "col4": "Blushing Groom",
        "col5": "1987-02-15"
    },
    {
        "col0": "Prince of Penzance",
        "col1": "Matamata",
        "col2": "Mr Prospector",
        "col3": "Pentire",
        "col4": "Be My Guest",
        "col5": "2009-11-20"
    },
    {
        "col0": "Prince of Dance",
        "col1": "B. Stud",
        "col2": "English Prince",
        "col3": "Sadler's Wells",
        "col4": "Northern Dancer",
        "col5": "1986-04-21"
    },
    {
        "col0": "Prince John",
        "col1": "J. D. Hertz",
        "col2": "Count Fleet",
        "col3": "Princequillo",
        "col4": "Prince Rose",
        "col5": "1953-04-06"
    },
    {
        "col0": "Pleascach",
        "col1": "J. Bolger",
        "col2": "Thunder Gulch",
        "col3": "Teofilo",
        "col4": "Galileo",
        "col5": "2012-02-06"
    },
    {
        "col0": "Pivotal",
        "col1": "C. P. Stud",
        "col2": "Cozzene",
        "col3": "Polar Falcon",
        "col4": "Nureyev",
        "col5": "1993-01-19"
    },
    {
        "col0": "Phalaris",
        "col1": "17th Earl of Derby",
        "col2": "Sainfoin",
        "col3": "Polymelus",
        "col4": "Cyllene",
        "col5": "1913-05-16"
    },
    {
        "col0": "Personal Ensign",
        "col1": "O. Phipps",
        "col2": "Hoist The Flag",
        "col3": "Private Account",
        "col4": "Damascus",
        "col5": "1984-04-27"
    },
    {
        "col0": "Pas de Reponse",
        "col1": "W. e. Frere",
        "col2": "Mr Prospector",
        "col3": "Danzig",
        "col4": "Northern Dancer",
        "col5": "1994-04-17"
    },
    {
        "col0": "Palace Malice",
        "col1": "William S. Farish III",
        "col2": "Royal Anthem",
        "col3": "Curlin",
        "col4": "Smart Strike",
        "col5": "2010-05-02"
    },
    {
        "col0": "Palace Episode",
        "col1": "R. Farm",
        "col2": "Seattle Dancer",
        "col3": "Machiavellian",
        "col4": "Mr Prospector",
        "col5": "2003-05-02"
    },
    {
        "col0": "Paean",
        "col1": "John Scott-Ellis, 9th Baron Howard de Walden",
        "col2": "Nijinsky",
        "col3": "Bustino",
        "col4": "Busted",
        "col5": "1983-04-04"
    },
    {
        "col0": "Owington",
        "col1": "Edward Stanley, 18th Earl of Derby",
        "col2": "High Top",
        "col3": "Green Desert",
        "col4": "Danzig",
        "col5": "1991-02-06"
    },
    {
        "col0": "Ormonde",
        "col1": "Hugh Grosvenor, 1st Duke of Westminster",
        "col2": "Macaroni",
        "col3": "Bend Or",
        "col4": "Doncaster",
        "col5": "1883-03-18"
    },
    {
        "col0": "Orb",
        "col1": "P. Stable",
        "col2": "Unbridled",
        "col3": "Malibu Moon",
        "col4": "A P Indy",
        "col5": "2010-02-24"
    },
    {
        "col0": "Oh So Sharp",
        "col1": "Mohammed bin Rashid Al Maktoum",
        "col2": "Graustark",
        "col3": "Kris",
        "col4": "Sharpen Up",
        "col5": "1982-03-30"
    },
    {
        "col0": "Observatory",
        "col1": "J. Farms",
        "col2": "Roberto",
        "col3": "Distant View",
        "col4": "Mr Prospector",
        "col5": "1997-02-17"
    },
    {
        "col0": "Oasis Dream",
        "col1": "J. Stud",
        "col2": "Dancing Brave",
        "col3": "Green Desert",
        "col4": "Danzig",
        "col5": "2000-03-30"
    },
    {
        "col0": "Noverre",
        "col1": "D. Stud",
        "col2": "Northern Dancer",
        "col3": "Rahy",
        "col4": "Blushing Groom",
        "col5": "1998-05-02"
    },
    {
        "col0": "Noble Mission",
        "col1": "J. Farms",
        "col2": "Danehill",
        "col3": "Galileo",
        "col4": "Sadler's Wells",
        "col5": "2009-02-25"
    },
    {
        "col0": "Nijinsky",
        "col1": "W. Farm",
        "col2": "Bull Page",
        "col3": "Northern Dancer",
        "col4": "Nearctic",
        "col5": "1967-02-21"
    },
    {
        "col0": "Nedawi",
        "col1": "Mohammed bin Rashid Al Maktoum",
        "col2": "Northern Dancer",
        "col3": "Rainbow Quest",
        "col4": "Blushing Groom",
        "col5": "1995-04-09"
    },
    {
        "col0": "Nashwan",
        "col1": "Hamdan bin Rashid Al Maktoum",
        "col2": "Bustino",
        "col3": "Blushing Groom",
        "col4": "Red God",
        "col5": "1986-03-01"
    },
    {
        "col0": "My Tent Or Yours",
        "col1": "D. Stores",
        "col2": "Ela-Mana-Mou",
        "col3": "Desert Prince",
        "col4": "Green Desert",
        "col5": "2007-03-16"
    },
    {
        "col0": "My Emma",
        "col1": "Victor Matthews, Baron Matthews",
        "col2": "High Top",
        "col3": "Marju",
        "col4": "Last Tycoon",
        "col5": "1993-03-19"
    },
    {
        "col0": "Music Show",
        "col1": "D. Stud",
        "col2": "Mr Prospector",
        "col3": "Noverre",
        "col4": "Rahy",
        "col5": "2007-04-18"
    },
    {
        "col0": "Mujahid",
        "col1": "S. Farm",
        "col2": "Storm Cat",
        "col3": "Danzig",
        "col4": "Northern Dancer",
        "col5": "1996-01-31"
    },
    {
        "col0": "Mr. Prospector",
        "col1": "L. C. II",
        "col2": "Nashua",
        "col3": "Raise a Native",
        "col4": "Native Dancer",
        "col5": "1970-01-28"
    },
    {
        "col0": "Moonshell",
        "col1": "Mohammed bin Rashid Al Maktoum",
        "col2": "Kris",
        "col3": "Sadler's Wells",
        "col4": "Northern Dancer",
        "col5": "1992-02-20"
    },
    {
        "col0": "Monterosso",
        "col1": "D. Stud",
        "col2": "Barathea",
        "col3": "Dubawi",
        "col4": "Dubai Millennium",
        "col5": "2007-02-14"
    },
    {
        "col0": "Miesque",
        "col1": "S. Niarchos",
        "col2": "Prove Out",
        "col3": "Nureyev",
        "col4": "Northern Dancer",
        "col5": "1984-03-14"
    },
    {
        "col0": "Medicean",
        "col1": "C. P. Stud",
        "col2": "Storm Bird",
        "col3": "Machiavellian",
        "col4": "Mr Prospector",
        "col5": "1997-02-26"
    },
    {
        "col0": "Mastery",
        "col1": "D. Stud",
        "col2": "Diesis",
        "col3": "Sulamani",
        "col4": "Hernando",
        "col5": "2006-02-25"
    },
    {
        "col0": "Masked Marvel",
        "col1": "N. Park",
        "col2": "Mark of Esteem",
        "col3": "Montjeu",
        "col4": "Sadler's Wells",
        "col5": "2008-05-14"
    },
    {
        "col0": "Mashaallah",
        "col1": "William Stamps Farish III",
        "col2": "Round Table",
        "col3": "Nijinsky II",
        "col4": "Northern Dancer",
        "col5": "1988-03-09"
    },
    {
        "col0": "Maroof",
        "col1": "S. Farm",
        "col2": "Bustino",
        "col3": "Danzig",
        "col4": "Northern Dancer",
        "col5": "1990-04-12"
    },
    {
        "col0": "Markab",
        "col1": "S. Stud",
        "col2": "Nashwan",
        "col3": "Green Desert",
        "col4": "Danzig",
        "col5": "2003-02-04"
    },
    {
        "col0": "Mark of Esteem",
        "col1": "Mohammed bin Rashid Al Maktoum",
        "col2": "Ajdal",
        "col3": "Darshaan",
        "col4": "Shirley Heights",
        "col5": "1993-03-26"
    },
    {
        "col0": "Man o' War",
        "col1": "A. B. Jr.",
        "col2": "Rock Sand",
        "col3": "Fair Play",
        "col4": "Hastings",
        "col5": "1917-03-29"
    },
    {
        "col0": "Magic of Life",
        "col1": "N. Farm",
        "col2": "Northern Dancer",
        "col3": "Seattle Slew",
        "col4": "Bold Reasoning",
        "col5": "1985-01-27"
    },
    {
        "col0": "Lyric of Light",
        "col1": "D. Stud",
        "col2": "Green Desert",
        "col3": "Street Cry",
        "col4": "Machiavellian",
        "col5": "2009-03-01"
    },
    {
        "col0": "Lumiere",
        "col1": "D. Stud",
        "col2": "Tobougg",
        "col3": "Shamardal",
        "col4": "Giant's Causeway",
        "col5": "2013-03-10"
    },
    {
        "col0": "Lujain",
        "col1": "D. Stud",
        "col2": "Shadeed",
        "col3": "Seeking the Gold",
        "col4": "Mr Prospector",
        "col5": "1996-02-08"
    },
    {
        "col0": "Lucky Nine",
        "col1": "D. Stud",
        "col2": "Green Desert",
        "col3": "Dubawi",
        "col4": "Dubai Millennium",
        "col5": "2007-03-12"
    },
    {
        "col0": "Light Shift",
        "col1": "S. Niarchos",
        "col2": "Shirley Heights",
        "col3": "Kingmambo",
        "col4": "Mr. Prospector",
        "col5": "2004-03-22"
    },
    {
        "col0": "Law Society",
        "col1": "William Stamps Farish III",
        "col2": "Boldnesian",
        "col3": "Alleged",
        "col4": "Hoist the Flag",
        "col5": "1982-02-16"
    },
    {
        "col0": "Landing Light",
        "col1": "B. Stud",
        "col2": "Ela-Mana-Mou",
        "col3": "In the Wings",
        "col4": "Sadler's Wells",
        "col5": "1995-05-09"
    },
    {
        "col0": "Lailani",
        "col1": "Maktoum bin Rashid Al Maktoum",
        "col2": "Mr Prospector",
        "col3": "Unfuwain",
        "col4": "Northern Dancer",
        "col5": "1998-02-02"
    },
    {
        "col0": "Lady Eli",
        "col1": "R. Farm",
        "col2": "Saint Ballado",
        "col3": "Divine Park",
        "col4": "Chester House",
        "col5": "2012-02-02"
    },
    {
        "col0": "Kissing Cousin",
        "col1": "S. Mohammed",
        "col2": "Kris",
        "col3": "Danehill",
        "col4": "Danzig",
        "col5": "1991-04-01"
    },
    {
        "col0": "Kind",
        "col1": "J. Farms",
        "col2": "Rainbow Quest",
        "col3": "Danehill",
        "col4": "Danzig",
        "col5": "2001-04-21"
    },
    {
        "col0": "Key Change",
        "col1": "A. K. IV",
        "col2": "The Minstrel",
        "col3": "Darshaan",
        "col4": "Shirley Heights",
        "col5": "1993-05-10"
    },
    {
        "col0": "Kentucky Gold",
        "col1": "L. C. II",
        "col2": "Nashua",
        "col3": "Raise A Native",
        "col4": "Native Dancer",
        "col5": "1973-02-14"
    },
    {
        "col0": "Kahyasi",
        "col1": "A. K. IV",
        "col2": "Blushing Groom",
        "col3": "Ile de Bourbon",
        "col4": "Nijinsky II",
        "col5": "1985-04-02"
    },
    {
        "col0": "Jupiter Island",
        "col1": "Robin Russell, 14th Duke of Bedford",
        "col2": "Reform",
        "col3": "St. Paddy",
        "col4": "Aureole",
        "col5": "1979-02-23"
    },
    {
        "col0": "Judy the Beauty",
        "col1": "A. Springs",
        "col2": "Holy Bull",
        "col3": "Ghostzapper",
        "col4": "Awesome Again",
        "col5": "2009-03-17"
    },
    {
        "col0": "John F Kennedy",
        "col1": "S. Niarchos",
        "col2": "Danehill",
        "col3": "Galileo",
        "col4": "Sadlers Wells",
        "col5": "2012-05-08"
    },
    {
        "col0": "Ivanjica",
        "col1": "J. Wertheimer",
        "col2": "Vieux Manoir",
        "col3": "Sir Ivor",
        "col4": "Sir Gaylord",
        "col5": "1972-05-03"
    },
    {
        "col0": "Islington",
        "col1": "B. Stud",
        "col2": "Darshaan",
        "col3": "Sadler's Wells",
        "col4": "Northern Dancer",
        "col5": "1999-02-12"
    },
    {
        "col0": "Intense Focus",
        "col1": "T. C. Farm",
        "col2": "Danehill",
        "col3": "Giant's Causeway",
        "col4": "Storm Cat",
        "col5": "2006-02-24"
    },
    {
        "col0": "Intello",
        "col1": "W. e. Frere",
        "col2": "Danehill",
        "col3": "Galileo",
        "col4": "Sadler's Wells",
        "col5": "2010-04-14"
    },
    {
        "col0": "Integral",
        "col1": "C. P. Stud",
        "col2": "Danehill",
        "col3": "Dalakhani",
        "col4": "Darshaan",
        "col5": "2010-03-13"
    },
    {
        "col0": "Ibn Khaldun",
        "col1": "D. Stud",
        "col2": "Sadler's Wells",
        "col3": "Dubai Destination",
        "col4": "Kingmambo",
        "col5": "2005-02-14"
    },
    {
        "col0": "Ibn Bey",
        "col1": "Henry Herbert, 7th Earl of Carnarvon",
        "col2": "High Top",
        "col3": "Mill Reef",
        "col4": "Never Bend",
        "col5": "1984-03-22"
    },
    {
        "col0": "Hot Snap",
        "col1": "J. Farms",
        "col2": "Kingmambo",
        "col3": "Pivotal",
        "col4": "Polar Falcon",
        "col5": "2010-03-29"
    },
    {
        "col0": "Hooray",
        "col1": "C. P. Stud",
        "col2": "Machiavellian",
        "col3": "Invincible Spirit",
        "col4": "Green Desert",
        "col5": "2008-03-17"
    },
    {
        "col0": "Homing",
        "col1": "L. Rotherwick",
        "col2": "St. Paddy",
        "col3": "Habitat",
        "col4": "Sir Gaylord",
        "col5": "1975-03-25"
    },
    {
        "col0": "Hill Prince",
        "col1": "C. Chenery",
        "col2": "Bubbling Over",
        "col3": "Princequillo",
        "col4": "Prince Rose",
        "col5": "1947-02-20"
    },
    {
        "col0": "Hernando",
        "col1": "S. Niarchos",
        "col2": "Miswaki",
        "col3": "Niniski",
        "col4": "Nijinsky",
        "col5": "1990-02-08"
    },
    {
        "col0": "Harzand",
        "col1": "A. K. IV",
        "col2": "Xaar",
        "col3": "Sea The Stars",
        "col4": "Cape Cross",
        "col5": "2013-03-06"
    },
    {
        "col0": "Harbour Law",
        "col1": "A. Oppenheimer",
        "col2": "Pivotal",
        "col3": "Lawman",
        "col4": "Invincible Spirit",
        "col5": "2013-03-30"
    },
    {
        "col0": "Harayir",
        "col1": "S. Racing",
        "col2": "Shareef Dancer",
        "col3": "Gulch",
        "col4": "Mr. Prospector",
        "col5": "1992-03-22"
    },
    {
        "col0": "Grand Lodge",
        "col1": "John Scott-Ellis, 9th Baron Howard de Walden",
        "col2": "Habitat",
        "col3": "Chief's Crown",
        "col4": "Danzig",
        "col5": "1991-03-06"
    },
    {
        "col0": "Golden Opinion",
        "col1": "D. Stud",
        "col2": "Mr Prospector",
        "col3": "Slew o' Gold",
        "col4": "Seattle Slew",
        "col5": "1986-02-23"
    },
    {
        "col0": "Gold Splash",
        "col1": "W. e. Frere",
        "col2": "Lyphard",
        "col3": "Blushing Groom",
        "col4": "Red God",
        "col5": "1990-01-23"
    },
    {
        "col0": "Glint of Gold",
        "col1": "P. Mellon",
        "col2": "Graustark",
        "col3": "Mill Reef",
        "col4": "Never Bend",
        "col5": "1978-04-05"
    },
    {
        "col0": "Ghanaati",
        "col1": "S. Racing",
        "col2": "Mr. Prospector",
        "col3": "Giant's Causeway",
        "col4": "Storm Cat",
        "col5": "2006-03-28"
    },
    {
        "col0": "Gay Gallanta",
        "col1": "F. Holdings",
        "col2": "Nureyev",
        "col3": "Woodman",
        "col4": "Mr. Prospector",
        "col5": "1992-03-27"
    },
    {
        "col0": "Game On Dude",
        "col1": "A. Springs",
        "col2": "Devil His Due",
        "col3": "Awesome Again",
        "col4": "Deputy Minister",
        "col5": "2007-04-26"
    },
    {
        "col0": "Frosted",
        "col1": "D. Stud",
        "col2": "Deputy Minister",
        "col3": "Tapit",
        "col4": "Pulpit",
        "col5": "2012-04-18"
    },
    {
        "col0": "Free Eagle",
        "col1": "M. Stud",
        "col2": "Danehill",
        "col3": "High Chaparral",
        "col4": "Sadler's Wells",
        "col5": "2011-05-04"
    },
    {
        "col0": "Frankel",
        "col1": "J. Farms",
        "col2": "Danehill",
        "col3": "Galileo",
        "col4": "Sadler's Wells",
        "col5": "2008-02-11"
    },
    {
        "col0": "Flintshire",
        "col1": "J. Farms",
        "col2": "Sadler's Wells",
        "col3": "Dansili",
        "col4": "Danehill",
        "col5": "2010-04-04"
    },
    {
        "col0": "Fiorente",
        "col1": "B. Stud",
        "col2": "Pilsudski",
        "col3": "Monsun",
        "col4": "Konigsstuhl",
        "col5": "2008-02-26"
    },
    {
        "col0": "Farhh",
        "col1": "D. Stud",
        "col2": "Lando",
        "col3": "Pivotal",
        "col4": "Polar Falcon",
        "col5": "2008-03-04"
    },
    {
        "col0": "Fame and Glory",
        "col1": "K. Rausing",
        "col2": "Shirley Heights",
        "col3": "Montjeu",
        "col4": "Sadler's Wells",
        "col5": "2006-03-20"
    },
    {
        "col0": "Fallen For You",
        "col1": "N. Stud",
        "col2": "Brief Truce",
        "col3": "Dansili",
        "col4": "Danehill",
        "col5": "2009-04-07"
    },
    {
        "col0": "Fairy Heights",
        "col1": "R. Sangster",
        "col2": "Shirley Heights",
        "col3": "Fairy King",
        "col4": "Northern Dancer",
        "col5": "1991-02-20"
    },
    {
        "col0": "Fair Play",
        "col1": "A. B. Jr.",
        "col2": "Bend Or",
        "col3": "Hastings",
        "col4": "Spendthrift",
        "col5": "1905-04-01"
    },
    {
        "col0": "Exclusive",
        "col1": "C. P. Stud",
        "col2": "Exclusive Native",
        "col3": "Polar Falcon",
        "col4": "Nureyev",
        "col5": "1995-04-08"
    },
    {
        "col0": "Excellent Art",
        "col1": "C. P. Stud",
        "col2": "Seeking The Gold",
        "col3": "Pivotal",
        "col4": "Polar Falcon",
        "col5": "2004-02-25"
    },
    {
        "col0": "Eswarah",
        "col1": "S. Racing",
        "col2": "Alleged",
        "col3": "Unfuwain",
        "col4": "Northern Dancer",
        "col5": "2002-04-21"
    },
    {
        "col0": "Epicuris",
        "col1": "J. Farms",
        "col2": "Observatory",
        "col3": "Rail Link",
        "col4": "Dansili",
        "col5": "2012-03-02"
    },
    {
        "col0": "Encke",
        "col1": "D. Stud",
        "col2": "Sinndar",
        "col3": "Kingmambo",
        "col4": "Mr. Prospector",
        "col5": "2009-02-24"
    },
    {
        "col0": "Elnadim",
        "col1": "S. Farm",
        "col2": "Exclusive Native",
        "col3": "Danzig",
        "col4": "Northern Dancer",
        "col5": "1994-04-24"
    },
    {
        "col0": "Elegant Prince",
        "col1": "L. C. II",
        "col2": "Royal Charger",
        "col3": "Raise A Native",
        "col4": "Native Dancer",
        "col5": "1974-03-15"
    },
    {
        "col0": "El Gran Senor",
        "col1": "E. P. Taylor",
        "col2": "Buckpasser",
        "col3": "Northern Dancer",
        "col4": "Nearctic",
        "col5": "1981-04-21"
    },
    {
        "col0": "Eclipse",
        "col1": "Prince William Augustus, Duke of Cumberland",
        "col2": "Regulus",
        "col3": "Marske",
        "col4": "Squirt",
        "col5": "1764-04-01"
    },
    {
        "col0": "Dunfermline",
        "col1": "Q. E. II",
        "col2": "St. Paddy",
        "col3": "Royal Palace",
        "col4": "Ballymoss",
        "col5": "1974-04-15"
    },
    {
        "col0": "Dubai Millennium",
        "col1": "Mohammed bin Rashid Al Maktoum",
        "col2": "Shareef Dancer",
        "col3": "Seeking The Gold",
        "col4": "Mr. Prospector",
        "col5": "1996-03-02"
    },
    {
        "col0": "Dubai Destination",
        "col1": "C. Farm",
        "col2": "Alleged",
        "col3": "Kingmambo",
        "col4": "Mr Prospector",
        "col5": "1999-02-10"
    },
    {
        "col0": "Dream Ahead",
        "col1": "D. Stud",
        "col2": "Cadeaux Genereux",
        "col3": "Diktat",
        "col4": "Warning",
        "col5": "2008-02-20"
    },
    {
        "col0": "Dr Fong",
        "col1": "W. Farm",
        "col2": "Miswaki",
        "col3": "Kris S",
        "col4": "Roberto",
        "col5": "1995-04-06"
    },
    {
        "col0": "Doyoun",
        "col1": "A. K. IV",
        "col2": "Kashmir",
        "col3": "Mill Reef",
        "col4": "Never Bend",
        "col5": "1985-03-08"
    },
    {
        "col0": "Dodging Bullets",
        "col1": "F. Dettori",
        "col2": "Kris S.",
        "col3": "Dubawi",
        "col4": "Dubai Millennium",
        "col5": "2008-04-16"
    },
    {
        "col0": "Distant View",
        "col1": "J. Farms",
        "col2": "Irish River",
        "col3": "Mr Prospector",
        "col4": "Raise A Native",
        "col5": "1991-05-09"
    },
    {
        "col0": "Distant Music",
        "col1": "J. Farms",
        "col2": "Nijinsky",
        "col3": "Distant View",
        "col4": "Mr Prospector",
        "col5": "1997-02-03"
    },
    {
        "col0": "Diktat",
        "col1": "S. Mohammed",
        "col2": "Sadler's Wells",
        "col3": "Warning",
        "col4": "Known Fact",
        "col5": "1995-02-25"
    },
    {
        "col0": "Diamond Shoal",
        "col1": "P. Mellon",
        "col2": "Graustark",
        "col3": "Mill Reef",
        "col4": "Never Bend",
        "col5": "1979-05-06"
    },
    {
        "col0": "Designs On Rome",
        "col1": "M. Stud",
        "col2": "Alleged",
        "col3": "Holy Roman Emperor",
        "col4": "Danehill",
        "col5": "2010-03-17"
    },
    {
        "col0": "Declaration of War",
        "col1": "H. J. Allen",
        "col2": "Rahy",
        "col3": "War Front",
        "col4": "Danzig",
        "col5": "2009-04-29"
    },
    {
        "col0": "David Junior",
        "col1": "A. I. Appleton",
        "col2": "Irish River",
        "col3": "Pleasant Tap",
        "col4": "Pleasant Colony",
        "col5": "2002-04-18"
    },
    {
        "col0": "Dansili",
        "col1": "J. Farms",
        "col2": "Kahyasi",
        "col3": "Danehill",
        "col4": "Danzig",
        "col5": "1996-01-27"
    },
    {
        "col0": "Dancing Maid",
        "col1": "J. Wertheimer",
        "col2": "Val de Loir",
        "col3": "Lyphard",
        "col4": "Northern Dancer",
        "col5": "1975-04-29"
    }
]