[
    {
        "col0": "D. Davis",
        "col1": "Dallas Cowboys",
        "col2": "1940-09-18",
        "col3": "2004-01-19"
    },
    {
        "col0": "D. Sellers",
        "col1": "St. Louis Rams",
        "col2": "1974-12-30",
        "col3": "2001-02-11"
    },
    {
        "col0": "D. Curtin",
        "col1": "Milwaukee Badgers",
        "col2": "1901-11-03",
        "col3": "1963-03-17"
    },
    {
        "col0": "D. Wells",
        "col1": "Green Bay Packers",
        "col2": "1922-07-12",
        "col3": "1984-02-14"
    },
    {
        "col0": "D. Vosberg",
        "col1": "New York Giants",
        "col2": "1919-10-03",
        "col3": "1997-06-21"
    },
    {
        "col0": "D. Straw",
        "col1": "Detroit",
        "col2": "1896-11-22",
        "col3": "1961-07-31"
    },
    {
        "col0": "D. Steinbrunner",
        "col1": "1953 Cleveland Browns season",
        "col2": "1932-04-05",
        "col3": "1967-07-20"
    },
    {
        "col0": "D. Simensen",
        "col1": "Los Angeles Rams",
        "col2": "1926-09-11",
        "col3": "1994-04-22"
    },
    {
        "col0": "D. Phelps",
        "col1": "Cleveland Browns",
        "col2": "1924-01-07",
        "col3": "1982-06-11"
    },
    {
        "col0": "D. Owens",
        "col1": "Philadelphia Eagles",
        "col2": "1932-4-3",
        "col3": "1997-8-17"
    },
    {
        "col0": "D. McCafferty",
        "col1": "New York Giants",
        "col2": "1921-3-12",
        "col3": "1974-7-28"
    },
    {
        "col0": "D. Irwin",
        "col1": "Washington Redskins",
        "col2": "1913-07-22",
        "col3": "1983-06-08"
    },
    {
        "col0": "D. Hutson",
        "col1": "Green Bay Packers",
        "col2": "1913-01-31",
        "col3": "1997-06-26"
    },
    {
        "col0": "D. Herndon",
        "col1": "New York Titans",
        "col2": "1936-6-4",
        "col3": "2009-1-10"
    },
    {
        "col0": "D. Heinrich",
        "col1": "New York Giants",
        "col2": "1930-09-19",
        "col3": "1992-02-29"
    }
]