[
    {
        "col0": "Z. Xun",
        "col1": "N. Linichuk",
        "col2": "H. Xintong",
        "col3": "G. Sretenski",
        "col4": "1987-8-21"
    },
    {
        "col0": "Z. Hao",
        "col1": "L. Nichol",
        "col2": "Z. Dan",
        "col3": "M. Zueva",
        "col4": "1984-7-6"
    },
    {
        "col0": "Z. Donohue",
        "col1": "M. Dubreuil",
        "col2": "P. Gilles",
        "col3": "M. Zueva",
        "col4": "1991-1-8"
    },
    {
        "col0": "Y. Xiaoyu",
        "col1": "D. Wilson",
        "col2": "J. Yang",
        "col3": "M. Zueva",
        "col4": "1996-1-2"
    },
    {
        "col0": "V. Davankova",
        "col1": "N. Morozov",
        "col2": "A. Enbert",
        "col3": "I. Zhuk",
        "col4": "1998-5-2"
    },
    {
        "col0": "T. Mager",
        "col1": "N. Linichuk",
        "col2": "L. Bonacorsi",
        "col3": "G. Sretenski",
        "col4": "1990-9-9"
    },
    {
        "col0": "T. Zahorski",
        "col1": "A. Zhulin",
        "col2": "A. Miart",
        "col3": "R. Haguenauer",
        "col4": "1994-8-16"
    },
    {
        "col0": "T. Volosozhar",
        "col1": "N. Morozov",
        "col2": "S. Morozov",
        "col3": "A. Zhulin",
        "col4": "1986-5-22"
    },
    {
        "col0": "S. Caruso",
        "col1": "J. Deutschland",
        "col2": "T. Kolbe",
        "col3": "N. Morozov",
        "col4": "1987-4-19"
    },
    {
        "col0": "R. Bradley",
        "col1": "C. Lindgren",
        "col2": "T. Vise",
        "col3": "N. Morozov",
        "col4": "1983-11-17"
    },
    {
        "col0": "R. Zhiganshin",
        "col1": "A. Najarro",
        "col2": "V. Sinitsina",
        "col3": "E. Kustarova",
        "col4": "1992-9-25"
    },
    {
        "col0": "R. L. Gac",
        "col1": "M. Dubreuil",
        "col2": "E. Elizabeth",
        "col3": "O. Schoenfelder",
        "col4": "1995-5-31"
    },
    {
        "col0": "P. Gilles",
        "col1": "P. Poirier",
        "col2": "Z. Donohue",
        "col3": "C. Dean",
        "col4": "1992-1-16"
    },
    {
        "col0": "P. Gerber",
        "col1": "I. Shpilband",
        "col2": "J. Plutowska",
        "col3": "K. Johnson",
        "col4": "1992-3-16"
    },
    {
        "col0": "P. Carron",
        "col1": "L. Jones",
        "col2": "M. Jost",
        "col3": "M. Dubreuil",
        "col4": "1986-8-20"
    }
]