[
    {
        "col0": "Vestibular nerve",
        "col1": "Vestibulocochlear nerve",
        "col2": "12567055",
        "col3": "A08.800.800.120.910.900"
    },
    {
        "col0": "Vertebral artery",
        "col1": "Subclavian artery",
        "col2": "12156505",
        "col3": "A07.231.114.839"
    },
    {
        "col0": "Ulnar nerve",
        "col1": "Cervical spinal nerve 8",
        "col2": "12566994",
        "col3": "A08.800.800.720.050.850"
    },
    {
        "col0": "Tibial nerve",
        "col1": "Sacral plexus",
        "col2": "12566929",
        "col3": "A08.800.800.720.450.760.820"
    },
    {
        "col0": "Thoracic aorta",
        "col1": "Descending aorta",
        "col2": "12617966",
        "col3": "A07.231.114.056.372"
    },
    {
        "col0": "Sural nerve",
        "col1": "Common fibular nerve",
        "col2": "12566875",
        "col3": "A08.800.800.720.450.760.820.820"
    },
    {
        "col0": "Superior mesenteric artery",
        "col1": "Abdominal aorta",
        "col2": "12155072",
        "col3": "A07.231.114.565.755"
    },
    {
        "col0": "Superficial epigastric artery",
        "col1": "Femoral artery",
        "col2": "12154229",
        "col3": "A07.231.114.330"
    },
    {
        "col0": "Subclavian artery",
        "col1": "Aortic arch",
        "col2": "12156042",
        "col3": "A07.231.114.839"
    },
    {
        "col0": "Stellate ganglion",
        "col1": "Thoracic ganglia",
        "col2": "12384988",
        "col3": "A08.340.315.350.800"
    },
    {
        "col0": "Splenic artery",
        "col1": "Celiac artery",
        "col2": "12156021",
        "col3": "A07.231.114.814"
    },
    {
        "col0": "Renal artery",
        "col1": "Abdominal aorta",
        "col2": "12155727",
        "col3": "A07.231.114.745"
    }
]