[
    {
        "col0": "W. Tanner",
        "col1": "W. Tanner",
        "col2": "England",
        "col3": "1938-1-1"
    },
    {
        "col0": "W. S. Allen",
        "col1": "W. Allen",
        "col2": "Manchester",
        "col3": "1915-01-15"
    },
    {
        "col0": "W. Scully",
        "col1": "J. Scully",
        "col2": "Sydney",
        "col3": "1966-03-19"
    },
    {
        "col0": "W. Richmond",
        "col1": "M. Richmond",
        "col2": "London",
        "col3": "1895-08-03"
    },
    {
        "col0": "William Lever, 1st Viscount Leverhulme",
        "col1": "William Lever, 2nd Viscount Leverhulme",
        "col2": "Bolton",
        "col3": "1925-05-07"
    },
    {
        "col0": "W. Aston",
        "col1": "R. Aston",
        "col2": "Sydney, New South Wales",
        "col3": "1997-05-21"
    },
    {
        "col0": "T. Burke",
        "col1": "B. Burke",
        "col2": "Moora, Western Australia",
        "col3": "1973-01-17"
    },
    {
        "col0": "T. Bull",
        "col1": "R. Bull",
        "col2": "Wagga Wagga, New South Wales",
        "col3": "1976-08-11"
    },
    {
        "col0": "T. Armstrong",
        "col1": "T. Armstrong",
        "col2": "Bulls, New Zealand",
        "col3": "1942-11-08"
    },
    {
        "col0": "T. King",
        "col1": "T. King",
        "col2": "England",
        "col3": "1893-04-28"
    },
    {
        "col0": "T. Hughes",
        "col1": "G. F. Hughes",
        "col2": "New South Wales",
        "col3": "1930-04-15"
    },
    {
        "col0": "T. Gladstone",
        "col1": "Sir John Gladstone, 3rd Baronet",
        "col2": "Lancashire",
        "col3": "1889-03-20"
    },
    {
        "col0": "Thomas Douglas Percy Holden",
        "col1": "T. S. Holden",
        "col2": "Sydney",
        "col3": "1938-12-31"
    },
    {
        "col0": "S. Einfeld",
        "col1": "M. Einfeld",
        "col2": "Sydney, New South Wales",
        "col3": "1995-06-16"
    },
    {
        "col0": "S. Bandaranaike",
        "col1": "C. Kumaratunga",
        "col2": "British Ceylon",
        "col3": "2000-10-10"
    },
    {
        "col0": "Sir Peter Agnew, 1st Baronet",
        "col1": "Sir Quentin Agnew-Somerville, 2nd Baronet",
        "col2": "Cheshire",
        "col3": "1990-08-26"
    },
    {
        "col0": "Sir Henry Norman, 1st Baronet",
        "col1": "Henry Nigel St Valery Norman",
        "col2": "Leicester",
        "col3": "1939-06-04"
    },
    {
        "col0": "R. James",
        "col1": "B. James",
        "col2": "Lambton, New South Wales",
        "col3": "1962-07-04"
    },
    {
        "col0": "R. Maxwell",
        "col1": "I. Maxwell",
        "col2": "First Czechoslovak Republic",
        "col3": "1991-11-05"
    }
]