[
    {
        "col0": "Harayir",
        "col1": "Shareef Dancer",
        "col2": "Mr. Prospector",
        "col3": "S. Racing"
    },
    {
        "col0": "Hampton",
        "col1": "Kettledrum",
        "col2": "Newminster",
        "col3": "Montagu Bertie, 6th Earl of Abingdon"
    },
    {
        "col0": "Haafhd",
        "col1": "Blushing Groom",
        "col2": "Unfuwain",
        "col3": "S. Stud"
    },
    {
        "col0": "Gun Bow",
        "col1": "War Admiral",
        "col2": "Hyperion",
        "col3": "M. C. Farm"
    },
    {
        "col0": "Grey Lag",
        "col1": "Meddler",
        "col2": "Isinglass",
        "col3": "J. E. Madden"
    },
    {
        "col0": "Grey Classic",
        "col1": "Nodouble",
        "col2": "Herbager",
        "col3": "S. Farm"
    },
    {
        "col0": "Greinton",
        "col1": "High Top",
        "col2": "Nijinsky II",
        "col3": "S. Niarchos"
    },
    {
        "col0": "Green Dancer",
        "col1": "Val de Loir",
        "col2": "Northern Dancer",
        "col3": "P. Wertheimer"
    },
    {
        "col0": "Grecian Queen",
        "col1": "Questionnaire",
        "col2": "Hyperion",
        "col3": "B. F. Whitaker"
    },
    {
        "col0": "Graustark",
        "col1": "Alibhai",
        "col2": "Tenerani",
        "col3": "J. W. Galbreath"
    },
    {
        "col0": "Grand Parade",
        "col1": "Desmond",
        "col2": "Orme",
        "col3": "R. Croker"
    },
    {
        "col0": "Grand Lodge",
        "col1": "Habitat",
        "col2": "Danzig",
        "col3": "John Scott-Ellis, 9th Baron Howard de Walden"
    },
    {
        "col0": "Goldikova",
        "col1": "Blushing Groom",
        "col2": "Danzig",
        "col3": "W. e. Frere"
    },
    {
        "col0": "Goldfinder",
        "col1": "Blank",
        "col2": "Snip",
        "col3": "John St Leger Douglas"
    },
    {
        "col0": "Golden Opinion",
        "col1": "Mr Prospector",
        "col2": "Seattle Slew",
        "col3": "D. Stud"
    },
    {
        "col0": "Golden Attraction",
        "col1": "Seattle Slew",
        "col2": "Raise a Native",
        "col3": "O. Farm"
    },
    {
        "col0": "Gold Splash",
        "col1": "Lyphard",
        "col2": "Red God",
        "col3": "W. e. Frere"
    },
    {
        "col0": "Gold Heels",
        "col1": "Glenelg",
        "col2": "Longfellow",
        "col3": "A. Cassatt"
    },
    {
        "col0": "Golan",
        "col1": "Generous",
        "col2": "Rainbow Quest",
        "col3": "B. Stud"
    },
    {
        "col0": "Gohanna",
        "col1": "Herod",
        "col2": "Eclipse",
        "col3": "George Wyndham, 3rd Earl of Egremont"
    },
    {
        "col0": "Godiva",
        "col1": "Phalaris",
        "col2": "Gainsborough",
        "col3": "E. Harmsworth"
    },
    {
        "col0": "Go and Go",
        "col1": "Alleged",
        "col2": "Northern Dancer",
        "col3": "W. Haefner"
    },
    {
        "col0": "Glorious Song",
        "col1": "Herbager",
        "col2": "Hail To Reason",
        "col3": "E. P. Taylor"
    },
    {
        "col0": "Glint of Gold",
        "col1": "Graustark",
        "col2": "Never Bend",
        "col3": "P. Mellon"
    },
    {
        "col0": "Ginevra",
        "col1": "Crepello",
        "col2": "Sicambre",
        "col3": "Michael Howard, 21st Earl of Suffolk"
    },
    {
        "col0": "Giant's Causeway",
        "col1": "Rahy",
        "col2": "Storm Bird",
        "col3": "C. Stud"
    },
    {
        "col0": "Ghostzapper",
        "col1": "Relaunch",
        "col2": "Deputy Minister",
        "col3": "A. S. Farms"
    },
    {
        "col0": "Ghanaati",
        "col1": "Mr. Prospector",
        "col2": "Storm Cat",
        "col3": "S. Racing"
    },
    {
        "col0": "Gay Gallanta",
        "col1": "Nureyev",
        "col2": "Mr. Prospector",
        "col3": "F. Holdings"
    },
    {
        "col0": "Gamely",
        "col1": "My Babu",
        "col2": "Nasrullah",
        "col3": "C. Farm"
    },
    {
        "col0": "Game On Dude",
        "col1": "Devil His Due",
        "col2": "Deputy Minister",
        "col3": "A. Springs"
    },
    {
        "col0": "Gallorette",
        "col1": "Sir Gallahad III",
        "col2": "Swynford",
        "col3": "P. M. Burch"
    },
    {
        "col0": "Gallant Sir",
        "col1": "Omar Khayyam",
        "col2": "Teddy",
        "col3": "C. Farm"
    },
    {
        "col0": "Gallant Man",
        "col1": "Mahmoud",
        "col2": "Bois Roussel",
        "col3": "A. K. III"
    },
    {
        "col0": "Galileo",
        "col1": "Miswaki",
        "col2": "Northern Dancer",
        "col3": "C. Stud"
    },
    {
        "col0": "Galcador",
        "col1": "Pharos",
        "col2": "Tourbillon",
        "col3": "H. d. Fresnay-le-Buffard"
    },
    {
        "col0": "Galatea",
        "col1": "Sir Gallahad III",
        "col2": "Dark Ronald",
        "col3": "R. S. Clark"
    },
    {
        "col0": "Fusaichi Pegasus",
        "col1": "Danzig",
        "col2": "Raise a Native",
        "col3": "Arthur B. Hancock III"
    },
    {
        "col0": "Funny Cide",
        "col1": "Slewacide",
        "col2": "Forty Niner",
        "col3": "W. Farm"
    },
    {
        "col0": "Frosted",
        "col1": "Deputy Minister",
        "col2": "Pulpit",
        "col3": "D. Stud"
    },
    {
        "col0": "Frontier",
        "col1": "Bend Or",
        "col2": "Ormonde",
        "col3": "Hugh Grosvenor, 1st Duke of Westminster"
    },
    {
        "col0": "Friar Rock",
        "col1": "Bend Or",
        "col2": "Sainfoin",
        "col3": "A. B. Jr."
    },
    {
        "col0": "Free Eagle",
        "col1": "Danehill",
        "col2": "Sadler's Wells",
        "col3": "M. Stud"
    },
    {
        "col0": "Frankel",
        "col1": "Danehill",
        "col2": "Sadler's Wells",
        "col3": "J. Farms"
    },
    {
        "col0": "Forward Pass",
        "col1": "Heliopolis",
        "col2": "Nasrullah",
        "col3": "C. Farm"
    },
    {
        "col0": "Forty Niner",
        "col1": "Tom Rolfe",
        "col2": "Raise a Native",
        "col3": "C. Farm"
    },
    {
        "col0": "Fort Marcy",
        "col1": "Princequillo",
        "col2": "Nearco",
        "col3": "P. Mellon"
    },
    {
        "col0": "Flying Fox",
        "col1": "Galopin",
        "col2": "Ormonde",
        "col3": "Hugh Grosvenor, 1st Duke of Westminster"
    },
    {
        "col0": "Flintshire",
        "col1": "Sadler's Wells",
        "col2": "Danehill",
        "col3": "J. Farms"
    },
    {
        "col0": "Flawlessly",
        "col1": "Nijinsky II",
        "col2": "Exclusive Native",
        "col3": "L. Wolfson"
    },
    {
        "col0": "Flaming Page",
        "col1": "Menow",
        "col2": "Bull Lea",
        "col3": "E. P. Taylor"
    },
    {
        "col0": "First Landing",
        "col1": "Bubbling Over",
        "col2": "Royal Charger",
        "col3": "C. Chenery"
    },
    {
        "col0": "Fiorente",
        "col1": "Pilsudski",
        "col2": "Konigsstuhl",
        "col3": "B. Stud"
    },
    {
        "col0": "Fiftyshadesofhay",
        "col1": "Real Quiet",
        "col2": "A P Indy",
        "col3": "W. Farm"
    },
    {
        "col0": "Fifinella",
        "col1": "Wildfowler",
        "col2": "Cyllene",
        "col3": "E. Hulton"
    },
    {
        "col0": "Ferdinand",
        "col1": "Double Jay",
        "col2": "Northern Dancer",
        "col3": "H. B. Keck"
    },
    {
        "col0": "Fenian",
        "col1": "Stockwell",
        "col2": "Irish Birdcatcher",
        "col3": "A. Belmont"
    },
    {
        "col0": "Felstead",
        "col1": "Lemberg",
        "col2": "Spearmint",
        "col3": "H. Cunliffe-Owen"
    },
    {
        "col0": "Fatal Bullet",
        "col1": "Regal Classic",
        "col2": "Unbridled",
        "col3": "A. Springs"
    },
    {
        "col0": "Farhh",
        "col1": "Lando",
        "col2": "Polar Falcon",
        "col3": "D. Stud"
    },
    {
        "col0": "Fappiano",
        "col1": "Dr. Fager",
        "col2": "Raise a Native",
        "col3": "J. A. Nerud"
    },
    {
        "col0": "Fanfreluche",
        "col1": "Chop Chop",
        "col2": "Nearctic",
        "col3": "J. L. Levesque"
    },
    {
        "col0": "Fame and Glory",
        "col1": "Shirley Heights",
        "col2": "Sadler's Wells",
        "col3": "K. Rausing"
    },
    {
        "col0": "Fallen For You",
        "col1": "Brief Truce",
        "col2": "Danehill",
        "col3": "N. Stud"
    },
    {
        "col0": "Fairy Heights",
        "col1": "Shirley Heights",
        "col2": "Northern Dancer",
        "col3": "R. Sangster"
    },
    {
        "col0": "Fair Play",
        "col1": "Bend Or",
        "col2": "Spendthrift",
        "col3": "A. B. Jr."
    },
    {
        "col0": "Eye of the Sphynx",
        "col1": "Vice Regent",
        "col2": "Mr. Prospector",
        "col3": "S. Farm"
    },
    {
        "col0": "Eye of the Leopard",
        "col1": "Smart Strike",
        "col2": "Seattle Slew",
        "col3": "S. Farm"
    },
    {
        "col0": "Exclusive Native",
        "col1": "Shut Out",
        "col2": "Native Dancer",
        "col3": "H. V. Farm"
    },
    {
        "col0": "Exclusive",
        "col1": "Exclusive Native",
        "col2": "Nureyev",
        "col3": "C. P. Stud"
    },
    {
        "col0": "Excellent Art",
        "col1": "Seeking The Gold",
        "col2": "Polar Falcon",
        "col3": "C. P. Stud"
    },
    {
        "col0": "Eswarah",
        "col1": "Alleged",
        "col2": "Northern Dancer",
        "col3": "S. Racing"
    },
    {
        "col0": "Erhaab",
        "col1": "Riverman",
        "col2": "Danzig",
        "col3": "S. Racing"
    },
    {
        "col0": "Equipoise",
        "col1": "Broomstick",
        "col2": "Peter Pan I",
        "col3": "H. P. Whitney"
    },
    {
        "col0": "Epigram",
        "col1": "Reigh Count",
        "col2": "Gallant Fox",
        "col3": "E. P. Taylor"
    },
    {
        "col0": "Epicuris",
        "col1": "Observatory",
        "col2": "Dansili",
        "col3": "J. Farms"
    },
    {
        "col0": "Encke",
        "col1": "Sinndar",
        "col2": "Mr. Prospector",
        "col3": "D. Stud"
    },
    {
        "col0": "Empire Maker",
        "col1": "El Gran Senor",
        "col2": "Fappiano",
        "col3": "J. Farms"
    },
    {
        "col0": "Elnadim",
        "col1": "Exclusive Native",
        "col2": "Northern Dancer",
        "col3": "S. Farm"
    },
    {
        "col0": "Eliza",
        "col1": "Bold Bidder",
        "col2": "Blushing Groom",
        "col3": "A. E. Paulson"
    },
    {
        "col0": "Elegant Prince",
        "col1": "Royal Charger",
        "col2": "Native Dancer",
        "col3": "L. C. II"
    },
    {
        "col0": "Eleanor",
        "col1": "Diomed",
        "col2": "Saltram",
        "col3": "Sir Charles Bunbury, 6th Baronet"
    },
    {
        "col0": "El Gran Senor",
        "col1": "Buckpasser",
        "col2": "Nearctic",
        "col3": "E. P. Taylor"
    },
    {
        "col0": "Eclipse",
        "col1": "Regulus",
        "col2": "Squirt",
        "col3": "Prince William Augustus, Duke of Cumberland"
    },
    {
        "col0": "Easy Goer",
        "col1": "Buckpasser",
        "col2": "Raise a Native",
        "col3": "O. Phipps"
    },
    {
        "col0": "Easton",
        "col1": "Phalaris",
        "col2": "Dark Ronald",
        "col3": "R. B. Strassburger"
    },
    {
        "col0": "Eastern Fleet",
        "col1": "Bull Lea",
        "col2": "Nasrullah",
        "col3": "C. Farm"
    },
    {
        "col0": "East of the Moon",
        "col1": "Nureyev",
        "col2": "Damascus",
        "col3": "S. Niarchos"
    },
    {
        "col0": "Eager",
        "col1": "Matchem",
        "col2": "Sir Hercules",
        "col3": "Francis Russell, 5th Duke of Bedford"
    },
    {
        "col0": "Dynaformer",
        "col1": "His Majesty",
        "col2": "Hail To Reason",
        "col3": "H. J. Allen"
    },
    {
        "col0": "Dutch Oven",
        "col1": "Stockwell",
        "col2": "The Flying Dutchman",
        "col3": "Evelyn Boscawen, 6th Viscount Falmouth"
    },
    {
        "col0": "Durbar",
        "col1": "Meddler",
        "col2": "St. Simon",
        "col3": "H. B. Duryea"
    },
    {
        "col0": "Dunfermline",
        "col1": "St. Paddy",
        "col2": "Ballymoss",
        "col3": "Q. E. II"
    },
    {
        "col0": "Dubai Destination",
        "col1": "Alleged",
        "col2": "Mr Prospector",
        "col3": "C. Farm"
    },
    {
        "col0": "Dream Well",
        "col1": "Alleged",
        "col2": "Northern Dancer",
        "col3": "S. Niarchos"
    },
    {
        "col0": "Dream Ahead",
        "col1": "Cadeaux Genereux",
        "col2": "Warning",
        "col3": "D. Stud"
    },
    {
        "col0": "Dr Fong",
        "col1": "Miswaki",
        "col2": "Roberto",
        "col3": "W. Farm"
    },
    {
        "col0": "Doyoun",
        "col1": "Kashmir",
        "col2": "Never Bend",
        "col3": "A. K. IV"
    },
    {
        "col0": "Doyen",
        "col1": "Kris",
        "col2": "Northern Dancer",
        "col3": "Mohammed bin Rashid Al Maktoum"
    },
    {
        "col0": "Dotted Swiss",
        "col1": "Pavot",
        "col2": "Count Fleet",
        "col3": "C. V. Whitney"
    },
    {
        "col0": "Doncaster",
        "col1": "Teddington",
        "col2": "The Baron",
        "col3": "S. Baronets"
    },
    {
        "col0": "Don Enrique",
        "col1": "Hermit",
        "col2": "Spendthrift",
        "col3": "A. B. Jr."
    },
    {
        "col0": "Dodging Bullets",
        "col1": "Kris S.",
        "col2": "Dubai Millennium",
        "col3": "F. Dettori"
    },
    {
        "col0": "Djebel",
        "col1": "Gay Crusader",
        "col2": "Ksar",
        "col3": "M. Boussac"
    }
]