[
    {
        "col0": "Vestibular nerve",
        "col1": "Vestibulocochlear nerve",
        "col2": "Vestibular+Nerve",
        "col3": "203",
        "col4": "12567055",
        "col5": "A08.800.800.120.910.900",
        "col6": "n_05"
    },
    {
        "col0": "Vertebral artery",
        "col1": "Subclavian artery",
        "col2": "Subclavian+Artery",
        "col3": "148",
        "col4": "12156505",
        "col5": "A07.231.114.839",
        "col6": "a_61"
    },
    {
        "col0": "Ulnar nerve",
        "col1": "Cervical spinal nerve 8",
        "col2": "Ulnar+nerve",
        "col3": "210",
        "col4": "12566994",
        "col5": "A08.800.800.720.050.850",
        "col6": "n_05"
    },
    {
        "col0": "Tibial nerve",
        "col1": "Sacral plexus",
        "col2": "Tibial+Nerve",
        "col3": "213",
        "col4": "12566929",
        "col5": "A08.800.800.720.450.760.820",
        "col6": "n_05"
    },
    {
        "col0": "Thoracic aorta",
        "col1": "Descending aorta",
        "col2": "Aorta,+Thoracic",
        "col3": "153",
        "col4": "12617966",
        "col5": "A07.231.114.056.372",
        "col6": "p_07"
    },
    {
        "col0": "Sural nerve",
        "col1": "Common fibular nerve",
        "col2": "Sural+Nerve",
        "col3": "213",
        "col4": "12566875",
        "col5": "A08.800.800.720.450.760.820.820",
        "col6": "n_05"
    },
    {
        "col0": "Superior mesenteric artery",
        "col1": "Abdominal aorta",
        "col2": "Mesenteric+Artery,+Superior",
        "col3": "154",
        "col4": "12155072",
        "col5": "A07.231.114.565.755",
        "col6": "a_61"
    },
    {
        "col0": "Superficial epigastric artery",
        "col1": "Femoral artery",
        "col2": "Epigastric+arteries",
        "col3": "157",
        "col4": "12154229",
        "col5": "A07.231.114.330",
        "col6": "a_61"
    },
    {
        "col0": "Subclavian artery",
        "col1": "Aortic arch",
        "col2": "Subclavian+Artery",
        "col3": "148",
        "col4": "12156042",
        "col5": "A07.231.114.839",
        "col6": "a_61"
    },
    {
        "col0": "Splenic artery",
        "col1": "Celiac artery",
        "col2": "Splenic+Artery",
        "col3": "154",
        "col4": "12156021",
        "col5": "A07.231.114.814",
        "col6": "a_61"
    },
    {
        "col0": "Renal artery",
        "col1": "Abdominal aorta",
        "col2": "Renal+Artery",
        "col3": "154",
        "col4": "12155727",
        "col5": "A07.231.114.745",
        "col6": "a_61"
    },
    {
        "col0": "Radial nerve",
        "col1": "Posterior cord",
        "col2": "Radial+Nerve",
        "col3": "210",
        "col4": "12566581",
        "col5": "A08.800.800.720.050.700",
        "col6": "n_05"
    },
    {
        "col0": "Pulmonary artery",
        "col1": "Right ventricle",
        "col2": "Pulmonary+Artery",
        "col3": "141",
        "col4": "12826098",
        "col5": "A07.231.114.715",
        "col6": "t_20"
    },
    {
        "col0": "Posterior cerebral artery",
        "col1": "Basilar artery",
        "col2": "Posterior+Cerebral+Artery",
        "col3": "148",
        "col4": "12153821",
        "col5": "A07.231.114.228.700",
        "col6": "a_61"
    },
    {
        "col0": "Popliteal artery",
        "col1": "Femoral artery",
        "col2": "Popliteal+Artery",
        "col3": "159",
        "col4": "12155539",
        "col5": "A07.231.114.681",
        "col6": "a_61"
    },
    {
        "col0": "Ophthalmic artery",
        "col1": "Internal carotid artery",
        "col2": "Ophthalmic+Artery",
        "col3": "146",
        "col4": "12155313",
        "col5": "A07.231.114.622",
        "col6": "a_61"
    },
    {
        "col0": "Mandibular nerve",
        "col1": "Trigeminal nerve",
        "col2": "Mandibular+Nerve",
        "col3": "200",
        "col4": "12566125",
        "col5": "A08.800.800.120.760.500",
        "col6": "n_05"
    },
    {
        "col0": "Lingual nerve",
        "col1": "Mandibular nerve",
        "col2": "Lingual+Nerve",
        "col3": "200",
        "col4": "12566098",
        "col5": "A08.800.800.120.760.500.450",
        "col6": "n_05"
    },
    {
        "col0": "Internal thoracic artery",
        "col1": "Subclavian artery",
        "col2": "Mammary+Arteries",
        "col3": "148",
        "col4": "12156309",
        "col5": "A07.231.114.891.525",
        "col6": "a_61"
    },
    {
        "col0": "Internal iliac artery",
        "col1": "Common iliac artery",
        "col2": "Iliac+Artery",
        "col3": "155",
        "col4": "12154560",
        "col5": "A07.231.114.444",
        "col6": "a_61"
    },
    {
        "col0": "Intercostal nerves",
        "col1": "Thoracic nerves",
        "col2": "Intercostal+Nerves",
        "col3": "211",
        "col4": "12565929",
        "col5": "A08.800.800.720.800.350",
        "col6": "n_05"
    },
    {
        "col0": "Inferior mesenteric artery",
        "col1": "Abdominal aorta",
        "col2": "Mesenteric+Artery,+Inferior",
        "col3": "154",
        "col4": "12155065",
        "col5": "A07.231.114.565.510",
        "col6": "a_61"
    },
    {
        "col0": "Inferior ganglion of vagus nerve",
        "col1": "Vagus nerve",
        "col2": "Nodose+Ganglion",
        "col3": "205",
        "col4": "12384714",
        "col5": "A08.340.390.550",
        "col6": "g_02"
    },
    {
        "col0": "Femoral artery",
        "col1": "External iliac artery",
        "col2": "Femoral+Artery",
        "col3": "157",
        "col4": "12154275",
        "col5": "A07.231.114.351",
        "col6": "a_61"
    },
    {
        "col0": "External carotid artery",
        "col1": "Common carotid artery",
        "col2": "Carotid+Artery,+External",
        "col3": "144",
        "col4": "12153668",
        "col5": "A07.231.114.186.200.210",
        "col6": "a_61"
    },
    {
        "col0": "Ductus arteriosus",
        "col1": "Pulmonary artery",
        "col2": "Ductus+Arteriosus",
        "col3": "139",
        "col4": "12314749",
        "col5": "A07.541.278.395",
        "col6": "d_29"
    },
    {
        "col0": "Descending aorta",
        "col1": "Aorta",
        "col2": "Aorta,+Thoracic",
        "col3": "153",
        "col4": "12616698",
        "col5": "A07.231.114.056.372",
        "col6": "p_07"
    },
    {
        "col0": "Common carotid artery",
        "col1": "Aortic arch",
        "col2": "Carotid+Artery,+Common",
        "col3": "143",
        "col4": "12153659",
        "col5": "A07.231.114.186.200",
        "col6": "a_61"
    },
    {
        "col0": "Chorda tympani",
        "col1": "Facial nerve",
        "col2": "Chorda+Tympani+Nerve",
        "col3": "231",
        "col4": "12236891",
        "col5": "A08.800.800.120.250.120",
        "col6": "c_31"
    },
    {
        "col0": "Central retinal artery",
        "col1": "Ophthalmic artery",
        "col2": "Retinal+Artery",
        "col3": "146",
        "col4": "12153778",
        "col5": "A07.231.114.765",
        "col6": "a_61"
    },
    {
        "col0": "Celiac plexus",
        "col1": "Celiac branches of vagus nerve",
        "col2": "Celiac+Plexus",
        "col3": "220",
        "col4": "12647753",
        "col5": "A08.800.050.050.150",
        "col6": "p_24"
    },
    {
        "col0": "Celiac ganglia",
        "col1": "Thoracic splanchnic nerves",
        "col2": "Celiac+Ganglia",
        "col3": "220",
        "col4": "12384424",
        "col5": "A08.340.315.350",
        "col6": "g_02"
    },
    {
        "col0": "Celiac artery",
        "col1": "Abdominal aorta",
        "col2": "Celiac+Artery",
        "col3": "154",
        "col4": "12825991",
        "col5": "A07.231.114.207",
        "col6": "t_20"
    },
    {
        "col0": "Brachiocephalic artery",
        "col1": "Aorta",
        "col2": "Brachiocephalic+Veins",
        "col3": "142",
        "col4": "12825973",
        "col5": "A07.231.908.130",
        "col6": "t_20"
    },
    {
        "col0": "Brachial plexus",
        "col1": "Cervical spinal nerve 5",
        "col2": "Brachial+plexus",
        "col3": "210",
        "col4": "12647576",
        "col5": "A08.800.800.720.050",
        "col6": "p_24"
    },
    {
        "col0": "Axillary artery",
        "col1": "Subclavian artery",
        "col2": "Axillary+Artery",
        "col3": "149",
        "col4": "12153528",
        "col5": "A07.231.114.085",
        "col6": "a_61"
    },
    {
        "col0": "Aortic arch",
        "col1": "Ascending aorta",
        "col2": "Aortic+Arch",
        "col3": "142",
        "col4": "12150514",
        "col5": "A07.231.114.056.372.",
        "col6": "a_58"
    },
    {
        "col0": "Abdominal aorta",
        "col1": "Thoracic aorta",
        "col2": "Aorta,+Abdominal",
        "col3": "154",
        "col4": "12616144",
        "col5": "A07.231.114.056.205",
        "col6": "p_07"
    }
]