[
    {
        "col0": "W. Fritz",
        "col1": "1960-04-02",
        "col2": "1-0",
        "col3": "0-1 (NCAA D-II playoffs)"
    },
    {
        "col0": "W. Brown",
        "col1": "1950-04-19",
        "col2": "0-1",
        "col3": "0-1 (NCAA D-I playoffs)"
    },
    {
        "col0": "T. Gill",
        "col1": "1962-08-13",
        "col2": "0-1",
        "col3": "1-1"
    },
    {
        "col0": "T. Raymond",
        "col1": "1926-11-04",
        "col2": "4-1",
        "col3": "11-11 (NCAA-D-I-AA playoffs)"
    },
    {
        "col0": "T. Knap",
        "col1": "1914-12-08",
        "col2": "1-0",
        "col3": "1-3 (D-II playoffs)"
    },
    {
        "col0": "T. Hoffner",
        "col1": "1966-06-17",
        "col2": "1-0",
        "col3": "3-4 (NCAA D-II playoffs)"
    },
    {
        "col0": "T. Beck",
        "col1": "1964-01-18",
        "col2": "2-0",
        "col3": "4-0 (NCAA D-II playoffs)"
    },
    {
        "col0": "T. Bowden",
        "col1": "1956-02-25",
        "col2": "3-1",
        "col3": "2-2 (NCAA D-IAA playoffs)"
    },
    {
        "col0": "S. Fulton",
        "col1": "1929-10-24",
        "col2": "0-2",
        "col3": "0-1 (NCAA Division III)"
    },
    {
        "col0": "S. Roberts",
        "col1": "1964-10-13",
        "col2": "0-1",
        "col3": "0-1 (NCAA D-I-AA playoffs)"
    },
    {
        "col0": "S. Sheriff",
        "col1": "1932-04-24",
        "col2": "1-1",
        "col3": "0-1 (NCAA D-II playoffs)"
    },
    {
        "col0": "S. McGarvey",
        "col1": "1949-05-07",
        "col2": "0-1",
        "col3": "2-2 (NAIA D-II playoffs)"
    },
    {
        "col0": "S. Holtz",
        "col1": "1964-03-12",
        "col2": "4-3",
        "col3": "1-1 (NCAA DI-AA playoffs)"
    },
    {
        "col0": "R. Hubbard",
        "col1": "1946-1-1",
        "col2": "5-0",
        "col3": "2-0 (NCAA D-I-AA playoffs)"
    },
    {
        "col0": "R. Kidd",
        "col1": "1931-12-04",
        "col2": "1-0",
        "col3": "0-1 (NCAA D-II playoffs)"
    },
    {
        "col0": "R. McBride",
        "col1": "1939-10-14",
        "col2": "3-3",
        "col3": "1-2 (NCAA D-I playoffs)"
    },
    {
        "col0": "R. Giancola",
        "col1": "1946-09-18",
        "col2": "3-2",
        "col3": "8-9 (NCAA D-III playoff)"
    },
    {
        "col0": "R. Rodriguez",
        "col1": "1963-05-24",
        "col2": "5-5",
        "col3": "2-1 (NAIA D-I playoffs)"
    },
    {
        "col0": "R. Lackner",
        "col1": "1956-07-28",
        "col2": "3-1",
        "col3": "1-2 (NCAA D-III playoffs)"
    },
    {
        "col0": "R. Ellerson",
        "col1": "1953-01-01",
        "col2": "1-0",
        "col3": "1-2 (NCAA D-I-AA/FCS playoffs)"
    },
    {
        "col0": "P. Lembo",
        "col1": "1970-04-16",
        "col2": "0-2",
        "col3": "1-3 (NCAA D-I playoffs)"
    },
    {
        "col0": "P. Pierce",
        "col1": "1914-12-29",
        "col2": "3-2-1",
        "col3": "1-0-1 (NAIA playoffs)"
    },
    {
        "col0": "P. Johnson",
        "col1": "1957-08-20",
        "col2": "4-7",
        "col3": "14-3 (NCAA D-I-AA playoffs)"
    },
    {
        "col0": "P. Sullivan",
        "col1": "1950-01-18",
        "col2": "0-1",
        "col3": "0-1 (NCAA D-I playoffs)"
    },
    {
        "col0": "M. Welch",
        "col1": "1951-06-11",
        "col2": "2-1",
        "col3": "7-8 (NCAA D-III playoffs)"
    },
    {
        "col0": "M. Sirianni",
        "col1": "1972-03-22",
        "col2": "1-0",
        "col3": "6-9 (NCAA D-III playoffs)"
    },
    {
        "col0": "M. Riley",
        "col1": "1953-07-06",
        "col2": "7-2",
        "col3": "6-2 (CFL only)"
    },
    {
        "col0": "M. Gottfried",
        "col1": "1944-12-17",
        "col2": "0-1",
        "col3": "0-1 (NCAA D-I-AA playoffs)"
    },
    {
        "col0": "M. Gardner",
        "col1": "1967-03-09",
        "col2": "1-2",
        "col3": "3-4 (NAIA playoffs)"
    },
    {
        "col0": "M. DuBose",
        "col1": "1953-01-05",
        "col2": "0-2",
        "col3": "1-2 (NCAA D-III playoffs)"
    },
    {
        "col0": "M. Hudspeth",
        "col1": "1968-11-10",
        "col2": "2-0",
        "col3": "8-4 (NCAA D-II playoffs)"
    },
    {
        "col0": "L. Tepper",
        "col1": "1945-09-07",
        "col2": "1-2",
        "col3": "2-3 (NCAA D-II playoffs)"
    },
    {
        "col0": "L. Blakeney",
        "col1": "1947-09-21",
        "col2": "2-3",
        "col3": "5-7 (NCAA D-I-AA playoffs)"
    },
    {
        "col0": "K. Gilbertson",
        "col1": "1948-05-15",
        "col2": "1-0",
        "col3": "2-3 (NCAA I-AA playoffs)"
    },
    {
        "col0": "K. Dalton",
        "col1": "1932-05-04",
        "col2": "0-1",
        "col3": "2-1 (NCAA D-II playoffs)"
    },
    {
        "col0": "J. L. Smith",
        "col1": "1948-11-15",
        "col2": "1-6",
        "col3": "3-5 (NCAA D-I-AA playoffs)"
    },
    {
        "col0": "J. Gagliardi",
        "col1": "1926-11-01",
        "col2": "1-0",
        "col3": "34-18 (NCAA D-III playoffs)"
    },
    {
        "col0": "J. Bunting",
        "col1": "1950-07-15",
        "col2": "1-1",
        "col3": "2-2 (NCAA D-III playoffs)"
    },
    {
        "col0": "J. Taylor",
        "col1": "1950-05-07",
        "col2": "1-0",
        "col3": "0-5 (NCAA D-I-AA playoffs)"
    },
    {
        "col0": "J. Glenn",
        "col1": "1949-03-07",
        "col2": "1-0",
        "col3": "10-5 (NCAA D-II playoffs)"
    },
    {
        "col0": "J. Wacker",
        "col1": "1937-04-29",
        "col2": "0-1",
        "col3": "4-0 (NAIA D-II playoffs)"
    },
    {
        "col0": "J. Svoboda",
        "col1": "1960-06-23",
        "col2": "1-1",
        "col3": "0-3 (NAIA playoffs)"
    },
    {
        "col0": "J. Sochor",
        "col1": "1938-02-11",
        "col2": "0-1",
        "col3": "4-8 (NCAA D-II playoffs)"
    },
    {
        "col0": "J. Harkema",
        "col1": "1942-06-25",
        "col2": "1-0",
        "col3": "1-1 (NAIA D-I playoff)"
    },
    {
        "col0": "J. Donnan",
        "col1": "1945-01-29",
        "col2": "4-0",
        "col3": "15-4 (NCAA D-I-AA playoffs)"
    },
    {
        "col0": "J. Partridge",
        "col1": "1963-03-29",
        "col2": "4-2",
        "col3": "2-4 (NCAA D-II playoffs)"
    },
    {
        "col0": "J. Kill",
        "col1": "1961-08-24",
        "col2": "0-5",
        "col3": "4-5 (NCAA D-I-AA/FCS playoffs)"
    }
]