[
    {
        "col0": "Palace Episode",
        "col1": "Seattle Dancer",
        "col2": "Mr Prospector",
        "col3": "R. Farm"
    },
    {
        "col0": "Paean",
        "col1": "Nijinsky",
        "col2": "Busted",
        "col3": "John Scott-Ellis, 9th Baron Howard de Walden"
    },
    {
        "col0": "Oxygen",
        "col1": "Rubens",
        "col2": "Orville",
        "col3": "George FitzRoy, 4th Duke of Grafton"
    },
    {
        "col0": "Owington",
        "col1": "High Top",
        "col2": "Danzig",
        "col3": "Edward Stanley, 18th Earl of Derby"
    },
    {
        "col0": "Outstrip",
        "col1": "El Prado",
        "col2": "Danehill",
        "col3": "D. Stud"
    },
    {
        "col0": "Outstandingly",
        "col1": "Round Table",
        "col2": "Raise a Native",
        "col3": "L. Wolfson"
    },
    {
        "col0": "Ossory",
        "col1": "Macaroni",
        "col2": "Doncaster",
        "col3": "Hugh Grosvenor, 1st Duke of Westminster"
    },
    {
        "col0": "Orville",
        "col1": "Highflyer",
        "col2": "King Fergus",
        "col3": "William Fitzwilliam, 4th Earl Fitzwilliam"
    },
    {
        "col0": "Ormonde",
        "col1": "Macaroni",
        "col2": "Doncaster",
        "col3": "Hugh Grosvenor, 1st Duke of Westminster"
    },
    {
        "col0": "Orme",
        "col1": "Galopin",
        "col2": "Bend Or",
        "col3": "Hugh Grosvenor, 1st Duke of Westminster"
    },
    {
        "col0": "Orientate",
        "col1": "Cox's Ridge",
        "col2": "Blushing Groom",
        "col3": "G. Farm"
    },
    {
        "col0": "Orfevre",
        "col1": "Mejiro McQueen",
        "col2": "Sunday Silence",
        "col3": "S. Farm"
    },
    {
        "col0": "Orby",
        "col1": "Hanover",
        "col2": "Ormonde",
        "col3": "R. Croker"
    },
    {
        "col0": "Orb",
        "col1": "Unbridled",
        "col2": "A P Indy",
        "col3": "P. Stable"
    },
    {
        "col0": "Open Mind",
        "col1": "Stage Door Johnny",
        "col2": "Vice Regent",
        "col3": "R. E. Brennan"
    },
    {
        "col0": "One Cool Cat",
        "col1": "Mr. Prospector",
        "col2": "Storm Bird",
        "col3": "W. Farm"
    },
    {
        "col0": "On-and-On",
        "col1": "Bull Lea",
        "col2": "Nearco",
        "col3": "C. Farm"
    },
    {
        "col0": "Old Rosebud",
        "col1": "Himyar",
        "col2": "Star Shoot",
        "col3": "J. E. Madden"
    },
    {
        "col0": "Oil Capitol",
        "col1": "Pharos",
        "col2": "Blenheim II",
        "col3": "E. Farm"
    },
    {
        "col0": "Oh So Sharp",
        "col1": "Graustark",
        "col2": "Sharpen Up",
        "col3": "Mohammed bin Rashid Al Maktoum"
    },
    {
        "col0": "Ocean of Wisdom",
        "col1": "Halo",
        "col2": "Raise a Native",
        "col3": "S. Niarchos"
    },
    {
        "col0": "Observatory",
        "col1": "Roberto",
        "col2": "Mr Prospector",
        "col3": "J. Farms"
    },
    {
        "col0": "Oasis Dream",
        "col1": "Dancing Brave",
        "col2": "Danzig",
        "col3": "J. Stud"
    },
    {
        "col0": "Nureyev",
        "col1": "Forli",
        "col2": "Nearctic",
        "col3": "C. Farm"
    },
    {
        "col0": "Numbered Account",
        "col1": "Swaps",
        "col2": "Tom Fool",
        "col3": "O. Phipps"
    },
    {
        "col0": "Noverre",
        "col1": "Northern Dancer",
        "col2": "Blushing Groom",
        "col3": "D. Stud"
    },
    {
        "col0": "Northernette",
        "col1": "New Providence",
        "col2": "Nearctic",
        "col3": "E. P. Taylor"
    },
    {
        "col0": "Northern Taste",
        "col1": "Victoria Park",
        "col2": "Nearctic",
        "col3": "E. P. Taylor"
    },
    {
        "col0": "Northern Queen",
        "col1": "Windfields",
        "col2": "Nearco",
        "col3": "E. P. Taylor"
    },
    {
        "col0": "North Light",
        "col1": "Rainbow Quest",
        "col2": "Danzig",
        "col3": "B. Stud"
    },
    {
        "col0": "Norcliffe",
        "col1": "Northern Dancer",
        "col2": "Tom Fool",
        "col3": "E. P. Taylor"
    },
    {
        "col0": "Noor",
        "col1": "Bahram",
        "col2": "Nearco",
        "col3": "A. K. III"
    },
    {
        "col0": "Nonoalco",
        "col1": "Hasty Road",
        "col2": "Nearco",
        "col3": "F. M. Sr."
    },
    {
        "col0": "Noble Mission",
        "col1": "Danehill",
        "col2": "Sadler's Wells",
        "col3": "J. Farms"
    },
    {
        "col0": "Nobiz Like Shobiz",
        "col1": "Storm Cat",
        "col2": "Go for Gin",
        "col3": "T. Valando"
    },
    {
        "col0": "No Robbery",
        "col1": "Bimelech",
        "col2": "Khaled",
        "col3": "G. Stable"
    },
    {
        "col0": "Nijinsky",
        "col1": "Bull Page",
        "col2": "Nearctic",
        "col3": "W. Farm"
    },
    {
        "col0": "Next Move",
        "col1": "Chance Play",
        "col2": "Bull Dog",
        "col3": "Alfred G. Vanderbilt II"
    },
    {
        "col0": "Never Say Die",
        "col1": "War Admiral",
        "col2": "Nearco",
        "col3": "R. S. Clark"
    },
    {
        "col0": "Neo Universe",
        "col1": "Kris",
        "col2": "Halo",
        "col3": "S. Farm"
    },
    {
        "col0": "Nellie L.",
        "col1": "American Flag",
        "col2": "Blandford",
        "col3": "C. Farm"
    },
    {
        "col0": "Nellie Flag",
        "col1": "Luke McLuke",
        "col2": "Man o' War",
        "col3": "C. Farm"
    },
    {
        "col0": "Nedawi",
        "col1": "Northern Dancer",
        "col2": "Blushing Groom",
        "col3": "Mohammed bin Rashid Al Maktoum"
    },
    {
        "col0": "Nearctic",
        "col1": "Hyperion",
        "col2": "Pharos",
        "col3": "E. P. Taylor"
    },
    {
        "col0": "Nayef",
        "col1": "Bustino",
        "col2": "Mr. Prospector",
        "col3": "S. Stud"
    },
    {
        "col0": "Native Dancer",
        "col1": "Discovery",
        "col2": "Unbreakable",
        "col3": "Alfred G. Vanderbilt II"
    },
    {
        "col0": "Nassipour",
        "col1": "Aureole",
        "col2": "Red God",
        "col3": "A. K. IV"
    },
    {
        "col0": "Nasrullah",
        "col1": "Blenheim",
        "col2": "Pharos",
        "col3": "A. K. III"
    },
    {
        "col0": "Nashwan",
        "col1": "Bustino",
        "col2": "Red God",
        "col3": "Hamdan bin Rashid Al Maktoum"
    },
    {
        "col0": "Nashua",
        "col1": "Johnstown",
        "col2": "Nearco",
        "col3": "B. Stud"
    },
    {
        "col0": "Nadir",
        "col1": "Challenger",
        "col2": "Nearco",
        "col3": "C. Farm"
    },
    {
        "col0": "My Tent Or Yours",
        "col1": "Ela-Mana-Mou",
        "col2": "Green Desert",
        "col3": "D. Stores"
    },
    {
        "col0": "My Flag",
        "col1": "Private Account",
        "col2": "Alydar",
        "col3": "O. Phipps"
    },
    {
        "col0": "My Emma",
        "col1": "High Top",
        "col2": "Last Tycoon",
        "col3": "Victor Matthews, Baron Matthews"
    },
    {
        "col0": "Music Show",
        "col1": "Mr Prospector",
        "col2": "Rahy",
        "col3": "D. Stud"
    },
    {
        "col0": "Mujahid",
        "col1": "Storm Cat",
        "col2": "Northern Dancer",
        "col3": "S. Farm"
    },
    {
        "col0": "Mr. Prospector",
        "col1": "Nashua",
        "col2": "Native Dancer",
        "col3": "L. C. II"
    },
    {
        "col0": "Moonshell",
        "col1": "Kris",
        "col2": "Northern Dancer",
        "col3": "Mohammed bin Rashid Al Maktoum"
    },
    {
        "col0": "Moon Ballad",
        "col1": "Shaadi",
        "col2": "In the Wings",
        "col3": "N. S. Farm"
    },
    {
        "col0": "Monterosso",
        "col1": "Barathea",
        "col2": "Dubai Millennium",
        "col3": "D. Stud"
    },
    {
        "col0": "Momigi",
        "col1": "Native Dancer",
        "col2": "Tom Fool",
        "col3": "E. P. Taylor"
    },
    {
        "col0": "Misty Morn",
        "col1": "Mahmoud",
        "col2": "Prince Rose",
        "col3": "W. Stable"
    },
    {
        "col0": "Miss Oceana",
        "col1": "Sea-Bird",
        "col2": "Raise a Native",
        "col3": "N. Farm"
    },
    {
        "col0": "Minster Son",
        "col1": "Crepello",
        "col2": "Nijinsky II",
        "col3": "W. Carson"
    },
    {
        "col0": "Minoru",
        "col1": "Friar's Balsam",
        "col2": "Bona Vista",
        "col3": "William Walker, 1st Baron Wavertree"
    },
    {
        "col0": "Mineshaft",
        "col1": "Mr. Prospector",
        "col2": "Seattle Slew",
        "col3": "William S. Farish III"
    },
    {
        "col0": "Mill Reef",
        "col1": "Princequillo",
        "col2": "Nasrullah",
        "col3": "P. Mellon"
    },
    {
        "col0": "Miesque",
        "col1": "Prove Out",
        "col2": "Northern Dancer",
        "col3": "S. Niarchos"
    },
    {
        "col0": "Midnight Lute",
        "col1": "Dehere",
        "col2": "Quiet American",
        "col3": "M. farms"
    },
    {
        "col0": "Middleton",
        "col1": "Waxy",
        "col2": "Walton",
        "col3": "George Child Villiers, 5th Earl of Jersey"
    },
    {
        "col0": "Midday",
        "col1": "Kingmambo",
        "col2": "Green Desert",
        "col3": "P. K. Abdullah"
    },
    {
        "col0": "Meteora",
        "col1": "Highflyer",
        "col2": "Eclipse",
        "col3": "Robert Grosvenor, 1st Marquess of Westminster"
    },
    {
        "col0": "Menifee",
        "col1": "Never Bend",
        "col2": "Storm Cat",
        "col3": "Arthur B. Hancock III"
    },
    {
        "col0": "Megahertz",
        "col1": "Rahy",
        "col2": "Polar Falcon",
        "col3": "C. P. Stud"
    },
    {
        "col0": "Medicean",
        "col1": "Storm Bird",
        "col2": "Mr Prospector",
        "col3": "C. P. Stud"
    },
    {
        "col0": "Media Puzzle",
        "col1": "Gulch",
        "col2": "Nureyev",
        "col3": "W. Haefner"
    },
    {
        "col0": "Mata Hari",
        "col1": "Man o' War",
        "col2": "Peter Pan I",
        "col3": "C. T. Fisher"
    },
    {
        "col0": "Mastery",
        "col1": "Diesis",
        "col2": "Hernando",
        "col3": "D. Stud"
    },
    {
        "col0": "Maskette",
        "col1": "Hamburg",
        "col2": "Domino",
        "col3": "J. R. Keene"
    },
    {
        "col0": "Masked Marvel",
        "col1": "Mark of Esteem",
        "col2": "Sadler's Wells",
        "col3": "N. Park"
    },
    {
        "col0": "Mashaallah",
        "col1": "Round Table",
        "col2": "Northern Dancer",
        "col3": "William Stamps Farish III"
    },
    {
        "col0": "Maroof",
        "col1": "Bustino",
        "col2": "Northern Dancer",
        "col3": "S. Farm"
    },
    {
        "col0": "Markab",
        "col1": "Nashwan",
        "col2": "Danzig",
        "col3": "S. Stud"
    },
    {
        "col0": "Mark of Esteem",
        "col1": "Ajdal",
        "col2": "Shirley Heights",
        "col3": "Mohammed bin Rashid Al Maktoum"
    },
    {
        "col0": "Mark-Ye-Well",
        "col1": "Blenheim II",
        "col2": "Bull Dog",
        "col3": "C. Farm"
    },
    {
        "col0": "Mariacci",
        "col1": "Exbury",
        "col2": "Tanerko",
        "col3": "G. d. Rothschild"
    },
    {
        "col0": "Margot Did",
        "col1": "Shareef Dancer",
        "col2": "Danehill",
        "col3": "N. Hartery"
    },
    {
        "col0": "Mar-Kell",
        "col1": "American Flag",
        "col2": "Blandford",
        "col3": "C. Farm"
    },
    {
        "col0": "Manitoba",
        "col1": "Son-in-Law",
        "col2": "Phalaris",
        "col3": "James Buchanan, 1st Baron Woolavington"
    },
    {
        "col0": "Manistique",
        "col1": "Nureyev",
        "col2": "Fappiano",
        "col3": "M. Naify"
    },
    {
        "col0": "Man of Iron",
        "col1": "Deputy Minister",
        "col2": "Storm Cat",
        "col3": "S. G. Stables"
    },
    {
        "col0": "Man o' War",
        "col1": "Rock Sand",
        "col2": "Hastings",
        "col3": "A. B. Jr."
    },
    {
        "col0": "Mamool",
        "col1": "Woodman",
        "col2": "Sadler's Wells",
        "col3": "Mohammed bin Rashid Al Maktoum"
    },
    {
        "col0": "Malibu Moon",
        "col1": "Mr. Prospector",
        "col2": "Seattle Slew",
        "col3": "B. W. Hughes"
    },
    {
        "col0": "Majestic Prince",
        "col1": "Royal Charger",
        "col2": "Native Dancer",
        "col3": "L. C. II"
    },
    {
        "col0": "Main Sequence",
        "col1": "Pivotal",
        "col2": "Mr Prospector",
        "col3": "F. Holdings"
    },
    {
        "col0": "Mahmoud",
        "col1": "Gainsborough",
        "col2": "Blandford",
        "col3": "A. K. III"
    },
    {
        "col0": "Magic of Life",
        "col1": "Northern Dancer",
        "col2": "Bold Reasoning",
        "col3": "N. Farm"
    },
    {
        "col0": "Mad Play",
        "col1": "Rock Sand",
        "col2": "Hastings",
        "col3": "A. B. Jr."
    },
    {
        "col0": "Mad Hatter",
        "col1": "Rock Sand",
        "col2": "Hastings",
        "col3": "A. B. Jr."
    },
    {
        "col0": "Lyric of Light",
        "col1": "Green Desert",
        "col2": "Machiavellian",
        "col3": "D. Stud"
    },
    {
        "col0": "Lure",
        "col1": "Alydar",
        "col2": "Northern Dancer",
        "col3": "C. Farm"
    },
    {
        "col0": "Lumiere",
        "col1": "Tobougg",
        "col2": "Giant's Causeway",
        "col3": "D. Stud"
    },
    {
        "col0": "Lujain",
        "col1": "Shadeed",
        "col2": "Mr Prospector",
        "col3": "D. Stud"
    },
    {
        "col0": "Lucky Nine",
        "col1": "Green Desert",
        "col2": "Dubai Millennium",
        "col3": "D. Stud"
    },
    {
        "col0": "Lucarno",
        "col1": "Diesis",
        "col2": "Roberto",
        "col3": "George W. Strawbridge, Jr."
    },
    {
        "col0": "Light Shift",
        "col1": "Shirley Heights",
        "col2": "Mr. Prospector",
        "col3": "S. Niarchos"
    },
    {
        "col0": "Life Is Sweet",
        "col1": "Kris S.",
        "col2": "Storm Bird",
        "col3": "M. J. Wygod"
    },
    {
        "col0": "Lemon Drop Kid",
        "col1": "Seattle Slew",
        "col2": "Mr. Prospector",
        "col3": "William Stamps Farish III"
    },
    {
        "col0": "Lemberg",
        "col1": "Galopin",
        "col2": "Bona Vista",
        "col3": "A. W. Cox"
    },
    {
        "col0": "Law Society",
        "col1": "Boldnesian",
        "col2": "Hoist the Flag",
        "col3": "William Stamps Farish III"
    },
    {
        "col0": "Las Meninas",
        "col1": "Habitat",
        "col2": "Northern Dancer",
        "col3": "R. Sangster"
    },
    {
        "col0": "Landing Light",
        "col1": "Ela-Mana-Mou",
        "col2": "Sadler's Wells",
        "col3": "B. Stud"
    },
    {
        "col0": "Landaluce",
        "col1": "Bold Bidder",
        "col2": "Bold Reasoning",
        "col3": "S. Farm"
    },
    {
        "col0": "Lambert Simnel",
        "col1": "Blandford",
        "col2": "Fairway",
        "col3": "Hugh Grosvenor, 2nd Duke of Westminster"
    },
    {
        "col0": "Lamb Chop",
        "col1": "Count Fleet",
        "col2": "Nasrullah",
        "col3": "C. Farm"
    },
    {
        "col0": "Lalun",
        "col1": "Bimelech",
        "col2": "Djebel",
        "col3": "H. F. Guggenheim"
    },
    {
        "col0": "Lailani",
        "col1": "Mr Prospector",
        "col2": "Northern Dancer",
        "col3": "Maktoum bin Rashid Al Maktoum"
    },
    {
        "col0": "Lady Eli",
        "col1": "Saint Ballado",
        "col2": "Chester House",
        "col3": "R. Farm"
    },
    {
        "col0": "La Voyageuse",
        "col1": "Northern Dancer",
        "col2": "Intentionally",
        "col3": "J. Levesque"
    },
    {
        "col0": "La Prevoyante",
        "col1": "Nearctic",
        "col2": "Tom Fool",
        "col3": "J. Levesque"
    },
    {
        "col0": "La Lorgnette",
        "col1": "Nijinsky II",
        "col2": "Val de Loir",
        "col3": "E. P. Taylor"
    },
    {
        "col0": "L'Enjoleur",
        "col1": "Northern Dancer",
        "col2": "Tom Fool",
        "col3": "J. Levesque"
    },
    {
        "col0": "L'Alezane",
        "col1": "Northern Dancer",
        "col2": "Rough'n Tumble",
        "col3": "E. P. Taylor"
    },
    {
        "col0": "Kotashaan",
        "col1": "Elocutionist",
        "col2": "Shirley Heights",
        "col3": "W. e. Frere"
    },
    {
        "col0": "Kostroma",
        "col1": "Busted",
        "col2": "Nijinsky II",
        "col3": "T. Stack"
    },
    {
        "col0": "Kitten's Joy",
        "col1": "Lear Fan",
        "col2": "Sadler's Wells",
        "col3": "Kenneth L. and Sarah K. Ramsey"
    },
    {
        "col0": "Kissing Cousin",
        "col1": "Kris",
        "col2": "Danzig",
        "col3": "S. Mohammed"
    },
    {
        "col0": "Kissin' George",
        "col1": "Head Play",
        "col2": "Nasrullah",
        "col3": "B. Millerick"
    },
    {
        "col0": "Kiss Me Kate",
        "col1": "Pharamond II",
        "col2": "Reigh Count",
        "col3": "W. M. Jeffords"
    },
    {
        "col0": "Kingsway",
        "col1": "Ksar",
        "col2": "Phalaris",
        "col3": "Marmaduke Furness, 1st Viscount Furness"
    },
    {
        "col0": "Kingfisher",
        "col1": "Kingston",
        "col2": "Boston",
        "col3": "R. A. Alexander"
    },
    {
        "col0": "Kingarvie",
        "col1": "Bachelor's Double",
        "col2": "Bull Dog",
        "col3": "S. McLaughlin"
    },
    {
        "col0": "Kind",
        "col1": "Rainbow Quest",
        "col2": "Danzig",
        "col3": "J. Farms"
    },
    {
        "col0": "Key to the Mint",
        "col1": "Princequillo",
        "col2": "Ribot",
        "col3": "P. Mellon"
    },
    {
        "col0": "Key Change",
        "col1": "The Minstrel",
        "col2": "Shirley Heights",
        "col3": "A. K. IV"
    },
    {
        "col0": "Kentucky Gold",
        "col1": "Nashua",
        "col2": "Native Dancer",
        "col3": "L. C. II"
    },
    {
        "col0": "Kentucky",
        "col1": "Glencoe I",
        "col2": "Boston",
        "col3": "J. M. Clay"
    },
    {
        "col0": "Kendal",
        "col1": "Macaroni",
        "col2": "Doncaster",
        "col3": "Hugh Grosvenor, 1st Duke of Westminster"
    },
    {
        "col0": "Kelso",
        "col1": "Count Fleet",
        "col2": "Alibhai",
        "col3": "A. d. Pont"
    },
    {
        "col0": "Karshi",
        "col1": "Shirley Heights",
        "col2": "Bold Lad",
        "col3": "Samuel Vestey, 3rd Baron Vestey"
    },
    {
        "col0": "Karakontie",
        "col1": "Sunday Silence",
        "col2": "Storm Cat",
        "col3": "F. Holdings"
    },
    {
        "col0": "Kahyasi",
        "col1": "Blushing Groom",
        "col2": "Nijinsky II",
        "col3": "A. K. IV"
    },
    {
        "col0": "Jupiter Island",
        "col1": "Reform",
        "col2": "Aureole",
        "col3": "Robin Russell, 14th Duke of Bedford"
    },
    {
        "col0": "Judy the Beauty",
        "col1": "Holy Bull",
        "col2": "Awesome Again",
        "col3": "A. Springs"
    },
    {
        "col0": "Johren",
        "col1": "Meddler",
        "col2": "Carbine",
        "col3": "H. P. Whitney"
    },
    {
        "col0": "John F Kennedy",
        "col1": "Danehill",
        "col2": "Sadlers Wells",
        "col3": "S. Niarchos"
    },
    {
        "col0": "John Bull",
        "col1": "Eclipse",
        "col2": "Herod",
        "col3": "Richard Grosvenor, 1st Earl Grosvenor"
    },
    {
        "col0": "Johar",
        "col1": "Lear Fan",
        "col2": "Mr. Prospector",
        "col3": "T. T. Corp."
    },
    {
        "col0": "Joe Daniels",
        "col1": "Glencoe I",
        "col2": "West Australian",
        "col3": "W. Stud"
    },
    {
        "col0": "Jim French",
        "col1": "Tom Fool",
        "col2": "Ribot",
        "col3": "R. Wilson"
    },
    {
        "col0": "Jet Pilot",
        "col1": "Sir Gallahad III",
        "col2": "Blandford",
        "col3": "A. B. Hancock"
    },
    {
        "col0": "Jest",
        "col1": "Melton",
        "col2": "Amphion",
        "col3": "J. B. Joel"
    },
    {
        "col0": "Jazil",
        "col1": "Deputy Minister",
        "col2": "Mr. Prospector",
        "col3": "S. G. Stables"
    },
    {
        "col0": "Java Gold",
        "col1": "Nijinsky II",
        "col2": "Graustark",
        "col3": "P. Mellon"
    },
    {
        "col0": "Jannette",
        "col1": "Stockwell",
        "col2": "Newminster",
        "col3": "Evelyn Boscawen, 6th Viscount Falmouth"
    },
    {
        "col0": "Jalil",
        "col1": "Rahy",
        "col2": "Storm Bird",
        "col3": "M. J. Wygod"
    },
    {
        "col0": "Jaipur",
        "col1": "Eight Thirty",
        "col2": "Nearco",
        "col3": "E. Farm"
    },
    {
        "col0": "Jacola",
        "col1": "Sir Gallahad III",
        "col2": "Sansovino",
        "col3": "A. B. Hancock"
    },
    {
        "col0": "Jacinth",
        "col1": "Right Royal",
        "col2": "Nasrullah",
        "col3": "W. Hill"
    },
    {
        "col0": "Izvestia",
        "col1": "Personality",
        "col2": "Nearctic",
        "col3": "K. Farms"
    },
    {
        "col0": "Ivanjica",
        "col1": "Vieux Manoir",
        "col2": "Sir Gaylord",
        "col3": "J. Wertheimer"
    },
    {
        "col0": "Islington",
        "col1": "Darshaan",
        "col2": "Northern Dancer",
        "col3": "B. Stud"
    },
    {
        "col0": "Iron Liege",
        "col1": "War Admiral",
        "col2": "Bull Dog",
        "col3": "C. Farm"
    },
    {
        "col0": "Intercontinental",
        "col1": "Kahyasi",
        "col2": "Danzig",
        "col3": "J. Farms"
    },
    {
        "col0": "Intentionally",
        "col1": "Discovery",
        "col2": "War Relic",
        "col3": "H. Z. Isaacs"
    },
    {
        "col0": "Intense Focus",
        "col1": "Danehill",
        "col2": "Storm Cat",
        "col3": "T. C. Farm"
    },
    {
        "col0": "Intello",
        "col1": "Danehill",
        "col2": "Sadler's Wells",
        "col3": "W. e. Frere"
    },
    {
        "col0": "Integral",
        "col1": "Danehill",
        "col2": "Darshaan",
        "col3": "C. P. Stud"
    },
    {
        "col0": "Inside Information",
        "col1": "Key to the Mint",
        "col2": "Damascus",
        "col3": "O. M. Phipps"
    },
    {
        "col0": "Indian Skimmer",
        "col1": "Vaguely Noble",
        "col2": "Northern Dancer",
        "col3": "A. Stud"
    },
    {
        "col0": "Indian Ink",
        "col1": "Darshaan",
        "col2": "Ahonoora",
        "col3": "K. C. Dunsany"
    },
    {
        "col0": "In the Wings",
        "col1": "Shirley Heights",
        "col2": "Northern Dancer",
        "col3": "Mohammed bin Rashid Al Maktoum"
    },
    {
        "col0": "Ice Water",
        "col1": "Count Fleet",
        "col2": "Nearco",
        "col3": "G. Farms"
    },
    {
        "col0": "Ibn Khaldun",
        "col1": "Sadler's Wells",
        "col2": "Kingmambo",
        "col3": "D. Stud"
    },
    {
        "col0": "Ibn Bey",
        "col1": "High Top",
        "col2": "Never Bend",
        "col3": "Henry Herbert, 7th Earl of Carnarvon"
    },
    {
        "col0": "Hycilla",
        "col1": "Omar Khayyam",
        "col2": "Gainsborough",
        "col3": "W. W. Sr."
    },
    {
        "col0": "Hot Snap",
        "col1": "Kingmambo",
        "col2": "Polar Falcon",
        "col3": "J. Farms"
    },
    {
        "col0": "Hooray",
        "col1": "Machiavellian",
        "col2": "Green Desert",
        "col3": "C. P. Stud"
    },
    {
        "col0": "Honour and Glory",
        "col1": "Al Nasr",
        "col2": "In Reality",
        "col3": "O. Farm"
    },
    {
        "col0": "Honeymoon",
        "col1": "Chance Shot",
        "col2": "Son-in-Law",
        "col3": "L. B. Mayer"
    },
    {
        "col0": "Homing",
        "col1": "St. Paddy",
        "col2": "Sir Gaylord",
        "col3": "L. Rotherwick"
    },
    {
        "col0": "Holiday",
        "col1": "Meddler",
        "col2": "Ben Brush",
        "col3": "H. P. Whitney"
    },
    {
        "col0": "Hoist The Flag",
        "col1": "War Admiral",
        "col2": "Ribot",
        "col3": "J. M. Schiff"
    },
    {
        "col0": "His Majesty",
        "col1": "Alibhai",
        "col2": "Tenerani",
        "col3": "J. W. Galbreath"
    },
    {
        "col0": "Hill Prince",
        "col1": "Bubbling Over",
        "col2": "Prince Rose",
        "col3": "C. Chenery"
    },
    {
        "col0": "Hill Gail",
        "col1": "Blenheim II",
        "col2": "Bull Dog",
        "col3": "C. Farm"
    },
    {
        "col0": "High Voltage",
        "col1": "Menow",
        "col2": "Tourbillon",
        "col3": "W. Stable"
    },
    {
        "col0": "High Quest",
        "col1": "Fair Play",
        "col2": "Teddy",
        "col3": "M. F. III"
    },
    {
        "col0": "Hi Jinx",
        "col1": "Foxbridge",
        "col2": "Royal Charger",
        "col3": "T. Stud"
    },
    {
        "col0": "Hernando",
        "col1": "Miswaki",
        "col2": "Nijinsky",
        "col3": "S. Niarchos"
    },
    {
        "col0": "Heliopolis",
        "col1": "Swynford",
        "col2": "Gainsborough",
        "col3": "Edward Stanley, 17th Earl of Derby"
    },
    {
        "col0": "Hector Protector",
        "col1": "Riverman",
        "col2": "Mr. Prospector",
        "col3": "S. Niarchos"
    },
    {
        "col0": "Harzand",
        "col1": "Xaar",
        "col2": "Cape Cross",
        "col3": "A. K. IV"
    },
    {
        "col0": "Harlem Rocker",
        "col1": "Lit de Justice",
        "col2": "Holy Bull",
        "col3": "A. Springs"
    },
    {
        "col0": "Harbour Law",
        "col1": "Pivotal",
        "col2": "Invincible Spirit",
        "col3": "A. Oppenheimer"
    }
]