[
    {
        "col0": "S. Lal",
        "col1": "1983-12-04",
        "col2": "1983-12-04",
        "col3": "2013-07-17"
    },
    {
        "col0": "S. Ganguli",
        "col1": "1911-03-19",
        "col2": "1911-03-19",
        "col3": "1985-12-26"
    },
    {
        "col0": "S. Singleton",
        "col1": "1914-8-5",
        "col2": "1914-8-5",
        "col3": "1999-3-22"
    },
    {
        "col0": "S. Bell",
        "col1": "1906-4-15",
        "col2": "1906-4-15",
        "col3": "1985-8-1"
    },
    {
        "col0": "S. Schultz",
        "col1": "1857-8-29",
        "col2": "1857-8-29",
        "col3": "1937-12-18"
    },
    {
        "col0": "S. Singh",
        "col1": "1988-10-10",
        "col2": "1988-10-10",
        "col3": "2014-02-06"
    },
    {
        "col0": "S. Wright",
        "col1": "1869-1-4",
        "col2": "1869-1-4",
        "col3": "1947-1-25"
    },
    {
        "col0": "S. Swire",
        "col1": "1839-1-3",
        "col2": "1839-1-3",
        "col3": "1905-12-29"
    },
    {
        "col0": "S. Sharpe",
        "col1": "1839-01-13",
        "col2": "1839-01-13",
        "col3": "1924-11-05"
    },
    {
        "col0": "S. Rohde",
        "col1": "1788-1-1",
        "col2": "1788-1-1",
        "col3": "1847-8-29"
    },
    {
        "col0": "S. Richardson",
        "col1": "1844-05-24",
        "col2": "1844-05-24",
        "col3": "1938-01-18"
    },
    {
        "col0": "S. Mugglestone",
        "col1": "1765-0-0",
        "col2": "1765-0-0",
        "col3": "1839-12-11"
    },
    {
        "col0": "S. Morris",
        "col1": "1855-6-22",
        "col2": "1855-6-22",
        "col3": "1931-9-20"
    },
    {
        "col0": "S. Morcom",
        "col1": "1847-0-0",
        "col2": "1847-0-0",
        "col3": "1888-01-15"
    },
    {
        "col0": "S. McMichael",
        "col1": "1869-07-18",
        "col2": "1869-07-18",
        "col3": "1923-04-21"
    },
    {
        "col0": "S. Malthouse",
        "col1": "1857-10-13",
        "col2": "1857-10-13",
        "col3": "1931-02-07"
    },
    {
        "col0": "S. Langton",
        "col1": "1886-01-24",
        "col2": "1886-01-24",
        "col3": "1918-07-10"
    },
    {
        "col0": "S. Kingdon",
        "col1": "1805-5-16",
        "col2": "1805-5-16",
        "col3": "1872-3-17"
    },
    {
        "col0": "S. Jagger",
        "col1": "1904-06-30",
        "col2": "1904-06-30",
        "col3": "1964-05-30"
    },
    {
        "col0": "S. Jackson",
        "col1": "1859-7-15",
        "col2": "1859-7-15",
        "col3": "1941-7-19"
    },
    {
        "col0": "S. Hunt",
        "col1": "1909-01-09",
        "col2": "1909-01-09",
        "col3": "1963-08-02"
    },
    {
        "col0": "S. Hopkinson",
        "col1": "1825-10-01",
        "col2": "1825-10-01",
        "col3": "1887-06-26"
    },
    {
        "col0": "S. Hind",
        "col1": "1850-12-14",
        "col2": "1850-12-14",
        "col3": "1923-03-28"
    },
    {
        "col0": "S. Goodman",
        "col1": "1877-02-06",
        "col2": "1877-02-06",
        "col3": "1905-03-04"
    },
    {
        "col0": "S. Flaxington",
        "col1": "1860-10-14",
        "col2": "1860-10-14",
        "col3": "1895-3-10"
    },
    {
        "col0": "S. Ellis",
        "col1": "1889-06-02",
        "col2": "1889-06-02",
        "col3": "1949-01-19"
    },
    {
        "col0": "S. Edgar",
        "col1": "1913-9-23",
        "col2": "1913-9-23",
        "col3": "1937-1-31"
    },
    {
        "col0": "S. Day",
        "col1": "1878-12-29",
        "col2": "1878-12-29",
        "col3": "1950-02-21"
    },
    {
        "col0": "S. Crossland",
        "col1": "1851-8-16",
        "col2": "1851-8-16",
        "col3": "1906-4-11"
    },
    {
        "col0": "S. Corlett",
        "col1": "1852-5-8",
        "col2": "1852-5-8",
        "col3": "1921-1-2"
    },
    {
        "col0": "S. Coe",
        "col1": "1873-06-03",
        "col2": "1873-06-03",
        "col3": "1955-11-04"
    },
    {
        "col0": "S. Cockerill",
        "col1": "1794-6-18",
        "col2": "1794-6-18",
        "col3": "1869-2-7"
    },
    {
        "col0": "S. Cadman",
        "col1": "1877-01-29",
        "col2": "1877-01-29",
        "col3": "1952-05-06"
    },
    {
        "col0": "S. Butler",
        "col1": "1850-4-15",
        "col2": "1850-4-15",
        "col3": "1903-4-30"
    },
    {
        "col0": "S. Bullock",
        "col1": "1807-0-0",
        "col2": "1807-0-0",
        "col3": "1855-0-0"
    },
    {
        "col0": "S. Bowtell",
        "col1": "1806-12-7",
        "col2": "1806-12-7",
        "col3": "1881-5-1"
    },
    {
        "col0": "S. Baldwinson",
        "col1": "1823-1-14",
        "col2": "1823-1-14",
        "col3": "1856-3-2"
    },
    {
        "col0": "S. Alpe",
        "col1": "1834-03-29",
        "col2": "1834-03-29",
        "col3": "1918-07-30"
    },
    {
        "col0": "S. Tubb",
        "col1": "1840-10-11",
        "col2": "1840-10-11",
        "col3": "1891-01-27"
    },
    {
        "col0": "S. Woods",
        "col1": "1867-04-13",
        "col2": "1867-04-13",
        "col3": "1931-04-30"
    },
    {
        "col0": "S. Jones",
        "col1": "1861-8-1",
        "col2": "1861-8-1",
        "col3": "1951-7-14"
    },
    {
        "col0": "S. Guillen",
        "col1": "1924-09-24",
        "col2": "1924-09-24",
        "col3": "2013-03-01"
    },
    {
        "col0": "S. Carter",
        "col1": "1878-3-15",
        "col2": "1878-3-15",
        "col3": "1948-6-8"
    },
    {
        "col0": "S. Chakrabarti",
        "col1": "1943-09-30",
        "col2": "1943-09-30",
        "col3": "2015-12-11"
    },
    {
        "col0": "S. Pan",
        "col1": "1919-01-03",
        "col2": "1919-01-03",
        "col3": "1987-1-1"
    },
    {
        "col0": "S. Roy",
        "col1": "1917-02-01",
        "col2": "1917-02-01",
        "col3": "1997-08-06"
    },
    {
        "col0": "S. Staples",
        "col1": "1892-9-18",
        "col2": "1892-9-18",
        "col3": "1950-6-4"
    },
    {
        "col0": "S. Redgate",
        "col1": "1810-7-27",
        "col2": "1810-7-27",
        "col3": "1851-4-13"
    },
    {
        "col0": "S. Meston",
        "col1": "1882-11-19",
        "col2": "1882-11-19",
        "col3": "1960-01-06"
    },
    {
        "col0": "S. Lowe",
        "col1": "1867-7-19",
        "col2": "1867-7-19",
        "col3": "1947-3-29"
    },
    {
        "col0": "S. Kilburn",
        "col1": "1868-10-16",
        "col2": "1868-10-16",
        "col3": "1940-9-25"
    },
    {
        "col0": "S. Hargreave",
        "col1": "1875-9-22",
        "col2": "1875-9-22",
        "col3": "1929-1-1"
    },
    {
        "col0": "S. Everett",
        "col1": "1901-06-17",
        "col2": "1901-06-17",
        "col3": "1970-10-10"
    },
    {
        "col0": "S. Cook",
        "col1": "1921-08-23",
        "col2": "1921-08-23",
        "col3": "1996-09-04"
    },
    {
        "col0": "S. Bulbulia",
        "col1": "1933-02-22",
        "col2": "1933-02-22",
        "col3": "2015-07-10"
    },
    {
        "col0": "S. Pervez",
        "col1": "1947-9-9",
        "col2": "1947-9-9",
        "col3": "2013-4-24"
    },
    {
        "col0": "S. Hasan",
        "col1": "1978-05-25",
        "col2": "1978-05-25",
        "col3": "2007-03-16"
    },
    {
        "col0": "S. Young",
        "col1": "1876-2-5",
        "col2": "1876-2-5",
        "col3": "1964-12-12"
    },
    {
        "col0": "S. Shinde",
        "col1": "1923-8-18",
        "col2": "1923-8-18",
        "col3": "1955-6-22"
    },
    {
        "col0": "R. Symons",
        "col1": "1913-10-03",
        "col2": "1913-10-03",
        "col3": "2004-09-11"
    },
    {
        "col0": "R. Dow",
        "col1": "1926-6-28",
        "col2": "1926-6-28",
        "col3": "1989-0-0"
    },
    {
        "col0": "R. Jamshedji",
        "col1": "1892-11-18",
        "col2": "1892-11-18",
        "col3": "1976-4-5"
    },
    {
        "col0": "R. Wood",
        "col1": "1929-12-12",
        "col2": "1929-12-12",
        "col3": "2015-07-01"
    },
    {
        "col0": "R. Walker",
        "col1": "1842-2-13",
        "col2": "1842-2-13",
        "col3": "1922-3-29"
    },
    {
        "col0": "R. Ridgway",
        "col1": "1891-01-30",
        "col2": "1891-01-30",
        "col3": "1946-10-26"
    },
    {
        "col0": "R. Inglis",
        "col1": "1936-06-13",
        "col2": "1936-06-13",
        "col3": "1982-04-28"
    },
    {
        "col0": "R. Everitt",
        "col1": "1881-9-8",
        "col2": "1881-9-8",
        "col3": "1973-5-11"
    },
    {
        "col0": "R. Endean",
        "col1": "1924-5-31",
        "col2": "1924-5-31",
        "col3": "2003-6-28"
    },
    {
        "col0": "R. Bencraft",
        "col1": "1858-03-04",
        "col2": "1858-03-04",
        "col3": "1943-12-25"
    },
    {
        "col0": "R. Aldridge",
        "col1": "1831-08-05",
        "col2": "1831-08-05",
        "col3": "1895-08-27"
    },
    {
        "col0": "R. Surti",
        "col1": "1936-05-25",
        "col2": "1936-05-25",
        "col3": "2013-01-13"
    },
    {
        "col0": "R. d. Smidt",
        "col1": "1883-11-23",
        "col2": "1883-11-23",
        "col3": "1986-8-3"
    },
    {
        "col0": "R. Worker",
        "col1": "1896-04-15",
        "col2": "1896-04-15",
        "col3": "1989-04-23"
    },
    {
        "col0": "R. T. Choon",
        "col1": "1914-05-31",
        "col2": "1914-05-31",
        "col3": "1985-09-05"
    },
    {
        "col0": "R. Sloman",
        "col1": "1890-06-23",
        "col2": "1890-06-23",
        "col3": "1951-08-02"
    },
    {
        "col0": "R. Scotland",
        "col1": "1937-09-02",
        "col2": "1937-09-02",
        "col3": "2012-06-07"
    },
    {
        "col0": "R. Rogers",
        "col1": "1902-05-27",
        "col2": "1902-05-27",
        "col3": "1976-05-02"
    },
    {
        "col0": "R. Pennycuick",
        "col1": "1893-04-11",
        "col2": "1893-04-11",
        "col3": "1963-01-17"
    },
    {
        "col0": "R. Hickmott",
        "col1": "1894-03-19",
        "col2": "1894-03-19",
        "col3": "1916-09-16"
    },
    {
        "col0": "R. Anson",
        "col1": "1889-11-07",
        "col2": "1889-11-07",
        "col3": "1966-12-20"
    },
    {
        "col0": "R. Morton",
        "col1": "1978-07-22",
        "col2": "1978-07-22",
        "col3": "2012-03-04"
    },
    {
        "col0": "R. Howe",
        "col1": "1857-07-15",
        "col2": "1857-07-15",
        "col3": "1936-12-02"
    },
    {
        "col0": "R. Monaghan",
        "col1": "1916-5-24",
        "col2": "1916-5-24",
        "col3": "2012-6-10"
    },
    {
        "col0": "R. Simms",
        "col1": "1894-01-01",
        "col2": "1894-01-01",
        "col3": "1978-03-12"
    },
    {
        "col0": "R. Gabe-Jones",
        "col1": "1906-11-25",
        "col2": "1906-11-25",
        "col3": "1965-2-26"
    },
    {
        "col0": "R. Wilkins",
        "col1": "1892-04-18",
        "col2": "1892-04-18",
        "col3": "1965-07-17"
    },
    {
        "col0": "R. Westbrook",
        "col1": "1889-01-03",
        "col2": "1889-01-03",
        "col3": "1961-08-07"
    },
    {
        "col0": "R. Tattersall",
        "col1": "1922-08-17",
        "col2": "1922-08-17",
        "col3": "2011-12-09"
    },
    {
        "col0": "R. Stevens",
        "col1": "1933-02-06",
        "col2": "1933-02-06",
        "col3": "1992-10-06"
    },
    {
        "col0": "R. Smith",
        "col1": "1910-01-20",
        "col2": "1910-01-20",
        "col3": "1971-10-19"
    },
    {
        "col0": "R. Sheffield",
        "col1": "1906-11-19",
        "col2": "1906-11-19",
        "col3": "1997-11-16"
    },
    {
        "col0": "R. Scott",
        "col1": "1917-5-6",
        "col2": "1917-5-6",
        "col3": "2005-8-5"
    },
    {
        "col0": "R. Scoggins",
        "col1": "1908-03-13",
        "col2": "1908-03-13",
        "col3": "1970-01-19"
    },
    {
        "col0": "R. Ralph",
        "col1": "1920-05-22",
        "col2": "1920-05-22",
        "col3": "2015-4-0"
    },
    {
        "col0": "R. Middleton",
        "col1": "1889-09-18",
        "col2": "1889-09-18",
        "col3": "1975-03-19"
    },
    {
        "col0": "R. McLean",
        "col1": "1930-7-9",
        "col2": "1930-7-9",
        "col3": "2007-8-26"
    },
    {
        "col0": "R. Marshall",
        "col1": "1930-04-25",
        "col2": "1930-04-25",
        "col3": "1992-10-27"
    },
    {
        "col0": "R. Levy",
        "col1": "1906-04-20",
        "col2": "1906-04-20",
        "col3": "1965-12-12"
    },
    {
        "col0": "R. Kilner",
        "col1": "1890-10-17",
        "col2": "1890-10-17",
        "col3": "1928-04-05"
    },
    {
        "col0": "R. Howard",
        "col1": "1922-11-15",
        "col2": "1922-11-15",
        "col3": "2008-08-06"
    },
    {
        "col0": "R. Gilchrist",
        "col1": "1934-06-28",
        "col2": "1934-06-28",
        "col3": "2001-07-18"
    },
    {
        "col0": "R. Genders",
        "col1": "1913-07-21",
        "col2": "1913-07-21",
        "col3": "1985-09-28"
    },
    {
        "col0": "R. Gardner",
        "col1": "1914-01-18",
        "col2": "1914-01-18",
        "col3": "2004-04-02"
    },
    {
        "col0": "R. Fredericks",
        "col1": "1942-11-11",
        "col2": "1942-11-11",
        "col3": "2000-09-05"
    },
    {
        "col0": "R. Davies",
        "col1": "1928-08-12",
        "col2": "1928-08-12",
        "col3": "2013-07-14"
    },
    {
        "col0": "R. Collins",
        "col1": "1934-03-10",
        "col2": "1934-03-10",
        "col3": "2009-11-05"
    },
    {
        "col0": "R. Cochrane",
        "col1": "1892-02-13",
        "col2": "1892-02-13",
        "col3": "1968-12-05"
    },
    {
        "col0": "R. Brain",
        "col1": "1926-09-02",
        "col2": "1926-09-02",
        "col3": "2006-06-07"
    },
    {
        "col0": "R. Blair",
        "col1": "1921-6-13",
        "col2": "1921-6-13",
        "col3": "2002-5-31"
    },
    {
        "col0": "R. Barratt",
        "col1": "1942-5-3",
        "col2": "1942-5-3",
        "col3": "1995-1-19"
    },
    {
        "col0": "R. Powell-Williams",
        "col1": "1872-1-8",
        "col2": "1872-1-8",
        "col3": "1951-12-16"
    },
    {
        "col0": "R. Musson",
        "col1": "1912-02-07",
        "col2": "1912-02-07",
        "col3": "1943-08-24"
    },
    {
        "col0": "R. Hill",
        "col1": "1851-9-5",
        "col2": "1851-9-5",
        "col3": "1912-8-29"
    },
    {
        "col0": "R. Bailey",
        "col1": "1876-10-05",
        "col2": "1876-10-05",
        "col3": "1950-03-24"
    },
    {
        "col0": "R. R. Kerr",
        "col1": "1891-4-13",
        "col2": "1891-4-13",
        "col3": "1961-4-7"
    },
    {
        "col0": "R. Barbour",
        "col1": "1922-7-10",
        "col2": "1922-7-10",
        "col3": "2004-5-19"
    },
    {
        "col0": "R. Stanford",
        "col1": "1917-09-25",
        "col2": "1917-09-25",
        "col3": "2006-07-11"
    },
    {
        "col0": "R. Gregory",
        "col1": "1916-02-27",
        "col2": "1916-02-27",
        "col3": "1942-06-10"
    },
    {
        "col0": "R. Dufty",
        "col1": "1927-08-13",
        "col2": "1927-08-13",
        "col3": "2009-08-04"
    },
    {
        "col0": "R. Miller",
        "col1": "1941-1-6",
        "col2": "1941-1-6",
        "col3": "1996-5-7"
    },
    {
        "col0": "R. Grieveson",
        "col1": "1909-8-24",
        "col2": "1909-8-24",
        "col3": "1998-7-24"
    },
    {
        "col0": "R. Burnet",
        "col1": "1918-10-11",
        "col2": "1918-10-11",
        "col3": "1999-03-06"
    },
    {
        "col0": "R. Aird",
        "col1": "1902-05-04",
        "col2": "1902-05-04",
        "col3": "1986-08-16"
    },
    {
        "col0": "R. Yeldham",
        "col1": "1902-08-18",
        "col2": "1902-08-18",
        "col3": "1983-08-14"
    },
    {
        "col0": "R. Wright",
        "col1": "1903-03-13",
        "col2": "1903-03-13",
        "col3": "1992-07-03"
    },
    {
        "col0": "R. Wood",
        "col1": "1929-6-3",
        "col2": "1929-6-3",
        "col3": "1990-5-22"
    },
    {
        "col0": "R. Walker",
        "col1": "1926-01-01",
        "col2": "1926-01-01",
        "col3": "2011-02-09"
    },
    {
        "col0": "R. Turner",
        "col1": "1885-06-19",
        "col2": "1885-06-19",
        "col3": "1915-08-15"
    },
    {
        "col0": "R. Thresher",
        "col1": "1930-12-31",
        "col2": "1930-12-31",
        "col3": "2013-05-02"
    },
    {
        "col0": "R. Thomas",
        "col1": "1915-09-21",
        "col2": "1915-09-21",
        "col3": "1987-05-28"
    },
    {
        "col0": "R. Smith",
        "col1": "1926-02-16",
        "col2": "1926-02-16",
        "col3": "2001-03-03"
    },
    {
        "col0": "R. Siwani",
        "col1": "1980-09-16",
        "col2": "1980-09-16",
        "col3": "2013-08-03"
    },
    {
        "col0": "R. Rutter",
        "col1": "1910-07-13",
        "col2": "1910-07-13",
        "col3": "1974-08-08"
    },
    {
        "col0": "R. Richardson",
        "col1": "1927-11-10",
        "col2": "1927-11-10",
        "col3": "1988-11-17"
    },
    {
        "col0": "R. Pryor",
        "col1": "1901-04-23",
        "col2": "1901-04-23",
        "col3": "1977-12-24"
    },
    {
        "col0": "R. Powell",
        "col1": "1883-09-27",
        "col2": "1883-09-27",
        "col3": "1922-08-22"
    },
    {
        "col0": "R. MacNab",
        "col1": "1902-05-06",
        "col2": "1902-05-06",
        "col3": "1962-04-12"
    },
    {
        "col0": "R. Lake",
        "col1": "1891-5-9",
        "col2": "1891-5-9",
        "col3": "1950-7-28"
    },
    {
        "col0": "R. Lagden",
        "col1": "1889-11-21",
        "col2": "1889-11-21",
        "col3": "1915-03-01"
    },
    {
        "col0": "R. Knight",
        "col1": "1913-5-12",
        "col2": "1913-5-12",
        "col3": "1991-1-1"
    },
    {
        "col0": "R. Kissell",
        "col1": "1928-8-9",
        "col2": "1928-8-9",
        "col3": "2015-07-10"
    },
    {
        "col0": "R. Joy",
        "col1": "1898-07-30",
        "col2": "1898-07-30",
        "col3": "1974-12-12"
    },
    {
        "col0": "R. Holyoake",
        "col1": "1894-2-17",
        "col2": "1894-2-17",
        "col3": "1966-11-8"
    },
    {
        "col0": "R. Franklin",
        "col1": "1904-9-9",
        "col2": "1904-9-9",
        "col3": "1982-9-28"
    },
    {
        "col0": "R. Frankish",
        "col1": "1925-10-06",
        "col2": "1925-10-06",
        "col3": "2013-10-17"
    },
    {
        "col0": "R. Edwards",
        "col1": "1917-04-01",
        "col2": "1917-04-01",
        "col3": "2013-02-26"
    },
    {
        "col0": "R. Eckersley",
        "col1": "1925-9-4",
        "col2": "1925-9-4",
        "col3": "2009-5-30"
    },
    {
        "col0": "R. Dutton",
        "col1": "1902-11-24",
        "col2": "1902-11-24",
        "col3": "1999-03-25"
    },
    {
        "col0": "R. Clark",
        "col1": "1895-2-22",
        "col2": "1895-2-22",
        "col3": "1983-2-20"
    },
    {
        "col0": "R. Chisholm",
        "col1": "1927-5-22",
        "col2": "1927-5-22",
        "col3": "2006-11-23"
    }
]