[
    {
        "col0": "Adenine nucleotide translocator",
        "col1": "P05141",
        "col2": "10990",
        "col3": "291"
    },
    {
        "col0": "Acyltransferase like 2",
        "col1": "Q8NF37",
        "col2": "25718",
        "col3": "79888"
    },
    {
        "col0": "Acyl-CoA:lysocardiolipin acyltransferase-1",
        "col1": "Q6UWP7",
        "col2": "26756",
        "col3": "253558"
    },
    {
        "col0": "Activin type 2 receptors",
        "col1": "P27037",
        "col2": "173",
        "col3": "92"
    },
    {
        "col0": "Activin and inhibin",
        "col1": "P05111",
        "col2": "24029",
        "col3": "3623"
    },
    {
        "col0": "Activating protein 2",
        "col1": "P05549",
        "col2": "11742",
        "col3": "339488"
    },
    {
        "col0": "ATP2A2",
        "col1": "P16615",
        "col2": "812",
        "col3": "488"
    },
    {
        "col0": "ATP-sensitive potassium channel",
        "col1": "O60706",
        "col2": "59",
        "col3": "10060"
    },
    {
        "col0": "APOA1BP",
        "col1": "Q8NCW5",
        "col2": "18453",
        "col3": "128240"
    },
    {
        "col0": "APH-1",
        "col1": "Q8WW43",
        "col2": "24080",
        "col3": "51107"
    },
    {
        "col0": "ANKRD35",
        "col1": "Q8N283",
        "col2": "26323",
        "col3": "148741"
    },
    {
        "col0": "ALMS1",
        "col1": "Q8TCU4",
        "col2": "428",
        "col3": "7840"
    },
    {
        "col0": "AHSA2",
        "col1": "Q719I0",
        "col2": "20437",
        "col3": "130872"
    },
    {
        "col0": "ABCE1",
        "col1": "P61221",
        "col2": "69",
        "col3": "6059"
    },
    {
        "col0": "6-phosphogluconolactonase",
        "col1": "O95336",
        "col2": "8903",
        "col3": "25796"
    },
    {
        "col0": "5'-3' exoribonuclease 1",
        "col1": "Q8IZH2",
        "col2": "30654",
        "col3": "54464"
    },
    {
        "col0": "40S ribosomal protein S4, Y isoform 2",
        "col1": "Q8TD47",
        "col2": "18501",
        "col3": "140032"
    },
    {
        "col0": "4-1BB ligand",
        "col1": "P41273",
        "col2": "11939",
        "col3": "8744"
    },
    {
        "col0": "3-Hydroxyacyl ACP dehydrase",
        "col1": "Q08426",
        "col2": "3247",
        "col3": "1962"
    },
    {
        "col0": "2-hydroxyphytanoyl-CoA lyase",
        "col1": "Q9UJ83",
        "col2": "17856",
        "col3": "26061"
    },
    {
        "col0": "2,4 Dienoyl-CoA reductase",
        "col1": "Q16698",
        "col2": "2753",
        "col3": "1666"
    }
]