[
    {
        "col0": "South Naknek Airport",
        "col1": "South Naknek, Alaska",
        "col2": "WSN",
        "col3": "WSN",
        "col4": "690"
    },
    {
        "col0": "South Lewis County Airport",
        "col1": "Lewis County, Washington",
        "col2": "TDO",
        "col3": "TDO",
        "col4": "1365"
    },
    {
        "col0": "South Jersey Regional Airport",
        "col1": "Mount Holly, New Jersey",
        "col2": "VAY",
        "col3": "LLY",
        "col4": "1182"
    },
    {
        "col0": "South Bend International Airport",
        "col1": "South Bend, Indiana",
        "col2": "SBN",
        "col3": "SBN",
        "col4": "1310"
    },
    {
        "col0": "South Arkansas Regional Airport at Goodwin Field",
        "col1": "El Dorado, Arkansas",
        "col2": "ELD",
        "col3": "ELD",
        "col4": "1137"
    },
    {
        "col0": "Sonchon Airport",
        "col1": "North Korea",
        "col2": "N/A",
        "col3": "N/A",
        "col4": "487"
    },
    {
        "col0": "Soldotna Airport",
        "col1": "Soldotna, Alaska",
        "col2": "SXQ",
        "col3": "SXQ",
        "col4": "1524"
    },
    {
        "col0": "Smyrna Airport",
        "col1": "Smyrna, Tennessee",
        "col2": "MQY",
        "col3": "MQY",
        "col4": "1690"
    },
    {
        "col0": "Smith Field",
        "col1": "Fort Wayne, Indiana",
        "col2": "SMD",
        "col3": "SMD",
        "col4": "537"
    },
    {
        "col0": "Smith Field",
        "col1": "Siloam Springs, Arkansas",
        "col2": "SLG",
        "col3": "SLG",
        "col4": "1523"
    },
    {
        "col0": "Sloulin Field International Airport",
        "col1": "Williston, North Dakota",
        "col2": "ISN",
        "col3": "ISN",
        "col4": "1052"
    },
    {
        "col0": "Sleetmute Airport",
        "col1": "Sleetmute, Alaska",
        "col2": "SLQ",
        "col3": "SLQ",
        "col4": "944"
    },
    {
        "col0": "Skypark Airport",
        "col1": "Bountiful, Utah",
        "col2": "BTF",
        "col3": "BTF",
        "col4": "1432"
    },
    {
        "col0": "Skylark Field",
        "col1": "Killeen, Texas",
        "col2": "ILE",
        "col3": "ILE",
        "col4": "1674"
    },
    {
        "col0": "Skwentna Airport",
        "col1": "Skwentna, Alaska",
        "col2": "SKW",
        "col3": "SKW",
        "col4": "1036"
    },
    {
        "col0": "Skagway Airport",
        "col1": "Skagway, Alaska",
        "col2": "SGY",
        "col3": "SGY",
        "col4": "1082"
    },
    {
        "col0": "Sitka Rocky Gutierrez Airport",
        "col1": "Sitka, Alaska",
        "col2": "SIT",
        "col3": "SIT",
        "col4": "2194"
    },
    {
        "col0": "Sioux Gateway Airport",
        "col1": "Sioux City, Iowa",
        "col2": "SUX",
        "col3": "SUX",
        "col4": "2011"
    },
    {
        "col0": "Sioux Falls Regional Airport",
        "col1": "Sioux Falls, South Dakota",
        "col2": "FSD",
        "col3": "FSD",
        "col4": "960"
    },
    {
        "col0": "Sikorsky Memorial Airport",
        "col1": "Bridgeport, Connecticut",
        "col2": "BDR",
        "col3": "BDR",
        "col4": "1425"
    },
    {
        "col0": "Sikeston Memorial Municipal Airport",
        "col1": "Sikeston, Missouri",
        "col2": "SIK",
        "col3": "SIK",
        "col4": "1677"
    },
    {
        "col0": "Sierra Vista Municipal Airport",
        "col1": "Sierra Vista, Arizona",
        "col2": "FHU",
        "col3": "FHU",
        "col4": "1306"
    },
    {
        "col0": "Sierra Blanca Regional Airport",
        "col1": "Ruidoso, New Mexico",
        "col2": "SRR",
        "col3": "RUI",
        "col4": "1981"
    },
    {
        "col0": "Sidney-Richland Municipal Airport",
        "col1": "Sidney, Montana",
        "col2": "SDY",
        "col3": "SDY",
        "col4": "1226"
    },
    {
        "col0": "Sidney Municipal Airport",
        "col1": "Sidney",
        "col2": "N23",
        "col3": "SXY",
        "col4": "1280"
    },
    {
        "col0": "Sidney Municipal Airport",
        "col1": "Sidney, Nebraska",
        "col2": "SNY",
        "col3": "SNY",
        "col4": "1432"
    },
    {
        "col0": "Sidney-Richland Municipal Airport",
        "col1": "Sidney, Montana",
        "col2": "SDY",
        "col3": "SDY",
        "col4": "1226"
    },
    {
        "col0": "Shungnak Airport",
        "col1": "Shungnak, Alaska",
        "col2": "SHG",
        "col3": "SHG",
        "col4": "1219"
    },
    {
        "col0": "Shreveport Regional Airport",
        "col1": "Shreveport, Louisiana",
        "col2": "SHV",
        "col3": "SHV",
        "col4": "1890"
    },
    {
        "col0": "Shreveport Downtown Airport",
        "col1": "Shreveport, Louisiana",
        "col2": "DTN",
        "col3": "DTN",
        "col4": "975"
    },
    {
        "col0": "Show Low Regional Airport",
        "col1": "Show Low, Arizona",
        "col2": "SOW",
        "col3": "SOW",
        "col4": "1200"
    },
    {
        "col0": "Shively Field",
        "col1": "Saratoga, Wyoming",
        "col2": "SAA",
        "col3": "SAA",
        "col4": "2682"
    },
    {
        "col0": "Shishmaref Airport",
        "col1": "Shishmaref, Alaska",
        "col2": "SHH",
        "col3": "SHH",
        "col4": "1524"
    },
    {
        "col0": "Sheridan County Airport",
        "col1": "Sheridan, Wyoming",
        "col2": "SHR",
        "col3": "SHR",
        "col4": "1535"
    },
    {
        "col0": "Sher-Wood Airport",
        "col1": "Plentywood, Montana",
        "col2": "PWD",
        "col3": "PWD",
        "col4": "487"
    },
    {
        "col0": "Shenandoah Valley Regional Airport",
        "col1": "Harrisonburg, Virginia",
        "col2": "SHD",
        "col3": "SHD",
        "col4": "1829"
    },
    {
        "col0": "Shelbyville Municipal Airport",
        "col1": "Shelbyville, Tennessee",
        "col2": "SYI",
        "col3": "SYI",
        "col4": "1677"
    },
    {
        "col0": "Shelby Airport",
        "col1": "Shelby, Montana",
        "col2": "SBX",
        "col3": "SBX",
        "col4": "1128"
    },
    {
        "col0": "Sheboygan County Memorial Airport",
        "col1": "Sheboygan Falls, Wisconsin",
        "col2": "SBM",
        "col3": "SBM",
        "col4": "1524"
    },
    {
        "col0": "Shawnee Regional Airport",
        "col1": "Shawnee, Oklahoma",
        "col2": "SNL",
        "col3": "SNL",
        "col4": "1827"
    },
    {
        "col0": "Sharp County Regional Airport",
        "col1": "Ash Flat, Arkansas",
        "col2": "CVK",
        "col3": "CKK",
        "col4": "1571"
    },
    {
        "col0": "Shaktoolik Airport",
        "col1": "Shaktoolik, Alaska",
        "col2": "2C7",
        "col3": "SKK",
        "col4": "1219"
    },
    {
        "col0": "Shageluk Airport",
        "col1": "Shageluk, Alaska",
        "col2": "SHX",
        "col3": "SHX",
        "col4": "1036"
    },
    {
        "col0": "Shafter Airport",
        "col1": "Shafter, California",
        "col2": "MIT",
        "col3": "MIT",
        "col4": "905"
    },
    {
        "col0": "Seward Airport",
        "col1": "Seward, Alaska",
        "col2": "SWD",
        "col3": "SWD",
        "col4": "694"
    },
    {
        "col0": "Sequim Valley Airport",
        "col1": "Sequim, Washington",
        "col2": "W28",
        "col3": "SQV",
        "col4": "1066"
    },
    {
        "col0": "Selawik Airport",
        "col1": "Selawik, Alaska",
        "col2": "WLK",
        "col3": "WLK",
        "col4": "810"
    },
    {
        "col0": "Sedalia Regional Airport",
        "col1": "Sedalia, Missouri",
        "col2": "DMO",
        "col3": "DMO",
        "col4": "1072"
    },
    {
        "col0": "Sebring Regional Airport",
        "col1": "Sebring, Florida",
        "col2": "SEF",
        "col3": "SEF",
        "col4": "1520"
    }
]