[
    {
        "col0": "Black Minnaloushe",
        "col1": "Storm Bird",
        "col2": "Storm Cat",
        "col3": "Green Dancer",
        "col4": "1998-02-05"
    },
    {
        "col0": "Black Caviar",
        "col1": "Royal Academy",
        "col2": "Bel Esprit",
        "col3": "Desert Sun",
        "col4": "2006-08-18"
    },
    {
        "col0": "Bireme",
        "col1": "Great Nephew",
        "col2": "Grundy",
        "col3": "Ribot",
        "col4": "1977-05-02"
    },
    {
        "col0": "Bint Pasha",
        "col1": "Exclusive Native",
        "col2": "Affirmed",
        "col3": "Graustark",
        "col4": "1984-03-07"
    },
    {
        "col0": "Bint Allayl",
        "col1": "Danzig",
        "col2": "Green Desert",
        "col3": "Mr. Prospector",
        "col4": "1996-01-19"
    },
    {
        "col0": "Bering",
        "col1": "Sea Bird",
        "col2": "Arctic Tern",
        "col3": "Lyphard",
        "col4": "1983-03-20"
    },
    {
        "col0": "Belardo",
        "col1": "Shamardal",
        "col2": "Lope de Vega",
        "col3": "Danehill",
        "col4": "2012-04-02"
    },
    {
        "col0": "Bel Bolide",
        "col1": "Bold Ruler",
        "col2": "Bold Bidder",
        "col3": "Graustark",
        "col4": "1978-02-05"
    },
    {
        "col0": "Be My Chief",
        "col1": "Danzig",
        "col2": "Chief's Crown",
        "col3": "Sir Ivor",
        "col4": "1987-05-07"
    },
    {
        "col0": "Bayern",
        "col1": "Wild Again",
        "col2": "Offlee Wild",
        "col3": "Thunder Gulch",
        "col4": "2011-05-03"
    },
    {
        "col0": "Bassenthwaite",
        "col1": "Sir Gaylord",
        "col2": "Habitat",
        "col3": "Petingo",
        "col4": "1982-05-21"
    },
    {
        "col0": "Barathea",
        "col1": "Northern Dancer",
        "col2": "Sadler's Wells",
        "col3": "Habitat",
        "col4": "1990-03-02"
    },
    {
        "col0": "Ballydoyle",
        "col1": "Nearctic",
        "col2": "Northern Dancer",
        "col3": "New Providence",
        "col4": "1980-03-23"
    },
    {
        "col0": "Balisada",
        "col1": "Sharpen Up",
        "col2": "Kris",
        "col3": "Lomond",
        "col4": "1996-02-10"
    },
    {
        "col0": "Baldric",
        "col1": "Princequillo",
        "col2": "Round Table",
        "col3": "Johnstown",
        "col4": "1961-05-16"
    },
    {
        "col0": "Awtaad",
        "col1": "Green Desert",
        "col2": "Cape Cross",
        "col3": "Shamardal",
        "col4": "2013-02-01"
    },
    {
        "col0": "Avenir Certain",
        "col1": "Noverre",
        "col2": "Le Havre",
        "col3": "Mark of Esteem",
        "col4": "2011-04-30"
    },
    {
        "col0": "Australia",
        "col1": "Sadler's Wells",
        "col2": "Galileo",
        "col3": "Cape Cross",
        "col4": "2011-04-08"
    },
    {
        "col0": "Assert",
        "col1": "Northern Dancer",
        "col2": "Be My Guest",
        "col3": "Sea Bird II",
        "col4": "1979-04-17"
    },
    {
        "col0": "Ask",
        "col1": "Northern Dancer",
        "col2": "Sadler's Wells",
        "col3": "Rainbow Quest",
        "col4": "2003-03-23"
    },
    {
        "col0": "Artaius",
        "col1": "Princequillo",
        "col2": "Round Table",
        "col3": "My Babu",
        "col4": "1974-02-26"
    },
    {
        "col0": "Arrogate",
        "col1": "Unbridled",
        "col2": "Unbridled's Song",
        "col3": "Distorted Humor",
        "col4": "2013-04-11"
    },
    {
        "col0": "Armiger",
        "col1": "Blushing Groom",
        "col2": "Rainbow Quest",
        "col3": "Northern Dancer",
        "col4": "1990-02-15"
    },
    {
        "col0": "Aristotle",
        "col1": "Northern Dancer",
        "col2": "Sadler's Wells",
        "col3": "Desert Wine",
        "col4": "1997-02-18"
    },
    {
        "col0": "Ardross",
        "col1": "Tom Rolfe",
        "col2": "Run the Gantlet",
        "col3": "Levmoss",
        "col4": "1976-05-27"
    },
    {
        "col0": "Arabian Queen",
        "col1": "Dubai Millennium",
        "col2": "Dubawi",
        "col3": "Barathea",
        "col4": "2012-02-23"
    },
    {
        "col0": "Aqaarid",
        "col1": "Blushing Groom",
        "col2": "Nashwan",
        "col3": "Lomond",
        "col4": "1992-01-14"
    },
    {
        "col0": "Annie Power",
        "col1": "Monsun",
        "col2": "Shirocco",
        "col3": "Old Vic",
        "col4": "2008-03-20"
    },
    {
        "col0": "Anabaa Blue",
        "col1": "Danzig",
        "col2": "Anabaa",
        "col3": "Riverman",
        "col4": "1998-04-12"
    },
    {
        "col0": "Among Men",
        "col1": "Nureyev",
        "col2": "Zilzal",
        "col3": "Key to the Mint",
        "col4": "1994-03-07"
    },
    {
        "col0": "American Post",
        "col1": "Arctic Tern",
        "col2": "Bering",
        "col3": "Sadler's Wells",
        "col4": "2001-02-03"
    },
    {
        "col0": "Almutawakel",
        "col1": "Mr. Prospector",
        "col2": "Machiavellian",
        "col3": "Green Desert",
        "col4": "1995-01-19"
    },
    {
        "col0": "Alleged",
        "col1": "Tom Rolfe",
        "col2": "Hoist The Flag",
        "col3": "Prince John",
        "col4": "1974-05-04"
    },
    {
        "col0": "All the Good",
        "col1": "Sharpen Up",
        "col2": "Diesis",
        "col3": "Manila",
        "col4": "2003-04-24"
    },
    {
        "col0": "Alkaased",
        "col1": "Mr Prospector",
        "col2": "Kingmambo",
        "col3": "Niniski",
        "col4": "2000-02-19"
    },
    {
        "col0": "Ali-Royal",
        "col1": "Nijinsky",
        "col2": "Royal Academy",
        "col3": "Chief Singer",
        "col4": "1993-02-09"
    },
    {
        "col0": "Alhaarth",
        "col1": "Northern Dancer",
        "col2": "Unfuwain",
        "col3": "Irish River",
        "col4": "1993-03-07"
    },
    {
        "col0": "Alderbrook",
        "col1": "Run the Gantlet",
        "col2": "Ardross",
        "col3": "Thatching",
        "col4": "1989-04-27"
    },
    {
        "col0": "Al Kazeem",
        "col1": "Dubai Millennium",
        "col2": "Dubawi",
        "col3": "Darshaan",
        "col4": "2008-04-15"
    },
    {
        "col0": "Al Bahathri",
        "col1": "Red God",
        "col2": "Blushing Groom",
        "col3": "Nodouble",
        "col4": "1982-03-15"
    },
    {
        "col0": "Ajdal",
        "col1": "Nearctic",
        "col2": "Northern Dancer",
        "col3": "Raise A Native",
        "col4": "1984-04-02"
    },
    {
        "col0": "Air Force Blue",
        "col1": "Danzig",
        "col2": "War Front",
        "col3": "Maria's Mon",
        "col4": "2013-05-02"
    }
]