[
    {
        "col0": "Vertebral artery",
        "col1": "Subclavian artery",
        "col2": "Vertebral vein",
        "col3": "Anterior spinal artery",
        "col4": "578"
    },
    {
        "col0": "Umbilical artery",
        "col1": "Internal iliac artery",
        "col2": "Umbilical vein",
        "col3": "Superior vesical artery",
        "col4": "540"
    },
    {
        "col0": "Ulnar artery",
        "col1": "Brachial artery",
        "col2": "Ulnar vein",
        "col3": "Anterior ulnar recurrent artery",
        "col4": "595"
    },
    {
        "col0": "Transverse cervical artery",
        "col1": "Thyrocervical trunk",
        "col2": "Transverse cervical veins",
        "col3": "Superficial branch of transverse cervical artery",
        "col4": "82"
    },
    {
        "col0": "Trabecular arteries",
        "col1": "Splenic artery",
        "col2": "Trabecular veins",
        "col3": "Sinusoids",
        "col4": "1285"
    },
    {
        "col0": "Superior thyroid artery",
        "col1": "External carotid artery",
        "col2": "Superior thyroid vein",
        "col3": "Superior laryngeal artery",
        "col4": "552"
    },
    {
        "col0": "Superior mesenteric artery",
        "col1": "Abdominal aorta",
        "col2": "Superior mesenteric vein",
        "col3": "Inferior pancreaticoduodenal artery",
        "col4": "606"
    },
    {
        "col0": "Superficial temporal artery",
        "col1": "External carotid artery",
        "col2": "Superficial temporal vein",
        "col3": "Transverse facial artery",
        "col4": "559"
    },
    {
        "col0": "Superficial palmar arch",
        "col1": "Ulnar artery",
        "col2": "Superficial palmar venous arch",
        "col3": "Common palmar digital arteries",
        "col4": "598"
    },
    {
        "col0": "Subclavian artery",
        "col1": "Aortic arch",
        "col2": "Subclavian vein",
        "col3": "Vertebral artery",
        "col4": "575"
    },
    {
        "col0": "Splenic artery",
        "col1": "Celiac artery",
        "col2": "Splenic vein",
        "col3": "Left gastro-omental artery",
        "col4": "605"
    },
    {
        "col0": "Renal artery",
        "col1": "Abdominal aorta",
        "col2": "Renal vein",
        "col3": "Inferior suprarenal artery",
        "col4": "610"
    },
    {
        "col0": "Radial artery",
        "col1": "Brachial artery",
        "col2": "Radial vein",
        "col3": "Forearm",
        "col4": "592"
    },
    {
        "col0": "Posterior tibial artery",
        "col1": "Popliteal artery",
        "col2": "Posterior tibial vein",
        "col3": "Lateral plantar artery",
        "col4": "637"
    },
    {
        "col0": "Popliteal artery",
        "col1": "Femoral artery",
        "col2": "Popliteal vein",
        "col3": "Posterior tibial artery",
        "col4": "632"
    },
    {
        "col0": "Plantar arch",
        "col1": "Lateral plantar artery",
        "col2": "Plantar venous arch",
        "col3": "Plantar metatarsal arteries",
        "col4": "639"
    },
    {
        "col0": "Ovarian artery",
        "col1": "Abdominal aorta",
        "col2": "Ovarian vein",
        "col3": "Tubal branches of ovarian artery",
        "col4": "603"
    },
    {
        "col0": "Ophthalmic artery",
        "col1": "Internal carotid artery",
        "col2": "Inferior ophthalmic vein",
        "col3": "Lacrimal artery",
        "col4": "568"
    },
    {
        "col0": "Obturator artery",
        "col1": "Internal iliac artery",
        "col2": "Obturator veins",
        "col3": "Anterior branch of the obturator artery",
        "col4": "616"
    },
    {
        "col0": "Middle meningeal artery",
        "col1": "Internal maxillary artery",
        "col2": "Middle meningeal vein",
        "col3": "Superior tympanic artery",
        "col4": "560"
    },
    {
        "col0": "Maxillary artery",
        "col1": "External carotid artery",
        "col2": "Maxillary veins",
        "col3": "Posterior superior alveolar artery",
        "col4": "559"
    },
    {
        "col0": "Lingual artery",
        "col1": "External carotid artery",
        "col2": "Lingual vein",
        "col3": "Deep lingual artery",
        "col4": "553"
    },
    {
        "col0": "Internal thoracic artery",
        "col1": "Subclavian artery",
        "col2": "Internal thoracic vein",
        "col3": "Superior epigastric artery",
        "col4": "583"
    },
    {
        "col0": "Internal iliac artery",
        "col1": "Common iliac artery",
        "col2": "Internal iliac vein",
        "col3": "Uterine artery",
        "col4": "614"
    },
    {
        "col0": "Internal carotid artery",
        "col1": "Common carotid artery",
        "col2": "Internal jugular vein",
        "col3": "Middle cerebral artery",
        "col4": "566"
    },
    {
        "col0": "Interlobular arteries",
        "col1": "Arcuate arteries of the kidney",
        "col2": "Interlobular veins",
        "col3": "Afferent arterioles",
        "col4": "1224"
    },
    {
        "col0": "Inferior phrenic arteries",
        "col1": "Abdominal aorta",
        "col2": "Inferior phrenic vein",
        "col3": "Superior suprarenal artery",
        "col4": "612"
    },
    {
        "col0": "Inferior mesenteric artery",
        "col1": "Abdominal aorta",
        "col2": "Inferior mesenteric vein",
        "col3": "Sigmoid arteries",
        "col4": "609"
    },
    {
        "col0": "Inferior gluteal artery",
        "col1": "Internal iliac artery",
        "col2": "Inferior gluteal veins",
        "col3": "Accompanying artery of ischiadic nerve",
        "col4": "620"
    },
    {
        "col0": "Inferior epigastric artery",
        "col1": "External iliac artery",
        "col2": "Inferior epigastric vein",
        "col3": "Superior epigastric artery",
        "col4": "623"
    },
    {
        "col0": "Ileocolic artery",
        "col1": "Superior mesenteric artery",
        "col2": "Ileocolic vein",
        "col3": "Appendicular artery",
        "col4": "607"
    },
    {
        "col0": "Fibular artery",
        "col1": "Popliteal artery",
        "col2": "Fibular vein",
        "col3": "Posterior tibial artery",
        "col4": "638"
    },
    {
        "col0": "Femoral artery",
        "col1": "External iliac artery",
        "col2": "Femoral vein",
        "col3": "Popliteal artery",
        "col4": "623"
    },
    {
        "col0": "Facial artery",
        "col1": "External carotid artery",
        "col2": "Posterior facial vein",
        "col3": "Angular artery",
        "col4": "553"
    },
    {
        "col0": "External iliac artery",
        "col1": "Common iliac artery",
        "col2": "External iliac vein",
        "col3": "Femoral artery",
        "col4": "622"
    },
    {
        "col0": "Ductus arteriosus",
        "col1": "Pulmonary artery",
        "col2": "Ductus venosus",
        "col3": "Descending aorta",
        "col4": "540"
    },
    {
        "col0": "Dorsal metacarpal arteries",
        "col1": "Dorsal carpal arch",
        "col2": "Dorsal metacarpal veins",
        "col3": "Dorsal digital arteries of hand",
        "col4": "594"
    },
    {
        "col0": "Deep palmar arch",
        "col1": "Radial artery",
        "col2": "Deep palmar venous arch",
        "col3": "Palmar metacarpal arteries",
        "col4": "595"
    }
]