[
    {
        "col0": "Yellow",
        "col1": "255",
        "col2": "100",
        "col3": "100"
    },
    {
        "col0": "Yale Blue",
        "col1": "0",
        "col2": "8",
        "col3": "42"
    },
    {
        "col0": "Wine",
        "col1": "114",
        "col2": "52",
        "col3": "45"
    },
    {
        "col0": "White",
        "col1": "255",
        "col2": "0",
        "col3": "100"
    },
    {
        "col0": "Wheat",
        "col1": "245",
        "col2": "26",
        "col3": "96"
    },
    {
        "col0": "Viridian",
        "col1": "64",
        "col2": "63",
        "col3": "51"
    },
    {
        "col0": "Violet",
        "col1": "127",
        "col2": "0",
        "col3": "100"
    },
    {
        "col0": "Vermilion",
        "col1": "227",
        "col2": "71",
        "col3": "89"
    },
    {
        "col0": "Verdigris",
        "col1": "67",
        "col2": "3",
        "col3": "48"
    },
    {
        "col0": "Venetian red",
        "col1": "200",
        "col2": "97",
        "col3": "84"
    },
    {
        "col0": "Vanilla",
        "col1": "243",
        "col2": "30",
        "col3": "95"
    },
    {
        "col0": "Umber",
        "col1": "99",
        "col2": "28",
        "col3": "39"
    },
    {
        "col0": "Tuscan red",
        "col1": "124",
        "col2": "61",
        "col3": "49"
    },
    {
        "col0": "Turquoise",
        "col1": "64",
        "col2": "7",
        "col3": "88"
    },
    {
        "col0": "Tufts Blue",
        "col1": "62",
        "col2": "0",
        "col3": "87"
    },
    {
        "col0": "Terra cotta",
        "col1": "226",
        "col2": "60",
        "col3": "89"
    },
    {
        "col0": "Teal",
        "col1": "0",
        "col2": "49",
        "col3": "50"
    },
    {
        "col0": "Taupe",
        "col1": "72",
        "col2": "60",
        "col3": "34"
    },
    {
        "col0": "Tan",
        "col1": "210",
        "col2": "33",
        "col3": "82"
    },
    {
        "col0": "Sunset",
        "col1": "250",
        "col2": "34",
        "col3": "98"
    },
    {
        "col0": "Straw",
        "col1": "228",
        "col2": "51",
        "col3": "89"
    },
    {
        "col0": "Steel blue",
        "col1": "70",
        "col2": "0",
        "col3": "71"
    },
    {
        "col0": "Spring green",
        "col1": "0",
        "col2": "50",
        "col3": "100"
    },
    {
        "col0": "Spring bud",
        "col1": "167",
        "col2": "80",
        "col3": "63"
    },
    {
        "col0": "Slate gray",
        "col1": "112",
        "col2": "34",
        "col3": "56"
    },
    {
        "col0": "Sky blue",
        "col1": "135",
        "col2": "0",
        "col3": "92"
    },
    {
        "col0": "Shades of yellow",
        "col1": "255",
        "col2": "100",
        "col3": "100"
    },
    {
        "col0": "Shades of white",
        "col1": "255",
        "col2": "0",
        "col3": "100"
    },
    {
        "col0": "Shades of violet",
        "col1": "143",
        "col2": "0",
        "col3": "100"
    },
    {
        "col0": "Shades of pink",
        "col1": "255",
        "col2": "14",
        "col3": "100"
    },
    {
        "col0": "Shades of orange",
        "col1": "255",
        "col2": "100",
        "col3": "100"
    },
    {
        "col0": "Shades of magenta",
        "col1": "255",
        "col2": "0",
        "col3": "100"
    },
    {
        "col0": "Shades of gray",
        "col1": "128",
        "col2": "0",
        "col3": "50"
    },
    {
        "col0": "Shades of cyan",
        "col1": "0",
        "col2": "0",
        "col3": "100"
    },
    {
        "col0": "Shades of brown",
        "col1": "150",
        "col2": "100",
        "col3": "59"
    },
    {
        "col0": "Shades of blue",
        "col1": "0",
        "col2": "0",
        "col3": "100"
    },
    {
        "col0": "Shades of black",
        "col1": "0",
        "col2": "0",
        "col3": "0"
    },
    {
        "col0": "Sepia",
        "col1": "112",
        "col2": "82",
        "col3": "44"
    },
    {
        "col0": "Seashell",
        "col1": "255",
        "col2": "4",
        "col3": "100"
    },
    {
        "col0": "Seal brown",
        "col1": "89",
        "col2": "93",
        "col3": "20"
    },
    {
        "col0": "School bus yellow",
        "col1": "255",
        "col2": "100",
        "col3": "100"
    },
    {
        "col0": "Scarlet",
        "col1": "255",
        "col2": "100",
        "col3": "100"
    },
    {
        "col0": "Sapphire",
        "col1": "15",
        "col2": "0",
        "col3": "73"
    },
    {
        "col0": "Salmon",
        "col1": "250",
        "col2": "69",
        "col3": "100"
    },
    {
        "col0": "Saffron",
        "col1": "244",
        "col2": "81",
        "col3": "96"
    },
    {
        "col0": "Safety orange",
        "col1": "255",
        "col2": "100",
        "col3": "100"
    },
    {
        "col0": "Rust",
        "col1": "183",
        "col2": "100",
        "col3": "72"
    },
    {
        "col0": "Russet",
        "col1": "128",
        "col2": "79",
        "col3": "50"
    },
    {
        "col0": "Ruby",
        "col1": "224",
        "col2": "57",
        "col3": "88"
    },
    {
        "col0": "Royal blue",
        "col1": "0",
        "col2": "0",
        "col3": "40"
    },
    {
        "col0": "Rose",
        "col1": "255",
        "col2": "50",
        "col3": "100"
    },
    {
        "col0": "Robin egg blue",
        "col1": "0",
        "col2": "27",
        "col3": "80"
    },
    {
        "col0": "Raspberry",
        "col1": "227",
        "col2": "60",
        "col3": "89"
    },
    {
        "col0": "Raisin black",
        "col1": "36",
        "col2": "0",
        "col3": "14"
    },
    {
        "col0": "Purple",
        "col1": "128",
        "col2": "0",
        "col3": "50"
    },
    {
        "col0": "Puce",
        "col1": "114",
        "col2": "52",
        "col3": "45"
    },
    {
        "col0": "Powder blue",
        "col1": "176",
        "col2": "0",
        "col3": "90"
    },
    {
        "col0": "Plum",
        "col1": "142",
        "col2": "6",
        "col3": "557"
    },
    {
        "col0": "Pink",
        "col1": "255",
        "col2": "14",
        "col3": "100"
    },
    {
        "col0": "Persian green",
        "col1": "0",
        "col2": "22",
        "col3": "60"
    },
    {
        "col0": "Persian blue",
        "col1": "28",
        "col2": "21",
        "col3": "49"
    },
    {
        "col0": "Periwinkle",
        "col1": "204",
        "col2": "0",
        "col3": "100"
    },
    {
        "col0": "Peach",
        "col1": "255",
        "col2": "29",
        "col3": "100"
    },
    {
        "col0": "Oxford Blue",
        "col1": "0",
        "col2": "0",
        "col3": "28"
    },
    {
        "col0": "Orchid",
        "col1": "218",
        "col2": "2",
        "col3": "86"
    },
    {
        "col0": "Orange",
        "col1": "255",
        "col2": "100",
        "col3": "100"
    },
    {
        "col0": "Olive",
        "col1": "128",
        "col2": "100",
        "col3": "50"
    },
    {
        "col0": "Old gold",
        "col1": "207",
        "col2": "71",
        "col3": "81"
    },
    {
        "col0": "Ochre",
        "col1": "204",
        "col2": "83",
        "col3": "80"
    },
    {
        "col0": "Navy blue",
        "col1": "0",
        "col2": "14",
        "col3": "50"
    },
    {
        "col0": "Navajo white",
        "col1": "255",
        "col2": "32",
        "col3": "100"
    },
    {
        "col0": "Naples yellow",
        "col1": "250",
        "col2": "62",
        "col3": "98"
    },
    {
        "col0": "NIVO",
        "col1": "65",
        "col2": "15",
        "col3": "30"
    },
    {
        "col0": "Mustard",
        "col1": "255",
        "col2": "77",
        "col3": "100"
    },
    {
        "col0": "Mulberry",
        "col1": "197",
        "col2": "0",
        "col3": "70"
    },
    {
        "col0": "Mikado yellow",
        "col1": "255",
        "col2": "95",
        "col3": "100"
    },
    {
        "col0": "Midnight green",
        "col1": "0",
        "col2": "26",
        "col3": "33"
    },
    {
        "col0": "Midnight blue",
        "col1": "25",
        "col2": "39",
        "col3": "44"
    },
    {
        "col0": "Mauve",
        "col1": "224",
        "col2": "0",
        "col3": "100"
    },
    {
        "col0": "Marigold",
        "col1": "234",
        "col2": "86",
        "col3": "91"
    },
    {
        "col0": "Marian blue",
        "col1": "225",
        "col2": "0",
        "col3": "91"
    },
    {
        "col0": "Marengo",
        "col1": "76",
        "col2": "0",
        "col3": "40"
    },
    {
        "col0": "Maize",
        "col1": "251",
        "col2": "63",
        "col3": "98"
    },
    {
        "col0": "Mahogany",
        "col1": "192",
        "col2": "100",
        "col3": "75"
    },
    {
        "col0": "Magenta",
        "col1": "255",
        "col2": "0",
        "col3": "100"
    },
    {
        "col0": "Liver",
        "col1": "103",
        "col2": "31",
        "col3": "40"
    },
    {
        "col0": "Lion",
        "col1": "193",
        "col2": "20",
        "col3": "76"
    },
    {
        "col0": "Lime",
        "col1": "191",
        "col2": "100",
        "col3": "100"
    },
    {
        "col0": "Lilac",
        "col1": "200",
        "col2": "0",
        "col3": "78"
    },
    {
        "col0": "Lavender",
        "col1": "230",
        "col2": "0",
        "col3": "98"
    },
    {
        "col0": "Lava",
        "col1": "72",
        "col2": "31",
        "col3": "28"
    },
    {
        "col0": "Kobicha",
        "col1": "107",
        "col2": "67",
        "col3": "42"
    },
    {
        "col0": "Jonquil",
        "col1": "244",
        "col2": "91",
        "col3": "96"
    },
    {
        "col0": "Jasmine",
        "col1": "248",
        "col2": "49",
        "col3": "97"
    },
    {
        "col0": "Ivory",
        "col1": "255",
        "col2": "6",
        "col3": "100"
    },
    {
        "col0": "Indigo",
        "col1": "75",
        "col2": "0",
        "col3": "51"
    },
    {
        "col0": "Indian red",
        "col1": "205",
        "col2": "52",
        "col3": "75"
    },
    {
        "col0": "Heliotrope",
        "col1": "223",
        "col2": "0",
        "col3": "100"
    },
    {
        "col0": "Grey",
        "col1": "128",
        "col2": "0",
        "col3": "50"
    },
    {
        "col0": "Goldenrod",
        "col1": "218",
        "col2": "85",
        "col3": "85"
    },
    {
        "col0": "Gold",
        "col1": "255",
        "col2": "100",
        "col3": "100"
    },
    {
        "col0": "Glaucous",
        "col1": "96",
        "col2": "0",
        "col3": "71"
    },
    {
        "col0": "Fulvous",
        "col1": "228",
        "col2": "100",
        "col3": "89"
    },
    {
        "col0": "Forest green",
        "col1": "34",
        "col2": "100",
        "col3": "55"
    },
    {
        "col0": "Flax",
        "col1": "238",
        "col2": "60",
        "col3": "93"
    },
    {
        "col0": "Fire engine red",
        "col1": "206",
        "col2": "80",
        "col3": "81"
    },
    {
        "col0": "Federal Standard 595 camouflage colours",
        "col1": "146",
        "col2": "40",
        "col3": "62"
    },
    {
        "col0": "Fallow",
        "col1": "193",
        "col2": "33",
        "col3": "76"
    },
    {
        "col0": "Electric green",
        "col1": "0",
        "col2": "100",
        "col3": "100"
    },
    {
        "col0": "Electric blue",
        "col1": "125",
        "col2": "0",
        "col3": "100"
    },
    {
        "col0": "Eggshell",
        "col1": "240",
        "col2": "11",
        "col3": "94"
    },
    {
        "col0": "Duke blue",
        "col1": "0",
        "col2": "6",
        "col3": "34"
    },
    {
        "col0": "Desert sand",
        "col1": "237",
        "col2": "26",
        "col3": "93"
    },
    {
        "col0": "Dark purple",
        "col1": "48",
        "col2": "0",
        "col3": "20"
    },
    {
        "col0": "Cyclamen",
        "col1": "245",
        "col2": "34",
        "col3": "96"
    },
    {
        "col0": "Cyan",
        "col1": "0",
        "col2": "0",
        "col3": "100"
    },
    {
        "col0": "Crimson",
        "col1": "220",
        "col2": "100",
        "col3": "86"
    },
    {
        "col0": "Cream",
        "col1": "255",
        "col2": "18",
        "col3": "100"
    },
    {
        "col0": "Coyote brown",
        "col1": "129",
        "col2": "52",
        "col3": "51"
    },
    {
        "col0": "Cornflower blue",
        "col1": "100",
        "col2": "0",
        "col3": "93"
    },
    {
        "col0": "Cordovan",
        "col1": "137",
        "col2": "50",
        "col3": "54"
    },
    {
        "col0": "Coral",
        "col1": "255",
        "col2": "69",
        "col3": "100"
    },
    {
        "col0": "Coquelicot",
        "col1": "255",
        "col2": "100",
        "col3": "100"
    },
    {
        "col0": "Copper",
        "col1": "184",
        "col2": "72",
        "col3": "72"
    },
    {
        "col0": "Columbia blue",
        "col1": "196",
        "col2": "0",
        "col3": "89"
    },
    {
        "col0": "Coffee",
        "col1": "111",
        "col2": "51",
        "col3": "44"
    },
    {
        "col0": "Citron",
        "col1": "158",
        "col2": "82",
        "col3": "66"
    },
    {
        "col0": "Citrine",
        "col1": "228",
        "col2": "96",
        "col3": "89"
    },
    {
        "col0": "Cinereous",
        "col1": "152",
        "col2": "19",
        "col3": "60"
    },
    {
        "col0": "Chocolate",
        "col1": "123",
        "col2": "86",
        "col3": "48"
    },
    {
        "col0": "Chestnut",
        "col1": "149",
        "col2": "64",
        "col3": "58"
    },
    {
        "col0": "Chartreuse",
        "col1": "127",
        "col2": "100",
        "col3": "100"
    },
    {
        "col0": "Champagne",
        "col1": "247",
        "col2": "17",
        "col3": "97"
    },
    {
        "col0": "Cerulean",
        "col1": "0",
        "col2": "0",
        "col3": "65"
    },
    {
        "col0": "Cerise",
        "col1": "222",
        "col2": "46",
        "col3": "87"
    },
    {
        "col0": "Carmine",
        "col1": "150",
        "col2": "42",
        "col3": "59"
    },
    {
        "col0": "Cardinal",
        "col1": "196",
        "col2": "70",
        "col3": "77"
    },
    {
        "col0": "Capri",
        "col1": "0",
        "col2": "0",
        "col3": "100"
    },
    {
        "col0": "Candy apple red",
        "col1": "255",
        "col2": "100",
        "col3": "100"
    },
    {
        "col0": "Camel",
        "col1": "193",
        "col2": "45",
        "col3": "76"
    },
    {
        "col0": "Cadet grey",
        "col1": "145",
        "col2": "24",
        "col3": "69"
    },
    {
        "col0": "Byzantium",
        "col1": "112",
        "col2": "12",
        "col3": "44"
    },
    {
        "col0": "Buff",
        "col1": "240",
        "col2": "46",
        "col3": "94"
    },
    {
        "col0": "Brown",
        "col1": "150",
        "col2": "100",
        "col3": "59"
    },
    {
        "col0": "Bronze",
        "col1": "205",
        "col2": "86",
        "col3": "80"
    },
    {
        "col0": "British racing green",
        "col1": "1",
        "col2": "44",
        "col3": "26"
    },
    {
        "col0": "Bole",
        "col1": "121",
        "col2": "51",
        "col3": "47"
    },
    {
        "col0": "Blue-green",
        "col1": "13",
        "col2": "0",
        "col3": "72"
    }
]