[
    {
        "col0": "T. Clayton",
        "col1": "1984-04-26",
        "col2": "186",
        "col3": "1984-04-26"
    },
    {
        "col0": "T. Brown",
        "col1": "1957-07-08",
        "col2": "302",
        "col3": "1957-07-08"
    },
    {
        "col0": "T. Brown",
        "col1": "1957-4-20",
        "col2": "35",
        "col3": "1957-4-20"
    },
    {
        "col0": "T. Young",
        "col1": "1965-04-25",
        "col2": "317",
        "col3": "1965-04-25"
    },
    {
        "col0": "T. Riddick",
        "col1": "1991-05-04",
        "col2": "199",
        "col3": "1991-05-04"
    },
    {
        "col0": "T. Doyle",
        "col1": "1914-01-12",
        "col2": "68",
        "col3": "1914-01-12"
    },
    {
        "col0": "T. Bell",
        "col1": "1953-12-21",
        "col2": "120",
        "col3": "1953-12-21"
    },
    {
        "col0": "T. Simon",
        "col1": "1991-03-06",
        "col2": "138",
        "col3": "1991-03-06"
    },
    {
        "col0": "T. Gash",
        "col1": "1965-09-01",
        "col2": "188",
        "col3": "1965-09-01"
    },
    {
        "col0": "T. Merrill",
        "col1": "1977-12-12",
        "col2": "223",
        "col3": "1977-12-12"
    },
    {
        "col0": "T. Gibson",
        "col1": "1987-10-21",
        "col2": "116",
        "col3": "1987-10-21"
    },
    {
        "col0": "T. Johnson",
        "col1": "1981-11-29",
        "col2": "63",
        "col3": "1981-11-29"
    },
    {
        "col0": "T. Warrington",
        "col1": "1921-03-21",
        "col2": "87",
        "col3": "1921-03-21"
    },
    {
        "col0": "T. Reese",
        "col1": "1991-01-02",
        "col2": "240",
        "col3": "1991-01-02"
    },
    {
        "col0": "T. Mitchel",
        "col1": "1992-08-03",
        "col2": "182",
        "col3": "1992-08-03"
    }
]