[
    {
        "col0": "R. Drummond",
        "col1": "Princeton, New Jersey",
        "col2": "1902-01-13",
        "col3": "1983",
        "col4": "1983-09-30",
        "col5": "James Roscoe Drummond"
    },
    {
        "col0": "R. Reguly",
        "col1": "Ontario",
        "col2": "1931-01-19",
        "col3": "2011",
        "col4": "2011-02-24",
        "col5": "Robert Joseph Reguly"
    },
    {
        "col0": "Q. Crewe",
        "col1": "Oxfordshire",
        "col2": "1926-11-14",
        "col3": "1998",
        "col4": "1998-11-14",
        "col5": "Quentin Hugh Dodds"
    },
    {
        "col0": "J. Nichols",
        "col1": "New York City",
        "col2": "1905-07-16",
        "col3": "1984",
        "col4": "1984-12-23",
        "col5": "Giuseppe Fappiano"
    },
    {
        "col0": "J. Donaldson",
        "col1": "Canada",
        "col2": "1946-04-23",
        "col3": "2006",
        "col4": "2006-09-07",
        "col5": "Joan Marsha Donaldson"
    },
    {
        "col0": "J. Perry",
        "col1": "Brighton",
        "col2": "1756-10-30",
        "col3": "1821",
        "col4": "1821-12-04",
        "col5": "John Pirie"
    },
    {
        "col0": "D. Goad",
        "col1": "United States",
        "col2": "1954-02-13",
        "col3": "2000",
        "col4": "2000-07-20",
        "col5": "Debra Susan Rosalie"
    },
    {
        "col0": "D. L. Child",
        "col1": "Massachusetts",
        "col2": "1794-07-08",
        "col3": "1874",
        "col4": "1874-09-18",
        "col5": "David Lee Child"
    },
    {
        "col0": "B. Garvey",
        "col1": "Canada",
        "col2": "1939-10-17",
        "col3": "2010",
        "col4": "2010-08-01",
        "col5": "Bruce Noble Garvey"
    },
    {
        "col0": "A. Christiansen",
        "col1": "Norwich",
        "col2": "1904-07-27",
        "col3": "1963",
        "col4": "1963-09-27",
        "col5": "Arthur Robin Christiansen"
    },
    {
        "col0": "A. H. Weiler",
        "col1": "New York",
        "col2": "1908-12-10",
        "col3": "2002",
        "col4": "2002-0-0",
        "col5": "Abe H. Weiler"
    }
]