[
    {
        "col0": "A Chorus of Frogs",
        "col1": "Six Hands Across a Table",
        "col2": "L. Johnson",
        "col3": "R. Menmuir"
    },
    {
        "col0": "A Change Is Gonna Come",
        "col1": "Love/Addiction",
        "col2": "M. Kearney",
        "col3": "M. Grossman"
    },
    {
        "col0": "201",
        "col1": "Crippled Summer",
        "col2": "T. Zombies",
        "col3": "T. Parker"
    },
    {
        "col0": "2009",
        "col1": "Dreams Come True",
        "col2": "D. S. Believin'",
        "col3": "P. Barclay"
    },
    {
        "col0": "18 Miles Out",
        "col1": "Judge, Jury, Executioner",
        "col2": "W. Oak",
        "col3": "E. Dickerson"
    },
    {
        "col0": "11001001",
        "col1": "Too Short a Season",
        "col2": "R. Jones",
        "col3": "P. Lynch"
    },
    {
        "col0": "100",
        "col1": "New Directions",
        "col2": "Toxic",
        "col3": "P. Barclay"
    },
    {
        "col0": "...Nor the Battle to the Strong",
        "col1": "The Assignment",
        "col2": "D. McCarthy",
        "col3": "K. Friedman"
    },
    {
        "col0": "...In Translation",
        "col1": "Numbers",
        "col2": "D. Rice",
        "col3": "T. Gates"
    },
    {
        "col0": "\"Good Luck, Father Ted\"",
        "col1": "Entertaining Father Stone",
        "col2": "T. D. Comedy",
        "col3": "D. Lowney"
    }
]