[
    {
        "col0": "Wakefield Town Hall and Opera House",
        "col1": "809",
        "col2": "809",
        "col3": "2007-06-12"
    },
    {
        "col0": "Wakefield Public Library",
        "col1": "404",
        "col2": "404",
        "col3": "1983-09-08"
    },
    {
        "col0": "Wakefield House",
        "col1": "8903",
        "col2": "8903",
        "col3": "1983-06-23"
    },
    {
        "col0": "Wakefield Dairy Complex",
        "col1": "20234",
        "col2": "20234",
        "col3": "2003-01-15"
    },
    {
        "col0": "Wake Forest Historic District",
        "col1": "995526",
        "col2": "995526",
        "col3": "2003-12-18"
    },
    {
        "col0": "Waits River Schoolhouse",
        "col1": "2023",
        "col2": "2023",
        "col3": "1988-09-27"
    },
    {
        "col0": "Wait Block",
        "col1": "404",
        "col2": "404",
        "col3": "1996-11-07"
    },
    {
        "col0": "Waioli Mission District",
        "col1": "68796",
        "col2": "68796",
        "col3": "1973-10-03"
    },
    {
        "col0": "Wailuku School",
        "col1": "17158",
        "col2": "17158",
        "col3": "2000-06-30"
    },
    {
        "col0": "Wailuku Civic Center Historic District",
        "col1": "161874",
        "col2": "161874",
        "col3": "1986-08-20"
    },
    {
        "col0": "Waikiki Natatorium War Memorial",
        "col1": "21448",
        "col2": "21448",
        "col3": "1980-08-11"
    },
    {
        "col0": "Waggoner Mansion",
        "col1": "36421",
        "col2": "36421",
        "col3": "1974-05-01"
    },
    {
        "col0": "Waggoner Covered Bridge",
        "col1": "404",
        "col2": "404",
        "col3": "1980-08-25"
    },
    {
        "col0": "Waernicke-Hille House and Store",
        "col1": "12140",
        "col2": "12140",
        "col3": "1979-11-29"
    },
    {
        "col0": "Wadsworth Mansion at Long Hill",
        "col1": "1092651",
        "col2": "1092651",
        "col3": "1996-07-25"
    },
    {
        "col0": "Wadsworth Hall",
        "col1": "23471",
        "col2": "23471",
        "col3": "1974-01-21"
    },
    {
        "col0": "Wadsworth Fort Site",
        "col1": "60702",
        "col2": "60702",
        "col3": "1975-06-11"
    },
    {
        "col0": "Wadsworth Electric Manufacturing Company",
        "col1": "12140",
        "col2": "12140",
        "col3": "1994-01-28"
    },
    {
        "col0": "Wadsworth Congregational Church",
        "col1": "4046",
        "col2": "4046",
        "col3": "2002-12-31"
    },
    {
        "col0": "Wadesboro Downtown Historic District",
        "col1": "129499",
        "col2": "129499",
        "col3": "1999-04-01"
    },
    {
        "col0": "Wade Memorial Chapel",
        "col1": "1214",
        "col2": "1214",
        "col3": "1973-06-18"
    },
    {
        "col0": "Wade H. Jones Sr. House",
        "col1": "21448",
        "col2": "21448",
        "col3": "1987-08-27"
    },
    {
        "col0": "Wade Farm",
        "col1": "81341",
        "col2": "81341",
        "col3": "1997-12-15"
    },
    {
        "col0": "Wade-Beckham House",
        "col1": "80937",
        "col2": "80937",
        "col3": "1988-06-17"
    },
    {
        "col0": "Waddy House",
        "col1": "4046",
        "col2": "4046",
        "col3": "1988-11-03"
    },
    {
        "col0": "Waddle-Click Farm",
        "col1": "80937",
        "col2": "80937",
        "col3": "1982-06-24"
    },
    {
        "col0": "Waddington Historic District",
        "col1": "24281",
        "col2": "24281",
        "col3": "1992-05-18"
    },
    {
        "col0": "Waddell Memorial Presbyterian Church",
        "col1": "8093",
        "col2": "8093",
        "col3": "1975-08-28"
    },
    {
        "col0": "Waddell's Station",
        "col1": "4046",
        "col2": "4046",
        "col3": "1972-04-13"
    },
    {
        "col0": "Waddel Mansion",
        "col1": "4046",
        "col2": "4046",
        "col3": "1994-06-03"
    },
    {
        "col0": "Wachovia Building Company Contemporary Ranch House",
        "col1": "1375",
        "col2": "1375",
        "col3": "2014-12-10"
    },
    {
        "col0": "Wabuska Railroad Station",
        "col1": "404",
        "col2": "404",
        "col3": "1984-08-30"
    },
    {
        "col0": "Wabbaseka Methodist Episcopal Church, South",
        "col1": "4046",
        "col2": "4046",
        "col3": "2002-10-04"
    },
    {
        "col0": "Wabash and Erie Canal Culvert No. 100",
        "col1": "404",
        "col2": "404",
        "col3": "2002-03-20"
    }
]