[
    {
        "col0": "USS Roper",
        "col1": "2",
        "col2": "1918-03-19",
        "col3": "1919-02-15"
    },
    {
        "col0": "USS Ronquil",
        "col1": "4",
        "col2": "1943-09-09",
        "col3": "1944-04-22"
    },
    {
        "col0": "USS Roncador",
        "col1": "4",
        "col2": "1943-04-21",
        "col3": "1945-03-27"
    },
    {
        "col0": "USS Romulus",
        "col1": "3",
        "col2": "1944-10-17",
        "col3": "1944-12-09"
    },
    {
        "col0": "USS Rombach",
        "col1": "2",
        "col2": "1944-04-10",
        "col3": "1944-09-20"
    },
    {
        "col0": "USS Rolf",
        "col1": "2",
        "col2": "1944-03-20",
        "col3": "1944-09-07"
    },
    {
        "col0": "USS Roi",
        "col1": "6",
        "col2": "1944-03-22",
        "col3": "1944-07-06"
    },
    {
        "col0": "USS Rogers Blood",
        "col1": "3",
        "col2": "1945-04-12",
        "col3": "1945-08-22"
    },
    {
        "col0": "USS Roe",
        "col1": "2",
        "col2": "1909-01-19",
        "col3": "1910-09-17"
    },
    {
        "col0": "USS Rodman",
        "col1": "5",
        "col2": "1940-12-16",
        "col3": "1942-04-29"
    },
    {
        "col0": "USS Rodgers",
        "col1": "1",
        "col2": "1896-05-06",
        "col3": "1898-04-02"
    },
    {
        "col0": "USS Rockwall",
        "col1": "7",
        "col2": "1944-09-09",
        "col3": "1945-01-14"
    },
    {
        "col0": "USS Rockford",
        "col1": "3",
        "col2": "1943-08-28",
        "col3": "1944-03-06"
    },
    {
        "col0": "USS Rockbridge",
        "col1": "7",
        "col2": "1944-09-02",
        "col3": "1944-11-18"
    },
    {
        "col0": "USS Rockaway",
        "col1": "3",
        "col2": "1941-06-30",
        "col3": "1943-01-06"
    },
    {
        "col0": "USS Rock",
        "col1": "5",
        "col2": "1942-12-23",
        "col3": "1943-10-26"
    },
    {
        "col0": "USS Rochester",
        "col1": "6",
        "col2": "1944-05-29",
        "col3": "1946-12-20"
    },
    {
        "col0": "USS Roche",
        "col1": "3",
        "col2": "1943-10-21",
        "col3": "1944-02-21"
    },
    {
        "col0": "USS Robinson",
        "col1": "2",
        "col2": "1917-10-31",
        "col3": "1918-10-19"
    },
    {
        "col0": "USS Robinson",
        "col1": "5",
        "col2": "1942-08-12",
        "col3": "1944-01-31"
    },
    {
        "col0": "USS Robin",
        "col1": "3",
        "col2": "1943-05-07",
        "col3": "1943-11-06"
    },
    {
        "col0": "USS Robin",
        "col1": "3",
        "col2": "1918-03-04",
        "col3": "1918-08-29"
    },
    {
        "col0": "USS Roberts",
        "col1": "3",
        "col2": "1943-07-07",
        "col3": "1944-09-02"
    },
    {
        "col0": "USS Robert Smith",
        "col1": "2",
        "col2": "1919-05-13",
        "col3": "1921-03-17"
    },
    {
        "col0": "USS Robert K. Huntington",
        "col1": "4",
        "col2": "1944-02-29",
        "col3": "1945-03-03"
    },
    {
        "col0": "USS Robert I. Paine",
        "col1": "2",
        "col2": "1943-11-05",
        "col3": "1944-02-26"
    },
    {
        "col0": "USS Robert H. Smith",
        "col1": "5",
        "col2": "1944-01-10",
        "col3": "1944-08-04"
    },
    {
        "col0": "USS Robert E. Lee",
        "col1": "8",
        "col2": "1958-08-25",
        "col3": "1960-09-15"
    },
    {
        "col0": "USS Robert Brazier",
        "col1": "2",
        "col2": "1943-11-16",
        "col3": "1944-05-18"
    },
    {
        "col0": "USS Robalo",
        "col1": "5",
        "col2": "1942-10-24",
        "col3": "1943-09-28"
    },
    {
        "col0": "USS Roark",
        "col1": "7",
        "col2": "1966-02-02",
        "col3": "1969-11-22"
    },
    {
        "col0": "USS Roanoke",
        "col1": "7",
        "col2": "1945-05-15",
        "col3": "1949-04-04"
    },
    {
        "col0": "USS Roanoke",
        "col1": "11",
        "col2": "1974-01-19",
        "col3": "1976-10-30"
    },
    {
        "col0": "USS Rizal",
        "col1": "2",
        "col2": "1918-06-26",
        "col3": "1919-05-28"
    },
    {
        "col0": "USS Rixey",
        "col1": "7",
        "col2": "1941-08-06",
        "col3": "1942-12-30"
    },
    {
        "col0": "USS Rio Grande",
        "col1": "4",
        "col2": "1942-06-30",
        "col3": "1943-04-10"
    },
    {
        "col0": "USS Ringness",
        "col1": "3",
        "col2": "1943-12-23",
        "col3": "1944-10-25"
    },
    {
        "col0": "USS Ringgold",
        "col1": "2",
        "col2": "1917-10-20",
        "col3": "1918-11-14"
    },
    {
        "col0": "USS Rinehart",
        "col1": "3",
        "col2": "1943-10-21",
        "col3": "1944-02-12"
    },
    {
        "col0": "USS Riley",
        "col1": "2",
        "col2": "1943-10-20",
        "col3": "1944-03-13"
    },
    {
        "col0": "USS Riddle",
        "col1": "3",
        "col2": "1943-07-29",
        "col3": "1943-11-17"
    },
    {
        "col0": "USS Richmond K. Turner",
        "col1": "7",
        "col2": "1961-01-09",
        "col3": "1964-06-13"
    },
    {
        "col0": "USS Richard W. Suesens",
        "col1": "2",
        "col2": "1943-11-01",
        "col3": "1944-04-26"
    },
    {
        "col0": "USS Richard S. Bull",
        "col1": "3",
        "col2": "1943-08-18",
        "col3": "1944-02-26"
    },
    {
        "col0": "USS Richard P. Leary",
        "col1": "3",
        "col2": "1943-07-04",
        "col3": "1944-02-23"
    },
    {
        "col0": "USS Richard M. Rowell",
        "col1": "3",
        "col2": "1943-08-18",
        "col3": "1944-03-09"
    },
    {
        "col0": "USS Richard L. Page",
        "col1": "4",
        "col2": "1965-01-04",
        "col3": "1967-08-05"
    },
    {
        "col0": "USS Rhind",
        "col1": "4",
        "col2": "1937-09-22",
        "col3": "1939-11-10"
    },
    {
        "col0": "USS Rhea",
        "col1": "3",
        "col2": "1942-06-05",
        "col3": "1943-04-07"
    },
    {
        "col0": "USS Reynolds",
        "col1": "3",
        "col2": "1943-01-12",
        "col3": "1943-11-08"
    },
    {
        "col0": "USS Reybold",
        "col1": "3",
        "col2": "1943-05-03",
        "col3": "1943-09-29"
    },
    {
        "col0": "USS Revenge",
        "col1": "3",
        "col2": "1942-06-19",
        "col3": "1943-07-21"
    },
    {
        "col0": "USS Reuben James",
        "col1": "3",
        "col2": "1942-09-07",
        "col3": "1943-04-01"
    },
    {
        "col0": "USS Reuben James",
        "col1": "2",
        "col2": "1919-04-02",
        "col3": "1920-09-24"
    },
    {
        "col0": "USS Restorer",
        "col1": "4",
        "col2": "1942-03-25",
        "col3": "1943-10-06"
    },
    {
        "col0": "USS Requisite",
        "col1": "3",
        "col2": "1941-11-12",
        "col3": "1943-06-07"
    }
]