[
    {
        "col0": "T. Coleman",
        "col1": "1993-04-16",
        "col2": "73",
        "col3": "1993-04-16"
    },
    {
        "col0": "T. Wooden",
        "col1": "1967-01-14",
        "col2": "29",
        "col3": "1967-01-14"
    },
    {
        "col0": "T. Williams",
        "col1": "1965-10-14",
        "col2": "37",
        "col3": "1965-10-14"
    },
    {
        "col0": "T. Unrein",
        "col1": "1962-10-24",
        "col2": "66",
        "col3": "1962-10-24"
    },
    {
        "col0": "T. Taylor",
        "col1": "1961-07-18",
        "col2": "22",
        "col3": "1961-07-18"
    },
    {
        "col0": "T. Tausch",
        "col1": "1959-02-05",
        "col2": "39",
        "col3": "1959-02-05"
    },
    {
        "col0": "T. Robiskie",
        "col1": "1954-11-12",
        "col2": "233",
        "col3": "1954-11-12"
    },
    {
        "col0": "T. Randolph",
        "col1": "1955-07-17",
        "col2": "290",
        "col3": "1955-07-17"
    },
    {
        "col0": "T. Poole",
        "col1": "1992-02-27",
        "col2": "130",
        "col3": "1992-02-27"
    },
    {
        "col0": "T. Pierce",
        "col1": "1981-06-21",
        "col2": "51",
        "col3": "1981-06-21"
    },
    {
        "col0": "T. Owens",
        "col1": "1944-07-05",
        "col2": "(By theChicago Bears)",
        "col3": "1944-07-05"
    },
    {
        "col0": "T. Orr",
        "col1": "1961-09-27",
        "col2": "263",
        "col3": "1961-09-27"
    },
    {
        "col0": "T. Mickens",
        "col1": "1971-02-21",
        "col2": "146",
        "col3": "1971-02-21"
    },
    {
        "col0": "T. McDaniel",
        "col1": "1965-02-08",
        "col2": "9",
        "col3": "1965-02-08"
    },
    {
        "col0": "T. Long",
        "col1": "1959-07-21",
        "col2": "111",
        "col3": "1959-07-21"
    },
    {
        "col0": "T. Kunz",
        "col1": "1952-10-26",
        "col2": "231",
        "col3": "1952-10-26"
    },
    {
        "col0": "T. Kirby",
        "col1": "1970-01-20",
        "col2": "78",
        "col3": "1970-01-20"
    },
    {
        "col0": "T. Kinard",
        "col1": "1959-11-24",
        "col2": "10",
        "col3": "1959-11-24"
    },
    {
        "col0": "T. Killens",
        "col1": "1974-03-24",
        "col2": "74",
        "col3": "1974-03-24"
    },
    {
        "col0": "T. Jones",
        "col1": "1956-11-08",
        "col2": "248",
        "col3": "1956-11-08"
    },
    {
        "col0": "T. Jackson",
        "col1": "1976-1-10",
        "col2": "157",
        "col3": "1976-1-10"
    },
    {
        "col0": "T. Jackson",
        "col1": "1955-12-09",
        "col2": "120",
        "col3": "1955-12-09"
    },
    {
        "col0": "T. Irving",
        "col1": "1971-07-03",
        "col2": "115",
        "col3": "1971-07-03"
    },
    {
        "col0": "T. Hoage",
        "col1": "1962-4-11",
        "col2": "68",
        "col3": "1962-4-11"
    },
    {
        "col0": "T. Hawthorne",
        "col1": "1990-01-01",
        "col2": "150",
        "col3": "1990-01-01"
    },
    {
        "col0": "T. Hardy",
        "col1": "1976-05-31",
        "col2": "125",
        "col3": "1976-05-31"
    },
    {
        "col0": "T. Hanratty",
        "col1": "1948-01-19",
        "col2": "30",
        "col3": "1948-01-19"
    },
    {
        "col0": "T. Glenn",
        "col1": "1974-07-23",
        "col2": "7",
        "col3": "1974-07-23"
    },
    {
        "col0": "T. Fair",
        "col1": "1976-07-20",
        "col2": "20",
        "col3": "1976-07-20"
    },
    {
        "col0": "T. Crouch",
        "col1": "1959-07-06",
        "col2": "113",
        "col3": "1959-07-06"
    },
    {
        "col0": "T. Cole",
        "col1": "1945-07-07",
        "col2": "242",
        "col3": "1945-07-07"
    },
    {
        "col0": "T. Charles",
        "col1": "1979-07-08",
        "col2": "142",
        "col3": "1979-07-08"
    },
    {
        "col0": "T. Bradshaw",
        "col1": "1948-9-2",
        "col2": "1",
        "col3": "1948-9-2"
    },
    {
        "col0": "T. Beeson",
        "col1": "1955-09-19",
        "col2": "41",
        "col3": "1955-09-19"
    },
    {
        "col0": "T. Beasley",
        "col1": "1950-02-05",
        "col2": "19",
        "col3": "1950-02-05"
    },
    {
        "col0": "T. Barr",
        "col1": "1935-08-10",
        "col2": "36",
        "col3": "1935-08-10"
    },
    {
        "col0": "T. Baker",
        "col1": "1941-5-5",
        "col2": "1",
        "col3": "1941-5-5"
    },
    {
        "col0": "T. Anthony",
        "col1": "1968-03-09",
        "col2": "281",
        "col3": "1968-03-09"
    },
    {
        "col0": "T. Allen",
        "col1": "1968-02-21",
        "col2": "241",
        "col3": "1968-02-21"
    },
    {
        "col0": "T. Armstead",
        "col1": "1991-07-23",
        "col2": "75",
        "col3": "1991-07-23"
    },
    {
        "col0": "T. Wheatley",
        "col1": "1985-05-05",
        "col2": "62",
        "col3": "1985-05-05"
    },
    {
        "col0": "T. Warren",
        "col1": "1969-08-02",
        "col2": "114",
        "col3": "1969-08-02"
    },
    {
        "col0": "T. Murphy",
        "col1": "1982-12-15",
        "col2": "58",
        "col3": "1982-12-15"
    },
    {
        "col0": "T. Metcalf",
        "col1": "1978-01-28",
        "col2": "93",
        "col3": "1978-01-28"
    },
    {
        "col0": "T. McGee",
        "col1": "1980-10-14",
        "col2": "111",
        "col3": "1980-10-14"
    },
    {
        "col0": "T. Kiel",
        "col1": "1980-11-24",
        "col2": "62",
        "col3": "1980-11-24"
    },
    {
        "col0": "T. Jones",
        "col1": "1966-06-18",
        "col2": "195",
        "col3": "1966-06-18"
    },
    {
        "col0": "T. Holt",
        "col1": "1980-03-05",
        "col2": "137",
        "col3": "1980-03-05"
    },
    {
        "col0": "T. Frederick",
        "col1": "1990-02-10",
        "col2": "246",
        "col3": "1990-02-10"
    },
    {
        "col0": "T. Flagler",
        "col1": "1964-09-24",
        "col2": "25",
        "col3": "1964-09-24"
    },
    {
        "col0": "T. Fede",
        "col1": "1991-11-19",
        "col2": "234",
        "col3": "1991-11-19"
    },
    {
        "col0": "T. Cody",
        "col1": "1988-06-28",
        "col2": "57",
        "col3": "1988-06-28"
    },
    {
        "col0": "T. Brooks",
        "col1": "1991-03-02",
        "col2": "79",
        "col3": "1991-03-02"
    },
    {
        "col0": "T. Austin",
        "col1": "1988-08-25",
        "col2": "219",
        "col3": "1988-08-25"
    },
    {
        "col0": "T. Smith",
        "col1": "1978-03-12",
        "col2": "96",
        "col3": "1978-03-12"
    },
    {
        "col0": "T. Thomas",
        "col1": "1985-01-08",
        "col2": "63",
        "col3": "1985-01-08"
    },
    {
        "col0": "T. Owens",
        "col1": "1973-12-7",
        "col2": "89",
        "col3": "1973-12-7"
    },
    {
        "col0": "T. McClain",
        "col1": "1988-07-20",
        "col2": "65",
        "col3": "1988-07-20"
    },
    {
        "col0": "T. Manning",
        "col1": "1990-04-16",
        "col2": "163",
        "col3": "1990-04-16"
    },
    {
        "col0": "T. Fletcher",
        "col1": "1973-09-14",
        "col2": "51",
        "col3": "1973-09-14"
    },
    {
        "col0": "T. Davis",
        "col1": "1972-10-28",
        "col2": "196",
        "col3": "1972-10-28"
    },
    {
        "col0": "T. Williams",
        "col1": "1989-9-18",
        "col2": "74",
        "col3": "1989-9-18"
    },
    {
        "col0": "T. West",
        "col1": "1991-01-28",
        "col2": "94",
        "col3": "1991-01-28"
    },
    {
        "col0": "T. Taylor",
        "col1": "1986-05-14",
        "col2": "136",
        "col3": "1986-05-14"
    },
    {
        "col0": "T. Pennington",
        "col1": "1983-09-25",
        "col2": "216",
        "col3": "1983-09-25"
    },
    {
        "col0": "T. Mitchell",
        "col1": "1992-05-17",
        "col2": "254",
        "col3": "1992-05-17"
    },
    {
        "col0": "T. Knighton",
        "col1": "1986-07-04",
        "col2": "72",
        "col3": "1986-07-04"
    },
    {
        "col0": "T. Newman",
        "col1": "1978-09-04",
        "col2": "5",
        "col3": "1978-09-04"
    },
    {
        "col0": "T. Sands",
        "col1": "1979-10-31",
        "col2": "243",
        "col3": "1979-10-31"
    },
    {
        "col0": "T. Middleton",
        "col1": "1955-4-8",
        "col2": "80",
        "col3": "1955-4-8"
    },
    {
        "col0": "T. Mathis",
        "col1": "1967-06-07",
        "col2": "140",
        "col3": "1967-06-07"
    },
    {
        "col0": "T. Hemingway",
        "col1": "1993-07-30",
        "col2": "177",
        "col3": "1993-07-30"
    },
    {
        "col0": "T. Smith",
        "col1": "1991-04-11",
        "col2": "144",
        "col3": "1991-04-11"
    },
    {
        "col0": "T. Martin",
        "col1": "1978-07-25",
        "col2": "163",
        "col3": "1978-07-25"
    },
    {
        "col0": "T. Bruschi",
        "col1": "1973-06-09",
        "col2": "86",
        "col3": "1973-06-09"
    },
    {
        "col0": "T. Lehman",
        "col1": "1981-11-18",
        "col2": "37",
        "col3": "1981-11-18"
    },
    {
        "col0": "T. Garcia",
        "col1": "1964-06-04",
        "col2": "100",
        "col3": "1964-06-04"
    },
    {
        "col0": "T. Bridgewater",
        "col1": "1992-11-10",
        "col2": "32",
        "col3": "1992-11-10"
    },
    {
        "col0": "T. Wilson",
        "col1": "1964-07-14",
        "col2": "274",
        "col3": "1964-07-14"
    },
    {
        "col0": "T. Williams",
        "col1": "1916-06-03",
        "col2": "18",
        "col3": "1916-06-03"
    },
    {
        "col0": "T. W. Sr.",
        "col1": "1948-2-16",
        "col2": "439",
        "col3": "1948-2-16"
    },
    {
        "col0": "T. Washington",
        "col1": "1968-04-13",
        "col2": "25",
        "col3": "1968-04-13"
    },
    {
        "col0": "T. Vincent",
        "col1": "1956-08-10",
        "col2": "72",
        "col3": "1956-08-10"
    },
    {
        "col0": "T. Ossowski",
        "col1": "1922-05-12",
        "col2": "(by theWashington Redskins)",
        "col3": "1922-05-12"
    },
    {
        "col0": "T. Larsen",
        "col1": "1987-06-13",
        "col2": "205",
        "col3": "1987-06-13"
    },
    {
        "col0": "T. Karras",
        "col1": "1993-03-15",
        "col2": "221",
        "col3": "1993-03-15"
    },
    {
        "col0": "T. Johnson",
        "col1": "1972-12-04",
        "col2": "88",
        "col3": "1972-12-04"
    },
    {
        "col0": "T. Hendricks",
        "col1": "1947-11-1",
        "col2": "33",
        "col3": "1947-11-1"
    },
    {
        "col0": "T. Gregory",
        "col1": "1965-02-11",
        "col2": "26",
        "col3": "1965-02-11"
    },
    {
        "col0": "T. G. Jr.",
        "col1": "1985-04-12",
        "col2": "9",
        "col3": "1985-04-12"
    },
    {
        "col0": "T. Doyle",
        "col1": "1914-1-12",
        "col2": "68",
        "col3": "1914-1-12"
    },
    {
        "col0": "T. Davis",
        "col1": "1942-7-27",
        "col2": "50",
        "col3": "1942-7-27"
    },
    {
        "col0": "T. Cottrell",
        "col1": "1947-06-13",
        "col2": "164",
        "col3": "1947-06-13"
    },
    {
        "col0": "T. Connolly",
        "col1": "1931-12-05",
        "col2": "107",
        "col3": "1931-12-05"
    },
    {
        "col0": "T. Brown",
        "col1": "1957-02-15",
        "col2": "16",
        "col3": "1957-02-15"
    },
    {
        "col0": "T. Bates",
        "col1": "1936-9-22",
        "col2": "52",
        "col3": "1936-9-22"
    },
    {
        "col0": "T. Albrecht",
        "col1": "1954-10-08",
        "col2": "15",
        "col3": "1954-10-08"
    },
    {
        "col0": "T. Jones",
        "col1": "1974-10-06",
        "col2": "22",
        "col3": "1974-10-06"
    },
    {
        "col0": "T. Whitley",
        "col1": "1980-02-21",
        "col2": "87",
        "col3": "1980-02-21"
    },
    {
        "col0": "T. Thompson",
        "col1": "1989-10-19",
        "col2": "145",
        "col3": "1989-10-19"
    },
    {
        "col0": "T. Price",
        "col1": "1987-10-08",
        "col2": "90",
        "col3": "1987-10-08"
    },
    {
        "col0": "T. Mays",
        "col1": "1988-2-7",
        "col2": "49",
        "col3": "1988-2-7"
    },
    {
        "col0": "T. Jacobs",
        "col1": "1981-05-30",
        "col2": "44",
        "col3": "1981-05-30"
    },
    {
        "col0": "T. Hart",
        "col1": "1991-02-22",
        "col2": "141",
        "col3": "1991-02-22"
    },
    {
        "col0": "T. Decker",
        "col1": "1994-08-23",
        "col2": "16",
        "col3": "1994-08-23"
    },
    {
        "col0": "T. Cody",
        "col1": "1977-10-06",
        "col2": "67",
        "col3": "1977-10-06"
    },
    {
        "col0": "T. Young",
        "col1": "1994-03-14",
        "col2": "104",
        "col3": "1994-03-14"
    },
    {
        "col0": "T. Wilson",
        "col1": "1990-03-19",
        "col2": "48",
        "col3": "1990-03-19"
    },
    {
        "col0": "T. Rooks",
        "col1": "1990-05-10",
        "col2": "202",
        "col3": "1990-05-10"
    },
    {
        "col0": "T. Austin",
        "col1": "1991-3-15",
        "col2": "8",
        "col3": "1991-3-15"
    },
    {
        "col0": "T. Banks",
        "col1": "1974-02-17",
        "col2": "101",
        "col3": "1974-02-17"
    },
    {
        "col0": "T. King",
        "col1": "1990-07-14",
        "col2": "161",
        "col3": "1990-07-14"
    },
    {
        "col0": "T. Gooden",
        "col1": "1984-10-07",
        "col2": "71",
        "col3": "1984-10-07"
    },
    {
        "col0": "T. Nixon",
        "col1": "1991-02-07",
        "col2": "251",
        "col3": "1991-02-07"
    },
    {
        "col0": "T. Bell",
        "col1": "1981-03-02",
        "col2": "41",
        "col3": "1981-03-02"
    },
    {
        "col0": "T. Randle",
        "col1": "1959-8-15",
        "col2": "220",
        "col3": "1959-8-15"
    },
    {
        "col0": "T. Choice",
        "col1": "1984-11-20",
        "col2": "122",
        "col3": "1984-11-20"
    },
    {
        "col0": "T. Jackson",
        "col1": "1983-04-21",
        "col2": "64",
        "col3": "1983-04-21"
    },
    {
        "col0": "T. Glenn",
        "col1": "1976-05-25",
        "col2": "19",
        "col3": "1976-05-25"
    },
    {
        "col0": "T. Brown",
        "col1": "1985-01-06",
        "col2": "147",
        "col3": "1985-01-06"
    },
    {
        "col0": "T. Saleh",
        "col1": "1974-11-07",
        "col2": "122",
        "col3": "1974-11-07"
    },
    {
        "col0": "T. Hawkinson",
        "col1": "1990-5-14",
        "col2": "156",
        "col3": "1990-5-14"
    },
    {
        "col0": "T. Williams",
        "col1": "1980-06-30",
        "col2": "45",
        "col3": "1980-06-30"
    },
    {
        "col0": "T. Tyler",
        "col1": "1985-02-14",
        "col2": "82",
        "col3": "1985-02-14"
    },
    {
        "col0": "T. Johnson",
        "col1": "1981-12-07",
        "col2": "47",
        "col3": "1981-12-07"
    },
    {
        "col0": "T. Carder",
        "col1": "1989-01-18",
        "col2": "147",
        "col3": "1989-01-18"
    },
    {
        "col0": "T. Doss",
        "col1": "1989-09-22",
        "col2": "123",
        "col3": "1989-09-22"
    },
    {
        "col0": "T. Jackson",
        "col1": "1985-07-21",
        "col2": "106",
        "col3": "1985-07-21"
    },
    {
        "col0": "T. Hali",
        "col1": "1983-11-03",
        "col2": "20",
        "col3": "1983-11-03"
    },
    {
        "col0": "T. Gardner",
        "col1": "1980-03-10",
        "col2": "231",
        "col3": "1980-03-10"
    },
    {
        "col0": "T. Sawyer",
        "col1": "1976-06-14",
        "col2": "185",
        "col3": "1976-06-14"
    },
    {
        "col0": "T. Spikes",
        "col1": "1976-12-17",
        "col2": "13",
        "col3": "1976-12-17"
    },
    {
        "col0": "T. Boyd",
        "col1": "1990-09-25",
        "col2": "213",
        "col3": "1990-09-25"
    },
    {
        "col0": "T. Allen",
        "col1": "1973-11-06",
        "col2": "158",
        "col3": "1973-11-06"
    },
    {
        "col0": "T. Sharpe",
        "col1": "1994-12-23",
        "col2": "140",
        "col3": "1994-12-23"
    },
    {
        "col0": "T. Jones",
        "col1": "1988-07-26",
        "col2": "125",
        "col3": "1988-07-26"
    },
    {
        "col0": "T. Streets",
        "col1": "1977-04-20",
        "col2": "171",
        "col3": "1977-04-20"
    },
    {
        "col0": "T. Whitehead",
        "col1": "1990-04-02",
        "col2": "138",
        "col3": "1990-04-02"
    },
    {
        "col0": "T. Perry",
        "col1": "1982-01-20",
        "col2": "190",
        "col3": "1982-01-20"
    },
    {
        "col0": "T. J. Turner",
        "col1": "1963-05-16",
        "col2": "81",
        "col3": "1963-05-16"
    },
    {
        "col0": "S. Steptoe",
        "col1": "1984-12-06",
        "col2": "234",
        "col3": "1984-12-06"
    },
    {
        "col0": "S. Williams",
        "col1": "1988-11-21",
        "col2": "28",
        "col3": "1988-11-21"
    },
    {
        "col0": "S. Morris",
        "col1": "1977-10-06",
        "col2": "21",
        "col3": "1977-10-06"
    },
    {
        "col0": "S. Hicks",
        "col1": "1955-04-02",
        "col2": "29",
        "col3": "1955-04-02"
    }
]