[
    {
        "col0": "USS Seahorse",
        "col1": "4",
        "col2": "1942-07-01",
        "col3": "1943-03-31"
    },
    {
        "col0": "USS Seagull",
        "col1": "1",
        "col2": "1942-07-24",
        "col3": "1943-06-26"
    },
    {
        "col0": "USS Seagull",
        "col1": "3",
        "col2": "1918-06-15",
        "col3": "1919-03-07"
    },
    {
        "col0": "USS Seadragon",
        "col1": "6",
        "col2": "1956-06-20",
        "col3": "1959-12-05"
    },
    {
        "col0": "USS Seadragon",
        "col1": "4",
        "col2": "1938-04-18",
        "col3": "1939-10-23"
    },
    {
        "col0": "USS Sea Robin",
        "col1": "4",
        "col2": "1944-03-01",
        "col3": "1944-08-07"
    },
    {
        "col0": "USS Sea Poacher",
        "col1": "4",
        "col2": "1944-02-23",
        "col3": "1944-07-31"
    },
    {
        "col0": "USS Sea Owl",
        "col1": "4",
        "col2": "1944-02-07",
        "col3": "1944-07-17"
    },
    {
        "col0": "USS Sea Leopard",
        "col1": "5",
        "col2": "1944-11-07",
        "col3": "1945-06-11"
    },
    {
        "col0": "USS Sea Fox",
        "col1": "4",
        "col2": "1943-11-02",
        "col3": "1944-06-13"
    },
    {
        "col0": "USS Sea Dog",
        "col1": "4",
        "col2": "1943-11-01",
        "col3": "1944-06-03"
    },
    {
        "col0": "USS Sea Devil",
        "col1": "4",
        "col2": "1943-11-18",
        "col3": "1944-05-24"
    },
    {
        "col0": "USS Sea Cat",
        "col1": "4",
        "col2": "1943-10-30",
        "col3": "1944-05-16"
    },
    {
        "col0": "USS Scurry",
        "col1": "2",
        "col2": "1943-05-24",
        "col3": "1944-07-29"
    },
    {
        "col0": "USS Sculpin",
        "col1": "8",
        "col2": "1958-02-03",
        "col3": "1961-06-01"
    },
    {
        "col0": "USS Sculpin",
        "col1": "4",
        "col2": "1937-09-07",
        "col3": "1939-01-16"
    },
    {
        "col0": "USS Scuffle",
        "col1": "2",
        "col2": "1943-05-04",
        "col3": "1944-05-02"
    },
    {
        "col0": "USS Scrimmage",
        "col1": "2",
        "col2": "1943-02-22",
        "col3": "1944-04-04"
    },
    {
        "col0": "USS Scribner",
        "col1": "3",
        "col2": "1944-06-29",
        "col3": "1944-11-20"
    },
    {
        "col0": "USS Scout",
        "col1": "2",
        "col2": "1943-02-08",
        "col3": "1944-03-27"
    },
    {
        "col0": "USS Scott",
        "col1": "2",
        "col2": "1943-01-01",
        "col3": "1943-07-20"
    },
    {
        "col0": "USS Scott",
        "col1": "9",
        "col2": "1979-02-12",
        "col3": "1981-10-24"
    },
    {
        "col0": "USS Scoter",
        "col1": "3",
        "col2": "1944-04-04",
        "col3": "1945-03-17"
    },
    {
        "col0": "USS Scorpion",
        "col1": "5",
        "col2": "1942-03-20",
        "col3": "1942-10-01"
    },
    {
        "col0": "USS Sciota",
        "col1": "3",
        "col2": "1944-10-12",
        "col3": "1945-01-30"
    },
    {
        "col0": "USS Schuylkill",
        "col1": "9",
        "col2": "1942-09-24",
        "col3": "1943-04-09"
    },
    {
        "col0": "USS Schroeder",
        "col1": "5",
        "col2": "1942-06-25",
        "col3": "1943-01-01"
    },
    {
        "col0": "USS Schofield",
        "col1": "4",
        "col2": "1963-04-15",
        "col3": "1968-05-11"
    },
    {
        "col0": "USS Schmitt",
        "col1": "3",
        "col2": "1943-02-22",
        "col3": "1943-07-24"
    },
    {
        "col0": "USS Schley",
        "col1": "2",
        "col2": "1917-10-29",
        "col3": "1918-09-20"
    },
    {
        "col0": "USS Schenectady",
        "col1": "5",
        "col2": "1968-08-02",
        "col3": "1970-06-13"
    },
    {
        "col0": "USS Schenck",
        "col1": "2",
        "col2": "1918-03-26",
        "col3": "1919-10-30"
    },
    {
        "col0": "USS Scanner",
        "col1": "7",
        "col2": "1945-01-24",
        "col3": "1956-01-30"
    },
    {
        "col0": "USS Scania",
        "col1": "4",
        "col2": "1945-01-06",
        "col3": "1945-04-16"
    },
    {
        "col0": "USS Scamp",
        "col1": "5",
        "col2": "1942-03-06",
        "col3": "1942-09-18"
    },
    {
        "col0": "USS Scabbardfish",
        "col1": "4",
        "col2": "1943-09-27",
        "col3": "1944-04-29"
    },
    {
        "col0": "USS Savo Island",
        "col1": "6",
        "col2": "1943-09-27",
        "col3": "1944-02-03"
    },
    {
        "col0": "USS Savannah",
        "col1": "10",
        "col2": "1969-01-22",
        "col3": "1970-12-05"
    },
    {
        "col0": "USS Sausalito",
        "col1": "3",
        "col2": "1943-04-07",
        "col3": "1944-03-04"
    },
    {
        "col0": "USS Saury",
        "col1": "4",
        "col2": "1937-06-28",
        "col3": "1939-04-03"
    },
    {
        "col0": "USS Saunter",
        "col1": "2",
        "col2": "1942-11-23",
        "col3": "1944-01-22"
    },
    {
        "col0": "USS Saugus",
        "col1": "6",
        "col2": "1942-07-27",
        "col3": "1945-02-22"
    },
    {
        "col0": "USS Saugatuck",
        "col1": "9",
        "col2": "1942-08-20",
        "col3": "1943-02-19"
    },
    {
        "col0": "USS Saufley",
        "col1": "5",
        "col2": "1942-01-27",
        "col3": "1942-08-29"
    },
    {
        "col0": "USS Satyr",
        "col1": "3",
        "col2": "1944-08-16",
        "col3": "1944-11-27"
    },
    {
        "col0": "USS Satterlee",
        "col1": "3",
        "col2": "1941-09-10",
        "col3": "1943-07-01"
    },
    {
        "col0": "USS Satterlee",
        "col1": "2",
        "col2": "1918-07-10",
        "col3": "1919-12-23"
    },
    {
        "col0": "USS Satinleaf",
        "col1": "3",
        "col2": "1943-07-05",
        "col3": "1944-04-08"
    },
    {
        "col0": "USS Sarsi",
        "col1": "4",
        "col2": "1943-01-25",
        "col3": "1944-06-24"
    },
    {
        "col0": "USS Sarpedon",
        "col1": "3",
        "col2": "1944-07-11",
        "col3": "1945-03-19"
    },
    {
        "col0": "USS Sarita",
        "col1": "4",
        "col2": "1944-12-22",
        "col3": "1945-03-22"
    },
    {
        "col0": "USS Sargo",
        "col1": "6",
        "col2": "1956-02-21",
        "col3": "1958-10-01"
    },
    {
        "col0": "USS Sargo",
        "col1": "4",
        "col2": "1937-05-12",
        "col3": "1939-02-07"
    },
    {
        "col0": "USS Sargent Bay",
        "col1": "6",
        "col2": "1943-11-08",
        "col3": "1944-03-09"
    },
    {
        "col0": "USS Sarda",
        "col1": "5",
        "col2": "1945-04-12",
        "col3": "1946-04-19"
    },
    {
        "col0": "USS Saratoga",
        "col1": "11",
        "col2": "1952-12-16",
        "col3": "1956-04-14"
    },
    {
        "col0": "USS Saranac",
        "col1": "9",
        "col2": "1942-08-27",
        "col3": "1943-02-22"
    },
    {
        "col0": "USS Sappho",
        "col1": "4",
        "col2": "1944-12-12",
        "col3": "1945-04-24"
    },
    {
        "col0": "USS Sapelo",
        "col1": "7",
        "col2": "1919-05-03",
        "col3": "1920-02-19"
    },
    {
        "col0": "USS Santa Fe",
        "col1": "7",
        "col2": "1941-06-07",
        "col3": "1942-11-24"
    },
    {
        "col0": "USS Santa Barbara",
        "col1": "8",
        "col2": "1966-12-20",
        "col3": "1970-07-11"
    },
    {
        "col0": "USS Sandusky",
        "col1": "3",
        "col2": "1943-07-08",
        "col3": "1944-04-18"
    },
    {
        "col0": "USS Sands",
        "col1": "3",
        "col2": "1919-03-22",
        "col3": "1920-11-10"
    },
    {
        "col0": "USS Sandpiper",
        "col1": "3",
        "col2": "1918-11-15",
        "col3": "1919-10-09"
    },
    {
        "col0": "USS Sanders",
        "col1": "3",
        "col2": "1942-09-07",
        "col3": "1943-10-01"
    },
    {
        "col0": "USS Sanderling",
        "col1": "2",
        "col2": "1943-05-22",
        "col3": "1944-06-09"
    },
    {
        "col0": "USS Sanderling",
        "col1": "3",
        "col2": "1918-05-27",
        "col3": "1918-12-04"
    },
    {
        "col0": "USS Sand Lance",
        "col1": "4",
        "col2": "1943-03-12",
        "col3": "1943-10-09"
    },
    {
        "col0": "USS San Saba",
        "col1": "8",
        "col2": "1944-09-29",
        "col3": "1944-12-03"
    },
    {
        "col0": "USS San Pedro",
        "col1": "3",
        "col2": "1943-04-17",
        "col3": "1943-10-23"
    },
    {
        "col0": "USS San Marcos",
        "col1": "2",
        "col2": "1944-09-01",
        "col3": "1945-04-15"
    },
    {
        "col0": "USS San Juan",
        "col1": "6",
        "col2": "1940-05-15",
        "col3": "1942-02-28"
    },
    {
        "col0": "USS San Jose",
        "col1": "8",
        "col2": "1969-03-08",
        "col3": "1970-10-23"
    },
    {
        "col0": "USS San Francisco",
        "col1": "5",
        "col2": "1931-09-09",
        "col3": "1934-02-10"
    },
    {
        "col0": "USS San Francisco",
        "col1": "5",
        "col2": "1888-08-14",
        "col3": "1890-11-15"
    },
    {
        "col0": "USS San Diego",
        "col1": "7",
        "col2": "2007-05-23",
        "col3": "2012-05-19"
    }
]