[
    {
        "col0": "T. Culver",
        "col1": "1983-07-06",
        "col2": "185",
        "col3": "1983-07-06"
    },
    {
        "col0": "T. Crawford",
        "col1": "1989-11-22",
        "col2": "81",
        "col3": "1989-11-22"
    },
    {
        "col0": "T. Carter",
        "col1": "1976-03-31",
        "col2": "118",
        "col3": "1976-03-31"
    },
    {
        "col0": "T. Calico",
        "col1": "1980-11-09",
        "col2": "60",
        "col3": "1980-11-09"
    },
    {
        "col0": "T. Braxton",
        "col1": "1964-12-17",
        "col2": "334",
        "col3": "1964-12-17"
    },
    {
        "col0": "T. Smith",
        "col1": "1990-12-12",
        "col2": "9",
        "col3": "1990-12-12"
    },
    {
        "col0": "T. Taylor",
        "col1": "1989-8-3",
        "col2": "180",
        "col3": "1989-8-3"
    },
    {
        "col0": "T. Harrison",
        "col1": "1980-05-15",
        "col2": "198",
        "col3": "1980-05-15"
    },
    {
        "col0": "T. Johnson",
        "col1": "1985-05-19",
        "col2": "43",
        "col3": "1985-05-19"
    },
    {
        "col0": "T. Hill",
        "col1": "1994-03-01",
        "col2": "165",
        "col3": "1994-03-01"
    },
    {
        "col0": "T. Talton",
        "col1": "1976-05-10",
        "col2": "137",
        "col3": "1976-05-10"
    },
    {
        "col0": "T. Davis",
        "col1": "1970-09-23",
        "col2": "176",
        "col3": "1970-09-23"
    },
    {
        "col0": "T. Mathieu",
        "col1": "1992-5-13",
        "col2": "69",
        "col3": "1992-5-13"
    },
    {
        "col0": "T. Wilson",
        "col1": "1989-08-16",
        "col2": "112",
        "col3": "1989-08-16"
    },
    {
        "col0": "T. Thigpen",
        "col1": "1984-04-14",
        "col2": "217",
        "col3": "1984-04-14"
    },
    {
        "col0": "T. Starr",
        "col1": "1991-01-25",
        "col2": "255",
        "col3": "1991-01-25"
    },
    {
        "col0": "T. Schmitt",
        "col1": "1986-03-25",
        "col2": "189",
        "col3": "1986-03-25"
    },
    {
        "col0": "T. Sash",
        "col1": "1988-05-27",
        "col2": "198",
        "col3": "1988-05-27"
    },
    {
        "col0": "T. Reed",
        "col1": "1982-10-6",
        "col2": "*Chicago Bears(-)",
        "col3": "1982-10-6"
    },
    {
        "col0": "T. Lockett",
        "col1": "1992-09-28",
        "col2": "69",
        "col3": "1992-09-28"
    },
    {
        "col0": "T. Kroft",
        "col1": "1992-10-15",
        "col2": "85",
        "col3": "1992-10-15"
    },
    {
        "col0": "T. Gaffney",
        "col1": "1991-04-20",
        "col2": "204",
        "col3": "1991-04-20"
    },
    {
        "col0": "T. Ervin",
        "col1": "1993-0-0",
        "col2": "119",
        "col3": "1993-0-0"
    },
    {
        "col0": "T. Brayton",
        "col1": "1979-11-20",
        "col2": "32",
        "col3": "1979-11-20"
    },
    {
        "col0": "T. Boyd",
        "col1": "1994-11-15",
        "col2": "55",
        "col3": "1994-11-15"
    },
    {
        "col0": "T. Hagler",
        "col1": "1981-12-03",
        "col2": "173",
        "col3": "1981-12-03"
    },
    {
        "col0": "T. Armstrong",
        "col1": "1970-10-03",
        "col2": "79",
        "col3": "1970-10-03"
    },
    {
        "col0": "T. Davison",
        "col1": "1992-9-23",
        "col2": "154",
        "col3": "1992-9-23"
    },
    {
        "col0": "T. Smith",
        "col1": "1993-05-03",
        "col2": "170",
        "col3": "1993-05-03"
    },
    {
        "col0": "T. Hill",
        "col1": "1982-06-03",
        "col2": "15",
        "col3": "1982-06-03"
    },
    {
        "col0": "T. Winans",
        "col1": "1972-07-26",
        "col2": "68",
        "col3": "1972-07-26"
    },
    {
        "col0": "T. Warren",
        "col1": "1981-02-06",
        "col2": "13",
        "col3": "1981-02-06"
    },
    {
        "col0": "T. Powell",
        "col1": "1988-04-27",
        "col2": "231",
        "col3": "1988-04-27"
    },
    {
        "col0": "T. Montgomery",
        "col1": "1993-01-22",
        "col2": "94",
        "col3": "1993-01-22"
    },
    {
        "col0": "T. Law",
        "col1": "1974-02-10",
        "col2": "23",
        "col3": "1974-02-10"
    },
    {
        "col0": "T. Howard",
        "col1": "1973-11-30",
        "col2": "84",
        "col3": "1973-11-30"
    },
    {
        "col0": "T. Hallock",
        "col1": "1971-04-30",
        "col2": "174",
        "col3": "1971-04-30"
    },
    {
        "col0": "T. Detmer",
        "col1": "1967-10-30",
        "col2": "230",
        "col3": "1967-10-30"
    },
    {
        "col0": "T. Allert",
        "col1": "1963-07-23",
        "col2": "95",
        "col3": "1963-07-23"
    },
    {
        "col0": "T. Russell",
        "col1": "1974-04-25",
        "col2": "148",
        "col3": "1974-04-25"
    },
    {
        "col0": "T. Reyes",
        "col1": "1977-10-28",
        "col2": "131",
        "col3": "1977-10-28"
    },
    {
        "col0": "T. McBride",
        "col1": "1985-05-30",
        "col2": "54",
        "col3": "1985-05-30"
    },
    {
        "col0": "T. Peko",
        "col1": "1978-09-19",
        "col2": "217",
        "col3": "1978-09-19"
    },
    {
        "col0": "T. Ilkin",
        "col1": "1957-09-23",
        "col2": "165",
        "col3": "1957-09-23"
    },
    {
        "col0": "T. Leemans",
        "col1": "1912-11-12",
        "col2": "18",
        "col3": "1912-11-12"
    },
    {
        "col0": "T. Frederickson",
        "col1": "1943-01-12",
        "col2": "1",
        "col3": "1943-01-12"
    },
    {
        "col0": "T. McBride",
        "col1": "1985-09-24",
        "col2": "221",
        "col3": "1985-09-24"
    },
    {
        "col0": "T. Johnson",
        "col1": "1990-01-01",
        "col2": "65",
        "col3": "1990-01-01"
    },
    {
        "col0": "T. Johnson",
        "col1": "1960-1-16",
        "col2": "141",
        "col3": "1960-1-16"
    },
    {
        "col0": "T. Smith",
        "col1": "1924-03-17",
        "col2": "297",
        "col3": "1924-03-17"
    },
    {
        "col0": "T. Williamson",
        "col1": "1983-04-30",
        "col2": "7",
        "col3": "1983-04-30"
    },
    {
        "col0": "T. Walters",
        "col1": "1976-12-15",
        "col2": "165",
        "col3": "1976-12-15"
    },
    {
        "col0": "T. Vincent",
        "col1": "1970-6-8",
        "col2": "7",
        "col3": "1970-6-8"
    },
    {
        "col0": "T. Stedman",
        "col1": "1965-05-19",
        "col2": "170",
        "col3": "1965-05-19"
    },
    {
        "col0": "T. Smith",
        "col1": "1977-07-30",
        "col2": "201",
        "col3": "1977-07-30"
    },
    {
        "col0": "T. Smith",
        "col1": "1984-07-20",
        "col2": "174",
        "col3": "1984-07-20"
    },
    {
        "col0": "T. Sadowski",
        "col1": "1965-12-08",
        "col2": "145",
        "col3": "1965-12-08"
    },
    {
        "col0": "T. Nolan",
        "col1": "1986-09-07",
        "col2": "223",
        "col3": "1986-09-07"
    },
    {
        "col0": "T. Niklas",
        "col1": "1992-09-18",
        "col2": "52",
        "col3": "1992-09-18"
    },
    {
        "col0": "T. Fleming",
        "col1": "1980-10-01",
        "col2": "191",
        "col3": "1980-10-01"
    },
    {
        "col0": "T. Edwards",
        "col1": "1977-04-07",
        "col2": "13",
        "col3": "1977-04-07"
    },
    {
        "col0": "T. Drayton",
        "col1": "1970-06-29",
        "col2": "39",
        "col3": "1970-06-29"
    },
    {
        "col0": "T. Davis",
        "col1": "1975-09-14",
        "col2": "62",
        "col3": "1975-09-14"
    },
    {
        "col0": "T. Brown",
        "col1": "1971-07-02",
        "col2": "198",
        "col3": "1971-07-02"
    },
    {
        "col0": "T. Benson",
        "col1": "1963-07-30",
        "col2": "120",
        "col3": "1963-07-30"
    },
    {
        "col0": "T. Archer",
        "col1": "1955-01-16",
        "col2": "13",
        "col3": "1955-01-16"
    },
    {
        "col0": "T. Aikman",
        "col1": "1966-11-21",
        "col2": "1",
        "col3": "1966-11-21"
    },
    {
        "col0": "T. Holliday",
        "col1": "1986-04-27",
        "col2": "197",
        "col3": "1986-04-27"
    },
    {
        "col0": "T. Jenkins",
        "col1": "1973-03-13",
        "col2": "31",
        "col3": "1973-03-13"
    },
    {
        "col0": "T. Teague",
        "col1": "1974-12-27",
        "col2": "200",
        "col3": "1974-12-27"
    },
    {
        "col0": "T. Millard",
        "col1": "1991-07-25",
        "col2": "245",
        "col3": "1991-07-25"
    },
    {
        "col0": "T. Lewis",
        "col1": "1985-05-23",
        "col2": "185",
        "col3": "1985-05-23"
    },
    {
        "col0": "T. Junkin",
        "col1": "1961-01-23",
        "col2": "93",
        "col3": "1961-01-23"
    },
    {
        "col0": "T. Flowers",
        "col1": "1993-08-16",
        "col2": "101",
        "col3": "1993-08-16"
    },
    {
        "col0": "T. Caldwell",
        "col1": "1993-12-04",
        "col2": "173",
        "col3": "1993-12-04"
    },
    {
        "col0": "T. Scott",
        "col1": "1984-08-30",
        "col2": "169",
        "col3": "1984-08-30"
    },
    {
        "col0": "T. Reilly",
        "col1": "1988-01-17",
        "col2": "233",
        "col3": "1988-01-17"
    },
    {
        "col0": "T. Pryce",
        "col1": "1975-08-03",
        "col2": "28",
        "col3": "1975-08-03"
    },
    {
        "col0": "T. Laws",
        "col1": "1985-06-14",
        "col2": "47",
        "col3": "1985-06-14"
    },
    {
        "col0": "T. Johnson",
        "col1": "1981-02-26",
        "col2": "234",
        "col3": "1981-02-26"
    },
    {
        "col0": "T. Guyton",
        "col1": "1990-01-09",
        "col2": "219",
        "col3": "1990-01-09"
    },
    {
        "col0": "T. Gaylor",
        "col1": "1977-11-03",
        "col2": "79",
        "col3": "1977-11-03"
    },
    {
        "col0": "T. Davis",
        "col1": "1993-7-4",
        "col2": "163",
        "col3": "1993-7-4"
    },
    {
        "col0": "T. Canfield",
        "col1": "1986-01-10",
        "col2": "254",
        "col3": "1986-01-10"
    },
    {
        "col0": "T. Bates",
        "col1": "1993-08-28",
        "col2": "239",
        "col3": "1993-08-28"
    },
    {
        "col0": "T. Wade",
        "col1": "1989-08-01",
        "col2": "245",
        "col3": "1989-08-01"
    },
    {
        "col0": "T. Williams",
        "col1": "1990-12-31",
        "col2": "124",
        "col3": "1990-12-31"
    },
    {
        "col0": "T. Lindley",
        "col1": "1986-02-02",
        "col2": "105",
        "col3": "1986-02-02"
    },
    {
        "col0": "T. Alberts",
        "col1": "1970-08-08",
        "col2": "5",
        "col3": "1970-08-08"
    },
    {
        "col0": "T. Robinson",
        "col1": "1990-02-16",
        "col2": "180",
        "col3": "1990-02-16"
    },
    {
        "col0": "T. Brown",
        "col1": "1993-04-13",
        "col2": "244",
        "col3": "1993-04-13"
    },
    {
        "col0": "T. Williams",
        "col1": "1988-07-19",
        "col2": "4",
        "col3": "1988-07-19"
    },
    {
        "col0": "T. Smith",
        "col1": "1979-9-15",
        "col2": "223",
        "col3": "1979-9-15"
    },
    {
        "col0": "T. Richardson",
        "col1": "1991-07-10",
        "col2": "3",
        "col3": "1991-07-10"
    },
    {
        "col0": "T. Pollard",
        "col1": "1972-1-1",
        "col2": "132",
        "col3": "1972-1-1"
    },
    {
        "col0": "T. Murphy",
        "col1": "1990-12-22",
        "col2": "47",
        "col3": "1990-12-22"
    },
    {
        "col0": "T. Green",
        "col1": "1970-07-09",
        "col2": "222",
        "col3": "1970-07-09"
    },
    {
        "col0": "T. Edwards",
        "col1": "1983-10-30",
        "col2": "92",
        "col3": "1983-10-30"
    },
    {
        "col0": "T. Cole",
        "col1": "1982-10-05",
        "col2": "146",
        "col3": "1982-10-05"
    },
    {
        "col0": "T. Bryant",
        "col1": "1959-8-14",
        "col2": "(by theBaltimore Colts)",
        "col3": "1959-8-14"
    },
    {
        "col0": "T. Mack",
        "col1": "1974-11-21",
        "col2": "111",
        "col3": "1974-11-21"
    },
    {
        "col0": "T. Taylor",
        "col1": "1969-11-08",
        "col2": "233",
        "col3": "1969-11-08"
    },
    {
        "col0": "T. McBride",
        "col1": "1992-12-01",
        "col2": "245",
        "col3": "1992-12-01"
    },
    {
        "col0": "T. Mason",
        "col1": "1993-08-06",
        "col2": "75",
        "col3": "1993-08-06"
    },
    {
        "col0": "T. Boston",
        "col1": "1992-06-25",
        "col2": "128",
        "col3": "1992-06-25"
    },
    {
        "col0": "T. Stallings",
        "col1": "1983-01-08",
        "col2": "186",
        "col3": "1983-01-08"
    },
    {
        "col0": "T. Johnson",
        "col1": "1971-08-30",
        "col2": "31",
        "col3": "1971-08-30"
    },
    {
        "col0": "T. Jackson",
        "col1": "1992-12-14",
        "col2": "111",
        "col3": "1992-12-14"
    },
    {
        "col0": "T. Walker",
        "col1": "1992-08-05",
        "col2": "136",
        "col3": "1992-08-05"
    },
    {
        "col0": "T. Wilson",
        "col1": "1984-02-11",
        "col2": "78",
        "col3": "1984-02-11"
    },
    {
        "col0": "T. Taylor",
        "col1": "1978-3-30",
        "col2": "10",
        "col3": "1978-3-30"
    },
    {
        "col0": "T. Swanson",
        "col1": "1991-01-30",
        "col2": "76",
        "col3": "1991-01-30"
    },
    {
        "col0": "T. Stephens",
        "col1": "1978-06-26",
        "col2": "119",
        "col3": "1978-06-26"
    },
    {
        "col0": "T. Prentice",
        "col1": "1976-10-27",
        "col2": "63",
        "col3": "1976-10-27"
    },
    {
        "col0": "T. Minor",
        "col1": "1979-06-30",
        "col2": "85",
        "col3": "1979-06-30"
    },
    {
        "col0": "T. McGriff",
        "col1": "1976-06-24",
        "col2": "93",
        "col3": "1976-06-24"
    },
    {
        "col0": "T. Lewis",
        "col1": "1988-01-15",
        "col2": "223",
        "col3": "1988-01-15"
    },
    {
        "col0": "T. LaBoy",
        "col1": "1981-08-20",
        "col2": "42",
        "col3": "1981-08-20"
    },
    {
        "col0": "T. Kelce",
        "col1": "1989-10-05",
        "col2": "63",
        "col3": "1989-10-05"
    },
    {
        "col0": "T. Johnson",
        "col1": "1982-04-26",
        "col2": "16",
        "col3": "1982-04-26"
    },
    {
        "col0": "T. Hill",
        "col1": "1969-10-03",
        "col2": "180",
        "col3": "1969-10-03"
    },
    {
        "col0": "T. Henry",
        "col1": "1978-10-29",
        "col2": "58",
        "col3": "1978-10-29"
    },
    {
        "col0": "T. Hannah",
        "col1": "1970-01-31",
        "col2": "102",
        "col3": "1970-01-31"
    },
    {
        "col0": "T. Hall",
        "col1": "1972-08-03",
        "col2": "181",
        "col3": "1972-08-03"
    }
]