[
    {
        "col0": "Zona orbicularis",
        "col1": "12869758",
        "col2": "92",
        "col3": "334",
        "col4": "z_01"
    },
    {
        "col0": "Ulnar carpal collateral ligament",
        "col1": "12491929",
        "col2": "86",
        "col3": "328",
        "col4": "l_09"
    },
    {
        "col0": "Trapezoid ligament",
        "col1": "12493465",
        "col2": "82",
        "col3": "315",
        "col4": "l_09"
    },
    {
        "col0": "Transverse ligament of knee",
        "col1": "12493431",
        "col2": "93",
        "col3": "343",
        "col4": "l_09"
    },
    {
        "col0": "Transverse ligament of atlas",
        "col1": "12493416",
        "col2": "73",
        "col3": "293",
        "col4": "l_09"
    },
    {
        "col0": "Transverse humeral ligament",
        "col1": "12491258",
        "col2": "83",
        "col3": "319",
        "col4": "l_09"
    },
    {
        "col0": "Transverse acetabular ligament",
        "col1": "12493410",
        "col2": "92",
        "col3": "336",
        "col4": "l_09"
    },
    {
        "col0": "Thyrohyoid membrane",
        "col1": "12522288",
        "col2": "236",
        "col3": "1076",
        "col4": "m_08"
    },
    {
        "col0": "Thyroepiglottic ligament",
        "col1": "12493357",
        "col2": "236",
        "col3": "1075",
        "col4": "l_09"
    },
    {
        "col0": "Temporomandibular ligament",
        "col1": "12492499",
        "col2": "75",
        "col3": "297",
        "col4": "l_09"
    },
    {
        "col0": "Supraspinous ligament",
        "col1": "12493174",
        "col2": "72",
        "col3": "290",
        "col4": "l_09"
    },
    {
        "col0": "Superior transverse scapular ligament",
        "col1": "12493458",
        "col2": "82",
        "col3": "317",
        "col4": "l_09"
    },
    {
        "col0": "Stylomandibular ligament",
        "col1": "12493166",
        "col2": "75",
        "col3": "298",
        "col4": "l_09"
    },
    {
        "col0": "Stylohyoid ligament",
        "col1": "12493159",
        "col2": "112",
        "col3": "392",
        "col4": "l_09"
    },
    {
        "col0": "Splenorenal ligament",
        "col1": "12493097",
        "col2": "278",
        "col3": "1283",
        "col4": "l_09"
    },
    {
        "col0": "Sphenomandibular ligament",
        "col1": "12493077",
        "col2": "75",
        "col3": "297",
        "col4": "l_09"
    },
    {
        "col0": "Round ligament of liver",
        "col1": "12493344",
        "col2": "250",
        "col3": "1188",
        "col4": "l_09"
    },
    {
        "col0": "Right triangular ligament",
        "col1": "12493472",
        "col2": "250",
        "col3": "1193",
        "col4": "l_09"
    },
    {
        "col0": "Radiate ligament of head of rib",
        "col1": "12491767",
        "col2": "76",
        "col3": "299",
        "col4": "l_09"
    },
    {
        "col0": "Radial collateral ligament of wrist joint",
        "col1": "12491922",
        "col2": "86",
        "col3": "328",
        "col4": "l_09"
    },
    {
        "col0": "Pubofemoral ligament",
        "col1": "12492887",
        "col2": "93",
        "col3": "335",
        "col4": "l_09"
    },
    {
        "col0": "Posterior tibiofibular ligament",
        "col1": "12493388",
        "col2": "94",
        "col3": "348",
        "col4": "l_09"
    },
    {
        "col0": "Posterior talofibular ligament",
        "col1": "12493261",
        "col2": "95",
        "col3": "351",
        "col4": "l_09"
    },
    {
        "col0": "Posterior sternoclavicular ligament",
        "col1": "12493123",
        "col2": "81",
        "col3": "313",
        "col4": "l_09"
    },
    {
        "col0": "Posterior sacroiliac ligament",
        "col1": "12493031",
        "col2": "80",
        "col3": "307",
        "col4": "l_09"
    },
    {
        "col0": "Posterior longitudinal ligament",
        "col1": "12492528",
        "col2": "72",
        "col3": "288",
        "col4": "l_09"
    },
    {
        "col0": "Posterior ligament of the head of the fibula",
        "col1": "12491791",
        "col2": "94",
        "col3": "348",
        "col4": "l_09"
    },
    {
        "col0": "Posterior cruciate ligament",
        "col1": "12492130",
        "col2": "93",
        "col3": "342",
        "col4": "l_09"
    },
    {
        "col0": "Plantar tarsometatarsal ligaments",
        "col1": "12493325",
        "col2": "97",
        "col3": "358",
        "col4": "l_09"
    },
    {
        "col0": "Plantar plate",
        "col1": "12492834",
        "col2": "99",
        "col3": "359",
        "col4": "l_09"
    },
    {
        "col0": "Plantar metatarsal ligaments",
        "col1": "12492666",
        "col2": "98",
        "col3": "358",
        "col4": "l_09"
    },
    {
        "col0": "Plantar calcaneonavicular ligament",
        "col1": "12491745",
        "col2": "96",
        "col3": "355",
        "col4": "l_09"
    },
    {
        "col0": "Plantar calcaneocuboid ligament",
        "col1": "12491722",
        "col2": "96",
        "col3": "354",
        "col4": "l_09"
    },
    {
        "col0": "Pisohamate ligament",
        "col1": "12492813",
        "col2": "87",
        "col3": "329",
        "col4": "l_09"
    },
    {
        "col0": "Phrenicocolic ligament",
        "col1": "12492796",
        "col2": "246",
        "col3": "1158",
        "col4": "l_09"
    },
    {
        "col0": "Patellar ligament",
        "col1": "12492768",
        "col2": "93",
        "col3": "340",
        "col4": "l_09"
    },
    {
        "col0": "Palmar radiocarpal ligament",
        "col1": "12492942",
        "col2": "86",
        "col3": "327",
        "col4": "l_09"
    },
    {
        "col0": "Ovarian ligament",
        "col1": "12492730",
        "col2": "266",
        "col3": "1254",
        "col4": "l_09"
    },
    {
        "col0": "Oblique popliteal ligament",
        "col1": "12492857",
        "col2": "93",
        "col3": "340",
        "col4": "l_09"
    },
    {
        "col0": "Oblique cord",
        "col1": "12236870",
        "col2": "85",
        "col3": "325",
        "col4": "c_31"
    },
    {
        "col0": "Nuchal ligament",
        "col1": "12492708",
        "col2": "72",
        "col3": "290",
        "col4": "l_09"
    },
    {
        "col0": "Median thyrohyoid ligament",
        "col1": "12493373",
        "col2": "236",
        "col3": "1077",
        "col4": "l_09"
    },
    {
        "col0": "Medial talocalcaneal ligament",
        "col1": "12493246",
        "col2": "96",
        "col3": "353",
        "col4": "l_09"
    },
    {
        "col0": "Medial collateral ligament",
        "col1": "12491979",
        "col2": "93",
        "col3": "341",
        "col4": "l_09"
    },
    {
        "col0": "Long plantar ligament",
        "col1": "12492843",
        "col2": "96",
        "col3": "354",
        "col4": "l_09"
    },
    {
        "col0": "Ligamentum arteriosum",
        "col1": "12491658",
        "col2": "141",
        "col3": "545",
        "col4": "l_09"
    },
    {
        "col0": "Ligamenta flava",
        "col1": "12492241",
        "col2": "72",
        "col3": "290",
        "col4": "l_09"
    },
    {
        "col0": "Left triangular ligament",
        "col1": "12493479",
        "col2": "250",
        "col3": "1193",
        "col4": "l_09"
    },
    {
        "col0": "Lateral thyrohyoid ligament",
        "col1": "12493365",
        "col2": "236",
        "col3": "1077",
        "col4": "l_09"
    },
    {
        "col0": "Lateral talocalcaneal ligament",
        "col1": "12493237",
        "col2": "96",
        "col3": "352",
        "col4": "l_09"
    },
    {
        "col0": "Lateral collateral ligament of ankle joint",
        "col1": "12491943",
        "col2": "95",
        "col3": "351",
        "col4": "l_09"
    },
    {
        "col0": "Lateral arcuate ligament",
        "col1": "12491634",
        "col2": "117",
        "col3": "405",
        "col4": "l_09"
    },
    {
        "col0": "Ischiofemoral ligament",
        "col1": "12492470",
        "col2": "92",
        "col3": "335",
        "col4": "l_09"
    },
    {
        "col0": "Intra-articular ligament of head of rib",
        "col1": "12491758",
        "col2": "76",
        "col3": "299",
        "col4": "l_09"
    },
    {
        "col0": "Intertransverse ligament",
        "col1": "12492454",
        "col2": "72",
        "col3": "291",
        "col4": "l_09"
    },
    {
        "col0": "Interspinous ligament",
        "col1": "12492445",
        "col2": "72",
        "col3": "291",
        "col4": "l_09"
    },
    {
        "col0": "Interosseous talocalcaneal ligament",
        "col1": "12493228",
        "col2": "96",
        "col3": "353",
        "col4": "l_09"
    },
    {
        "col0": "Interosseous sacroiliac ligament",
        "col1": "12493023",
        "col2": "80",
        "col3": "308",
        "col4": "l_09"
    },
    {
        "col0": "Interosseous metatarsal ligaments",
        "col1": "12492657",
        "col2": "98",
        "col3": "358",
        "col4": "l_09"
    },
    {
        "col0": "Interclavicular ligament",
        "col1": "12492409",
        "col2": "81",
        "col3": "314",
        "col4": "l_09"
    },
    {
        "col0": "Inferior transverse ligament of scapula",
        "col1": "12493451",
        "col2": "82",
        "col3": "317",
        "col4": "l_09"
    },
    {
        "col0": "Inferior extensor retinaculum of foot",
        "col1": "12706043",
        "col2": "130",
        "col3": "488",
        "col4": "r_10"
    },
    {
        "col0": "Iliolumbar ligament",
        "col1": "12492344",
        "col2": "79",
        "col3": "306",
        "col4": "l_09"
    },
    {
        "col0": "Iliofemoral ligament",
        "col1": "12492337",
        "col2": "92",
        "col3": "335",
        "col4": "l_09"
    },
    {
        "col0": "Hyoepiglottic ligament",
        "col1": "12492331",
        "col2": "236",
        "col3": "1077",
        "col4": "l_09"
    },
    {
        "col0": "Hepatogastric ligament",
        "col1": "12492318",
        "col2": "246",
        "col3": "1157",
        "col4": "l_09"
    },
    {
        "col0": "Hepatoduodenal ligament",
        "col1": "12492311",
        "col2": "246",
        "col3": "1151",
        "col4": "l_09"
    },
    {
        "col0": "Gastrosplenic ligament",
        "col1": "12492276",
        "col2": "278",
        "col3": "1283",
        "col4": "l_09"
    },
    {
        "col0": "Gastrophrenic ligament",
        "col1": "12492270",
        "col2": "247",
        "col3": "1162",
        "col4": "l_09"
    },
    {
        "col0": "Gastrocolic ligament",
        "col1": "12492257",
        "col2": "246",
        "col3": "1151",
        "col4": "l_09"
    }
]