[
    {
        "Stockard Channing": "Allison Janney",
        "Abigail 'Abbey' Bartlet": ",",
        "First Lady": "White House Press Secretary",
        "NO-HEADER3": ""
    },
    {
        "Stockard Channing": "",
        "Abigail 'Abbey' Bartlet": "",
        "First Lady": "",
        "NO-HEADER3": ""
    },
    {
        "Stockard Channing": "Joshua Malina",
        "Abigail 'Abbey' Bartlet": "4th",
        "First Lady": "Deputy Communications Director",
        "NO-HEADER3": ""
    },
    {
        "Stockard Channing": "Janel Moloney",
        "Abigail 'Abbey' Bartlet": "Donnatella 'Donna' Moss",
        "First Lady": "Senior Assistant to the Deputy Chief of Staff for Strategic Planning",
        "NO-HEADER3": ""
    },
    {
        "Stockard Channing": "Richard Schiff",
        "Abigail 'Abbey' Bartlet": "Tobias Zachary 'Toby' Ziegler",
        "First Lady": "White House Director of Communications",
        "NO-HEADER3": ""
    },
    {
        "Stockard Channing": "Martin Sheen",
        "Abigail 'Abbey' Bartlet": "New",
        "First Lady": "President of the United States",
        "NO-HEADER3": ""
    },
    {
        "Stockard Channing": "John Spencer",
        "Abigail 'Abbey' Bartlet": "Bartlet",
        "First Lady": "House Chief of",
        "NO-HEADER3": ""
    },
    {
        "Stockard Channing": "Bradley Whitford",
        "Abigail 'Abbey' Bartlet": "Joshua 'Josh' Lyman",
        "First Lady": "Deputy White House Chief of Staff",
        "NO-HEADER3": ""
    }
]