[
    {
        "Ad Extremas": "Adiutricem",
        "NO-HEADER1": "",
        "Seminaries for Native Clergy": "On The Rosary",
        "June 24 , 1893": "September 5 , 1895"
    },
    {
        "Ad Extremas": "Aeterni Patris",
        "NO-HEADER1": "",
        "Seminaries for Native Clergy": "On Restoring Christian Philosophy",
        "June 24 , 1893": "August 4 , 1879"
    },
    {
        "Ad Extremas": "Affari Vos",
        "NO-HEADER1": "",
        "Seminaries for Native Clergy": "On The Manitoba School Question",
        "June 24 , 1893": "December 8 , 1897"
    },
    {
        "Ad Extremas": "Annum Sacrum",
        "NO-HEADER1": "",
        "Seminaries for Native Clergy": "On Consecration To The Sacred Heart",
        "June 24 , 1893": "May 25 , 1899"
    },
    {
        "Ad Extremas": "",
        "NO-HEADER1": "",
        "Seminaries for Native Clergy": "",
        "June 24 , 1893": ""
    },
    {
        "Ad Extremas": "Arcanum Divinae",
        "NO-HEADER1": "",
        "Seminaries for Native Clergy": "On Christian Marriage",
        "June 24 , 1893": "February 10 , 1893"
    },
    {
        "Ad Extremas": "Au Millieu Des Sollicitudes",
        "NO-HEADER1": "",
        "Seminaries for Native Clergy": "On the Church and State in France",
        "June 24 , 1893": "February 16 , 1892"
    },
    {
        "Ad Extremas": "Augustissimae Virginis Mariae",
        "NO-HEADER1": "",
        "Seminaries for Native Clergy": "On The Confraternity Of The Holy Rosary",
        "June 24 , 1893": "September 12 , 1897"
    },
    {
        "Ad Extremas": "Auspicato Concessum",
        "NO-HEADER1": "",
        "Seminaries for Native Clergy": "On St . Francis of Assisi",
        "June 24 , 1893": "September 17 , 1882"
    },
    {
        "Ad Extremas": "Caritatis Studium",
        "NO-HEADER1": "",
        "Seminaries for Native Clergy": "On The Church In Scotland",
        "June 24 , 1893": "July 25 , 1898"
    },
    {
        "Ad Extremas": "Catholicae Ecclesiae",
        "NO-HEADER1": "",
        "Seminaries for Native Clergy": "On Slavery in the Missions",
        "June 24 , 1893": "November 20 , 1890"
    },
    {
        "Ad Extremas": "Christi Nomen",
        "NO-HEADER1": "",
        "Seminaries for Native Clergy": "On the Propagation of Faith and Eastern Churches",
        "June 24 , 1893": "December 24 , 1894"
    },
    {
        "Ad Extremas": "Constanti Hungarorum",
        "NO-HEADER1": "",
        "Seminaries for Native Clergy": "On the Church in Hungary",
        "June 24 , 1893": "September 2 , 1893"
    },
    {
        "Ad Extremas": "Cum Multa",
        "NO-HEADER1": "",
        "Seminaries for Native Clergy": "On Conditions in Spain",
        "June 24 , 1893": "December 8 , 1882"
    },
    {
        "Ad Extremas": "Custodi Di Quella Fede",
        "NO-HEADER1": "",
        "Seminaries for Native Clergy": "On Freemasonry",
        "June 24 , 1893": "December 8 , 1892"
    },
    {
        "Ad Extremas": "Dall'alto Dell'apostolico Seggio",
        "NO-HEADER1": "",
        "Seminaries for Native Clergy": "On Freemasonry in Italy",
        "June 24 , 1893": "October 15 , 1890"
    },
    {
        "Ad Extremas": "Depuis Le Jour",
        "NO-HEADER1": "",
        "Seminaries for Native Clergy": "On The Education Of The Clergy",
        "June 24 , 1893": "September 8 , 1899"
    },
    {
        "Ad Extremas": "Diuturni Temporis",
        "NO-HEADER1": "",
        "Seminaries for Native Clergy": "On The Rosary",
        "June 24 , 1893": "September 5 , 1898"
    },
    {
        "Ad Extremas": "Diuturnum",
        "NO-HEADER1": "",
        "Seminaries for Native Clergy": "On the Origin of Civil Power",
        "June 24 , 1893": "June 29 , 1881"
    },
    {
        "Ad Extremas": "Divinum Illud Munus",
        "NO-HEADER1": "",
        "Seminaries for Native Clergy": "On The Holy Spirit",
        "June 24 , 1893": "May 9 , 1897"
    },
    {
        "Ad Extremas": "Dum Multa",
        "NO-HEADER1": "",
        "Seminaries for Native Clergy": "Marriage Legislation",
        "June 24 , 1893": "December 24 , 1902"
    },
    {
        "Ad Extremas": "Etsi Cunctas",
        "NO-HEADER1": "",
        "Seminaries for Native Clergy": "On the Church in Ireland",
        "June 24 , 1893": "December 21 , 1888"
    },
    {
        "Ad Extremas": "Etsi Nos",
        "NO-HEADER1": "",
        "Seminaries for Native Clergy": "On Conditions in Italy",
        "June 24 , 1893": "February 15 , 1882"
    },
    {
        "Ad Extremas": "Exeunte Lam Anno",
        "NO-HEADER1": "",
        "Seminaries for Native Clergy": "On the Right Ordering of Christian Life",
        "June 24 , 1893": "December 25 , 1888"
    },
    {
        "Ad Extremas": "Fidentem Piumque Animum",
        "NO-HEADER1": "",
        "Seminaries for Native Clergy": "On The Rosary",
        "June 24 , 1893": "September 20 , 1896"
    },
    {
        "Ad Extremas": "Fin Dal Principio",
        "NO-HEADER1": "",
        "Seminaries for Native Clergy": "On The Education Of The Clergy",
        "June 24 , 1893": "December 8 , 1902"
    },
    {
        "Ad Extremas": "Grande Munus",
        "NO-HEADER1": "",
        "Seminaries for Native Clergy": "On Saints Cyril and Methodius",
        "June 24 , 1893": "February 10 , 1880"
    },
    {
        "Ad Extremas": "Graves De Communi Re",
        "NO-HEADER1": "",
        "Seminaries for Native Clergy": "On Christian Democracy",
        "June 24 , 1893": "January 18 , 1901"
    },
    {
        "Ad Extremas": "Gravissimas",
        "NO-HEADER1": "",
        "Seminaries for Native Clergy": "On Religious Orders In Portugal",
        "June 24 , 1893": "16 , 1901"
    },
    {
        "Ad Extremas": "Humanum Genus",
        "NO-HEADER1": "",
        "Seminaries for Native Clergy": "On Freemasonry",
        "June 24 , 1893": "March 20 , 1884"
    },
    {
        "Ad Extremas": "Iampridem",
        "NO-HEADER1": "",
        "Seminaries for Native Clergy": "On Catholicism in Germany",
        "June 24 , 1893": "January 6 , 1886"
    },
    {
        "Ad Extremas": "Immortale Dei",
        "NO-HEADER1": "",
        "Seminaries for Native Clergy": "On the Christian Constitution of States",
        "June 24 , 1893": "November 1 , 1885"
    },
    {
        "Ad Extremas": "In Amplissimo",
        "NO-HEADER1": "",
        "Seminaries for Native Clergy": "On The Church In The United States",
        "June 24 , 1893": "April 15 , 1902"
    },
    {
        "Ad Extremas": "In Ipso",
        "NO-HEADER1": "",
        "Seminaries for Native Clergy": "On Episcopal Reunions in Austria",
        "June 24 , 1893": "March 3 , 1891"
    },
    {
        "Ad Extremas": "In Plurimism",
        "NO-HEADER1": "",
        "Seminaries for Native Clergy": "On the Abolition of Slavery",
        "June 24 , 1893": "May 5 , 1888"
    },
    {
        "Ad Extremas": "Inimica Vis",
        "NO-HEADER1": "",
        "Seminaries for Native Clergy": "On Freemasonry",
        "June 24 , 1893": "December 8 , 1892"
    },
    {
        "Ad Extremas": "Inscrutabili Dei Consilio",
        "NO-HEADER1": "",
        "Seminaries for Native Clergy": "On the Evils of Society",
        "June 24 , 1893": "April 21 , 1878"
    },
    {
        "Ad Extremas": "Insignes",
        "NO-HEADER1": "",
        "Seminaries for Native Clergy": "On The Hungarian Millennium",
        "June 24 , 1893": "May 1 , 1896"
    },
    {
        "Ad Extremas": "Iucunda Semper Expectatione",
        "NO-HEADER1": "",
        "Seminaries for Native Clergy": "",
        "June 24 , 1893": "September 8 , 1894"
    },
    {
        "Ad Extremas": "Laetitiae Sanctae",
        "NO-HEADER1": "",
        "Seminaries for Native Clergy": "On the Rosary",
        "June 24 , 1893": "September 8 , 1893"
    },
    {
        "Ad Extremas": "Libertas",
        "NO-HEADER1": "",
        "Seminaries for Native Clergy": "On the Nature of Human Liberty",
        "June 24 , 1893": "June 20 , 1888"
    },
    {
        "Ad Extremas": "Licet Multa",
        "NO-HEADER1": "",
        "Seminaries for Native Clergy": "On Catholics in Belgium",
        "June 24 , 1893": "August 3 , 1881"
    },
    {
        "Ad Extremas": "Litteras A Vobis",
        "NO-HEADER1": "",
        "Seminaries for Native Clergy": "On the Clergy in Brazil",
        "June 24 , 1893": "July 2 , 1894"
    },
    {
        "Ad Extremas": "Longinqua",
        "NO-HEADER1": "",
        "Seminaries for Native Clergy": "On Catholicism In The United States",
        "June 24 , 1893": "January 6 , 1895"
    },
    {
        "Ad Extremas": "Lucunda Semper Expectatione",
        "NO-HEADER1": "",
        "Seminaries for Native Clergy": "On the Rosary",
        "June 24 , 1893": "September 8 , 1894"
    },
    {
        "Ad Extremas": "Magnae Dei Matris",
        "NO-HEADER1": "",
        "Seminaries for Native Clergy": "On the Rosary",
        "June 24 , 1893": "September 8 , 1892"
    },
    {
        "Ad Extremas": "Magni Nobis",
        "NO-HEADER1": "",
        "Seminaries for Native Clergy": "On the Catholic University of America",
        "June 24 , 1893": "March 7 , 1889"
    },
    {
        "Ad Extremas": "Militantis Ecclesiae",
        "NO-HEADER1": "",
        "Seminaries for Native Clergy": "On St . Peter Canisius",
        "June 24 , 1893": "August 1 , 1897"
    },
    {
        "Ad Extremas": "Mirae Caritatis",
        "NO-HEADER1": "",
        "Seminaries for Native Clergy": "On The Holy Eucharist",
        "June 24 , 1893": "May 28 , 1902"
    },
    {
        "Ad Extremas": "Nobilissima Gallorum Gens",
        "NO-HEADER1": "",
        "Seminaries for Native Clergy": "On the Religious Question in France",
        "June 24 , 1893": "February 8 , 1884"
    },
    {
        "Ad Extremas": "Octobri Mense",
        "NO-HEADER1": "",
        "Seminaries for Native Clergy": "On the Rosary",
        "June 24 , 1893": "September 22 , 1891"
    },
    {
        "Ad Extremas": "Officio Sanctissimo",
        "NO-HEADER1": "",
        "Seminaries for Native Clergy": "On the Church in Bavaria",
        "June 24 , 1893": "December 22 , 1887"
    },
    {
        "Ad Extremas": "Omnibus Compertum",
        "NO-HEADER1": "",
        "Seminaries for Native Clergy": "On Unity Among The Greek Melchites",
        "June 24 , 1893": "July 21 , 1900"
    },
    {
        "Ad Extremas": "Pastoralis",
        "NO-HEADER1": "",
        "Seminaries for Native Clergy": "On Religious Union",
        "June 24 , 1893": "June 25 , 1891"
    },
    {
        "Ad Extremas": "Pastoralis Officii",
        "NO-HEADER1": "",
        "Seminaries for Native Clergy": "On the Morality of Dueling",
        "June 24 , 1893": "September 12 , 1891"
    },
    {
        "Ad Extremas": "Paternae",
        "NO-HEADER1": "",
        "Seminaries for Native Clergy": "On The Education Of Clergy",
        "June 24 , 1893": "September 18 , 1899"
    },
    {
        "Ad Extremas": "Paterna Caritas",
        "NO-HEADER1": "",
        "Seminaries for Native Clergy": "Encyclical on Reunion with Rome",
        "June 24 , 1893": "July 25 , 1888"
    },
    {
        "Ad Extremas": "Pergrata",
        "NO-HEADER1": "",
        "Seminaries for Native Clergy": "On the Church in Portugal",
        "June 24 , 1893": "September 14 , 1886"
    },
    {
        "Ad Extremas": "Permoti Nos",
        "NO-HEADER1": "",
        "Seminaries for Native Clergy": "On Social Conditions In Belgium",
        "June 24 , 1893": "July 10 , 1895"
    },
    {
        "Ad Extremas": "Providentissimus Deus",
        "NO-HEADER1": "",
        "Seminaries for Native Clergy": "On the Study of Sacred Scripture",
        "June 24 , 1893": "November 18 , 1893"
    },
    {
        "Ad Extremas": "Quae Ad Nos",
        "NO-HEADER1": "",
        "Seminaries for Native Clergy": "On The Church In Bohemia And Moravia",
        "June 24 , 1893": "November 22 , 1902"
    },
    {
        "Ad Extremas": "Quam Aerumnosa",
        "NO-HEADER1": "",
        "Seminaries for Native Clergy": "On Italian Immigrants",
        "June 24 , 1893": "December 10 , 1888"
    },
    {
        "Ad Extremas": "Quamquam Pluries",
        "NO-HEADER1": "",
        "Seminaries for Native Clergy": "On Devotion to St . Joseph",
        "June 24 , 1893": "August 15 , 1889"
    },
    {
        "Ad Extremas": "Quam Religiosa",
        "NO-HEADER1": "",
        "Seminaries for Native Clergy": "On Civil Marriage Law",
        "June 24 , 1893": "August 16 , 1898"
    },
    {
        "Ad Extremas": "Quarto Abeunte Saeculo",
        "NO-HEADER1": "",
        "Seminaries for Native Clergy": "On the Columbus Quadricentennial",
        "June 24 , 1893": "July 16 , 1892"
    },
    {
        "Ad Extremas": "Quod Anniversarius",
        "NO-HEADER1": "",
        "Seminaries for Native Clergy": "On the Occasion of the Sacerdotal Jubilee of Leo",
        "June 24 , 1893": "April 11 , 1888"
    },
    {
        "Ad Extremas": "Quod Apostolici Muneris",
        "NO-HEADER1": "",
        "Seminaries for Native Clergy": "On the Evils of Socialism",
        "June 24 , 1893": "December 28 , 1878"
    },
    {
        "Ad Extremas": "Quod Auctoritate",
        "NO-HEADER1": "",
        "Seminaries for Native Clergy": "Proclaiming the Extraordinary",
        "June 24 , 1893": "December 22 , 1885"
    },
    {
        "Ad Extremas": "Quod Multum",
        "NO-HEADER1": "",
        "Seminaries for Native Clergy": "On the Liberty of the Church",
        "June 24 , 1893": "August 22 , 1886"
    },
    {
        "Ad Extremas": "Quod Votis",
        "NO-HEADER1": "",
        "Seminaries for Native Clergy": "On The Proposed Catholic University",
        "June 24 , 1893": "April 30 , 1902"
    },
    {
        "Ad Extremas": "Quum Diuturnum",
        "NO-HEADER1": "",
        "Seminaries for Native Clergy": "On The Latin American Bishop's Plenary Council",
        "June 24 , 1893": "December 25 , 1898"
    },
    {
        "Ad Extremas": "Reputantiubus",
        "NO-HEADER1": "",
        "Seminaries for Native Clergy": "On The Language Question In Bohemia",
        "June 24 , 1893": "August 20 , 1901"
    },
    {
        "Ad Extremas": "Rerum Novarum",
        "NO-HEADER1": "",
        "Seminaries for Native Clergy": "On the Condition of the Working Classes",
        "June 24 , 1893": "May 15 , 1891"
    },
    {
        "Ad Extremas": "Saepe Nos",
        "NO-HEADER1": "",
        "Seminaries for Native Clergy": "On Boycotting in Ireland",
        "June 24 , 1893": "June 24 , 1888"
    },
    {
        "Ad Extremas": "Sancta Dei Civitas",
        "NO-HEADER1": "",
        "Seminaries for Native Clergy": "On Mission Societies",
        "June 24 , 1893": "December 3 , 1880"
    },
    {
        "Ad Extremas": "Sapientiae Christianae",
        "NO-HEADER1": "",
        "Seminaries for Native Clergy": "On Christians as Citizens",
        "June 24 , 1893": "January 10 , 1890"
    },
    {
        "Ad Extremas": "Satis Cognitum",
        "NO-HEADER1": "",
        "Seminaries for Native Clergy": "On The Unity Of The Church",
        "June 24 , 1893": "June 29 , 1896"
    },
    {
        "Ad Extremas": "Spectata Fides",
        "NO-HEADER1": "",
        "Seminaries for Native Clergy": "On Christian Education",
        "June 24 , 1893": "November 27 , 1885"
    },
    {
        "Ad Extremas": "Spesse Volte",
        "NO-HEADER1": "",
        "Seminaries for Native Clergy": "On The Suppression Of Catholic Institutions",
        "June 24 , 1893": "August 5 , 1898"
    },
    {
        "Ad Extremas": "Superiore Anno",
        "NO-HEADER1": "",
        "Seminaries for Native Clergy": "On the Recitation Of The Rosary",
        "June 24 , 1893": "August 30 , 1884"
    },
    {
        "Ad Extremas": "Supremi Apostolatus Officio",
        "NO-HEADER1": "",
        "Seminaries for Native Clergy": "On Devotion of the Rosary",
        "June 24 , 1893": "September 1 , 1883"
    },
    {
        "Ad Extremas": "Tametsi Futura Prospicientibus",
        "NO-HEADER1": "",
        "Seminaries for Native Clergy": "Jesus Christ The Redeemer",
        "June 24 , 1893": "November 1 , 1900"
    },
    {
        "Ad Extremas": "Testem Benevolentiae Nostrae",
        "NO-HEADER1": "",
        "Seminaries for Native Clergy": "Virtue , Nature And Grace , With Regard To Americanism",
        "June 24 , 1893": "January 22 , 1899"
    },
    {
        "Ad Extremas": "Urbanitatis Veteris",
        "NO-HEADER1": "",
        "Seminaries for Native Clergy": "On The Foundation Of A Seminary In Athens",
        "June 24 , 1893": "November 20 , 1901"
    },
    {
        "Ad Extremas": "Vi E Ben Noto",
        "NO-HEADER1": "",
        "Seminaries for Native Clergy": "On the Rosary and Public Life",
        "June 24 , 1893": "September 20 , 1887"
    }
]