[
    {
        "NO-HEADER0": "",
        "NO-HEADER1": ""
    },
    {
        "NO-HEADER0": "",
        "NO-HEADER1": ""
    },
    {
        "NO-HEADER0": "",
        "NO-HEADER1": ""
    },
    {
        "NO-HEADER0": "",
        "NO-HEADER1": ""
    },
    {
        "NO-HEADER0": "",
        "NO-HEADER1": ""
    },
    {
        "NO-HEADER0": "",
        "NO-HEADER1": ""
    },
    {
        "NO-HEADER0": "",
        "NO-HEADER1": ""
    },
    {
        "NO-HEADER0": "",
        "NO-HEADER1": ""
    },
    {
        "NO-HEADER0": "",
        "NO-HEADER1": ""
    },
    {
        "NO-HEADER0": "",
        "NO-HEADER1": ""
    },
    {
        "NO-HEADER0": "",
        "NO-HEADER1": ""
    },
    {
        "NO-HEADER0": "",
        "NO-HEADER1": ""
    },
    {
        "NO-HEADER0": "E . L . Konigsburg",
        "NO-HEADER1": "The View From Saturday"
    },
    {
        "NO-HEADER0": "",
        "NO-HEADER1": ""
    },
    {
        "NO-HEADER0": "",
        "NO-HEADER1": ""
    },
    {
        "NO-HEADER0": "",
        "NO-HEADER1": ""
    },
    {
        "NO-HEADER0": "",
        "NO-HEADER1": ""
    },
    {
        "NO-HEADER0": "",
        "NO-HEADER1": ""
    },
    {
        "NO-HEADER0": "",
        "NO-HEADER1": ""
    },
    {
        "NO-HEADER0": "",
        "NO-HEADER1": ""
    },
    {
        "NO-HEADER0": "",
        "NO-HEADER1": ""
    },
    {
        "NO-HEADER0": "",
        "NO-HEADER1": ""
    },
    {
        "NO-HEADER0": "",
        "NO-HEADER1": ""
    },
    {
        "NO-HEADER0": "",
        "NO-HEADER1": ""
    },
    {
        "NO-HEADER0": "",
        "NO-HEADER1": ""
    },
    {
        "NO-HEADER0": "",
        "NO-HEADER1": ""
    },
    {
        "NO-HEADER0": "",
        "NO-HEADER1": ""
    },
    {
        "NO-HEADER0": "",
        "NO-HEADER1": ""
    },
    {
        "NO-HEADER0": "",
        "NO-HEADER1": ""
    },
    {
        "NO-HEADER0": "",
        "NO-HEADER1": ""
    },
    {
        "NO-HEADER0": "",
        "NO-HEADER1": ""
    },
    {
        "NO-HEADER0": "",
        "NO-HEADER1": ""
    },
    {
        "NO-HEADER0": "",
        "NO-HEADER1": ""
    },
    {
        "NO-HEADER0": "",
        "NO-HEADER1": ""
    },
    {
        "NO-HEADER0": "",
        "NO-HEADER1": ""
    },
    {
        "NO-HEADER0": "",
        "NO-HEADER1": ""
    },
    {
        "NO-HEADER0": "Karen Cushman",
        "NO-HEADER1": "The Midwife's Apprentice"
    },
    {
        "NO-HEADER0": "",
        "NO-HEADER1": ""
    },
    {
        "NO-HEADER0": "",
        "NO-HEADER1": ""
    },
    {
        "NO-HEADER0": "",
        "NO-HEADER1": ""
    },
    {
        "NO-HEADER0": "",
        "NO-HEADER1": ""
    },
    {
        "NO-HEADER0": "",
        "NO-HEADER1": ""
    },
    {
        "NO-HEADER0": "",
        "NO-HEADER1": ""
    },
    {
        "NO-HEADER0": "",
        "NO-HEADER1": ""
    },
    {
        "NO-HEADER0": "",
        "NO-HEADER1": ""
    },
    {
        "NO-HEADER0": "",
        "NO-HEADER1": ""
    },
    {
        "NO-HEADER0": "",
        "NO-HEADER1": ""
    },
    {
        "NO-HEADER0": "",
        "NO-HEADER1": ""
    },
    {
        "NO-HEADER0": "",
        "NO-HEADER1": ""
    },
    {
        "NO-HEADER0": "",
        "NO-HEADER1": ""
    },
    {
        "NO-HEADER0": "Sharon Creech",
        "NO-HEADER1": "Walk Two Moons"
    },
    {
        "NO-HEADER0": "",
        "NO-HEADER1": ""
    },
    {
        "NO-HEADER0": "",
        "NO-HEADER1": ""
    },
    {
        "NO-HEADER0": "",
        "NO-HEADER1": ""
    },
    {
        "NO-HEADER0": "",
        "NO-HEADER1": ""
    },
    {
        "NO-HEADER0": "",
        "NO-HEADER1": ""
    },
    {
        "NO-HEADER0": "",
        "NO-HEADER1": ""
    },
    {
        "NO-HEADER0": "",
        "NO-HEADER1": ""
    },
    {
        "NO-HEADER0": "",
        "NO-HEADER1": ""
    },
    {
        "NO-HEADER0": "",
        "NO-HEADER1": ""
    },
    {
        "NO-HEADER0": "",
        "NO-HEADER1": ""
    },
    {
        "NO-HEADER0": "",
        "NO-HEADER1": ""
    },
    {
        "NO-HEADER0": "",
        "NO-HEADER1": ""
    },
    {
        "NO-HEADER0": "",
        "NO-HEADER1": ""
    },
    {
        "NO-HEADER0": "",
        "NO-HEADER1": ""
    },
    {
        "NO-HEADER0": "",
        "NO-HEADER1": ""
    },
    {
        "NO-HEADER0": "Phyllis Reynolds Naylor",
        "NO-HEADER1": "The Boys Start The War"
    },
    {
        "NO-HEADER0": "",
        "NO-HEADER1": ""
    },
    {
        "NO-HEADER0": "Carolyn Meyer",
        "NO-HEADER1": "White Lilacs"
    },
    {
        "NO-HEADER0": "",
        "NO-HEADER1": ""
    },
    {
        "NO-HEADER0": "",
        "NO-HEADER1": ""
    },
    {
        "NO-HEADER0": "",
        "NO-HEADER1": ""
    },
    {
        "NO-HEADER0": "",
        "NO-HEADER1": ""
    },
    {
        "NO-HEADER0": "",
        "NO-HEADER1": ""
    },
    {
        "NO-HEADER0": "",
        "NO-HEADER1": ""
    },
    {
        "NO-HEADER0": "Lois Lowry",
        "NO-HEADER1": "The Giver"
    },
    {
        "NO-HEADER0": "",
        "NO-HEADER1": ""
    },
    {
        "NO-HEADER0": "Lois Lowry",
        "NO-HEADER1": "Attaboy , Sam !"
    },
    {
        "NO-HEADER0": "",
        "NO-HEADER1": ""
    },
    {
        "NO-HEADER0": "",
        "NO-HEADER1": ""
    },
    {
        "NO-HEADER0": "Michael Dorris",
        "NO-HEADER1": "Morning Girl"
    },
    {
        "NO-HEADER0": "",
        "NO-HEADER1": "Pick - Up Sticks"
    },
    {
        "NO-HEADER0": "",
        "NO-HEADER1": ""
    },
    {
        "NO-HEADER0": "",
        "NO-HEADER1": ""
    },
    {
        "NO-HEADER0": "",
        "NO-HEADER1": ""
    },
    {
        "NO-HEADER0": "",
        "NO-HEADER1": ""
    },
    {
        "NO-HEADER0": "",
        "NO-HEADER1": ""
    },
    {
        "NO-HEADER0": "",
        "NO-HEADER1": ""
    },
    {
        "NO-HEADER0": "",
        "NO-HEADER1": ""
    },
    {
        "NO-HEADER0": "",
        "NO-HEADER1": ""
    },
    {
        "NO-HEADER0": "",
        "NO-HEADER1": ""
    },
    {
        "NO-HEADER0": "",
        "NO-HEADER1": ""
    },
    {
        "NO-HEADER0": "",
        "NO-HEADER1": ""
    },
    {
        "NO-HEADER0": "",
        "NO-HEADER1": ""
    },
    {
        "NO-HEADER0": "",
        "NO-HEADER1": ""
    },
    {
        "NO-HEADER0": "",
        "NO-HEADER1": ""
    },
    {
        "NO-HEADER0": "",
        "NO-HEADER1": ""
    },
    {
        "NO-HEADER0": "",
        "NO-HEADER1": ""
    },
    {
        "NO-HEADER0": "",
        "NO-HEADER1": ""
    },
    {
        "NO-HEADER0": "Katherine Paterson",
        "NO-HEADER1": "Lyddie"
    },
    {
        "NO-HEADER0": "",
        "NO-HEADER1": ""
    },
    {
        "NO-HEADER0": "",
        "NO-HEADER1": ""
    },
    {
        "NO-HEADER0": "",
        "NO-HEADER1": ""
    },
    {
        "NO-HEADER0": "",
        "NO-HEADER1": ""
    },
    {
        "NO-HEADER0": "Phyllis Reynolds Naylor",
        "NO-HEADER1": "Shiloh"
    },
    {
        "NO-HEADER0": "",
        "NO-HEADER1": ""
    },
    {
        "NO-HEADER0": "",
        "NO-HEADER1": ""
    },
    {
        "NO-HEADER0": "",
        "NO-HEADER1": ""
    },
    {
        "NO-HEADER0": "",
        "NO-HEADER1": ""
    },
    {
        "NO-HEADER0": "",
        "NO-HEADER1": ""
    },
    {
        "NO-HEADER0": "Avi",
        "NO-HEADER1": "Nothing But The Truth"
    },
    {
        "NO-HEADER0": "",
        "NO-HEADER1": "Two Moons In August"
    },
    {
        "NO-HEADER0": "",
        "NO-HEADER1": ""
    },
    {
        "NO-HEADER0": "",
        "NO-HEADER1": ""
    },
    {
        "NO-HEADER0": "",
        "NO-HEADER1": ""
    },
    {
        "NO-HEADER0": "Virginia Hamilton",
        "NO-HEADER1": "Cousins"
    },
    {
        "NO-HEADER0": "Jerry Spinelli",
        "NO-HEADER1": "Maniac Magee"
    },
    {
        "NO-HEADER0": "",
        "NO-HEADER1": ""
    },
    {
        "NO-HEADER0": "",
        "NO-HEADER1": ""
    },
    {
        "NO-HEADER0": "",
        "NO-HEADER1": ""
    },
    {
        "NO-HEADER0": "",
        "NO-HEADER1": ""
    },
    {
        "NO-HEADER0": "",
        "NO-HEADER1": ""
    },
    {
        "NO-HEADER0": "Avi",
        "NO-HEADER1": "The True Confessions Of Charlotte Doyle"
    },
    {
        "NO-HEADER0": "",
        "NO-HEADER1": ""
    },
    {
        "NO-HEADER0": "",
        "NO-HEADER1": ""
    },
    {
        "NO-HEADER0": "",
        "NO-HEADER1": ""
    },
    {
        "NO-HEADER0": "",
        "NO-HEADER1": ""
    },
    {
        "NO-HEADER0": "",
        "NO-HEADER1": ""
    },
    {
        "NO-HEADER0": "",
        "NO-HEADER1": ""
    },
    {
        "NO-HEADER0": "",
        "NO-HEADER1": ""
    },
    {
        "NO-HEADER0": "",
        "NO-HEADER1": ""
    },
    {
        "NO-HEADER0": "",
        "NO-HEADER1": ""
    },
    {
        "NO-HEADER0": "",
        "NO-HEADER1": ""
    },
    {
        "NO-HEADER0": "",
        "NO-HEADER1": ""
    },
    {
        "NO-HEADER0": "",
        "NO-HEADER1": ""
    },
    {
        "NO-HEADER0": "Phyllis Reynolds Naylor",
        "NO-HEADER1": "Alice In Rapture , Sort Of"
    },
    {
        "NO-HEADER0": "",
        "NO-HEADER1": ""
    },
    {
        "NO-HEADER0": "",
        "NO-HEADER1": ""
    },
    {
        "NO-HEADER0": "",
        "NO-HEADER1": ""
    },
    {
        "NO-HEADER0": "",
        "NO-HEADER1": ""
    },
    {
        "NO-HEADER0": "",
        "NO-HEADER1": ""
    },
    {
        "NO-HEADER0": "",
        "NO-HEADER1": ""
    },
    {
        "NO-HEADER0": "Lois Lowry",
        "NO-HEADER1": "Number The Stars"
    },
    {
        "NO-HEADER0": "",
        "NO-HEADER1": ""
    },
    {
        "NO-HEADER0": "",
        "NO-HEADER1": "The Sky Is Falling"
    },
    {
        "NO-HEADER0": "",
        "NO-HEADER1": ""
    },
    {
        "NO-HEADER0": "",
        "NO-HEADER1": ""
    },
    {
        "NO-HEADER0": "",
        "NO-HEADER1": ""
    },
    {
        "NO-HEADER0": "",
        "NO-HEADER1": ""
    },
    {
        "NO-HEADER0": "",
        "NO-HEADER1": ""
    },
    {
        "NO-HEADER0": "",
        "NO-HEADER1": ""
    },
    {
        "NO-HEADER0": "",
        "NO-HEADER1": ""
    },
    {
        "NO-HEADER0": "",
        "NO-HEADER1": ""
    },
    {
        "NO-HEADER0": "Lois Lowry",
        "NO-HEADER1": "All About Sam"
    },
    {
        "NO-HEADER0": "",
        "NO-HEADER1": ""
    },
    {
        "NO-HEADER0": "Scott O'Dell",
        "NO-HEADER1": "Black Star , Bright Dawn"
    },
    {
        "NO-HEADER0": "",
        "NO-HEADER1": ""
    },
    {
        "NO-HEADER0": "",
        "NO-HEADER1": ""
    },
    {
        "NO-HEADER0": "",
        "NO-HEADER1": ""
    },
    {
        "NO-HEADER0": "",
        "NO-HEADER1": ""
    },
    {
        "NO-HEADER0": "",
        "NO-HEADER1": ""
    },
    {
        "NO-HEADER0": "Betsy Byars",
        "NO-HEADER1": "The Burning Questions Of Bingo Brown"
    },
    {
        "NO-HEADER0": "",
        "NO-HEADER1": ""
    },
    {
        "NO-HEADER0": "",
        "NO-HEADER1": ""
    },
    {
        "NO-HEADER0": "",
        "NO-HEADER1": ""
    },
    {
        "NO-HEADER0": "",
        "NO-HEADER1": ""
    },
    {
        "NO-HEADER0": "",
        "NO-HEADER1": ""
    },
    {
        "NO-HEADER0": "",
        "NO-HEADER1": ""
    },
    {
        "NO-HEADER0": "",
        "NO-HEADER1": ""
    },
    {
        "NO-HEADER0": "",
        "NO-HEADER1": ""
    },
    {
        "NO-HEADER0": "",
        "NO-HEADER1": ""
    },
    {
        "NO-HEADER0": "",
        "NO-HEADER1": ""
    },
    {
        "NO-HEADER0": "",
        "NO-HEADER1": ""
    },
    {
        "NO-HEADER0": "Phyllis Reynolds Naylor",
        "NO-HEADER1": "Beetles , Lightly Toasted"
    },
    {
        "NO-HEADER0": "",
        "NO-HEADER1": ""
    },
    {
        "NO-HEADER0": "",
        "NO-HEADER1": ""
    },
    {
        "NO-HEADER0": "",
        "NO-HEADER1": ""
    },
    {
        "NO-HEADER0": "",
        "NO-HEADER1": ""
    },
    {
        "NO-HEADER0": "",
        "NO-HEADER1": ""
    },
    {
        "NO-HEADER0": "",
        "NO-HEADER1": ""
    },
    {
        "NO-HEADER0": "",
        "NO-HEADER1": ""
    },
    {
        "NO-HEADER0": "Betsy Byars",
        "NO-HEADER1": "The Blossoms And The Green Phantom"
    },
    {
        "NO-HEADER0": "",
        "NO-HEADER1": ""
    },
    {
        "NO-HEADER0": "",
        "NO-HEADER1": ""
    },
    {
        "NO-HEADER0": "Louis Sachar",
        "NO-HEADER1": "There's A Boy In The Girl's Bathroom"
    },
    {
        "NO-HEADER0": "",
        "NO-HEADER1": ""
    },
    {
        "NO-HEADER0": "",
        "NO-HEADER1": ""
    },
    {
        "NO-HEADER0": "",
        "NO-HEADER1": ""
    },
    {
        "NO-HEADER0": "",
        "NO-HEADER1": ""
    },
    {
        "NO-HEADER0": "",
        "NO-HEADER1": ""
    },
    {
        "NO-HEADER0": "",
        "NO-HEADER1": ""
    },
    {
        "NO-HEADER0": "Jane Leslie Conly",
        "NO-HEADER1": "Racso And The Rats Of NIMH"
    },
    {
        "NO-HEADER0": "",
        "NO-HEADER1": ""
    },
    {
        "NO-HEADER0": "",
        "NO-HEADER1": "Shadow in Hawthorn Bay"
    },
    {
        "NO-HEADER0": "Betsy Byars",
        "NO-HEADER1": "The Blossoms Meet The Vulture Lady"
    },
    {
        "NO-HEADER0": "",
        "NO-HEADER1": ""
    },
    {
        "NO-HEADER0": "Betsy Byars",
        "NO-HEADER1": "The Not - Just - Anybody Family"
    },
    {
        "NO-HEADER0": "",
        "NO-HEADER1": ""
    },
    {
        "NO-HEADER0": "",
        "NO-HEADER1": ""
    },
    {
        "NO-HEADER0": "Sid Fleischman",
        "NO-HEADER1": "The Whipping Boy"
    },
    {
        "NO-HEADER0": "E . L . Konigsburg",
        "NO-HEADER1": "Up From Jericho Tel"
    },
    {
        "NO-HEADER0": "",
        "NO-HEADER1": ""
    },
    {
        "NO-HEADER0": "",
        "NO-HEADER1": ""
    },
    {
        "NO-HEADER0": "",
        "NO-HEADER1": ""
    },
    {
        "NO-HEADER0": "Lois Lowry",
        "NO-HEADER1": "Anastasia On Her Own"
    },
    {
        "NO-HEADER0": "",
        "NO-HEADER1": ""
    },
    {
        "NO-HEADER0": "",
        "NO-HEADER1": ""
    },
    {
        "NO-HEADER0": "",
        "NO-HEADER1": ""
    },
    {
        "NO-HEADER0": "Katherine Paterson",
        "NO-HEADER1": "Come Sing , Jimmy Jo"
    },
    {
        "NO-HEADER0": "Betsy Byars",
        "NO-HEADER1": "Cracker Jackson"
    },
    {
        "NO-HEADER0": "",
        "NO-HEADER1": ""
    },
    {
        "NO-HEADER0": "",
        "NO-HEADER1": "Devil On My Back"
    },
    {
        "NO-HEADER0": "",
        "NO-HEADER1": "Julie"
    },
    {
        "NO-HEADER0": "Patricia MacLachlan",
        "NO-HEADER1": "Sarah , Plain & Tall"
    },
    {
        "NO-HEADER0": "",
        "NO-HEADER1": ""
    },
    {
        "NO-HEADER0": "Lois Lowry",
        "NO-HEADER1": "Switcharound"
    },
    {
        "NO-HEADER0": "",
        "NO-HEADER1": ""
    },
    {
        "NO-HEADER0": "",
        "NO-HEADER1": ""
    },
    {
        "NO-HEADER0": "Irene Hunt",
        "NO-HEADER1": "The Everlasting Hills"
    },
    {
        "NO-HEADER0": "",
        "NO-HEADER1": ""
    },
    {
        "NO-HEADER0": "",
        "NO-HEADER1": ""
    },
    {
        "NO-HEADER0": "Louis Lowry",
        "NO-HEADER1": "Anastasia , Ask Your Analyst"
    },
    {
        "NO-HEADER0": "",
        "NO-HEADER1": ""
    },
    {
        "NO-HEADER0": "Cynthia Voigt",
        "NO-HEADER1": "Building Blocks"
    },
    {
        "NO-HEADER0": "",
        "NO-HEADER1": ""
    },
    {
        "NO-HEADER0": "",
        "NO-HEADER1": ""
    },
    {
        "NO-HEADER0": "",
        "NO-HEADER1": "Mama's Going To Buy You A Mockingbird"
    },
    {
        "NO-HEADER0": "Paula Fox",
        "NO-HEADER1": "One - eyed Cat"
    },
    {
        "NO-HEADER0": "Beverly Cleary",
        "NO-HEADER1": "Ramona Forever"
    },
    {
        "NO-HEADER0": "Lloyd Alexander",
        "NO-HEADER1": "The Beggar Queen"
    },
    {
        "NO-HEADER0": "Betsy Byars",
        "NO-HEADER1": "The Computer Nut"
    },
    {
        "NO-HEADER0": "",
        "NO-HEADER1": ""
    },
    {
        "NO-HEADER0": "Robin McKinley",
        "NO-HEADER1": "The Hero And The Crown"
    },
    {
        "NO-HEADER0": "",
        "NO-HEADER1": ""
    },
    {
        "NO-HEADER0": "Patricia MacLachlan",
        "NO-HEADER1": "Unclaimed Treasures"
    },
    {
        "NO-HEADER0": "",
        "NO-HEADER1": ""
    },
    {
        "NO-HEADER0": "",
        "NO-HEADER1": ""
    },
    {
        "NO-HEADER0": "",
        "NO-HEADER1": ""
    },
    {
        "NO-HEADER0": "Beverly Cleary",
        "NO-HEADER1": "Dear Mr . Henshaw"
    },
    {
        "NO-HEADER0": "",
        "NO-HEADER1": ""
    },
    {
        "NO-HEADER0": "",
        "NO-HEADER1": ""
    },
    {
        "NO-HEADER0": "Lois Lowry",
        "NO-HEADER1": "One Hundredth Thing About Caroline"
    },
    {
        "NO-HEADER0": "",
        "NO-HEADER1": ""
    },
    {
        "NO-HEADER0": "Lois Lowry",
        "NO-HEADER1": "Taking Care Of Terrific"
    },
    {
        "NO-HEADER0": "",
        "NO-HEADER1": ""
    },
    {
        "NO-HEADER0": "",
        "NO-HEADER1": ""
    },
    {
        "NO-HEADER0": "",
        "NO-HEADER1": ""
    },
    {
        "NO-HEADER0": "",
        "NO-HEADER1": "The Root Cellar"
    },
    {
        "NO-HEADER0": "Elizabeth George Speare",
        "NO-HEADER1": "The Sign Of The Beaver"
    },
    {
        "NO-HEADER0": "Bill Brittain",
        "NO-HEADER1": "The Wish Giver"
    },
    {
        "NO-HEADER0": "",
        "NO-HEADER1": ""
    },
    {
        "NO-HEADER0": "",
        "NO-HEADER1": ""
    },
    {
        "NO-HEADER0": "Lois Lowry",
        "NO-HEADER1": "Anastasia At Your Service"
    },
    {
        "NO-HEADER0": "Cynthia Voigt",
        "NO-HEADER1": "Dicey's Song"
    },
    {
        "NO-HEADER0": "",
        "NO-HEADER1": ""
    },
    {
        "NO-HEADER0": "",
        "NO-HEADER1": ""
    },
    {
        "NO-HEADER0": "",
        "NO-HEADER1": ""
    },
    {
        "NO-HEADER0": "E . L . Konigsburg",
        "NO-HEADER1": "Journey To An 800 Number"
    },
    {
        "NO-HEADER0": "Beverly Cleary",
        "NO-HEADER1": "Ralph S . Mouse"
    },
    {
        "NO-HEADER0": "Mary Rodgers",
        "NO-HEADER1": "Summer Switch"
    },
    {
        "NO-HEADER0": "",
        "NO-HEADER1": ""
    },
    {
        "NO-HEADER0": "Robin McKinley",
        "NO-HEADER1": "The Blue Sword"
    },
    {
        "NO-HEADER0": "",
        "NO-HEADER1": ""
    },
    {
        "NO-HEADER0": "",
        "NO-HEADER1": ""
    },
    {
        "NO-HEADER0": "",
        "NO-HEADER1": "The Guardian Of Isis"
    },
    {
        "NO-HEADER0": "Betsy Byars",
        "NO-HEADER1": "The Two Thousand Pound Goldfish"
    },
    {
        "NO-HEADER0": "",
        "NO-HEADER1": ""
    }
]