[
    {
        "NO-HEADER0": "",
        "1505": "1960",
        "Website": "Website",
        "Christ's College": "Churchill College"
    },
    {
        "NO-HEADER0": "",
        "1505": "1326",
        "Website": "Website",
        "Christ's College": "Clare College"
    },
    {
        "NO-HEADER0": "",
        "1505": "1965",
        "Website": "Website",
        "Christ's College": "Clare Hall"
    },
    {
        "NO-HEADER0": "",
        "1505": "1352",
        "Website": "Website",
        "Christ's College": "Corpus Christi College"
    },
    {
        "NO-HEADER0": "",
        "1505": ", 1964",
        "Website": "Website",
        "Christ's College": "Darwin College"
    },
    {
        "NO-HEADER0": "",
        "1505": "1800",
        "Website": "Website",
        "Christ's College": "Downing College"
    },
    {
        "NO-HEADER0": "",
        "1505": "1584",
        "Website": "Website",
        "Christ's College": "Emmanuel College"
    },
    {
        "NO-HEADER0": "",
        "1505": "1966",
        "Website": "Website",
        "Christ's College": "Fitzwilliam College"
    },
    {
        "NO-HEADER0": "",
        "1505": "1869",
        "Website": "Website",
        "Christ's College": "Girton College"
    },
    {
        "NO-HEADER0": "",
        "1505": "1348",
        "Website": "Website",
        "Christ's College": "Gonville and Caius College"
    },
    {
        "NO-HEADER0": "",
        "1505": "1976",
        "Website": "Website",
        "Christ's College": "Homerton College"
    },
    {
        "NO-HEADER0": "",
        "1505": "1885",
        "Website": "Website",
        "Christ's College": "Hughes Hall"
    },
    {
        "NO-HEADER0": "",
        "1505": "1497",
        "Website": "Website",
        "Christ's College": "Jesus College"
    },
    {
        "NO-HEADER0": "",
        "1505": "1441",
        "Website": "Website",
        "Christ's College": "King's College"
    },
    {
        "NO-HEADER0": "",
        "1505": "1965",
        "Website": "Website",
        "Christ's College": "Lucy Cavendish College"
    },
    {
        "NO-HEADER0": "",
        "1505": "1428",
        "Website": "Website",
        "Christ's College": "Magdalene College"
    },
    {
        "NO-HEADER0": "",
        "1505": "1954",
        "Website": "Website",
        "Christ's College": "New Hall"
    },
    {
        "NO-HEADER0": "",
        "1505": "1871",
        "Website": "Website",
        "Christ's College": "Newnham College"
    },
    {
        "NO-HEADER0": "",
        "1505": "1347",
        "Website": "Website",
        "Christ's College": "Pembroke College"
    },
    {
        "NO-HEADER0": "",
        "1505": "1284",
        "Website": "Website",
        "Christ's College": "Peterhouse"
    },
    {
        "NO-HEADER0": "",
        "1505": "1448",
        "Website": "Website",
        "Christ's College": "Queens' College"
    },
    {
        "NO-HEADER0": "",
        "1505": "1979",
        "Website": "Website",
        "Christ's College": "Robinson College"
    },
    {
        "NO-HEADER0": "",
        "1505": "1473",
        "Website": "Website",
        "Christ's College": "St Catharine's College"
    },
    {
        "NO-HEADER0": "",
        "1505": "1896",
        "Website": "Website",
        "Christ's College": "St Edmund's College"
    },
    {
        "NO-HEADER0": "",
        "1505": "1511",
        "Website": "Website",
        "Christ's College": "St John's College"
    },
    {
        "NO-HEADER0": "",
        "1505": "1882",
        "Website": "Website",
        "Christ's College": "Selwyn College"
    },
    {
        "NO-HEADER0": "",
        "1505": "1596",
        "Website": "Website",
        "Christ's College": "Sidney Sussex College"
    },
    {
        "NO-HEADER0": "",
        "1505": "1546",
        "Website": "Website",
        "Christ's College": "Trinity College"
    },
    {
        "NO-HEADER0": "",
        "1505": "1350",
        "Website": "Website",
        "Christ's College": "Trinity Hall"
    },
    {
        "NO-HEADER0": "",
        "1505": "1965",
        "Website": "Website",
        "Christ's College": "Wolfson College"
    }
]