[
    {
        "NO-HEADER0": "",
        "Buddha Yodfa Chulaloke ( Rama I ) the Great": "Buddha Loetla Nabhalai [ ? ] ( Rama II",
        "NO-HEADER2": "",
        "NO-HEADER3": "",
        "NO-HEADER4": ""
    },
    {
        "NO-HEADER0": "",
        "Buddha Yodfa Chulaloke ( Rama I ) the Great": "Nangklao ( Rama III",
        "NO-HEADER2": "",
        "NO-HEADER3": "",
        "NO-HEADER4": ""
    },
    {
        "NO-HEADER0": "",
        "Buddha Yodfa Chulaloke ( Rama I ) the Great": "Mongkut ( Rama IV",
        "NO-HEADER2": "",
        "NO-HEADER3": "",
        "NO-HEADER4": ""
    },
    {
        "NO-HEADER0": "",
        "Buddha Yodfa Chulaloke ( Rama I ) the Great": "",
        "NO-HEADER2": "",
        "NO-HEADER3": "",
        "NO-HEADER4": ""
    },
    {
        "NO-HEADER0": "",
        "Buddha Yodfa Chulaloke ( Rama I ) the Great": "",
        "NO-HEADER2": "",
        "NO-HEADER3": "",
        "NO-HEADER4": ""
    },
    {
        "NO-HEADER0": "",
        "Buddha Yodfa Chulaloke ( Rama I ) the Great": "",
        "NO-HEADER2": "",
        "NO-HEADER3": "",
        "NO-HEADER4": ""
    },
    {
        "NO-HEADER0": "",
        "Buddha Yodfa Chulaloke ( Rama I ) the Great": "Ananda Mahidol ( Rama VIII",
        "NO-HEADER2": "",
        "NO-HEADER3": "",
        "NO-HEADER4": ""
    },
    {
        "NO-HEADER0": "",
        "Buddha Yodfa Chulaloke ( Rama I ) the Great": "Bhumibol Adulyadej ( Rama IX ) the Great",
        "NO-HEADER2": "",
        "NO-HEADER3": "",
        "NO-HEADER4": ""
    }
]