[
    {
        "Alexander Mackenzie": "",
        "NO-HEADER1": "",
        "NO-HEADER2": "",
        "NO-HEADER3": ""
    },
    {
        "Alexander Mackenzie": "Wilfrid Laurier",
        "NO-HEADER1": "",
        "NO-HEADER2": "",
        "NO-HEADER3": ""
    },
    {
        "Alexander Mackenzie": "",
        "NO-HEADER1": "",
        "NO-HEADER2": "",
        "NO-HEADER3": ""
    },
    {
        "Alexander Mackenzie": "William Lyon Mackenzie King",
        "NO-HEADER1": "",
        "NO-HEADER2": "",
        "NO-HEADER3": ""
    },
    {
        "Alexander Mackenzie": "Louis St . Laurent",
        "NO-HEADER1": "",
        "NO-HEADER2": "",
        "NO-HEADER3": ""
    },
    {
        "Alexander Mackenzie": "Lester B . Pearson",
        "NO-HEADER1": "",
        "NO-HEADER2": "",
        "NO-HEADER3": ""
    },
    {
        "Alexander Mackenzie": "Pierre Trudeau",
        "NO-HEADER1": "",
        "NO-HEADER2": "",
        "NO-HEADER3": ""
    },
    {
        "Alexander Mackenzie": "John Turner",
        "NO-HEADER1": "",
        "NO-HEADER2": "",
        "NO-HEADER3": ""
    },
    {
        "Alexander Mackenzie": "Jean Chretien",
        "NO-HEADER1": "",
        "NO-HEADER2": "",
        "NO-HEADER3": ""
    },
    {
        "Alexander Mackenzie": "Paul Martin",
        "NO-HEADER1": "",
        "NO-HEADER2": "",
        "NO-HEADER3": ""
    }
]