[
    {
        "Con Mine": "Giant Mine",
        "1938 - 2003": "1948 - 2004",
        "gold": "gold"
    },
    {
        "Con Mine": "Ptarmigan and Tom Mine",
        "1938 - 2003": "1941 - 1942 , 1985 - 1997",
        "gold": "gold"
    },
    {
        "Con Mine": "Negus Mine",
        "1938 - 2003": "1939 - 1952",
        "gold": "gold"
    },
    {
        "Con Mine": "Burwash Mine",
        "1938 - 2003": "1935",
        "gold": "gold"
    },
    {
        "Con Mine": "Thompson - Lundmark Mine",
        "1938 - 2003": "1941 - 1943 , 1947 - 1949",
        "gold": "gold"
    },
    {
        "Con Mine": "Discovery Mine",
        "1938 - 2003": "1950 - 1969",
        "gold": "gold"
    },
    {
        "Con Mine": "Camlaren Mine",
        "1938 - 2003": "1962 - 1963 , 1980 - 1981",
        "gold": "gold"
    },
    {
        "Con Mine": "Beaulieu Mine",
        "1938 - 2003": "1947 - 1948",
        "gold": "gold"
    },
    {
        "Con Mine": "Outpost Island Mine",
        "1938 - 2003": "1941 - 1942 , 1951 - 1952",
        "gold": "gold , copper , tungsten"
    },
    {
        "Con Mine": "Ruth Mine",
        "1938 - 2003": "1942 , 1959",
        "gold": "gold"
    }
]