[
    {
        "NO-HEADER0": "",
        "Force Heretic I Remnant": "",
        "Sean Williams and Shane Dix": "",
        "NO-HEADER3": ""
    },
    {
        "NO-HEADER0": "",
        "Force Heretic I Remnant": "",
        "Sean Williams and Shane Dix": "",
        "NO-HEADER3": ""
    },
    {
        "NO-HEADER0": "",
        "Force Heretic I Remnant": "",
        "Sean Williams and Shane Dix": "",
        "NO-HEADER3": ""
    },
    {
        "NO-HEADER0": "",
        "Force Heretic I Remnant": "",
        "Sean Williams and Shane Dix": "",
        "NO-HEADER3": ""
    },
    {
        "NO-HEADER0": "",
        "Force Heretic I Remnant": "",
        "Sean Williams and Shane Dix": "",
        "NO-HEADER3": ""
    },
    {
        "NO-HEADER0": "",
        "Force Heretic I Remnant": "",
        "Sean Williams and Shane Dix": "",
        "NO-HEADER3": ""
    },
    {
        "NO-HEADER0": "",
        "Force Heretic I Remnant": "",
        "Sean Williams and Shane Dix": "",
        "NO-HEADER3": ""
    },
    {
        "NO-HEADER0": "",
        "Force Heretic I Remnant": "",
        "Sean Williams and Shane Dix": "",
        "NO-HEADER3": ""
    },
    {
        "NO-HEADER0": "",
        "Force Heretic I Remnant": "Force Heretic II Refugee",
        "Sean Williams and Shane Dix": "Williams and Dix",
        "NO-HEADER3": ""
    },
    {
        "NO-HEADER0": "",
        "Force Heretic I Remnant": "",
        "Sean Williams and Shane Dix": "",
        "NO-HEADER3": ""
    },
    {
        "NO-HEADER0": "",
        "Force Heretic I Remnant": "",
        "Sean Williams and Shane Dix": "",
        "NO-HEADER3": ""
    },
    {
        "NO-HEADER0": "",
        "Force Heretic I Remnant": "Reunion",
        "Sean Williams and Shane Dix": "Dix and Williams",
        "NO-HEADER3": ""
    },
    {
        "NO-HEADER0": "",
        "Force Heretic I Remnant": "Destiny's Way",
        "Sean Williams and Shane Dix": "Walter Jon Williams",
        "NO-HEADER3": ""
    },
    {
        "NO-HEADER0": "",
        "Force Heretic I Remnant": "The Final Prophecy",
        "Sean Williams and Shane Dix": "Greg Keyes",
        "NO-HEADER3": ""
    },
    {
        "NO-HEADER0": "",
        "Force Heretic I Remnant": "The Unifying Force",
        "Sean Williams and Shane Dix": "",
        "NO-HEADER3": ""
    },
    {
        "NO-HEADER0": "",
        "Force Heretic I Remnant": "The Unifying Force",
        "Sean Williams and Shane Dix": "James Luceno",
        "NO-HEADER3": ""
    },
    {
        "NO-HEADER0": "",
        "Force Heretic I Remnant": "",
        "Sean Williams and Shane Dix": "",
        "NO-HEADER3": ""
    },
    {
        "NO-HEADER0": "",
        "Force Heretic I Remnant": "",
        "Sean Williams and Shane Dix": "",
        "NO-HEADER3": ""
    },
    {
        "NO-HEADER0": "",
        "Force Heretic I Remnant": "",
        "Sean Williams and Shane Dix": "",
        "NO-HEADER3": ""
    },
    {
        "NO-HEADER0": "",
        "Force Heretic I Remnant": "",
        "Sean Williams and Shane Dix": "",
        "NO-HEADER3": ""
    },
    {
        "NO-HEADER0": "",
        "Force Heretic I Remnant": "",
        "Sean Williams and Shane Dix": "",
        "NO-HEADER3": ""
    }
]