[
    {
        "Ad Extremas": "Adiutricem",
        "NO-HEADER1": "",
        "NO-HEADER2": "",
        "June 24 , 1893": "September 5 , 1895"
    },
    {
        "Ad Extremas": "Aeterni Patris",
        "NO-HEADER1": "",
        "NO-HEADER2": "",
        "June 24 , 1893": "August 4 , 1879"
    },
    {
        "Ad Extremas": "Affari Vos",
        "NO-HEADER1": "",
        "NO-HEADER2": "",
        "June 24 , 1893": "December 8 , 1897"
    },
    {
        "Ad Extremas": "Annum Sacrum",
        "NO-HEADER1": "",
        "NO-HEADER2": "",
        "June 24 , 1893": "May 25 , 1899"
    },
    {
        "Ad Extremas": "",
        "NO-HEADER1": "",
        "NO-HEADER2": "",
        "June 24 , 1893": ""
    },
    {
        "Ad Extremas": "Arcanum",
        "NO-HEADER1": "",
        "NO-HEADER2": "",
        "June 24 , 1893": "February 10 , 1880"
    },
    {
        "Ad Extremas": "Au Milieu Des Sollicitudes",
        "NO-HEADER1": "",
        "NO-HEADER2": "",
        "June 24 , 1893": "February 16 , 1892"
    },
    {
        "Ad Extremas": "Augustissimae Virginis Mariae",
        "NO-HEADER1": "",
        "NO-HEADER2": "",
        "June 24 , 1893": "September 12 , 1897"
    },
    {
        "Ad Extremas": "Auspicato Concessum",
        "NO-HEADER1": "",
        "NO-HEADER2": "",
        "June 24 , 1893": "September 17 , 1882"
    },
    {
        "Ad Extremas": "Caritatis Studium",
        "NO-HEADER1": "",
        "NO-HEADER2": "",
        "June 24 , 1893": "July 25 , 1898"
    },
    {
        "Ad Extremas": "Catholicae Ecclesiae",
        "NO-HEADER1": "",
        "NO-HEADER2": "",
        "June 24 , 1893": "November 20 , 1890"
    },
    {
        "Ad Extremas": "Christi Nomen",
        "NO-HEADER1": "",
        "NO-HEADER2": "",
        "June 24 , 1893": "December 24 , 1894"
    },
    {
        "Ad Extremas": "Constanti Hungarorum",
        "NO-HEADER1": "",
        "NO-HEADER2": "",
        "June 24 , 1893": "September 2 , 1893"
    },
    {
        "Ad Extremas": "Cum Multa",
        "NO-HEADER1": "",
        "NO-HEADER2": "",
        "June 24 , 1893": "December 8 , 1882"
    },
    {
        "Ad Extremas": "Custodi Di Quella Fede",
        "NO-HEADER1": "",
        "NO-HEADER2": "",
        "June 24 , 1893": "December 8 , 1892"
    },
    {
        "Ad Extremas": "Dall'alto Dell'apostolico Seggio",
        "NO-HEADER1": "",
        "NO-HEADER2": "",
        "June 24 , 1893": "October 15 , 1890"
    },
    {
        "Ad Extremas": "Depuis Le Jour",
        "NO-HEADER1": "",
        "NO-HEADER2": "",
        "June 24 , 1893": "September 8 , 1899"
    },
    {
        "Ad Extremas": "Diuturni Temporis",
        "NO-HEADER1": "",
        "NO-HEADER2": "",
        "June 24 , 1893": "September 5 , 1898"
    },
    {
        "Ad Extremas": "Diuturnum",
        "NO-HEADER1": "",
        "NO-HEADER2": "",
        "June 24 , 1893": "June 29 , 1881"
    },
    {
        "Ad Extremas": "Divinum Illud Munus",
        "NO-HEADER1": "",
        "NO-HEADER2": "",
        "June 24 , 1893": "May 9 , 1897"
    },
    {
        "Ad Extremas": "Dum Multa",
        "NO-HEADER1": "",
        "NO-HEADER2": "",
        "June 24 , 1893": "December 24 , 1902"
    },
    {
        "Ad Extremas": "Etsi Cunctas",
        "NO-HEADER1": "",
        "NO-HEADER2": "",
        "June 24 , 1893": "December 21 , 1888"
    },
    {
        "Ad Extremas": "Etsi Nos",
        "NO-HEADER1": "",
        "NO-HEADER2": "",
        "June 24 , 1893": "February 15 , 1882"
    },
    {
        "Ad Extremas": "Exeunte Iam Anno",
        "NO-HEADER1": "",
        "NO-HEADER2": "",
        "June 24 , 1893": "December 25 , 1888"
    },
    {
        "Ad Extremas": "Fidentem Piumque Animum",
        "NO-HEADER1": "",
        "NO-HEADER2": "",
        "June 24 , 1893": "September 20 , 1896"
    },
    {
        "Ad Extremas": "Fin Dal Principio",
        "NO-HEADER1": "",
        "NO-HEADER2": "",
        "June 24 , 1893": "December 8 , 1902"
    },
    {
        "Ad Extremas": "Grande Munus",
        "NO-HEADER1": "",
        "NO-HEADER2": "",
        "June 24 , 1893": "September 30 , 1880"
    },
    {
        "Ad Extremas": "Graves De Communi Re",
        "NO-HEADER1": "",
        "NO-HEADER2": "",
        "June 24 , 1893": "January 18 , 1901"
    },
    {
        "Ad Extremas": "Gravissimas",
        "NO-HEADER1": "",
        "NO-HEADER2": "",
        "June 24 , 1893": "May 16 , 1901"
    },
    {
        "Ad Extremas": "Humanum Genus",
        "NO-HEADER1": "",
        "NO-HEADER2": "",
        "June 24 , 1893": "April 20 , 1884"
    },
    {
        "Ad Extremas": "Iampridem",
        "NO-HEADER1": "",
        "NO-HEADER2": "",
        "June 24 , 1893": "January 6 , 1886"
    },
    {
        "Ad Extremas": "Immortale Dei",
        "NO-HEADER1": "",
        "NO-HEADER2": "",
        "June 24 , 1893": "November 1 , 1885"
    },
    {
        "Ad Extremas": "In Amplissimo",
        "NO-HEADER1": "",
        "NO-HEADER2": "",
        "June 24 , 1893": "April 15 , 1902"
    },
    {
        "Ad Extremas": "In Ipso",
        "NO-HEADER1": "",
        "NO-HEADER2": "",
        "June 24 , 1893": "March 3 , 1891"
    },
    {
        "Ad Extremas": "In Plurimis",
        "NO-HEADER1": "",
        "NO-HEADER2": "",
        "June 24 , 1893": "May 5 , 1888"
    },
    {
        "Ad Extremas": "Inimica Vis",
        "NO-HEADER1": "",
        "NO-HEADER2": "",
        "June 24 , 1893": "December 8 , 1892"
    },
    {
        "Ad Extremas": "Inscrutabili Dei Consilio",
        "NO-HEADER1": "",
        "NO-HEADER2": "",
        "June 24 , 1893": "April 21 , 1878"
    },
    {
        "Ad Extremas": "Insignes",
        "NO-HEADER1": "",
        "NO-HEADER2": "",
        "June 24 , 1893": "May 1 , 1896"
    },
    {
        "Ad Extremas": "Iucunda Semper Expectatione",
        "NO-HEADER1": "",
        "NO-HEADER2": "",
        "June 24 , 1893": "September 8 , 1894"
    },
    {
        "Ad Extremas": "Laetitiae Sanctae",
        "NO-HEADER1": "",
        "NO-HEADER2": "",
        "June 24 , 1893": "September 8 , 1893"
    },
    {
        "Ad Extremas": "Libertas",
        "NO-HEADER1": "",
        "NO-HEADER2": "",
        "June 24 , 1893": "June 20 , 1888"
    },
    {
        "Ad Extremas": "Licet Multa",
        "NO-HEADER1": "",
        "NO-HEADER2": "",
        "June 24 , 1893": "August 3 , 1881"
    },
    {
        "Ad Extremas": "Litteras A Vobis",
        "NO-HEADER1": "",
        "NO-HEADER2": "",
        "June 24 , 1893": "July 2 , 1894"
    },
    {
        "Ad Extremas": "Longinqua",
        "NO-HEADER1": "",
        "NO-HEADER2": "",
        "June 24 , 1893": "January 6 , 1895"
    },
    {
        "Ad Extremas": "Magnae Dei Matris",
        "NO-HEADER1": "",
        "NO-HEADER2": "",
        "June 24 , 1893": "September 8 , 1892"
    },
    {
        "Ad Extremas": "Magni Nobis",
        "NO-HEADER1": "",
        "NO-HEADER2": "",
        "June 24 , 1893": "March 7 , 1889"
    },
    {
        "Ad Extremas": "Militantis Ecclesiae",
        "NO-HEADER1": "",
        "NO-HEADER2": "",
        "June 24 , 1893": "August 1 , 1897"
    },
    {
        "Ad Extremas": "Mirae Caritatis",
        "NO-HEADER1": "",
        "NO-HEADER2": "",
        "June 24 , 1893": "May 28 , 1902"
    },
    {
        "Ad Extremas": "",
        "NO-HEADER1": "",
        "NO-HEADER2": "",
        "June 24 , 1893": ""
    },
    {
        "Ad Extremas": "Nobilissima Gallorum Gens",
        "NO-HEADER1": "",
        "NO-HEADER2": "",
        "June 24 , 1893": "February 8 , 1884"
    },
    {
        "Ad Extremas": "Octobri Mense",
        "NO-HEADER1": "",
        "NO-HEADER2": "",
        "June 24 , 1893": "September 22 , 1891"
    },
    {
        "Ad Extremas": "Officio Sanctissimo",
        "NO-HEADER1": "",
        "NO-HEADER2": "",
        "June 24 , 1893": "December 22 , 1887"
    },
    {
        "Ad Extremas": "Omnibus Compertum",
        "NO-HEADER1": "",
        "NO-HEADER2": "",
        "June 24 , 1893": "July 21 , 1900"
    },
    {
        "Ad Extremas": "Orientalium Dignitas",
        "NO-HEADER1": "",
        "NO-HEADER2": "",
        "June 24 , 1893": "November 30 , 1894"
    },
    {
        "Ad Extremas": "Pastoralis Officii",
        "NO-HEADER1": "",
        "NO-HEADER2": "",
        "June 24 , 1893": "September 12 , 1891"
    },
    {
        "Ad Extremas": "Pastoralis",
        "NO-HEADER1": "",
        "NO-HEADER2": "",
        "June 24 , 1893": "June 25 , 1891"
    },
    {
        "Ad Extremas": "Paternae",
        "NO-HEADER1": "",
        "NO-HEADER2": "",
        "June 24 , 1893": "September 18 , 1899"
    },
    {
        "Ad Extremas": "Pergrata",
        "NO-HEADER1": "",
        "NO-HEADER2": "",
        "June 24 , 1893": "September 14 , 1886"
    },
    {
        "Ad Extremas": "Permoti Nos",
        "NO-HEADER1": "",
        "NO-HEADER2": "",
        "June 24 , 1893": "July 10 , 1895"
    },
    {
        "Ad Extremas": "",
        "NO-HEADER1": "",
        "NO-HEADER2": "",
        "June 24 , 1893": ""
    },
    {
        "Ad Extremas": "Providentissimus Deus",
        "NO-HEADER1": "",
        "NO-HEADER2": "",
        "June 24 , 1893": "November 18 , 1893"
    },
    {
        "Ad Extremas": "Quae Ad Nos",
        "NO-HEADER1": "",
        "NO-HEADER2": "",
        "June 24 , 1893": "November 22 , 1902"
    },
    {
        "Ad Extremas": "Quam Aerumnosa",
        "NO-HEADER1": "",
        "NO-HEADER2": "",
        "June 24 , 1893": "December 10 , 1888"
    },
    {
        "Ad Extremas": "Quam Religiosa",
        "NO-HEADER1": "",
        "NO-HEADER2": "",
        "June 24 , 1893": "August 16 , 1898"
    },
    {
        "Ad Extremas": "Quamquam Pluries",
        "NO-HEADER1": "",
        "NO-HEADER2": "",
        "June 24 , 1893": "August 15 , 1889"
    },
    {
        "Ad Extremas": "Quarto Abeunte Saeculo",
        "NO-HEADER1": "",
        "NO-HEADER2": "",
        "June 24 , 1893": "July 16 , 1892"
    },
    {
        "Ad Extremas": "Quod Anniversarius",
        "NO-HEADER1": "",
        "NO-HEADER2": "",
        "June 24 , 1893": "April 1 , 1888"
    },
    {
        "Ad Extremas": "Quod Apostolici Muneris",
        "NO-HEADER1": "",
        "NO-HEADER2": "",
        "June 24 , 1893": "December 28 , 1878"
    },
    {
        "Ad Extremas": "Quod Auctoritate",
        "NO-HEADER1": "",
        "NO-HEADER2": "",
        "June 24 , 1893": "December 22 , 1885"
    },
    {
        "Ad Extremas": "Quod Multum",
        "NO-HEADER1": "",
        "NO-HEADER2": "",
        "June 24 , 1893": "August 22 , 1886"
    },
    {
        "Ad Extremas": "Quod Votis",
        "NO-HEADER1": "",
        "NO-HEADER2": "",
        "June 24 , 1893": "April 30 , 1902"
    },
    {
        "Ad Extremas": "Quum Diuturnum",
        "NO-HEADER1": "",
        "NO-HEADER2": "",
        "June 24 , 1893": "December 25 , 1898"
    },
    {
        "Ad Extremas": "Reputantiubus",
        "NO-HEADER1": "",
        "NO-HEADER2": "",
        "June 24 , 1893": "August 20 , 1901"
    },
    {
        "Ad Extremas": "Rerum Novarum",
        "NO-HEADER1": "",
        "NO-HEADER2": "",
        "June 24 , 1893": "May 15 , 1891"
    },
    {
        "Ad Extremas": "Saepe Nos",
        "NO-HEADER1": "",
        "NO-HEADER2": "",
        "June 24 , 1893": "June 24 , 1888"
    },
    {
        "Ad Extremas": "Sancta Dei Civitas",
        "NO-HEADER1": "",
        "NO-HEADER2": "",
        "June 24 , 1893": "December 3 , 1880"
    },
    {
        "Ad Extremas": "Sapientiae Christianae",
        "NO-HEADER1": "",
        "NO-HEADER2": "",
        "June 24 , 1893": "January 10 , 1890"
    },
    {
        "Ad Extremas": "Satis Cognitum",
        "NO-HEADER1": "",
        "NO-HEADER2": "",
        "June 24 , 1893": "June 29 , 1896"
    },
    {
        "Ad Extremas": "Spectata Fides",
        "NO-HEADER1": "",
        "NO-HEADER2": "",
        "June 24 , 1893": "November 27 , 1885"
    },
    {
        "Ad Extremas": "Spesse Volte",
        "NO-HEADER1": "",
        "NO-HEADER2": "",
        "June 24 , 1893": "August 5 , 1898"
    },
    {
        "Ad Extremas": "Superiore Anno",
        "NO-HEADER1": "",
        "NO-HEADER2": "",
        "June 24 , 1893": "August 30 , 1884"
    },
    {
        "Ad Extremas": "Supremi Apostolatus Officio",
        "NO-HEADER1": "",
        "NO-HEADER2": "",
        "June 24 , 1893": "September 1 , 1883"
    },
    {
        "Ad Extremas": "Tametsi Futura Prospicientibus",
        "NO-HEADER1": "",
        "NO-HEADER2": "",
        "June 24 , 1893": "November 1 , 1900"
    },
    {
        "Ad Extremas": "Testem Benevolentiae Nostrae",
        "NO-HEADER1": "",
        "NO-HEADER2": "",
        "June 24 , 1893": "January 22 , 1899"
    },
    {
        "Ad Extremas": "Urbanitatis Veteris",
        "NO-HEADER1": "",
        "NO-HEADER2": "",
        "June 24 , 1893": "November 20 , 1901"
    },
    {
        "Ad Extremas": "Vi E Ben Noto",
        "NO-HEADER1": "",
        "NO-HEADER2": "",
        "June 24 , 1893": "September 20 , 1887"
    }
]