[
    {
        "NO-HEADER0": "",
        "NO-HEADER1": "Vector Prime",
        "NO-HEADER2": "R . A . Salvatore",
        "NO-HEADER3": ""
    },
    {
        "NO-HEADER0": "",
        "NO-HEADER1": "Dark Tide I - Onslaught",
        "NO-HEADER2": "Michael A . Stackpole",
        "NO-HEADER3": ""
    },
    {
        "NO-HEADER0": "",
        "NO-HEADER1": "Dark Tide II - Ruin",
        "NO-HEADER2": "Michael A . Stackpole",
        "NO-HEADER3": ""
    },
    {
        "NO-HEADER0": "",
        "NO-HEADER1": "Hero's Trial - Agents of Chaos I",
        "NO-HEADER2": "James Luceno",
        "NO-HEADER3": ""
    },
    {
        "NO-HEADER0": "",
        "NO-HEADER1": "Jedi Eclipse - Agents of Chaos II by",
        "NO-HEADER2": "Luceno",
        "NO-HEADER3": ""
    },
    {
        "NO-HEADER0": "",
        "NO-HEADER1": "Balance Point",
        "NO-HEADER2": "Kathy Tyers",
        "NO-HEADER3": ""
    },
    {
        "NO-HEADER0": "",
        "NO-HEADER1": "Conquest - Edge of Victory 1",
        "NO-HEADER2": "Greg Keyes",
        "NO-HEADER3": ""
    },
    {
        "NO-HEADER0": "",
        "NO-HEADER1": "Rebirth - Edge of Victory II",
        "NO-HEADER2": "Greg Keyes",
        "NO-HEADER3": ""
    },
    {
        "NO-HEADER0": "",
        "NO-HEADER1": "Star by Star -",
        "NO-HEADER2": "",
        "NO-HEADER3": ""
    },
    {
        "NO-HEADER0": "",
        "NO-HEADER1": "Dark Journey",
        "NO-HEADER2": "Elaine Cunningham",
        "NO-HEADER3": ""
    },
    {
        "NO-HEADER0": "",
        "NO-HEADER1": "Rebel Dream - Enemy Lines I",
        "NO-HEADER2": "Aaron Allston",
        "NO-HEADER3": ""
    },
    {
        "NO-HEADER0": "",
        "NO-HEADER1": "Rebel Stand - Enemy Lines II",
        "NO-HEADER2": "Aaron Allston",
        "NO-HEADER3": ""
    },
    {
        "NO-HEADER0": "",
        "NO-HEADER1": "Traitor",
        "NO-HEADER2": "",
        "NO-HEADER3": ""
    }
]