[
    {
        "Casino Royale": "Live and Let Die",
        "1953": "1954"
    },
    {
        "Casino Royale": "Moonraker",
        "1953": "1955"
    },
    {
        "Casino Royale": "Diamonds are Forever",
        "1953": "1956"
    },
    {
        "Casino Royale": "From Russia with Love",
        "1953": "1957"
    },
    {
        "Casino Royale": "Dr . No",
        "1953": "1958"
    },
    {
        "Casino Royale": "Goldfinger",
        "1953": "1959"
    },
    {
        "Casino Royale": "Thunderball",
        "1953": "1961"
    },
    {
        "Casino Royale": "The Spy Who Loved Me",
        "1953": "1962"
    },
    {
        "Casino Royale": "On Her Majesty's Secret Service",
        "1953": "1963"
    },
    {
        "Casino Royale": "You Only Live Twice",
        "1953": "1964"
    },
    {
        "Casino Royale": "The Man with the Golden Gun",
        "1953": "1965"
    }
]