[
    {
        "NO-HEADER0": "",
        "NO-HEADER1": "",
        "NO-HEADER2": "",
        "NO-HEADER3": "",
        "NO-HEADER4": ""
    },
    {
        "NO-HEADER0": "",
        "NO-HEADER1": "",
        "NO-HEADER2": "",
        "NO-HEADER3": "",
        "NO-HEADER4": ""
    },
    {
        "NO-HEADER0": "",
        "NO-HEADER1": "",
        "NO-HEADER2": "",
        "NO-HEADER3": "",
        "NO-HEADER4": ""
    },
    {
        "NO-HEADER0": "",
        "NO-HEADER1": "",
        "NO-HEADER2": "",
        "NO-HEADER3": "",
        "NO-HEADER4": ""
    },
    {
        "NO-HEADER0": "",
        "NO-HEADER1": "",
        "NO-HEADER2": "",
        "NO-HEADER3": "",
        "NO-HEADER4": ""
    },
    {
        "NO-HEADER0": "",
        "NO-HEADER1": "",
        "NO-HEADER2": "",
        "NO-HEADER3": "",
        "NO-HEADER4": ""
    },
    {
        "NO-HEADER0": "",
        "NO-HEADER1": "",
        "NO-HEADER2": "",
        "NO-HEADER3": "",
        "NO-HEADER4": ""
    },
    {
        "NO-HEADER0": "",
        "NO-HEADER1": "",
        "NO-HEADER2": "",
        "NO-HEADER3": "",
        "NO-HEADER4": ""
    },
    {
        "NO-HEADER0": "",
        "NO-HEADER1": "",
        "NO-HEADER2": "",
        "NO-HEADER3": "",
        "NO-HEADER4": ""
    },
    {
        "NO-HEADER0": "",
        "NO-HEADER1": "",
        "NO-HEADER2": "",
        "NO-HEADER3": "",
        "NO-HEADER4": ""
    }
]