[
    {
        "Brock University": "Carleton University",
        "St . Catharines": "Ottawa",
        "NO-HEADER2": "",
        "NO-HEADER3": "",
        "NO-HEADER4": ""
    },
    {
        "Brock University": "Lakehead University",
        "St . Catharines": "Thunder Bay",
        "NO-HEADER2": "",
        "NO-HEADER3": "",
        "NO-HEADER4": ""
    },
    {
        "Brock University": "Laurentian University",
        "St . Catharines": "Sudbury",
        "NO-HEADER2": "",
        "NO-HEADER3": "",
        "NO-HEADER4": ""
    },
    {
        "Brock University": "McMaster University",
        "St . Catharines": "Hamilton",
        "NO-HEADER2": "",
        "NO-HEADER3": "",
        "NO-HEADER4": ""
    },
    {
        "Brock University": "Nipissing University",
        "St . Catharines": "North Bay",
        "NO-HEADER2": "",
        "NO-HEADER3": "",
        "NO-HEADER4": ""
    },
    {
        "Brock University": "Queen's University",
        "St . Catharines": "Kingston",
        "NO-HEADER2": "",
        "NO-HEADER3": "",
        "NO-HEADER4": ""
    },
    {
        "Brock University": "Royal Military College of Canada",
        "St . Catharines": "Kingston",
        "NO-HEADER2": "",
        "NO-HEADER3": "",
        "NO-HEADER4": ""
    },
    {
        "Brock University": "Ryerson University",
        "St . Catharines": "Toronto",
        "NO-HEADER2": "",
        "NO-HEADER3": "",
        "NO-HEADER4": ""
    },
    {
        "Brock University": "Trent University",
        "St . Catharines": "Peterborough",
        "NO-HEADER2": "",
        "NO-HEADER3": "",
        "NO-HEADER4": ""
    },
    {
        "Brock University": "University of Guelph",
        "St . Catharines": "Guelph",
        "NO-HEADER2": "",
        "NO-HEADER3": "",
        "NO-HEADER4": ""
    },
    {
        "Brock University": "University of Ontario Institute of Technology",
        "St . Catharines": "Oshawa",
        "NO-HEADER2": "",
        "NO-HEADER3": "",
        "NO-HEADER4": ""
    },
    {
        "Brock University": "University of Ottawa",
        "St . Catharines": "Ottawa",
        "NO-HEADER2": "",
        "NO-HEADER3": "",
        "NO-HEADER4": ""
    },
    {
        "Brock University": "University of Toronto",
        "St . Catharines": "Toronto",
        "NO-HEADER2": "",
        "NO-HEADER3": "",
        "NO-HEADER4": ""
    },
    {
        "Brock University": "University of Waterloo",
        "St . Catharines": "Waterloo",
        "NO-HEADER2": "",
        "NO-HEADER3": "",
        "NO-HEADER4": ""
    },
    {
        "Brock University": "University of Western Ontario",
        "St . Catharines": "London",
        "NO-HEADER2": "",
        "NO-HEADER3": "",
        "NO-HEADER4": ""
    },
    {
        "Brock University": "University of Windsor",
        "St . Catharines": "Windsor",
        "NO-HEADER2": "",
        "NO-HEADER3": "",
        "NO-HEADER4": ""
    },
    {
        "Brock University": "Wilfrid Laurier University",
        "St . Catharines": "Waterloo",
        "NO-HEADER2": "",
        "NO-HEADER3": "",
        "NO-HEADER4": ""
    },
    {
        "Brock University": "York University",
        "St . Catharines": "Toronto",
        "NO-HEADER2": "",
        "NO-HEADER3": "",
        "NO-HEADER4": ""
    }
]