[
    {
        "House of Cards": "Into the Void",
        "NO-HEADER1": "",
        "1997": "1997"
    },
    {
        "House of Cards": "The Two - Front War",
        "NO-HEADER1": "",
        "1997": "1997"
    },
    {
        "House of Cards": "End Game",
        "NO-HEADER1": "",
        "1997": "1997"
    },
    {
        "House of Cards": "End Game",
        "NO-HEADER1": "",
        "1997": "1997"
    },
    {
        "House of Cards": "House of Cards",
        "NO-HEADER1": "",
        "1997": "1997"
    },
    {
        "House of Cards": "Into the Void",
        "NO-HEADER1": "",
        "1997": "1997"
    },
    {
        "House of Cards": "The Two - Front War",
        "NO-HEADER1": "",
        "1997": "1997"
    },
    {
        "House of Cards": "",
        "NO-HEADER1": "",
        "1997": ""
    },
    {
        "House of Cards": "Martyr",
        "NO-HEADER1": "",
        "1997": "1998"
    },
    {
        "House of Cards": "Fire on High",
        "NO-HEADER1": "",
        "1997": "1998"
    },
    {
        "House of Cards": "Once Burned",
        "NO-HEADER1": "",
        "1997": "1998"
    },
    {
        "House of Cards": "Fire on High",
        "NO-HEADER1": "",
        "1997": "1998"
    },
    {
        "House of Cards": "Martyr",
        "NO-HEADER1": "",
        "1997": "1998"
    }
]